%!PS-Adobe-2.0 EPSF-2.0
%%Title: gnuplot_inv_y.vs.turn_18GeV.eps
%%Creator: gnuplot 5.2 patchlevel 2
%%CreationDate: Tue May  5 22:38:55 2020
%%DocumentFonts: (atend)
%%BoundingBox: 50 50 410 302
%%EndComments
%%BeginProlog
/gnudict 256 dict def
gnudict begin
%
% The following true/false flags may be edited by hand if desired.
% The unit line width and grayscale image gamma correction may also be changed.
%
/Color true def
/Blacktext true def
/Solid false def
/Dashlength 1 def
/Landscape false def
/Level1 false def
/Level3 false def
/Rounded false def
/ClipToBoundingBox false def
/SuppressPDFMark false def
/TransparentPatterns false def
/gnulinewidth 5.000 def
/userlinewidth gnulinewidth def
/Gamma 1.0 def
/BackgroundColor {-1.000 -1.000 -1.000} def
%
/vshift -46 def
/dl1 {
  10.0 Dashlength userlinewidth gnulinewidth div mul mul mul
  Rounded { currentlinewidth 0.75 mul sub dup 0 le { pop 0.01 } if } if
} def
/dl2 {
  10.0 Dashlength userlinewidth gnulinewidth div mul mul mul
  Rounded { currentlinewidth 0.75 mul add } if
} def
/hpt_ 31.5 def
/vpt_ 31.5 def
/hpt hpt_ def
/vpt vpt_ def
/doclip {
  ClipToBoundingBox {
    newpath 50 50 moveto 410 50 lineto 410 302 lineto 50 302 lineto closepath
    clip
  } if
} def
%
% Gnuplot Prolog Version 5.1 (Oct 2015)
%
%/SuppressPDFMark true def
%
/M {moveto} bind def
/L {lineto} bind def
/R {rmoveto} bind def
/V {rlineto} bind def
/N {newpath moveto} bind def
/Z {closepath} bind def
/C {setrgbcolor} bind def
/f {rlineto fill} bind def
/g {setgray} bind def
/Gshow {show} def   % May be redefined later in the file to support UTF-8
/vpt2 vpt 2 mul def
/hpt2 hpt 2 mul def
/Lshow {currentpoint stroke M 0 vshift R 
	Blacktext {gsave 0 setgray textshow grestore} {textshow} ifelse} def
/Rshow {currentpoint stroke M dup stringwidth pop neg vshift R
	Blacktext {gsave 0 setgray textshow grestore} {textshow} ifelse} def
/Cshow {currentpoint stroke M dup stringwidth pop -2 div vshift R 
	Blacktext {gsave 0 setgray textshow grestore} {textshow} ifelse} def
/UP {dup vpt_ mul /vpt exch def hpt_ mul /hpt exch def
  /hpt2 hpt 2 mul def /vpt2 vpt 2 mul def} def
/DL {Color {setrgbcolor Solid {pop []} if 0 setdash}
 {pop pop pop 0 setgray Solid {pop []} if 0 setdash} ifelse} def
/BL {stroke userlinewidth 2 mul setlinewidth
	Rounded {1 setlinejoin 1 setlinecap} if} def
/AL {stroke userlinewidth 2 div setlinewidth
	Rounded {1 setlinejoin 1 setlinecap} if} def
/UL {dup gnulinewidth mul /userlinewidth exch def
	dup 1 lt {pop 1} if 10 mul /udl exch def} def
/PL {stroke userlinewidth setlinewidth
	Rounded {1 setlinejoin 1 setlinecap} if} def
3.8 setmiterlimit
% Classic Line colors (version 5.0)
/LCw {1 1 1} def
/LCb {0 0 0} def
/LCa {0 0 0} def
/LC0 {1 0 0} def
/LC1 {0 1 0} def
/LC2 {0 0 1} def
/LC3 {1 0 1} def
/LC4 {0 1 1} def
/LC5 {1 1 0} def
/LC6 {0 0 0} def
/LC7 {1 0.3 0} def
/LC8 {0.5 0.5 0.5} def
% Default dash patterns (version 5.0)
/LTB {BL [] LCb DL} def
/LTw {PL [] 1 setgray} def
/LTb {PL [] LCb DL} def
/LTa {AL [1 udl mul 2 udl mul] 0 setdash LCa setrgbcolor} def
/LT0 {PL [] LC0 DL} def
/LT1 {PL [2 dl1 3 dl2] LC1 DL} def
/LT2 {PL [1 dl1 1.5 dl2] LC2 DL} def
/LT3 {PL [6 dl1 2 dl2 1 dl1 2 dl2] LC3 DL} def
/LT4 {PL [1 dl1 2 dl2 6 dl1 2 dl2 1 dl1 2 dl2] LC4 DL} def
/LT5 {PL [4 dl1 2 dl2] LC5 DL} def
/LT6 {PL [1.5 dl1 1.5 dl2 1.5 dl1 1.5 dl2 1.5 dl1 6 dl2] LC6 DL} def
/LT7 {PL [3 dl1 3 dl2 1 dl1 3 dl2] LC7 DL} def
/LT8 {PL [2 dl1 2 dl2 2 dl1 6 dl2] LC8 DL} def
/SL {[] 0 setdash} def
/Pnt {stroke [] 0 setdash gsave 1 setlinecap M 0 0 V stroke grestore} def
/Dia {stroke [] 0 setdash 2 copy vpt add M
  hpt neg vpt neg V hpt vpt neg V
  hpt vpt V hpt neg vpt V closepath stroke
  Pnt} def
/Pls {stroke [] 0 setdash vpt sub M 0 vpt2 V
  currentpoint stroke M
  hpt neg vpt neg R hpt2 0 V stroke
 } def
/Box {stroke [] 0 setdash 2 copy exch hpt sub exch vpt add M
  0 vpt2 neg V hpt2 0 V 0 vpt2 V
  hpt2 neg 0 V closepath stroke
  Pnt} def
/Crs {stroke [] 0 setdash exch hpt sub exch vpt add M
  hpt2 vpt2 neg V currentpoint stroke M
  hpt2 neg 0 R hpt2 vpt2 V stroke} def
/TriU {stroke [] 0 setdash 2 copy vpt 1.12 mul add M
  hpt neg vpt -1.62 mul V
  hpt 2 mul 0 V
  hpt neg vpt 1.62 mul V closepath stroke
  Pnt} def
/Star {2 copy Pls Crs} def
/BoxF {stroke [] 0 setdash exch hpt sub exch vpt add M
  0 vpt2 neg V hpt2 0 V 0 vpt2 V
  hpt2 neg 0 V closepath fill} def
/TriUF {stroke [] 0 setdash vpt 1.12 mul add M
  hpt neg vpt -1.62 mul V
  hpt 2 mul 0 V
  hpt neg vpt 1.62 mul V closepath fill} def
/TriD {stroke [] 0 setdash 2 copy vpt 1.12 mul sub M
  hpt neg vpt 1.62 mul V
  hpt 2 mul 0 V
  hpt neg vpt -1.62 mul V closepath stroke
  Pnt} def
/TriDF {stroke [] 0 setdash vpt 1.12 mul sub M
  hpt neg vpt 1.62 mul V
  hpt 2 mul 0 V
  hpt neg vpt -1.62 mul V closepath fill} def
/DiaF {stroke [] 0 setdash vpt add M
  hpt neg vpt neg V hpt vpt neg V
  hpt vpt V hpt neg vpt V closepath fill} def
/Pent {stroke [] 0 setdash 2 copy gsave
  translate 0 hpt M 4 {72 rotate 0 hpt L} repeat
  closepath stroke grestore Pnt} def
/PentF {stroke [] 0 setdash gsave
  translate 0 hpt M 4 {72 rotate 0 hpt L} repeat
  closepath fill grestore} def
/Circle {stroke [] 0 setdash 2 copy
  hpt 0 360 arc stroke Pnt} def
/CircleF {stroke [] 0 setdash hpt 0 360 arc fill} def
/C0 {BL [] 0 setdash 2 copy moveto vpt 90 450 arc} bind def
/C1 {BL [] 0 setdash 2 copy moveto
	2 copy vpt 0 90 arc closepath fill
	vpt 0 360 arc closepath} bind def
/C2 {BL [] 0 setdash 2 copy moveto
	2 copy vpt 90 180 arc closepath fill
	vpt 0 360 arc closepath} bind def
/C3 {BL [] 0 setdash 2 copy moveto
	2 copy vpt 0 180 arc closepath fill
	vpt 0 360 arc closepath} bind def
/C4 {BL [] 0 setdash 2 copy moveto
	2 copy vpt 180 270 arc closepath fill
	vpt 0 360 arc closepath} bind def
/C5 {BL [] 0 setdash 2 copy moveto
	2 copy vpt 0 90 arc
	2 copy moveto
	2 copy vpt 180 270 arc closepath fill
	vpt 0 360 arc} bind def
/C6 {BL [] 0 setdash 2 copy moveto
	2 copy vpt 90 270 arc closepath fill
	vpt 0 360 arc closepath} bind def
/C7 {BL [] 0 setdash 2 copy moveto
	2 copy vpt 0 270 arc closepath fill
	vpt 0 360 arc closepath} bind def
/C8 {BL [] 0 setdash 2 copy moveto
	2 copy vpt 270 360 arc closepath fill
	vpt 0 360 arc closepath} bind def
/C9 {BL [] 0 setdash 2 copy moveto
	2 copy vpt 270 450 arc closepath fill
	vpt 0 360 arc closepath} bind def
/C10 {BL [] 0 setdash 2 copy 2 copy moveto vpt 270 360 arc closepath fill
	2 copy moveto
	2 copy vpt 90 180 arc closepath fill
	vpt 0 360 arc closepath} bind def
/C11 {BL [] 0 setdash 2 copy moveto
	2 copy vpt 0 180 arc closepath fill
	2 copy moveto
	2 copy vpt 270 360 arc closepath fill
	vpt 0 360 arc closepath} bind def
/C12 {BL [] 0 setdash 2 copy moveto
	2 copy vpt 180 360 arc closepath fill
	vpt 0 360 arc closepath} bind def
/C13 {BL [] 0 setdash 2 copy moveto
	2 copy vpt 0 90 arc closepath fill
	2 copy moveto
	2 copy vpt 180 360 arc closepath fill
	vpt 0 360 arc closepath} bind def
/C14 {BL [] 0 setdash 2 copy moveto
	2 copy vpt 90 360 arc closepath fill
	vpt 0 360 arc} bind def
/C15 {BL [] 0 setdash 2 copy vpt 0 360 arc closepath fill
	vpt 0 360 arc closepath} bind def
/Rec {newpath 4 2 roll moveto 1 index 0 rlineto 0 exch rlineto
	neg 0 rlineto closepath} bind def
/Square {dup Rec} bind def
/Bsquare {vpt sub exch vpt sub exch vpt2 Square} bind def
/S0 {BL [] 0 setdash 2 copy moveto 0 vpt rlineto BL Bsquare} bind def
/S1 {BL [] 0 setdash 2 copy vpt Square fill Bsquare} bind def
/S2 {BL [] 0 setdash 2 copy exch vpt sub exch vpt Square fill Bsquare} bind def
/S3 {BL [] 0 setdash 2 copy exch vpt sub exch vpt2 vpt Rec fill Bsquare} bind def
/S4 {BL [] 0 setdash 2 copy exch vpt sub exch vpt sub vpt Square fill Bsquare} bind def
/S5 {BL [] 0 setdash 2 copy 2 copy vpt Square fill
	exch vpt sub exch vpt sub vpt Square fill Bsquare} bind def
/S6 {BL [] 0 setdash 2 copy exch vpt sub exch vpt sub vpt vpt2 Rec fill Bsquare} bind def
/S7 {BL [] 0 setdash 2 copy exch vpt sub exch vpt sub vpt vpt2 Rec fill
	2 copy vpt Square fill Bsquare} bind def
/S8 {BL [] 0 setdash 2 copy vpt sub vpt Square fill Bsquare} bind def
/S9 {BL [] 0 setdash 2 copy vpt sub vpt vpt2 Rec fill Bsquare} bind def
/S10 {BL [] 0 setdash 2 copy vpt sub vpt Square fill 2 copy exch vpt sub exch vpt Square fill
	Bsquare} bind def
/S11 {BL [] 0 setdash 2 copy vpt sub vpt Square fill 2 copy exch vpt sub exch vpt2 vpt Rec fill
	Bsquare} bind def
/S12 {BL [] 0 setdash 2 copy exch vpt sub exch vpt sub vpt2 vpt Rec fill Bsquare} bind def
/S13 {BL [] 0 setdash 2 copy exch vpt sub exch vpt sub vpt2 vpt Rec fill
	2 copy vpt Square fill Bsquare} bind def
/S14 {BL [] 0 setdash 2 copy exch vpt sub exch vpt sub vpt2 vpt Rec fill
	2 copy exch vpt sub exch vpt Square fill Bsquare} bind def
/S15 {BL [] 0 setdash 2 copy Bsquare fill Bsquare} bind def
/D0 {gsave translate 45 rotate 0 0 S0 stroke grestore} bind def
/D1 {gsave translate 45 rotate 0 0 S1 stroke grestore} bind def
/D2 {gsave translate 45 rotate 0 0 S2 stroke grestore} bind def
/D3 {gsave translate 45 rotate 0 0 S3 stroke grestore} bind def
/D4 {gsave translate 45 rotate 0 0 S4 stroke grestore} bind def
/D5 {gsave translate 45 rotate 0 0 S5 stroke grestore} bind def
/D6 {gsave translate 45 rotate 0 0 S6 stroke grestore} bind def
/D7 {gsave translate 45 rotate 0 0 S7 stroke grestore} bind def
/D8 {gsave translate 45 rotate 0 0 S8 stroke grestore} bind def
/D9 {gsave translate 45 rotate 0 0 S9 stroke grestore} bind def
/D10 {gsave translate 45 rotate 0 0 S10 stroke grestore} bind def
/D11 {gsave translate 45 rotate 0 0 S11 stroke grestore} bind def
/D12 {gsave translate 45 rotate 0 0 S12 stroke grestore} bind def
/D13 {gsave translate 45 rotate 0 0 S13 stroke grestore} bind def
/D14 {gsave translate 45 rotate 0 0 S14 stroke grestore} bind def
/D15 {gsave translate 45 rotate 0 0 S15 stroke grestore} bind def
/DiaE {stroke [] 0 setdash vpt add M
  hpt neg vpt neg V hpt vpt neg V
  hpt vpt V hpt neg vpt V closepath stroke} def
/BoxE {stroke [] 0 setdash exch hpt sub exch vpt add M
  0 vpt2 neg V hpt2 0 V 0 vpt2 V
  hpt2 neg 0 V closepath stroke} def
/TriUE {stroke [] 0 setdash vpt 1.12 mul add M
  hpt neg vpt -1.62 mul V
  hpt 2 mul 0 V
  hpt neg vpt 1.62 mul V closepath stroke} def
/TriDE {stroke [] 0 setdash vpt 1.12 mul sub M
  hpt neg vpt 1.62 mul V
  hpt 2 mul 0 V
  hpt neg vpt -1.62 mul V closepath stroke} def
/PentE {stroke [] 0 setdash gsave
  translate 0 hpt M 4 {72 rotate 0 hpt L} repeat
  closepath stroke grestore} def
/CircE {stroke [] 0 setdash 
  hpt 0 360 arc stroke} def
/Opaque {gsave closepath 1 setgray fill grestore 0 setgray closepath} def
/DiaW {stroke [] 0 setdash vpt add M
  hpt neg vpt neg V hpt vpt neg V
  hpt vpt V hpt neg vpt V Opaque stroke} def
/BoxW {stroke [] 0 setdash exch hpt sub exch vpt add M
  0 vpt2 neg V hpt2 0 V 0 vpt2 V
  hpt2 neg 0 V Opaque stroke} def
/TriUW {stroke [] 0 setdash vpt 1.12 mul add M
  hpt neg vpt -1.62 mul V
  hpt 2 mul 0 V
  hpt neg vpt 1.62 mul V Opaque stroke} def
/TriDW {stroke [] 0 setdash vpt 1.12 mul sub M
  hpt neg vpt 1.62 mul V
  hpt 2 mul 0 V
  hpt neg vpt -1.62 mul V Opaque stroke} def
/PentW {stroke [] 0 setdash gsave
  translate 0 hpt M 4 {72 rotate 0 hpt L} repeat
  Opaque stroke grestore} def
/CircW {stroke [] 0 setdash 
  hpt 0 360 arc Opaque stroke} def
/BoxFill {gsave Rec 1 setgray fill grestore} def
/Density {
  /Fillden exch def
  currentrgbcolor
  /ColB exch def /ColG exch def /ColR exch def
  /ColR ColR Fillden mul Fillden sub 1 add def
  /ColG ColG Fillden mul Fillden sub 1 add def
  /ColB ColB Fillden mul Fillden sub 1 add def
  ColR ColG ColB setrgbcolor} def
/BoxColFill {gsave Rec PolyFill} def
/PolyFill {gsave Density fill grestore grestore} def
/h {rlineto rlineto rlineto gsave closepath fill grestore} bind def
%
% PostScript Level 1 Pattern Fill routine for rectangles
% Usage: x y w h s a XX PatternFill
%	x,y = lower left corner of box to be filled
%	w,h = width and height of box
%	  a = angle in degrees between lines and x-axis
%	 XX = 0/1 for no/yes cross-hatch
%
/PatternFill {gsave /PFa [ 9 2 roll ] def
  PFa 0 get PFa 2 get 2 div add PFa 1 get PFa 3 get 2 div add translate
  PFa 2 get -2 div PFa 3 get -2 div PFa 2 get PFa 3 get Rec
  TransparentPatterns {} {gsave 1 setgray fill grestore} ifelse
  clip
  currentlinewidth 0.5 mul setlinewidth
  /PFs PFa 2 get dup mul PFa 3 get dup mul add sqrt def
  0 0 M PFa 5 get rotate PFs -2 div dup translate
  0 1 PFs PFa 4 get div 1 add floor cvi
	{PFa 4 get mul 0 M 0 PFs V} for
  0 PFa 6 get ne {
	0 1 PFs PFa 4 get div 1 add floor cvi
	{PFa 4 get mul 0 2 1 roll M PFs 0 V} for
 } if
  stroke grestore} def
%
/languagelevel where
 {pop languagelevel} {1} ifelse
dup 2 lt
	{/InterpretLevel1 true def
	 /InterpretLevel3 false def}
	{/InterpretLevel1 Level1 def
	 2 gt
	    {/InterpretLevel3 Level3 def}
	    {/InterpretLevel3 false def}
	 ifelse }
 ifelse
%
% PostScript level 2 pattern fill definitions
%
/Level2PatternFill {
/Tile8x8 {/PaintType 2 /PatternType 1 /TilingType 1 /BBox [0 0 8 8] /XStep 8 /YStep 8}
	bind def
/KeepColor {currentrgbcolor [/Pattern /DeviceRGB] setcolorspace} bind def
<< Tile8x8
 /PaintProc {0.5 setlinewidth pop 0 0 M 8 8 L 0 8 M 8 0 L stroke} 
>> matrix makepattern
/Pat1 exch def
<< Tile8x8
 /PaintProc {0.5 setlinewidth pop 0 0 M 8 8 L 0 8 M 8 0 L stroke
	0 4 M 4 8 L 8 4 L 4 0 L 0 4 L stroke}
>> matrix makepattern
/Pat2 exch def
<< Tile8x8
 /PaintProc {0.5 setlinewidth pop 0 0 M 0 8 L
	8 8 L 8 0 L 0 0 L fill}
>> matrix makepattern
/Pat3 exch def
<< Tile8x8
 /PaintProc {0.5 setlinewidth pop -4 8 M 8 -4 L
	0 12 M 12 0 L stroke}
>> matrix makepattern
/Pat4 exch def
<< Tile8x8
 /PaintProc {0.5 setlinewidth pop -4 0 M 8 12 L
	0 -4 M 12 8 L stroke}
>> matrix makepattern
/Pat5 exch def
<< Tile8x8
 /PaintProc {0.5 setlinewidth pop -2 8 M 4 -4 L
	0 12 M 8 -4 L 4 12 M 10 0 L stroke}
>> matrix makepattern
/Pat6 exch def
<< Tile8x8
 /PaintProc {0.5 setlinewidth pop -2 0 M 4 12 L
	0 -4 M 8 12 L 4 -4 M 10 8 L stroke}
>> matrix makepattern
/Pat7 exch def
<< Tile8x8
 /PaintProc {0.5 setlinewidth pop 8 -2 M -4 4 L
	12 0 M -4 8 L 12 4 M 0 10 L stroke}
>> matrix makepattern
/Pat8 exch def
<< Tile8x8
 /PaintProc {0.5 setlinewidth pop 0 -2 M 12 4 L
	-4 0 M 12 8 L -4 4 M 8 10 L stroke}
>> matrix makepattern
/Pat9 exch def
/Pattern1 {PatternBgnd KeepColor Pat1 setpattern} bind def
/Pattern2 {PatternBgnd KeepColor Pat2 setpattern} bind def
/Pattern3 {PatternBgnd KeepColor Pat3 setpattern} bind def
/Pattern4 {PatternBgnd KeepColor Landscape {Pat5} {Pat4} ifelse setpattern} bind def
/Pattern5 {PatternBgnd KeepColor Landscape {Pat4} {Pat5} ifelse setpattern} bind def
/Pattern6 {PatternBgnd KeepColor Landscape {Pat9} {Pat6} ifelse setpattern} bind def
/Pattern7 {PatternBgnd KeepColor Landscape {Pat8} {Pat7} ifelse setpattern} bind def
} def
%
%
%End of PostScript Level 2 code
%
/PatternBgnd {
  TransparentPatterns {} {gsave 1 setgray fill grestore} ifelse
} def
%
% Substitute for Level 2 pattern fill codes with
% grayscale if Level 2 support is not selected.
%
/Level1PatternFill {
/Pattern1 {0.250 Density} bind def
/Pattern2 {0.500 Density} bind def
/Pattern3 {0.750 Density} bind def
/Pattern4 {0.125 Density} bind def
/Pattern5 {0.375 Density} bind def
/Pattern6 {0.625 Density} bind def
/Pattern7 {0.875 Density} bind def
} def
%
% Now test for support of Level 2 code
%
Level1 {Level1PatternFill} {Level2PatternFill} ifelse
%
/Symbol-Oblique /Symbol findfont [1 0 .167 1 0 0] makefont
dup length dict begin {1 index /FID eq {pop pop} {def} ifelse} forall
currentdict end definefont pop
%
/Metrics {ExtendTextBox Gswidth} def
/Lwidth {currentpoint stroke M 0 vshift R Metrics} def
/Rwidth {currentpoint stroke M dup stringwidth pop neg vshift R Metrics} def
/Cwidth {currentpoint stroke M dup stringwidth pop -2 div vshift R Metrics} def
/GLwidth {currentpoint stroke M 0 vshift R {ExtendTextBox} forall} def
/GRwidth {currentpoint stroke M dup Gwidth vshift R {ExtendTextBox} forall} def
/GCwidth {currentpoint stroke M dup Gwidth 2 div vshift R {ExtendTextBox} forall} def
/GLwidth2 {0 Gwidth AddGlyphWidth} def
/GRwidth2 {Gwidth -1 mul 0 AddGlyphWidth} def
/GCwidth2 {Gwidth 2 div dup -1 mul AddGlyphWidth} def
/AddGlyphWidth { dup TBx2 gt {userdict /TBx2 3 -1 roll put} {pop} ifelse
                 dup TBx1 lt {userdict /TBx1 3 -1 roll put} {pop} ifelse } def
/MFshow {
   { dup 5 get 3 ge
     { 5 get 3 eq {gsave} {grestore} ifelse }
     {dup dup 0 get findfont exch 1 get scalefont setfont
     [ currentpoint ] exch dup 2 get 0 exch R dup 5 get 2 ne {dup dup 6
     get exch 4 get {textshow} {Metrics pop 0 R} ifelse }if dup 5 get 0 eq
     {dup 3 get {2 get neg 0 exch R pop} {pop aload pop M} ifelse} {dup 5
     get 1 eq {dup 2 get exch dup 3 get exch 6 get Gswidth pop -2 div
     dup 0 R} {dup 6 get Gswidth pop -2 div 0 R 6 get
     textshow 2 index {aload pop M neg 3 -1 roll neg R pop pop} {pop pop pop
     pop aload pop M} ifelse }ifelse }ifelse }
     ifelse }
   forall} def
/Gswidth {dup type /stringtype eq {stringwidth} {pop (n) stringwidth} ifelse} def
/MFwidth {0 exch { dup 5 get 3 ge { 5 get 3 eq { 0 } { pop } ifelse }
 {dup 3 get{dup dup 0 get findfont exch 1 get scalefont setfont
     6 get Gswidth pop add} {pop} ifelse} ifelse} forall} def
/MLshow { currentpoint stroke M
  0 exch R
  Blacktext {gsave 0 setgray MFshow grestore} {MFshow} ifelse } bind def
/MRshow { currentpoint stroke M
  exch dup MFwidth neg 3 -1 roll R
  Blacktext {gsave 0 setgray MFshow grestore} {MFshow} ifelse } bind def
/MCshow { currentpoint stroke M
  exch dup MFwidth -2 div 3 -1 roll R
  Blacktext {gsave 0 setgray MFshow grestore} {MFshow} ifelse } bind def
/XYsave    { [( ) 1 2 true false 3 ()] } bind def
/XYrestore { [( ) 1 2 true false 4 ()] } bind def
Level1 SuppressPDFMark or 
{} {
/SDict 10 dict def
systemdict /pdfmark known not {
  userdict /pdfmark systemdict /cleartomark get put
} if
SDict begin [
  /Title (gnuplot_inv_y.vs.turn_18GeV.eps)
  /Subject (gnuplot plot)
  /Creator (gnuplot 5.2 patchlevel 2)
%  /Producer (gnuplot)
%  /Keywords ()
  /CreationDate (Tue May  5 22:38:55 2020)
  /DOCINFO pdfmark
end
} ifelse
%
% Support for boxed text - Ethan A Merritt Sep 2016
%
/InitTextBox { userdict /TBy2 3 -1 roll put userdict /TBx2 3 -1 roll put
           userdict /TBy1 3 -1 roll put userdict /TBx1 3 -1 roll put
	   /Boxing true def } def
/ExtendTextBox { dup type /stringtype eq
    { Boxing { gsave dup false charpath pathbbox
      dup TBy2 gt {userdict /TBy2 3 -1 roll put} {pop} ifelse
      dup TBx2 gt {userdict /TBx2 3 -1 roll put} {pop} ifelse
      dup TBy1 lt {userdict /TBy1 3 -1 roll put} {pop} ifelse
      dup TBx1 lt {userdict /TBx1 3 -1 roll put} {pop} ifelse
      grestore } if }
    {} ifelse} def
/PopTextBox { newpath TBx1 TBxmargin sub TBy1 TBymargin sub M
               TBx1 TBxmargin sub TBy2 TBymargin add L
	       TBx2 TBxmargin add TBy2 TBymargin add L
	       TBx2 TBxmargin add TBy1 TBymargin sub L closepath } def
/DrawTextBox { PopTextBox stroke /Boxing false def} def
/FillTextBox { gsave PopTextBox fill grestore /Boxing false def} def
0 0 0 0 InitTextBox
/TBxmargin 20 def
/TBymargin 20 def
/Boxing false def
/textshow { ExtendTextBox Gshow } def
%
end
%%EndProlog
%%Page: 1 1
gnudict begin
gsave
doclip
50 50 translate
0.050 0.050 scale
0 setgray
newpath
(Helvetica) findfont 140 scalefont setfont
BackgroundColor 0 lt 3 1 roll 0 lt exch 0 lt or or not {BackgroundColor C 1.000 0 0 7200.00 5040.00 BoxColFill} if
1.000 UL
LTb
LCb setrgbcolor
0.500 UL
LTa
LCa setrgbcolor
602 448 M
6345 0 V
stroke
1.000 UL
LTb
LCb setrgbcolor
602 448 M
63 0 V
stroke
518 448 M
[ [(roman) 160.0 0.0 true true 0 (-16)]
] -53.3 MRshow
1.000 UL
LTb
LCb setrgbcolor
0.500 UL
LTa
LCa setrgbcolor
602 855 M
6345 0 V
stroke
1.000 UL
LTb
LCb setrgbcolor
602 855 M
63 0 V
stroke
518 855 M
[ [(roman) 160.0 0.0 true true 0 (-15)]
] -53.3 MRshow
1.000 UL
LTb
LCb setrgbcolor
0.500 UL
LTa
LCa setrgbcolor
6863 1262 M
84 0 V
stroke
1.000 UL
LTb
LCb setrgbcolor
602 1262 M
63 0 V
stroke
518 1262 M
[ [(roman) 160.0 0.0 true true 0 (-14)]
] -53.3 MRshow
1.000 UL
LTb
LCb setrgbcolor
0.500 UL
LTa
LCa setrgbcolor
6863 1669 M
84 0 V
stroke
1.000 UL
LTb
LCb setrgbcolor
602 1669 M
63 0 V
stroke
518 1669 M
[ [(roman) 160.0 0.0 true true 0 (-13)]
] -53.3 MRshow
1.000 UL
LTb
LCb setrgbcolor
0.500 UL
LTa
LCa setrgbcolor
6863 2076 M
84 0 V
stroke
1.000 UL
LTb
LCb setrgbcolor
602 2076 M
63 0 V
stroke
518 2076 M
[ [(roman) 160.0 0.0 true true 0 (-12)]
] -53.3 MRshow
1.000 UL
LTb
LCb setrgbcolor
0.500 UL
LTa
LCa setrgbcolor
6863 2484 M
84 0 V
stroke
1.000 UL
LTb
LCb setrgbcolor
602 2484 M
63 0 V
stroke
518 2484 M
[ [(roman) 160.0 0.0 true true 0 (-11)]
] -53.3 MRshow
1.000 UL
LTb
LCb setrgbcolor
0.500 UL
LTa
LCa setrgbcolor
6863 2891 M
84 0 V
stroke
1.000 UL
LTb
LCb setrgbcolor
602 2891 M
63 0 V
stroke
518 2891 M
[ [(roman) 160.0 0.0 true true 0 (-10)]
] -53.3 MRshow
1.000 UL
LTb
LCb setrgbcolor
0.500 UL
LTa
LCa setrgbcolor
6863 3298 M
84 0 V
stroke
1.000 UL
LTb
LCb setrgbcolor
602 3298 M
63 0 V
stroke
518 3298 M
[ [(roman) 160.0 0.0 true true 0 (-9)]
] -53.3 MRshow
1.000 UL
LTb
LCb setrgbcolor
0.500 UL
LTa
LCa setrgbcolor
6863 3705 M
84 0 V
stroke
1.000 UL
LTb
LCb setrgbcolor
602 3705 M
63 0 V
stroke
518 3705 M
[ [(roman) 160.0 0.0 true true 0 (-8)]
] -53.3 MRshow
1.000 UL
LTb
LCb setrgbcolor
0.500 UL
LTa
LCa setrgbcolor
6863 4112 M
84 0 V
stroke
1.000 UL
LTb
LCb setrgbcolor
602 4112 M
63 0 V
stroke
518 4112 M
[ [(roman) 160.0 0.0 true true 0 (-7)]
] -53.3 MRshow
1.000 UL
LTb
LCb setrgbcolor
0.500 UL
LTa
LCa setrgbcolor
602 4519 M
6345 0 V
stroke
1.000 UL
LTb
LCb setrgbcolor
602 4519 M
63 0 V
stroke
518 4519 M
[ [(roman) 160.0 0.0 true true 0 (-6)]
] -53.3 MRshow
1.000 UL
LTb
LCb setrgbcolor
0.500 UL
LTa
LCa setrgbcolor
602 448 M
0 708 V
0 3300 R
0 63 V
stroke
1.000 UL
LTb
LCb setrgbcolor
602 448 M
0 63 V
0 4008 R
0 -63 V
stroke
602 308 M
[ [(roman) 160.0 0.0 true true 0 ( 0)]
] -53.3 MCshow
1.000 UL
LTb
LCb setrgbcolor
0.500 UL
LTa
LCa setrgbcolor
1237 448 M
0 708 V
0 3300 R
0 63 V
stroke
1.000 UL
LTb
LCb setrgbcolor
1237 448 M
0 63 V
0 4008 R
0 -63 V
stroke
1237 308 M
[ [(roman) 160.0 0.0 true true 0 ( 50)]
] -53.3 MCshow
1.000 UL
LTb
LCb setrgbcolor
0.500 UL
LTa
LCa setrgbcolor
1871 448 M
0 708 V
0 3300 R
0 63 V
stroke
1.000 UL
LTb
LCb setrgbcolor
1871 448 M
0 63 V
0 4008 R
0 -63 V
stroke
1871 308 M
[ [(roman) 160.0 0.0 true true 0 ( 100)]
] -53.3 MCshow
1.000 UL
LTb
LCb setrgbcolor
0.500 UL
LTa
LCa setrgbcolor
2506 448 M
0 708 V
0 3300 R
0 63 V
stroke
1.000 UL
LTb
LCb setrgbcolor
2506 448 M
0 63 V
0 4008 R
0 -63 V
stroke
2506 308 M
[ [(roman) 160.0 0.0 true true 0 ( 150)]
] -53.3 MCshow
1.000 UL
LTb
LCb setrgbcolor
0.500 UL
LTa
LCa setrgbcolor
3140 448 M
0 708 V
0 3300 R
0 63 V
stroke
1.000 UL
LTb
LCb setrgbcolor
3140 448 M
0 63 V
0 4008 R
0 -63 V
stroke
3140 308 M
[ [(roman) 160.0 0.0 true true 0 ( 200)]
] -53.3 MCshow
1.000 UL
LTb
LCb setrgbcolor
0.500 UL
LTa
LCa setrgbcolor
3775 448 M
0 708 V
0 3300 R
0 63 V
stroke
1.000 UL
LTb
LCb setrgbcolor
3775 448 M
0 63 V
0 4008 R
0 -63 V
stroke
3775 308 M
[ [(roman) 160.0 0.0 true true 0 ( 250)]
] -53.3 MCshow
1.000 UL
LTb
LCb setrgbcolor
0.500 UL
LTa
LCa setrgbcolor
4409 448 M
0 708 V
0 3300 R
0 63 V
stroke
1.000 UL
LTb
LCb setrgbcolor
4409 448 M
0 63 V
0 4008 R
0 -63 V
stroke
4409 308 M
[ [(roman) 160.0 0.0 true true 0 ( 300)]
] -53.3 MCshow
1.000 UL
LTb
LCb setrgbcolor
0.500 UL
LTa
LCa setrgbcolor
5044 448 M
0 708 V
0 3300 R
0 63 V
stroke
1.000 UL
LTb
LCb setrgbcolor
5044 448 M
0 63 V
0 4008 R
0 -63 V
stroke
5044 308 M
[ [(roman) 160.0 0.0 true true 0 ( 350)]
] -53.3 MCshow
1.000 UL
LTb
LCb setrgbcolor
0.500 UL
LTa
LCa setrgbcolor
5678 448 M
0 708 V
0 3300 R
0 63 V
stroke
1.000 UL
LTb
LCb setrgbcolor
5678 448 M
0 63 V
0 4008 R
0 -63 V
stroke
5678 308 M
[ [(roman) 160.0 0.0 true true 0 ( 400)]
] -53.3 MCshow
1.000 UL
LTb
LCb setrgbcolor
0.500 UL
LTa
LCa setrgbcolor
6313 448 M
0 708 V
0 3300 R
0 63 V
stroke
1.000 UL
LTb
LCb setrgbcolor
6313 448 M
0 63 V
0 4008 R
0 -63 V
stroke
6313 308 M
[ [(roman) 160.0 0.0 true true 0 ( 450)]
] -53.3 MCshow
1.000 UL
LTb
LCb setrgbcolor
0.500 UL
LTa
LCa setrgbcolor
6947 448 M
0 4071 V
stroke
1.000 UL
LTb
LCb setrgbcolor
6947 448 M
0 63 V
0 4008 R
0 -63 V
stroke
6947 308 M
[ [(roman) 160.0 0.0 true true 0 ( 500)]
] -53.3 MCshow
1.000 UL
LTb
LCb setrgbcolor
1.000 UL
LTB
LCb setrgbcolor
602 4519 N
602 448 L
6345 0 V
0 4071 V
-6345 0 V
Z stroke
1.000 UP
1.000 UL
LTb
LCb setrgbcolor
LCb setrgbcolor
126 2483 M
currentpoint gsave translate -270 rotate 0 0 moveto
[ [(roman) 220.0 0.0 true true 0 (log\(invariant\))]
] -73.3 MCshow
grestore
LTb
LCb setrgbcolor
3774 98 M
[ [(roman) 220.0 0.0 true true 0 (Turn number)]
] -73.3 MCshow
LTb
LCb setrgbcolor
3774 4829 M
[ [(roman) 240.0 0.0 true true 0 (DAMPING OF VERTICAL INVARIANT, 18 GeV)]
] -80.0 MCshow
% Begin plot #1
1.000 UP
1.000 UL
LTb
0.58 0.00 0.83 C LCb setrgbcolor
2117 3906 M
[ [(roman) 220.0 0.0 true true 0 (zgoubi, eps)]
[(roman) 176.0 -66.0 true true 0 (y)]
[(roman) 220.0 0.0 true true 0 (,0)]
[(roman) 220.0 0.0 true true 1 (2)]
[(roman) 220.0 0.0 false true 2 (e)]
[(roman) 220.0 0.0 true true 0 (-7  m.rad)]
] -51.3 MRshow
1.000 UP
1.000 UL
LTb
0.58 0.00 0.83 C 729 4294 Box
856 4259 Box
983 4221 Box
1110 4187 Box
1237 4149 Box
1363 4112 Box
1490 4075 Box
1617 4034 Box
1744 3996 Box
1871 3963 Box
1998 3932 Box
2125 3896 Box
2252 3857 Box
2379 3821 Box
2506 3784 Box
2632 3746 Box
2759 3706 Box
2886 3674 Box
3013 3637 Box
3140 3597 Box
3267 3564 Box
3394 3529 Box
3521 3492 Box
3648 3456 Box
3775 3418 Box
3901 3378 Box
4028 3340 Box
4155 3302 Box
4282 3263 Box
4409 3229 Box
4536 3195 Box
4663 3159 Box
4790 3118 Box
4917 3081 Box
5044 3043 Box
5170 3007 Box
5297 2970 Box
5424 2936 Box
5551 2896 Box
5678 2857 Box
5805 2820 Box
5932 2780 Box
6059 2743 Box
6186 2708 Box
6313 2675 Box
6439 2638 Box
6566 2602 Box
6693 2565 Box
6820 2530 Box
6947 2494 Box
2544 3906 Box
% End plot #1
% Begin plot #2
1.000 UP
1.000 UL
LTb
0.00 0.62 0.45 C LCb setrgbcolor
2117 2806 M
[ [(roman) 220.0 0.0 true true 0 (zgoubi, eps)]
[(roman) 176.0 -66.0 true true 0 (y)]
[(roman) 220.0 0.0 true true 0 (,0)]
[(roman) 220.0 0.0 true true 1 (2)]
[(roman) 220.0 0.0 false true 2 (e)]
[(roman) 220.0 0.0 true true 0 (-9  m.rad)]
] -51.3 MRshow
1.000 UP
1.000 UL
LTb
0.00 0.62 0.45 C 729 3479 Box
856 3443 Box
983 3405 Box
1110 3367 Box
1237 3330 Box
1363 3294 Box
1490 3257 Box
1617 3219 Box
1744 3184 Box
1871 3146 Box
1998 3104 Box
2125 3070 Box
2252 3037 Box
2379 3000 Box
2506 2963 Box
2632 2924 Box
2759 2889 Box
2886 2853 Box
3013 2818 Box
3140 2781 Box
3267 2746 Box
3394 2710 Box
3521 2669 Box
3648 2635 Box
3775 2599 Box
3901 2560 Box
4028 2523 Box
4155 2487 Box
4282 2448 Box
4409 2412 Box
4536 2375 Box
4663 2338 Box
4790 2301 Box
4917 2265 Box
5044 2228 Box
5170 2193 Box
5297 2154 Box
5424 2116 Box
5551 2079 Box
5678 2042 Box
5805 2007 Box
5932 1968 Box
6059 1933 Box
6186 1895 Box
6313 1859 Box
6439 1822 Box
6566 1785 Box
6693 1750 Box
6820 1716 Box
6947 1678 Box
2544 2806 Box
% End plot #2
% Begin plot #3
1.000 UP
1.000 UL
LTb
0.34 0.71 0.91 C LCb setrgbcolor
2117 1706 M
[ [(roman) 220.0 0.0 true true 0 (zgoubi, eps)]
[(roman) 176.0 -66.0 true true 0 (y)]
[(roman) 220.0 0.0 true true 0 (,0)]
[(roman) 220.0 0.0 true true 1 (2)]
[(roman) 220.0 0.0 false true 2 (e)]
[(roman) 220.0 0.0 true true 0 (-11 m.rad)]
] -51.3 MRshow
1.000 UP
1.000 UL
LTb
0.34 0.71 0.91 C 729 2666 Box
856 2632 Box
983 2593 Box
1110 2555 Box
1237 2523 Box
1363 2488 Box
1490 2451 Box
1617 2412 Box
1744 2372 Box
1871 2335 Box
1998 2300 Box
2125 2267 Box
2252 2232 Box
2379 2193 Box
2506 2155 Box
2632 2117 Box
2759 2079 Box
2886 2043 Box
3013 2005 Box
3140 1970 Box
3267 1933 Box
3394 1897 Box
3521 1859 Box
3648 1824 Box
3775 1786 Box
3901 1750 Box
4028 1715 Box
4155 1676 Box
4282 1638 Box
4409 1604 Box
4536 1570 Box
4663 1531 Box
4790 1492 Box
4917 1457 Box
5044 1419 Box
5170 1379 Box
5297 1340 Box
5424 1300 Box
5551 1261 Box
5678 1225 Box
5805 1188 Box
5932 1152 Box
6059 1116 Box
6186 1077 Box
6313 1040 Box
6439 1005 Box
6566 967 Box
6693 929 Box
6820 892 Box
6947 853 Box
2544 1706 Box
% End plot #3
% Begin plot #4
1.000 UL
LTb
0.58 0.00 0.83 C LCb setrgbcolor
6008 3906 M
[ [(roman) 220.0 0.0 true true 0 (match, tau=48.9)]
] -73.3 MRshow
1.000 UL
LTb
0.58 0.00 0.83 C 6140 3906 M
591 0 V
729 4299 M
63 -19 V
63 -18 V
62 -18 V
63 -19 V
63 -18 V
63 -18 V
63 -18 V
62 -19 V
63 -18 V
63 -18 V
63 -18 V
63 -19 V
62 -18 V
63 -18 V
63 -18 V
63 -19 V
63 -18 V
62 -18 V
63 -18 V
63 -19 V
63 -18 V
63 -18 V
63 -18 V
62 -19 V
63 -18 V
63 -18 V
63 -18 V
63 -19 V
62 -18 V
63 -18 V
63 -18 V
63 -19 V
63 -18 V
62 -18 V
63 -18 V
63 -19 V
63 -18 V
63 -18 V
62 -18 V
63 -19 V
63 -18 V
63 -18 V
63 -18 V
63 -19 V
62 -18 V
63 -18 V
63 -18 V
63 -19 V
63 -18 V
62 -18 V
63 -18 V
63 -19 V
63 -18 V
63 -18 V
62 -18 V
63 -19 V
63 -18 V
63 -18 V
63 -18 V
62 -19 V
63 -18 V
63 -18 V
63 -18 V
63 -19 V
62 -18 V
63 -18 V
63 -18 V
63 -19 V
63 -18 V
63 -18 V
62 -18 V
63 -19 V
63 -18 V
63 -18 V
63 -18 V
62 -19 V
63 -18 V
63 -18 V
63 -18 V
63 -19 V
62 -18 V
63 -18 V
63 -18 V
63 -19 V
63 -18 V
62 -18 V
63 -18 V
63 -19 V
63 -18 V
63 -18 V
63 -18 V
62 -19 V
63 -18 V
63 -18 V
63 -18 V
63 -19 V
62 -18 V
63 -18 V
63 -18 V
% End plot #4
% Begin plot #5
stroke
LTb
0.58 0.00 0.83 C LCb setrgbcolor
6008 2806 M
[ [(roman) 220.0 0.0 true true 0 (match, tau=48.7)]
] -73.3 MRshow
1.000 UL
LTb
0.58 0.00 0.83 C 6140 2806 M
591 0 V
729 3479 M
63 -18 V
63 -19 V
62 -18 V
63 -18 V
63 -18 V
63 -18 V
63 -19 V
62 -18 V
63 -18 V
63 -18 V
63 -18 V
63 -19 V
62 -18 V
63 -18 V
63 -18 V
63 -19 V
63 -18 V
62 -18 V
63 -18 V
63 -18 V
63 -19 V
63 -18 V
63 -18 V
62 -18 V
63 -18 V
63 -19 V
63 -18 V
63 -18 V
62 -18 V
63 -18 V
63 -19 V
63 -18 V
63 -18 V
62 -18 V
63 -19 V
63 -18 V
63 -18 V
63 -18 V
62 -18 V
63 -19 V
63 -18 V
63 -18 V
63 -18 V
63 -18 V
62 -19 V
63 -18 V
63 -18 V
63 -18 V
63 -18 V
62 -19 V
63 -18 V
63 -18 V
63 -18 V
63 -19 V
62 -18 V
63 -18 V
63 -18 V
63 -18 V
63 -19 V
62 -18 V
63 -18 V
63 -18 V
63 -18 V
63 -19 V
62 -18 V
63 -18 V
63 -18 V
63 -19 V
63 -18 V
63 -18 V
62 -18 V
63 -18 V
63 -19 V
63 -18 V
63 -18 V
62 -18 V
63 -18 V
63 -19 V
63 -18 V
63 -18 V
62 -18 V
63 -18 V
63 -19 V
63 -18 V
63 -18 V
62 -18 V
63 -19 V
63 -18 V
63 -18 V
63 -18 V
63 -18 V
62 -19 V
63 -18 V
63 -18 V
63 -18 V
63 -18 V
62 -19 V
63 -18 V
63 -18 V
% End plot #5
% Begin plot #6
stroke
LTb
0.58 0.00 0.83 C LCb setrgbcolor
6008 1706 M
[ [(roman) 220.0 0.0 true true 0 (match, tau=48.6)]
] -73.3 MRshow
1.000 UL
LTb
0.58 0.00 0.83 C 6140 1706 M
591 0 V
729 2673 M
63 -18 V
63 -18 V
62 -19 V
63 -18 V
63 -18 V
63 -19 V
63 -18 V
62 -18 V
63 -19 V
63 -18 V
63 -18 V
63 -19 V
62 -18 V
63 -18 V
63 -19 V
63 -18 V
63 -18 V
62 -19 V
63 -18 V
63 -18 V
63 -19 V
63 -18 V
63 -18 V
62 -19 V
63 -18 V
63 -18 V
63 -19 V
63 -18 V
62 -18 V
63 -19 V
63 -18 V
63 -18 V
63 -19 V
62 -18 V
63 -18 V
63 -19 V
63 -18 V
63 -18 V
62 -19 V
63 -18 V
63 -18 V
63 -19 V
63 -18 V
63 -18 V
62 -19 V
63 -18 V
63 -18 V
63 -19 V
63 -18 V
62 -18 V
63 -19 V
63 -18 V
63 -18 V
63 -19 V
62 -18 V
63 -18 V
63 -19 V
63 -18 V
63 -18 V
62 -19 V
63 -18 V
63 -18 V
63 -19 V
63 -18 V
62 -18 V
63 -19 V
63 -18 V
63 -18 V
63 -19 V
63 -18 V
62 -18 V
63 -19 V
63 -18 V
63 -18 V
63 -19 V
62 -18 V
63 -18 V
63 -19 V
63 -18 V
63 -18 V
62 -19 V
63 -18 V
63 -18 V
63 -19 V
63 -18 V
62 -18 V
63 -19 V
63 -18 V
63 -18 V
63 -19 V
63 -18 V
62 -18 V
63 -19 V
63 -18 V
63 -18 V
63 -19 V
62 -18 V
63 -18 V
63 -19 V
% End plot #6
stroke
2.000 UL
LTb
LCb setrgbcolor
1.000 UL
LTB
LCb setrgbcolor
602 4519 N
602 448 L
6345 0 V
0 4071 V
-6345 0 V
Z stroke
1.000 UP
1.000 UL
LTb
LCb setrgbcolor
stroke
grestore
end
showpage
%%Trailer
%%DocumentFonts: roman Helvetica
