%!PS-Adobe-2.0 EPSF-2.0
%%Title: turn_Z.eps
%%Titre: turn_Z.eps
%%Creator: Fminigraf Library
%%BoundingBox: 20 40 567 457
%%EndComments
/offx 20 def
/offy 40 def
/lx 595 def
/ly 842 def
/maxx 1023 def
/maxy 779 def
/reduc 0.92 def
/coeff lx maxx div reduc mul def
offx offy translate
coeff coeff scale
1 setlinewidth newpath 0 0 moveto
/Courier-Bold findfont 32 scalefont setfont
/M {moveto} def
/L {lineto} def
/S {stroke} def
/H {show} def
/D {setdash} def
0 0 0 setrgbcolor
[] 0 D
135 156 M 135 161 L S
135 410 M 135 420 L S
135 735 M 135 740 L S
170 156 M 170 161 L S
170 410 M 170 420 L S
170 735 M 170 740 L S
205 156 M 205 161 L S
205 410 M 205 420 L S
205 735 M 205 740 L S
239 156 M 239 161 L S
239 410 M 239 420 L S
239 735 M 239 740 L S
[2 3] 0 D
274 156 M 274 740 L S
[] 0 D
/Courier-Bold findfont 30 scalefont setfont
256 128 M (100) H
274 156 M 274 166 L S
274 405 M 274 425 L S
274 730 M 274 740 L S
309 156 M 309 161 L S
309 410 M 309 420 L S
309 735 M 309 740 L S
344 156 M 344 161 L S
344 410 M 344 420 L S
344 735 M 344 740 L S
379 156 M 379 161 L S
379 410 M 379 420 L S
379 735 M 379 740 L S
413 156 M 413 161 L S
413 410 M 413 420 L S
413 735 M 413 740 L S
[2 3] 0 D
448 156 M 448 740 L S
[] 0 D
430 128 M (200) H
448 156 M 448 166 L S
448 405 M 448 425 L S
448 730 M 448 740 L S
483 156 M 483 161 L S
483 410 M 483 420 L S
483 735 M 483 740 L S
518 156 M 518 161 L S
518 410 M 518 420 L S
518 735 M 518 740 L S
553 156 M 553 161 L S
553 410 M 553 420 L S
553 735 M 553 740 L S
587 156 M 587 161 L S
587 410 M 587 420 L S
587 735 M 587 740 L S
[2 3] 0 D
622 156 M 622 740 L S
[] 0 D
604 128 M (300) H
622 156 M 622 166 L S
622 405 M 622 425 L S
622 730 M 622 740 L S
657 156 M 657 161 L S
657 410 M 657 420 L S
657 735 M 657 740 L S
692 156 M 692 161 L S
692 410 M 692 420 L S
692 735 M 692 740 L S
727 156 M 727 161 L S
727 410 M 727 420 L S
727 735 M 727 740 L S
761 156 M 761 161 L S
761 410 M 761 420 L S
761 735 M 761 740 L S
[2 3] 0 D
796 156 M 796 740 L S
[] 0 D
778 128 M (400) H
796 156 M 796 166 L S
796 405 M 796 425 L S
796 730 M 796 740 L S
831 156 M 831 161 L S
831 410 M 831 420 L S
831 735 M 831 740 L S
866 156 M 866 161 L S
866 410 M 866 420 L S
866 735 M 866 740 L S
901 156 M 901 161 L S
901 410 M 901 420 L S
901 735 M 901 740 L S
935 156 M 935 161 L S
935 410 M 935 420 L S
935 735 M 935 740 L S
[2 3] 0 D
970 156 M 970 740 L S
[] 0 D
952 128 M (500) H
970 156 M 970 166 L S
970 405 M 970 425 L S
970 730 M 970 740 L S
[2 3] 0 D
102 172 M 972 172 L S
[] 0 D
15 162 M (-.0015) H
102 172 M 112 172 L S
962 172 M 972 172 L S
102 188 M 107 188 L S
967 188 M 972 188 L S
102 204 M 107 204 L S
967 204 M 972 204 L S
102 221 M 107 221 L S
967 221 M 972 221 L S
102 237 M 107 237 L S
967 237 M 972 237 L S
[2 3] 0 D
102 253 M 972 253 L S
[] 0 D
21 243 M (-.001) H
102 253 M 112 253 L S
962 253 M 972 253 L S
102 269 M 107 269 L S
967 269 M 972 269 L S
102 286 M 107 286 L S
967 286 M 972 286 L S
102 302 M 107 302 L S
967 302 M 972 302 L S
102 318 M 107 318 L S
967 318 M 972 318 L S
[2 3] 0 D
102 334 M 972 334 L S
[] 0 D
15 324 M (-.0005) H
102 334 M 112 334 L S
962 334 M 972 334 L S
102 351 M 107 351 L S
967 351 M 972 351 L S
102 367 M 107 367 L S
967 367 M 972 367 L S
102 383 M 107 383 L S
967 383 M 972 383 L S
102 399 M 107 399 L S
967 399 M 972 399 L S
[2 3] 0 D
102 415 M 972 415 L S
[] 0 D
33 405 M (0.0) H
102 415 M 112 415 L S
962 415 M 972 415 L S
102 432 M 107 432 L S
967 432 M 972 432 L S
102 448 M 107 448 L S
967 448 M 972 448 L S
102 464 M 107 464 L S
967 464 M 972 464 L S
102 480 M 107 480 L S
967 480 M 972 480 L S
[2 3] 0 D
102 497 M 972 497 L S
[] 0 D
15 487 M (0.0005) H
102 497 M 112 497 L S
962 497 M 972 497 L S
102 513 M 107 513 L S
967 513 M 972 513 L S
102 529 M 107 529 L S
967 529 M 972 529 L S
102 545 M 107 545 L S
967 545 M 972 545 L S
102 561 M 107 561 L S
967 561 M 972 561 L S
[2 3] 0 D
102 578 M 972 578 L S
[] 0 D
21 568 M (0.001) H
102 578 M 112 578 L S
962 578 M 972 578 L S
102 594 M 107 594 L S
967 594 M 972 594 L S
102 610 M 107 610 L S
967 610 M 972 610 L S
102 626 M 107 626 L S
967 626 M 972 626 L S
102 643 M 107 643 L S
967 643 M 972 643 L S
[2 3] 0 D
102 659 M 972 659 L S
[] 0 D
15 649 M (0.0015) H
102 659 M 112 659 L S
962 659 M 972 659 L S
102 675 M 107 675 L S
967 675 M 972 675 L S
102 691 M 107 691 L S
967 691 M 972 691 L S
102 708 M 107 708 L S
967 708 M 972 708 L S
102 724 M 107 724 L S
967 724 M 972 724 L S
[2 3] 0 D
102 740 M 972 740 L S
[] 0 D
21 730 M (0.002) H
102 740 M 112 740 L S
962 740 M 972 740 L S
[] 0 D
102 156 M 972 156 L S
972 156 M 972 740 L S
972 740 M 102 740 L S
102 740 M 102 156 L S
102 415 M 972 415 L S
102 740 M 102 741 L S
102 448 M 102 449 L S
102 419 M 102 420 L S
102 740 M 102 741 L S
104 518 M 104 519 L S
104 426 M 104 427 L S
104 416 M 104 417 L S
104 518 M 104 519 L S
105 162 M 105 163 L S
105 390 M 105 391 L S
105 413 M 105 414 L S
105 162 M 105 163 L S
107 156 M 107 157 L S
107 390 M 107 391 L S
107 413 M 107 414 L S
107 156 M 107 157 L S
109 505 M 109 506 L S
109 425 M 109 426 L S
109 416 M 109 417 L S
109 505 M 109 506 L S
111 721 M 111 722 L S
111 446 M 111 447 L S
111 418 M 111 419 L S
111 721 M 111 722 L S
112 508 M 112 509 L S
112 424 M 112 425 L S
112 416 M 112 417 L S
112 508 M 112 509 L S
114 173 M 114 174 L S
114 391 M 114 392 L S
114 413 M 114 414 L S
114 173 M 114 174 L S
116 179 M 116 180 L S
116 392 M 116 393 L S
116 413 M 116 414 L S
116 179 M 116 180 L S
118 509 M 118 510 L S
118 425 M 118 426 L S
118 416 M 118 417 L S
118 509 M 118 510 L S
119 703 M 119 704 L S
119 444 M 119 445 L S
119 418 M 119 419 L S
119 703 M 119 704 L S
121 494 M 121 495 L S
121 423 M 121 424 L S
121 416 M 121 417 L S
121 494 M 121 495 L S
123 181 M 123 182 L S
123 392 M 123 393 L S
123 413 M 123 414 L S
123 181 M 123 182 L S
125 196 M 125 197 L S
125 394 M 125 395 L S
125 413 M 125 414 L S
125 196 M 125 197 L S
126 511 M 126 512 L S
126 425 M 126 426 L S
126 416 M 126 417 L S
126 511 M 126 512 L S
128 688 M 128 689 L S
128 443 M 128 444 L S
128 418 M 128 419 L S
128 688 M 128 689 L S
130 488 M 130 489 L S
130 422 M 130 423 L S
130 416 M 130 417 L S
130 488 M 130 489 L S
132 191 M 132 192 L S
132 393 M 132 394 L S
132 413 M 132 414 L S
132 191 M 132 192 L S
133 211 M 133 212 L S
133 395 M 133 396 L S
133 413 M 133 414 L S
133 211 M 133 212 L S
135 512 M 135 513 L S
135 425 M 135 426 L S
135 416 M 135 417 L S
135 512 M 135 513 L S
137 675 M 137 676 L S
137 441 M 137 442 L S
137 418 M 137 419 L S
137 675 M 137 676 L S
139 480 M 139 481 L S
139 421 M 139 422 L S
139 416 M 139 417 L S
139 480 M 139 481 L S
140 199 M 140 200 L S
140 394 M 140 395 L S
140 413 M 140 414 L S
140 199 M 140 200 L S
142 226 M 142 227 L S
142 396 M 142 397 L S
142 414 M 142 415 L S
142 226 M 142 227 L S
144 515 M 144 516 L S
144 426 M 144 427 L S
144 417 M 144 418 L S
144 515 M 144 516 L S
146 662 M 146 663 L S
146 440 M 146 441 L S
146 418 M 146 419 L S
146 662 M 146 663 L S
147 466 M 147 467 L S
147 420 M 147 421 L S
147 416 M 147 417 L S
147 466 M 147 467 L S
149 204 M 149 205 L S
149 394 M 149 395 L S
149 413 M 149 414 L S
149 204 M 149 205 L S
151 242 M 151 243 L S
151 398 M 151 399 L S
151 414 M 151 415 L S
151 242 M 151 243 L S
152 519 M 152 520 L S
152 426 M 152 427 L S
152 416 M 152 417 L S
152 519 M 152 520 L S
154 649 M 154 650 L S
154 439 M 154 440 L S
154 418 M 154 419 L S
154 649 M 154 650 L S
156 456 M 156 457 L S
156 419 M 156 420 L S
156 416 M 156 417 L S
156 456 M 156 457 L S
158 211 M 158 212 L S
158 395 M 158 396 L S
158 413 M 158 414 L S
158 211 M 158 212 L S
159 259 M 159 260 L S
159 400 M 159 401 L S
159 414 M 159 415 L S
159 259 M 159 260 L S
161 525 M 161 526 L S
161 426 M 161 427 L S
161 416 M 161 417 L S
161 525 M 161 526 L S
163 634 M 163 635 L S
163 437 M 163 438 L S
163 418 M 163 419 L S
163 634 M 163 635 L S
165 443 M 165 444 L S
165 418 M 165 419 L S
165 416 M 165 417 L S
165 443 M 165 444 L S
166 217 M 166 218 L S
166 395 M 166 396 L S
166 413 M 166 414 L S
166 217 M 166 218 L S
168 272 M 168 273 L S
168 401 M 168 402 L S
168 414 M 168 415 L S
168 272 M 168 273 L S
170 528 M 170 529 L S
170 426 M 170 427 L S
170 416 M 170 417 L S
170 528 M 170 529 L S
172 622 M 172 623 L S
172 436 M 172 437 L S
172 418 M 172 419 L S
172 622 M 172 623 L S
173 433 M 173 434 L S
173 417 M 173 418 L S
173 416 M 173 417 L S
173 433 M 173 434 L S
175 223 M 175 224 L S
175 396 M 175 397 L S
175 414 M 175 415 L S
175 223 M 175 224 L S
177 285 M 177 286 L S
177 403 M 177 404 L S
177 414 M 177 415 L S
177 285 M 177 286 L S
179 528 M 179 529 L S
179 426 M 179 427 L S
179 416 M 179 417 L S
179 528 M 179 529 L S
180 610 M 180 611 L S
180 435 M 180 436 L S
180 417 M 180 418 L S
180 610 M 180 611 L S
182 422 M 182 423 L S
182 416 M 182 417 L S
182 416 M 182 417 L S
182 422 M 182 423 L S
184 229 M 184 230 L S
184 397 M 184 398 L S
184 414 M 184 415 L S
184 229 M 184 230 L S
186 296 M 186 297 L S
186 404 M 186 405 L S
186 414 M 186 415 L S
186 296 M 186 297 L S
187 527 M 187 528 L S
187 426 M 187 427 L S
187 416 M 187 417 L S
187 527 M 187 528 L S
189 597 M 189 598 L S
189 433 M 189 434 L S
189 417 M 189 418 L S
189 597 M 189 598 L S
191 413 M 191 414 L S
191 416 M 191 417 L S
191 416 M 191 417 L S
191 413 M 191 414 L S
192 236 M 192 237 L S
192 398 M 192 399 L S
192 414 M 192 415 L S
192 236 M 192 237 L S
194 309 M 194 310 L S
194 405 M 194 406 L S
194 414 M 194 415 L S
194 309 M 194 310 L S
196 527 M 196 528 L S
196 426 M 196 427 L S
196 416 M 196 417 L S
196 527 M 196 528 L S
198 584 M 198 585 L S
198 432 M 198 433 L S
198 417 M 198 418 L S
198 584 M 198 585 L S
199 404 M 199 405 L S
199 415 M 199 416 L S
199 416 M 199 417 L S
199 404 M 199 405 L S
201 244 M 201 245 L S
201 399 M 201 400 L S
201 414 M 201 415 L S
201 244 M 201 245 L S
203 321 M 203 322 L S
203 406 M 203 407 L S
203 414 M 203 415 L S
203 321 M 203 322 L S
205 526 M 205 527 L S
205 426 M 205 427 L S
205 416 M 205 417 L S
205 526 M 205 527 L S
206 574 M 206 575 L S
206 431 M 206 432 L S
206 417 M 206 418 L S
206 574 M 206 575 L S
208 401 M 208 402 L S
208 415 M 208 416 L S
208 416 M 208 417 L S
208 401 M 208 402 L S
210 251 M 210 252 L S
210 399 M 210 400 L S
210 414 M 210 415 L S
210 251 M 210 252 L S
212 329 M 212 330 L S
212 406 M 212 407 L S
212 414 M 212 415 L S
212 329 M 212 330 L S
213 524 M 213 525 L S
213 426 M 213 427 L S
213 416 M 213 417 L S
213 524 M 213 525 L S
215 564 M 215 565 L S
215 431 M 215 432 L S
215 417 M 215 418 L S
215 564 M 215 565 L S
217 394 M 217 395 L S
217 414 M 217 415 L S
217 416 M 217 417 L S
217 394 M 217 395 L S
219 257 M 219 258 L S
219 400 M 219 401 L S
219 414 M 219 415 L S
219 257 M 219 258 L S
220 337 M 220 338 L S
220 407 M 220 408 L S
220 414 M 220 415 L S
220 337 M 220 338 L S
222 524 M 222 525 L S
222 426 M 222 427 L S
222 416 M 222 417 L S
222 524 M 222 525 L S
224 555 M 224 556 L S
224 430 M 224 431 L S
224 417 M 224 418 L S
224 555 M 224 556 L S
226 390 M 226 391 L S
226 414 M 226 415 L S
226 416 M 226 417 L S
226 390 M 226 391 L S
227 264 M 227 265 L S
227 401 M 227 402 L S
227 414 M 227 415 L S
227 264 M 227 265 L S
229 344 M 229 345 L S
229 408 M 229 409 L S
229 414 M 229 415 L S
229 344 M 229 345 L S
231 520 M 231 521 L S
231 426 M 231 427 L S
231 416 M 231 417 L S
231 520 M 231 521 L S
233 546 M 233 547 L S
233 429 M 233 430 L S
233 417 M 233 418 L S
233 546 M 233 547 L S
234 386 M 234 387 L S
234 413 M 234 414 L S
234 416 M 234 417 L S
234 386 M 234 387 L S
236 271 M 236 272 L S
236 401 M 236 402 L S
236 414 M 236 415 L S
236 271 M 236 272 L S
238 354 M 238 355 L S
238 409 M 238 410 L S
238 414 M 238 415 L S
238 354 M 238 355 L S
239 518 M 239 519 L S
239 425 M 239 426 L S
239 416 M 239 417 L S
239 518 M 239 519 L S
241 535 M 241 536 L S
241 428 M 241 429 L S
241 417 M 241 418 L S
241 535 M 241 536 L S
243 381 M 243 382 L S
243 413 M 243 414 L S
243 416 M 243 417 L S
243 381 M 243 382 L S
245 278 M 245 279 L S
245 402 M 245 403 L S
245 414 M 245 415 L S
245 278 M 245 279 L S
246 365 M 246 366 L S
246 410 M 246 411 L S
246 414 M 246 415 L S
246 365 M 246 366 L S
248 517 M 248 518 L S
248 425 M 248 426 L S
248 416 M 248 417 L S
248 517 M 248 518 L S
250 526 M 250 527 L S
250 427 M 250 428 L S
250 417 M 250 418 L S
250 526 M 250 527 L S
252 377 M 252 378 L S
252 413 M 252 414 L S
252 416 M 252 417 L S
252 377 M 252 378 L S
253 285 M 253 286 L S
253 403 M 253 404 L S
253 414 M 253 415 L S
253 285 M 253 286 L S
255 373 M 255 374 L S
255 411 M 255 412 L S
255 414 M 255 415 L S
255 373 M 255 374 L S
257 515 M 257 516 L S
257 425 M 257 426 L S
257 416 M 257 417 L S
257 515 M 257 516 L S
259 517 M 259 518 L S
259 426 M 259 427 L S
259 417 M 259 418 L S
259 517 M 259 518 L S
260 374 M 260 375 L S
260 413 M 260 414 L S
260 416 M 260 417 L S
260 374 M 260 375 L S
262 293 M 262 294 L S
262 403 M 262 404 L S
262 414 M 262 415 L S
262 293 M 262 294 L S
264 381 M 264 382 L S
264 411 M 264 412 L S
264 414 M 264 415 L S
264 381 M 264 382 L S
266 513 M 266 514 L S
266 425 M 266 426 L S
266 416 M 266 417 L S
266 513 M 266 514 L S
267 511 M 267 512 L S
267 425 M 267 426 L S
267 417 M 267 418 L S
267 511 M 267 512 L S
269 375 M 269 376 L S
269 412 M 269 413 L S
269 416 M 269 417 L S
269 375 M 269 376 L S
271 299 M 271 300 L S
271 404 M 271 405 L S
271 414 M 271 415 L S
271 299 M 271 300 L S
273 385 M 273 386 L S
273 412 M 273 413 L S
273 415 M 273 416 L S
273 385 M 273 386 L S
274 511 M 274 512 L S
274 425 M 274 426 L S
274 416 M 274 417 L S
274 511 M 274 512 L S
276 505 M 276 506 L S
276 424 M 276 425 L S
276 417 M 276 418 L S
276 505 M 276 506 L S
278 373 M 278 374 L S
278 412 M 278 413 L S
278 416 M 278 417 L S
278 373 M 278 374 L S
279 304 M 279 305 L S
279 405 M 279 406 L S
279 414 M 279 415 L S
279 304 M 279 305 L S
281 392 M 281 393 L S
281 412 M 281 413 L S
281 415 M 281 416 L S
281 392 M 281 393 L S
283 510 M 283 511 L S
283 424 M 283 425 L S
283 416 M 283 417 L S
283 510 M 283 511 L S
285 498 M 285 499 L S
285 424 M 285 425 L S
285 417 M 285 418 L S
285 498 M 285 499 L S
286 372 M 286 373 L S
286 411 M 286 412 L S
286 416 M 286 417 L S
286 372 M 286 373 L S
288 310 M 288 311 L S
288 405 M 288 406 L S
288 415 M 288 416 L S
288 310 M 288 311 L S
290 398 M 290 399 L S
290 413 M 290 414 L S
290 415 M 290 416 L S
290 398 M 290 399 L S
292 508 M 292 509 L S
292 424 M 292 425 L S
292 416 M 292 417 L S
292 508 M 292 509 L S
293 491 M 293 492 L S
293 423 M 293 424 L S
293 416 M 293 417 L S
293 491 M 293 492 L S
295 371 M 295 372 L S
295 411 M 295 412 L S
295 416 M 295 417 L S
295 371 M 295 372 L S
297 316 M 297 317 L S
297 406 M 297 407 L S
297 415 M 297 416 L S
297 316 M 297 317 L S
299 402 M 299 403 L S
299 413 M 299 414 L S
299 415 M 299 416 L S
299 402 M 299 403 L S
300 505 M 300 506 L S
300 424 M 300 425 L S
300 416 M 300 417 L S
300 505 M 300 506 L S
302 484 M 302 485 L S
302 422 M 302 423 L S
302 416 M 302 417 L S
302 484 M 302 485 L S
304 370 M 304 371 L S
304 411 M 304 412 L S
304 416 M 304 417 L S
304 370 M 304 371 L S
306 322 M 306 323 L S
306 406 M 306 407 L S
306 415 M 306 416 L S
306 322 M 306 323 L S
307 407 M 307 408 L S
307 414 M 307 415 L S
307 415 M 307 416 L S
307 407 M 307 408 L S
309 502 M 309 503 L S
309 424 M 309 425 L S
309 416 M 309 417 L S
309 502 M 309 503 L S
311 477 M 311 478 L S
311 422 M 311 423 L S
311 416 M 311 417 L S
311 477 M 311 478 L S
313 369 M 313 370 L S
313 411 M 313 412 L S
313 416 M 313 417 L S
313 369 M 313 370 L S
314 327 M 314 328 L S
314 407 M 314 408 L S
314 415 M 314 416 L S
314 327 M 314 328 L S
316 411 M 316 412 L S
316 414 M 316 415 L S
316 415 M 316 416 L S
316 411 M 316 412 L S
318 499 M 318 500 L S
318 423 M 318 424 L S
318 416 M 318 417 L S
318 499 M 318 500 L S
320 470 M 320 471 L S
320 421 M 320 422 L S
320 416 M 320 417 L S
320 470 M 320 471 L S
321 368 M 321 369 L S
321 411 M 321 412 L S
321 416 M 321 417 L S
321 368 M 321 369 L S
323 333 M 323 334 L S
323 407 M 323 408 L S
323 415 M 323 416 L S
323 333 M 323 334 L S
325 415 M 325 416 L S
325 415 M 325 416 L S
325 415 M 325 416 L S
325 415 M 325 416 L S
326 495 M 326 496 L S
326 423 M 326 424 L S
326 416 M 326 417 L S
326 495 M 326 496 L S
328 465 M 328 466 L S
328 421 M 328 422 L S
328 416 M 328 417 L S
328 465 M 328 466 L S
330 368 M 330 369 L S
330 411 M 330 412 L S
330 416 M 330 417 L S
330 368 M 330 369 L S
332 338 M 332 339 L S
332 408 M 332 409 L S
332 415 M 332 416 L S
332 338 M 332 339 L S
333 416 M 333 417 L S
333 415 M 333 416 L S
333 415 M 333 416 L S
333 416 M 333 417 L S
335 492 M 335 493 L S
335 423 M 335 424 L S
335 416 M 335 417 L S
335 492 M 335 493 L S
337 460 M 337 461 L S
337 420 M 337 421 L S
337 416 M 337 417 L S
337 460 M 337 461 L S
339 368 M 339 369 L S
339 411 M 339 412 L S
339 416 M 339 417 L S
339 368 M 339 369 L S
340 342 M 340 343 L S
340 408 M 340 409 L S
340 415 M 340 416 L S
340 342 M 340 343 L S
342 419 M 342 420 L S
342 416 M 342 417 L S
342 415 M 342 416 L S
342 419 M 342 420 L S
344 489 M 344 490 L S
344 423 M 344 424 L S
344 416 M 344 417 L S
344 489 M 344 490 L S
346 455 M 346 456 L S
346 420 M 346 421 L S
346 416 M 346 417 L S
346 455 M 346 456 L S
347 368 M 347 369 L S
347 411 M 347 412 L S
347 415 M 347 416 L S
347 368 M 347 369 L S
349 347 M 349 348 L S
349 409 M 349 410 L S
349 415 M 349 416 L S
349 347 M 349 348 L S
351 421 M 351 422 L S
351 416 M 351 417 L S
351 415 M 351 416 L S
351 421 M 351 422 L S
353 486 M 353 487 L S
353 422 M 353 423 L S
353 416 M 353 417 L S
353 486 M 353 487 L S
354 451 M 354 452 L S
354 419 M 354 420 L S
354 416 M 354 417 L S
354 451 M 354 452 L S
356 368 M 356 369 L S
356 411 M 356 412 L S
356 415 M 356 416 L S
356 368 M 356 369 L S
358 352 M 358 353 L S
358 409 M 358 410 L S
358 415 M 358 416 L S
358 352 M 358 353 L S
360 424 M 360 425 L S
360 416 M 360 417 L S
360 415 M 360 416 L S
360 424 M 360 425 L S
361 483 M 361 484 L S
361 422 M 361 423 L S
361 416 M 361 417 L S
361 483 M 361 484 L S
363 446 M 363 447 L S
363 419 M 363 420 L S
363 416 M 363 417 L S
363 446 M 363 447 L S
365 368 M 365 369 L S
365 411 M 365 412 L S
365 415 M 365 416 L S
365 368 M 365 369 L S
366 356 M 366 357 L S
366 410 M 366 411 L S
366 415 M 366 416 L S
366 356 M 366 357 L S
368 426 M 368 427 L S
368 416 M 368 417 L S
368 415 M 368 416 L S
368 426 M 368 427 L S
370 480 M 370 481 L S
370 422 M 370 423 L S
370 416 M 370 417 L S
370 480 M 370 481 L S
372 443 M 372 444 L S
372 418 M 372 419 L S
372 416 M 372 417 L S
372 443 M 372 444 L S
373 369 M 373 370 L S
373 411 M 373 412 L S
373 415 M 373 416 L S
373 369 M 373 370 L S
375 360 M 375 361 L S
375 410 M 375 411 L S
375 415 M 375 416 L S
375 360 M 375 361 L S
377 428 M 377 429 L S
377 417 M 377 418 L S
377 415 M 377 416 L S
377 428 M 377 429 L S
379 476 M 379 477 L S
379 421 M 379 422 L S
379 416 M 379 417 L S
379 476 M 379 477 L S
380 439 M 380 440 L S
380 418 M 380 419 L S
380 416 M 380 417 L S
380 439 M 380 440 L S
382 369 M 382 370 L S
382 411 M 382 412 L S
382 415 M 382 416 L S
382 369 M 382 370 L S
384 365 M 384 366 L S
384 410 M 384 411 L S
384 415 M 384 416 L S
384 365 M 384 366 L S
386 430 M 386 431 L S
386 417 M 386 418 L S
386 415 M 386 416 L S
386 430 M 386 431 L S
387 473 M 387 474 L S
387 421 M 387 422 L S
387 416 M 387 417 L S
387 473 M 387 474 L S
389 435 M 389 436 L S
389 418 M 389 419 L S
389 416 M 389 417 L S
389 435 M 389 436 L S
391 370 M 391 371 L S
391 411 M 391 412 L S
391 415 M 391 416 L S
391 370 M 391 371 L S
393 369 M 393 370 L S
393 411 M 393 412 L S
393 415 M 393 416 L S
393 369 M 393 370 L S
394 431 M 394 432 L S
394 417 M 394 418 L S
394 415 M 394 416 L S
394 431 M 394 432 L S
396 470 M 396 471 L S
396 421 M 396 422 L S
396 416 M 396 417 L S
396 470 M 396 471 L S
398 433 M 398 434 L S
398 417 M 398 418 L S
398 416 M 398 417 L S
398 433 M 398 434 L S
400 372 M 400 373 L S
400 411 M 400 412 L S
400 415 M 400 416 L S
400 372 M 400 373 L S
401 373 M 401 374 L S
401 411 M 401 412 L S
401 415 M 401 416 L S
401 373 M 401 374 L S
403 432 M 403 433 L S
403 417 M 403 418 L S
403 415 M 403 416 L S
403 432 M 403 433 L S
405 468 M 405 469 L S
405 421 M 405 422 L S
405 416 M 405 417 L S
405 468 M 405 469 L S
407 431 M 407 432 L S
407 417 M 407 418 L S
407 416 M 407 417 L S
407 431 M 407 432 L S
408 373 M 408 374 L S
408 411 M 408 412 L S
408 415 M 408 416 L S
408 373 M 408 374 L S
410 376 M 410 377 L S
410 412 M 410 413 L S
410 415 M 410 416 L S
410 376 M 410 377 L S
412 433 M 412 434 L S
412 417 M 412 418 L S
412 415 M 412 416 L S
412 433 M 412 434 L S
413 465 M 413 466 L S
413 420 M 413 421 L S
413 416 M 413 417 L S
413 465 M 413 466 L S
415 428 M 415 429 L S
415 417 M 415 418 L S
415 416 M 415 417 L S
415 428 M 415 429 L S
417 374 M 417 375 L S
417 411 M 417 412 L S
417 415 M 417 416 L S
417 374 M 417 375 L S
419 379 M 419 380 L S
419 412 M 419 413 L S
419 415 M 419 416 L S
419 379 M 419 380 L S
420 434 M 420 435 L S
420 417 M 420 418 L S
420 415 M 420 416 L S
420 434 M 420 435 L S
422 463 M 422 464 L S
422 420 M 422 421 L S
422 416 M 422 417 L S
422 463 M 422 464 L S
424 425 M 424 426 L S
424 416 M 424 417 L S
424 416 M 424 417 L S
424 425 M 424 426 L S
426 375 M 426 376 L S
426 411 M 426 412 L S
426 415 M 426 416 L S
426 375 M 426 376 L S
427 382 M 427 383 L S
427 412 M 427 413 L S
427 415 M 427 416 L S
427 382 M 427 383 L S
429 435 M 429 436 L S
429 417 M 429 418 L S
429 415 M 429 416 L S
429 435 M 429 436 L S
431 460 M 431 461 L S
431 420 M 431 421 L S
431 416 M 431 417 L S
431 460 M 431 461 L S
433 423 M 433 424 L S
433 416 M 433 417 L S
433 416 M 433 417 L S
433 423 M 433 424 L S
434 376 M 434 377 L S
434 412 M 434 413 L S
434 415 M 434 416 L S
434 376 M 434 377 L S
436 385 M 436 386 L S
436 413 M 436 414 L S
436 415 M 436 416 L S
436 385 M 436 386 L S
438 436 M 438 437 L S
438 418 M 438 419 L S
438 415 M 438 416 L S
438 436 M 438 437 L S
440 457 M 440 458 L S
440 420 M 440 421 L S
440 416 M 440 417 L S
440 457 M 440 458 L S
441 421 M 441 422 L S
441 416 M 441 417 L S
441 416 M 441 417 L S
441 421 M 441 422 L S
443 378 M 443 379 L S
443 412 M 443 413 L S
443 415 M 443 416 L S
443 378 M 443 379 L S
445 388 M 445 389 L S
445 413 M 445 414 L S
445 415 M 445 416 L S
445 388 M 445 389 L S
447 436 M 447 437 L S
447 418 M 447 419 L S
447 415 M 447 416 L S
447 436 M 447 437 L S
448 455 M 448 456 L S
448 419 M 448 420 L S
448 416 M 448 417 L S
448 455 M 448 456 L S
450 419 M 450 420 L S
450 416 M 450 417 L S
450 416 M 450 417 L S
450 419 M 450 420 L S
452 379 M 452 380 L S
452 412 M 452 413 L S
452 415 M 452 416 L S
452 379 M 452 380 L S
453 390 M 453 391 L S
453 413 M 453 414 L S
453 415 M 453 416 L S
453 390 M 453 391 L S
455 436 M 455 437 L S
455 418 M 455 419 L S
455 415 M 455 416 L S
455 436 M 455 437 L S
457 453 M 457 454 L S
457 419 M 457 420 L S
457 416 M 457 417 L S
457 453 M 457 454 L S
459 418 M 459 419 L S
459 415 M 459 416 L S
459 416 M 459 417 L S
459 418 M 459 419 L S
460 380 M 460 381 L S
460 412 M 460 413 L S
460 415 M 460 416 L S
460 380 M 460 381 L S
462 392 M 462 393 L S
462 413 M 462 414 L S
462 415 M 462 416 L S
462 392 M 462 393 L S
464 436 M 464 437 L S
464 418 M 464 419 L S
464 415 M 464 416 L S
464 436 M 464 437 L S
466 451 M 466 452 L S
466 419 M 466 420 L S
466 416 M 466 417 L S
466 451 M 466 452 L S
467 416 M 467 417 L S
467 415 M 467 416 L S
467 416 M 467 417 L S
467 416 M 467 417 L S
469 381 M 469 382 L S
469 412 M 469 413 L S
469 415 M 469 416 L S
469 381 M 469 382 L S
471 395 M 471 396 L S
471 414 M 471 415 L S
471 415 M 471 416 L S
471 395 M 471 396 L S
473 436 M 473 437 L S
473 418 M 473 419 L S
473 415 M 473 416 L S
473 436 M 473 437 L S
474 448 M 474 449 L S
474 419 M 474 420 L S
474 416 M 474 417 L S
474 448 M 474 449 L S
476 415 M 476 416 L S
476 415 M 476 416 L S
476 416 M 476 417 L S
476 415 M 476 416 L S
478 382 M 478 383 L S
478 412 M 478 413 L S
478 415 M 478 416 L S
478 382 M 478 383 L S
480 397 M 480 398 L S
480 414 M 480 415 L S
480 415 M 480 416 L S
480 397 M 480 398 L S
481 437 M 481 438 L S
481 418 M 481 419 L S
481 415 M 481 416 L S
481 437 M 481 438 L S
483 446 M 483 447 L S
483 418 M 483 419 L S
483 416 M 483 417 L S
483 446 M 483 447 L S
485 413 M 485 414 L S
485 415 M 485 416 L S
485 416 M 485 417 L S
485 413 M 485 414 L S
487 384 M 487 385 L S
487 412 M 487 413 L S
487 415 M 487 416 L S
487 384 M 487 385 L S
488 399 M 488 400 L S
488 414 M 488 415 L S
488 415 M 488 416 L S
488 399 M 488 400 L S
490 437 M 490 438 L S
490 418 M 490 419 L S
490 415 M 490 416 L S
490 437 M 490 438 L S
492 444 M 492 445 L S
492 418 M 492 419 L S
492 416 M 492 417 L S
492 444 M 492 445 L S
494 412 M 494 413 L S
494 415 M 494 416 L S
494 416 M 494 417 L S
494 412 M 494 413 L S
495 385 M 495 386 L S
495 412 M 495 413 L S
495 415 M 495 416 L S
495 385 M 495 386 L S
497 401 M 497 402 L S
497 414 M 497 415 L S
497 415 M 497 416 L S
497 401 M 497 402 L S
499 437 M 499 438 L S
499 418 M 499 419 L S
499 415 M 499 416 L S
499 437 M 499 438 L S
500 442 M 500 443 L S
500 418 M 500 419 L S
500 416 M 500 417 L S
500 442 M 500 443 L S
502 411 M 502 412 L S
502 415 M 502 416 L S
502 416 M 502 417 L S
502 411 M 502 412 L S
504 386 M 504 387 L S
504 413 M 504 414 L S
504 415 M 504 416 L S
504 386 M 504 387 L S
506 403 M 506 404 L S
506 414 M 506 415 L S
506 415 M 506 416 L S
506 403 M 506 404 L S
507 436 M 507 437 L S
507 418 M 507 419 L S
507 415 M 507 416 L S
507 436 M 507 437 L S
509 440 M 509 441 L S
509 418 M 509 419 L S
509 416 M 509 417 L S
509 440 M 509 441 L S
511 410 M 511 411 L S
511 415 M 511 416 L S
511 416 M 511 417 L S
511 410 M 511 411 L S
513 388 M 513 389 L S
513 413 M 513 414 L S
513 415 M 513 416 L S
513 388 M 513 389 L S
514 405 M 514 406 L S
514 415 M 514 416 L S
514 415 M 514 416 L S
514 405 M 514 406 L S
516 436 M 516 437 L S
516 418 M 516 419 L S
516 415 M 516 416 L S
516 436 M 516 437 L S
518 438 M 518 439 L S
518 418 M 518 419 L S
518 416 M 518 417 L S
518 438 M 518 439 L S
520 409 M 520 410 L S
520 415 M 520 416 L S
520 416 M 520 417 L S
520 409 M 520 410 L S
521 389 M 521 390 L S
521 413 M 521 414 L S
521 415 M 521 416 L S
521 389 M 521 390 L S
523 406 M 523 407 L S
523 415 M 523 416 L S
523 415 M 523 416 L S
523 406 M 523 407 L S
525 436 M 525 437 L S
525 418 M 525 419 L S
525 415 M 525 416 L S
525 436 M 525 437 L S
527 437 M 527 438 L S
527 417 M 527 418 L S
527 416 M 527 417 L S
527 437 M 527 438 L S
528 408 M 528 409 L S
528 415 M 528 416 L S
528 416 M 528 417 L S
528 408 M 528 409 L S
530 390 M 530 391 L S
530 413 M 530 414 L S
530 415 M 530 416 L S
530 390 M 530 391 L S
532 407 M 532 408 L S
532 415 M 532 416 L S
532 415 M 532 416 L S
532 407 M 532 408 L S
534 435 M 534 436 L S
534 417 M 534 418 L S
534 415 M 534 416 L S
534 435 M 534 436 L S
535 435 M 535 436 L S
535 417 M 535 418 L S
535 416 M 535 417 L S
535 435 M 535 436 L S
537 408 M 537 409 L S
537 415 M 537 416 L S
537 416 M 537 417 L S
537 408 M 537 409 L S
539 392 M 539 393 L S
539 413 M 539 414 L S
539 415 M 539 416 L S
539 392 M 539 393 L S
540 409 M 540 410 L S
540 415 M 540 416 L S
540 415 M 540 416 L S
540 409 M 540 410 L S
542 435 M 542 436 L S
542 417 M 542 418 L S
542 416 M 542 417 L S
542 435 M 542 436 L S
544 433 M 544 434 L S
544 417 M 544 418 L S
544 416 M 544 417 L S
544 433 M 544 434 L S
546 407 M 546 408 L S
546 415 M 546 416 L S
546 416 M 546 417 L S
546 407 M 546 408 L S
547 393 M 547 394 L S
547 413 M 547 414 L S
547 415 M 547 416 L S
547 393 M 547 394 L S
549 410 M 549 411 L S
549 415 M 549 416 L S
549 415 M 549 416 L S
549 410 M 549 411 L S
551 434 M 551 435 L S
551 417 M 551 418 L S
551 416 M 551 417 L S
551 434 M 551 435 L S
553 432 M 553 433 L S
553 417 M 553 418 L S
553 416 M 553 417 L S
553 432 M 553 433 L S
554 407 M 554 408 L S
554 415 M 554 416 L S
554 416 M 554 417 L S
554 407 M 554 408 L S
556 394 M 556 395 L S
556 413 M 556 414 L S
556 415 M 556 416 L S
556 394 M 556 395 L S
558 411 M 558 412 L S
558 415 M 558 416 L S
558 415 M 558 416 L S
558 411 M 558 412 L S
560 434 M 560 435 L S
560 417 M 560 418 L S
560 416 M 560 417 L S
560 434 M 560 435 L S
561 430 M 561 431 L S
561 417 M 561 418 L S
561 416 M 561 417 L S
561 430 M 561 431 L S
563 406 M 563 407 L S
563 415 M 563 416 L S
563 415 M 563 416 L S
563 406 M 563 407 L S
565 395 M 565 396 L S
565 413 M 565 414 L S
565 415 M 565 416 L S
565 395 M 565 396 L S
567 412 M 567 413 L S
567 415 M 567 416 L S
567 415 M 567 416 L S
567 412 M 567 413 L S
568 433 M 568 434 L S
568 417 M 568 418 L S
568 416 M 568 417 L S
568 433 M 568 434 L S
570 429 M 570 430 L S
570 417 M 570 418 L S
570 416 M 570 417 L S
570 429 M 570 430 L S
572 406 M 572 407 L S
572 415 M 572 416 L S
572 415 M 572 416 L S
572 406 M 572 407 L S
574 397 M 574 398 L S
574 414 M 574 415 L S
574 415 M 574 416 L S
574 397 M 574 398 L S
575 413 M 575 414 L S
575 415 M 575 416 L S
575 415 M 575 416 L S
575 413 M 575 414 L S
577 433 M 577 434 L S
577 417 M 577 418 L S
577 416 M 577 417 L S
577 433 M 577 434 L S
579 427 M 579 428 L S
579 417 M 579 418 L S
579 416 M 579 417 L S
579 427 M 579 428 L S
581 406 M 581 407 L S
581 415 M 581 416 L S
581 415 M 581 416 L S
581 406 M 581 407 L S
582 398 M 582 399 L S
582 414 M 582 415 L S
582 415 M 582 416 L S
582 398 M 582 399 L S
584 414 M 584 415 L S
584 415 M 584 416 L S
584 415 M 584 416 L S
584 414 M 584 415 L S
586 432 M 586 433 L S
586 417 M 586 418 L S
586 416 M 586 417 L S
586 432 M 586 433 L S
587 426 M 587 427 L S
587 417 M 587 418 L S
587 416 M 587 417 L S
587 426 M 587 427 L S
589 405 M 589 406 L S
589 415 M 589 416 L S
589 415 M 589 416 L S
589 405 M 589 406 L S
591 399 M 591 400 L S
591 414 M 591 415 L S
591 415 M 591 416 L S
591 399 M 591 400 L S
593 415 M 593 416 L S
593 415 M 593 416 L S
593 415 M 593 416 L S
593 415 M 593 416 L S
594 432 M 594 433 L S
594 417 M 594 418 L S
594 416 M 594 417 L S
594 432 M 594 433 L S
596 425 M 596 426 L S
596 416 M 596 417 L S
596 416 M 596 417 L S
596 425 M 596 426 L S
598 405 M 598 406 L S
598 414 M 598 415 L S
598 415 M 598 416 L S
598 405 M 598 406 L S
600 400 M 600 401 L S
600 414 M 600 415 L S
600 415 M 600 416 L S
600 400 M 600 401 L S
601 416 M 601 417 L S
601 415 M 601 416 L S
601 415 M 601 416 L S
601 416 M 601 417 L S
603 431 M 603 432 L S
603 417 M 603 418 L S
603 416 M 603 417 L S
603 431 M 603 432 L S
605 424 M 605 425 L S
605 416 M 605 417 L S
605 416 M 605 417 L S
605 424 M 605 425 L S
607 405 M 607 406 L S
607 415 M 607 416 L S
607 415 M 607 416 L S
607 405 M 607 406 L S
608 401 M 608 402 L S
608 414 M 608 415 L S
608 415 M 608 416 L S
608 401 M 608 402 L S
610 417 M 610 418 L S
610 416 M 610 417 L S
610 415 M 610 416 L S
610 417 M 610 418 L S
612 430 M 612 431 L S
612 417 M 612 418 L S
612 416 M 612 417 L S
612 430 M 612 431 L S
614 423 M 614 424 L S
614 416 M 614 417 L S
614 416 M 614 417 L S
614 423 M 614 424 L S
615 405 M 615 406 L S
615 415 M 615 416 L S
615 415 M 615 416 L S
615 405 M 615 406 L S
617 402 M 617 403 L S
617 414 M 617 415 L S
617 415 M 617 416 L S
617 402 M 617 403 L S
619 417 M 619 418 L S
619 416 M 619 417 L S
619 415 M 619 416 L S
619 417 M 619 418 L S
621 430 M 621 431 L S
621 417 M 621 418 L S
621 416 M 621 417 L S
621 430 M 621 431 L S
622 422 M 622 423 L S
622 416 M 622 417 L S
622 416 M 622 417 L S
622 422 M 622 423 L S
624 405 M 624 406 L S
624 415 M 624 416 L S
624 415 M 624 416 L S
624 405 M 624 406 L S
626 403 M 626 404 L S
626 414 M 626 415 L S
626 415 M 626 416 L S
626 403 M 626 404 L S
627 418 M 627 419 L S
627 416 M 627 417 L S
627 415 M 627 416 L S
627 418 M 627 419 L S
629 429 M 629 430 L S
629 417 M 629 418 L S
629 416 M 629 417 L S
629 429 M 629 430 L S
631 421 M 631 422 L S
631 416 M 631 417 L S
631 416 M 631 417 L S
631 421 M 631 422 L S
633 406 M 633 407 L S
633 415 M 633 416 L S
633 415 M 633 416 L S
633 406 M 633 407 L S
634 404 M 634 405 L S
634 414 M 634 415 L S
634 415 M 634 416 L S
634 404 M 634 405 L S
636 418 M 636 419 L S
636 416 M 636 417 L S
636 415 M 636 416 L S
636 418 M 636 419 L S
638 428 M 638 429 L S
638 417 M 638 418 L S
638 416 M 638 417 L S
638 428 M 638 429 L S
640 421 M 640 422 L S
640 416 M 640 417 L S
640 416 M 640 417 L S
640 421 M 640 422 L S
641 406 M 641 407 L S
641 415 M 641 416 L S
641 415 M 641 416 L S
641 406 M 641 407 L S
643 405 M 643 406 L S
643 414 M 643 415 L S
643 415 M 643 416 L S
643 405 M 643 406 L S
645 419 M 645 420 L S
645 416 M 645 417 L S
645 415 M 645 416 L S
645 419 M 645 420 L S
647 428 M 647 429 L S
647 417 M 647 418 L S
647 416 M 647 417 L S
647 428 M 647 429 L S
648 420 M 648 421 L S
648 416 M 648 417 L S
648 416 M 648 417 L S
648 420 M 648 421 L S
650 406 M 650 407 L S
650 415 M 650 416 L S
650 415 M 650 416 L S
650 406 M 650 407 L S
652 406 M 652 407 L S
652 414 M 652 415 L S
652 415 M 652 416 L S
652 406 M 652 407 L S
654 419 M 654 420 L S
654 416 M 654 417 L S
654 415 M 654 416 L S
654 419 M 654 420 L S
655 427 M 655 428 L S
655 417 M 655 418 L S
655 416 M 655 417 L S
655 427 M 655 428 L S
657 419 M 657 420 L S
657 416 M 657 417 L S
657 416 M 657 417 L S
657 419 M 657 420 L S
659 406 M 659 407 L S
659 415 M 659 416 L S
659 415 M 659 416 L S
659 406 M 659 407 L S
661 406 M 661 407 L S
661 415 M 661 416 L S
661 415 M 661 416 L S
661 406 M 661 407 L S
662 420 M 662 421 L S
662 416 M 662 417 L S
662 415 M 662 416 L S
662 420 M 662 421 L S
664 427 M 664 428 L S
664 417 M 664 418 L S
664 416 M 664 417 L S
664 427 M 664 428 L S
666 419 M 666 420 L S
666 416 M 666 417 L S
666 416 M 666 417 L S
666 419 M 666 420 L S
668 406 M 668 407 L S
668 415 M 668 416 L S
668 415 M 668 416 L S
668 406 M 668 407 L S
669 407 M 669 408 L S
669 415 M 669 416 L S
669 415 M 669 416 L S
669 407 M 669 408 L S
671 420 M 671 421 L S
671 416 M 671 417 L S
671 415 M 671 416 L S
671 420 M 671 421 L S
673 426 M 673 427 L S
673 416 M 673 417 L S
673 416 M 673 417 L S
673 426 M 673 427 L S
674 418 M 674 419 L S
674 416 M 674 417 L S
674 416 M 674 417 L S
674 418 M 674 419 L S
676 407 M 676 408 L S
676 415 M 676 416 L S
676 415 M 676 416 L S
676 407 M 676 408 L S
678 408 M 678 409 L S
678 415 M 678 416 L S
678 415 M 678 416 L S
678 408 M 678 409 L S
680 420 M 680 421 L S
680 416 M 680 417 L S
680 415 M 680 416 L S
680 420 M 680 421 L S
681 425 M 681 426 L S
681 416 M 681 417 L S
681 416 M 681 417 L S
681 425 M 681 426 L S
683 417 M 683 418 L S
683 416 M 683 417 L S
683 416 M 683 417 L S
683 417 M 683 418 L S
685 407 M 685 408 L S
685 415 M 685 416 L S
685 415 M 685 416 L S
685 407 M 685 408 L S
687 409 M 687 410 L S
687 415 M 687 416 L S
687 415 M 687 416 L S
687 409 M 687 410 L S
688 420 M 688 421 L S
688 416 M 688 417 L S
688 415 M 688 416 L S
688 420 M 688 421 L S
690 425 M 690 426 L S
690 416 M 690 417 L S
690 416 M 690 417 L S
690 425 M 690 426 L S
692 417 M 692 418 L S
692 416 M 692 417 L S
692 416 M 692 417 L S
692 417 M 692 418 L S
694 407 M 694 408 L S
694 415 M 694 416 L S
694 415 M 694 416 L S
694 407 M 694 408 L S
695 409 M 695 410 L S
695 415 M 695 416 L S
695 415 M 695 416 L S
695 409 M 695 410 L S
697 420 M 697 421 L S
697 416 M 697 417 L S
697 415 M 697 416 L S
697 420 M 697 421 L S
699 424 M 699 425 L S
699 416 M 699 417 L S
699 416 M 699 417 L S
699 424 M 699 425 L S
701 416 M 701 417 L S
701 416 M 701 417 L S
701 416 M 701 417 L S
701 416 M 701 417 L S
702 407 M 702 408 L S
702 415 M 702 416 L S
702 415 M 702 416 L S
702 407 M 702 408 L S
704 410 M 704 411 L S
704 415 M 704 416 L S
704 415 M 704 416 L S
704 410 M 704 411 L S
706 420 M 706 421 L S
706 416 M 706 417 L S
706 415 M 706 416 L S
706 420 M 706 421 L S
708 424 M 708 425 L S
708 416 M 708 417 L S
708 416 M 708 417 L S
708 424 M 708 425 L S
709 416 M 709 417 L S
709 416 M 709 417 L S
709 416 M 709 417 L S
709 416 M 709 417 L S
711 408 M 711 409 L S
711 415 M 711 416 L S
711 415 M 711 416 L S
711 408 M 711 409 L S
713 410 M 713 411 L S
713 415 M 713 416 L S
713 415 M 713 416 L S
713 410 M 713 411 L S
714 420 M 714 421 L S
714 416 M 714 417 L S
714 415 M 714 416 L S
714 420 M 714 421 L S
716 423 M 716 424 L S
716 416 M 716 417 L S
716 416 M 716 417 L S
716 423 M 716 424 L S
718 415 M 718 416 L S
718 416 M 718 417 L S
718 416 M 718 417 L S
718 415 M 718 416 L S
720 408 M 720 409 L S
720 415 M 720 416 L S
720 415 M 720 416 L S
720 408 M 720 409 L S
721 411 M 721 412 L S
721 415 M 721 416 L S
721 415 M 721 416 L S
721 411 M 721 412 L S
723 420 M 723 421 L S
723 416 M 723 417 L S
723 415 M 723 416 L S
723 420 M 723 421 L S
725 423 M 725 424 L S
725 416 M 725 417 L S
725 416 M 725 417 L S
725 423 M 725 424 L S
727 415 M 727 416 L S
727 416 M 727 417 L S
727 415 M 727 416 L S
727 415 M 727 416 L S
728 408 M 728 409 L S
728 415 M 728 416 L S
728 415 M 728 416 L S
728 408 M 728 409 L S
730 411 M 730 412 L S
730 415 M 730 416 L S
730 415 M 730 416 L S
730 411 M 730 412 L S
732 420 M 732 421 L S
732 416 M 732 417 L S
732 415 M 732 416 L S
732 420 M 732 421 L S
734 422 M 734 423 L S
734 416 M 734 417 L S
734 416 M 734 417 L S
734 422 M 734 423 L S
735 415 M 735 416 L S
735 415 M 735 416 L S
735 415 M 735 416 L S
735 415 M 735 416 L S
737 408 M 737 409 L S
737 415 M 737 416 L S
737 415 M 737 416 L S
737 408 M 737 409 L S
739 412 M 739 413 L S
739 415 M 739 416 L S
739 415 M 739 416 L S
739 412 M 739 413 L S
741 420 M 741 421 L S
741 416 M 741 417 L S
741 415 M 741 416 L S
741 420 M 741 421 L S
742 422 M 742 423 L S
742 416 M 742 417 L S
742 416 M 742 417 L S
742 422 M 742 423 L S
744 414 M 744 415 L S
744 415 M 744 416 L S
744 415 M 744 416 L S
744 414 M 744 415 L S
746 409 M 746 410 L S
746 415 M 746 416 L S
746 415 M 746 416 L S
746 409 M 746 410 L S
748 412 M 748 413 L S
748 415 M 748 416 L S
748 415 M 748 416 L S
748 412 M 748 413 L S
749 420 M 749 421 L S
749 416 M 749 417 L S
749 415 M 749 416 L S
749 420 M 749 421 L S
751 421 M 751 422 L S
751 416 M 751 417 L S
751 416 M 751 417 L S
751 421 M 751 422 L S
753 414 M 753 415 L S
753 415 M 753 416 L S
753 415 M 753 416 L S
753 414 M 753 415 L S
755 409 M 755 410 L S
755 415 M 755 416 L S
755 415 M 755 416 L S
755 409 M 755 410 L S
756 413 M 756 414 L S
756 415 M 756 416 L S
756 415 M 756 416 L S
756 413 M 756 414 L S
758 420 M 758 421 L S
758 416 M 758 417 L S
758 415 M 758 416 L S
758 420 M 758 421 L S
760 421 M 760 422 L S
760 416 M 760 417 L S
760 416 M 760 417 L S
760 421 M 760 422 L S
761 414 M 761 415 L S
761 415 M 761 416 L S
761 415 M 761 416 L S
761 414 M 761 415 L S
763 409 M 763 410 L S
763 415 M 763 416 L S
763 415 M 763 416 L S
763 409 M 763 410 L S
765 413 M 765 414 L S
765 415 M 765 416 L S
765 415 M 765 416 L S
765 413 M 765 414 L S
767 420 M 767 421 L S
767 416 M 767 417 L S
767 415 M 767 416 L S
767 420 M 767 421 L S
768 420 M 768 421 L S
768 416 M 768 417 L S
768 416 M 768 417 L S
768 420 M 768 421 L S
770 414 M 770 415 L S
770 415 M 770 416 L S
770 415 M 770 416 L S
770 414 M 770 415 L S
772 410 M 772 411 L S
772 415 M 772 416 L S
772 415 M 772 416 L S
772 410 M 772 411 L S
774 413 M 774 414 L S
774 415 M 774 416 L S
774 415 M 774 416 L S
774 413 M 774 414 L S
775 420 M 775 421 L S
775 416 M 775 417 L S
775 415 M 775 416 L S
775 420 M 775 421 L S
777 420 M 777 421 L S
777 416 M 777 417 L S
777 416 M 777 417 L S
777 420 M 777 421 L S
779 414 M 779 415 L S
779 415 M 779 416 L S
779 415 M 779 416 L S
779 414 M 779 415 L S
781 410 M 781 411 L S
781 415 M 781 416 L S
781 415 M 781 416 L S
781 410 M 781 411 L S
782 414 M 782 415 L S
782 415 M 782 416 L S
782 415 M 782 416 L S
782 414 M 782 415 L S
784 420 M 784 421 L S
784 416 M 784 417 L S
784 415 M 784 416 L S
784 420 M 784 421 L S
786 420 M 786 421 L S
786 416 M 786 417 L S
786 415 M 786 416 L S
786 420 M 786 421 L S
788 414 M 788 415 L S
788 415 M 788 416 L S
788 415 M 788 416 L S
788 414 M 788 415 L S
789 410 M 789 411 L S
789 415 M 789 416 L S
789 415 M 789 416 L S
789 410 M 789 411 L S
791 414 M 791 415 L S
791 415 M 791 416 L S
791 415 M 791 416 L S
791 414 M 791 415 L S
793 420 M 793 421 L S
793 416 M 793 417 L S
793 415 M 793 416 L S
793 420 M 793 421 L S
795 419 M 795 420 L S
795 416 M 795 417 L S
795 415 M 795 416 L S
795 419 M 795 420 L S
796 414 M 796 415 L S
796 415 M 796 416 L S
796 415 M 796 416 L S
796 414 M 796 415 L S
798 411 M 798 412 L S
798 415 M 798 416 L S
798 415 M 798 416 L S
798 411 M 798 412 L S
800 414 M 800 415 L S
800 415 M 800 416 L S
800 415 M 800 416 L S
800 414 M 800 415 L S
801 420 M 801 421 L S
801 416 M 801 417 L S
801 415 M 801 416 L S
801 420 M 801 421 L S
803 419 M 803 420 L S
803 416 M 803 417 L S
803 415 M 803 416 L S
803 419 M 803 420 L S
805 414 M 805 415 L S
805 415 M 805 416 L S
805 415 M 805 416 L S
805 414 M 805 415 L S
807 411 M 807 412 L S
807 415 M 807 416 L S
807 415 M 807 416 L S
807 411 M 807 412 L S
808 415 M 808 416 L S
808 415 M 808 416 L S
808 415 M 808 416 L S
808 415 M 808 416 L S
810 420 M 810 421 L S
810 416 M 810 417 L S
810 415 M 810 416 L S
810 420 M 810 421 L S
812 419 M 812 420 L S
812 416 M 812 417 L S
812 415 M 812 416 L S
812 419 M 812 420 L S
814 413 M 814 414 L S
814 415 M 814 416 L S
814 415 M 814 416 L S
814 413 M 814 414 L S
815 411 M 815 412 L S
815 415 M 815 416 L S
815 415 M 815 416 L S
815 411 M 815 412 L S
817 415 M 817 416 L S
817 415 M 817 416 L S
817 415 M 817 416 L S
817 415 M 817 416 L S
819 419 M 819 420 L S
819 416 M 819 417 L S
819 415 M 819 416 L S
819 419 M 819 420 L S
821 418 M 821 419 L S
821 416 M 821 417 L S
821 415 M 821 416 L S
821 418 M 821 419 L S
822 413 M 822 414 L S
822 415 M 822 416 L S
822 415 M 822 416 L S
822 413 M 822 414 L S
824 411 M 824 412 L S
824 415 M 824 416 L S
824 415 M 824 416 L S
824 411 M 824 412 L S
826 415 M 826 416 L S
826 415 M 826 416 L S
826 415 M 826 416 L S
826 415 M 826 416 L S
828 419 M 828 420 L S
828 416 M 828 417 L S
828 415 M 828 416 L S
828 419 M 828 420 L S
829 418 M 829 419 L S
829 416 M 829 417 L S
829 415 M 829 416 L S
829 418 M 829 419 L S
831 413 M 831 414 L S
831 415 M 831 416 L S
831 415 M 831 416 L S
831 413 M 831 414 L S
833 412 M 833 413 L S
833 415 M 833 416 L S
833 415 M 833 416 L S
833 412 M 833 413 L S
835 415 M 835 416 L S
835 415 M 835 416 L S
835 415 M 835 416 L S
835 415 M 835 416 L S
836 419 M 836 420 L S
836 416 M 836 417 L S
836 415 M 836 416 L S
836 419 M 836 420 L S
838 418 M 838 419 L S
838 416 M 838 417 L S
838 415 M 838 416 L S
838 418 M 838 419 L S
840 413 M 840 414 L S
840 415 M 840 416 L S
840 415 M 840 416 L S
840 413 M 840 414 L S
842 412 M 842 413 L S
842 415 M 842 416 L S
842 415 M 842 416 L S
842 412 M 842 413 L S
843 415 M 843 416 L S
843 415 M 843 416 L S
843 415 M 843 416 L S
843 415 M 843 416 L S
845 419 M 845 420 L S
845 416 M 845 417 L S
845 415 M 845 416 L S
845 419 M 845 420 L S
847 418 M 847 419 L S
847 416 M 847 417 L S
847 415 M 847 416 L S
847 418 M 847 419 L S
848 413 M 848 414 L S
848 415 M 848 416 L S
848 415 M 848 416 L S
848 413 M 848 414 L S
850 412 M 850 413 L S
850 415 M 850 416 L S
850 415 M 850 416 L S
850 412 M 850 413 L S
852 416 M 852 417 L S
852 415 M 852 416 L S
852 415 M 852 416 L S
852 416 M 852 417 L S
854 419 M 854 420 L S
854 416 M 854 417 L S
854 415 M 854 416 L S
854 419 M 854 420 L S
855 417 M 855 418 L S
855 416 M 855 417 L S
855 415 M 855 416 L S
855 417 M 855 418 L S
857 413 M 857 414 L S
857 415 M 857 416 L S
857 415 M 857 416 L S
857 413 M 857 414 L S
859 412 M 859 413 L S
859 415 M 859 416 L S
859 415 M 859 416 L S
859 412 M 859 413 L S
861 416 M 861 417 L S
861 415 M 861 416 L S
861 415 M 861 416 L S
861 416 M 861 417 L S
862 419 M 862 420 L S
862 416 M 862 417 L S
862 415 M 862 416 L S
862 419 M 862 420 L S
864 417 M 864 418 L S
864 416 M 864 417 L S
864 415 M 864 416 L S
864 417 M 864 418 L S
866 413 M 866 414 L S
866 415 M 866 416 L S
866 415 M 866 416 L S
866 413 M 866 414 L S
868 412 M 868 413 L S
868 415 M 868 416 L S
868 415 M 868 416 L S
868 412 M 868 413 L S
869 416 M 869 417 L S
869 415 M 869 416 L S
869 415 M 869 416 L S
869 416 M 869 417 L S
871 419 M 871 420 L S
871 416 M 871 417 L S
871 415 M 871 416 L S
871 419 M 871 420 L S
873 417 M 873 418 L S
873 416 M 873 417 L S
873 415 M 873 416 L S
873 417 M 873 418 L S
875 413 M 875 414 L S
875 415 M 875 416 L S
875 415 M 875 416 L S
875 413 M 875 414 L S
876 413 M 876 414 L S
876 415 M 876 416 L S
876 415 M 876 416 L S
876 413 M 876 414 L S
878 416 M 878 417 L S
878 415 M 878 416 L S
878 415 M 878 416 L S
878 416 M 878 417 L S
880 418 M 880 419 L S
880 416 M 880 417 L S
880 415 M 880 416 L S
880 418 M 880 419 L S
882 417 M 882 418 L S
882 416 M 882 417 L S
882 415 M 882 416 L S
882 417 M 882 418 L S
883 413 M 883 414 L S
883 415 M 883 416 L S
883 415 M 883 416 L S
883 413 M 883 414 L S
885 413 M 885 414 L S
885 415 M 885 416 L S
885 415 M 885 416 L S
885 413 M 885 414 L S
887 416 M 887 417 L S
887 415 M 887 416 L S
887 415 M 887 416 L S
887 416 M 887 417 L S
888 418 M 888 419 L S
888 416 M 888 417 L S
888 415 M 888 416 L S
888 418 M 888 419 L S
890 417 M 890 418 L S
890 416 M 890 417 L S
890 415 M 890 416 L S
890 417 M 890 418 L S
892 413 M 892 414 L S
892 415 M 892 416 L S
892 415 M 892 416 L S
892 413 M 892 414 L S
894 413 M 894 414 L S
894 415 M 894 416 L S
894 415 M 894 416 L S
894 413 M 894 414 L S
895 416 M 895 417 L S
895 415 M 895 416 L S
895 415 M 895 416 L S
895 416 M 895 417 L S
897 418 M 897 419 L S
897 416 M 897 417 L S
897 415 M 897 416 L S
897 418 M 897 419 L S
899 416 M 899 417 L S
899 416 M 899 417 L S
899 415 M 899 416 L S
899 416 M 899 417 L S
901 413 M 901 414 L S
901 415 M 901 416 L S
901 415 M 901 416 L S
901 413 M 901 414 L S
902 413 M 902 414 L S
902 415 M 902 416 L S
902 415 M 902 416 L S
902 413 M 902 414 L S
904 416 M 904 417 L S
904 415 M 904 416 L S
904 415 M 904 416 L S
904 416 M 904 417 L S
906 418 M 906 419 L S
906 416 M 906 417 L S
906 415 M 906 416 L S
906 418 M 906 419 L S
908 416 M 908 417 L S
908 416 M 908 417 L S
908 415 M 908 416 L S
908 416 M 908 417 L S
909 413 M 909 414 L S
909 415 M 909 416 L S
909 415 M 909 416 L S
909 413 M 909 414 L S
911 413 M 911 414 L S
911 415 M 911 416 L S
911 415 M 911 416 L S
911 413 M 911 414 L S
913 416 M 913 417 L S
913 415 M 913 416 L S
913 415 M 913 416 L S
913 416 M 913 417 L S
915 418 M 915 419 L S
915 416 M 915 417 L S
915 415 M 915 416 L S
915 418 M 915 419 L S
916 416 M 916 417 L S
916 416 M 916 417 L S
916 415 M 916 416 L S
916 416 M 916 417 L S
918 413 M 918 414 L S
918 415 M 918 416 L S
918 415 M 918 416 L S
918 413 M 918 414 L S
920 414 M 920 415 L S
920 415 M 920 416 L S
920 415 M 920 416 L S
920 414 M 920 415 L S
922 416 M 922 417 L S
922 415 M 922 416 L S
922 415 M 922 416 L S
922 416 M 922 417 L S
923 418 M 923 419 L S
923 416 M 923 417 L S
923 415 M 923 416 L S
923 418 M 923 419 L S
925 416 M 925 417 L S
925 416 M 925 417 L S
925 415 M 925 416 L S
925 416 M 925 417 L S
927 413 M 927 414 L S
927 415 M 927 416 L S
927 415 M 927 416 L S
927 413 M 927 414 L S
929 414 M 929 415 L S
929 415 M 929 416 L S
929 415 M 929 416 L S
929 414 M 929 415 L S
930 416 M 930 417 L S
930 416 M 930 417 L S
930 415 M 930 416 L S
930 416 M 930 417 L S
932 418 M 932 419 L S
932 416 M 932 417 L S
932 415 M 932 416 L S
932 418 M 932 419 L S
934 416 M 934 417 L S
934 416 M 934 417 L S
934 415 M 934 416 L S
934 416 M 934 417 L S
935 414 M 935 415 L S
935 415 M 935 416 L S
935 415 M 935 416 L S
935 414 M 935 415 L S
937 414 M 937 415 L S
937 415 M 937 416 L S
937 415 M 937 416 L S
937 414 M 937 415 L S
939 416 M 939 417 L S
939 416 M 939 417 L S
939 415 M 939 416 L S
939 416 M 939 417 L S
941 418 M 941 419 L S
941 416 M 941 417 L S
941 415 M 941 416 L S
941 418 M 941 419 L S
942 416 M 942 417 L S
942 416 M 942 417 L S
942 415 M 942 416 L S
942 416 M 942 417 L S
944 414 M 944 415 L S
944 415 M 944 416 L S
944 415 M 944 416 L S
944 414 M 944 415 L S
946 414 M 946 415 L S
946 415 M 946 416 L S
946 415 M 946 416 L S
946 414 M 946 415 L S
948 416 M 948 417 L S
948 416 M 948 417 L S
948 415 M 948 416 L S
948 416 M 948 417 L S
949 417 M 949 418 L S
949 416 M 949 417 L S
949 415 M 949 416 L S
949 417 M 949 418 L S
951 416 M 951 417 L S
951 416 M 951 417 L S
951 415 M 951 416 L S
951 416 M 951 417 L S
953 414 M 953 415 L S
953 415 M 953 416 L S
953 415 M 953 416 L S
953 414 M 953 415 L S
955 414 M 955 415 L S
955 415 M 955 416 L S
955 415 M 955 416 L S
955 414 M 955 415 L S
956 416 M 956 417 L S
956 416 M 956 417 L S
956 415 M 956 416 L S
956 416 M 956 417 L S
958 417 M 958 418 L S
958 416 M 958 417 L S
958 415 M 958 416 L S
958 417 M 958 418 L S
960 416 M 960 417 L S
960 415 M 960 416 L S
960 415 M 960 416 L S
960 416 M 960 417 L S
962 414 M 962 415 L S
962 415 M 962 416 L S
962 415 M 962 416 L S
962 414 M 962 415 L S
963 414 M 963 415 L S
963 415 M 963 416 L S
963 415 M 963 416 L S
963 414 M 963 415 L S
965 416 M 965 417 L S
965 416 M 965 417 L S
965 415 M 965 416 L S
965 416 M 965 417 L S
967 417 M 967 418 L S
967 416 M 967 417 L S
967 415 M 967 416 L S
967 417 M 967 418 L S
969 416 M 969 417 L S
969 415 M 969 416 L S
969 415 M 969 416 L S
969 416 M 969 417 L S
970 414 M 970 415 L S
970 415 M 970 416 L S
970 415 M 970 416 L S
970 414 M 970 415 L S
972 414 M 972 415 L S
972 415 M 972 416 L S
972 415 M 972 416 L S
972 415 M 972 416 L S
/Courier-Bold findfont 27 scalefont setfont
101 764 M (Zgoubi|Zpop                                                                     ) H
101 743 M (05-05-2020                                                                      ) H
/Courier-Bold findfont 26 scalefont setfont
160 85 M (* # COORDINATES  - STORAGE FILE, 05-05-2020 22:38:34 *                                                                            ) H
293 755 M (   Z     (m)  vs.  Pass#                                                                                                          ) H
26 42 M (Mi-ma H/V:   1.00000E+00  5.01000E+02/ -1.59878E-03  2.00000E-03                                                                  ) H
26 21 M (Part#  1- 10000 (*); Lmnt#     1; pass#       1-    501, [    1];   1503 pnts                                                     ) H
showpage
