%!PS-Adobe-2.0 EPSF-2.0
%%Title: gnuplot_Zplt_YZ.eps
%%Creator: gnuplot 5.2 patchlevel 2
%%CreationDate: Sat Mar 19 04:30:16 2022
%%DocumentFonts: (atend)
%%BoundingBox: 50 50 410 302
%%EndComments
%%BeginProlog
/gnudict 256 dict def
gnudict begin
%
% The following true/false flags may be edited by hand if desired.
% The unit line width and grayscale image gamma correction may also be changed.
%
/Color true def
/Blacktext false def
/Solid false def
/Dashlength 1 def
/Landscape false def
/Level1 false def
/Level3 false def
/Rounded false def
/ClipToBoundingBox false def
/SuppressPDFMark false def
/TransparentPatterns false def
/gnulinewidth 5.000 def
/userlinewidth gnulinewidth def
/Gamma 1.0 def
/BackgroundColor {-1.000 -1.000 -1.000} def
%
/vshift -46 def
/dl1 {
  10.0 Dashlength userlinewidth gnulinewidth div mul mul mul
  Rounded { currentlinewidth 0.75 mul sub dup 0 le { pop 0.01 } if } if
} def
/dl2 {
  10.0 Dashlength userlinewidth gnulinewidth div mul mul mul
  Rounded { currentlinewidth 0.75 mul add } if
} def
/hpt_ 31.5 def
/vpt_ 31.5 def
/hpt hpt_ def
/vpt vpt_ def
/doclip {
  ClipToBoundingBox {
    newpath 50 50 moveto 410 50 lineto 410 302 lineto 50 302 lineto closepath
    clip
  } if
} def
%
% Gnuplot Prolog Version 5.1 (Oct 2015)
%
%/SuppressPDFMark true def
%
/M {moveto} bind def
/L {lineto} bind def
/R {rmoveto} bind def
/V {rlineto} bind def
/N {newpath moveto} bind def
/Z {closepath} bind def
/C {setrgbcolor} bind def
/f {rlineto fill} bind def
/g {setgray} bind def
/Gshow {show} def   % May be redefined later in the file to support UTF-8
/vpt2 vpt 2 mul def
/hpt2 hpt 2 mul def
/Lshow {currentpoint stroke M 0 vshift R 
	Blacktext {gsave 0 setgray textshow grestore} {textshow} ifelse} def
/Rshow {currentpoint stroke M dup stringwidth pop neg vshift R
	Blacktext {gsave 0 setgray textshow grestore} {textshow} ifelse} def
/Cshow {currentpoint stroke M dup stringwidth pop -2 div vshift R 
	Blacktext {gsave 0 setgray textshow grestore} {textshow} ifelse} def
/UP {dup vpt_ mul /vpt exch def hpt_ mul /hpt exch def
  /hpt2 hpt 2 mul def /vpt2 vpt 2 mul def} def
/DL {Color {setrgbcolor Solid {pop []} if 0 setdash}
 {pop pop pop 0 setgray Solid {pop []} if 0 setdash} ifelse} def
/BL {stroke userlinewidth 2 mul setlinewidth
	Rounded {1 setlinejoin 1 setlinecap} if} def
/AL {stroke userlinewidth 2 div setlinewidth
	Rounded {1 setlinejoin 1 setlinecap} if} def
/UL {dup gnulinewidth mul /userlinewidth exch def
	dup 1 lt {pop 1} if 10 mul /udl exch def} def
/PL {stroke userlinewidth setlinewidth
	Rounded {1 setlinejoin 1 setlinecap} if} def
3.8 setmiterlimit
% Classic Line colors (version 5.0)
/LCw {1 1 1} def
/LCb {0 0 0} def
/LCa {0 0 0} def
/LC0 {1 0 0} def
/LC1 {0 1 0} def
/LC2 {0 0 1} def
/LC3 {1 0 1} def
/LC4 {0 1 1} def
/LC5 {1 1 0} def
/LC6 {0 0 0} def
/LC7 {1 0.3 0} def
/LC8 {0.5 0.5 0.5} def
% Default dash patterns (version 5.0)
/LTB {BL [] LCb DL} def
/LTw {PL [] 1 setgray} def
/LTb {PL [] LCb DL} def
/LTa {AL [1 udl mul 2 udl mul] 0 setdash LCa setrgbcolor} def
/LT0 {PL [] LC0 DL} def
/LT1 {PL [2 dl1 3 dl2] LC1 DL} def
/LT2 {PL [1 dl1 1.5 dl2] LC2 DL} def
/LT3 {PL [6 dl1 2 dl2 1 dl1 2 dl2] LC3 DL} def
/LT4 {PL [1 dl1 2 dl2 6 dl1 2 dl2 1 dl1 2 dl2] LC4 DL} def
/LT5 {PL [4 dl1 2 dl2] LC5 DL} def
/LT6 {PL [1.5 dl1 1.5 dl2 1.5 dl1 1.5 dl2 1.5 dl1 6 dl2] LC6 DL} def
/LT7 {PL [3 dl1 3 dl2 1 dl1 3 dl2] LC7 DL} def
/LT8 {PL [2 dl1 2 dl2 2 dl1 6 dl2] LC8 DL} def
/SL {[] 0 setdash} def
/Pnt {stroke [] 0 setdash gsave 1 setlinecap M 0 0 V stroke grestore} def
/Dia {stroke [] 0 setdash 2 copy vpt add M
  hpt neg vpt neg V hpt vpt neg V
  hpt vpt V hpt neg vpt V closepath stroke
  Pnt} def
/Pls {stroke [] 0 setdash vpt sub M 0 vpt2 V
  currentpoint stroke M
  hpt neg vpt neg R hpt2 0 V stroke
 } def
/Box {stroke [] 0 setdash 2 copy exch hpt sub exch vpt add M
  0 vpt2 neg V hpt2 0 V 0 vpt2 V
  hpt2 neg 0 V closepath stroke
  Pnt} def
/Crs {stroke [] 0 setdash exch hpt sub exch vpt add M
  hpt2 vpt2 neg V currentpoint stroke M
  hpt2 neg 0 R hpt2 vpt2 V stroke} def
/TriU {stroke [] 0 setdash 2 copy vpt 1.12 mul add M
  hpt neg vpt -1.62 mul V
  hpt 2 mul 0 V
  hpt neg vpt 1.62 mul V closepath stroke
  Pnt} def
/Star {2 copy Pls Crs} def
/BoxF {stroke [] 0 setdash exch hpt sub exch vpt add M
  0 vpt2 neg V hpt2 0 V 0 vpt2 V
  hpt2 neg 0 V closepath fill} def
/TriUF {stroke [] 0 setdash vpt 1.12 mul add M
  hpt neg vpt -1.62 mul V
  hpt 2 mul 0 V
  hpt neg vpt 1.62 mul V closepath fill} def
/TriD {stroke [] 0 setdash 2 copy vpt 1.12 mul sub M
  hpt neg vpt 1.62 mul V
  hpt 2 mul 0 V
  hpt neg vpt -1.62 mul V closepath stroke
  Pnt} def
/TriDF {stroke [] 0 setdash vpt 1.12 mul sub M
  hpt neg vpt 1.62 mul V
  hpt 2 mul 0 V
  hpt neg vpt -1.62 mul V closepath fill} def
/DiaF {stroke [] 0 setdash vpt add M
  hpt neg vpt neg V hpt vpt neg V
  hpt vpt V hpt neg vpt V closepath fill} def
/Pent {stroke [] 0 setdash 2 copy gsave
  translate 0 hpt M 4 {72 rotate 0 hpt L} repeat
  closepath stroke grestore Pnt} def
/PentF {stroke [] 0 setdash gsave
  translate 0 hpt M 4 {72 rotate 0 hpt L} repeat
  closepath fill grestore} def
/Circle {stroke [] 0 setdash 2 copy
  hpt 0 360 arc stroke Pnt} def
/CircleF {stroke [] 0 setdash hpt 0 360 arc fill} def
/C0 {BL [] 0 setdash 2 copy moveto vpt 90 450 arc} bind def
/C1 {BL [] 0 setdash 2 copy moveto
	2 copy vpt 0 90 arc closepath fill
	vpt 0 360 arc closepath} bind def
/C2 {BL [] 0 setdash 2 copy moveto
	2 copy vpt 90 180 arc closepath fill
	vpt 0 360 arc closepath} bind def
/C3 {BL [] 0 setdash 2 copy moveto
	2 copy vpt 0 180 arc closepath fill
	vpt 0 360 arc closepath} bind def
/C4 {BL [] 0 setdash 2 copy moveto
	2 copy vpt 180 270 arc closepath fill
	vpt 0 360 arc closepath} bind def
/C5 {BL [] 0 setdash 2 copy moveto
	2 copy vpt 0 90 arc
	2 copy moveto
	2 copy vpt 180 270 arc closepath fill
	vpt 0 360 arc} bind def
/C6 {BL [] 0 setdash 2 copy moveto
	2 copy vpt 90 270 arc closepath fill
	vpt 0 360 arc closepath} bind def
/C7 {BL [] 0 setdash 2 copy moveto
	2 copy vpt 0 270 arc closepath fill
	vpt 0 360 arc closepath} bind def
/C8 {BL [] 0 setdash 2 copy moveto
	2 copy vpt 270 360 arc closepath fill
	vpt 0 360 arc closepath} bind def
/C9 {BL [] 0 setdash 2 copy moveto
	2 copy vpt 270 450 arc closepath fill
	vpt 0 360 arc closepath} bind def
/C10 {BL [] 0 setdash 2 copy 2 copy moveto vpt 270 360 arc closepath fill
	2 copy moveto
	2 copy vpt 90 180 arc closepath fill
	vpt 0 360 arc closepath} bind def
/C11 {BL [] 0 setdash 2 copy moveto
	2 copy vpt 0 180 arc closepath fill
	2 copy moveto
	2 copy vpt 270 360 arc closepath fill
	vpt 0 360 arc closepath} bind def
/C12 {BL [] 0 setdash 2 copy moveto
	2 copy vpt 180 360 arc closepath fill
	vpt 0 360 arc closepath} bind def
/C13 {BL [] 0 setdash 2 copy moveto
	2 copy vpt 0 90 arc closepath fill
	2 copy moveto
	2 copy vpt 180 360 arc closepath fill
	vpt 0 360 arc closepath} bind def
/C14 {BL [] 0 setdash 2 copy moveto
	2 copy vpt 90 360 arc closepath fill
	vpt 0 360 arc} bind def
/C15 {BL [] 0 setdash 2 copy vpt 0 360 arc closepath fill
	vpt 0 360 arc closepath} bind def
/Rec {newpath 4 2 roll moveto 1 index 0 rlineto 0 exch rlineto
	neg 0 rlineto closepath} bind def
/Square {dup Rec} bind def
/Bsquare {vpt sub exch vpt sub exch vpt2 Square} bind def
/S0 {BL [] 0 setdash 2 copy moveto 0 vpt rlineto BL Bsquare} bind def
/S1 {BL [] 0 setdash 2 copy vpt Square fill Bsquare} bind def
/S2 {BL [] 0 setdash 2 copy exch vpt sub exch vpt Square fill Bsquare} bind def
/S3 {BL [] 0 setdash 2 copy exch vpt sub exch vpt2 vpt Rec fill Bsquare} bind def
/S4 {BL [] 0 setdash 2 copy exch vpt sub exch vpt sub vpt Square fill Bsquare} bind def
/S5 {BL [] 0 setdash 2 copy 2 copy vpt Square fill
	exch vpt sub exch vpt sub vpt Square fill Bsquare} bind def
/S6 {BL [] 0 setdash 2 copy exch vpt sub exch vpt sub vpt vpt2 Rec fill Bsquare} bind def
/S7 {BL [] 0 setdash 2 copy exch vpt sub exch vpt sub vpt vpt2 Rec fill
	2 copy vpt Square fill Bsquare} bind def
/S8 {BL [] 0 setdash 2 copy vpt sub vpt Square fill Bsquare} bind def
/S9 {BL [] 0 setdash 2 copy vpt sub vpt vpt2 Rec fill Bsquare} bind def
/S10 {BL [] 0 setdash 2 copy vpt sub vpt Square fill 2 copy exch vpt sub exch vpt Square fill
	Bsquare} bind def
/S11 {BL [] 0 setdash 2 copy vpt sub vpt Square fill 2 copy exch vpt sub exch vpt2 vpt Rec fill
	Bsquare} bind def
/S12 {BL [] 0 setdash 2 copy exch vpt sub exch vpt sub vpt2 vpt Rec fill Bsquare} bind def
/S13 {BL [] 0 setdash 2 copy exch vpt sub exch vpt sub vpt2 vpt Rec fill
	2 copy vpt Square fill Bsquare} bind def
/S14 {BL [] 0 setdash 2 copy exch vpt sub exch vpt sub vpt2 vpt Rec fill
	2 copy exch vpt sub exch vpt Square fill Bsquare} bind def
/S15 {BL [] 0 setdash 2 copy Bsquare fill Bsquare} bind def
/D0 {gsave translate 45 rotate 0 0 S0 stroke grestore} bind def
/D1 {gsave translate 45 rotate 0 0 S1 stroke grestore} bind def
/D2 {gsave translate 45 rotate 0 0 S2 stroke grestore} bind def
/D3 {gsave translate 45 rotate 0 0 S3 stroke grestore} bind def
/D4 {gsave translate 45 rotate 0 0 S4 stroke grestore} bind def
/D5 {gsave translate 45 rotate 0 0 S5 stroke grestore} bind def
/D6 {gsave translate 45 rotate 0 0 S6 stroke grestore} bind def
/D7 {gsave translate 45 rotate 0 0 S7 stroke grestore} bind def
/D8 {gsave translate 45 rotate 0 0 S8 stroke grestore} bind def
/D9 {gsave translate 45 rotate 0 0 S9 stroke grestore} bind def
/D10 {gsave translate 45 rotate 0 0 S10 stroke grestore} bind def
/D11 {gsave translate 45 rotate 0 0 S11 stroke grestore} bind def
/D12 {gsave translate 45 rotate 0 0 S12 stroke grestore} bind def
/D13 {gsave translate 45 rotate 0 0 S13 stroke grestore} bind def
/D14 {gsave translate 45 rotate 0 0 S14 stroke grestore} bind def
/D15 {gsave translate 45 rotate 0 0 S15 stroke grestore} bind def
/DiaE {stroke [] 0 setdash vpt add M
  hpt neg vpt neg V hpt vpt neg V
  hpt vpt V hpt neg vpt V closepath stroke} def
/BoxE {stroke [] 0 setdash exch hpt sub exch vpt add M
  0 vpt2 neg V hpt2 0 V 0 vpt2 V
  hpt2 neg 0 V closepath stroke} def
/TriUE {stroke [] 0 setdash vpt 1.12 mul add M
  hpt neg vpt -1.62 mul V
  hpt 2 mul 0 V
  hpt neg vpt 1.62 mul V closepath stroke} def
/TriDE {stroke [] 0 setdash vpt 1.12 mul sub M
  hpt neg vpt 1.62 mul V
  hpt 2 mul 0 V
  hpt neg vpt -1.62 mul V closepath stroke} def
/PentE {stroke [] 0 setdash gsave
  translate 0 hpt M 4 {72 rotate 0 hpt L} repeat
  closepath stroke grestore} def
/CircE {stroke [] 0 setdash 
  hpt 0 360 arc stroke} def
/Opaque {gsave closepath 1 setgray fill grestore 0 setgray closepath} def
/DiaW {stroke [] 0 setdash vpt add M
  hpt neg vpt neg V hpt vpt neg V
  hpt vpt V hpt neg vpt V Opaque stroke} def
/BoxW {stroke [] 0 setdash exch hpt sub exch vpt add M
  0 vpt2 neg V hpt2 0 V 0 vpt2 V
  hpt2 neg 0 V Opaque stroke} def
/TriUW {stroke [] 0 setdash vpt 1.12 mul add M
  hpt neg vpt -1.62 mul V
  hpt 2 mul 0 V
  hpt neg vpt 1.62 mul V Opaque stroke} def
/TriDW {stroke [] 0 setdash vpt 1.12 mul sub M
  hpt neg vpt 1.62 mul V
  hpt 2 mul 0 V
  hpt neg vpt -1.62 mul V Opaque stroke} def
/PentW {stroke [] 0 setdash gsave
  translate 0 hpt M 4 {72 rotate 0 hpt L} repeat
  Opaque stroke grestore} def
/CircW {stroke [] 0 setdash 
  hpt 0 360 arc Opaque stroke} def
/BoxFill {gsave Rec 1 setgray fill grestore} def
/Density {
  /Fillden exch def
  currentrgbcolor
  /ColB exch def /ColG exch def /ColR exch def
  /ColR ColR Fillden mul Fillden sub 1 add def
  /ColG ColG Fillden mul Fillden sub 1 add def
  /ColB ColB Fillden mul Fillden sub 1 add def
  ColR ColG ColB setrgbcolor} def
/BoxColFill {gsave Rec PolyFill} def
/PolyFill {gsave Density fill grestore grestore} def
/h {rlineto rlineto rlineto gsave closepath fill grestore} bind def
%
% PostScript Level 1 Pattern Fill routine for rectangles
% Usage: x y w h s a XX PatternFill
%	x,y = lower left corner of box to be filled
%	w,h = width and height of box
%	  a = angle in degrees between lines and x-axis
%	 XX = 0/1 for no/yes cross-hatch
%
/PatternFill {gsave /PFa [ 9 2 roll ] def
  PFa 0 get PFa 2 get 2 div add PFa 1 get PFa 3 get 2 div add translate
  PFa 2 get -2 div PFa 3 get -2 div PFa 2 get PFa 3 get Rec
  TransparentPatterns {} {gsave 1 setgray fill grestore} ifelse
  clip
  currentlinewidth 0.5 mul setlinewidth
  /PFs PFa 2 get dup mul PFa 3 get dup mul add sqrt def
  0 0 M PFa 5 get rotate PFs -2 div dup translate
  0 1 PFs PFa 4 get div 1 add floor cvi
	{PFa 4 get mul 0 M 0 PFs V} for
  0 PFa 6 get ne {
	0 1 PFs PFa 4 get div 1 add floor cvi
	{PFa 4 get mul 0 2 1 roll M PFs 0 V} for
 } if
  stroke grestore} def
%
/languagelevel where
 {pop languagelevel} {1} ifelse
dup 2 lt
	{/InterpretLevel1 true def
	 /InterpretLevel3 false def}
	{/InterpretLevel1 Level1 def
	 2 gt
	    {/InterpretLevel3 Level3 def}
	    {/InterpretLevel3 false def}
	 ifelse }
 ifelse
%
% PostScript level 2 pattern fill definitions
%
/Level2PatternFill {
/Tile8x8 {/PaintType 2 /PatternType 1 /TilingType 1 /BBox [0 0 8 8] /XStep 8 /YStep 8}
	bind def
/KeepColor {currentrgbcolor [/Pattern /DeviceRGB] setcolorspace} bind def
<< Tile8x8
 /PaintProc {0.5 setlinewidth pop 0 0 M 8 8 L 0 8 M 8 0 L stroke} 
>> matrix makepattern
/Pat1 exch def
<< Tile8x8
 /PaintProc {0.5 setlinewidth pop 0 0 M 8 8 L 0 8 M 8 0 L stroke
	0 4 M 4 8 L 8 4 L 4 0 L 0 4 L stroke}
>> matrix makepattern
/Pat2 exch def
<< Tile8x8
 /PaintProc {0.5 setlinewidth pop 0 0 M 0 8 L
	8 8 L 8 0 L 0 0 L fill}
>> matrix makepattern
/Pat3 exch def
<< Tile8x8
 /PaintProc {0.5 setlinewidth pop -4 8 M 8 -4 L
	0 12 M 12 0 L stroke}
>> matrix makepattern
/Pat4 exch def
<< Tile8x8
 /PaintProc {0.5 setlinewidth pop -4 0 M 8 12 L
	0 -4 M 12 8 L stroke}
>> matrix makepattern
/Pat5 exch def
<< Tile8x8
 /PaintProc {0.5 setlinewidth pop -2 8 M 4 -4 L
	0 12 M 8 -4 L 4 12 M 10 0 L stroke}
>> matrix makepattern
/Pat6 exch def
<< Tile8x8
 /PaintProc {0.5 setlinewidth pop -2 0 M 4 12 L
	0 -4 M 8 12 L 4 -4 M 10 8 L stroke}
>> matrix makepattern
/Pat7 exch def
<< Tile8x8
 /PaintProc {0.5 setlinewidth pop 8 -2 M -4 4 L
	12 0 M -4 8 L 12 4 M 0 10 L stroke}
>> matrix makepattern
/Pat8 exch def
<< Tile8x8
 /PaintProc {0.5 setlinewidth pop 0 -2 M 12 4 L
	-4 0 M 12 8 L -4 4 M 8 10 L stroke}
>> matrix makepattern
/Pat9 exch def
/Pattern1 {PatternBgnd KeepColor Pat1 setpattern} bind def
/Pattern2 {PatternBgnd KeepColor Pat2 setpattern} bind def
/Pattern3 {PatternBgnd KeepColor Pat3 setpattern} bind def
/Pattern4 {PatternBgnd KeepColor Landscape {Pat5} {Pat4} ifelse setpattern} bind def
/Pattern5 {PatternBgnd KeepColor Landscape {Pat4} {Pat5} ifelse setpattern} bind def
/Pattern6 {PatternBgnd KeepColor Landscape {Pat9} {Pat6} ifelse setpattern} bind def
/Pattern7 {PatternBgnd KeepColor Landscape {Pat8} {Pat7} ifelse setpattern} bind def
} def
%
%
%End of PostScript Level 2 code
%
/PatternBgnd {
  TransparentPatterns {} {gsave 1 setgray fill grestore} ifelse
} def
%
% Substitute for Level 2 pattern fill codes with
% grayscale if Level 2 support is not selected.
%
/Level1PatternFill {
/Pattern1 {0.250 Density} bind def
/Pattern2 {0.500 Density} bind def
/Pattern3 {0.750 Density} bind def
/Pattern4 {0.125 Density} bind def
/Pattern5 {0.375 Density} bind def
/Pattern6 {0.625 Density} bind def
/Pattern7 {0.875 Density} bind def
} def
%
% Now test for support of Level 2 code
%
Level1 {Level1PatternFill} {Level2PatternFill} ifelse
%
/Symbol-Oblique /Symbol findfont [1 0 .167 1 0 0] makefont
dup length dict begin {1 index /FID eq {pop pop} {def} ifelse} forall
currentdict end definefont pop
%
/Metrics {ExtendTextBox Gswidth} def
/Lwidth {currentpoint stroke M 0 vshift R Metrics} def
/Rwidth {currentpoint stroke M dup stringwidth pop neg vshift R Metrics} def
/Cwidth {currentpoint stroke M dup stringwidth pop -2 div vshift R Metrics} def
/GLwidth {currentpoint stroke M 0 vshift R {ExtendTextBox} forall} def
/GRwidth {currentpoint stroke M dup Gwidth vshift R {ExtendTextBox} forall} def
/GCwidth {currentpoint stroke M dup Gwidth 2 div vshift R {ExtendTextBox} forall} def
/GLwidth2 {0 Gwidth AddGlyphWidth} def
/GRwidth2 {Gwidth -1 mul 0 AddGlyphWidth} def
/GCwidth2 {Gwidth 2 div dup -1 mul AddGlyphWidth} def
/AddGlyphWidth { dup TBx2 gt {userdict /TBx2 3 -1 roll put} {pop} ifelse
                 dup TBx1 lt {userdict /TBx1 3 -1 roll put} {pop} ifelse } def
/MFshow {
   { dup 5 get 3 ge
     { 5 get 3 eq {gsave} {grestore} ifelse }
     {dup dup 0 get findfont exch 1 get scalefont setfont
     [ currentpoint ] exch dup 2 get 0 exch R dup 5 get 2 ne {dup dup 6
     get exch 4 get {textshow} {Metrics pop 0 R} ifelse }if dup 5 get 0 eq
     {dup 3 get {2 get neg 0 exch R pop} {pop aload pop M} ifelse} {dup 5
     get 1 eq {dup 2 get exch dup 3 get exch 6 get Gswidth pop -2 div
     dup 0 R} {dup 6 get Gswidth pop -2 div 0 R 6 get
     textshow 2 index {aload pop M neg 3 -1 roll neg R pop pop} {pop pop pop
     pop aload pop M} ifelse }ifelse }ifelse }
     ifelse }
   forall} def
/Gswidth {dup type /stringtype eq {stringwidth} {pop (n) stringwidth} ifelse} def
/MFwidth {0 exch { dup 5 get 3 ge { 5 get 3 eq { 0 } { pop } ifelse }
 {dup 3 get{dup dup 0 get findfont exch 1 get scalefont setfont
     6 get Gswidth pop add} {pop} ifelse} ifelse} forall} def
/MLshow { currentpoint stroke M
  0 exch R
  Blacktext {gsave 0 setgray MFshow grestore} {MFshow} ifelse } bind def
/MRshow { currentpoint stroke M
  exch dup MFwidth neg 3 -1 roll R
  Blacktext {gsave 0 setgray MFshow grestore} {MFshow} ifelse } bind def
/MCshow { currentpoint stroke M
  exch dup MFwidth -2 div 3 -1 roll R
  Blacktext {gsave 0 setgray MFshow grestore} {MFshow} ifelse } bind def
/XYsave    { [( ) 1 2 true false 3 ()] } bind def
/XYrestore { [( ) 1 2 true false 4 ()] } bind def
Level1 SuppressPDFMark or 
{} {
/SDict 10 dict def
systemdict /pdfmark known not {
  userdict /pdfmark systemdict /cleartomark get put
} if
SDict begin [
  /Title (gnuplot_Zplt_YZ.eps)
  /Subject (gnuplot plot)
  /Creator (gnuplot 5.2 patchlevel 2)
%  /Producer (gnuplot)
%  /Keywords ()
  /CreationDate (Sat Mar 19 04:30:16 2022)
  /DOCINFO pdfmark
end
} ifelse
%
% Support for boxed text - Ethan A Merritt Sep 2016
%
/InitTextBox { userdict /TBy2 3 -1 roll put userdict /TBx2 3 -1 roll put
           userdict /TBy1 3 -1 roll put userdict /TBx1 3 -1 roll put
	   /Boxing true def } def
/ExtendTextBox { dup type /stringtype eq
    { Boxing { gsave dup false charpath pathbbox
      dup TBy2 gt {userdict /TBy2 3 -1 roll put} {pop} ifelse
      dup TBx2 gt {userdict /TBx2 3 -1 roll put} {pop} ifelse
      dup TBy1 lt {userdict /TBy1 3 -1 roll put} {pop} ifelse
      dup TBx1 lt {userdict /TBx1 3 -1 roll put} {pop} ifelse
      grestore } if }
    {} ifelse} def
/PopTextBox { newpath TBx1 TBxmargin sub TBy1 TBymargin sub M
               TBx1 TBxmargin sub TBy2 TBymargin add L
	       TBx2 TBxmargin add TBy2 TBymargin add L
	       TBx2 TBxmargin add TBy1 TBymargin sub L closepath } def
/DrawTextBox { PopTextBox stroke /Boxing false def} def
/FillTextBox { gsave PopTextBox fill grestore /Boxing false def} def
0 0 0 0 InitTextBox
/TBxmargin 20 def
/TBymargin 20 def
/Boxing false def
/textshow { ExtendTextBox Gshow } def
%
end
%%EndProlog
%%Page: 1 1
gnudict begin
gsave
doclip
50 50 translate
0.050 0.050 scale
0 setgray
newpath
(Helvetica) findfont 140 scalefont setfont
BackgroundColor 0 lt 3 1 roll 0 lt exch 0 lt or or not {BackgroundColor C 1.000 0 0 7200.00 5040.00 BoxColFill} if
/Helvetica findfont 140 scalefont setfont
/vshift -46 def
1.000 UL
LTb
LCb setrgbcolor
0.500 UL
LTa
LCa setrgbcolor
2198 448 M
3237 0 V
stroke
1.000 UL
LTb
LCb setrgbcolor
2198 448 M
63 0 V
3174 0 R
-63 0 V
stroke
2114 448 M
[ [(Helvetica) 140.0 0.0 true true 0 (-2.5)]
] -46.7 MRshow
1.000 UL
LTb
LCb setrgbcolor
0.500 UL
LTa
LCa setrgbcolor
2198 853 M
3237 0 V
stroke
1.000 UL
LTb
LCb setrgbcolor
2198 853 M
63 0 V
3174 0 R
-63 0 V
stroke
2114 853 M
[ [(Helvetica) 140.0 0.0 true true 0 (-2)]
] -46.7 MRshow
1.000 UL
LTb
LCb setrgbcolor
0.500 UL
LTa
LCa setrgbcolor
2198 1257 M
3237 0 V
stroke
1.000 UL
LTb
LCb setrgbcolor
2198 1257 M
63 0 V
3174 0 R
-63 0 V
stroke
2114 1257 M
[ [(Helvetica) 140.0 0.0 true true 0 (-1.5)]
] -46.7 MRshow
1.000 UL
LTb
LCb setrgbcolor
0.500 UL
LTa
LCa setrgbcolor
2198 1662 M
3237 0 V
stroke
1.000 UL
LTb
LCb setrgbcolor
2198 1662 M
63 0 V
3174 0 R
-63 0 V
stroke
2114 1662 M
[ [(Helvetica) 140.0 0.0 true true 0 (-1)]
] -46.7 MRshow
1.000 UL
LTb
LCb setrgbcolor
0.500 UL
LTa
LCa setrgbcolor
2198 2067 M
3237 0 V
stroke
1.000 UL
LTb
LCb setrgbcolor
2198 2067 M
63 0 V
3174 0 R
-63 0 V
stroke
2114 2067 M
[ [(Helvetica) 140.0 0.0 true true 0 (-0.5)]
] -46.7 MRshow
1.000 UL
LTb
LCb setrgbcolor
0.500 UL
LTa
LCa setrgbcolor
2198 2471 M
3237 0 V
stroke
1.000 UL
LTb
LCb setrgbcolor
2198 2471 M
63 0 V
3174 0 R
-63 0 V
stroke
2114 2471 M
[ [(Helvetica) 140.0 0.0 true true 0 ( 0)]
] -46.7 MRshow
1.000 UL
LTb
LCb setrgbcolor
0.500 UL
LTa
LCa setrgbcolor
2198 2876 M
3237 0 V
stroke
1.000 UL
LTb
LCb setrgbcolor
2198 2876 M
63 0 V
3174 0 R
-63 0 V
stroke
2114 2876 M
[ [(Helvetica) 140.0 0.0 true true 0 ( 0.5)]
] -46.7 MRshow
1.000 UL
LTb
LCb setrgbcolor
0.500 UL
LTa
LCa setrgbcolor
2198 3280 M
3237 0 V
stroke
1.000 UL
LTb
LCb setrgbcolor
2198 3280 M
63 0 V
3174 0 R
-63 0 V
stroke
2114 3280 M
[ [(Helvetica) 140.0 0.0 true true 0 ( 1)]
] -46.7 MRshow
1.000 UL
LTb
LCb setrgbcolor
0.500 UL
LTa
LCa setrgbcolor
2198 3685 M
3237 0 V
stroke
1.000 UL
LTb
LCb setrgbcolor
2198 3685 M
63 0 V
3174 0 R
-63 0 V
stroke
2114 3685 M
[ [(Helvetica) 140.0 0.0 true true 0 ( 1.5)]
] -46.7 MRshow
1.000 UL
LTb
LCb setrgbcolor
0.500 UL
LTa
LCa setrgbcolor
2198 4090 M
3237 0 V
stroke
1.000 UL
LTb
LCb setrgbcolor
2198 4090 M
63 0 V
3174 0 R
-63 0 V
stroke
2114 4090 M
[ [(Helvetica) 140.0 0.0 true true 0 ( 2)]
] -46.7 MRshow
1.000 UL
LTb
LCb setrgbcolor
0.500 UL
LTa
LCa setrgbcolor
2198 4494 M
3237 0 V
stroke
1.000 UL
LTb
LCb setrgbcolor
2198 4494 M
63 0 V
3174 0 R
-63 0 V
stroke
2114 4494 M
[ [(Helvetica) 140.0 0.0 true true 0 ( 2.5)]
] -46.7 MRshow
1.000 UL
LTb
LCb setrgbcolor
0.500 UL
LTa
LCa setrgbcolor
2198 4899 M
3237 0 V
stroke
1.000 UL
LTb
LCb setrgbcolor
2198 4899 M
63 0 V
3174 0 R
-63 0 V
stroke
2114 4899 M
[ [(Helvetica) 140.0 0.0 true true 0 ( 3)]
] -46.7 MRshow
1.000 UL
LTb
LCb setrgbcolor
0.500 UL
LTa
LCa setrgbcolor
2198 448 M
0 4248 V
0 140 R
0 63 V
stroke
1.000 UL
LTb
LCb setrgbcolor
2198 448 M
0 63 V
0 4388 R
0 -63 V
stroke
2198 308 M
[ [(Helvetica) 140.0 0.0 true true 0 (-2)]
] -46.7 MCshow
1.000 UL
LTb
LCb setrgbcolor
0.500 UL
LTa
LCa setrgbcolor
2603 448 M
0 4248 V
0 140 R
0 63 V
stroke
1.000 UL
LTb
LCb setrgbcolor
2603 448 M
0 63 V
0 4388 R
0 -63 V
stroke
2603 308 M
[ [(Helvetica) 140.0 0.0 true true 0 (-1.5)]
] -46.7 MCshow
1.000 UL
LTb
LCb setrgbcolor
0.500 UL
LTa
LCa setrgbcolor
3007 448 M
0 4248 V
0 140 R
0 63 V
stroke
1.000 UL
LTb
LCb setrgbcolor
3007 448 M
0 63 V
0 4388 R
0 -63 V
stroke
3007 308 M
[ [(Helvetica) 140.0 0.0 true true 0 (-1)]
] -46.7 MCshow
1.000 UL
LTb
LCb setrgbcolor
0.500 UL
LTa
LCa setrgbcolor
3412 448 M
0 4248 V
0 140 R
0 63 V
stroke
1.000 UL
LTb
LCb setrgbcolor
3412 448 M
0 63 V
0 4388 R
0 -63 V
stroke
3412 308 M
[ [(Helvetica) 140.0 0.0 true true 0 (-0.5)]
] -46.7 MCshow
1.000 UL
LTb
LCb setrgbcolor
0.500 UL
LTa
LCa setrgbcolor
3817 448 M
0 4248 V
0 140 R
0 63 V
stroke
1.000 UL
LTb
LCb setrgbcolor
3817 448 M
0 63 V
0 4388 R
0 -63 V
stroke
3817 308 M
[ [(Helvetica) 140.0 0.0 true true 0 ( 0)]
] -46.7 MCshow
1.000 UL
LTb
LCb setrgbcolor
0.500 UL
LTa
LCa setrgbcolor
4221 448 M
0 4248 V
0 140 R
0 63 V
stroke
1.000 UL
LTb
LCb setrgbcolor
4221 448 M
0 63 V
0 4388 R
0 -63 V
stroke
4221 308 M
[ [(Helvetica) 140.0 0.0 true true 0 ( 0.5)]
] -46.7 MCshow
1.000 UL
LTb
LCb setrgbcolor
0.500 UL
LTa
LCa setrgbcolor
4626 448 M
0 4248 V
0 140 R
0 63 V
stroke
1.000 UL
LTb
LCb setrgbcolor
4626 448 M
0 63 V
0 4388 R
0 -63 V
stroke
4626 308 M
[ [(Helvetica) 140.0 0.0 true true 0 ( 1)]
] -46.7 MCshow
1.000 UL
LTb
LCb setrgbcolor
0.500 UL
LTa
LCa setrgbcolor
5030 448 M
0 4248 V
0 140 R
0 63 V
stroke
1.000 UL
LTb
LCb setrgbcolor
5030 448 M
0 63 V
0 4388 R
0 -63 V
stroke
5030 308 M
[ [(Helvetica) 140.0 0.0 true true 0 ( 1.5)]
] -46.7 MCshow
1.000 UL
LTb
LCb setrgbcolor
0.500 UL
LTa
LCa setrgbcolor
5435 448 M
0 4451 V
stroke
1.000 UL
LTb
LCb setrgbcolor
5435 448 M
0 63 V
0 4388 R
0 -63 V
stroke
5435 308 M
[ [(Helvetica) 140.0 0.0 true true 0 ( 2)]
] -46.7 MCshow
1.000 UL
LTb
LCb setrgbcolor
1.000 UL
LTB
LCb setrgbcolor
2198 4899 N
0 -4451 V
3237 0 V
0 4451 V
-3237 0 V
Z stroke
1.000 UP
1.000 UL
LTb
LCb setrgbcolor
LCb setrgbcolor
1638 2673 M
currentpoint gsave translate -270 rotate 0 0 moveto
[ [(Helvetica) 140.0 0.0 true true 0 (Z  [m])]
] -46.7 MCshow
grestore
LTb
LCb setrgbcolor
3816 98 M
[ [(Helvetica) 140.0 0.0 true true 0 (Y  [m])]
] -46.7 MCshow
LTb
% Begin plot #1
0.400 UP
1.000 UL
LTb
0.00 0.00 0.00 C /Helvetica findfont 140 scalefont setfont
LCb setrgbcolor
4784 4766 M
('zgoubi.plt' u \($19==i &&  $14>sMin && $14<sMax ? $10 : 1/0\):\($12\)) Rshow
0.400 UP
1.000 UL
LTb
0.00 0.00 0.00 C 4868 4766 M
399 0 V
3817 3286 M
0 1 V
1 0 V
1 0 V
2 0 V
3 1 V
4 0 V
5 1 V
7 2 V
7 2 V
8 3 V
10 3 V
10 4 V
11 5 V
13 6 V
12 7 V
14 8 V
14 9 V
14 11 V
15 11 V
15 12 V
16 14 V
15 15 V
16 16 V
15 18 V
15 18 V
15 20 V
15 21 V
14 23 V
14 23 V
12 24 V
13 25 V
11 27 V
11 27 V
9 28 V
9 28 V
7 29 V
7 30 V
5 30 V
4 31 V
3 31 V
2 31 V
1 32 V
-1 31 V
-2 31 V
-3 31 V
-4 31 V
-6 30 V
-6 30 V
-8 29 V
-9 29 V
-9 27 V
-11 28 V
-12 26 V
-12 25 V
-13 24 V
-14 24 V
-14 22 V
-15 21 V
-15 20 V
-15 18 V
-16 18 V
-15 16 V
-16 15 V
-15 14 V
-16 12 V
-15 12 V
-14 10 V
-15 9 V
-13 8 V
-13 7 V
-12 6 V
-12 5 V
-10 4 V
-10 3 V
-8 3 V
-8 2 V
-6 1 V
-6 1 V
-4 1 V
-3 1 V
-2 0 V
-1 0 V
-1 0 V
-1 0 V
-1 0 V
0 1 V
-1 0 V
5 -1 R
-1 0 V
-1 0 V
0 1 V
-2 0 V
-3 0 V
-6 -1 V
-8 0 V
-12 -2 V
-16 -3 V
-19 -4 V
-22 -6 V
-25 -8 V
-29 -9 V
-31 -13 V
-34 -14 V
-37 -18 V
-38 -21 V
-41 -24 V
-42 -27 V
-44 -30 V
-45 -35 V
-46 -37 V
-47 -42 V
-46 -45 V
-47 -49 V
-47 -52 V
-46 -57 V
-45 -60 V
-44 -63 V
-43 -67 V
-41 -70 V
-39 -74 V
-37 -76 V
-34 -80 V
-32 -82 V
-29 -84 V
-26 -87 V
-22 -88 V
-20 -90 V
-16 -92 V
-12 -93 V
-9 -94 V
-5 -94 V
-2 -95 V
3 -94 V
6 -95 V
9 -93 V
14 -93 V
16 -92 V
21 -90 V
23 -89 V
27 -87 V
30 -84 V
33 -82 V
35 -79 V
38 -77 V
40 -74 V
42 -70 V
43 -67 V
45 -64 V
46 -60 V
47 -56 V
48 -53 V
48 -49 V
47 -45 V
48 -42 V
47 -37 V
46 -35 V
45 -30 V
43 -28 V
42 -24 V
39 -20 V
38 -18 V
35 -15 V
32 -12 V
30 -10 V
26 -8 V
24 -6 V
19 -4 V
17 -3 V
13 -2 V
10 -1 V
7 0 V
4 0 V
3 0 V
1 0 V
1 0 V
1 0 V
1 0 V
1 0 V
1 0 V
1 0 V
1 0 V
1 0 V
1 0 V
1 0 V
1 0 V
1 0 V
1 0 V
2 0 V
1 0 V
1 0 V
1 0 V
1 0 V
-28 0 R
2 0 V
1 0 V
1 0 V
1 0 V
1 0 V
1 0 V
1 0 V
1 0 V
1 0 V
1 0 V
1 0 V
1 0 V
1 0 V
1 0 V
1 0 V
1 0 V
1 0 V
1 0 V
2 0 V
2 0 V
4 0 V
7 0 V
10 1 V
13 2 V
16 3 V
20 4 V
23 6 V
27 7 V
29 10 V
32 12 V
35 15 V
38 18 V
39 21 V
42 24 V
43 27 V
45 30 V
46 34 V
47 38 V
48 42 V
48 45 V
47 49 V
48 52 V
47 57 V
46 60 V
45 63 V
44 67 V
42 70 V
40 74 V
37 76 V
36 80 V
33 81 V
30 85 V
26 86 V
24 89 V
stroke 5024 2093 M
21 90 V
17 92 V
13 93 V
10 94 V
6 94 V
2 95 V
-1 94 V
-5 94 V
-9 94 V
-12 93 V
-16 92 V
-19 90 V
-23 89 V
-26 86 V
-29 85 V
-31 82 V
-35 79 V
-36 77 V
-39 73 V
-41 71 V
-43 67 V
-44 63 V
-45 60 V
-46 57 V
-46 53 V
-47 49 V
-47 45 V
-47 41 V
-45 38 V
-46 35 V
-43 30 V
-43 28 V
-41 23 V
-38 21 V
-37 18 V
-34 15 V
-31 12 V
-29 10 V
-25 8 V
-23 6 V
-19 4 V
-15 3 V
-12 1 V
-9 1 V
-6 1 V
-3 0 V
-2 0 V
0 -1 V
0 -1 V
-1 0 V
4 1 R
-1 0 V
-1 0 V
-1 0 V
-1 0 V
-1 -1 V
-2 0 V
-3 0 V
-4 -1 V
-5 -1 V
-7 -2 V
-7 -2 V
-9 -2 V
-9 -4 V
-11 -4 V
-11 -5 V
-12 -6 V
-13 -7 V
-14 -8 V
-14 -9 V
-15 -10 V
-15 -11 V
-15 -13 V
-15 -14 V
-16 -15 V
-16 -16 V
-15 -17 V
-16 -19 V
-15 -20 V
-14 -21 V
-14 -22 V
-14 -23 V
-13 -25 V
-12 -25 V
-12 -26 V
-11 -27 V
-9 -28 V
-9 -29 V
-8 -29 V
-6 -30 V
-6 -30 V
-4 -31 V
-3 -31 V
-2 -31 V
-1 -31 V
1 -32 V
2 -31 V
3 -31 V
4 -30 V
5 -31 V
7 -29 V
7 -30 V
9 -28 V
10 -28 V
10 -27 V
12 -27 V
12 -25 V
13 -24 V
13 -23 V
14 -23 V
15 -21 V
15 -20 V
15 -18 V
16 -18 V
15 -16 V
16 -15 V
15 -14 V
15 -12 V
15 -12 V
15 -10 V
14 -9 V
13 -8 V
13 -7 V
12 -6 V
11 -5 V
11 -4 V
9 -4 V
9 -2 V
7 -2 V
6 -2 V
5 -1 V
5 -1 V
3 0 V
2 0 V
1 -1 V
1 0 V
0 -1 V
-85 -171 R
1 0 V
1 0 V
2 0 V
3 0 V
4 1 V
5 1 V
6 2 V
8 2 V
8 2 V
10 4 V
10 4 V
11 5 V
12 6 V
13 6 V
14 8 V
14 9 V
14 11 V
15 11 V
15 12 V
16 14 V
15 15 V
16 16 V
15 18 V
15 18 V
15 20 V
15 21 V
14 22 V
13 23 V
13 24 V
12 26 V
12 26 V
10 27 V
10 28 V
9 28 V
7 29 V
7 30 V
5 30 V
4 31 V
3 31 V
2 31 V
1 31 V
-1 31 V
-2 31 V
-3 31 V
-4 31 V
-6 30 V
-6 30 V
-8 29 V
-9 29 V
-10 27 V
-10 28 V
-12 26 V
-12 25 V
-13 24 V
-14 23 V
-14 22 V
-15 21 V
-15 20 V
-15 19 V
-16 17 V
-15 16 V
-16 15 V
-16 14 V
-15 12 V
-15 12 V
-15 10 V
-14 9 V
-13 8 V
-13 7 V
-12 6 V
-12 5 V
-10 4 V
-10 3 V
-8 3 V
-8 2 V
-6 1 V
-6 1 V
-4 1 V
-3 0 V
-2 0 V
-1 0 V
-1 0 V
-1 0 V
-1 0 V
-1 0 V
4 1 R
0 -1 V
-1 0 V
0 1 V
-2 0 V
-3 0 V
-6 -1 V
-9 -1 V
-12 -2 V
-15 -2 V
-19 -5 V
-22 -5 V
-26 -8 V
-28 -10 V
-31 -12 V
-34 -15 V
-37 -18 V
-38 -21 V
-41 -23 V
-43 -28 V
-43 -30 V
-45 -35 V
-46 -37 V
-47 -42 V
-47 -45 V
-47 -49 V
stroke 3171 3971 M
-46 -53 V
-46 -56 V
-45 -60 V
-44 -63 V
-43 -67 V
-41 -71 V
-39 -73 V
-37 -77 V
-34 -79 V
-32 -82 V
-29 -85 V
-26 -86 V
-23 -89 V
-19 -90 V
-16 -92 V
-13 -93 V
-8 -93 V
-6 -95 V
-1 -94 V
2 -95 V
6 -95 V
10 -93 V
13 -93 V
17 -92 V
21 -90 V
23 -89 V
27 -87 V
30 -84 V
32 -82 V
36 -80 V
38 -76 V
39 -74 V
42 -70 V
44 -67 V
45 -64 V
46 -60 V
47 -57 V
47 -52 V
48 -49 V
48 -46 V
48 -41 V
46 -38 V
47 -34 V
44 -31 V
44 -28 V
41 -24 V
40 -20 V
38 -18 V
35 -15 V
32 -12 V
30 -10 V
26 -8 V
23 -6 V
20 -4 V
17 -3 V
13 -2 V
10 -1 V
6 0 V
5 0 V
2 0 V
2 0 V
1 0 V
1 0 V
1 0 V
1 0 V
1 0 V
1 0 V
1 0 V
1 0 V
1 0 V
1 0 V
1 0 V
1 0 V
1 0 V
1 0 V
1 0 V
1 0 V
1 0 V
2 0 V
-28 0 R
1 0 V
1 0 V
1 0 V
1 0 V
2 0 V
1 0 V
1 0 V
1 0 V
1 0 V
1 0 V
1 0 V
1 0 V
1 0 V
1 0 V
1 0 V
1 0 V
1 0 V
1 -1 V
1 0 V
3 0 V
4 0 V
7 1 V
9 1 V
13 1 V
17 3 V
20 4 V
23 6 V
26 8 V
30 10 V
32 12 V
35 15 V
37 17 V
40 21 V
42 24 V
43 27 V
45 31 V
46 34 V
47 38 V
47 41 V
48 45 V
48 49 V
47 53 V
47 56 V
47 60 V
45 63 V
43 67 V
42 71 V
40 73 V
38 76 V
35 80 V
33 82 V
30 84 V
27 87 V
24 88 V
20 91 V
17 91 V
14 93 V
9 94 V
7 94 V
2 95 V
-1 94 V
-5 95 V
-9 93 V
-12 93 V
-16 92 V
-20 90 V
-22 89 V
-26 87 V
-29 84 V
-32 82 V
-34 80 V
-37 76 V
-39 74 V
-41 70 V
-42 67 V
-44 64 V
-45 60 V
-46 56 V
-47 53 V
-47 49 V
-47 45 V
-46 42 V
-46 38 V
-45 34 V
-44 31 V
-42 27 V
-41 24 V
-39 21 V
-36 17 V
-34 15 V
-32 13 V
-28 9 V
-26 8 V
-22 6 V
-19 4 V
-15 3 V
-13 2 V
-8 1 V
-6 0 V
-4 0 V
-1 0 V
-1 0 V
0 -1 V
-1 0 V
4 1 R
-1 0 V
0 -1 V
-1 0 V
-1 0 V
-1 0 V
-2 0 V
-3 -1 V
-5 0 V
-5 -1 V
-6 -2 V
-8 -2 V
-8 -3 V
-10 -3 V
-10 -4 V
-12 -5 V
-12 -6 V
-13 -7 V
-13 -8 V
-15 -9 V
-14 -10 V
-15 -11 V
-15 -13 V
-16 -14 V
-16 -15 V
-15 -16 V
-16 -17 V
-15 -19 V
-15 -20 V
-15 -21 V
-14 -22 V
-14 -23 V
-13 -24 V
-12 -26 V
-12 -26 V
-10 -27 V
-10 -28 V
-9 -29 V
-7 -29 V
-7 -30 V
-5 -30 V
-5 -31 V
-3 -30 V
-2 -32 V
0 -31 V
0 -31 V
2 -31 V
3 -31 V
4 -31 V
6 -30 V
6 -30 V
8 -29 V
8 -29 V
10 -28 V
11 -27 V
11 -26 V
12 -25 V
13 -24 V
14 -24 V
14 -22 V
14 -21 V
15 -20 V
16 -18 V
15 -18 V
16 -16 V
stroke 3704 3219 M
15 -15 V
15 -14 V
16 -12 V
14 -12 V
15 -10 V
14 -9 V
13 -8 V
13 -7 V
12 -6 V
12 -5 V
10 -4 V
10 -3 V
8 -3 V
7 -2 V
7 -2 V
5 -1 V
4 0 V
3 -1 V
2 0 V
1 0 V
1 0 V
0 -1 V
1 0 V
3817 3286 Pls
3817 3286 Pls
3817 3286 Pls
3817 3286 Pls
3817 3286 Pls
3817 3286 Pls
3817 3286 Pls
3817 3286 Pls
3817 3286 Pls
3817 3286 Pls
3817 3286 Pls
3817 3286 Pls
3817 3286 Pls
3817 3286 Pls
3817 3286 Pls
3817 3287 Pls
3817 3287 Pls
3817 3287 Pls
3818 3287 Pls
3819 3287 Pls
3821 3287 Pls
3824 3288 Pls
3828 3288 Pls
3833 3289 Pls
3840 3291 Pls
3847 3293 Pls
3855 3296 Pls
3865 3299 Pls
3875 3303 Pls
3886 3308 Pls
3899 3314 Pls
3911 3321 Pls
3925 3329 Pls
3939 3338 Pls
3953 3349 Pls
3968 3360 Pls
3983 3372 Pls
3999 3386 Pls
4014 3401 Pls
4030 3417 Pls
4045 3435 Pls
4060 3453 Pls
4075 3473 Pls
4090 3494 Pls
4104 3517 Pls
4118 3540 Pls
4130 3564 Pls
4143 3589 Pls
4154 3616 Pls
4165 3643 Pls
4174 3671 Pls
4183 3699 Pls
4190 3728 Pls
4197 3758 Pls
4202 3788 Pls
4206 3819 Pls
4209 3850 Pls
4211 3881 Pls
4212 3913 Pls
4211 3944 Pls
4209 3975 Pls
4206 4006 Pls
4202 4037 Pls
4196 4067 Pls
4190 4097 Pls
4182 4126 Pls
4173 4155 Pls
4164 4182 Pls
4153 4210 Pls
4141 4236 Pls
4129 4261 Pls
4116 4285 Pls
4102 4309 Pls
4088 4331 Pls
4073 4352 Pls
4058 4372 Pls
4043 4390 Pls
4027 4408 Pls
4012 4424 Pls
3996 4439 Pls
3981 4453 Pls
3965 4465 Pls
3950 4477 Pls
3936 4487 Pls
3921 4496 Pls
3908 4504 Pls
3895 4511 Pls
3883 4517 Pls
3871 4522 Pls
3861 4526 Pls
3851 4529 Pls
3843 4532 Pls
3835 4534 Pls
3829 4535 Pls
3823 4536 Pls
3819 4537 Pls
3816 4538 Pls
3814 4538 Pls
3813 4538 Pls
3812 4538 Pls
3812 4538 Pls
3812 4538 Pls
3811 4538 Pls
3811 4538 Pls
3811 4538 Pls
3811 4538 Pls
3811 4538 Pls
3811 4538 Pls
3811 4538 Pls
3811 4538 Pls
3810 4538 Pls
3810 4538 Pls
3810 4538 Pls
3810 4538 Pls
3810 4538 Pls
3810 4539 Pls
3810 4539 Pls
3810 4539 Pls
3809 4539 Pls
3809 4539 Pls
3814 4538 Pls
3813 4538 Pls
3813 4538 Pls
3813 4538 Pls
3813 4538 Pls
3813 4538 Pls
3813 4538 Pls
3813 4538 Pls
3813 4538 Pls
3813 4538 Pls
3812 4538 Pls
3812 4538 Pls
3812 4538 Pls
3812 4538 Pls
3812 4538 Pls
3812 4538 Pls
3812 4538 Pls
3812 4539 Pls
3812 4539 Pls
3812 4539 Pls
3810 4539 Pls
3807 4539 Pls
3801 4538 Pls
3793 4538 Pls
3781 4536 Pls
3765 4533 Pls
3746 4529 Pls
3724 4523 Pls
3699 4515 Pls
3670 4506 Pls
3639 4493 Pls
3605 4479 Pls
3568 4461 Pls
3530 4440 Pls
3489 4416 Pls
3447 4389 Pls
3403 4359 Pls
3358 4324 Pls
3312 4287 Pls
3265 4245 Pls
3219 4200 Pls
3172 4151 Pls
3125 4099 Pls
3079 4042 Pls
3034 3982 Pls
2990 3919 Pls
2947 3852 Pls
2906 3782 Pls
2867 3708 Pls
2830 3632 Pls
2796 3552 Pls
2764 3470 Pls
2735 3386 Pls
2709 3299 Pls
2687 3211 Pls
2667 3121 Pls
2651 3029 Pls
2639 2936 Pls
2630 2842 Pls
2625 2748 Pls
2623 2653 Pls
2626 2559 Pls
2632 2464 Pls
2641 2371 Pls
2655 2278 Pls
2671 2186 Pls
2692 2096 Pls
2715 2007 Pls
2742 1920 Pls
2772 1836 Pls
2805 1754 Pls
2840 1675 Pls
2878 1598 Pls
2918 1524 Pls
2960 1454 Pls
3003 1387 Pls
3048 1323 Pls
3094 1263 Pls
3141 1207 Pls
3189 1154 Pls
3237 1105 Pls
3284 1060 Pls
3332 1018 Pls
3379 981 Pls
3425 946 Pls
3470 916 Pls
3513 888 Pls
3555 864 Pls
3594 844 Pls
3632 826 Pls
3667 811 Pls
3699 799 Pls
3729 789 Pls
3755 781 Pls
3779 775 Pls
3798 771 Pls
3815 768 Pls
3828 766 Pls
3838 765 Pls
3845 765 Pls
3849 765 Pls
3852 765 Pls
3853 765 Pls
3854 765 Pls
3855 765 Pls
3856 765 Pls
3857 765 Pls
3858 765 Pls
3859 765 Pls
3860 765 Pls
3861 765 Pls
3862 765 Pls
3863 765 Pls
3864 765 Pls
3865 765 Pls
3866 765 Pls
3868 765 Pls
3869 765 Pls
3870 765 Pls
3871 765 Pls
3872 765 Pls
3872 765 Pls
3844 765 Pls
3846 765 Pls
3847 765 Pls
3848 765 Pls
3849 765 Pls
3850 765 Pls
3851 765 Pls
3852 765 Pls
3853 765 Pls
3854 765 Pls
3855 765 Pls
3856 765 Pls
3857 765 Pls
3858 765 Pls
3859 765 Pls
3860 765 Pls
3861 765 Pls
3862 765 Pls
3863 765 Pls
3865 765 Pls
3867 765 Pls
3871 765 Pls
3878 765 Pls
3888 766 Pls
3901 768 Pls
3917 771 Pls
3937 775 Pls
3960 781 Pls
3987 788 Pls
4016 798 Pls
4048 810 Pls
4083 825 Pls
4121 843 Pls
4160 864 Pls
4202 888 Pls
4245 915 Pls
4290 945 Pls
4336 979 Pls
4383 1017 Pls
4431 1059 Pls
4479 1104 Pls
4526 1153 Pls
4574 1205 Pls
4621 1262 Pls
4667 1322 Pls
4712 1385 Pls
4756 1452 Pls
4798 1522 Pls
4838 1596 Pls
4875 1672 Pls
4911 1752 Pls
4944 1833 Pls
4974 1918 Pls
5000 2004 Pls
5024 2093 Pls
5045 2183 Pls
5062 2275 Pls
5075 2368 Pls
5085 2462 Pls
5091 2556 Pls
5093 2651 Pls
5092 2745 Pls
5087 2839 Pls
5078 2933 Pls
5066 3026 Pls
5050 3118 Pls
5031 3208 Pls
5008 3297 Pls
4982 3383 Pls
4953 3468 Pls
4922 3550 Pls
4887 3629 Pls
4851 3706 Pls
4812 3779 Pls
4771 3850 Pls
4728 3917 Pls
4684 3980 Pls
4639 4040 Pls
4593 4097 Pls
4547 4150 Pls
4500 4199 Pls
4453 4244 Pls
4406 4285 Pls
4361 4323 Pls
4315 4358 Pls
4272 4388 Pls
4229 4416 Pls
4188 4439 Pls
4150 4460 Pls
4113 4478 Pls
4079 4493 Pls
4048 4505 Pls
4019 4515 Pls
3994 4523 Pls
3971 4529 Pls
3952 4533 Pls
3937 4536 Pls
3925 4537 Pls
3916 4538 Pls
3910 4539 Pls
3907 4539 Pls
3905 4539 Pls
3905 4538 Pls
3905 4538 Pls
3905 4538 Pls
3905 4538 Pls
3905 4538 Pls
3905 4538 Pls
3905 4538 Pls
3905 4538 Pls
3905 4538 Pls
3905 4538 Pls
3905 4537 Pls
3905 4537 Pls
3905 4537 Pls
3904 4537 Pls
3904 4537 Pls
3904 4537 Pls
3904 4537 Pls
3904 4537 Pls
3904 4537 Pls
3904 4537 Pls
3908 4538 Pls
3907 4538 Pls
3907 4538 Pls
3907 4538 Pls
3907 4538 Pls
3907 4538 Pls
3907 4538 Pls
3907 4538 Pls
3907 4538 Pls
3907 4538 Pls
3906 4538 Pls
3906 4538 Pls
3906 4538 Pls
3906 4538 Pls
3906 4538 Pls
3906 4538 Pls
3906 4538 Pls
3906 4538 Pls
3905 4538 Pls
3905 4538 Pls
3904 4538 Pls
3903 4537 Pls
3901 4537 Pls
3898 4537 Pls
3894 4536 Pls
3889 4535 Pls
3882 4533 Pls
3875 4531 Pls
3866 4529 Pls
3857 4525 Pls
3846 4521 Pls
3835 4516 Pls
3823 4510 Pls
3810 4503 Pls
3796 4495 Pls
3782 4486 Pls
3767 4476 Pls
3752 4465 Pls
3737 4452 Pls
3722 4438 Pls
3706 4423 Pls
3690 4407 Pls
3675 4390 Pls
3659 4371 Pls
3644 4351 Pls
3630 4330 Pls
3616 4308 Pls
3602 4285 Pls
3589 4260 Pls
3577 4235 Pls
3565 4209 Pls
3554 4182 Pls
3545 4154 Pls
3536 4125 Pls
3528 4096 Pls
3522 4066 Pls
3516 4036 Pls
3512 4005 Pls
3509 3974 Pls
3507 3943 Pls
3506 3912 Pls
3507 3880 Pls
3509 3849 Pls
3512 3818 Pls
3516 3788 Pls
3521 3757 Pls
3528 3728 Pls
3535 3698 Pls
3544 3670 Pls
3554 3642 Pls
3564 3615 Pls
3576 3588 Pls
3588 3563 Pls
3601 3539 Pls
3614 3516 Pls
3628 3493 Pls
3643 3472 Pls
3658 3452 Pls
3673 3434 Pls
3689 3416 Pls
3704 3400 Pls
3720 3385 Pls
3735 3371 Pls
3750 3359 Pls
3765 3347 Pls
3780 3337 Pls
3794 3328 Pls
3807 3320 Pls
3820 3313 Pls
3832 3307 Pls
3843 3302 Pls
3854 3298 Pls
3863 3294 Pls
3872 3292 Pls
3879 3290 Pls
3885 3288 Pls
3890 3287 Pls
3895 3286 Pls
3898 3286 Pls
3900 3286 Pls
3901 3285 Pls
3901 3285 Pls
3902 3285 Pls
3902 3285 Pls
3902 3285 Pls
3902 3285 Pls
3902 3285 Pls
3902 3285 Pls
3902 3285 Pls
3902 3285 Pls
3902 3285 Pls
3902 3285 Pls
3902 3285 Pls
3902 3285 Pls
3902 3284 Pls
3902 3284 Pls
3902 3284 Pls
3902 3284 Pls
3902 3284 Pls
3902 3284 Pls
3902 3284 Pls
3902 3284 Pls
3817 3113 Pls
3817 3113 Pls
3817 3113 Pls
3817 3113 Pls
3817 3113 Pls
3817 3113 Pls
3817 3113 Pls
3817 3113 Pls
3817 3113 Pls
3817 3113 Pls
3817 3113 Pls
3817 3113 Pls
3817 3113 Pls
3817 3113 Pls
3817 3113 Pls
3817 3113 Pls
3817 3113 Pls
3817 3113 Pls
3818 3113 Pls
3819 3113 Pls
3821 3113 Pls
3824 3113 Pls
3828 3114 Pls
3833 3115 Pls
3839 3117 Pls
3847 3119 Pls
3855 3121 Pls
3865 3125 Pls
3875 3129 Pls
3886 3134 Pls
3898 3140 Pls
3911 3146 Pls
3925 3154 Pls
3939 3163 Pls
3953 3174 Pls
3968 3185 Pls
3983 3197 Pls
3999 3211 Pls
4014 3226 Pls
4030 3242 Pls
4045 3260 Pls
4060 3278 Pls
4075 3298 Pls
4090 3319 Pls
4104 3341 Pls
4117 3364 Pls
4130 3388 Pls
4142 3414 Pls
4154 3440 Pls
4164 3467 Pls
4174 3495 Pls
4183 3523 Pls
4190 3552 Pls
4197 3582 Pls
4202 3612 Pls
4206 3643 Pls
4209 3674 Pls
4211 3705 Pls
4212 3736 Pls
4211 3767 Pls
4209 3798 Pls
4206 3829 Pls
4202 3860 Pls
4196 3890 Pls
4190 3920 Pls
4182 3949 Pls
4173 3978 Pls
4163 4005 Pls
4153 4033 Pls
4141 4059 Pls
4129 4084 Pls
4116 4108 Pls
4102 4131 Pls
4088 4153 Pls
4073 4174 Pls
4058 4194 Pls
4043 4213 Pls
4027 4230 Pls
4012 4246 Pls
3996 4261 Pls
3980 4275 Pls
3965 4287 Pls
3950 4299 Pls
3935 4309 Pls
3921 4318 Pls
3908 4326 Pls
3895 4333 Pls
3883 4339 Pls
3871 4344 Pls
3861 4348 Pls
3851 4351 Pls
3843 4354 Pls
3835 4356 Pls
3829 4357 Pls
3823 4358 Pls
3819 4359 Pls
3816 4359 Pls
3814 4359 Pls
3813 4359 Pls
3812 4359 Pls
3812 4359 Pls
3811 4359 Pls
3811 4359 Pls
3811 4359 Pls
3811 4359 Pls
3811 4359 Pls
3811 4359 Pls
3811 4359 Pls
3811 4359 Pls
3810 4359 Pls
3810 4359 Pls
3810 4359 Pls
3810 4359 Pls
3810 4359 Pls
3810 4359 Pls
3810 4359 Pls
3810 4359 Pls
3809 4359 Pls
3809 4359 Pls
3809 4359 Pls
3813 4360 Pls
3813 4360 Pls
3813 4360 Pls
3813 4359 Pls
3813 4359 Pls
3813 4359 Pls
3813 4359 Pls
3813 4359 Pls
3813 4359 Pls
3812 4359 Pls
3812 4359 Pls
3812 4359 Pls
3812 4359 Pls
3812 4359 Pls
3812 4359 Pls
3812 4360 Pls
3812 4360 Pls
3812 4360 Pls
3812 4360 Pls
3812 4360 Pls
3810 4360 Pls
3807 4360 Pls
3801 4359 Pls
3792 4358 Pls
3780 4356 Pls
3765 4354 Pls
3746 4349 Pls
3724 4344 Pls
3698 4336 Pls
3670 4326 Pls
3639 4314 Pls
3605 4299 Pls
3568 4281 Pls
3530 4260 Pls
3489 4237 Pls
3446 4209 Pls
3403 4179 Pls
3358 4144 Pls
3312 4107 Pls
3265 4065 Pls
3218 4020 Pls
3171 3971 Pls
3125 3918 Pls
3079 3862 Pls
3034 3802 Pls
2990 3739 Pls
2947 3672 Pls
2906 3601 Pls
2867 3528 Pls
2830 3451 Pls
2796 3372 Pls
2764 3290 Pls
2735 3205 Pls
2709 3119 Pls
2686 3030 Pls
2667 2940 Pls
2651 2848 Pls
2638 2755 Pls
2630 2662 Pls
2624 2567 Pls
2623 2473 Pls
2625 2378 Pls
2631 2283 Pls
2641 2190 Pls
2654 2097 Pls
2671 2005 Pls
2692 1915 Pls
2715 1826 Pls
2742 1739 Pls
2772 1655 Pls
2804 1573 Pls
2840 1493 Pls
2878 1417 Pls
2917 1343 Pls
2959 1273 Pls
3003 1206 Pls
3048 1142 Pls
3094 1082 Pls
3141 1025 Pls
3188 973 Pls
3236 924 Pls
3284 878 Pls
3332 837 Pls
3378 799 Pls
3425 765 Pls
3469 734 Pls
3513 706 Pls
3554 682 Pls
3594 662 Pls
3632 644 Pls
3667 629 Pls
3699 617 Pls
3729 607 Pls
3755 599 Pls
3778 593 Pls
3798 589 Pls
3815 586 Pls
3828 584 Pls
3838 583 Pls
3844 583 Pls
3849 583 Pls
3851 583 Pls
3853 583 Pls
3854 583 Pls
3855 583 Pls
3856 583 Pls
3857 583 Pls
3858 583 Pls
3859 583 Pls
3860 583 Pls
3861 583 Pls
3862 583 Pls
3863 583 Pls
3864 583 Pls
3865 583 Pls
3866 583 Pls
3867 583 Pls
3868 583 Pls
3869 583 Pls
3870 583 Pls
3872 583 Pls
3872 583 Pls
3844 583 Pls
3845 583 Pls
3846 583 Pls
3847 583 Pls
3848 583 Pls
3850 583 Pls
3851 583 Pls
3852 583 Pls
3853 583 Pls
3854 583 Pls
3855 583 Pls
3856 583 Pls
3857 583 Pls
3858 583 Pls
3859 583 Pls
3860 583 Pls
3861 583 Pls
3862 583 Pls
3863 582 Pls
3864 582 Pls
3867 582 Pls
3871 582 Pls
3878 583 Pls
3887 584 Pls
3900 585 Pls
3917 588 Pls
3937 592 Pls
3960 598 Pls
3986 606 Pls
4016 616 Pls
4048 628 Pls
4083 643 Pls
4120 660 Pls
4160 681 Pls
4202 705 Pls
4245 732 Pls
4290 763 Pls
4336 797 Pls
4383 835 Pls
4430 876 Pls
4478 921 Pls
4526 970 Pls
4573 1023 Pls
4620 1079 Pls
4667 1139 Pls
4712 1202 Pls
4755 1269 Pls
4797 1340 Pls
4837 1413 Pls
4875 1489 Pls
4910 1569 Pls
4943 1651 Pls
4973 1735 Pls
5000 1822 Pls
5024 1910 Pls
5044 2001 Pls
5061 2092 Pls
5075 2185 Pls
5084 2279 Pls
5091 2373 Pls
5093 2468 Pls
5092 2562 Pls
5087 2657 Pls
5078 2750 Pls
5066 2843 Pls
5050 2935 Pls
5030 3025 Pls
5008 3114 Pls
4982 3201 Pls
4953 3285 Pls
4921 3367 Pls
4887 3447 Pls
4850 3523 Pls
4811 3597 Pls
4770 3667 Pls
4728 3734 Pls
4684 3798 Pls
4639 3858 Pls
4593 3914 Pls
4546 3967 Pls
4499 4016 Pls
4452 4061 Pls
4406 4103 Pls
4360 4141 Pls
4315 4175 Pls
4271 4206 Pls
4229 4233 Pls
4188 4257 Pls
4149 4278 Pls
4113 4295 Pls
4079 4310 Pls
4047 4323 Pls
4019 4332 Pls
3993 4340 Pls
3971 4346 Pls
3952 4350 Pls
3937 4353 Pls
3924 4355 Pls
3916 4356 Pls
3910 4356 Pls
3906 4356 Pls
3905 4356 Pls
3904 4356 Pls
3904 4356 Pls
3904 4356 Pls
3904 4356 Pls
3904 4355 Pls
3904 4355 Pls
3904 4355 Pls
3904 4355 Pls
3904 4355 Pls
3904 4355 Pls
3904 4355 Pls
3904 4355 Pls
3904 4355 Pls
3904 4355 Pls
3904 4355 Pls
3904 4355 Pls
3904 4355 Pls
3904 4355 Pls
3903 4355 Pls
3903 4355 Pls
3907 4356 Pls
3907 4356 Pls
3907 4356 Pls
3907 4356 Pls
3907 4356 Pls
3906 4356 Pls
3906 4356 Pls
3906 4356 Pls
3906 4355 Pls
3906 4355 Pls
3906 4355 Pls
3906 4355 Pls
3906 4355 Pls
3906 4355 Pls
3905 4355 Pls
3905 4355 Pls
3905 4355 Pls
3905 4355 Pls
3905 4355 Pls
3905 4355 Pls
3904 4355 Pls
3903 4355 Pls
3901 4355 Pls
3898 4354 Pls
3893 4354 Pls
3888 4353 Pls
3882 4351 Pls
3874 4349 Pls
3866 4346 Pls
3856 4343 Pls
3846 4339 Pls
3834 4334 Pls
3822 4328 Pls
3809 4321 Pls
3796 4313 Pls
3781 4304 Pls
3767 4294 Pls
3752 4283 Pls
3737 4270 Pls
3721 4256 Pls
3705 4241 Pls
3690 4225 Pls
3674 4208 Pls
3659 4189 Pls
3644 4169 Pls
3629 4148 Pls
3615 4126 Pls
3601 4103 Pls
3588 4079 Pls
3576 4053 Pls
3564 4027 Pls
3554 4000 Pls
3544 3972 Pls
3535 3943 Pls
3528 3914 Pls
3521 3884 Pls
3516 3854 Pls
3511 3823 Pls
3508 3793 Pls
3506 3761 Pls
3506 3730 Pls
3506 3699 Pls
3508 3668 Pls
3511 3637 Pls
3515 3606 Pls
3521 3576 Pls
3527 3546 Pls
3535 3517 Pls
3543 3488 Pls
3553 3460 Pls
3564 3433 Pls
3575 3407 Pls
3587 3382 Pls
3600 3358 Pls
3614 3334 Pls
3628 3312 Pls
3642 3291 Pls
3657 3271 Pls
3673 3253 Pls
3688 3235 Pls
3704 3219 Pls
3719 3204 Pls
3734 3190 Pls
3750 3178 Pls
3764 3166 Pls
3779 3156 Pls
3793 3147 Pls
3806 3139 Pls
3819 3132 Pls
3831 3126 Pls
3843 3121 Pls
3853 3117 Pls
3863 3114 Pls
3871 3111 Pls
3878 3109 Pls
3885 3107 Pls
3890 3106 Pls
3894 3106 Pls
3897 3105 Pls
3899 3105 Pls
3900 3105 Pls
3901 3105 Pls
3901 3105 Pls
3901 3105 Pls
3901 3105 Pls
3901 3104 Pls
3901 3104 Pls
3901 3104 Pls
3901 3104 Pls
3901 3104 Pls
3901 3104 Pls
3901 3104 Pls
3901 3104 Pls
3901 3104 Pls
3901 3104 Pls
3902 3104 Pls
3902 3104 Pls
3902 3104 Pls
3902 3104 Pls
3902 3104 Pls
3902 3104 Pls
3902 3104 Pls
5067 4766 Pls
% End plot #1
2.000 UL
LTb
LCb setrgbcolor
1.000 UL
LTB
LCb setrgbcolor
2198 4899 N
0 -4451 V
3237 0 V
0 4451 V
-3237 0 V
Z stroke
1.000 UP
1.000 UL
LTb
LCb setrgbcolor
stroke
grestore
end
showpage
%%Trailer
%%DocumentFonts: Helvetica
