%!PS-Adobe-2.0 EPSF-2.0
%%Title: gnuplot_Zplt_YZ.eps
%%Creator: gnuplot 5.2 patchlevel 2
%%CreationDate: Sat Mar 19 04:29:25 2022
%%DocumentFonts: (atend)
%%BoundingBox: 50 50 410 302
%%EndComments
%%BeginProlog
/gnudict 256 dict def
gnudict begin
%
% The following true/false flags may be edited by hand if desired.
% The unit line width and grayscale image gamma correction may also be changed.
%
/Color true def
/Blacktext false def
/Solid false def
/Dashlength 1 def
/Landscape false def
/Level1 false def
/Level3 false def
/Rounded false def
/ClipToBoundingBox false def
/SuppressPDFMark false def
/TransparentPatterns false def
/gnulinewidth 5.000 def
/userlinewidth gnulinewidth def
/Gamma 1.0 def
/BackgroundColor {-1.000 -1.000 -1.000} def
%
/vshift -46 def
/dl1 {
  10.0 Dashlength userlinewidth gnulinewidth div mul mul mul
  Rounded { currentlinewidth 0.75 mul sub dup 0 le { pop 0.01 } if } if
} def
/dl2 {
  10.0 Dashlength userlinewidth gnulinewidth div mul mul mul
  Rounded { currentlinewidth 0.75 mul add } if
} def
/hpt_ 31.5 def
/vpt_ 31.5 def
/hpt hpt_ def
/vpt vpt_ def
/doclip {
  ClipToBoundingBox {
    newpath 50 50 moveto 410 50 lineto 410 302 lineto 50 302 lineto closepath
    clip
  } if
} def
%
% Gnuplot Prolog Version 5.1 (Oct 2015)
%
%/SuppressPDFMark true def
%
/M {moveto} bind def
/L {lineto} bind def
/R {rmoveto} bind def
/V {rlineto} bind def
/N {newpath moveto} bind def
/Z {closepath} bind def
/C {setrgbcolor} bind def
/f {rlineto fill} bind def
/g {setgray} bind def
/Gshow {show} def   % May be redefined later in the file to support UTF-8
/vpt2 vpt 2 mul def
/hpt2 hpt 2 mul def
/Lshow {currentpoint stroke M 0 vshift R 
	Blacktext {gsave 0 setgray textshow grestore} {textshow} ifelse} def
/Rshow {currentpoint stroke M dup stringwidth pop neg vshift R
	Blacktext {gsave 0 setgray textshow grestore} {textshow} ifelse} def
/Cshow {currentpoint stroke M dup stringwidth pop -2 div vshift R 
	Blacktext {gsave 0 setgray textshow grestore} {textshow} ifelse} def
/UP {dup vpt_ mul /vpt exch def hpt_ mul /hpt exch def
  /hpt2 hpt 2 mul def /vpt2 vpt 2 mul def} def
/DL {Color {setrgbcolor Solid {pop []} if 0 setdash}
 {pop pop pop 0 setgray Solid {pop []} if 0 setdash} ifelse} def
/BL {stroke userlinewidth 2 mul setlinewidth
	Rounded {1 setlinejoin 1 setlinecap} if} def
/AL {stroke userlinewidth 2 div setlinewidth
	Rounded {1 setlinejoin 1 setlinecap} if} def
/UL {dup gnulinewidth mul /userlinewidth exch def
	dup 1 lt {pop 1} if 10 mul /udl exch def} def
/PL {stroke userlinewidth setlinewidth
	Rounded {1 setlinejoin 1 setlinecap} if} def
3.8 setmiterlimit
% Classic Line colors (version 5.0)
/LCw {1 1 1} def
/LCb {0 0 0} def
/LCa {0 0 0} def
/LC0 {1 0 0} def
/LC1 {0 1 0} def
/LC2 {0 0 1} def
/LC3 {1 0 1} def
/LC4 {0 1 1} def
/LC5 {1 1 0} def
/LC6 {0 0 0} def
/LC7 {1 0.3 0} def
/LC8 {0.5 0.5 0.5} def
% Default dash patterns (version 5.0)
/LTB {BL [] LCb DL} def
/LTw {PL [] 1 setgray} def
/LTb {PL [] LCb DL} def
/LTa {AL [1 udl mul 2 udl mul] 0 setdash LCa setrgbcolor} def
/LT0 {PL [] LC0 DL} def
/LT1 {PL [2 dl1 3 dl2] LC1 DL} def
/LT2 {PL [1 dl1 1.5 dl2] LC2 DL} def
/LT3 {PL [6 dl1 2 dl2 1 dl1 2 dl2] LC3 DL} def
/LT4 {PL [1 dl1 2 dl2 6 dl1 2 dl2 1 dl1 2 dl2] LC4 DL} def
/LT5 {PL [4 dl1 2 dl2] LC5 DL} def
/LT6 {PL [1.5 dl1 1.5 dl2 1.5 dl1 1.5 dl2 1.5 dl1 6 dl2] LC6 DL} def
/LT7 {PL [3 dl1 3 dl2 1 dl1 3 dl2] LC7 DL} def
/LT8 {PL [2 dl1 2 dl2 2 dl1 6 dl2] LC8 DL} def
/SL {[] 0 setdash} def
/Pnt {stroke [] 0 setdash gsave 1 setlinecap M 0 0 V stroke grestore} def
/Dia {stroke [] 0 setdash 2 copy vpt add M
  hpt neg vpt neg V hpt vpt neg V
  hpt vpt V hpt neg vpt V closepath stroke
  Pnt} def
/Pls {stroke [] 0 setdash vpt sub M 0 vpt2 V
  currentpoint stroke M
  hpt neg vpt neg R hpt2 0 V stroke
 } def
/Box {stroke [] 0 setdash 2 copy exch hpt sub exch vpt add M
  0 vpt2 neg V hpt2 0 V 0 vpt2 V
  hpt2 neg 0 V closepath stroke
  Pnt} def
/Crs {stroke [] 0 setdash exch hpt sub exch vpt add M
  hpt2 vpt2 neg V currentpoint stroke M
  hpt2 neg 0 R hpt2 vpt2 V stroke} def
/TriU {stroke [] 0 setdash 2 copy vpt 1.12 mul add M
  hpt neg vpt -1.62 mul V
  hpt 2 mul 0 V
  hpt neg vpt 1.62 mul V closepath stroke
  Pnt} def
/Star {2 copy Pls Crs} def
/BoxF {stroke [] 0 setdash exch hpt sub exch vpt add M
  0 vpt2 neg V hpt2 0 V 0 vpt2 V
  hpt2 neg 0 V closepath fill} def
/TriUF {stroke [] 0 setdash vpt 1.12 mul add M
  hpt neg vpt -1.62 mul V
  hpt 2 mul 0 V
  hpt neg vpt 1.62 mul V closepath fill} def
/TriD {stroke [] 0 setdash 2 copy vpt 1.12 mul sub M
  hpt neg vpt 1.62 mul V
  hpt 2 mul 0 V
  hpt neg vpt -1.62 mul V closepath stroke
  Pnt} def
/TriDF {stroke [] 0 setdash vpt 1.12 mul sub M
  hpt neg vpt 1.62 mul V
  hpt 2 mul 0 V
  hpt neg vpt -1.62 mul V closepath fill} def
/DiaF {stroke [] 0 setdash vpt add M
  hpt neg vpt neg V hpt vpt neg V
  hpt vpt V hpt neg vpt V closepath fill} def
/Pent {stroke [] 0 setdash 2 copy gsave
  translate 0 hpt M 4 {72 rotate 0 hpt L} repeat
  closepath stroke grestore Pnt} def
/PentF {stroke [] 0 setdash gsave
  translate 0 hpt M 4 {72 rotate 0 hpt L} repeat
  closepath fill grestore} def
/Circle {stroke [] 0 setdash 2 copy
  hpt 0 360 arc stroke Pnt} def
/CircleF {stroke [] 0 setdash hpt 0 360 arc fill} def
/C0 {BL [] 0 setdash 2 copy moveto vpt 90 450 arc} bind def
/C1 {BL [] 0 setdash 2 copy moveto
	2 copy vpt 0 90 arc closepath fill
	vpt 0 360 arc closepath} bind def
/C2 {BL [] 0 setdash 2 copy moveto
	2 copy vpt 90 180 arc closepath fill
	vpt 0 360 arc closepath} bind def
/C3 {BL [] 0 setdash 2 copy moveto
	2 copy vpt 0 180 arc closepath fill
	vpt 0 360 arc closepath} bind def
/C4 {BL [] 0 setdash 2 copy moveto
	2 copy vpt 180 270 arc closepath fill
	vpt 0 360 arc closepath} bind def
/C5 {BL [] 0 setdash 2 copy moveto
	2 copy vpt 0 90 arc
	2 copy moveto
	2 copy vpt 180 270 arc closepath fill
	vpt 0 360 arc} bind def
/C6 {BL [] 0 setdash 2 copy moveto
	2 copy vpt 90 270 arc closepath fill
	vpt 0 360 arc closepath} bind def
/C7 {BL [] 0 setdash 2 copy moveto
	2 copy vpt 0 270 arc closepath fill
	vpt 0 360 arc closepath} bind def
/C8 {BL [] 0 setdash 2 copy moveto
	2 copy vpt 270 360 arc closepath fill
	vpt 0 360 arc closepath} bind def
/C9 {BL [] 0 setdash 2 copy moveto
	2 copy vpt 270 450 arc closepath fill
	vpt 0 360 arc closepath} bind def
/C10 {BL [] 0 setdash 2 copy 2 copy moveto vpt 270 360 arc closepath fill
	2 copy moveto
	2 copy vpt 90 180 arc closepath fill
	vpt 0 360 arc closepath} bind def
/C11 {BL [] 0 setdash 2 copy moveto
	2 copy vpt 0 180 arc closepath fill
	2 copy moveto
	2 copy vpt 270 360 arc closepath fill
	vpt 0 360 arc closepath} bind def
/C12 {BL [] 0 setdash 2 copy moveto
	2 copy vpt 180 360 arc closepath fill
	vpt 0 360 arc closepath} bind def
/C13 {BL [] 0 setdash 2 copy moveto
	2 copy vpt 0 90 arc closepath fill
	2 copy moveto
	2 copy vpt 180 360 arc closepath fill
	vpt 0 360 arc closepath} bind def
/C14 {BL [] 0 setdash 2 copy moveto
	2 copy vpt 90 360 arc closepath fill
	vpt 0 360 arc} bind def
/C15 {BL [] 0 setdash 2 copy vpt 0 360 arc closepath fill
	vpt 0 360 arc closepath} bind def
/Rec {newpath 4 2 roll moveto 1 index 0 rlineto 0 exch rlineto
	neg 0 rlineto closepath} bind def
/Square {dup Rec} bind def
/Bsquare {vpt sub exch vpt sub exch vpt2 Square} bind def
/S0 {BL [] 0 setdash 2 copy moveto 0 vpt rlineto BL Bsquare} bind def
/S1 {BL [] 0 setdash 2 copy vpt Square fill Bsquare} bind def
/S2 {BL [] 0 setdash 2 copy exch vpt sub exch vpt Square fill Bsquare} bind def
/S3 {BL [] 0 setdash 2 copy exch vpt sub exch vpt2 vpt Rec fill Bsquare} bind def
/S4 {BL [] 0 setdash 2 copy exch vpt sub exch vpt sub vpt Square fill Bsquare} bind def
/S5 {BL [] 0 setdash 2 copy 2 copy vpt Square fill
	exch vpt sub exch vpt sub vpt Square fill Bsquare} bind def
/S6 {BL [] 0 setdash 2 copy exch vpt sub exch vpt sub vpt vpt2 Rec fill Bsquare} bind def
/S7 {BL [] 0 setdash 2 copy exch vpt sub exch vpt sub vpt vpt2 Rec fill
	2 copy vpt Square fill Bsquare} bind def
/S8 {BL [] 0 setdash 2 copy vpt sub vpt Square fill Bsquare} bind def
/S9 {BL [] 0 setdash 2 copy vpt sub vpt vpt2 Rec fill Bsquare} bind def
/S10 {BL [] 0 setdash 2 copy vpt sub vpt Square fill 2 copy exch vpt sub exch vpt Square fill
	Bsquare} bind def
/S11 {BL [] 0 setdash 2 copy vpt sub vpt Square fill 2 copy exch vpt sub exch vpt2 vpt Rec fill
	Bsquare} bind def
/S12 {BL [] 0 setdash 2 copy exch vpt sub exch vpt sub vpt2 vpt Rec fill Bsquare} bind def
/S13 {BL [] 0 setdash 2 copy exch vpt sub exch vpt sub vpt2 vpt Rec fill
	2 copy vpt Square fill Bsquare} bind def
/S14 {BL [] 0 setdash 2 copy exch vpt sub exch vpt sub vpt2 vpt Rec fill
	2 copy exch vpt sub exch vpt Square fill Bsquare} bind def
/S15 {BL [] 0 setdash 2 copy Bsquare fill Bsquare} bind def
/D0 {gsave translate 45 rotate 0 0 S0 stroke grestore} bind def
/D1 {gsave translate 45 rotate 0 0 S1 stroke grestore} bind def
/D2 {gsave translate 45 rotate 0 0 S2 stroke grestore} bind def
/D3 {gsave translate 45 rotate 0 0 S3 stroke grestore} bind def
/D4 {gsave translate 45 rotate 0 0 S4 stroke grestore} bind def
/D5 {gsave translate 45 rotate 0 0 S5 stroke grestore} bind def
/D6 {gsave translate 45 rotate 0 0 S6 stroke grestore} bind def
/D7 {gsave translate 45 rotate 0 0 S7 stroke grestore} bind def
/D8 {gsave translate 45 rotate 0 0 S8 stroke grestore} bind def
/D9 {gsave translate 45 rotate 0 0 S9 stroke grestore} bind def
/D10 {gsave translate 45 rotate 0 0 S10 stroke grestore} bind def
/D11 {gsave translate 45 rotate 0 0 S11 stroke grestore} bind def
/D12 {gsave translate 45 rotate 0 0 S12 stroke grestore} bind def
/D13 {gsave translate 45 rotate 0 0 S13 stroke grestore} bind def
/D14 {gsave translate 45 rotate 0 0 S14 stroke grestore} bind def
/D15 {gsave translate 45 rotate 0 0 S15 stroke grestore} bind def
/DiaE {stroke [] 0 setdash vpt add M
  hpt neg vpt neg V hpt vpt neg V
  hpt vpt V hpt neg vpt V closepath stroke} def
/BoxE {stroke [] 0 setdash exch hpt sub exch vpt add M
  0 vpt2 neg V hpt2 0 V 0 vpt2 V
  hpt2 neg 0 V closepath stroke} def
/TriUE {stroke [] 0 setdash vpt 1.12 mul add M
  hpt neg vpt -1.62 mul V
  hpt 2 mul 0 V
  hpt neg vpt 1.62 mul V closepath stroke} def
/TriDE {stroke [] 0 setdash vpt 1.12 mul sub M
  hpt neg vpt 1.62 mul V
  hpt 2 mul 0 V
  hpt neg vpt -1.62 mul V closepath stroke} def
/PentE {stroke [] 0 setdash gsave
  translate 0 hpt M 4 {72 rotate 0 hpt L} repeat
  closepath stroke grestore} def
/CircE {stroke [] 0 setdash 
  hpt 0 360 arc stroke} def
/Opaque {gsave closepath 1 setgray fill grestore 0 setgray closepath} def
/DiaW {stroke [] 0 setdash vpt add M
  hpt neg vpt neg V hpt vpt neg V
  hpt vpt V hpt neg vpt V Opaque stroke} def
/BoxW {stroke [] 0 setdash exch hpt sub exch vpt add M
  0 vpt2 neg V hpt2 0 V 0 vpt2 V
  hpt2 neg 0 V Opaque stroke} def
/TriUW {stroke [] 0 setdash vpt 1.12 mul add M
  hpt neg vpt -1.62 mul V
  hpt 2 mul 0 V
  hpt neg vpt 1.62 mul V Opaque stroke} def
/TriDW {stroke [] 0 setdash vpt 1.12 mul sub M
  hpt neg vpt 1.62 mul V
  hpt 2 mul 0 V
  hpt neg vpt -1.62 mul V Opaque stroke} def
/PentW {stroke [] 0 setdash gsave
  translate 0 hpt M 4 {72 rotate 0 hpt L} repeat
  Opaque stroke grestore} def
/CircW {stroke [] 0 setdash 
  hpt 0 360 arc Opaque stroke} def
/BoxFill {gsave Rec 1 setgray fill grestore} def
/Density {
  /Fillden exch def
  currentrgbcolor
  /ColB exch def /ColG exch def /ColR exch def
  /ColR ColR Fillden mul Fillden sub 1 add def
  /ColG ColG Fillden mul Fillden sub 1 add def
  /ColB ColB Fillden mul Fillden sub 1 add def
  ColR ColG ColB setrgbcolor} def
/BoxColFill {gsave Rec PolyFill} def
/PolyFill {gsave Density fill grestore grestore} def
/h {rlineto rlineto rlineto gsave closepath fill grestore} bind def
%
% PostScript Level 1 Pattern Fill routine for rectangles
% Usage: x y w h s a XX PatternFill
%	x,y = lower left corner of box to be filled
%	w,h = width and height of box
%	  a = angle in degrees between lines and x-axis
%	 XX = 0/1 for no/yes cross-hatch
%
/PatternFill {gsave /PFa [ 9 2 roll ] def
  PFa 0 get PFa 2 get 2 div add PFa 1 get PFa 3 get 2 div add translate
  PFa 2 get -2 div PFa 3 get -2 div PFa 2 get PFa 3 get Rec
  TransparentPatterns {} {gsave 1 setgray fill grestore} ifelse
  clip
  currentlinewidth 0.5 mul setlinewidth
  /PFs PFa 2 get dup mul PFa 3 get dup mul add sqrt def
  0 0 M PFa 5 get rotate PFs -2 div dup translate
  0 1 PFs PFa 4 get div 1 add floor cvi
	{PFa 4 get mul 0 M 0 PFs V} for
  0 PFa 6 get ne {
	0 1 PFs PFa 4 get div 1 add floor cvi
	{PFa 4 get mul 0 2 1 roll M PFs 0 V} for
 } if
  stroke grestore} def
%
/languagelevel where
 {pop languagelevel} {1} ifelse
dup 2 lt
	{/InterpretLevel1 true def
	 /InterpretLevel3 false def}
	{/InterpretLevel1 Level1 def
	 2 gt
	    {/InterpretLevel3 Level3 def}
	    {/InterpretLevel3 false def}
	 ifelse }
 ifelse
%
% PostScript level 2 pattern fill definitions
%
/Level2PatternFill {
/Tile8x8 {/PaintType 2 /PatternType 1 /TilingType 1 /BBox [0 0 8 8] /XStep 8 /YStep 8}
	bind def
/KeepColor {currentrgbcolor [/Pattern /DeviceRGB] setcolorspace} bind def
<< Tile8x8
 /PaintProc {0.5 setlinewidth pop 0 0 M 8 8 L 0 8 M 8 0 L stroke} 
>> matrix makepattern
/Pat1 exch def
<< Tile8x8
 /PaintProc {0.5 setlinewidth pop 0 0 M 8 8 L 0 8 M 8 0 L stroke
	0 4 M 4 8 L 8 4 L 4 0 L 0 4 L stroke}
>> matrix makepattern
/Pat2 exch def
<< Tile8x8
 /PaintProc {0.5 setlinewidth pop 0 0 M 0 8 L
	8 8 L 8 0 L 0 0 L fill}
>> matrix makepattern
/Pat3 exch def
<< Tile8x8
 /PaintProc {0.5 setlinewidth pop -4 8 M 8 -4 L
	0 12 M 12 0 L stroke}
>> matrix makepattern
/Pat4 exch def
<< Tile8x8
 /PaintProc {0.5 setlinewidth pop -4 0 M 8 12 L
	0 -4 M 12 8 L stroke}
>> matrix makepattern
/Pat5 exch def
<< Tile8x8
 /PaintProc {0.5 setlinewidth pop -2 8 M 4 -4 L
	0 12 M 8 -4 L 4 12 M 10 0 L stroke}
>> matrix makepattern
/Pat6 exch def
<< Tile8x8
 /PaintProc {0.5 setlinewidth pop -2 0 M 4 12 L
	0 -4 M 8 12 L 4 -4 M 10 8 L stroke}
>> matrix makepattern
/Pat7 exch def
<< Tile8x8
 /PaintProc {0.5 setlinewidth pop 8 -2 M -4 4 L
	12 0 M -4 8 L 12 4 M 0 10 L stroke}
>> matrix makepattern
/Pat8 exch def
<< Tile8x8
 /PaintProc {0.5 setlinewidth pop 0 -2 M 12 4 L
	-4 0 M 12 8 L -4 4 M 8 10 L stroke}
>> matrix makepattern
/Pat9 exch def
/Pattern1 {PatternBgnd KeepColor Pat1 setpattern} bind def
/Pattern2 {PatternBgnd KeepColor Pat2 setpattern} bind def
/Pattern3 {PatternBgnd KeepColor Pat3 setpattern} bind def
/Pattern4 {PatternBgnd KeepColor Landscape {Pat5} {Pat4} ifelse setpattern} bind def
/Pattern5 {PatternBgnd KeepColor Landscape {Pat4} {Pat5} ifelse setpattern} bind def
/Pattern6 {PatternBgnd KeepColor Landscape {Pat9} {Pat6} ifelse setpattern} bind def
/Pattern7 {PatternBgnd KeepColor Landscape {Pat8} {Pat7} ifelse setpattern} bind def
} def
%
%
%End of PostScript Level 2 code
%
/PatternBgnd {
  TransparentPatterns {} {gsave 1 setgray fill grestore} ifelse
} def
%
% Substitute for Level 2 pattern fill codes with
% grayscale if Level 2 support is not selected.
%
/Level1PatternFill {
/Pattern1 {0.250 Density} bind def
/Pattern2 {0.500 Density} bind def
/Pattern3 {0.750 Density} bind def
/Pattern4 {0.125 Density} bind def
/Pattern5 {0.375 Density} bind def
/Pattern6 {0.625 Density} bind def
/Pattern7 {0.875 Density} bind def
} def
%
% Now test for support of Level 2 code
%
Level1 {Level1PatternFill} {Level2PatternFill} ifelse
%
/Symbol-Oblique /Symbol findfont [1 0 .167 1 0 0] makefont
dup length dict begin {1 index /FID eq {pop pop} {def} ifelse} forall
currentdict end definefont pop
%
/Metrics {ExtendTextBox Gswidth} def
/Lwidth {currentpoint stroke M 0 vshift R Metrics} def
/Rwidth {currentpoint stroke M dup stringwidth pop neg vshift R Metrics} def
/Cwidth {currentpoint stroke M dup stringwidth pop -2 div vshift R Metrics} def
/GLwidth {currentpoint stroke M 0 vshift R {ExtendTextBox} forall} def
/GRwidth {currentpoint stroke M dup Gwidth vshift R {ExtendTextBox} forall} def
/GCwidth {currentpoint stroke M dup Gwidth 2 div vshift R {ExtendTextBox} forall} def
/GLwidth2 {0 Gwidth AddGlyphWidth} def
/GRwidth2 {Gwidth -1 mul 0 AddGlyphWidth} def
/GCwidth2 {Gwidth 2 div dup -1 mul AddGlyphWidth} def
/AddGlyphWidth { dup TBx2 gt {userdict /TBx2 3 -1 roll put} {pop} ifelse
                 dup TBx1 lt {userdict /TBx1 3 -1 roll put} {pop} ifelse } def
/MFshow {
   { dup 5 get 3 ge
     { 5 get 3 eq {gsave} {grestore} ifelse }
     {dup dup 0 get findfont exch 1 get scalefont setfont
     [ currentpoint ] exch dup 2 get 0 exch R dup 5 get 2 ne {dup dup 6
     get exch 4 get {textshow} {Metrics pop 0 R} ifelse }if dup 5 get 0 eq
     {dup 3 get {2 get neg 0 exch R pop} {pop aload pop M} ifelse} {dup 5
     get 1 eq {dup 2 get exch dup 3 get exch 6 get Gswidth pop -2 div
     dup 0 R} {dup 6 get Gswidth pop -2 div 0 R 6 get
     textshow 2 index {aload pop M neg 3 -1 roll neg R pop pop} {pop pop pop
     pop aload pop M} ifelse }ifelse }ifelse }
     ifelse }
   forall} def
/Gswidth {dup type /stringtype eq {stringwidth} {pop (n) stringwidth} ifelse} def
/MFwidth {0 exch { dup 5 get 3 ge { 5 get 3 eq { 0 } { pop } ifelse }
 {dup 3 get{dup dup 0 get findfont exch 1 get scalefont setfont
     6 get Gswidth pop add} {pop} ifelse} ifelse} forall} def
/MLshow { currentpoint stroke M
  0 exch R
  Blacktext {gsave 0 setgray MFshow grestore} {MFshow} ifelse } bind def
/MRshow { currentpoint stroke M
  exch dup MFwidth neg 3 -1 roll R
  Blacktext {gsave 0 setgray MFshow grestore} {MFshow} ifelse } bind def
/MCshow { currentpoint stroke M
  exch dup MFwidth -2 div 3 -1 roll R
  Blacktext {gsave 0 setgray MFshow grestore} {MFshow} ifelse } bind def
/XYsave    { [( ) 1 2 true false 3 ()] } bind def
/XYrestore { [( ) 1 2 true false 4 ()] } bind def
Level1 SuppressPDFMark or 
{} {
/SDict 10 dict def
systemdict /pdfmark known not {
  userdict /pdfmark systemdict /cleartomark get put
} if
SDict begin [
  /Title (gnuplot_Zplt_YZ.eps)
  /Subject (gnuplot plot)
  /Creator (gnuplot 5.2 patchlevel 2)
%  /Producer (gnuplot)
%  /Keywords ()
  /CreationDate (Sat Mar 19 04:29:25 2022)
  /DOCINFO pdfmark
end
} ifelse
%
% Support for boxed text - Ethan A Merritt Sep 2016
%
/InitTextBox { userdict /TBy2 3 -1 roll put userdict /TBx2 3 -1 roll put
           userdict /TBy1 3 -1 roll put userdict /TBx1 3 -1 roll put
	   /Boxing true def } def
/ExtendTextBox { dup type /stringtype eq
    { Boxing { gsave dup false charpath pathbbox
      dup TBy2 gt {userdict /TBy2 3 -1 roll put} {pop} ifelse
      dup TBx2 gt {userdict /TBx2 3 -1 roll put} {pop} ifelse
      dup TBy1 lt {userdict /TBy1 3 -1 roll put} {pop} ifelse
      dup TBx1 lt {userdict /TBx1 3 -1 roll put} {pop} ifelse
      grestore } if }
    {} ifelse} def
/PopTextBox { newpath TBx1 TBxmargin sub TBy1 TBymargin sub M
               TBx1 TBxmargin sub TBy2 TBymargin add L
	       TBx2 TBxmargin add TBy2 TBymargin add L
	       TBx2 TBxmargin add TBy1 TBymargin sub L closepath } def
/DrawTextBox { PopTextBox stroke /Boxing false def} def
/FillTextBox { gsave PopTextBox fill grestore /Boxing false def} def
0 0 0 0 InitTextBox
/TBxmargin 20 def
/TBymargin 20 def
/Boxing false def
/textshow { ExtendTextBox Gshow } def
%
end
%%EndProlog
%%Page: 1 1
gnudict begin
gsave
doclip
50 50 translate
0.050 0.050 scale
0 setgray
newpath
(Helvetica) findfont 140 scalefont setfont
BackgroundColor 0 lt 3 1 roll 0 lt exch 0 lt or or not {BackgroundColor C 1.000 0 0 7200.00 5040.00 BoxColFill} if
/Helvetica findfont 140 scalefont setfont
/vshift -46 def
1.000 UL
LTb
LCb setrgbcolor
0.500 UL
LTa
LCa setrgbcolor
2036 448 M
3561 0 V
stroke
1.000 UL
LTb
LCb setrgbcolor
2036 448 M
63 0 V
3498 0 R
-63 0 V
stroke
1952 448 M
[ [(Helvetica) 140.0 0.0 true true 0 (-2.5)]
] -46.7 MRshow
1.000 UL
LTb
LCb setrgbcolor
0.500 UL
LTa
LCa setrgbcolor
2036 893 M
3561 0 V
stroke
1.000 UL
LTb
LCb setrgbcolor
2036 893 M
63 0 V
3498 0 R
-63 0 V
stroke
1952 893 M
[ [(Helvetica) 140.0 0.0 true true 0 (-2)]
] -46.7 MRshow
1.000 UL
LTb
LCb setrgbcolor
0.500 UL
LTa
LCa setrgbcolor
2036 1338 M
3561 0 V
stroke
1.000 UL
LTb
LCb setrgbcolor
2036 1338 M
63 0 V
3498 0 R
-63 0 V
stroke
1952 1338 M
[ [(Helvetica) 140.0 0.0 true true 0 (-1.5)]
] -46.7 MRshow
1.000 UL
LTb
LCb setrgbcolor
0.500 UL
LTa
LCa setrgbcolor
2036 1783 M
3561 0 V
stroke
1.000 UL
LTb
LCb setrgbcolor
2036 1783 M
63 0 V
3498 0 R
-63 0 V
stroke
1952 1783 M
[ [(Helvetica) 140.0 0.0 true true 0 (-1)]
] -46.7 MRshow
1.000 UL
LTb
LCb setrgbcolor
0.500 UL
LTa
LCa setrgbcolor
2036 2228 M
3561 0 V
stroke
1.000 UL
LTb
LCb setrgbcolor
2036 2228 M
63 0 V
3498 0 R
-63 0 V
stroke
1952 2228 M
[ [(Helvetica) 140.0 0.0 true true 0 (-0.5)]
] -46.7 MRshow
1.000 UL
LTb
LCb setrgbcolor
0.500 UL
LTa
LCa setrgbcolor
2036 2674 M
3561 0 V
stroke
1.000 UL
LTb
LCb setrgbcolor
2036 2674 M
63 0 V
3498 0 R
-63 0 V
stroke
1952 2674 M
[ [(Helvetica) 140.0 0.0 true true 0 ( 0)]
] -46.7 MRshow
1.000 UL
LTb
LCb setrgbcolor
0.500 UL
LTa
LCa setrgbcolor
2036 3119 M
3561 0 V
stroke
1.000 UL
LTb
LCb setrgbcolor
2036 3119 M
63 0 V
3498 0 R
-63 0 V
stroke
1952 3119 M
[ [(Helvetica) 140.0 0.0 true true 0 ( 0.5)]
] -46.7 MRshow
1.000 UL
LTb
LCb setrgbcolor
0.500 UL
LTa
LCa setrgbcolor
2036 3564 M
3561 0 V
stroke
1.000 UL
LTb
LCb setrgbcolor
2036 3564 M
63 0 V
3498 0 R
-63 0 V
stroke
1952 3564 M
[ [(Helvetica) 140.0 0.0 true true 0 ( 1)]
] -46.7 MRshow
1.000 UL
LTb
LCb setrgbcolor
0.500 UL
LTa
LCa setrgbcolor
2036 4009 M
3561 0 V
stroke
1.000 UL
LTb
LCb setrgbcolor
2036 4009 M
63 0 V
3498 0 R
-63 0 V
stroke
1952 4009 M
[ [(Helvetica) 140.0 0.0 true true 0 ( 1.5)]
] -46.7 MRshow
1.000 UL
LTb
LCb setrgbcolor
0.500 UL
LTa
LCa setrgbcolor
2036 4454 M
3561 0 V
stroke
1.000 UL
LTb
LCb setrgbcolor
2036 4454 M
63 0 V
3498 0 R
-63 0 V
stroke
1952 4454 M
[ [(Helvetica) 140.0 0.0 true true 0 ( 2)]
] -46.7 MRshow
1.000 UL
LTb
LCb setrgbcolor
0.500 UL
LTa
LCa setrgbcolor
2036 4899 M
3561 0 V
stroke
1.000 UL
LTb
LCb setrgbcolor
2036 4899 M
63 0 V
3498 0 R
-63 0 V
stroke
1952 4899 M
[ [(Helvetica) 140.0 0.0 true true 0 ( 2.5)]
] -46.7 MRshow
1.000 UL
LTb
LCb setrgbcolor
0.500 UL
LTa
LCa setrgbcolor
2036 448 M
0 4248 V
0 140 R
0 63 V
stroke
1.000 UL
LTb
LCb setrgbcolor
2036 448 M
0 63 V
0 4388 R
0 -63 V
stroke
2036 308 M
[ [(Helvetica) 140.0 0.0 true true 0 (-2)]
] -46.7 MCshow
1.000 UL
LTb
LCb setrgbcolor
0.500 UL
LTa
LCa setrgbcolor
2481 448 M
0 4248 V
0 140 R
0 63 V
stroke
1.000 UL
LTb
LCb setrgbcolor
2481 448 M
0 63 V
0 4388 R
0 -63 V
stroke
2481 308 M
[ [(Helvetica) 140.0 0.0 true true 0 (-1.5)]
] -46.7 MCshow
1.000 UL
LTb
LCb setrgbcolor
0.500 UL
LTa
LCa setrgbcolor
2926 448 M
0 4248 V
0 140 R
0 63 V
stroke
1.000 UL
LTb
LCb setrgbcolor
2926 448 M
0 63 V
0 4388 R
0 -63 V
stroke
2926 308 M
[ [(Helvetica) 140.0 0.0 true true 0 (-1)]
] -46.7 MCshow
1.000 UL
LTb
LCb setrgbcolor
0.500 UL
LTa
LCa setrgbcolor
3371 448 M
0 4248 V
0 140 R
0 63 V
stroke
1.000 UL
LTb
LCb setrgbcolor
3371 448 M
0 63 V
0 4388 R
0 -63 V
stroke
3371 308 M
[ [(Helvetica) 140.0 0.0 true true 0 (-0.5)]
] -46.7 MCshow
1.000 UL
LTb
LCb setrgbcolor
0.500 UL
LTa
LCa setrgbcolor
3817 448 M
0 4248 V
0 140 R
0 63 V
stroke
1.000 UL
LTb
LCb setrgbcolor
3817 448 M
0 63 V
0 4388 R
0 -63 V
stroke
3817 308 M
[ [(Helvetica) 140.0 0.0 true true 0 ( 0)]
] -46.7 MCshow
1.000 UL
LTb
LCb setrgbcolor
0.500 UL
LTa
LCa setrgbcolor
4262 448 M
0 4248 V
0 140 R
0 63 V
stroke
1.000 UL
LTb
LCb setrgbcolor
4262 448 M
0 63 V
0 4388 R
0 -63 V
stroke
4262 308 M
[ [(Helvetica) 140.0 0.0 true true 0 ( 0.5)]
] -46.7 MCshow
1.000 UL
LTb
LCb setrgbcolor
0.500 UL
LTa
LCa setrgbcolor
4707 448 M
0 4248 V
0 140 R
0 63 V
stroke
1.000 UL
LTb
LCb setrgbcolor
4707 448 M
0 63 V
0 4388 R
0 -63 V
stroke
4707 308 M
[ [(Helvetica) 140.0 0.0 true true 0 ( 1)]
] -46.7 MCshow
1.000 UL
LTb
LCb setrgbcolor
0.500 UL
LTa
LCa setrgbcolor
5152 448 M
0 4248 V
0 140 R
0 63 V
stroke
1.000 UL
LTb
LCb setrgbcolor
5152 448 M
0 63 V
0 4388 R
0 -63 V
stroke
5152 308 M
[ [(Helvetica) 140.0 0.0 true true 0 ( 1.5)]
] -46.7 MCshow
1.000 UL
LTb
LCb setrgbcolor
0.500 UL
LTa
LCa setrgbcolor
5597 448 M
0 4451 V
stroke
1.000 UL
LTb
LCb setrgbcolor
5597 448 M
0 63 V
0 4388 R
0 -63 V
stroke
5597 308 M
[ [(Helvetica) 140.0 0.0 true true 0 ( 2)]
] -46.7 MCshow
1.000 UL
LTb
LCb setrgbcolor
1.000 UL
LTB
LCb setrgbcolor
2036 4899 N
0 -4451 V
3561 0 V
0 4451 V
-3561 0 V
Z stroke
1.000 UP
1.000 UL
LTb
LCb setrgbcolor
LCb setrgbcolor
1476 2673 M
currentpoint gsave translate -270 rotate 0 0 moveto
[ [(Helvetica) 140.0 0.0 true true 0 (Z  [m])]
] -46.7 MCshow
grestore
LTb
LCb setrgbcolor
3816 98 M
[ [(Helvetica) 140.0 0.0 true true 0 (Y  [m])]
] -46.7 MCshow
LTb
% Begin plot #1
0.400 UP
1.000 UL
LTb
0.00 0.00 0.00 C /Helvetica findfont 140 scalefont setfont
LCb setrgbcolor
4946 4766 M
('zgoubi.plt' u \($19==i &&  $14>sMin && $14<sMax ? $10 : 1/0\):\($12\)) Rshow
0.400 UP
1.000 UL
LTb
0.00 0.00 0.00 C 5030 4766 M
399 0 V
3821 1968 M
-1 0 V
-2 0 V
-2 0 V
-3 -1 V
-5 -1 V
-5 -1 V
-7 -1 V
-8 -3 V
-10 -2 V
-10 -4 V
-11 -5 V
-13 -5 V
-13 -7 V
-14 -7 V
-15 -9 V
-15 -10 V
-16 -11 V
-17 -12 V
-16 -14 V
-17 -15 V
-17 -17 V
-17 -17 V
-17 -20 V
-17 -20 V
-17 -22 V
-16 -23 V
-15 -24 V
-15 -26 V
-14 -26 V
-14 -28 V
-12 -29 V
-12 -30 V
-10 -30 V
-10 -32 V
-8 -32 V
-7 -32 V
-6 -34 V
-5 -33 V
-3 -34 V
-2 -35 V
-1 -34 V
1 -34 V
2 -34 V
4 -34 V
4 -34 V
6 -33 V
8 -33 V
8 -32 V
10 -32 V
10 -30 V
12 -30 V
13 -29 V
13 -27 V
15 -27 V
15 -26 V
15 -24 V
17 -23 V
16 -22 V
17 -20 V
17 -19 V
17 -18 V
18 -16 V
17 -16 V
16 -13 V
17 -13 V
16 -11 V
16 -10 V
15 -8 V
14 -8 V
13 -7 V
13 -5 V
11 -4 V
11 -4 V
9 -3 V
9 -2 V
7 -2 V
5 -1 V
5 -1 V
3 0 V
3 0 V
1 0 V
1 0 V
1 0 V
1 0 V
1 0 V
-5 -1 R
1 0 V
0 1 V
1 0 V
0 -1 V
2 0 V
4 0 V
6 1 V
10 1 V
13 2 V
17 3 V
20 4 V
25 7 V
28 8 V
31 11 V
35 14 V
37 16 V
40 20 V
43 22 V
44 27 V
47 30 V
48 33 V
50 38 V
50 41 V
52 46 V
51 50 V
52 54 V
51 58 V
51 62 V
49 66 V
49 69 V
47 74 V
45 77 V
43 81 V
40 84 V
38 88 V
35 90 V
32 93 V
28 95 V
25 98 V
22 99 V
17 101 V
14 102 V
10 103 V
6 104 V
1 104 V
-2 104 V
-7 104 V
-11 103 V
-14 102 V
-19 101 V
-22 100 V
-26 97 V
-30 96 V
-32 93 V
-36 90 V
-39 87 V
-42 84 V
-44 81 V
-46 78 V
-47 74 V
-50 70 V
-51 66 V
-51 62 V
-53 58 V
-52 54 V
-53 50 V
-52 45 V
-52 42 V
-50 38 V
-50 34 V
-47 30 V
-46 26 V
-44 23 V
-41 19 V
-39 17 V
-35 14 V
-33 11 V
-29 8 V
-25 7 V
-22 4 V
-18 3 V
-15 2 V
-11 1 V
-7 1 V
-5 0 V
-2 0 V
-2 0 V
-1 0 V
-1 0 V
-1 0 V
-1 0 V
-1 0 V
-1 0 V
-2 0 V
-1 -1 V
-1 0 V
-1 0 V
-1 1 V
-1 0 V
-1 0 V
-2 0 V
-1 0 V
-1 0 V
-1 0 V
-1 0 V
29 -1 R
-1 0 V
-1 0 V
-1 0 V
-1 0 V
-2 0 V
-1 0 V
-1 0 V
-1 0 V
-1 0 V
-1 0 V
-1 0 V
-2 0 V
-1 1 V
-1 0 V
-1 0 V
-1 0 V
-1 0 V
-1 0 V
-2 0 V
-2 0 V
-5 0 V
-7 0 V
-11 -1 V
-14 -2 V
-18 -3 V
-22 -5 V
-25 -6 V
-29 -9 V
-33 -10 V
-35 -14 V
-39 -16 V
-41 -20 V
-44 -22 V
-45 -27 V
-48 -29 V
-49 -34 V
-51 -38 V
-51 -41 V
-53 -46 V
-52 -49 V
-53 -54 V
-52 -58 V
-52 -62 V
-51 -66 V
-49 -70 V
-48 -73 V
-46 -78 V
-44 -80 V
-42 -85 V
-39 -87 V
-36 -90 V
-33 -93 V
-29 -95 V
-26 -98 V
-23 -99 V
stroke 2472 3191 M
-18 -101 V
-15 -102 V
-11 -103 V
-7 -104 V
-2 -104 V
1 -104 V
6 -104 V
9 -103 V
14 -102 V
18 -101 V
21 -99 V
25 -98 V
28 -95 V
32 -93 V
35 -90 V
38 -87 V
40 -85 V
43 -81 V
45 -77 V
47 -74 V
48 -70 V
50 -66 V
51 -62 V
51 -58 V
51 -54 V
52 -50 V
51 -45 V
51 -42 V
49 -38 V
49 -33 V
46 -30 V
45 -27 V
43 -22 V
40 -20 V
38 -16 V
34 -14 V
32 -11 V
28 -8 V
24 -7 V
21 -4 V
17 -3 V
14 -2 V
9 -1 V
7 -1 V
3 0 V
2 0 V
1 0 V
0 1 V
1 0 V
0 1 V
-5 -1 R
1 0 V
1 0 V
1 0 V
1 0 V
2 0 V
2 1 V
4 0 V
4 1 V
6 1 V
7 2 V
8 2 V
10 3 V
10 3 V
12 5 V
12 6 V
14 6 V
14 8 V
15 8 V
16 10 V
16 12 V
16 12 V
17 14 V
17 15 V
17 16 V
18 18 V
17 19 V
17 21 V
16 22 V
16 23 V
16 24 V
15 26 V
15 26 V
13 28 V
13 29 V
12 30 V
10 31 V
10 31 V
8 32 V
8 33 V
6 33 V
5 34 V
3 34 V
2 34 V
1 35 V
-1 34 V
-2 34 V
-3 34 V
-5 34 V
-5 33 V
-7 33 V
-9 32 V
-9 32 V
-11 31 V
-11 29 V
-13 29 V
-13 28 V
-14 27 V
-15 25 V
-16 25 V
-16 23 V
-16 22 V
-17 20 V
-17 19 V
-17 18 V
-17 17 V
-17 15 V
-17 13 V
-16 13 V
-16 11 V
-15 10 V
-15 9 V
-14 8 V
-13 6 V
-13 6 V
-11 4 V
-10 4 V
-10 3 V
-8 2 V
-7 2 V
-5 1 V
-5 1 V
-3 0 V
-2 1 V
-2 0 V
-1 0 V
0 1 V
1 0 V
86 -10 R
-1 0 V
-2 0 V
-2 0 V
-3 -1 V
-5 -1 V
-5 -1 V
-7 -1 V
-8 -3 V
-10 -2 V
-10 -4 V
-11 -5 V
-13 -5 V
-13 -7 V
-14 -7 V
-15 -9 V
-15 -10 V
-16 -11 V
-17 -12 V
-16 -14 V
-17 -15 V
-17 -17 V
-17 -17 V
-17 -20 V
-17 -20 V
-17 -22 V
-16 -23 V
-15 -24 V
-15 -26 V
-14 -26 V
-14 -28 V
-12 -29 V
-12 -30 V
-10 -30 V
-10 -32 V
-8 -32 V
-7 -32 V
-6 -34 V
-5 -33 V
-3 -34 V
-2 -35 V
-1 -34 V
1 -34 V
2 -34 V
4 -34 V
4 -34 V
6 -33 V
8 -33 V
8 -32 V
10 -32 V
10 -30 V
12 -30 V
13 -29 V
13 -27 V
15 -27 V
15 -26 V
15 -24 V
17 -23 V
16 -22 V
17 -20 V
17 -19 V
17 -18 V
18 -16 V
17 -16 V
16 -13 V
17 -13 V
16 -11 V
16 -10 V
15 -8 V
14 -8 V
13 -7 V
13 -5 V
11 -4 V
11 -4 V
9 -3 V
9 -2 V
7 -2 V
5 -1 V
5 -1 V
3 0 V
3 0 V
1 0 V
1 0 V
1 0 V
1 0 V
1 0 V
-5 -1 R
1 0 V
0 1 V
1 0 V
0 -1 V
2 0 V
4 0 V
6 1 V
10 1 V
13 2 V
17 3 V
20 4 V
25 7 V
28 8 V
31 11 V
35 14 V
37 16 V
40 20 V
43 22 V
44 27 V
47 30 V
48 33 V
50 38 V
50 41 V
52 46 V
stroke 4428 920 M
51 50 V
52 54 V
51 58 V
51 62 V
49 66 V
49 69 V
47 74 V
45 77 V
43 81 V
40 84 V
38 88 V
35 90 V
32 93 V
28 95 V
25 98 V
22 99 V
17 101 V
14 102 V
10 103 V
6 104 V
1 104 V
-2 104 V
-7 104 V
-11 103 V
-14 102 V
-19 101 V
-22 100 V
-26 97 V
-30 96 V
-32 93 V
-36 90 V
-39 87 V
-42 84 V
-44 81 V
-46 78 V
-47 74 V
-50 70 V
-51 66 V
-51 62 V
-53 58 V
-52 54 V
-53 50 V
-52 45 V
-52 42 V
-50 38 V
-50 34 V
-47 30 V
-46 26 V
-44 23 V
-41 19 V
-39 17 V
-35 14 V
-33 11 V
-29 8 V
-25 7 V
-22 4 V
-18 3 V
-15 2 V
-11 1 V
-7 1 V
-5 0 V
-2 0 V
-2 0 V
-1 0 V
-1 0 V
-1 0 V
-1 0 V
-1 0 V
-1 0 V
-2 0 V
-1 -1 V
-1 0 V
-1 0 V
-1 1 V
-1 0 V
-1 0 V
-2 0 V
-1 0 V
-1 0 V
-1 0 V
-1 0 V
29 -1 R
-1 0 V
-1 0 V
-1 0 V
-1 0 V
-2 0 V
-1 0 V
-1 0 V
-1 0 V
-1 0 V
-1 0 V
-1 0 V
-2 0 V
-1 1 V
-1 0 V
-1 0 V
-1 0 V
-1 0 V
-1 0 V
-2 0 V
-2 0 V
-5 0 V
-7 0 V
-11 -1 V
-14 -2 V
-18 -3 V
-22 -5 V
-25 -6 V
-29 -9 V
-33 -10 V
-35 -14 V
-39 -16 V
-41 -20 V
-44 -22 V
-45 -27 V
-48 -29 V
-49 -34 V
-51 -38 V
-51 -41 V
-53 -46 V
-52 -49 V
-53 -54 V
-52 -58 V
-52 -62 V
-51 -66 V
-49 -70 V
-48 -73 V
-46 -78 V
-44 -80 V
-42 -85 V
-39 -87 V
-36 -90 V
-33 -93 V
-29 -95 V
-26 -98 V
-23 -99 V
-18 -101 V
-15 -102 V
-11 -103 V
-7 -104 V
-2 -104 V
1 -104 V
6 -104 V
9 -103 V
14 -102 V
18 -101 V
21 -99 V
25 -98 V
28 -95 V
32 -93 V
35 -90 V
38 -87 V
40 -85 V
43 -81 V
45 -77 V
47 -74 V
48 -70 V
50 -66 V
51 -62 V
51 -58 V
51 -54 V
52 -50 V
51 -45 V
51 -42 V
49 -38 V
49 -33 V
46 -30 V
45 -27 V
43 -22 V
40 -20 V
38 -16 V
34 -14 V
32 -11 V
28 -8 V
24 -7 V
21 -4 V
17 -3 V
14 -2 V
9 -1 V
7 -1 V
3 0 V
2 0 V
1 0 V
0 1 V
1 0 V
0 1 V
-5 -1 R
1 0 V
1 0 V
1 0 V
1 0 V
2 0 V
2 1 V
4 0 V
4 1 V
6 1 V
7 2 V
8 2 V
10 3 V
10 3 V
12 5 V
12 6 V
14 6 V
14 8 V
15 8 V
16 10 V
16 12 V
16 12 V
17 14 V
17 15 V
17 16 V
18 18 V
17 19 V
17 21 V
16 22 V
16 23 V
16 24 V
15 26 V
15 26 V
13 28 V
13 29 V
12 30 V
10 31 V
10 31 V
8 32 V
8 33 V
6 33 V
5 34 V
3 34 V
2 34 V
1 35 V
-1 34 V
-2 34 V
-3 34 V
-5 34 V
-5 33 V
-7 33 V
-9 32 V
-9 32 V
-11 31 V
-11 29 V
-13 29 V
-13 28 V
-14 27 V
-15 25 V
-16 25 V
-16 23 V
-16 22 V
stroke 4002 1794 M
-17 20 V
-17 19 V
-17 18 V
-17 17 V
-17 15 V
-17 13 V
-16 13 V
-16 11 V
-15 10 V
-15 9 V
-14 8 V
-13 6 V
-13 6 V
-11 4 V
-10 4 V
-10 3 V
-8 2 V
-7 2 V
-5 1 V
-5 1 V
-3 0 V
-2 1 V
-2 0 V
-1 0 V
0 1 V
1 0 V
3821 1968 Pls
3821 1968 Pls
3821 1968 Pls
3821 1968 Pls
3821 1968 Pls
3821 1968 Pls
3821 1968 Pls
3821 1968 Pls
3821 1968 Pls
3821 1968 Pls
3821 1968 Pls
3821 1968 Pls
3821 1968 Pls
3821 1968 Pls
3821 1968 Pls
3820 1968 Pls
3820 1968 Pls
3818 1968 Pls
3816 1968 Pls
3813 1967 Pls
3808 1966 Pls
3803 1965 Pls
3796 1964 Pls
3788 1961 Pls
3778 1959 Pls
3768 1955 Pls
3757 1950 Pls
3744 1945 Pls
3731 1938 Pls
3717 1931 Pls
3702 1922 Pls
3687 1912 Pls
3671 1901 Pls
3654 1889 Pls
3638 1875 Pls
3621 1860 Pls
3604 1843 Pls
3587 1826 Pls
3570 1806 Pls
3553 1786 Pls
3536 1764 Pls
3520 1741 Pls
3505 1717 Pls
3490 1691 Pls
3476 1665 Pls
3462 1637 Pls
3450 1608 Pls
3438 1578 Pls
3428 1548 Pls
3418 1516 Pls
3410 1484 Pls
3403 1452 Pls
3397 1418 Pls
3392 1385 Pls
3389 1351 Pls
3387 1316 Pls
3386 1282 Pls
3387 1248 Pls
3389 1214 Pls
3393 1180 Pls
3397 1146 Pls
3403 1113 Pls
3411 1080 Pls
3419 1048 Pls
3429 1016 Pls
3439 986 Pls
3451 956 Pls
3464 927 Pls
3477 900 Pls
3492 873 Pls
3507 847 Pls
3522 823 Pls
3539 800 Pls
3555 778 Pls
3572 758 Pls
3589 739 Pls
3606 721 Pls
3624 705 Pls
3641 689 Pls
3657 676 Pls
3674 663 Pls
3690 652 Pls
3706 642 Pls
3721 634 Pls
3735 626 Pls
3748 619 Pls
3761 614 Pls
3772 610 Pls
3783 606 Pls
3792 603 Pls
3801 601 Pls
3808 599 Pls
3813 598 Pls
3818 597 Pls
3821 597 Pls
3824 597 Pls
3825 597 Pls
3826 597 Pls
3826 597 Pls
3827 597 Pls
3827 597 Pls
3827 597 Pls
3827 597 Pls
3827 597 Pls
3827 597 Pls
3827 597 Pls
3828 597 Pls
3828 597 Pls
3828 597 Pls
3828 597 Pls
3828 597 Pls
3828 597 Pls
3828 597 Pls
3829 597 Pls
3829 597 Pls
3829 597 Pls
3829 597 Pls
3829 597 Pls
3824 596 Pls
3824 596 Pls
3825 596 Pls
3825 596 Pls
3825 596 Pls
3825 596 Pls
3825 596 Pls
3825 597 Pls
3825 597 Pls
3825 597 Pls
3826 597 Pls
3826 597 Pls
3826 597 Pls
3826 596 Pls
3826 596 Pls
3826 596 Pls
3826 596 Pls
3826 596 Pls
3826 596 Pls
3826 596 Pls
3828 596 Pls
3832 596 Pls
3838 597 Pls
3848 598 Pls
3861 600 Pls
3878 603 Pls
3898 607 Pls
3923 614 Pls
3951 622 Pls
3982 633 Pls
4017 647 Pls
4054 663 Pls
4094 683 Pls
4137 705 Pls
4181 732 Pls
4228 762 Pls
4276 795 Pls
4326 833 Pls
4376 874 Pls
4428 920 Pls
4479 970 Pls
4531 1024 Pls
4582 1082 Pls
4633 1144 Pls
4682 1210 Pls
4731 1279 Pls
4778 1353 Pls
4823 1430 Pls
4866 1511 Pls
4906 1595 Pls
4944 1683 Pls
4979 1773 Pls
5011 1866 Pls
5039 1961 Pls
5064 2059 Pls
5086 2158 Pls
5103 2259 Pls
5117 2361 Pls
5127 2464 Pls
5133 2568 Pls
5134 2672 Pls
5132 2776 Pls
5125 2880 Pls
5114 2983 Pls
5100 3085 Pls
5081 3186 Pls
5059 3286 Pls
5033 3383 Pls
5003 3479 Pls
4971 3572 Pls
4935 3662 Pls
4896 3749 Pls
4854 3833 Pls
4810 3914 Pls
4764 3992 Pls
4717 4066 Pls
4667 4136 Pls
4616 4202 Pls
4565 4264 Pls
4512 4322 Pls
4460 4376 Pls
4407 4426 Pls
4355 4471 Pls
4303 4513 Pls
4253 4551 Pls
4203 4585 Pls
4156 4615 Pls
4110 4641 Pls
4066 4664 Pls
4025 4683 Pls
3986 4700 Pls
3951 4714 Pls
3918 4725 Pls
3889 4733 Pls
3864 4740 Pls
3842 4744 Pls
3824 4747 Pls
3809 4749 Pls
3798 4750 Pls
3791 4751 Pls
3786 4751 Pls
3784 4751 Pls
3782 4751 Pls
3781 4751 Pls
3780 4751 Pls
3779 4751 Pls
3778 4751 Pls
3777 4751 Pls
3776 4751 Pls
3774 4751 Pls
3773 4750 Pls
3772 4750 Pls
3771 4750 Pls
3770 4751 Pls
3769 4751 Pls
3768 4751 Pls
3766 4751 Pls
3765 4751 Pls
3764 4751 Pls
3763 4751 Pls
3762 4751 Pls
3762 4751 Pls
3791 4750 Pls
3790 4750 Pls
3789 4750 Pls
3788 4750 Pls
3787 4750 Pls
3785 4750 Pls
3784 4750 Pls
3783 4750 Pls
3782 4750 Pls
3781 4750 Pls
3780 4750 Pls
3779 4750 Pls
3777 4750 Pls
3776 4751 Pls
3775 4751 Pls
3774 4751 Pls
3773 4751 Pls
3772 4751 Pls
3771 4751 Pls
3769 4751 Pls
3767 4751 Pls
3762 4751 Pls
3755 4751 Pls
3744 4750 Pls
3730 4748 Pls
3712 4745 Pls
3690 4740 Pls
3665 4734 Pls
3636 4725 Pls
3603 4715 Pls
3568 4701 Pls
3529 4685 Pls
3488 4665 Pls
3444 4643 Pls
3399 4616 Pls
3351 4587 Pls
3302 4553 Pls
3251 4515 Pls
3200 4474 Pls
3147 4428 Pls
3095 4379 Pls
3042 4325 Pls
2990 4267 Pls
2938 4205 Pls
2887 4139 Pls
2838 4069 Pls
2790 3996 Pls
2744 3918 Pls
2700 3838 Pls
2658 3753 Pls
2619 3666 Pls
2583 3576 Pls
2550 3483 Pls
2521 3388 Pls
2495 3290 Pls
2472 3191 Pls
2454 3090 Pls
2439 2988 Pls
2428 2885 Pls
2421 2781 Pls
2419 2677 Pls
2420 2573 Pls
2426 2469 Pls
2435 2366 Pls
2449 2264 Pls
2467 2163 Pls
2488 2064 Pls
2513 1966 Pls
2541 1871 Pls
2573 1778 Pls
2608 1688 Pls
2646 1601 Pls
2686 1516 Pls
2729 1435 Pls
2774 1358 Pls
2821 1284 Pls
2869 1214 Pls
2919 1148 Pls
2970 1086 Pls
3021 1028 Pls
3072 974 Pls
3124 924 Pls
3175 879 Pls
3226 837 Pls
3275 799 Pls
3324 766 Pls
3370 736 Pls
3415 709 Pls
3458 687 Pls
3498 667 Pls
3536 651 Pls
3570 637 Pls
3602 626 Pls
3630 618 Pls
3654 611 Pls
3675 607 Pls
3692 604 Pls
3706 602 Pls
3715 601 Pls
3722 600 Pls
3725 600 Pls
3727 600 Pls
3728 600 Pls
3728 600 Pls
3728 601 Pls
3728 601 Pls
3728 601 Pls
3728 601 Pls
3728 601 Pls
3728 601 Pls
3728 601 Pls
3728 601 Pls
3728 601 Pls
3728 601 Pls
3729 601 Pls
3729 601 Pls
3729 601 Pls
3729 601 Pls
3729 601 Pls
3729 601 Pls
3729 602 Pls
3729 602 Pls
3724 601 Pls
3724 601 Pls
3725 601 Pls
3725 601 Pls
3725 601 Pls
3725 601 Pls
3725 601 Pls
3725 601 Pls
3726 601 Pls
3726 601 Pls
3726 601 Pls
3726 601 Pls
3726 601 Pls
3726 601 Pls
3726 601 Pls
3727 601 Pls
3727 601 Pls
3727 601 Pls
3727 601 Pls
3728 601 Pls
3728 601 Pls
3730 601 Pls
3732 602 Pls
3736 602 Pls
3740 603 Pls
3746 604 Pls
3753 606 Pls
3761 608 Pls
3771 611 Pls
3781 614 Pls
3793 619 Pls
3805 625 Pls
3819 631 Pls
3833 639 Pls
3848 647 Pls
3864 657 Pls
3880 669 Pls
3896 681 Pls
3913 695 Pls
3930 710 Pls
3947 726 Pls
3965 744 Pls
3982 763 Pls
3999 784 Pls
4015 806 Pls
4031 829 Pls
4047 853 Pls
4062 879 Pls
4077 905 Pls
4090 933 Pls
4103 962 Pls
4115 992 Pls
4125 1023 Pls
4135 1054 Pls
4143 1086 Pls
4151 1119 Pls
4157 1152 Pls
4162 1186 Pls
4165 1220 Pls
4167 1254 Pls
4168 1289 Pls
4167 1323 Pls
4165 1357 Pls
4162 1391 Pls
4157 1425 Pls
4152 1458 Pls
4145 1491 Pls
4136 1523 Pls
4127 1555 Pls
4116 1586 Pls
4105 1615 Pls
4092 1644 Pls
4079 1672 Pls
4065 1699 Pls
4050 1724 Pls
4034 1749 Pls
4018 1772 Pls
4002 1794 Pls
3985 1814 Pls
3968 1833 Pls
3951 1851 Pls
3934 1868 Pls
3917 1883 Pls
3900 1896 Pls
3884 1909 Pls
3868 1920 Pls
3853 1930 Pls
3838 1939 Pls
3824 1947 Pls
3811 1953 Pls
3798 1959 Pls
3787 1963 Pls
3777 1967 Pls
3767 1970 Pls
3759 1972 Pls
3752 1974 Pls
3747 1975 Pls
3742 1976 Pls
3739 1976 Pls
3737 1977 Pls
3735 1977 Pls
3735 1977 Pls
3734 1977 Pls
3734 1977 Pls
3734 1977 Pls
3734 1977 Pls
3734 1977 Pls
3734 1977 Pls
3734 1977 Pls
3734 1977 Pls
3734 1977 Pls
3734 1977 Pls
3734 1977 Pls
3734 1978 Pls
3735 1978 Pls
3735 1978 Pls
3735 1978 Pls
3735 1978 Pls
3735 1978 Pls
3735 1978 Pls
3735 1978 Pls
3735 1978 Pls
3821 1968 Pls
3821 1968 Pls
3821 1968 Pls
3821 1968 Pls
3821 1968 Pls
3821 1968 Pls
3821 1968 Pls
3821 1968 Pls
3821 1968 Pls
3821 1968 Pls
3821 1968 Pls
3821 1968 Pls
3821 1968 Pls
3821 1968 Pls
3821 1968 Pls
3820 1968 Pls
3820 1968 Pls
3818 1968 Pls
3816 1968 Pls
3813 1967 Pls
3808 1966 Pls
3803 1965 Pls
3796 1964 Pls
3788 1961 Pls
3778 1959 Pls
3768 1955 Pls
3757 1950 Pls
3744 1945 Pls
3731 1938 Pls
3717 1931 Pls
3702 1922 Pls
3687 1912 Pls
3671 1901 Pls
3654 1889 Pls
3638 1875 Pls
3621 1860 Pls
3604 1843 Pls
3587 1826 Pls
3570 1806 Pls
3553 1786 Pls
3536 1764 Pls
3520 1741 Pls
3505 1717 Pls
3490 1691 Pls
3476 1665 Pls
3462 1637 Pls
3450 1608 Pls
3438 1578 Pls
3428 1548 Pls
3418 1516 Pls
3410 1484 Pls
3403 1452 Pls
3397 1418 Pls
3392 1385 Pls
3389 1351 Pls
3387 1316 Pls
3386 1282 Pls
3387 1248 Pls
3389 1214 Pls
3393 1180 Pls
3397 1146 Pls
3403 1113 Pls
3411 1080 Pls
3419 1048 Pls
3429 1016 Pls
3439 986 Pls
3451 956 Pls
3464 927 Pls
3477 900 Pls
3492 873 Pls
3507 847 Pls
3522 823 Pls
3539 800 Pls
3555 778 Pls
3572 758 Pls
3589 739 Pls
3606 721 Pls
3624 705 Pls
3641 689 Pls
3657 676 Pls
3674 663 Pls
3690 652 Pls
3706 642 Pls
3721 634 Pls
3735 626 Pls
3748 619 Pls
3761 614 Pls
3772 610 Pls
3783 606 Pls
3792 603 Pls
3801 601 Pls
3808 599 Pls
3813 598 Pls
3818 597 Pls
3821 597 Pls
3824 597 Pls
3825 597 Pls
3826 597 Pls
3826 597 Pls
3827 597 Pls
3827 597 Pls
3827 597 Pls
3827 597 Pls
3827 597 Pls
3827 597 Pls
3827 597 Pls
3828 597 Pls
3828 597 Pls
3828 597 Pls
3828 597 Pls
3828 597 Pls
3828 597 Pls
3828 597 Pls
3829 597 Pls
3829 597 Pls
3829 597 Pls
3829 597 Pls
3829 597 Pls
3824 596 Pls
3824 596 Pls
3825 596 Pls
3825 596 Pls
3825 596 Pls
3825 596 Pls
3825 596 Pls
3825 597 Pls
3825 597 Pls
3825 597 Pls
3826 597 Pls
3826 597 Pls
3826 597 Pls
3826 596 Pls
3826 596 Pls
3826 596 Pls
3826 596 Pls
3826 596 Pls
3826 596 Pls
3826 596 Pls
3828 596 Pls
3832 596 Pls
3838 597 Pls
3848 598 Pls
3861 600 Pls
3878 603 Pls
3898 607 Pls
3923 614 Pls
3951 622 Pls
3982 633 Pls
4017 647 Pls
4054 663 Pls
4094 683 Pls
4137 705 Pls
4181 732 Pls
4228 762 Pls
4276 795 Pls
4326 833 Pls
4376 874 Pls
4428 920 Pls
4479 970 Pls
4531 1024 Pls
4582 1082 Pls
4633 1144 Pls
4682 1210 Pls
4731 1279 Pls
4778 1353 Pls
4823 1430 Pls
4866 1511 Pls
4906 1595 Pls
4944 1683 Pls
4979 1773 Pls
5011 1866 Pls
5039 1961 Pls
5064 2059 Pls
5086 2158 Pls
5103 2259 Pls
5117 2361 Pls
5127 2464 Pls
5133 2568 Pls
5134 2672 Pls
5132 2776 Pls
5125 2880 Pls
5114 2983 Pls
5100 3085 Pls
5081 3186 Pls
5059 3286 Pls
5033 3383 Pls
5003 3479 Pls
4971 3572 Pls
4935 3662 Pls
4896 3749 Pls
4854 3833 Pls
4810 3914 Pls
4764 3992 Pls
4717 4066 Pls
4667 4136 Pls
4616 4202 Pls
4565 4264 Pls
4512 4322 Pls
4460 4376 Pls
4407 4426 Pls
4355 4471 Pls
4303 4513 Pls
4253 4551 Pls
4203 4585 Pls
4156 4615 Pls
4110 4641 Pls
4066 4664 Pls
4025 4683 Pls
3986 4700 Pls
3951 4714 Pls
3918 4725 Pls
3889 4733 Pls
3864 4740 Pls
3842 4744 Pls
3824 4747 Pls
3809 4749 Pls
3798 4750 Pls
3791 4751 Pls
3786 4751 Pls
3784 4751 Pls
3782 4751 Pls
3781 4751 Pls
3780 4751 Pls
3779 4751 Pls
3778 4751 Pls
3777 4751 Pls
3776 4751 Pls
3774 4751 Pls
3773 4750 Pls
3772 4750 Pls
3771 4750 Pls
3770 4751 Pls
3769 4751 Pls
3768 4751 Pls
3766 4751 Pls
3765 4751 Pls
3764 4751 Pls
3763 4751 Pls
3762 4751 Pls
3762 4751 Pls
3791 4750 Pls
3790 4750 Pls
3789 4750 Pls
3788 4750 Pls
3787 4750 Pls
3785 4750 Pls
3784 4750 Pls
3783 4750 Pls
3782 4750 Pls
3781 4750 Pls
3780 4750 Pls
3779 4750 Pls
3777 4750 Pls
3776 4751 Pls
3775 4751 Pls
3774 4751 Pls
3773 4751 Pls
3772 4751 Pls
3771 4751 Pls
3769 4751 Pls
3767 4751 Pls
3762 4751 Pls
3755 4751 Pls
3744 4750 Pls
3730 4748 Pls
3712 4745 Pls
3690 4740 Pls
3665 4734 Pls
3636 4725 Pls
3603 4715 Pls
3568 4701 Pls
3529 4685 Pls
3488 4665 Pls
3444 4643 Pls
3399 4616 Pls
3351 4587 Pls
3302 4553 Pls
3251 4515 Pls
3200 4474 Pls
3147 4428 Pls
3095 4379 Pls
3042 4325 Pls
2990 4267 Pls
2938 4205 Pls
2887 4139 Pls
2838 4069 Pls
2790 3996 Pls
2744 3918 Pls
2700 3838 Pls
2658 3753 Pls
2619 3666 Pls
2583 3576 Pls
2550 3483 Pls
2521 3388 Pls
2495 3290 Pls
2472 3191 Pls
2454 3090 Pls
2439 2988 Pls
2428 2885 Pls
2421 2781 Pls
2419 2677 Pls
2420 2573 Pls
2426 2469 Pls
2435 2366 Pls
2449 2264 Pls
2467 2163 Pls
2488 2064 Pls
2513 1966 Pls
2541 1871 Pls
2573 1778 Pls
2608 1688 Pls
2646 1601 Pls
2686 1516 Pls
2729 1435 Pls
2774 1358 Pls
2821 1284 Pls
2869 1214 Pls
2919 1148 Pls
2970 1086 Pls
3021 1028 Pls
3072 974 Pls
3124 924 Pls
3175 879 Pls
3226 837 Pls
3275 799 Pls
3324 766 Pls
3370 736 Pls
3415 709 Pls
3458 687 Pls
3498 667 Pls
3536 651 Pls
3570 637 Pls
3602 626 Pls
3630 618 Pls
3654 611 Pls
3675 607 Pls
3692 604 Pls
3706 602 Pls
3715 601 Pls
3722 600 Pls
3725 600 Pls
3727 600 Pls
3728 600 Pls
3728 600 Pls
3728 601 Pls
3728 601 Pls
3728 601 Pls
3728 601 Pls
3728 601 Pls
3728 601 Pls
3728 601 Pls
3728 601 Pls
3728 601 Pls
3728 601 Pls
3729 601 Pls
3729 601 Pls
3729 601 Pls
3729 601 Pls
3729 601 Pls
3729 601 Pls
3729 602 Pls
3729 602 Pls
3724 601 Pls
3724 601 Pls
3725 601 Pls
3725 601 Pls
3725 601 Pls
3725 601 Pls
3725 601 Pls
3725 601 Pls
3726 601 Pls
3726 601 Pls
3726 601 Pls
3726 601 Pls
3726 601 Pls
3726 601 Pls
3726 601 Pls
3727 601 Pls
3727 601 Pls
3727 601 Pls
3727 601 Pls
3728 601 Pls
3728 601 Pls
3730 601 Pls
3732 602 Pls
3736 602 Pls
3740 603 Pls
3746 604 Pls
3753 606 Pls
3761 608 Pls
3771 611 Pls
3781 614 Pls
3793 619 Pls
3805 625 Pls
3819 631 Pls
3833 639 Pls
3848 647 Pls
3864 657 Pls
3880 669 Pls
3896 681 Pls
3913 695 Pls
3930 710 Pls
3947 726 Pls
3965 744 Pls
3982 763 Pls
3999 784 Pls
4015 806 Pls
4031 829 Pls
4047 853 Pls
4062 879 Pls
4077 905 Pls
4090 933 Pls
4103 962 Pls
4115 992 Pls
4125 1023 Pls
4135 1054 Pls
4143 1086 Pls
4151 1119 Pls
4157 1152 Pls
4162 1186 Pls
4165 1220 Pls
4167 1254 Pls
4168 1289 Pls
4167 1323 Pls
4165 1357 Pls
4162 1391 Pls
4157 1425 Pls
4152 1458 Pls
4145 1491 Pls
4136 1523 Pls
4127 1555 Pls
4116 1586 Pls
4105 1615 Pls
4092 1644 Pls
4079 1672 Pls
4065 1699 Pls
4050 1724 Pls
4034 1749 Pls
4018 1772 Pls
4002 1794 Pls
3985 1814 Pls
3968 1833 Pls
3951 1851 Pls
3934 1868 Pls
3917 1883 Pls
3900 1896 Pls
3884 1909 Pls
3868 1920 Pls
3853 1930 Pls
3838 1939 Pls
3824 1947 Pls
3811 1953 Pls
3798 1959 Pls
3787 1963 Pls
3777 1967 Pls
3767 1970 Pls
3759 1972 Pls
3752 1974 Pls
3747 1975 Pls
3742 1976 Pls
3739 1976 Pls
3737 1977 Pls
3735 1977 Pls
3735 1977 Pls
3734 1977 Pls
3734 1977 Pls
3734 1977 Pls
3734 1977 Pls
3734 1977 Pls
3734 1977 Pls
3734 1977 Pls
3734 1977 Pls
3734 1977 Pls
3734 1977 Pls
3734 1977 Pls
3734 1978 Pls
3735 1978 Pls
3735 1978 Pls
3735 1978 Pls
3735 1978 Pls
3735 1978 Pls
3735 1978 Pls
3735 1978 Pls
3735 1978 Pls
5229 4766 Pls
% End plot #1
2.000 UL
LTb
LCb setrgbcolor
1.000 UL
LTB
LCb setrgbcolor
2036 4899 N
0 -4451 V
3561 0 V
0 4451 V
-3561 0 V
Z stroke
1.000 UP
1.000 UL
LTb
LCb setrgbcolor
stroke
grestore
end
showpage
%%Trailer
%%DocumentFonts: Helvetica
