%!PS-Adobe-2.0 EPSF-2.0
%%Title: gnuplot_Zplt_XE.eps
%%Creator: gnuplot 5.2 patchlevel 2
%%CreationDate: Fri Feb  4 10:35:38 2022
%%DocumentFonts: (atend)
%%BoundingBox: 50 50 410 302
%%EndComments
%%BeginProlog
/gnudict 256 dict def
gnudict begin
%
% The following true/false flags may be edited by hand if desired.
% The unit line width and grayscale image gamma correction may also be changed.
%
/Color true def
/Blacktext false def
/Solid false def
/Dashlength 1 def
/Landscape false def
/Level1 false def
/Level3 false def
/Rounded false def
/ClipToBoundingBox false def
/SuppressPDFMark false def
/TransparentPatterns false def
/gnulinewidth 5.000 def
/userlinewidth gnulinewidth def
/Gamma 1.0 def
/BackgroundColor {-1.000 -1.000 -1.000} def
%
/vshift -46 def
/dl1 {
  10.0 Dashlength userlinewidth gnulinewidth div mul mul mul
  Rounded { currentlinewidth 0.75 mul sub dup 0 le { pop 0.01 } if } if
} def
/dl2 {
  10.0 Dashlength userlinewidth gnulinewidth div mul mul mul
  Rounded { currentlinewidth 0.75 mul add } if
} def
/hpt_ 31.5 def
/vpt_ 31.5 def
/hpt hpt_ def
/vpt vpt_ def
/doclip {
  ClipToBoundingBox {
    newpath 50 50 moveto 410 50 lineto 410 302 lineto 50 302 lineto closepath
    clip
  } if
} def
%
% Gnuplot Prolog Version 5.1 (Oct 2015)
%
%/SuppressPDFMark true def
%
/M {moveto} bind def
/L {lineto} bind def
/R {rmoveto} bind def
/V {rlineto} bind def
/N {newpath moveto} bind def
/Z {closepath} bind def
/C {setrgbcolor} bind def
/f {rlineto fill} bind def
/g {setgray} bind def
/Gshow {show} def   % May be redefined later in the file to support UTF-8
/vpt2 vpt 2 mul def
/hpt2 hpt 2 mul def
/Lshow {currentpoint stroke M 0 vshift R 
	Blacktext {gsave 0 setgray textshow grestore} {textshow} ifelse} def
/Rshow {currentpoint stroke M dup stringwidth pop neg vshift R
	Blacktext {gsave 0 setgray textshow grestore} {textshow} ifelse} def
/Cshow {currentpoint stroke M dup stringwidth pop -2 div vshift R 
	Blacktext {gsave 0 setgray textshow grestore} {textshow} ifelse} def
/UP {dup vpt_ mul /vpt exch def hpt_ mul /hpt exch def
  /hpt2 hpt 2 mul def /vpt2 vpt 2 mul def} def
/DL {Color {setrgbcolor Solid {pop []} if 0 setdash}
 {pop pop pop 0 setgray Solid {pop []} if 0 setdash} ifelse} def
/BL {stroke userlinewidth 2 mul setlinewidth
	Rounded {1 setlinejoin 1 setlinecap} if} def
/AL {stroke userlinewidth 2 div setlinewidth
	Rounded {1 setlinejoin 1 setlinecap} if} def
/UL {dup gnulinewidth mul /userlinewidth exch def
	dup 1 lt {pop 1} if 10 mul /udl exch def} def
/PL {stroke userlinewidth setlinewidth
	Rounded {1 setlinejoin 1 setlinecap} if} def
3.8 setmiterlimit
% Classic Line colors (version 5.0)
/LCw {1 1 1} def
/LCb {0 0 0} def
/LCa {0 0 0} def
/LC0 {1 0 0} def
/LC1 {0 1 0} def
/LC2 {0 0 1} def
/LC3 {1 0 1} def
/LC4 {0 1 1} def
/LC5 {1 1 0} def
/LC6 {0 0 0} def
/LC7 {1 0.3 0} def
/LC8 {0.5 0.5 0.5} def
% Default dash patterns (version 5.0)
/LTB {BL [] LCb DL} def
/LTw {PL [] 1 setgray} def
/LTb {PL [] LCb DL} def
/LTa {AL [1 udl mul 2 udl mul] 0 setdash LCa setrgbcolor} def
/LT0 {PL [] LC0 DL} def
/LT1 {PL [2 dl1 3 dl2] LC1 DL} def
/LT2 {PL [1 dl1 1.5 dl2] LC2 DL} def
/LT3 {PL [6 dl1 2 dl2 1 dl1 2 dl2] LC3 DL} def
/LT4 {PL [1 dl1 2 dl2 6 dl1 2 dl2 1 dl1 2 dl2] LC4 DL} def
/LT5 {PL [4 dl1 2 dl2] LC5 DL} def
/LT6 {PL [1.5 dl1 1.5 dl2 1.5 dl1 1.5 dl2 1.5 dl1 6 dl2] LC6 DL} def
/LT7 {PL [3 dl1 3 dl2 1 dl1 3 dl2] LC7 DL} def
/LT8 {PL [2 dl1 2 dl2 2 dl1 6 dl2] LC8 DL} def
/SL {[] 0 setdash} def
/Pnt {stroke [] 0 setdash gsave 1 setlinecap M 0 0 V stroke grestore} def
/Dia {stroke [] 0 setdash 2 copy vpt add M
  hpt neg vpt neg V hpt vpt neg V
  hpt vpt V hpt neg vpt V closepath stroke
  Pnt} def
/Pls {stroke [] 0 setdash vpt sub M 0 vpt2 V
  currentpoint stroke M
  hpt neg vpt neg R hpt2 0 V stroke
 } def
/Box {stroke [] 0 setdash 2 copy exch hpt sub exch vpt add M
  0 vpt2 neg V hpt2 0 V 0 vpt2 V
  hpt2 neg 0 V closepath stroke
  Pnt} def
/Crs {stroke [] 0 setdash exch hpt sub exch vpt add M
  hpt2 vpt2 neg V currentpoint stroke M
  hpt2 neg 0 R hpt2 vpt2 V stroke} def
/TriU {stroke [] 0 setdash 2 copy vpt 1.12 mul add M
  hpt neg vpt -1.62 mul V
  hpt 2 mul 0 V
  hpt neg vpt 1.62 mul V closepath stroke
  Pnt} def
/Star {2 copy Pls Crs} def
/BoxF {stroke [] 0 setdash exch hpt sub exch vpt add M
  0 vpt2 neg V hpt2 0 V 0 vpt2 V
  hpt2 neg 0 V closepath fill} def
/TriUF {stroke [] 0 setdash vpt 1.12 mul add M
  hpt neg vpt -1.62 mul V
  hpt 2 mul 0 V
  hpt neg vpt 1.62 mul V closepath fill} def
/TriD {stroke [] 0 setdash 2 copy vpt 1.12 mul sub M
  hpt neg vpt 1.62 mul V
  hpt 2 mul 0 V
  hpt neg vpt -1.62 mul V closepath stroke
  Pnt} def
/TriDF {stroke [] 0 setdash vpt 1.12 mul sub M
  hpt neg vpt 1.62 mul V
  hpt 2 mul 0 V
  hpt neg vpt -1.62 mul V closepath fill} def
/DiaF {stroke [] 0 setdash vpt add M
  hpt neg vpt neg V hpt vpt neg V
  hpt vpt V hpt neg vpt V closepath fill} def
/Pent {stroke [] 0 setdash 2 copy gsave
  translate 0 hpt M 4 {72 rotate 0 hpt L} repeat
  closepath stroke grestore Pnt} def
/PentF {stroke [] 0 setdash gsave
  translate 0 hpt M 4 {72 rotate 0 hpt L} repeat
  closepath fill grestore} def
/Circle {stroke [] 0 setdash 2 copy
  hpt 0 360 arc stroke Pnt} def
/CircleF {stroke [] 0 setdash hpt 0 360 arc fill} def
/C0 {BL [] 0 setdash 2 copy moveto vpt 90 450 arc} bind def
/C1 {BL [] 0 setdash 2 copy moveto
	2 copy vpt 0 90 arc closepath fill
	vpt 0 360 arc closepath} bind def
/C2 {BL [] 0 setdash 2 copy moveto
	2 copy vpt 90 180 arc closepath fill
	vpt 0 360 arc closepath} bind def
/C3 {BL [] 0 setdash 2 copy moveto
	2 copy vpt 0 180 arc closepath fill
	vpt 0 360 arc closepath} bind def
/C4 {BL [] 0 setdash 2 copy moveto
	2 copy vpt 180 270 arc closepath fill
	vpt 0 360 arc closepath} bind def
/C5 {BL [] 0 setdash 2 copy moveto
	2 copy vpt 0 90 arc
	2 copy moveto
	2 copy vpt 180 270 arc closepath fill
	vpt 0 360 arc} bind def
/C6 {BL [] 0 setdash 2 copy moveto
	2 copy vpt 90 270 arc closepath fill
	vpt 0 360 arc closepath} bind def
/C7 {BL [] 0 setdash 2 copy moveto
	2 copy vpt 0 270 arc closepath fill
	vpt 0 360 arc closepath} bind def
/C8 {BL [] 0 setdash 2 copy moveto
	2 copy vpt 270 360 arc closepath fill
	vpt 0 360 arc closepath} bind def
/C9 {BL [] 0 setdash 2 copy moveto
	2 copy vpt 270 450 arc closepath fill
	vpt 0 360 arc closepath} bind def
/C10 {BL [] 0 setdash 2 copy 2 copy moveto vpt 270 360 arc closepath fill
	2 copy moveto
	2 copy vpt 90 180 arc closepath fill
	vpt 0 360 arc closepath} bind def
/C11 {BL [] 0 setdash 2 copy moveto
	2 copy vpt 0 180 arc closepath fill
	2 copy moveto
	2 copy vpt 270 360 arc closepath fill
	vpt 0 360 arc closepath} bind def
/C12 {BL [] 0 setdash 2 copy moveto
	2 copy vpt 180 360 arc closepath fill
	vpt 0 360 arc closepath} bind def
/C13 {BL [] 0 setdash 2 copy moveto
	2 copy vpt 0 90 arc closepath fill
	2 copy moveto
	2 copy vpt 180 360 arc closepath fill
	vpt 0 360 arc closepath} bind def
/C14 {BL [] 0 setdash 2 copy moveto
	2 copy vpt 90 360 arc closepath fill
	vpt 0 360 arc} bind def
/C15 {BL [] 0 setdash 2 copy vpt 0 360 arc closepath fill
	vpt 0 360 arc closepath} bind def
/Rec {newpath 4 2 roll moveto 1 index 0 rlineto 0 exch rlineto
	neg 0 rlineto closepath} bind def
/Square {dup Rec} bind def
/Bsquare {vpt sub exch vpt sub exch vpt2 Square} bind def
/S0 {BL [] 0 setdash 2 copy moveto 0 vpt rlineto BL Bsquare} bind def
/S1 {BL [] 0 setdash 2 copy vpt Square fill Bsquare} bind def
/S2 {BL [] 0 setdash 2 copy exch vpt sub exch vpt Square fill Bsquare} bind def
/S3 {BL [] 0 setdash 2 copy exch vpt sub exch vpt2 vpt Rec fill Bsquare} bind def
/S4 {BL [] 0 setdash 2 copy exch vpt sub exch vpt sub vpt Square fill Bsquare} bind def
/S5 {BL [] 0 setdash 2 copy 2 copy vpt Square fill
	exch vpt sub exch vpt sub vpt Square fill Bsquare} bind def
/S6 {BL [] 0 setdash 2 copy exch vpt sub exch vpt sub vpt vpt2 Rec fill Bsquare} bind def
/S7 {BL [] 0 setdash 2 copy exch vpt sub exch vpt sub vpt vpt2 Rec fill
	2 copy vpt Square fill Bsquare} bind def
/S8 {BL [] 0 setdash 2 copy vpt sub vpt Square fill Bsquare} bind def
/S9 {BL [] 0 setdash 2 copy vpt sub vpt vpt2 Rec fill Bsquare} bind def
/S10 {BL [] 0 setdash 2 copy vpt sub vpt Square fill 2 copy exch vpt sub exch vpt Square fill
	Bsquare} bind def
/S11 {BL [] 0 setdash 2 copy vpt sub vpt Square fill 2 copy exch vpt sub exch vpt2 vpt Rec fill
	Bsquare} bind def
/S12 {BL [] 0 setdash 2 copy exch vpt sub exch vpt sub vpt2 vpt Rec fill Bsquare} bind def
/S13 {BL [] 0 setdash 2 copy exch vpt sub exch vpt sub vpt2 vpt Rec fill
	2 copy vpt Square fill Bsquare} bind def
/S14 {BL [] 0 setdash 2 copy exch vpt sub exch vpt sub vpt2 vpt Rec fill
	2 copy exch vpt sub exch vpt Square fill Bsquare} bind def
/S15 {BL [] 0 setdash 2 copy Bsquare fill Bsquare} bind def
/D0 {gsave translate 45 rotate 0 0 S0 stroke grestore} bind def
/D1 {gsave translate 45 rotate 0 0 S1 stroke grestore} bind def
/D2 {gsave translate 45 rotate 0 0 S2 stroke grestore} bind def
/D3 {gsave translate 45 rotate 0 0 S3 stroke grestore} bind def
/D4 {gsave translate 45 rotate 0 0 S4 stroke grestore} bind def
/D5 {gsave translate 45 rotate 0 0 S5 stroke grestore} bind def
/D6 {gsave translate 45 rotate 0 0 S6 stroke grestore} bind def
/D7 {gsave translate 45 rotate 0 0 S7 stroke grestore} bind def
/D8 {gsave translate 45 rotate 0 0 S8 stroke grestore} bind def
/D9 {gsave translate 45 rotate 0 0 S9 stroke grestore} bind def
/D10 {gsave translate 45 rotate 0 0 S10 stroke grestore} bind def
/D11 {gsave translate 45 rotate 0 0 S11 stroke grestore} bind def
/D12 {gsave translate 45 rotate 0 0 S12 stroke grestore} bind def
/D13 {gsave translate 45 rotate 0 0 S13 stroke grestore} bind def
/D14 {gsave translate 45 rotate 0 0 S14 stroke grestore} bind def
/D15 {gsave translate 45 rotate 0 0 S15 stroke grestore} bind def
/DiaE {stroke [] 0 setdash vpt add M
  hpt neg vpt neg V hpt vpt neg V
  hpt vpt V hpt neg vpt V closepath stroke} def
/BoxE {stroke [] 0 setdash exch hpt sub exch vpt add M
  0 vpt2 neg V hpt2 0 V 0 vpt2 V
  hpt2 neg 0 V closepath stroke} def
/TriUE {stroke [] 0 setdash vpt 1.12 mul add M
  hpt neg vpt -1.62 mul V
  hpt 2 mul 0 V
  hpt neg vpt 1.62 mul V closepath stroke} def
/TriDE {stroke [] 0 setdash vpt 1.12 mul sub M
  hpt neg vpt 1.62 mul V
  hpt 2 mul 0 V
  hpt neg vpt -1.62 mul V closepath stroke} def
/PentE {stroke [] 0 setdash gsave
  translate 0 hpt M 4 {72 rotate 0 hpt L} repeat
  closepath stroke grestore} def
/CircE {stroke [] 0 setdash 
  hpt 0 360 arc stroke} def
/Opaque {gsave closepath 1 setgray fill grestore 0 setgray closepath} def
/DiaW {stroke [] 0 setdash vpt add M
  hpt neg vpt neg V hpt vpt neg V
  hpt vpt V hpt neg vpt V Opaque stroke} def
/BoxW {stroke [] 0 setdash exch hpt sub exch vpt add M
  0 vpt2 neg V hpt2 0 V 0 vpt2 V
  hpt2 neg 0 V Opaque stroke} def
/TriUW {stroke [] 0 setdash vpt 1.12 mul add M
  hpt neg vpt -1.62 mul V
  hpt 2 mul 0 V
  hpt neg vpt 1.62 mul V Opaque stroke} def
/TriDW {stroke [] 0 setdash vpt 1.12 mul sub M
  hpt neg vpt 1.62 mul V
  hpt 2 mul 0 V
  hpt neg vpt -1.62 mul V Opaque stroke} def
/PentW {stroke [] 0 setdash gsave
  translate 0 hpt M 4 {72 rotate 0 hpt L} repeat
  Opaque stroke grestore} def
/CircW {stroke [] 0 setdash 
  hpt 0 360 arc Opaque stroke} def
/BoxFill {gsave Rec 1 setgray fill grestore} def
/Density {
  /Fillden exch def
  currentrgbcolor
  /ColB exch def /ColG exch def /ColR exch def
  /ColR ColR Fillden mul Fillden sub 1 add def
  /ColG ColG Fillden mul Fillden sub 1 add def
  /ColB ColB Fillden mul Fillden sub 1 add def
  ColR ColG ColB setrgbcolor} def
/BoxColFill {gsave Rec PolyFill} def
/PolyFill {gsave Density fill grestore grestore} def
/h {rlineto rlineto rlineto gsave closepath fill grestore} bind def
%
% PostScript Level 1 Pattern Fill routine for rectangles
% Usage: x y w h s a XX PatternFill
%	x,y = lower left corner of box to be filled
%	w,h = width and height of box
%	  a = angle in degrees between lines and x-axis
%	 XX = 0/1 for no/yes cross-hatch
%
/PatternFill {gsave /PFa [ 9 2 roll ] def
  PFa 0 get PFa 2 get 2 div add PFa 1 get PFa 3 get 2 div add translate
  PFa 2 get -2 div PFa 3 get -2 div PFa 2 get PFa 3 get Rec
  TransparentPatterns {} {gsave 1 setgray fill grestore} ifelse
  clip
  currentlinewidth 0.5 mul setlinewidth
  /PFs PFa 2 get dup mul PFa 3 get dup mul add sqrt def
  0 0 M PFa 5 get rotate PFs -2 div dup translate
  0 1 PFs PFa 4 get div 1 add floor cvi
	{PFa 4 get mul 0 M 0 PFs V} for
  0 PFa 6 get ne {
	0 1 PFs PFa 4 get div 1 add floor cvi
	{PFa 4 get mul 0 2 1 roll M PFs 0 V} for
 } if
  stroke grestore} def
%
/languagelevel where
 {pop languagelevel} {1} ifelse
dup 2 lt
	{/InterpretLevel1 true def
	 /InterpretLevel3 false def}
	{/InterpretLevel1 Level1 def
	 2 gt
	    {/InterpretLevel3 Level3 def}
	    {/InterpretLevel3 false def}
	 ifelse }
 ifelse
%
% PostScript level 2 pattern fill definitions
%
/Level2PatternFill {
/Tile8x8 {/PaintType 2 /PatternType 1 /TilingType 1 /BBox [0 0 8 8] /XStep 8 /YStep 8}
	bind def
/KeepColor {currentrgbcolor [/Pattern /DeviceRGB] setcolorspace} bind def
<< Tile8x8
 /PaintProc {0.5 setlinewidth pop 0 0 M 8 8 L 0 8 M 8 0 L stroke} 
>> matrix makepattern
/Pat1 exch def
<< Tile8x8
 /PaintProc {0.5 setlinewidth pop 0 0 M 8 8 L 0 8 M 8 0 L stroke
	0 4 M 4 8 L 8 4 L 4 0 L 0 4 L stroke}
>> matrix makepattern
/Pat2 exch def
<< Tile8x8
 /PaintProc {0.5 setlinewidth pop 0 0 M 0 8 L
	8 8 L 8 0 L 0 0 L fill}
>> matrix makepattern
/Pat3 exch def
<< Tile8x8
 /PaintProc {0.5 setlinewidth pop -4 8 M 8 -4 L
	0 12 M 12 0 L stroke}
>> matrix makepattern
/Pat4 exch def
<< Tile8x8
 /PaintProc {0.5 setlinewidth pop -4 0 M 8 12 L
	0 -4 M 12 8 L stroke}
>> matrix makepattern
/Pat5 exch def
<< Tile8x8
 /PaintProc {0.5 setlinewidth pop -2 8 M 4 -4 L
	0 12 M 8 -4 L 4 12 M 10 0 L stroke}
>> matrix makepattern
/Pat6 exch def
<< Tile8x8
 /PaintProc {0.5 setlinewidth pop -2 0 M 4 12 L
	0 -4 M 8 12 L 4 -4 M 10 8 L stroke}
>> matrix makepattern
/Pat7 exch def
<< Tile8x8
 /PaintProc {0.5 setlinewidth pop 8 -2 M -4 4 L
	12 0 M -4 8 L 12 4 M 0 10 L stroke}
>> matrix makepattern
/Pat8 exch def
<< Tile8x8
 /PaintProc {0.5 setlinewidth pop 0 -2 M 12 4 L
	-4 0 M 12 8 L -4 4 M 8 10 L stroke}
>> matrix makepattern
/Pat9 exch def
/Pattern1 {PatternBgnd KeepColor Pat1 setpattern} bind def
/Pattern2 {PatternBgnd KeepColor Pat2 setpattern} bind def
/Pattern3 {PatternBgnd KeepColor Pat3 setpattern} bind def
/Pattern4 {PatternBgnd KeepColor Landscape {Pat5} {Pat4} ifelse setpattern} bind def
/Pattern5 {PatternBgnd KeepColor Landscape {Pat4} {Pat5} ifelse setpattern} bind def
/Pattern6 {PatternBgnd KeepColor Landscape {Pat9} {Pat6} ifelse setpattern} bind def
/Pattern7 {PatternBgnd KeepColor Landscape {Pat8} {Pat7} ifelse setpattern} bind def
} def
%
%
%End of PostScript Level 2 code
%
/PatternBgnd {
  TransparentPatterns {} {gsave 1 setgray fill grestore} ifelse
} def
%
% Substitute for Level 2 pattern fill codes with
% grayscale if Level 2 support is not selected.
%
/Level1PatternFill {
/Pattern1 {0.250 Density} bind def
/Pattern2 {0.500 Density} bind def
/Pattern3 {0.750 Density} bind def
/Pattern4 {0.125 Density} bind def
/Pattern5 {0.375 Density} bind def
/Pattern6 {0.625 Density} bind def
/Pattern7 {0.875 Density} bind def
} def
%
% Now test for support of Level 2 code
%
Level1 {Level1PatternFill} {Level2PatternFill} ifelse
%
/Symbol-Oblique /Symbol findfont [1 0 .167 1 0 0] makefont
dup length dict begin {1 index /FID eq {pop pop} {def} ifelse} forall
currentdict end definefont pop
%
/Metrics {ExtendTextBox Gswidth} def
/Lwidth {currentpoint stroke M 0 vshift R Metrics} def
/Rwidth {currentpoint stroke M dup stringwidth pop neg vshift R Metrics} def
/Cwidth {currentpoint stroke M dup stringwidth pop -2 div vshift R Metrics} def
/GLwidth {currentpoint stroke M 0 vshift R {ExtendTextBox} forall} def
/GRwidth {currentpoint stroke M dup Gwidth vshift R {ExtendTextBox} forall} def
/GCwidth {currentpoint stroke M dup Gwidth 2 div vshift R {ExtendTextBox} forall} def
/GLwidth2 {0 Gwidth AddGlyphWidth} def
/GRwidth2 {Gwidth -1 mul 0 AddGlyphWidth} def
/GCwidth2 {Gwidth 2 div dup -1 mul AddGlyphWidth} def
/AddGlyphWidth { dup TBx2 gt {userdict /TBx2 3 -1 roll put} {pop} ifelse
                 dup TBx1 lt {userdict /TBx1 3 -1 roll put} {pop} ifelse } def
/MFshow {
   { dup 5 get 3 ge
     { 5 get 3 eq {gsave} {grestore} ifelse }
     {dup dup 0 get findfont exch 1 get scalefont setfont
     [ currentpoint ] exch dup 2 get 0 exch R dup 5 get 2 ne {dup dup 6
     get exch 4 get {textshow} {Metrics pop 0 R} ifelse }if dup 5 get 0 eq
     {dup 3 get {2 get neg 0 exch R pop} {pop aload pop M} ifelse} {dup 5
     get 1 eq {dup 2 get exch dup 3 get exch 6 get Gswidth pop -2 div
     dup 0 R} {dup 6 get Gswidth pop -2 div 0 R 6 get
     textshow 2 index {aload pop M neg 3 -1 roll neg R pop pop} {pop pop pop
     pop aload pop M} ifelse }ifelse }ifelse }
     ifelse }
   forall} def
/Gswidth {dup type /stringtype eq {stringwidth} {pop (n) stringwidth} ifelse} def
/MFwidth {0 exch { dup 5 get 3 ge { 5 get 3 eq { 0 } { pop } ifelse }
 {dup 3 get{dup dup 0 get findfont exch 1 get scalefont setfont
     6 get Gswidth pop add} {pop} ifelse} ifelse} forall} def
/MLshow { currentpoint stroke M
  0 exch R
  Blacktext {gsave 0 setgray MFshow grestore} {MFshow} ifelse } bind def
/MRshow { currentpoint stroke M
  exch dup MFwidth neg 3 -1 roll R
  Blacktext {gsave 0 setgray MFshow grestore} {MFshow} ifelse } bind def
/MCshow { currentpoint stroke M
  exch dup MFwidth -2 div 3 -1 roll R
  Blacktext {gsave 0 setgray MFshow grestore} {MFshow} ifelse } bind def
/XYsave    { [( ) 1 2 true false 3 ()] } bind def
/XYrestore { [( ) 1 2 true false 4 ()] } bind def
Level1 SuppressPDFMark or 
{} {
/SDict 10 dict def
systemdict /pdfmark known not {
  userdict /pdfmark systemdict /cleartomark get put
} if
SDict begin [
  /Title (gnuplot_Zplt_XE.eps)
  /Subject (gnuplot plot)
  /Creator (gnuplot 5.2 patchlevel 2)
%  /Producer (gnuplot)
%  /Keywords ()
  /CreationDate (Fri Feb  4 10:35:38 2022)
  /DOCINFO pdfmark
end
} ifelse
%
% Support for boxed text - Ethan A Merritt Sep 2016
%
/InitTextBox { userdict /TBy2 3 -1 roll put userdict /TBx2 3 -1 roll put
           userdict /TBy1 3 -1 roll put userdict /TBx1 3 -1 roll put
	   /Boxing true def } def
/ExtendTextBox { dup type /stringtype eq
    { Boxing { gsave dup false charpath pathbbox
      dup TBy2 gt {userdict /TBy2 3 -1 roll put} {pop} ifelse
      dup TBx2 gt {userdict /TBx2 3 -1 roll put} {pop} ifelse
      dup TBy1 lt {userdict /TBy1 3 -1 roll put} {pop} ifelse
      dup TBx1 lt {userdict /TBx1 3 -1 roll put} {pop} ifelse
      grestore } if }
    {} ifelse} def
/PopTextBox { newpath TBx1 TBxmargin sub TBy1 TBymargin sub M
               TBx1 TBxmargin sub TBy2 TBymargin add L
	       TBx2 TBxmargin add TBy2 TBymargin add L
	       TBx2 TBxmargin add TBy1 TBymargin sub L closepath } def
/DrawTextBox { PopTextBox stroke /Boxing false def} def
/FillTextBox { gsave PopTextBox fill grestore /Boxing false def} def
0 0 0 0 InitTextBox
/TBxmargin 20 def
/TBymargin 20 def
/Boxing false def
/textshow { ExtendTextBox Gshow } def
%
end
%%EndProlog
%%Page: 1 1
gnudict begin
gsave
doclip
50 50 translate
0.050 0.050 scale
0 setgray
newpath
(Helvetica) findfont 140 scalefont setfont
BackgroundColor 0 lt 3 1 roll 0 lt exch 0 lt or or not {BackgroundColor C 1.000 0 0 7200.00 5040.00 BoxColFill} if
/Helvetica findfont 140 scalefont setfont
/vshift -46 def
1.000 UL
LTb
LCb setrgbcolor
1773 448 M
63 0 V
4108 0 R
-63 0 V
stroke
1689 448 M
[ [(Helvetica) 140.0 0.0 true true 0 ( 0)]
] -46.7 MRshow
1.000 UL
LTb
LCb setrgbcolor
1773 865 M
63 0 V
4108 0 R
-63 0 V
stroke
1689 865 M
[ [(Helvetica) 140.0 0.0 true true 0 ( 0.01)]
] -46.7 MRshow
1.000 UL
LTb
LCb setrgbcolor
1773 1282 M
63 0 V
4108 0 R
-63 0 V
stroke
1689 1282 M
[ [(Helvetica) 140.0 0.0 true true 0 ( 0.02)]
] -46.7 MRshow
1.000 UL
LTb
LCb setrgbcolor
1773 1699 M
63 0 V
4108 0 R
-63 0 V
stroke
1689 1699 M
[ [(Helvetica) 140.0 0.0 true true 0 ( 0.03)]
] -46.7 MRshow
1.000 UL
LTb
LCb setrgbcolor
1773 2116 M
63 0 V
4108 0 R
-63 0 V
stroke
1689 2116 M
[ [(Helvetica) 140.0 0.0 true true 0 ( 0.04)]
] -46.7 MRshow
1.000 UL
LTb
LCb setrgbcolor
1773 2534 M
63 0 V
4108 0 R
-63 0 V
stroke
1689 2534 M
[ [(Helvetica) 140.0 0.0 true true 0 ( 0.05)]
] -46.7 MRshow
1.000 UL
LTb
LCb setrgbcolor
1773 2951 M
63 0 V
4108 0 R
-63 0 V
stroke
1689 2951 M
[ [(Helvetica) 140.0 0.0 true true 0 ( 0.06)]
] -46.7 MRshow
1.000 UL
LTb
LCb setrgbcolor
1773 3368 M
63 0 V
4108 0 R
-63 0 V
stroke
1689 3368 M
[ [(Helvetica) 140.0 0.0 true true 0 ( 0.07)]
] -46.7 MRshow
1.000 UL
LTb
LCb setrgbcolor
1773 3785 M
63 0 V
4108 0 R
-63 0 V
stroke
1689 3785 M
[ [(Helvetica) 140.0 0.0 true true 0 ( 0.08)]
] -46.7 MRshow
1.000 UL
LTb
LCb setrgbcolor
1773 4202 M
63 0 V
4108 0 R
-63 0 V
stroke
1689 4202 M
[ [(Helvetica) 140.0 0.0 true true 0 ( 0.09)]
] -46.7 MRshow
1.000 UL
LTb
LCb setrgbcolor
1773 4619 M
63 0 V
4108 0 R
-63 0 V
stroke
1689 4619 M
[ [(Helvetica) 140.0 0.0 true true 0 ( 0.1)]
] -46.7 MRshow
1.000 UL
LTb
LCb setrgbcolor
1773 448 M
0 63 V
0 4108 R
0 -63 V
stroke
1773 308 M
[ [(Helvetica) 140.0 0.0 true true 0 ( 0)]
] -46.7 MCshow
1.000 UL
LTb
LCb setrgbcolor
2236 448 M
0 63 V
0 4108 R
0 -63 V
stroke
2236 308 M
[ [(Helvetica) 140.0 0.0 true true 0 ( 0.1)]
] -46.7 MCshow
1.000 UL
LTb
LCb setrgbcolor
2700 448 M
0 63 V
0 4108 R
0 -63 V
stroke
2700 308 M
[ [(Helvetica) 140.0 0.0 true true 0 ( 0.2)]
] -46.7 MCshow
1.000 UL
LTb
LCb setrgbcolor
3163 448 M
0 63 V
0 4108 R
0 -63 V
stroke
3163 308 M
[ [(Helvetica) 140.0 0.0 true true 0 ( 0.3)]
] -46.7 MCshow
1.000 UL
LTb
LCb setrgbcolor
3627 448 M
0 63 V
0 4108 R
0 -63 V
stroke
3627 308 M
[ [(Helvetica) 140.0 0.0 true true 0 ( 0.4)]
] -46.7 MCshow
1.000 UL
LTb
LCb setrgbcolor
4090 448 M
0 63 V
0 4108 R
0 -63 V
stroke
4090 308 M
[ [(Helvetica) 140.0 0.0 true true 0 ( 0.5)]
] -46.7 MCshow
1.000 UL
LTb
LCb setrgbcolor
4554 448 M
0 63 V
0 4108 R
0 -63 V
stroke
4554 308 M
[ [(Helvetica) 140.0 0.0 true true 0 ( 0.6)]
] -46.7 MCshow
1.000 UL
LTb
LCb setrgbcolor
5017 448 M
0 63 V
0 4108 R
0 -63 V
stroke
5017 308 M
[ [(Helvetica) 140.0 0.0 true true 0 ( 0.7)]
] -46.7 MCshow
1.000 UL
LTb
LCb setrgbcolor
5481 448 M
0 63 V
0 4108 R
0 -63 V
stroke
5481 308 M
[ [(Helvetica) 140.0 0.0 true true 0 ( 0.8)]
] -46.7 MCshow
1.000 UL
LTb
LCb setrgbcolor
5944 448 M
0 63 V
0 4108 R
0 -63 V
stroke
5944 308 M
[ [(Helvetica) 140.0 0.0 true true 0 ( 0.9)]
] -46.7 MCshow
1.000 UL
LTb
LCb setrgbcolor
1.000 UL
LTB
LCb setrgbcolor
1773 4619 N
0 -4171 V
4171 0 V
0 4171 V
-4171 0 V
Z stroke
1.000 UP
1.000 UL
LTb
LCb setrgbcolor
LCb setrgbcolor
1129 2533 M
currentpoint gsave translate -270 rotate 0 0 moveto
[ [(Helvetica) 140.0 0.0 true true 0 (E  [MV/m])]
] -46.7 MCshow
grestore
LTb
LCb setrgbcolor
3858 98 M
[ [(Helvetica) 140.0 0.0 true true 0 (X  [m])]
] -46.7 MCshow
LTb
LCb setrgbcolor
3858 4829 M
[ [(Helvetica) 140.0 0.0 true true 0 (Plotted from file zgoubi.plt)]
] -46.7 MCshow
% Begin plot #1
0.400 UP
1.000 UL
LTb
0.58 0.00 0.83 C /Helvetica findfont 140 scalefont setfont
LCb setrgbcolor
4965 2533 M
('zgoubi.plt' u \($22 *cm2m\):\($38 *10.\)) Rshow
0.400 UP
1.000 UL
LTb
0.58 0.00 0.83 C 5049 2533 M
399 0 V
1773 448 M
19 0 V
18 0 V
19 0 V
18 0 V
19 0 V
18 0 V
19 0 V
18 0 V
19 0 V
18 0 V
19 0 V
18 0 V
19 0 V
19 0 V
18 0 V
19 0 V
18 1 V
19 1 V
18 1 V
19 1 V
18 3 V
19 3 V
18 5 V
19 7 V
18 9 V
19 13 V
19 16 V
18 20 V
19 24 V
18 29 V
19 34 V
18 40 V
19 45 V
18 50 V
19 55 V
18 60 V
19 65 V
18 70 V
19 73 V
19 78 V
18 83 V
19 87 V
18 92 V
19 98 V
18 104 V
19 111 V
18 118 V
19 127 V
18 136 V
19 146 V
18 156 V
19 165 V
19 174 V
18 180 V
19 185 V
18 187 V
19 183 V
18 175 V
19 164 V
18 148 V
19 130 V
18 109 V
19 90 V
18 71 V
19 55 V
18 40 V
19 28 V
19 20 V
18 13 V
19 9 V
18 5 V
19 4 V
18 2 V
19 1 V
18 0 V
19 1 V
18 0 V
19 0 V
18 0 V
19 0 V
19 0 V
18 0 V
19 0 V
18 0 V
19 0 V
18 0 V
19 0 V
18 0 V
19 0 V
18 0 V
19 0 V
18 0 V
19 0 V
19 0 V
18 0 V
19 0 V
18 0 V
19 0 V
18 0 V
19 0 V
18 0 V
19 0 V
18 0 V
19 0 V
18 0 V
19 0 V
19 0 V
18 0 V
19 0 V
18 0 V
19 0 V
18 0 V
19 0 V
18 0 V
19 0 V
18 0 V
19 0 V
18 0 V
19 0 V
19 0 V
18 0 V
19 0 V
18 0 V
19 0 V
18 0 V
19 0 V
18 0 V
19 0 V
18 0 V
19 0 V
18 0 V
19 0 V
19 0 V
18 0 V
19 0 V
18 0 V
19 0 V
18 0 V
19 0 V
18 0 V
19 0 V
18 0 V
19 0 V
18 0 V
19 0 V
19 0 V
18 0 V
19 0 V
18 0 V
19 -1 V
18 0 V
19 -1 V
18 -2 V
19 -4 V
18 -5 V
19 -9 V
18 -13 V
19 -20 V
19 -28 V
18 -40 V
19 -55 V
18 -71 V
19 -90 V
18 -109 V
19 -130 V
18 -148 V
19 -164 V
18 -175 V
19 -183 V
18 -187 V
19 -185 V
18 -180 V
19 -174 V
19 -165 V
18 -156 V
19 -146 V
18 -136 V
19 -127 V
18 -118 V
19 -111 V
18 -104 V
19 -98 V
18 -92 V
19 -87 V
18 -83 V
19 -78 V
19 -73 V
18 -70 V
19 -65 V
18 -60 V
19 -55 V
18 -50 V
19 -45 V
18 -40 V
19 -34 V
18 -29 V
19 -24 V
18 -20 V
19 -16 V
19 -13 V
18 -9 V
19 -7 V
18 -5 V
19 -3 V
18 -3 V
19 -1 V
18 -1 V
19 -1 V
18 -1 V
19 0 V
18 0 V
19 0 V
19 0 V
18 0 V
19 0 V
18 0 V
19 0 V
18 0 V
19 0 V
18 0 V
19 0 V
18 0 V
19 0 V
18 0 V
19 0 V
-4171 0 V
19 0 V
18 0 V
19 0 V
18 0 V
19 0 V
18 0 V
19 0 V
18 0 V
19 0 V
18 0 V
19 0 V
18 0 V
19 0 V
19 0 V
18 0 V
19 0 V
18 1 V
19 1 V
18 1 V
19 1 V
18 3 V
stroke 2162 455 M
19 3 V
18 5 V
19 7 V
18 9 V
19 13 V
19 16 V
18 20 V
19 24 V
18 29 V
19 34 V
18 40 V
19 45 V
18 50 V
19 55 V
18 60 V
19 65 V
18 70 V
19 73 V
19 78 V
18 83 V
19 87 V
18 92 V
19 98 V
18 104 V
19 111 V
18 118 V
19 127 V
18 136 V
19 146 V
18 156 V
19 165 V
19 174 V
18 180 V
19 185 V
18 187 V
19 183 V
18 175 V
19 164 V
18 148 V
19 130 V
18 109 V
19 90 V
18 71 V
19 55 V
18 40 V
19 28 V
19 20 V
18 13 V
19 9 V
18 5 V
19 4 V
18 2 V
19 1 V
18 0 V
19 1 V
18 0 V
19 0 V
18 0 V
19 0 V
19 0 V
18 0 V
19 0 V
18 0 V
19 0 V
18 0 V
19 0 V
18 0 V
19 0 V
18 0 V
19 0 V
18 0 V
19 0 V
19 0 V
18 0 V
19 0 V
18 0 V
19 0 V
18 0 V
19 0 V
18 0 V
19 0 V
18 0 V
19 0 V
18 0 V
19 0 V
19 0 V
18 0 V
19 0 V
18 0 V
19 0 V
18 0 V
19 0 V
18 0 V
19 0 V
18 0 V
19 0 V
18 0 V
19 0 V
19 0 V
18 0 V
19 0 V
18 0 V
19 0 V
18 0 V
19 0 V
18 0 V
19 0 V
18 0 V
19 0 V
18 0 V
19 0 V
19 0 V
18 0 V
19 0 V
18 0 V
19 0 V
18 0 V
19 0 V
18 0 V
19 0 V
18 0 V
19 0 V
18 0 V
19 0 V
19 0 V
18 0 V
19 0 V
18 0 V
19 -1 V
18 0 V
19 -1 V
18 -2 V
19 -4 V
18 -5 V
19 -9 V
18 -13 V
19 -20 V
19 -28 V
18 -40 V
19 -55 V
18 -71 V
19 -90 V
18 -109 V
19 -130 V
18 -148 V
19 -164 V
18 -175 V
19 -183 V
18 -187 V
19 -185 V
18 -180 V
19 -174 V
19 -165 V
18 -156 V
19 -146 V
18 -136 V
19 -127 V
18 -118 V
19 -111 V
18 -104 V
19 -98 V
18 -92 V
19 -87 V
18 -83 V
19 -78 V
19 -73 V
18 -70 V
19 -65 V
18 -60 V
19 -55 V
18 -50 V
19 -45 V
18 -40 V
19 -34 V
18 -29 V
19 -24 V
18 -20 V
19 -16 V
19 -13 V
18 -9 V
19 -7 V
18 -5 V
19 -3 V
18 -3 V
19 -1 V
18 -1 V
19 -1 V
18 -1 V
19 0 V
18 0 V
19 0 V
19 0 V
18 0 V
19 0 V
18 0 V
19 0 V
18 0 V
19 0 V
18 0 V
19 0 V
18 0 V
19 0 V
18 0 V
19 0 V
-4171 0 V
19 0 V
18 0 V
19 0 V
18 0 V
19 0 V
18 0 V
19 0 V
18 0 V
19 0 V
18 0 V
19 0 V
18 0 V
19 0 V
19 0 V
18 0 V
19 0 V
18 1 V
19 1 V
18 1 V
19 1 V
18 3 V
19 3 V
18 5 V
19 7 V
18 9 V
19 13 V
19 16 V
18 20 V
19 24 V
18 29 V
19 34 V
18 40 V
19 45 V
18 50 V
19 55 V
18 60 V
19 65 V
18 70 V
19 73 V
19 78 V
18 83 V
19 87 V
18 92 V
19 98 V
stroke 2589 1511 M
18 104 V
19 111 V
18 118 V
19 127 V
18 136 V
19 146 V
18 156 V
19 165 V
19 174 V
18 180 V
19 185 V
18 187 V
19 183 V
18 175 V
19 164 V
18 148 V
19 130 V
18 109 V
19 90 V
18 71 V
19 55 V
18 40 V
19 28 V
19 20 V
18 13 V
19 9 V
18 5 V
19 4 V
18 2 V
19 1 V
18 0 V
19 1 V
18 0 V
19 0 V
18 0 V
19 0 V
19 0 V
18 0 V
19 0 V
18 0 V
19 0 V
18 0 V
19 0 V
18 0 V
19 0 V
18 0 V
19 0 V
18 0 V
19 0 V
19 0 V
18 0 V
19 0 V
18 0 V
19 0 V
18 0 V
19 0 V
18 0 V
19 0 V
18 0 V
19 0 V
18 0 V
19 0 V
19 0 V
18 0 V
19 0 V
18 0 V
19 0 V
18 0 V
19 0 V
18 0 V
19 0 V
18 0 V
19 0 V
18 0 V
19 0 V
19 0 V
18 0 V
19 0 V
18 0 V
19 0 V
18 0 V
19 0 V
18 0 V
19 0 V
18 0 V
19 0 V
18 0 V
19 0 V
19 0 V
18 0 V
19 0 V
18 0 V
19 0 V
18 0 V
19 0 V
18 0 V
19 0 V
18 0 V
19 0 V
18 0 V
19 0 V
19 0 V
18 0 V
19 0 V
18 0 V
19 -1 V
18 0 V
19 -1 V
18 -2 V
19 -4 V
18 -5 V
19 -9 V
18 -13 V
19 -20 V
19 -28 V
18 -40 V
19 -55 V
18 -71 V
19 -90 V
18 -109 V
19 -130 V
18 -148 V
19 -164 V
18 -175 V
19 -183 V
18 -187 V
19 -185 V
18 -180 V
19 -174 V
19 -165 V
18 -156 V
19 -146 V
18 -136 V
19 -127 V
18 -118 V
19 -111 V
18 -104 V
19 -98 V
18 -92 V
19 -87 V
18 -83 V
19 -78 V
19 -73 V
18 -70 V
19 -65 V
18 -60 V
19 -55 V
18 -50 V
19 -45 V
18 -40 V
19 -34 V
18 -29 V
19 -24 V
18 -20 V
19 -16 V
19 -13 V
18 -9 V
19 -7 V
18 -5 V
19 -3 V
18 -3 V
19 -1 V
18 -1 V
19 -1 V
18 -1 V
19 0 V
18 0 V
19 0 V
19 0 V
18 0 V
19 0 V
18 0 V
19 0 V
18 0 V
19 0 V
18 0 V
19 0 V
18 0 V
19 0 V
18 0 V
19 0 V
-4171 0 V
19 0 V
18 0 V
19 0 V
18 0 V
19 0 V
18 0 V
19 0 V
18 0 V
19 0 V
18 0 V
19 0 V
18 0 V
19 0 V
19 0 V
18 0 V
19 0 V
18 1 V
19 1 V
18 1 V
19 1 V
18 3 V
19 3 V
18 5 V
19 7 V
18 9 V
19 13 V
19 16 V
18 20 V
19 24 V
18 29 V
19 34 V
18 40 V
19 45 V
18 50 V
19 55 V
18 60 V
19 65 V
18 70 V
19 73 V
19 78 V
18 83 V
19 87 V
18 92 V
19 98 V
18 104 V
19 111 V
18 118 V
19 127 V
18 136 V
19 146 V
18 155 V
19 166 V
19 173 V
18 181 V
19 185 V
18 186 V
19 184 V
18 175 V
19 164 V
18 148 V
19 129 V
18 110 V
19 90 V
18 71 V
19 54 V
18 40 V
19 29 V
stroke 3015 4493 M
19 20 V
18 13 V
19 9 V
18 5 V
19 3 V
18 2 V
19 1 V
18 1 V
19 0 V
18 0 V
19 1 V
18 0 V
19 0 V
19 0 V
18 0 V
19 0 V
18 0 V
19 0 V
18 0 V
19 0 V
18 0 V
19 0 V
18 0 V
19 0 V
18 0 V
19 0 V
19 0 V
18 0 V
19 0 V
18 0 V
19 0 V
18 0 V
19 0 V
18 0 V
19 0 V
18 0 V
19 0 V
18 0 V
19 0 V
19 0 V
18 0 V
19 0 V
18 0 V
19 0 V
18 0 V
19 0 V
18 0 V
19 0 V
18 0 V
19 0 V
18 0 V
19 0 V
19 0 V
18 0 V
19 0 V
18 0 V
19 0 V
18 0 V
19 0 V
18 0 V
19 0 V
18 0 V
19 0 V
18 0 V
19 0 V
19 0 V
18 0 V
19 0 V
18 0 V
19 0 V
18 0 V
19 0 V
18 0 V
19 0 V
18 0 V
19 0 V
18 0 V
19 0 V
19 0 V
18 0 V
19 -1 V
18 0 V
19 0 V
18 -1 V
19 -1 V
18 -2 V
19 -3 V
18 -5 V
19 -9 V
18 -13 V
19 -20 V
19 -29 V
18 -40 V
19 -54 V
18 -71 V
19 -90 V
18 -110 V
19 -129 V
18 -148 V
19 -164 V
18 -175 V
19 -184 V
18 -186 V
19 -185 V
18 -181 V
19 -173 V
19 -166 V
18 -155 V
19 -146 V
18 -136 V
19 -127 V
18 -118 V
19 -111 V
18 -104 V
19 -98 V
18 -92 V
19 -87 V
18 -83 V
19 -78 V
19 -73 V
18 -70 V
19 -65 V
18 -60 V
19 -55 V
18 -50 V
19 -45 V
18 -40 V
19 -34 V
18 -29 V
19 -24 V
18 -20 V
19 -16 V
19 -13 V
18 -9 V
19 -7 V
18 -5 V
19 -3 V
18 -3 V
19 -1 V
18 -1 V
19 -1 V
18 -1 V
19 0 V
18 0 V
19 0 V
19 0 V
18 0 V
19 0 V
18 0 V
19 0 V
18 0 V
19 0 V
18 0 V
19 0 V
18 0 V
19 0 V
18 0 V
19 0 V
-4171 0 V
19 0 V
18 0 V
19 0 V
18 0 V
19 0 V
18 0 V
19 0 V
18 0 V
19 0 V
18 0 V
19 0 V
18 0 V
19 0 V
19 0 V
18 0 V
19 0 V
18 1 V
19 1 V
18 1 V
19 1 V
18 3 V
19 3 V
18 5 V
19 7 V
18 9 V
19 13 V
19 16 V
18 20 V
19 24 V
18 29 V
19 34 V
18 40 V
19 45 V
18 50 V
19 55 V
18 60 V
19 65 V
18 70 V
19 73 V
19 78 V
18 83 V
19 87 V
18 92 V
19 98 V
18 104 V
19 111 V
18 118 V
19 127 V
18 136 V
19 146 V
18 155 V
19 166 V
19 173 V
18 181 V
19 185 V
18 186 V
19 184 V
18 175 V
19 164 V
18 148 V
19 129 V
18 110 V
19 90 V
18 71 V
19 54 V
18 40 V
19 29 V
19 20 V
18 13 V
19 9 V
18 5 V
19 3 V
18 2 V
19 1 V
18 1 V
19 0 V
18 0 V
19 1 V
18 0 V
19 0 V
19 0 V
18 0 V
19 0 V
18 0 V
19 0 V
18 0 V
19 0 V
18 0 V
19 0 V
18 0 V
stroke 3441 4548 M
19 0 V
18 0 V
19 0 V
19 0 V
18 0 V
19 0 V
18 0 V
19 0 V
18 0 V
19 0 V
18 0 V
19 0 V
18 0 V
19 0 V
18 0 V
19 0 V
19 0 V
18 0 V
19 0 V
18 0 V
19 0 V
18 0 V
19 0 V
18 0 V
19 0 V
18 0 V
19 0 V
18 0 V
19 0 V
19 0 V
18 0 V
19 0 V
18 0 V
19 0 V
18 0 V
19 0 V
18 0 V
19 0 V
18 0 V
19 0 V
18 0 V
19 0 V
19 0 V
18 0 V
19 0 V
18 0 V
19 0 V
18 0 V
19 0 V
18 0 V
19 0 V
18 0 V
19 0 V
18 0 V
19 0 V
19 0 V
18 0 V
19 -1 V
18 0 V
19 0 V
18 -1 V
19 -1 V
18 -2 V
19 -3 V
18 -5 V
19 -9 V
18 -13 V
19 -20 V
19 -29 V
18 -40 V
19 -54 V
18 -71 V
19 -90 V
18 -110 V
19 -129 V
18 -148 V
19 -164 V
18 -175 V
19 -184 V
18 -186 V
19 -185 V
18 -181 V
19 -173 V
19 -166 V
18 -155 V
19 -146 V
18 -136 V
19 -127 V
18 -118 V
19 -111 V
18 -104 V
19 -98 V
18 -92 V
19 -87 V
18 -83 V
19 -78 V
19 -73 V
18 -70 V
19 -65 V
18 -60 V
19 -55 V
18 -50 V
19 -45 V
18 -40 V
19 -34 V
18 -29 V
19 -24 V
18 -20 V
19 -16 V
19 -13 V
18 -9 V
19 -7 V
18 -5 V
19 -3 V
18 -3 V
19 -1 V
18 -1 V
19 -1 V
18 -1 V
19 0 V
18 0 V
19 0 V
19 0 V
18 0 V
19 0 V
18 0 V
19 0 V
18 0 V
19 0 V
18 0 V
19 0 V
18 0 V
19 0 V
18 0 V
19 0 V
-4171 0 V
19 0 V
18 0 V
19 0 V
18 0 V
19 0 V
18 0 V
19 0 V
18 0 V
19 0 V
18 0 V
19 0 V
18 0 V
19 0 V
19 0 V
18 0 V
19 0 V
18 1 V
19 1 V
18 1 V
19 1 V
18 3 V
19 3 V
18 5 V
19 7 V
18 9 V
19 13 V
19 16 V
18 20 V
19 24 V
18 29 V
19 34 V
18 40 V
19 45 V
18 50 V
19 55 V
18 60 V
19 65 V
18 70 V
19 73 V
19 78 V
18 83 V
19 87 V
18 92 V
19 98 V
18 104 V
19 111 V
18 118 V
19 127 V
18 136 V
19 146 V
18 155 V
19 166 V
19 173 V
18 181 V
19 185 V
18 186 V
19 184 V
18 175 V
19 164 V
18 148 V
19 129 V
18 110 V
19 90 V
18 71 V
19 54 V
18 40 V
19 29 V
19 20 V
18 13 V
19 9 V
18 5 V
19 3 V
18 2 V
19 1 V
18 1 V
19 0 V
18 0 V
19 1 V
18 0 V
19 0 V
19 0 V
18 0 V
19 0 V
18 0 V
19 0 V
18 0 V
19 0 V
18 0 V
19 0 V
18 0 V
19 0 V
18 0 V
19 0 V
19 0 V
18 0 V
19 0 V
18 0 V
19 0 V
18 0 V
19 0 V
18 0 V
19 0 V
18 0 V
19 0 V
18 0 V
19 0 V
19 0 V
18 0 V
19 0 V
18 0 V
19 0 V
18 0 V
19 0 V
stroke 3868 4548 M
18 0 V
19 0 V
18 0 V
19 0 V
18 0 V
19 0 V
19 0 V
18 0 V
19 0 V
18 0 V
19 0 V
18 0 V
19 0 V
18 0 V
19 0 V
18 0 V
19 0 V
18 0 V
19 0 V
19 0 V
18 0 V
19 0 V
18 0 V
19 0 V
18 0 V
19 0 V
18 0 V
19 0 V
18 0 V
19 0 V
18 0 V
19 0 V
19 0 V
18 0 V
19 -1 V
18 0 V
19 0 V
18 -1 V
19 -1 V
18 -2 V
19 -3 V
18 -5 V
19 -9 V
18 -13 V
19 -20 V
19 -29 V
18 -40 V
19 -54 V
18 -71 V
19 -90 V
18 -110 V
19 -129 V
18 -148 V
19 -164 V
18 -175 V
19 -184 V
18 -186 V
19 -185 V
18 -181 V
19 -173 V
19 -166 V
18 -155 V
19 -146 V
18 -136 V
19 -127 V
18 -118 V
19 -111 V
18 -104 V
19 -98 V
18 -92 V
19 -87 V
18 -83 V
19 -78 V
19 -73 V
18 -70 V
19 -65 V
18 -60 V
19 -55 V
18 -50 V
19 -45 V
18 -40 V
19 -34 V
18 -29 V
19 -24 V
18 -20 V
19 -16 V
19 -13 V
18 -9 V
19 -7 V
18 -5 V
19 -3 V
18 -3 V
19 -1 V
18 -1 V
19 -1 V
18 -1 V
19 0 V
18 0 V
19 0 V
19 0 V
18 0 V
19 0 V
18 0 V
19 0 V
18 0 V
19 0 V
18 0 V
19 0 V
18 0 V
19 0 V
18 0 V
19 0 V
1773 448 BoxF
1792 448 BoxF
1810 448 BoxF
1829 448 BoxF
1847 448 BoxF
1866 448 BoxF
1884 448 BoxF
1903 448 BoxF
1921 448 BoxF
1940 448 BoxF
1958 448 BoxF
1977 448 BoxF
1995 448 BoxF
2014 448 BoxF
2033 448 BoxF
2051 448 BoxF
2070 448 BoxF
2088 449 BoxF
2107 450 BoxF
2125 451 BoxF
2144 452 BoxF
2162 455 BoxF
2181 458 BoxF
2199 463 BoxF
2218 470 BoxF
2236 479 BoxF
2255 492 BoxF
2274 508 BoxF
2292 528 BoxF
2311 552 BoxF
2329 581 BoxF
2348 615 BoxF
2366 655 BoxF
2385 700 BoxF
2403 750 BoxF
2422 805 BoxF
2440 865 BoxF
2459 930 BoxF
2477 1000 BoxF
2496 1073 BoxF
2515 1151 BoxF
2533 1234 BoxF
2552 1321 BoxF
2570 1413 BoxF
2589 1511 BoxF
2607 1615 BoxF
2626 1726 BoxF
2644 1844 BoxF
2663 1971 BoxF
2681 2107 BoxF
2700 2253 BoxF
2718 2409 BoxF
2737 2574 BoxF
2756 2748 BoxF
2774 2928 BoxF
2793 3113 BoxF
2811 3300 BoxF
2830 3483 BoxF
2848 3658 BoxF
2867 3822 BoxF
2885 3970 BoxF
2904 4100 BoxF
2922 4209 BoxF
2941 4299 BoxF
2959 4370 BoxF
2978 4425 BoxF
2996 4465 BoxF
3015 4493 BoxF
3034 4513 BoxF
3052 4526 BoxF
3071 4535 BoxF
3089 4540 BoxF
3108 4544 BoxF
3126 4546 BoxF
3145 4547 BoxF
3163 4547 BoxF
3182 4548 BoxF
3200 4548 BoxF
3219 4548 BoxF
3237 4548 BoxF
3256 4548 BoxF
3275 4548 BoxF
3293 4548 BoxF
3312 4548 BoxF
3330 4548 BoxF
3349 4548 BoxF
3367 4548 BoxF
3386 4548 BoxF
3404 4548 BoxF
3423 4548 BoxF
3441 4548 BoxF
3460 4548 BoxF
3478 4548 BoxF
3497 4548 BoxF
3516 4548 BoxF
3534 4548 BoxF
3553 4548 BoxF
3571 4548 BoxF
3590 4548 BoxF
3608 4548 BoxF
3627 4548 BoxF
3645 4548 BoxF
3664 4548 BoxF
3682 4548 BoxF
3701 4548 BoxF
3719 4548 BoxF
3738 4548 BoxF
3757 4548 BoxF
3775 4548 BoxF
3794 4548 BoxF
3812 4548 BoxF
3831 4548 BoxF
3849 4548 BoxF
3868 4548 BoxF
3886 4548 BoxF
3905 4548 BoxF
3923 4548 BoxF
3942 4548 BoxF
3960 4548 BoxF
3979 4548 BoxF
3998 4548 BoxF
4016 4548 BoxF
4035 4548 BoxF
4053 4548 BoxF
4072 4548 BoxF
4090 4548 BoxF
4109 4548 BoxF
4127 4548 BoxF
4146 4548 BoxF
4164 4548 BoxF
4183 4548 BoxF
4201 4548 BoxF
4220 4548 BoxF
4239 4548 BoxF
4257 4548 BoxF
4276 4548 BoxF
4294 4548 BoxF
4313 4548 BoxF
4331 4548 BoxF
4350 4548 BoxF
4368 4548 BoxF
4387 4548 BoxF
4405 4548 BoxF
4424 4548 BoxF
4442 4548 BoxF
4461 4548 BoxF
4480 4548 BoxF
4498 4548 BoxF
4517 4548 BoxF
4535 4548 BoxF
4554 4547 BoxF
4572 4547 BoxF
4591 4546 BoxF
4609 4544 BoxF
4628 4540 BoxF
4646 4535 BoxF
4665 4526 BoxF
4683 4513 BoxF
4702 4493 BoxF
4721 4465 BoxF
4739 4425 BoxF
4758 4370 BoxF
4776 4299 BoxF
4795 4209 BoxF
4813 4100 BoxF
4832 3970 BoxF
4850 3822 BoxF
4869 3658 BoxF
4887 3483 BoxF
4906 3300 BoxF
4924 3113 BoxF
4943 2928 BoxF
4961 2748 BoxF
4980 2574 BoxF
4999 2409 BoxF
5017 2253 BoxF
5036 2107 BoxF
5054 1971 BoxF
5073 1844 BoxF
5091 1726 BoxF
5110 1615 BoxF
5128 1511 BoxF
5147 1413 BoxF
5165 1321 BoxF
5184 1234 BoxF
5202 1151 BoxF
5221 1073 BoxF
5240 1000 BoxF
5258 930 BoxF
5277 865 BoxF
5295 805 BoxF
5314 750 BoxF
5332 700 BoxF
5351 655 BoxF
5369 615 BoxF
5388 581 BoxF
5406 552 BoxF
5425 528 BoxF
5443 508 BoxF
5462 492 BoxF
5481 479 BoxF
5499 470 BoxF
5518 463 BoxF
5536 458 BoxF
5555 455 BoxF
5573 452 BoxF
5592 451 BoxF
5610 450 BoxF
5629 449 BoxF
5647 448 BoxF
5666 448 BoxF
5684 448 BoxF
5703 448 BoxF
5722 448 BoxF
5740 448 BoxF
5759 448 BoxF
5777 448 BoxF
5796 448 BoxF
5814 448 BoxF
5833 448 BoxF
5851 448 BoxF
5870 448 BoxF
5888 448 BoxF
5907 448 BoxF
5925 448 BoxF
5944 448 BoxF
1773 448 BoxF
1792 448 BoxF
1810 448 BoxF
1829 448 BoxF
1847 448 BoxF
1866 448 BoxF
1884 448 BoxF
1903 448 BoxF
1921 448 BoxF
1940 448 BoxF
1958 448 BoxF
1977 448 BoxF
1995 448 BoxF
2014 448 BoxF
2033 448 BoxF
2051 448 BoxF
2070 448 BoxF
2088 449 BoxF
2107 450 BoxF
2125 451 BoxF
2144 452 BoxF
2162 455 BoxF
2181 458 BoxF
2199 463 BoxF
2218 470 BoxF
2236 479 BoxF
2255 492 BoxF
2274 508 BoxF
2292 528 BoxF
2311 552 BoxF
2329 581 BoxF
2348 615 BoxF
2366 655 BoxF
2385 700 BoxF
2403 750 BoxF
2422 805 BoxF
2440 865 BoxF
2459 930 BoxF
2477 1000 BoxF
2496 1073 BoxF
2515 1151 BoxF
2533 1234 BoxF
2552 1321 BoxF
2570 1413 BoxF
2589 1511 BoxF
2607 1615 BoxF
2626 1726 BoxF
2644 1844 BoxF
2663 1971 BoxF
2681 2107 BoxF
2700 2253 BoxF
2718 2409 BoxF
2737 2574 BoxF
2756 2748 BoxF
2774 2928 BoxF
2793 3113 BoxF
2811 3300 BoxF
2830 3483 BoxF
2848 3658 BoxF
2867 3822 BoxF
2885 3970 BoxF
2904 4100 BoxF
2922 4209 BoxF
2941 4299 BoxF
2959 4370 BoxF
2978 4425 BoxF
2996 4465 BoxF
3015 4493 BoxF
3034 4513 BoxF
3052 4526 BoxF
3071 4535 BoxF
3089 4540 BoxF
3108 4544 BoxF
3126 4546 BoxF
3145 4547 BoxF
3163 4547 BoxF
3182 4548 BoxF
3200 4548 BoxF
3219 4548 BoxF
3237 4548 BoxF
3256 4548 BoxF
3275 4548 BoxF
3293 4548 BoxF
3312 4548 BoxF
3330 4548 BoxF
3349 4548 BoxF
3367 4548 BoxF
3386 4548 BoxF
3404 4548 BoxF
3423 4548 BoxF
3441 4548 BoxF
3460 4548 BoxF
3478 4548 BoxF
3497 4548 BoxF
3516 4548 BoxF
3534 4548 BoxF
3553 4548 BoxF
3571 4548 BoxF
3590 4548 BoxF
3608 4548 BoxF
3627 4548 BoxF
3645 4548 BoxF
3664 4548 BoxF
3682 4548 BoxF
3701 4548 BoxF
3719 4548 BoxF
3738 4548 BoxF
3757 4548 BoxF
3775 4548 BoxF
3794 4548 BoxF
3812 4548 BoxF
3831 4548 BoxF
3849 4548 BoxF
3868 4548 BoxF
3886 4548 BoxF
3905 4548 BoxF
3923 4548 BoxF
3942 4548 BoxF
3960 4548 BoxF
3979 4548 BoxF
3998 4548 BoxF
4016 4548 BoxF
4035 4548 BoxF
4053 4548 BoxF
4072 4548 BoxF
4090 4548 BoxF
4109 4548 BoxF
4127 4548 BoxF
4146 4548 BoxF
4164 4548 BoxF
4183 4548 BoxF
4201 4548 BoxF
4220 4548 BoxF
4239 4548 BoxF
4257 4548 BoxF
4276 4548 BoxF
4294 4548 BoxF
4313 4548 BoxF
4331 4548 BoxF
4350 4548 BoxF
4368 4548 BoxF
4387 4548 BoxF
4405 4548 BoxF
4424 4548 BoxF
4442 4548 BoxF
4461 4548 BoxF
4480 4548 BoxF
4498 4548 BoxF
4517 4548 BoxF
4535 4548 BoxF
4554 4547 BoxF
4572 4547 BoxF
4591 4546 BoxF
4609 4544 BoxF
4628 4540 BoxF
4646 4535 BoxF
4665 4526 BoxF
4683 4513 BoxF
4702 4493 BoxF
4721 4465 BoxF
4739 4425 BoxF
4758 4370 BoxF
4776 4299 BoxF
4795 4209 BoxF
4813 4100 BoxF
4832 3970 BoxF
4850 3822 BoxF
4869 3658 BoxF
4887 3483 BoxF
4906 3300 BoxF
4924 3113 BoxF
4943 2928 BoxF
4961 2748 BoxF
4980 2574 BoxF
4999 2409 BoxF
5017 2253 BoxF
5036 2107 BoxF
5054 1971 BoxF
5073 1844 BoxF
5091 1726 BoxF
5110 1615 BoxF
5128 1511 BoxF
5147 1413 BoxF
5165 1321 BoxF
5184 1234 BoxF
5202 1151 BoxF
5221 1073 BoxF
5240 1000 BoxF
5258 930 BoxF
5277 865 BoxF
5295 805 BoxF
5314 750 BoxF
5332 700 BoxF
5351 655 BoxF
5369 615 BoxF
5388 581 BoxF
5406 552 BoxF
5425 528 BoxF
5443 508 BoxF
5462 492 BoxF
5481 479 BoxF
5499 470 BoxF
5518 463 BoxF
5536 458 BoxF
5555 455 BoxF
5573 452 BoxF
5592 451 BoxF
5610 450 BoxF
5629 449 BoxF
5647 448 BoxF
5666 448 BoxF
5684 448 BoxF
5703 448 BoxF
5722 448 BoxF
5740 448 BoxF
5759 448 BoxF
5777 448 BoxF
5796 448 BoxF
5814 448 BoxF
5833 448 BoxF
5851 448 BoxF
5870 448 BoxF
5888 448 BoxF
5907 448 BoxF
5925 448 BoxF
5944 448 BoxF
1773 448 BoxF
1792 448 BoxF
1810 448 BoxF
1829 448 BoxF
1847 448 BoxF
1866 448 BoxF
1884 448 BoxF
1903 448 BoxF
1921 448 BoxF
1940 448 BoxF
1958 448 BoxF
1977 448 BoxF
1995 448 BoxF
2014 448 BoxF
2033 448 BoxF
2051 448 BoxF
2070 448 BoxF
2088 449 BoxF
2107 450 BoxF
2125 451 BoxF
2144 452 BoxF
2162 455 BoxF
2181 458 BoxF
2199 463 BoxF
2218 470 BoxF
2236 479 BoxF
2255 492 BoxF
2274 508 BoxF
2292 528 BoxF
2311 552 BoxF
2329 581 BoxF
2348 615 BoxF
2366 655 BoxF
2385 700 BoxF
2403 750 BoxF
2422 805 BoxF
2440 865 BoxF
2459 930 BoxF
2477 1000 BoxF
2496 1073 BoxF
2515 1151 BoxF
2533 1234 BoxF
2552 1321 BoxF
2570 1413 BoxF
2589 1511 BoxF
2607 1615 BoxF
2626 1726 BoxF
2644 1844 BoxF
2663 1971 BoxF
2681 2107 BoxF
2700 2253 BoxF
2718 2409 BoxF
2737 2574 BoxF
2756 2748 BoxF
2774 2928 BoxF
2793 3113 BoxF
2811 3300 BoxF
2830 3483 BoxF
2848 3658 BoxF
2867 3822 BoxF
2885 3970 BoxF
2904 4100 BoxF
2922 4209 BoxF
2941 4299 BoxF
2959 4370 BoxF
2978 4425 BoxF
2996 4465 BoxF
3015 4493 BoxF
3034 4513 BoxF
3052 4526 BoxF
3071 4535 BoxF
3089 4540 BoxF
3108 4544 BoxF
3126 4546 BoxF
3145 4547 BoxF
3163 4547 BoxF
3182 4548 BoxF
3200 4548 BoxF
3219 4548 BoxF
3237 4548 BoxF
3256 4548 BoxF
3275 4548 BoxF
3293 4548 BoxF
3312 4548 BoxF
3330 4548 BoxF
3349 4548 BoxF
3367 4548 BoxF
3386 4548 BoxF
3404 4548 BoxF
3423 4548 BoxF
3441 4548 BoxF
3460 4548 BoxF
3478 4548 BoxF
3497 4548 BoxF
3516 4548 BoxF
3534 4548 BoxF
3553 4548 BoxF
3571 4548 BoxF
3590 4548 BoxF
3608 4548 BoxF
3627 4548 BoxF
3645 4548 BoxF
3664 4548 BoxF
3682 4548 BoxF
3701 4548 BoxF
3719 4548 BoxF
3738 4548 BoxF
3757 4548 BoxF
3775 4548 BoxF
3794 4548 BoxF
3812 4548 BoxF
3831 4548 BoxF
3849 4548 BoxF
3868 4548 BoxF
3886 4548 BoxF
3905 4548 BoxF
3923 4548 BoxF
3942 4548 BoxF
3960 4548 BoxF
3979 4548 BoxF
3998 4548 BoxF
4016 4548 BoxF
4035 4548 BoxF
4053 4548 BoxF
4072 4548 BoxF
4090 4548 BoxF
4109 4548 BoxF
4127 4548 BoxF
4146 4548 BoxF
4164 4548 BoxF
4183 4548 BoxF
4201 4548 BoxF
4220 4548 BoxF
4239 4548 BoxF
4257 4548 BoxF
4276 4548 BoxF
4294 4548 BoxF
4313 4548 BoxF
4331 4548 BoxF
4350 4548 BoxF
4368 4548 BoxF
4387 4548 BoxF
4405 4548 BoxF
4424 4548 BoxF
4442 4548 BoxF
4461 4548 BoxF
4480 4548 BoxF
4498 4548 BoxF
4517 4548 BoxF
4535 4548 BoxF
4554 4547 BoxF
4572 4547 BoxF
4591 4546 BoxF
4609 4544 BoxF
4628 4540 BoxF
4646 4535 BoxF
4665 4526 BoxF
4683 4513 BoxF
4702 4493 BoxF
4721 4465 BoxF
4739 4425 BoxF
4758 4370 BoxF
4776 4299 BoxF
4795 4209 BoxF
4813 4100 BoxF
4832 3970 BoxF
4850 3822 BoxF
4869 3658 BoxF
4887 3483 BoxF
4906 3300 BoxF
4924 3113 BoxF
4943 2928 BoxF
4961 2748 BoxF
4980 2574 BoxF
4999 2409 BoxF
5017 2253 BoxF
5036 2107 BoxF
5054 1971 BoxF
5073 1844 BoxF
5091 1726 BoxF
5110 1615 BoxF
5128 1511 BoxF
5147 1413 BoxF
5165 1321 BoxF
5184 1234 BoxF
5202 1151 BoxF
5221 1073 BoxF
5240 1000 BoxF
5258 930 BoxF
5277 865 BoxF
5295 805 BoxF
5314 750 BoxF
5332 700 BoxF
5351 655 BoxF
5369 615 BoxF
5388 581 BoxF
5406 552 BoxF
5425 528 BoxF
5443 508 BoxF
5462 492 BoxF
5481 479 BoxF
5499 470 BoxF
5518 463 BoxF
5536 458 BoxF
5555 455 BoxF
5573 452 BoxF
5592 451 BoxF
5610 450 BoxF
5629 449 BoxF
5647 448 BoxF
5666 448 BoxF
5684 448 BoxF
5703 448 BoxF
5722 448 BoxF
5740 448 BoxF
5759 448 BoxF
5777 448 BoxF
5796 448 BoxF
5814 448 BoxF
5833 448 BoxF
5851 448 BoxF
5870 448 BoxF
5888 448 BoxF
5907 448 BoxF
5925 448 BoxF
5944 448 BoxF
1773 448 BoxF
1792 448 BoxF
1810 448 BoxF
1829 448 BoxF
1847 448 BoxF
1866 448 BoxF
1884 448 BoxF
1903 448 BoxF
1921 448 BoxF
1940 448 BoxF
1958 448 BoxF
1977 448 BoxF
1995 448 BoxF
2014 448 BoxF
2033 448 BoxF
2051 448 BoxF
2070 448 BoxF
2088 449 BoxF
2107 450 BoxF
2125 451 BoxF
2144 452 BoxF
2162 455 BoxF
2181 458 BoxF
2199 463 BoxF
2218 470 BoxF
2236 479 BoxF
2255 492 BoxF
2274 508 BoxF
2292 528 BoxF
2311 552 BoxF
2329 581 BoxF
2348 615 BoxF
2366 655 BoxF
2385 700 BoxF
2403 750 BoxF
2422 805 BoxF
2440 865 BoxF
2459 930 BoxF
2477 1000 BoxF
2496 1073 BoxF
2515 1151 BoxF
2533 1234 BoxF
2552 1321 BoxF
2570 1413 BoxF
2589 1511 BoxF
2607 1615 BoxF
2626 1726 BoxF
2644 1844 BoxF
2663 1971 BoxF
2681 2107 BoxF
2700 2253 BoxF
2718 2408 BoxF
2737 2574 BoxF
2756 2747 BoxF
2774 2928 BoxF
2793 3113 BoxF
2811 3299 BoxF
2830 3483 BoxF
2848 3658 BoxF
2867 3822 BoxF
2885 3970 BoxF
2904 4099 BoxF
2922 4209 BoxF
2941 4299 BoxF
2959 4370 BoxF
2978 4424 BoxF
2996 4464 BoxF
3015 4493 BoxF
3034 4513 BoxF
3052 4526 BoxF
3071 4535 BoxF
3089 4540 BoxF
3108 4543 BoxF
3126 4545 BoxF
3145 4546 BoxF
3163 4547 BoxF
3182 4547 BoxF
3200 4547 BoxF
3219 4548 BoxF
3237 4548 BoxF
3256 4548 BoxF
3275 4548 BoxF
3293 4548 BoxF
3312 4548 BoxF
3330 4548 BoxF
3349 4548 BoxF
3367 4548 BoxF
3386 4548 BoxF
3404 4548 BoxF
3423 4548 BoxF
3441 4548 BoxF
3460 4548 BoxF
3478 4548 BoxF
3497 4548 BoxF
3516 4548 BoxF
3534 4548 BoxF
3553 4548 BoxF
3571 4548 BoxF
3590 4548 BoxF
3608 4548 BoxF
3627 4548 BoxF
3645 4548 BoxF
3664 4548 BoxF
3682 4548 BoxF
3701 4548 BoxF
3719 4548 BoxF
3738 4548 BoxF
3757 4548 BoxF
3775 4548 BoxF
3794 4548 BoxF
3812 4548 BoxF
3831 4548 BoxF
3849 4548 BoxF
3868 4548 BoxF
3886 4548 BoxF
3905 4548 BoxF
3923 4548 BoxF
3942 4548 BoxF
3960 4548 BoxF
3979 4548 BoxF
3998 4548 BoxF
4016 4548 BoxF
4035 4548 BoxF
4053 4548 BoxF
4072 4548 BoxF
4090 4548 BoxF
4109 4548 BoxF
4127 4548 BoxF
4146 4548 BoxF
4164 4548 BoxF
4183 4548 BoxF
4201 4548 BoxF
4220 4548 BoxF
4239 4548 BoxF
4257 4548 BoxF
4276 4548 BoxF
4294 4548 BoxF
4313 4548 BoxF
4331 4548 BoxF
4350 4548 BoxF
4368 4548 BoxF
4387 4548 BoxF
4405 4548 BoxF
4424 4548 BoxF
4442 4548 BoxF
4461 4548 BoxF
4480 4548 BoxF
4498 4548 BoxF
4517 4547 BoxF
4535 4547 BoxF
4554 4547 BoxF
4572 4546 BoxF
4591 4545 BoxF
4609 4543 BoxF
4628 4540 BoxF
4646 4535 BoxF
4665 4526 BoxF
4683 4513 BoxF
4702 4493 BoxF
4721 4464 BoxF
4739 4424 BoxF
4758 4370 BoxF
4776 4299 BoxF
4795 4209 BoxF
4813 4099 BoxF
4832 3970 BoxF
4850 3822 BoxF
4869 3658 BoxF
4887 3483 BoxF
4906 3299 BoxF
4924 3113 BoxF
4943 2928 BoxF
4961 2747 BoxF
4980 2574 BoxF
4999 2408 BoxF
5017 2253 BoxF
5036 2107 BoxF
5054 1971 BoxF
5073 1844 BoxF
5091 1726 BoxF
5110 1615 BoxF
5128 1511 BoxF
5147 1413 BoxF
5165 1321 BoxF
5184 1234 BoxF
5202 1151 BoxF
5221 1073 BoxF
5240 1000 BoxF
5258 930 BoxF
5277 865 BoxF
5295 805 BoxF
5314 750 BoxF
5332 700 BoxF
5351 655 BoxF
5369 615 BoxF
5388 581 BoxF
5406 552 BoxF
5425 528 BoxF
5443 508 BoxF
5462 492 BoxF
5481 479 BoxF
5499 470 BoxF
5518 463 BoxF
5536 458 BoxF
5555 455 BoxF
5573 452 BoxF
5592 451 BoxF
5610 450 BoxF
5629 449 BoxF
5647 448 BoxF
5666 448 BoxF
5684 448 BoxF
5703 448 BoxF
5722 448 BoxF
5740 448 BoxF
5759 448 BoxF
5777 448 BoxF
5796 448 BoxF
5814 448 BoxF
5833 448 BoxF
5851 448 BoxF
5870 448 BoxF
5888 448 BoxF
5907 448 BoxF
5925 448 BoxF
5944 448 BoxF
1773 448 BoxF
1792 448 BoxF
1810 448 BoxF
1829 448 BoxF
1847 448 BoxF
1866 448 BoxF
1884 448 BoxF
1903 448 BoxF
1921 448 BoxF
1940 448 BoxF
1958 448 BoxF
1977 448 BoxF
1995 448 BoxF
2014 448 BoxF
2033 448 BoxF
2051 448 BoxF
2070 448 BoxF
2088 449 BoxF
2107 450 BoxF
2125 451 BoxF
2144 452 BoxF
2162 455 BoxF
2181 458 BoxF
2199 463 BoxF
2218 470 BoxF
2236 479 BoxF
2255 492 BoxF
2274 508 BoxF
2292 528 BoxF
2311 552 BoxF
2329 581 BoxF
2348 615 BoxF
2366 655 BoxF
2385 700 BoxF
2403 750 BoxF
2422 805 BoxF
2440 865 BoxF
2459 930 BoxF
2477 1000 BoxF
2496 1073 BoxF
2515 1151 BoxF
2533 1234 BoxF
2552 1321 BoxF
2570 1413 BoxF
2589 1511 BoxF
2607 1615 BoxF
2626 1726 BoxF
2644 1844 BoxF
2663 1971 BoxF
2681 2107 BoxF
2700 2253 BoxF
2718 2408 BoxF
2737 2574 BoxF
2756 2747 BoxF
2774 2928 BoxF
2793 3113 BoxF
2811 3299 BoxF
2830 3483 BoxF
2848 3658 BoxF
2867 3822 BoxF
2885 3970 BoxF
2904 4099 BoxF
2922 4209 BoxF
2941 4299 BoxF
2959 4370 BoxF
2978 4424 BoxF
2996 4464 BoxF
3015 4493 BoxF
3034 4513 BoxF
3052 4526 BoxF
3071 4535 BoxF
3089 4540 BoxF
3108 4543 BoxF
3126 4545 BoxF
3145 4546 BoxF
3163 4547 BoxF
3182 4547 BoxF
3200 4547 BoxF
3219 4548 BoxF
3237 4548 BoxF
3256 4548 BoxF
3275 4548 BoxF
3293 4548 BoxF
3312 4548 BoxF
3330 4548 BoxF
3349 4548 BoxF
3367 4548 BoxF
3386 4548 BoxF
3404 4548 BoxF
3423 4548 BoxF
3441 4548 BoxF
3460 4548 BoxF
3478 4548 BoxF
3497 4548 BoxF
3516 4548 BoxF
3534 4548 BoxF
3553 4548 BoxF
3571 4548 BoxF
3590 4548 BoxF
3608 4548 BoxF
3627 4548 BoxF
3645 4548 BoxF
3664 4548 BoxF
3682 4548 BoxF
3701 4548 BoxF
3719 4548 BoxF
3738 4548 BoxF
3757 4548 BoxF
3775 4548 BoxF
3794 4548 BoxF
3812 4548 BoxF
3831 4548 BoxF
3849 4548 BoxF
3868 4548 BoxF
3886 4548 BoxF
3905 4548 BoxF
3923 4548 BoxF
3942 4548 BoxF
3960 4548 BoxF
3979 4548 BoxF
3998 4548 BoxF
4016 4548 BoxF
4035 4548 BoxF
4053 4548 BoxF
4072 4548 BoxF
4090 4548 BoxF
4109 4548 BoxF
4127 4548 BoxF
4146 4548 BoxF
4164 4548 BoxF
4183 4548 BoxF
4201 4548 BoxF
4220 4548 BoxF
4239 4548 BoxF
4257 4548 BoxF
4276 4548 BoxF
4294 4548 BoxF
4313 4548 BoxF
4331 4548 BoxF
4350 4548 BoxF
4368 4548 BoxF
4387 4548 BoxF
4405 4548 BoxF
4424 4548 BoxF
4442 4548 BoxF
4461 4548 BoxF
4480 4548 BoxF
4498 4548 BoxF
4517 4547 BoxF
4535 4547 BoxF
4554 4547 BoxF
4572 4546 BoxF
4591 4545 BoxF
4609 4543 BoxF
4628 4540 BoxF
4646 4535 BoxF
4665 4526 BoxF
4683 4513 BoxF
4702 4493 BoxF
4721 4464 BoxF
4739 4424 BoxF
4758 4370 BoxF
4776 4299 BoxF
4795 4209 BoxF
4813 4099 BoxF
4832 3970 BoxF
4850 3822 BoxF
4869 3658 BoxF
4887 3483 BoxF
4906 3299 BoxF
4924 3113 BoxF
4943 2928 BoxF
4961 2747 BoxF
4980 2574 BoxF
4999 2408 BoxF
5017 2253 BoxF
5036 2107 BoxF
5054 1971 BoxF
5073 1844 BoxF
5091 1726 BoxF
5110 1615 BoxF
5128 1511 BoxF
5147 1413 BoxF
5165 1321 BoxF
5184 1234 BoxF
5202 1151 BoxF
5221 1073 BoxF
5240 1000 BoxF
5258 930 BoxF
5277 865 BoxF
5295 805 BoxF
5314 750 BoxF
5332 700 BoxF
5351 655 BoxF
5369 615 BoxF
5388 581 BoxF
5406 552 BoxF
5425 528 BoxF
5443 508 BoxF
5462 492 BoxF
5481 479 BoxF
5499 470 BoxF
5518 463 BoxF
5536 458 BoxF
5555 455 BoxF
5573 452 BoxF
5592 451 BoxF
5610 450 BoxF
5629 449 BoxF
5647 448 BoxF
5666 448 BoxF
5684 448 BoxF
5703 448 BoxF
5722 448 BoxF
5740 448 BoxF
5759 448 BoxF
5777 448 BoxF
5796 448 BoxF
5814 448 BoxF
5833 448 BoxF
5851 448 BoxF
5870 448 BoxF
5888 448 BoxF
5907 448 BoxF
5925 448 BoxF
5944 448 BoxF
1773 448 BoxF
1792 448 BoxF
1810 448 BoxF
1829 448 BoxF
1847 448 BoxF
1866 448 BoxF
1884 448 BoxF
1903 448 BoxF
1921 448 BoxF
1940 448 BoxF
1958 448 BoxF
1977 448 BoxF
1995 448 BoxF
2014 448 BoxF
2033 448 BoxF
2051 448 BoxF
2070 448 BoxF
2088 449 BoxF
2107 450 BoxF
2125 451 BoxF
2144 452 BoxF
2162 455 BoxF
2181 458 BoxF
2199 463 BoxF
2218 470 BoxF
2236 479 BoxF
2255 492 BoxF
2274 508 BoxF
2292 528 BoxF
2311 552 BoxF
2329 581 BoxF
2348 615 BoxF
2366 655 BoxF
2385 700 BoxF
2403 750 BoxF
2422 805 BoxF
2440 865 BoxF
2459 930 BoxF
2477 1000 BoxF
2496 1073 BoxF
2515 1151 BoxF
2533 1234 BoxF
2552 1321 BoxF
2570 1413 BoxF
2589 1511 BoxF
2607 1615 BoxF
2626 1726 BoxF
2644 1844 BoxF
2663 1971 BoxF
2681 2107 BoxF
2700 2253 BoxF
2718 2408 BoxF
2737 2574 BoxF
2756 2747 BoxF
2774 2928 BoxF
2793 3113 BoxF
2811 3299 BoxF
2830 3483 BoxF
2848 3658 BoxF
2867 3822 BoxF
2885 3970 BoxF
2904 4099 BoxF
2922 4209 BoxF
2941 4299 BoxF
2959 4370 BoxF
2978 4424 BoxF
2996 4464 BoxF
3015 4493 BoxF
3034 4513 BoxF
3052 4526 BoxF
3071 4535 BoxF
3089 4540 BoxF
3108 4543 BoxF
3126 4545 BoxF
3145 4546 BoxF
3163 4547 BoxF
3182 4547 BoxF
3200 4547 BoxF
3219 4548 BoxF
3237 4548 BoxF
3256 4548 BoxF
3275 4548 BoxF
3293 4548 BoxF
3312 4548 BoxF
3330 4548 BoxF
3349 4548 BoxF
3367 4548 BoxF
3386 4548 BoxF
3404 4548 BoxF
3423 4548 BoxF
3441 4548 BoxF
3460 4548 BoxF
3478 4548 BoxF
3497 4548 BoxF
3516 4548 BoxF
3534 4548 BoxF
3553 4548 BoxF
3571 4548 BoxF
3590 4548 BoxF
3608 4548 BoxF
3627 4548 BoxF
3645 4548 BoxF
3664 4548 BoxF
3682 4548 BoxF
3701 4548 BoxF
3719 4548 BoxF
3738 4548 BoxF
3757 4548 BoxF
3775 4548 BoxF
3794 4548 BoxF
3812 4548 BoxF
3831 4548 BoxF
3849 4548 BoxF
3868 4548 BoxF
3886 4548 BoxF
3905 4548 BoxF
3923 4548 BoxF
3942 4548 BoxF
3960 4548 BoxF
3979 4548 BoxF
3998 4548 BoxF
4016 4548 BoxF
4035 4548 BoxF
4053 4548 BoxF
4072 4548 BoxF
4090 4548 BoxF
4109 4548 BoxF
4127 4548 BoxF
4146 4548 BoxF
4164 4548 BoxF
4183 4548 BoxF
4201 4548 BoxF
4220 4548 BoxF
4239 4548 BoxF
4257 4548 BoxF
4276 4548 BoxF
4294 4548 BoxF
4313 4548 BoxF
4331 4548 BoxF
4350 4548 BoxF
4368 4548 BoxF
4387 4548 BoxF
4405 4548 BoxF
4424 4548 BoxF
4442 4548 BoxF
4461 4548 BoxF
4480 4548 BoxF
4498 4548 BoxF
4517 4547 BoxF
4535 4547 BoxF
4554 4547 BoxF
4572 4546 BoxF
4591 4545 BoxF
4609 4543 BoxF
4628 4540 BoxF
4646 4535 BoxF
4665 4526 BoxF
4683 4513 BoxF
4702 4493 BoxF
4721 4464 BoxF
4739 4424 BoxF
4758 4370 BoxF
4776 4299 BoxF
4795 4209 BoxF
4813 4099 BoxF
4832 3970 BoxF
4850 3822 BoxF
4869 3658 BoxF
4887 3483 BoxF
4906 3299 BoxF
4924 3113 BoxF
4943 2928 BoxF
4961 2747 BoxF
4980 2574 BoxF
4999 2408 BoxF
5017 2253 BoxF
5036 2107 BoxF
5054 1971 BoxF
5073 1844 BoxF
5091 1726 BoxF
5110 1615 BoxF
5128 1511 BoxF
5147 1413 BoxF
5165 1321 BoxF
5184 1234 BoxF
5202 1151 BoxF
5221 1073 BoxF
5240 1000 BoxF
5258 930 BoxF
5277 865 BoxF
5295 805 BoxF
5314 750 BoxF
5332 700 BoxF
5351 655 BoxF
5369 615 BoxF
5388 581 BoxF
5406 552 BoxF
5425 528 BoxF
5443 508 BoxF
5462 492 BoxF
5481 479 BoxF
5499 470 BoxF
5518 463 BoxF
5536 458 BoxF
5555 455 BoxF
5573 452 BoxF
5592 451 BoxF
5610 450 BoxF
5629 449 BoxF
5647 448 BoxF
5666 448 BoxF
5684 448 BoxF
5703 448 BoxF
5722 448 BoxF
5740 448 BoxF
5759 448 BoxF
5777 448 BoxF
5796 448 BoxF
5814 448 BoxF
5833 448 BoxF
5851 448 BoxF
5870 448 BoxF
5888 448 BoxF
5907 448 BoxF
5925 448 BoxF
5944 448 BoxF
5248 2533 BoxF
% End plot #1
2.000 UL
LTb
LCb setrgbcolor
1.000 UL
LTB
LCb setrgbcolor
1773 4619 N
0 -4171 V
4171 0 V
0 4171 V
-4171 0 V
Z stroke
1.000 UP
1.000 UL
LTb
LCb setrgbcolor
stroke
grestore
end
showpage
%%Trailer
%%DocumentFonts: Helvetica
