%!PS-Adobe-2.0 EPSF-2.0
%%Title: gnuplot_Zplt_XB.eps
%%Creator: gnuplot 5.2 patchlevel 2
%%CreationDate: Fri Feb  4 10:35:36 2022
%%DocumentFonts: (atend)
%%BoundingBox: 50 50 410 302
%%EndComments
%%BeginProlog
/gnudict 256 dict def
gnudict begin
%
% The following true/false flags may be edited by hand if desired.
% The unit line width and grayscale image gamma correction may also be changed.
%
/Color true def
/Blacktext false def
/Solid false def
/Dashlength 1 def
/Landscape false def
/Level1 false def
/Level3 false def
/Rounded false def
/ClipToBoundingBox false def
/SuppressPDFMark false def
/TransparentPatterns false def
/gnulinewidth 5.000 def
/userlinewidth gnulinewidth def
/Gamma 1.0 def
/BackgroundColor {-1.000 -1.000 -1.000} def
%
/vshift -46 def
/dl1 {
  10.0 Dashlength userlinewidth gnulinewidth div mul mul mul
  Rounded { currentlinewidth 0.75 mul sub dup 0 le { pop 0.01 } if } if
} def
/dl2 {
  10.0 Dashlength userlinewidth gnulinewidth div mul mul mul
  Rounded { currentlinewidth 0.75 mul add } if
} def
/hpt_ 31.5 def
/vpt_ 31.5 def
/hpt hpt_ def
/vpt vpt_ def
/doclip {
  ClipToBoundingBox {
    newpath 50 50 moveto 410 50 lineto 410 302 lineto 50 302 lineto closepath
    clip
  } if
} def
%
% Gnuplot Prolog Version 5.1 (Oct 2015)
%
%/SuppressPDFMark true def
%
/M {moveto} bind def
/L {lineto} bind def
/R {rmoveto} bind def
/V {rlineto} bind def
/N {newpath moveto} bind def
/Z {closepath} bind def
/C {setrgbcolor} bind def
/f {rlineto fill} bind def
/g {setgray} bind def
/Gshow {show} def   % May be redefined later in the file to support UTF-8
/vpt2 vpt 2 mul def
/hpt2 hpt 2 mul def
/Lshow {currentpoint stroke M 0 vshift R 
	Blacktext {gsave 0 setgray textshow grestore} {textshow} ifelse} def
/Rshow {currentpoint stroke M dup stringwidth pop neg vshift R
	Blacktext {gsave 0 setgray textshow grestore} {textshow} ifelse} def
/Cshow {currentpoint stroke M dup stringwidth pop -2 div vshift R 
	Blacktext {gsave 0 setgray textshow grestore} {textshow} ifelse} def
/UP {dup vpt_ mul /vpt exch def hpt_ mul /hpt exch def
  /hpt2 hpt 2 mul def /vpt2 vpt 2 mul def} def
/DL {Color {setrgbcolor Solid {pop []} if 0 setdash}
 {pop pop pop 0 setgray Solid {pop []} if 0 setdash} ifelse} def
/BL {stroke userlinewidth 2 mul setlinewidth
	Rounded {1 setlinejoin 1 setlinecap} if} def
/AL {stroke userlinewidth 2 div setlinewidth
	Rounded {1 setlinejoin 1 setlinecap} if} def
/UL {dup gnulinewidth mul /userlinewidth exch def
	dup 1 lt {pop 1} if 10 mul /udl exch def} def
/PL {stroke userlinewidth setlinewidth
	Rounded {1 setlinejoin 1 setlinecap} if} def
3.8 setmiterlimit
% Classic Line colors (version 5.0)
/LCw {1 1 1} def
/LCb {0 0 0} def
/LCa {0 0 0} def
/LC0 {1 0 0} def
/LC1 {0 1 0} def
/LC2 {0 0 1} def
/LC3 {1 0 1} def
/LC4 {0 1 1} def
/LC5 {1 1 0} def
/LC6 {0 0 0} def
/LC7 {1 0.3 0} def
/LC8 {0.5 0.5 0.5} def
% Default dash patterns (version 5.0)
/LTB {BL [] LCb DL} def
/LTw {PL [] 1 setgray} def
/LTb {PL [] LCb DL} def
/LTa {AL [1 udl mul 2 udl mul] 0 setdash LCa setrgbcolor} def
/LT0 {PL [] LC0 DL} def
/LT1 {PL [2 dl1 3 dl2] LC1 DL} def
/LT2 {PL [1 dl1 1.5 dl2] LC2 DL} def
/LT3 {PL [6 dl1 2 dl2 1 dl1 2 dl2] LC3 DL} def
/LT4 {PL [1 dl1 2 dl2 6 dl1 2 dl2 1 dl1 2 dl2] LC4 DL} def
/LT5 {PL [4 dl1 2 dl2] LC5 DL} def
/LT6 {PL [1.5 dl1 1.5 dl2 1.5 dl1 1.5 dl2 1.5 dl1 6 dl2] LC6 DL} def
/LT7 {PL [3 dl1 3 dl2 1 dl1 3 dl2] LC7 DL} def
/LT8 {PL [2 dl1 2 dl2 2 dl1 6 dl2] LC8 DL} def
/SL {[] 0 setdash} def
/Pnt {stroke [] 0 setdash gsave 1 setlinecap M 0 0 V stroke grestore} def
/Dia {stroke [] 0 setdash 2 copy vpt add M
  hpt neg vpt neg V hpt vpt neg V
  hpt vpt V hpt neg vpt V closepath stroke
  Pnt} def
/Pls {stroke [] 0 setdash vpt sub M 0 vpt2 V
  currentpoint stroke M
  hpt neg vpt neg R hpt2 0 V stroke
 } def
/Box {stroke [] 0 setdash 2 copy exch hpt sub exch vpt add M
  0 vpt2 neg V hpt2 0 V 0 vpt2 V
  hpt2 neg 0 V closepath stroke
  Pnt} def
/Crs {stroke [] 0 setdash exch hpt sub exch vpt add M
  hpt2 vpt2 neg V currentpoint stroke M
  hpt2 neg 0 R hpt2 vpt2 V stroke} def
/TriU {stroke [] 0 setdash 2 copy vpt 1.12 mul add M
  hpt neg vpt -1.62 mul V
  hpt 2 mul 0 V
  hpt neg vpt 1.62 mul V closepath stroke
  Pnt} def
/Star {2 copy Pls Crs} def
/BoxF {stroke [] 0 setdash exch hpt sub exch vpt add M
  0 vpt2 neg V hpt2 0 V 0 vpt2 V
  hpt2 neg 0 V closepath fill} def
/TriUF {stroke [] 0 setdash vpt 1.12 mul add M
  hpt neg vpt -1.62 mul V
  hpt 2 mul 0 V
  hpt neg vpt 1.62 mul V closepath fill} def
/TriD {stroke [] 0 setdash 2 copy vpt 1.12 mul sub M
  hpt neg vpt 1.62 mul V
  hpt 2 mul 0 V
  hpt neg vpt -1.62 mul V closepath stroke
  Pnt} def
/TriDF {stroke [] 0 setdash vpt 1.12 mul sub M
  hpt neg vpt 1.62 mul V
  hpt 2 mul 0 V
  hpt neg vpt -1.62 mul V closepath fill} def
/DiaF {stroke [] 0 setdash vpt add M
  hpt neg vpt neg V hpt vpt neg V
  hpt vpt V hpt neg vpt V closepath fill} def
/Pent {stroke [] 0 setdash 2 copy gsave
  translate 0 hpt M 4 {72 rotate 0 hpt L} repeat
  closepath stroke grestore Pnt} def
/PentF {stroke [] 0 setdash gsave
  translate 0 hpt M 4 {72 rotate 0 hpt L} repeat
  closepath fill grestore} def
/Circle {stroke [] 0 setdash 2 copy
  hpt 0 360 arc stroke Pnt} def
/CircleF {stroke [] 0 setdash hpt 0 360 arc fill} def
/C0 {BL [] 0 setdash 2 copy moveto vpt 90 450 arc} bind def
/C1 {BL [] 0 setdash 2 copy moveto
	2 copy vpt 0 90 arc closepath fill
	vpt 0 360 arc closepath} bind def
/C2 {BL [] 0 setdash 2 copy moveto
	2 copy vpt 90 180 arc closepath fill
	vpt 0 360 arc closepath} bind def
/C3 {BL [] 0 setdash 2 copy moveto
	2 copy vpt 0 180 arc closepath fill
	vpt 0 360 arc closepath} bind def
/C4 {BL [] 0 setdash 2 copy moveto
	2 copy vpt 180 270 arc closepath fill
	vpt 0 360 arc closepath} bind def
/C5 {BL [] 0 setdash 2 copy moveto
	2 copy vpt 0 90 arc
	2 copy moveto
	2 copy vpt 180 270 arc closepath fill
	vpt 0 360 arc} bind def
/C6 {BL [] 0 setdash 2 copy moveto
	2 copy vpt 90 270 arc closepath fill
	vpt 0 360 arc closepath} bind def
/C7 {BL [] 0 setdash 2 copy moveto
	2 copy vpt 0 270 arc closepath fill
	vpt 0 360 arc closepath} bind def
/C8 {BL [] 0 setdash 2 copy moveto
	2 copy vpt 270 360 arc closepath fill
	vpt 0 360 arc closepath} bind def
/C9 {BL [] 0 setdash 2 copy moveto
	2 copy vpt 270 450 arc closepath fill
	vpt 0 360 arc closepath} bind def
/C10 {BL [] 0 setdash 2 copy 2 copy moveto vpt 270 360 arc closepath fill
	2 copy moveto
	2 copy vpt 90 180 arc closepath fill
	vpt 0 360 arc closepath} bind def
/C11 {BL [] 0 setdash 2 copy moveto
	2 copy vpt 0 180 arc closepath fill
	2 copy moveto
	2 copy vpt 270 360 arc closepath fill
	vpt 0 360 arc closepath} bind def
/C12 {BL [] 0 setdash 2 copy moveto
	2 copy vpt 180 360 arc closepath fill
	vpt 0 360 arc closepath} bind def
/C13 {BL [] 0 setdash 2 copy moveto
	2 copy vpt 0 90 arc closepath fill
	2 copy moveto
	2 copy vpt 180 360 arc closepath fill
	vpt 0 360 arc closepath} bind def
/C14 {BL [] 0 setdash 2 copy moveto
	2 copy vpt 90 360 arc closepath fill
	vpt 0 360 arc} bind def
/C15 {BL [] 0 setdash 2 copy vpt 0 360 arc closepath fill
	vpt 0 360 arc closepath} bind def
/Rec {newpath 4 2 roll moveto 1 index 0 rlineto 0 exch rlineto
	neg 0 rlineto closepath} bind def
/Square {dup Rec} bind def
/Bsquare {vpt sub exch vpt sub exch vpt2 Square} bind def
/S0 {BL [] 0 setdash 2 copy moveto 0 vpt rlineto BL Bsquare} bind def
/S1 {BL [] 0 setdash 2 copy vpt Square fill Bsquare} bind def
/S2 {BL [] 0 setdash 2 copy exch vpt sub exch vpt Square fill Bsquare} bind def
/S3 {BL [] 0 setdash 2 copy exch vpt sub exch vpt2 vpt Rec fill Bsquare} bind def
/S4 {BL [] 0 setdash 2 copy exch vpt sub exch vpt sub vpt Square fill Bsquare} bind def
/S5 {BL [] 0 setdash 2 copy 2 copy vpt Square fill
	exch vpt sub exch vpt sub vpt Square fill Bsquare} bind def
/S6 {BL [] 0 setdash 2 copy exch vpt sub exch vpt sub vpt vpt2 Rec fill Bsquare} bind def
/S7 {BL [] 0 setdash 2 copy exch vpt sub exch vpt sub vpt vpt2 Rec fill
	2 copy vpt Square fill Bsquare} bind def
/S8 {BL [] 0 setdash 2 copy vpt sub vpt Square fill Bsquare} bind def
/S9 {BL [] 0 setdash 2 copy vpt sub vpt vpt2 Rec fill Bsquare} bind def
/S10 {BL [] 0 setdash 2 copy vpt sub vpt Square fill 2 copy exch vpt sub exch vpt Square fill
	Bsquare} bind def
/S11 {BL [] 0 setdash 2 copy vpt sub vpt Square fill 2 copy exch vpt sub exch vpt2 vpt Rec fill
	Bsquare} bind def
/S12 {BL [] 0 setdash 2 copy exch vpt sub exch vpt sub vpt2 vpt Rec fill Bsquare} bind def
/S13 {BL [] 0 setdash 2 copy exch vpt sub exch vpt sub vpt2 vpt Rec fill
	2 copy vpt Square fill Bsquare} bind def
/S14 {BL [] 0 setdash 2 copy exch vpt sub exch vpt sub vpt2 vpt Rec fill
	2 copy exch vpt sub exch vpt Square fill Bsquare} bind def
/S15 {BL [] 0 setdash 2 copy Bsquare fill Bsquare} bind def
/D0 {gsave translate 45 rotate 0 0 S0 stroke grestore} bind def
/D1 {gsave translate 45 rotate 0 0 S1 stroke grestore} bind def
/D2 {gsave translate 45 rotate 0 0 S2 stroke grestore} bind def
/D3 {gsave translate 45 rotate 0 0 S3 stroke grestore} bind def
/D4 {gsave translate 45 rotate 0 0 S4 stroke grestore} bind def
/D5 {gsave translate 45 rotate 0 0 S5 stroke grestore} bind def
/D6 {gsave translate 45 rotate 0 0 S6 stroke grestore} bind def
/D7 {gsave translate 45 rotate 0 0 S7 stroke grestore} bind def
/D8 {gsave translate 45 rotate 0 0 S8 stroke grestore} bind def
/D9 {gsave translate 45 rotate 0 0 S9 stroke grestore} bind def
/D10 {gsave translate 45 rotate 0 0 S10 stroke grestore} bind def
/D11 {gsave translate 45 rotate 0 0 S11 stroke grestore} bind def
/D12 {gsave translate 45 rotate 0 0 S12 stroke grestore} bind def
/D13 {gsave translate 45 rotate 0 0 S13 stroke grestore} bind def
/D14 {gsave translate 45 rotate 0 0 S14 stroke grestore} bind def
/D15 {gsave translate 45 rotate 0 0 S15 stroke grestore} bind def
/DiaE {stroke [] 0 setdash vpt add M
  hpt neg vpt neg V hpt vpt neg V
  hpt vpt V hpt neg vpt V closepath stroke} def
/BoxE {stroke [] 0 setdash exch hpt sub exch vpt add M
  0 vpt2 neg V hpt2 0 V 0 vpt2 V
  hpt2 neg 0 V closepath stroke} def
/TriUE {stroke [] 0 setdash vpt 1.12 mul add M
  hpt neg vpt -1.62 mul V
  hpt 2 mul 0 V
  hpt neg vpt 1.62 mul V closepath stroke} def
/TriDE {stroke [] 0 setdash vpt 1.12 mul sub M
  hpt neg vpt 1.62 mul V
  hpt 2 mul 0 V
  hpt neg vpt -1.62 mul V closepath stroke} def
/PentE {stroke [] 0 setdash gsave
  translate 0 hpt M 4 {72 rotate 0 hpt L} repeat
  closepath stroke grestore} def
/CircE {stroke [] 0 setdash 
  hpt 0 360 arc stroke} def
/Opaque {gsave closepath 1 setgray fill grestore 0 setgray closepath} def
/DiaW {stroke [] 0 setdash vpt add M
  hpt neg vpt neg V hpt vpt neg V
  hpt vpt V hpt neg vpt V Opaque stroke} def
/BoxW {stroke [] 0 setdash exch hpt sub exch vpt add M
  0 vpt2 neg V hpt2 0 V 0 vpt2 V
  hpt2 neg 0 V Opaque stroke} def
/TriUW {stroke [] 0 setdash vpt 1.12 mul add M
  hpt neg vpt -1.62 mul V
  hpt 2 mul 0 V
  hpt neg vpt 1.62 mul V Opaque stroke} def
/TriDW {stroke [] 0 setdash vpt 1.12 mul sub M
  hpt neg vpt 1.62 mul V
  hpt 2 mul 0 V
  hpt neg vpt -1.62 mul V Opaque stroke} def
/PentW {stroke [] 0 setdash gsave
  translate 0 hpt M 4 {72 rotate 0 hpt L} repeat
  Opaque stroke grestore} def
/CircW {stroke [] 0 setdash 
  hpt 0 360 arc Opaque stroke} def
/BoxFill {gsave Rec 1 setgray fill grestore} def
/Density {
  /Fillden exch def
  currentrgbcolor
  /ColB exch def /ColG exch def /ColR exch def
  /ColR ColR Fillden mul Fillden sub 1 add def
  /ColG ColG Fillden mul Fillden sub 1 add def
  /ColB ColB Fillden mul Fillden sub 1 add def
  ColR ColG ColB setrgbcolor} def
/BoxColFill {gsave Rec PolyFill} def
/PolyFill {gsave Density fill grestore grestore} def
/h {rlineto rlineto rlineto gsave closepath fill grestore} bind def
%
% PostScript Level 1 Pattern Fill routine for rectangles
% Usage: x y w h s a XX PatternFill
%	x,y = lower left corner of box to be filled
%	w,h = width and height of box
%	  a = angle in degrees between lines and x-axis
%	 XX = 0/1 for no/yes cross-hatch
%
/PatternFill {gsave /PFa [ 9 2 roll ] def
  PFa 0 get PFa 2 get 2 div add PFa 1 get PFa 3 get 2 div add translate
  PFa 2 get -2 div PFa 3 get -2 div PFa 2 get PFa 3 get Rec
  TransparentPatterns {} {gsave 1 setgray fill grestore} ifelse
  clip
  currentlinewidth 0.5 mul setlinewidth
  /PFs PFa 2 get dup mul PFa 3 get dup mul add sqrt def
  0 0 M PFa 5 get rotate PFs -2 div dup translate
  0 1 PFs PFa 4 get div 1 add floor cvi
	{PFa 4 get mul 0 M 0 PFs V} for
  0 PFa 6 get ne {
	0 1 PFs PFa 4 get div 1 add floor cvi
	{PFa 4 get mul 0 2 1 roll M PFs 0 V} for
 } if
  stroke grestore} def
%
/languagelevel where
 {pop languagelevel} {1} ifelse
dup 2 lt
	{/InterpretLevel1 true def
	 /InterpretLevel3 false def}
	{/InterpretLevel1 Level1 def
	 2 gt
	    {/InterpretLevel3 Level3 def}
	    {/InterpretLevel3 false def}
	 ifelse }
 ifelse
%
% PostScript level 2 pattern fill definitions
%
/Level2PatternFill {
/Tile8x8 {/PaintType 2 /PatternType 1 /TilingType 1 /BBox [0 0 8 8] /XStep 8 /YStep 8}
	bind def
/KeepColor {currentrgbcolor [/Pattern /DeviceRGB] setcolorspace} bind def
<< Tile8x8
 /PaintProc {0.5 setlinewidth pop 0 0 M 8 8 L 0 8 M 8 0 L stroke} 
>> matrix makepattern
/Pat1 exch def
<< Tile8x8
 /PaintProc {0.5 setlinewidth pop 0 0 M 8 8 L 0 8 M 8 0 L stroke
	0 4 M 4 8 L 8 4 L 4 0 L 0 4 L stroke}
>> matrix makepattern
/Pat2 exch def
<< Tile8x8
 /PaintProc {0.5 setlinewidth pop 0 0 M 0 8 L
	8 8 L 8 0 L 0 0 L fill}
>> matrix makepattern
/Pat3 exch def
<< Tile8x8
 /PaintProc {0.5 setlinewidth pop -4 8 M 8 -4 L
	0 12 M 12 0 L stroke}
>> matrix makepattern
/Pat4 exch def
<< Tile8x8
 /PaintProc {0.5 setlinewidth pop -4 0 M 8 12 L
	0 -4 M 12 8 L stroke}
>> matrix makepattern
/Pat5 exch def
<< Tile8x8
 /PaintProc {0.5 setlinewidth pop -2 8 M 4 -4 L
	0 12 M 8 -4 L 4 12 M 10 0 L stroke}
>> matrix makepattern
/Pat6 exch def
<< Tile8x8
 /PaintProc {0.5 setlinewidth pop -2 0 M 4 12 L
	0 -4 M 8 12 L 4 -4 M 10 8 L stroke}
>> matrix makepattern
/Pat7 exch def
<< Tile8x8
 /PaintProc {0.5 setlinewidth pop 8 -2 M -4 4 L
	12 0 M -4 8 L 12 4 M 0 10 L stroke}
>> matrix makepattern
/Pat8 exch def
<< Tile8x8
 /PaintProc {0.5 setlinewidth pop 0 -2 M 12 4 L
	-4 0 M 12 8 L -4 4 M 8 10 L stroke}
>> matrix makepattern
/Pat9 exch def
/Pattern1 {PatternBgnd KeepColor Pat1 setpattern} bind def
/Pattern2 {PatternBgnd KeepColor Pat2 setpattern} bind def
/Pattern3 {PatternBgnd KeepColor Pat3 setpattern} bind def
/Pattern4 {PatternBgnd KeepColor Landscape {Pat5} {Pat4} ifelse setpattern} bind def
/Pattern5 {PatternBgnd KeepColor Landscape {Pat4} {Pat5} ifelse setpattern} bind def
/Pattern6 {PatternBgnd KeepColor Landscape {Pat9} {Pat6} ifelse setpattern} bind def
/Pattern7 {PatternBgnd KeepColor Landscape {Pat8} {Pat7} ifelse setpattern} bind def
} def
%
%
%End of PostScript Level 2 code
%
/PatternBgnd {
  TransparentPatterns {} {gsave 1 setgray fill grestore} ifelse
} def
%
% Substitute for Level 2 pattern fill codes with
% grayscale if Level 2 support is not selected.
%
/Level1PatternFill {
/Pattern1 {0.250 Density} bind def
/Pattern2 {0.500 Density} bind def
/Pattern3 {0.750 Density} bind def
/Pattern4 {0.125 Density} bind def
/Pattern5 {0.375 Density} bind def
/Pattern6 {0.625 Density} bind def
/Pattern7 {0.875 Density} bind def
} def
%
% Now test for support of Level 2 code
%
Level1 {Level1PatternFill} {Level2PatternFill} ifelse
%
/Symbol-Oblique /Symbol findfont [1 0 .167 1 0 0] makefont
dup length dict begin {1 index /FID eq {pop pop} {def} ifelse} forall
currentdict end definefont pop
%
/Metrics {ExtendTextBox Gswidth} def
/Lwidth {currentpoint stroke M 0 vshift R Metrics} def
/Rwidth {currentpoint stroke M dup stringwidth pop neg vshift R Metrics} def
/Cwidth {currentpoint stroke M dup stringwidth pop -2 div vshift R Metrics} def
/GLwidth {currentpoint stroke M 0 vshift R {ExtendTextBox} forall} def
/GRwidth {currentpoint stroke M dup Gwidth vshift R {ExtendTextBox} forall} def
/GCwidth {currentpoint stroke M dup Gwidth 2 div vshift R {ExtendTextBox} forall} def
/GLwidth2 {0 Gwidth AddGlyphWidth} def
/GRwidth2 {Gwidth -1 mul 0 AddGlyphWidth} def
/GCwidth2 {Gwidth 2 div dup -1 mul AddGlyphWidth} def
/AddGlyphWidth { dup TBx2 gt {userdict /TBx2 3 -1 roll put} {pop} ifelse
                 dup TBx1 lt {userdict /TBx1 3 -1 roll put} {pop} ifelse } def
/MFshow {
   { dup 5 get 3 ge
     { 5 get 3 eq {gsave} {grestore} ifelse }
     {dup dup 0 get findfont exch 1 get scalefont setfont
     [ currentpoint ] exch dup 2 get 0 exch R dup 5 get 2 ne {dup dup 6
     get exch 4 get {textshow} {Metrics pop 0 R} ifelse }if dup 5 get 0 eq
     {dup 3 get {2 get neg 0 exch R pop} {pop aload pop M} ifelse} {dup 5
     get 1 eq {dup 2 get exch dup 3 get exch 6 get Gswidth pop -2 div
     dup 0 R} {dup 6 get Gswidth pop -2 div 0 R 6 get
     textshow 2 index {aload pop M neg 3 -1 roll neg R pop pop} {pop pop pop
     pop aload pop M} ifelse }ifelse }ifelse }
     ifelse }
   forall} def
/Gswidth {dup type /stringtype eq {stringwidth} {pop (n) stringwidth} ifelse} def
/MFwidth {0 exch { dup 5 get 3 ge { 5 get 3 eq { 0 } { pop } ifelse }
 {dup 3 get{dup dup 0 get findfont exch 1 get scalefont setfont
     6 get Gswidth pop add} {pop} ifelse} ifelse} forall} def
/MLshow { currentpoint stroke M
  0 exch R
  Blacktext {gsave 0 setgray MFshow grestore} {MFshow} ifelse } bind def
/MRshow { currentpoint stroke M
  exch dup MFwidth neg 3 -1 roll R
  Blacktext {gsave 0 setgray MFshow grestore} {MFshow} ifelse } bind def
/MCshow { currentpoint stroke M
  exch dup MFwidth -2 div 3 -1 roll R
  Blacktext {gsave 0 setgray MFshow grestore} {MFshow} ifelse } bind def
/XYsave    { [( ) 1 2 true false 3 ()] } bind def
/XYrestore { [( ) 1 2 true false 4 ()] } bind def
Level1 SuppressPDFMark or 
{} {
/SDict 10 dict def
systemdict /pdfmark known not {
  userdict /pdfmark systemdict /cleartomark get put
} if
SDict begin [
  /Title (gnuplot_Zplt_XB.eps)
  /Subject (gnuplot plot)
  /Creator (gnuplot 5.2 patchlevel 2)
%  /Producer (gnuplot)
%  /Keywords ()
  /CreationDate (Fri Feb  4 10:35:36 2022)
  /DOCINFO pdfmark
end
} ifelse
%
% Support for boxed text - Ethan A Merritt Sep 2016
%
/InitTextBox { userdict /TBy2 3 -1 roll put userdict /TBx2 3 -1 roll put
           userdict /TBy1 3 -1 roll put userdict /TBx1 3 -1 roll put
	   /Boxing true def } def
/ExtendTextBox { dup type /stringtype eq
    { Boxing { gsave dup false charpath pathbbox
      dup TBy2 gt {userdict /TBy2 3 -1 roll put} {pop} ifelse
      dup TBx2 gt {userdict /TBx2 3 -1 roll put} {pop} ifelse
      dup TBy1 lt {userdict /TBy1 3 -1 roll put} {pop} ifelse
      dup TBx1 lt {userdict /TBx1 3 -1 roll put} {pop} ifelse
      grestore } if }
    {} ifelse} def
/PopTextBox { newpath TBx1 TBxmargin sub TBy1 TBymargin sub M
               TBx1 TBxmargin sub TBy2 TBymargin add L
	       TBx2 TBxmargin add TBy2 TBymargin add L
	       TBx2 TBxmargin add TBy1 TBymargin sub L closepath } def
/DrawTextBox { PopTextBox stroke /Boxing false def} def
/FillTextBox { gsave PopTextBox fill grestore /Boxing false def} def
0 0 0 0 InitTextBox
/TBxmargin 20 def
/TBymargin 20 def
/Boxing false def
/textshow { ExtendTextBox Gshow } def
%
end
%%EndProlog
%%Page: 1 1
gnudict begin
gsave
doclip
50 50 translate
0.050 0.050 scale
0 setgray
newpath
(Helvetica) findfont 140 scalefont setfont
BackgroundColor 0 lt 3 1 roll 0 lt exch 0 lt or or not {BackgroundColor C 1.000 0 0 7200.00 5040.00 BoxColFill} if
/Helvetica findfont 140 scalefont setfont
/vshift -46 def
1.000 UL
LTb
LCb setrgbcolor
1857 448 M
63 0 V
4108 0 R
-63 0 V
stroke
1773 448 M
[ [(Helvetica) 140.0 0.0 true true 0 ( 0)]
] -46.7 MRshow
1.000 UL
LTb
LCb setrgbcolor
1857 911 M
63 0 V
4108 0 R
-63 0 V
stroke
1773 911 M
[ [(Helvetica) 140.0 0.0 true true 0 ( 0.0005)]
] -46.7 MRshow
1.000 UL
LTb
LCb setrgbcolor
1857 1375 M
63 0 V
4108 0 R
-63 0 V
stroke
1773 1375 M
[ [(Helvetica) 140.0 0.0 true true 0 ( 0.001)]
] -46.7 MRshow
1.000 UL
LTb
LCb setrgbcolor
1857 1838 M
63 0 V
4108 0 R
-63 0 V
stroke
1773 1838 M
[ [(Helvetica) 140.0 0.0 true true 0 ( 0.0015)]
] -46.7 MRshow
1.000 UL
LTb
LCb setrgbcolor
1857 2302 M
63 0 V
4108 0 R
-63 0 V
stroke
1773 2302 M
[ [(Helvetica) 140.0 0.0 true true 0 ( 0.002)]
] -46.7 MRshow
1.000 UL
LTb
LCb setrgbcolor
1857 2765 M
63 0 V
4108 0 R
-63 0 V
stroke
1773 2765 M
[ [(Helvetica) 140.0 0.0 true true 0 ( 0.0025)]
] -46.7 MRshow
1.000 UL
LTb
LCb setrgbcolor
1857 3229 M
63 0 V
4108 0 R
-63 0 V
stroke
1773 3229 M
[ [(Helvetica) 140.0 0.0 true true 0 ( 0.003)]
] -46.7 MRshow
1.000 UL
LTb
LCb setrgbcolor
1857 3692 M
63 0 V
4108 0 R
-63 0 V
stroke
1773 3692 M
[ [(Helvetica) 140.0 0.0 true true 0 ( 0.0035)]
] -46.7 MRshow
1.000 UL
LTb
LCb setrgbcolor
1857 4156 M
63 0 V
4108 0 R
-63 0 V
stroke
1773 4156 M
[ [(Helvetica) 140.0 0.0 true true 0 ( 0.004)]
] -46.7 MRshow
1.000 UL
LTb
LCb setrgbcolor
1857 4619 M
63 0 V
4108 0 R
-63 0 V
stroke
1773 4619 M
[ [(Helvetica) 140.0 0.0 true true 0 ( 0.0045)]
] -46.7 MRshow
1.000 UL
LTb
LCb setrgbcolor
1857 448 M
0 63 V
0 4108 R
0 -63 V
stroke
1857 308 M
[ [(Helvetica) 140.0 0.0 true true 0 ( 0)]
] -46.7 MCshow
1.000 UL
LTb
LCb setrgbcolor
2320 448 M
0 63 V
0 4108 R
0 -63 V
stroke
2320 308 M
[ [(Helvetica) 140.0 0.0 true true 0 ( 0.1)]
] -46.7 MCshow
1.000 UL
LTb
LCb setrgbcolor
2784 448 M
0 63 V
0 4108 R
0 -63 V
stroke
2784 308 M
[ [(Helvetica) 140.0 0.0 true true 0 ( 0.2)]
] -46.7 MCshow
1.000 UL
LTb
LCb setrgbcolor
3247 448 M
0 63 V
0 4108 R
0 -63 V
stroke
3247 308 M
[ [(Helvetica) 140.0 0.0 true true 0 ( 0.3)]
] -46.7 MCshow
1.000 UL
LTb
LCb setrgbcolor
3711 448 M
0 63 V
0 4108 R
0 -63 V
stroke
3711 308 M
[ [(Helvetica) 140.0 0.0 true true 0 ( 0.4)]
] -46.7 MCshow
1.000 UL
LTb
LCb setrgbcolor
4174 448 M
0 63 V
0 4108 R
0 -63 V
stroke
4174 308 M
[ [(Helvetica) 140.0 0.0 true true 0 ( 0.5)]
] -46.7 MCshow
1.000 UL
LTb
LCb setrgbcolor
4638 448 M
0 63 V
0 4108 R
0 -63 V
stroke
4638 308 M
[ [(Helvetica) 140.0 0.0 true true 0 ( 0.6)]
] -46.7 MCshow
1.000 UL
LTb
LCb setrgbcolor
5101 448 M
0 63 V
0 4108 R
0 -63 V
stroke
5101 308 M
[ [(Helvetica) 140.0 0.0 true true 0 ( 0.7)]
] -46.7 MCshow
1.000 UL
LTb
LCb setrgbcolor
5565 448 M
0 63 V
0 4108 R
0 -63 V
stroke
5565 308 M
[ [(Helvetica) 140.0 0.0 true true 0 ( 0.8)]
] -46.7 MCshow
1.000 UL
LTb
LCb setrgbcolor
6028 448 M
0 63 V
0 4108 R
0 -63 V
stroke
6028 308 M
[ [(Helvetica) 140.0 0.0 true true 0 ( 0.9)]
] -46.7 MCshow
1.000 UL
LTb
LCb setrgbcolor
1.000 UL
LTB
LCb setrgbcolor
1857 4619 N
0 -4171 V
4171 0 V
0 4171 V
-4171 0 V
Z stroke
1.000 UP
1.000 UL
LTb
LCb setrgbcolor
LCb setrgbcolor
1045 2533 M
currentpoint gsave translate -270 rotate 0 0 moveto
[ [(Helvetica) 140.0 0.0 true true 0 (B  [T])]
] -46.7 MCshow
grestore
LTb
LCb setrgbcolor
3942 98 M
[ [(Helvetica) 140.0 0.0 true true 0 (X  [m])]
] -46.7 MCshow
LTb
LCb setrgbcolor
3942 4829 M
[ [(Helvetica) 140.0 0.0 true true 0 (Plotted from file zgoubi.plt)]
] -46.7 MCshow
% Begin plot #1
0.400 UP
1.000 UL
LTb
0.58 0.00 0.83 C /Helvetica findfont 140 scalefont setfont
LCb setrgbcolor
5377 4486 M
('zgoubi.plt' u \($22 *cm2m\):\($25 *kG2T\)) Rshow
0.400 UP
1.000 UL
LTb
0.58 0.00 0.83 C 5461 4486 M
399 0 V
1857 448 M
19 0 V
18 0 V
19 0 V
18 0 V
19 0 V
18 0 V
19 0 V
18 0 V
19 0 V
18 0 V
19 0 V
18 0 V
19 0 V
19 0 V
18 0 V
19 0 V
18 1 V
19 0 V
18 1 V
19 2 V
18 2 V
19 3 V
18 5 V
19 6 V
18 9 V
19 11 V
19 15 V
18 18 V
19 23 V
18 27 V
19 31 V
18 37 V
19 41 V
18 46 V
19 51 V
18 55 V
19 60 V
18 64 V
19 68 V
19 72 V
18 76 V
19 80 V
18 85 V
19 90 V
18 96 V
19 102 V
18 109 V
19 117 V
18 125 V
19 134 V
18 144 V
19 152 V
19 160 V
18 166 V
19 171 V
18 171 V
19 169 V
18 162 V
19 150 V
18 137 V
19 119 V
18 101 V
19 83 V
18 65 V
19 50 V
18 37 V
19 27 V
19 18 V
18 12 V
19 8 V
18 5 V
19 3 V
18 2 V
19 1 V
18 0 V
19 1 V
18 0 V
19 0 V
18 0 V
19 0 V
19 0 V
18 0 V
19 0 V
18 0 V
19 0 V
18 0 V
19 0 V
18 0 V
19 0 V
18 0 V
19 0 V
18 0 V
19 0 V
19 0 V
18 0 V
19 0 V
18 0 V
19 0 V
18 0 V
19 0 V
18 0 V
19 0 V
18 0 V
19 0 V
18 0 V
19 0 V
19 0 V
18 0 V
19 0 V
18 0 V
19 0 V
18 0 V
19 0 V
18 0 V
19 0 V
18 0 V
19 0 V
18 0 V
19 0 V
19 0 V
18 0 V
19 0 V
18 0 V
19 0 V
18 0 V
19 0 V
18 0 V
19 0 V
18 0 V
19 0 V
18 0 V
19 0 V
19 0 V
18 0 V
19 0 V
18 0 V
19 0 V
18 0 V
19 0 V
18 0 V
19 0 V
18 0 V
19 0 V
18 0 V
19 0 V
19 0 V
18 0 V
19 0 V
18 0 V
19 -1 V
18 0 V
19 -1 V
18 -2 V
19 -3 V
18 -5 V
19 -8 V
18 -12 V
19 -18 V
19 -27 V
18 -37 V
19 -50 V
18 -65 V
19 -83 V
18 -101 V
19 -119 V
18 -137 V
19 -150 V
18 -162 V
19 -169 V
18 -171 V
19 -171 V
18 -166 V
19 -160 V
19 -152 V
18 -144 V
19 -134 V
18 -125 V
19 -117 V
18 -109 V
19 -102 V
18 -96 V
19 -90 V
18 -85 V
19 -80 V
18 -76 V
19 -72 V
19 -68 V
18 -64 V
19 -60 V
18 -55 V
19 -51 V
18 -46 V
19 -41 V
18 -37 V
19 -31 V
18 -27 V
19 -23 V
18 -18 V
19 -15 V
19 -11 V
18 -9 V
19 -6 V
18 -5 V
19 -3 V
18 -2 V
19 -2 V
18 -1 V
19 0 V
18 -1 V
19 0 V
18 0 V
19 0 V
19 0 V
18 0 V
19 0 V
18 0 V
19 0 V
18 0 V
19 0 V
18 0 V
19 0 V
18 0 V
19 0 V
18 0 V
19 0 V
-4171 0 V
19 0 V
18 0 V
19 0 V
18 0 V
19 0 V
18 0 V
19 0 V
18 0 V
19 0 V
18 0 V
19 0 V
18 0 V
19 0 V
19 0 V
18 0 V
19 0 V
18 1 V
19 0 V
18 1 V
19 2 V
18 2 V
stroke 2246 454 M
19 3 V
18 5 V
19 6 V
18 9 V
19 11 V
19 15 V
18 18 V
19 23 V
18 27 V
19 31 V
18 37 V
19 41 V
18 46 V
19 51 V
18 55 V
19 60 V
18 64 V
19 68 V
19 72 V
18 76 V
19 80 V
18 85 V
19 90 V
18 96 V
19 102 V
18 109 V
19 117 V
18 125 V
19 134 V
18 144 V
19 152 V
19 160 V
18 166 V
19 171 V
18 171 V
19 169 V
18 162 V
19 150 V
18 137 V
19 119 V
18 101 V
19 83 V
18 65 V
19 50 V
18 37 V
19 27 V
19 18 V
18 12 V
19 8 V
18 5 V
19 3 V
18 2 V
19 1 V
18 0 V
19 1 V
18 0 V
19 0 V
18 0 V
19 0 V
19 0 V
18 0 V
19 0 V
18 0 V
19 0 V
18 0 V
19 0 V
18 0 V
19 0 V
18 0 V
19 0 V
18 0 V
19 0 V
19 0 V
18 0 V
19 0 V
18 0 V
19 0 V
18 0 V
19 0 V
18 0 V
19 0 V
18 0 V
19 0 V
18 0 V
19 0 V
19 0 V
18 0 V
19 0 V
18 0 V
19 0 V
18 0 V
19 0 V
18 0 V
19 0 V
18 0 V
19 0 V
18 0 V
19 0 V
19 0 V
18 0 V
19 0 V
18 0 V
19 0 V
18 0 V
19 0 V
18 0 V
19 0 V
18 0 V
19 0 V
18 0 V
19 0 V
19 0 V
18 0 V
19 0 V
18 0 V
19 0 V
18 0 V
19 0 V
18 0 V
19 0 V
18 0 V
19 0 V
18 0 V
19 0 V
19 0 V
18 0 V
19 0 V
18 0 V
19 -1 V
18 0 V
19 -1 V
18 -2 V
19 -3 V
18 -5 V
19 -8 V
18 -12 V
19 -18 V
19 -27 V
18 -37 V
19 -50 V
18 -65 V
19 -83 V
18 -101 V
19 -119 V
18 -137 V
19 -150 V
18 -162 V
19 -169 V
18 -171 V
19 -171 V
18 -166 V
19 -160 V
19 -152 V
18 -144 V
19 -134 V
18 -125 V
19 -117 V
18 -109 V
19 -102 V
18 -96 V
19 -90 V
18 -85 V
19 -80 V
18 -76 V
19 -72 V
19 -68 V
18 -64 V
19 -60 V
18 -55 V
19 -51 V
18 -46 V
19 -41 V
18 -37 V
19 -31 V
18 -27 V
19 -23 V
18 -18 V
19 -15 V
19 -11 V
18 -9 V
19 -6 V
18 -5 V
19 -3 V
18 -2 V
19 -2 V
18 -1 V
19 0 V
18 -1 V
19 0 V
18 0 V
19 0 V
19 0 V
18 0 V
19 0 V
18 0 V
19 0 V
18 0 V
19 0 V
18 0 V
19 0 V
18 0 V
19 0 V
18 0 V
19 0 V
-4171 0 V
19 0 V
18 0 V
19 0 V
18 0 V
19 0 V
18 0 V
19 0 V
18 0 V
19 0 V
18 0 V
19 0 V
18 0 V
19 0 V
19 0 V
18 0 V
19 0 V
18 1 V
19 0 V
18 1 V
19 2 V
18 2 V
19 3 V
18 5 V
19 6 V
18 9 V
19 11 V
19 15 V
18 18 V
19 23 V
18 27 V
19 31 V
18 37 V
19 41 V
18 46 V
19 51 V
18 55 V
19 60 V
18 64 V
19 68 V
19 72 V
18 76 V
19 80 V
18 85 V
19 90 V
stroke 2673 1427 M
18 96 V
19 102 V
18 109 V
19 117 V
18 125 V
19 134 V
18 144 V
19 152 V
19 160 V
18 166 V
19 171 V
18 171 V
19 169 V
18 162 V
19 150 V
18 137 V
19 119 V
18 101 V
19 83 V
18 65 V
19 50 V
18 37 V
19 27 V
19 18 V
18 12 V
19 8 V
18 5 V
19 3 V
18 2 V
19 1 V
18 0 V
19 1 V
18 0 V
19 0 V
18 0 V
19 0 V
19 0 V
18 0 V
19 0 V
18 0 V
19 0 V
18 0 V
19 0 V
18 0 V
19 0 V
18 0 V
19 0 V
18 0 V
19 0 V
19 0 V
18 0 V
19 0 V
18 0 V
19 0 V
18 0 V
19 0 V
18 0 V
19 0 V
18 0 V
19 0 V
18 0 V
19 0 V
19 0 V
18 0 V
19 0 V
18 0 V
19 0 V
18 0 V
19 0 V
18 0 V
19 0 V
18 0 V
19 0 V
18 0 V
19 0 V
19 0 V
18 0 V
19 0 V
18 0 V
19 0 V
18 0 V
19 0 V
18 0 V
19 0 V
18 0 V
19 0 V
18 0 V
19 0 V
19 0 V
18 0 V
19 0 V
18 0 V
19 0 V
18 0 V
19 0 V
18 0 V
19 0 V
18 0 V
19 0 V
18 0 V
19 0 V
19 0 V
18 0 V
19 0 V
18 0 V
19 -1 V
18 0 V
19 -1 V
18 -2 V
19 -3 V
18 -5 V
19 -8 V
18 -12 V
19 -18 V
19 -27 V
18 -37 V
19 -50 V
18 -65 V
19 -83 V
18 -101 V
19 -119 V
18 -137 V
19 -150 V
18 -162 V
19 -169 V
18 -171 V
19 -171 V
18 -166 V
19 -160 V
19 -152 V
18 -144 V
19 -134 V
18 -125 V
19 -117 V
18 -109 V
19 -102 V
18 -96 V
19 -90 V
18 -85 V
19 -80 V
18 -76 V
19 -72 V
19 -68 V
18 -64 V
19 -60 V
18 -55 V
19 -51 V
18 -46 V
19 -41 V
18 -37 V
19 -31 V
18 -27 V
19 -23 V
18 -18 V
19 -15 V
19 -11 V
18 -9 V
19 -6 V
18 -5 V
19 -3 V
18 -2 V
19 -2 V
18 -1 V
19 0 V
18 -1 V
19 0 V
18 0 V
19 0 V
19 0 V
18 0 V
19 0 V
18 0 V
19 0 V
18 0 V
19 0 V
18 0 V
19 0 V
18 0 V
19 0 V
18 0 V
19 0 V
-4171 0 V
19 0 V
18 0 V
19 0 V
18 0 V
19 0 V
18 0 V
19 0 V
18 0 V
19 0 V
18 0 V
19 0 V
18 0 V
19 0 V
19 0 V
18 0 V
19 0 V
18 1 V
19 0 V
18 1 V
19 2 V
18 2 V
19 3 V
18 5 V
19 6 V
18 9 V
19 11 V
19 15 V
18 18 V
19 23 V
18 27 V
19 31 V
18 37 V
19 41 V
18 46 V
19 51 V
18 55 V
19 60 V
18 64 V
19 68 V
19 72 V
18 76 V
19 80 V
18 85 V
19 90 V
18 96 V
19 102 V
18 109 V
19 117 V
18 125 V
19 134 V
18 144 V
19 152 V
19 160 V
18 166 V
19 171 V
18 171 V
19 169 V
18 161 V
19 151 V
18 137 V
19 119 V
18 101 V
19 83 V
18 65 V
19 50 V
18 37 V
19 27 V
stroke 3099 4174 M
19 18 V
18 12 V
19 8 V
18 5 V
19 3 V
18 2 V
19 1 V
18 0 V
19 0 V
18 1 V
19 0 V
18 0 V
19 0 V
19 0 V
18 0 V
19 0 V
18 0 V
19 0 V
18 0 V
19 0 V
18 0 V
19 0 V
18 0 V
19 0 V
18 0 V
19 0 V
19 0 V
18 0 V
19 0 V
18 0 V
19 0 V
18 0 V
19 0 V
18 0 V
19 0 V
18 0 V
19 0 V
18 0 V
19 0 V
19 0 V
18 0 V
19 0 V
18 0 V
19 0 V
18 0 V
19 0 V
18 0 V
19 0 V
18 0 V
19 0 V
18 0 V
19 0 V
19 0 V
18 0 V
19 0 V
18 0 V
19 0 V
18 0 V
19 0 V
18 0 V
19 0 V
18 0 V
19 0 V
18 0 V
19 0 V
19 0 V
18 0 V
19 0 V
18 0 V
19 0 V
18 0 V
19 0 V
18 0 V
19 0 V
18 0 V
19 0 V
18 0 V
19 0 V
19 0 V
18 0 V
19 0 V
18 -1 V
19 0 V
18 0 V
19 -1 V
18 -2 V
19 -3 V
18 -5 V
19 -8 V
18 -12 V
19 -18 V
19 -27 V
18 -37 V
19 -50 V
18 -65 V
19 -83 V
18 -101 V
19 -119 V
18 -137 V
19 -151 V
18 -161 V
19 -169 V
18 -171 V
19 -171 V
18 -166 V
19 -160 V
19 -152 V
18 -144 V
19 -134 V
18 -125 V
19 -117 V
18 -109 V
19 -102 V
18 -96 V
19 -90 V
18 -85 V
19 -80 V
18 -76 V
19 -72 V
19 -68 V
18 -64 V
19 -60 V
18 -55 V
19 -51 V
18 -46 V
19 -41 V
18 -37 V
19 -31 V
18 -27 V
19 -23 V
18 -18 V
19 -15 V
19 -11 V
18 -9 V
19 -6 V
18 -5 V
19 -3 V
18 -2 V
19 -2 V
18 -1 V
19 0 V
18 -1 V
19 0 V
18 0 V
19 0 V
19 0 V
18 0 V
19 0 V
18 0 V
19 0 V
18 0 V
19 0 V
18 0 V
19 0 V
18 0 V
19 0 V
18 0 V
19 0 V
-4171 0 V
19 0 V
18 0 V
19 0 V
18 0 V
19 0 V
18 0 V
19 0 V
18 0 V
19 0 V
18 0 V
19 0 V
18 0 V
19 0 V
19 0 V
18 0 V
19 0 V
18 1 V
19 0 V
18 1 V
19 2 V
18 2 V
19 3 V
18 5 V
19 6 V
18 9 V
19 11 V
19 15 V
18 18 V
19 23 V
18 27 V
19 31 V
18 37 V
19 41 V
18 46 V
19 51 V
18 55 V
19 60 V
18 64 V
19 68 V
19 72 V
18 76 V
19 80 V
18 85 V
19 90 V
18 96 V
19 102 V
18 109 V
19 117 V
18 125 V
19 134 V
18 144 V
19 152 V
19 160 V
18 166 V
19 171 V
18 171 V
19 169 V
18 161 V
19 151 V
18 137 V
19 119 V
18 101 V
19 83 V
18 65 V
19 50 V
18 37 V
19 27 V
19 18 V
18 12 V
19 8 V
18 5 V
19 3 V
18 2 V
19 1 V
18 0 V
19 0 V
18 1 V
19 0 V
18 0 V
19 0 V
19 0 V
18 0 V
19 0 V
18 0 V
19 0 V
18 0 V
19 0 V
18 0 V
19 0 V
18 0 V
stroke 3525 4224 M
19 0 V
18 0 V
19 0 V
19 0 V
18 0 V
19 0 V
18 0 V
19 0 V
18 0 V
19 0 V
18 0 V
19 0 V
18 0 V
19 0 V
18 0 V
19 0 V
19 0 V
18 0 V
19 0 V
18 0 V
19 0 V
18 0 V
19 0 V
18 0 V
19 0 V
18 0 V
19 0 V
18 0 V
19 0 V
19 0 V
18 0 V
19 0 V
18 0 V
19 0 V
18 0 V
19 0 V
18 0 V
19 0 V
18 0 V
19 0 V
18 0 V
19 0 V
19 0 V
18 0 V
19 0 V
18 0 V
19 0 V
18 0 V
19 0 V
18 0 V
19 0 V
18 0 V
19 0 V
18 0 V
19 0 V
19 0 V
18 0 V
19 0 V
18 -1 V
19 0 V
18 0 V
19 -1 V
18 -2 V
19 -3 V
18 -5 V
19 -8 V
18 -12 V
19 -18 V
19 -27 V
18 -37 V
19 -50 V
18 -65 V
19 -83 V
18 -101 V
19 -119 V
18 -137 V
19 -151 V
18 -161 V
19 -169 V
18 -171 V
19 -171 V
18 -166 V
19 -160 V
19 -152 V
18 -144 V
19 -134 V
18 -125 V
19 -117 V
18 -109 V
19 -102 V
18 -96 V
19 -90 V
18 -85 V
19 -80 V
18 -76 V
19 -72 V
19 -68 V
18 -64 V
19 -60 V
18 -55 V
19 -51 V
18 -46 V
19 -41 V
18 -37 V
19 -31 V
18 -27 V
19 -23 V
18 -18 V
19 -15 V
19 -11 V
18 -9 V
19 -6 V
18 -5 V
19 -3 V
18 -2 V
19 -2 V
18 -1 V
19 0 V
18 -1 V
19 0 V
18 0 V
19 0 V
19 0 V
18 0 V
19 0 V
18 0 V
19 0 V
18 0 V
19 0 V
18 0 V
19 0 V
18 0 V
19 0 V
18 0 V
19 0 V
-4171 0 V
19 0 V
18 0 V
19 0 V
18 0 V
19 0 V
18 0 V
19 0 V
18 0 V
19 0 V
18 0 V
19 0 V
18 0 V
19 0 V
19 0 V
18 0 V
19 0 V
18 1 V
19 0 V
18 1 V
19 2 V
18 2 V
19 3 V
18 5 V
19 6 V
18 9 V
19 11 V
19 15 V
18 18 V
19 23 V
18 27 V
19 31 V
18 37 V
19 41 V
18 46 V
19 51 V
18 55 V
19 60 V
18 64 V
19 68 V
19 72 V
18 76 V
19 80 V
18 85 V
19 90 V
18 96 V
19 102 V
18 109 V
19 117 V
18 125 V
19 134 V
18 144 V
19 152 V
19 160 V
18 166 V
19 171 V
18 171 V
19 169 V
18 161 V
19 151 V
18 137 V
19 119 V
18 101 V
19 83 V
18 65 V
19 50 V
18 37 V
19 27 V
19 18 V
18 12 V
19 8 V
18 5 V
19 3 V
18 2 V
19 1 V
18 0 V
19 0 V
18 1 V
19 0 V
18 0 V
19 0 V
19 0 V
18 0 V
19 0 V
18 0 V
19 0 V
18 0 V
19 0 V
18 0 V
19 0 V
18 0 V
19 0 V
18 0 V
19 0 V
19 0 V
18 0 V
19 0 V
18 0 V
19 0 V
18 0 V
19 0 V
18 0 V
19 0 V
18 0 V
19 0 V
18 0 V
19 0 V
19 0 V
18 0 V
19 0 V
18 0 V
19 0 V
18 0 V
19 0 V
stroke 3952 4224 M
18 0 V
19 0 V
18 0 V
19 0 V
18 0 V
19 0 V
19 0 V
18 0 V
19 0 V
18 0 V
19 0 V
18 0 V
19 0 V
18 0 V
19 0 V
18 0 V
19 0 V
18 0 V
19 0 V
19 0 V
18 0 V
19 0 V
18 0 V
19 0 V
18 0 V
19 0 V
18 0 V
19 0 V
18 0 V
19 0 V
18 0 V
19 0 V
19 0 V
18 0 V
19 0 V
18 -1 V
19 0 V
18 0 V
19 -1 V
18 -2 V
19 -3 V
18 -5 V
19 -8 V
18 -12 V
19 -18 V
19 -27 V
18 -37 V
19 -50 V
18 -65 V
19 -83 V
18 -101 V
19 -119 V
18 -137 V
19 -151 V
18 -161 V
19 -169 V
18 -171 V
19 -171 V
18 -166 V
19 -160 V
19 -152 V
18 -144 V
19 -134 V
18 -125 V
19 -117 V
18 -109 V
19 -102 V
18 -96 V
19 -90 V
18 -85 V
19 -80 V
18 -76 V
19 -72 V
19 -68 V
18 -64 V
19 -60 V
18 -55 V
19 -51 V
18 -46 V
19 -41 V
18 -37 V
19 -31 V
18 -27 V
19 -23 V
18 -18 V
19 -15 V
19 -11 V
18 -9 V
19 -6 V
18 -5 V
19 -3 V
18 -2 V
19 -2 V
18 -1 V
19 0 V
18 -1 V
19 0 V
18 0 V
19 0 V
19 0 V
18 0 V
19 0 V
18 0 V
19 0 V
18 0 V
19 0 V
18 0 V
19 0 V
18 0 V
19 0 V
18 0 V
19 0 V
1857 448 BoxF
1876 448 BoxF
1894 448 BoxF
1913 448 BoxF
1931 448 BoxF
1950 448 BoxF
1968 448 BoxF
1987 448 BoxF
2005 448 BoxF
2024 448 BoxF
2042 448 BoxF
2061 448 BoxF
2079 448 BoxF
2098 448 BoxF
2117 448 BoxF
2135 448 BoxF
2154 448 BoxF
2172 449 BoxF
2191 449 BoxF
2209 450 BoxF
2228 452 BoxF
2246 454 BoxF
2265 457 BoxF
2283 462 BoxF
2302 468 BoxF
2320 477 BoxF
2339 488 BoxF
2358 503 BoxF
2376 521 BoxF
2395 544 BoxF
2413 571 BoxF
2432 602 BoxF
2450 639 BoxF
2469 680 BoxF
2487 726 BoxF
2506 777 BoxF
2524 832 BoxF
2543 892 BoxF
2561 956 BoxF
2580 1024 BoxF
2599 1096 BoxF
2617 1172 BoxF
2636 1252 BoxF
2654 1337 BoxF
2673 1427 BoxF
2691 1523 BoxF
2710 1625 BoxF
2728 1734 BoxF
2747 1851 BoxF
2765 1976 BoxF
2784 2110 BoxF
2802 2254 BoxF
2821 2406 BoxF
2840 2566 BoxF
2858 2732 BoxF
2877 2903 BoxF
2895 3074 BoxF
2914 3243 BoxF
2932 3405 BoxF
2951 3555 BoxF
2969 3692 BoxF
2988 3811 BoxF
3006 3912 BoxF
3025 3995 BoxF
3043 4060 BoxF
3062 4110 BoxF
3080 4147 BoxF
3099 4174 BoxF
3118 4192 BoxF
3136 4204 BoxF
3155 4212 BoxF
3173 4217 BoxF
3192 4220 BoxF
3210 4222 BoxF
3229 4223 BoxF
3247 4223 BoxF
3266 4224 BoxF
3284 4224 BoxF
3303 4224 BoxF
3321 4224 BoxF
3340 4224 BoxF
3359 4224 BoxF
3377 4224 BoxF
3396 4224 BoxF
3414 4224 BoxF
3433 4224 BoxF
3451 4224 BoxF
3470 4224 BoxF
3488 4224 BoxF
3507 4224 BoxF
3525 4224 BoxF
3544 4224 BoxF
3562 4224 BoxF
3581 4224 BoxF
3600 4224 BoxF
3618 4224 BoxF
3637 4224 BoxF
3655 4224 BoxF
3674 4224 BoxF
3692 4224 BoxF
3711 4224 BoxF
3729 4224 BoxF
3748 4224 BoxF
3766 4224 BoxF
3785 4224 BoxF
3803 4224 BoxF
3822 4224 BoxF
3841 4224 BoxF
3859 4224 BoxF
3878 4224 BoxF
3896 4224 BoxF
3915 4224 BoxF
3933 4224 BoxF
3952 4224 BoxF
3970 4224 BoxF
3989 4224 BoxF
4007 4224 BoxF
4026 4224 BoxF
4044 4224 BoxF
4063 4224 BoxF
4082 4224 BoxF
4100 4224 BoxF
4119 4224 BoxF
4137 4224 BoxF
4156 4224 BoxF
4174 4224 BoxF
4193 4224 BoxF
4211 4224 BoxF
4230 4224 BoxF
4248 4224 BoxF
4267 4224 BoxF
4285 4224 BoxF
4304 4224 BoxF
4323 4224 BoxF
4341 4224 BoxF
4360 4224 BoxF
4378 4224 BoxF
4397 4224 BoxF
4415 4224 BoxF
4434 4224 BoxF
4452 4224 BoxF
4471 4224 BoxF
4489 4224 BoxF
4508 4224 BoxF
4526 4224 BoxF
4545 4224 BoxF
4564 4224 BoxF
4582 4224 BoxF
4601 4224 BoxF
4619 4224 BoxF
4638 4223 BoxF
4656 4223 BoxF
4675 4222 BoxF
4693 4220 BoxF
4712 4217 BoxF
4730 4212 BoxF
4749 4204 BoxF
4767 4192 BoxF
4786 4174 BoxF
4805 4147 BoxF
4823 4110 BoxF
4842 4060 BoxF
4860 3995 BoxF
4879 3912 BoxF
4897 3811 BoxF
4916 3692 BoxF
4934 3555 BoxF
4953 3405 BoxF
4971 3243 BoxF
4990 3074 BoxF
5008 2903 BoxF
5027 2732 BoxF
5045 2566 BoxF
5064 2406 BoxF
5083 2254 BoxF
5101 2110 BoxF
5120 1976 BoxF
5138 1851 BoxF
5157 1734 BoxF
5175 1625 BoxF
5194 1523 BoxF
5212 1427 BoxF
5231 1337 BoxF
5249 1252 BoxF
5268 1172 BoxF
5286 1096 BoxF
5305 1024 BoxF
5324 956 BoxF
5342 892 BoxF
5361 832 BoxF
5379 777 BoxF
5398 726 BoxF
5416 680 BoxF
5435 639 BoxF
5453 602 BoxF
5472 571 BoxF
5490 544 BoxF
5509 521 BoxF
5527 503 BoxF
5546 488 BoxF
5565 477 BoxF
5583 468 BoxF
5602 462 BoxF
5620 457 BoxF
5639 454 BoxF
5657 452 BoxF
5676 450 BoxF
5694 449 BoxF
5713 449 BoxF
5731 448 BoxF
5750 448 BoxF
5768 448 BoxF
5787 448 BoxF
5806 448 BoxF
5824 448 BoxF
5843 448 BoxF
5861 448 BoxF
5880 448 BoxF
5898 448 BoxF
5917 448 BoxF
5935 448 BoxF
5954 448 BoxF
5972 448 BoxF
5991 448 BoxF
6009 448 BoxF
6028 448 BoxF
1857 448 BoxF
1876 448 BoxF
1894 448 BoxF
1913 448 BoxF
1931 448 BoxF
1950 448 BoxF
1968 448 BoxF
1987 448 BoxF
2005 448 BoxF
2024 448 BoxF
2042 448 BoxF
2061 448 BoxF
2079 448 BoxF
2098 448 BoxF
2117 448 BoxF
2135 448 BoxF
2154 448 BoxF
2172 449 BoxF
2191 449 BoxF
2209 450 BoxF
2228 452 BoxF
2246 454 BoxF
2265 457 BoxF
2283 462 BoxF
2302 468 BoxF
2320 477 BoxF
2339 488 BoxF
2358 503 BoxF
2376 521 BoxF
2395 544 BoxF
2413 571 BoxF
2432 602 BoxF
2450 639 BoxF
2469 680 BoxF
2487 726 BoxF
2506 777 BoxF
2524 832 BoxF
2543 892 BoxF
2561 956 BoxF
2580 1024 BoxF
2599 1096 BoxF
2617 1172 BoxF
2636 1252 BoxF
2654 1337 BoxF
2673 1427 BoxF
2691 1523 BoxF
2710 1625 BoxF
2728 1734 BoxF
2747 1851 BoxF
2765 1976 BoxF
2784 2110 BoxF
2802 2254 BoxF
2821 2406 BoxF
2840 2566 BoxF
2858 2732 BoxF
2877 2903 BoxF
2895 3074 BoxF
2914 3243 BoxF
2932 3405 BoxF
2951 3555 BoxF
2969 3692 BoxF
2988 3811 BoxF
3006 3912 BoxF
3025 3995 BoxF
3043 4060 BoxF
3062 4110 BoxF
3080 4147 BoxF
3099 4174 BoxF
3118 4192 BoxF
3136 4204 BoxF
3155 4212 BoxF
3173 4217 BoxF
3192 4220 BoxF
3210 4222 BoxF
3229 4223 BoxF
3247 4223 BoxF
3266 4224 BoxF
3284 4224 BoxF
3303 4224 BoxF
3321 4224 BoxF
3340 4224 BoxF
3359 4224 BoxF
3377 4224 BoxF
3396 4224 BoxF
3414 4224 BoxF
3433 4224 BoxF
3451 4224 BoxF
3470 4224 BoxF
3488 4224 BoxF
3507 4224 BoxF
3525 4224 BoxF
3544 4224 BoxF
3562 4224 BoxF
3581 4224 BoxF
3600 4224 BoxF
3618 4224 BoxF
3637 4224 BoxF
3655 4224 BoxF
3674 4224 BoxF
3692 4224 BoxF
3711 4224 BoxF
3729 4224 BoxF
3748 4224 BoxF
3766 4224 BoxF
3785 4224 BoxF
3803 4224 BoxF
3822 4224 BoxF
3841 4224 BoxF
3859 4224 BoxF
3878 4224 BoxF
3896 4224 BoxF
3915 4224 BoxF
3933 4224 BoxF
3952 4224 BoxF
3970 4224 BoxF
3989 4224 BoxF
4007 4224 BoxF
4026 4224 BoxF
4044 4224 BoxF
4063 4224 BoxF
4082 4224 BoxF
4100 4224 BoxF
4119 4224 BoxF
4137 4224 BoxF
4156 4224 BoxF
4174 4224 BoxF
4193 4224 BoxF
4211 4224 BoxF
4230 4224 BoxF
4248 4224 BoxF
4267 4224 BoxF
4285 4224 BoxF
4304 4224 BoxF
4323 4224 BoxF
4341 4224 BoxF
4360 4224 BoxF
4378 4224 BoxF
4397 4224 BoxF
4415 4224 BoxF
4434 4224 BoxF
4452 4224 BoxF
4471 4224 BoxF
4489 4224 BoxF
4508 4224 BoxF
4526 4224 BoxF
4545 4224 BoxF
4564 4224 BoxF
4582 4224 BoxF
4601 4224 BoxF
4619 4224 BoxF
4638 4223 BoxF
4656 4223 BoxF
4675 4222 BoxF
4693 4220 BoxF
4712 4217 BoxF
4730 4212 BoxF
4749 4204 BoxF
4767 4192 BoxF
4786 4174 BoxF
4805 4147 BoxF
4823 4110 BoxF
4842 4060 BoxF
4860 3995 BoxF
4879 3912 BoxF
4897 3811 BoxF
4916 3692 BoxF
4934 3555 BoxF
4953 3405 BoxF
4971 3243 BoxF
4990 3074 BoxF
5008 2903 BoxF
5027 2732 BoxF
5045 2566 BoxF
5064 2406 BoxF
5083 2254 BoxF
5101 2110 BoxF
5120 1976 BoxF
5138 1851 BoxF
5157 1734 BoxF
5175 1625 BoxF
5194 1523 BoxF
5212 1427 BoxF
5231 1337 BoxF
5249 1252 BoxF
5268 1172 BoxF
5286 1096 BoxF
5305 1024 BoxF
5324 956 BoxF
5342 892 BoxF
5361 832 BoxF
5379 777 BoxF
5398 726 BoxF
5416 680 BoxF
5435 639 BoxF
5453 602 BoxF
5472 571 BoxF
5490 544 BoxF
5509 521 BoxF
5527 503 BoxF
5546 488 BoxF
5565 477 BoxF
5583 468 BoxF
5602 462 BoxF
5620 457 BoxF
5639 454 BoxF
5657 452 BoxF
5676 450 BoxF
5694 449 BoxF
5713 449 BoxF
5731 448 BoxF
5750 448 BoxF
5768 448 BoxF
5787 448 BoxF
5806 448 BoxF
5824 448 BoxF
5843 448 BoxF
5861 448 BoxF
5880 448 BoxF
5898 448 BoxF
5917 448 BoxF
5935 448 BoxF
5954 448 BoxF
5972 448 BoxF
5991 448 BoxF
6009 448 BoxF
6028 448 BoxF
1857 448 BoxF
1876 448 BoxF
1894 448 BoxF
1913 448 BoxF
1931 448 BoxF
1950 448 BoxF
1968 448 BoxF
1987 448 BoxF
2005 448 BoxF
2024 448 BoxF
2042 448 BoxF
2061 448 BoxF
2079 448 BoxF
2098 448 BoxF
2117 448 BoxF
2135 448 BoxF
2154 448 BoxF
2172 449 BoxF
2191 449 BoxF
2209 450 BoxF
2228 452 BoxF
2246 454 BoxF
2265 457 BoxF
2283 462 BoxF
2302 468 BoxF
2320 477 BoxF
2339 488 BoxF
2358 503 BoxF
2376 521 BoxF
2395 544 BoxF
2413 571 BoxF
2432 602 BoxF
2450 639 BoxF
2469 680 BoxF
2487 726 BoxF
2506 777 BoxF
2524 832 BoxF
2543 892 BoxF
2561 956 BoxF
2580 1024 BoxF
2599 1096 BoxF
2617 1172 BoxF
2636 1252 BoxF
2654 1337 BoxF
2673 1427 BoxF
2691 1523 BoxF
2710 1625 BoxF
2728 1734 BoxF
2747 1851 BoxF
2765 1976 BoxF
2784 2110 BoxF
2802 2254 BoxF
2821 2406 BoxF
2840 2566 BoxF
2858 2732 BoxF
2877 2903 BoxF
2895 3074 BoxF
2914 3243 BoxF
2932 3405 BoxF
2951 3555 BoxF
2969 3692 BoxF
2988 3811 BoxF
3006 3912 BoxF
3025 3995 BoxF
3043 4060 BoxF
3062 4110 BoxF
3080 4147 BoxF
3099 4174 BoxF
3118 4192 BoxF
3136 4204 BoxF
3155 4212 BoxF
3173 4217 BoxF
3192 4220 BoxF
3210 4222 BoxF
3229 4223 BoxF
3247 4223 BoxF
3266 4224 BoxF
3284 4224 BoxF
3303 4224 BoxF
3321 4224 BoxF
3340 4224 BoxF
3359 4224 BoxF
3377 4224 BoxF
3396 4224 BoxF
3414 4224 BoxF
3433 4224 BoxF
3451 4224 BoxF
3470 4224 BoxF
3488 4224 BoxF
3507 4224 BoxF
3525 4224 BoxF
3544 4224 BoxF
3562 4224 BoxF
3581 4224 BoxF
3600 4224 BoxF
3618 4224 BoxF
3637 4224 BoxF
3655 4224 BoxF
3674 4224 BoxF
3692 4224 BoxF
3711 4224 BoxF
3729 4224 BoxF
3748 4224 BoxF
3766 4224 BoxF
3785 4224 BoxF
3803 4224 BoxF
3822 4224 BoxF
3841 4224 BoxF
3859 4224 BoxF
3878 4224 BoxF
3896 4224 BoxF
3915 4224 BoxF
3933 4224 BoxF
3952 4224 BoxF
3970 4224 BoxF
3989 4224 BoxF
4007 4224 BoxF
4026 4224 BoxF
4044 4224 BoxF
4063 4224 BoxF
4082 4224 BoxF
4100 4224 BoxF
4119 4224 BoxF
4137 4224 BoxF
4156 4224 BoxF
4174 4224 BoxF
4193 4224 BoxF
4211 4224 BoxF
4230 4224 BoxF
4248 4224 BoxF
4267 4224 BoxF
4285 4224 BoxF
4304 4224 BoxF
4323 4224 BoxF
4341 4224 BoxF
4360 4224 BoxF
4378 4224 BoxF
4397 4224 BoxF
4415 4224 BoxF
4434 4224 BoxF
4452 4224 BoxF
4471 4224 BoxF
4489 4224 BoxF
4508 4224 BoxF
4526 4224 BoxF
4545 4224 BoxF
4564 4224 BoxF
4582 4224 BoxF
4601 4224 BoxF
4619 4224 BoxF
4638 4223 BoxF
4656 4223 BoxF
4675 4222 BoxF
4693 4220 BoxF
4712 4217 BoxF
4730 4212 BoxF
4749 4204 BoxF
4767 4192 BoxF
4786 4174 BoxF
4805 4147 BoxF
4823 4110 BoxF
4842 4060 BoxF
4860 3995 BoxF
4879 3912 BoxF
4897 3811 BoxF
4916 3692 BoxF
4934 3555 BoxF
4953 3405 BoxF
4971 3243 BoxF
4990 3074 BoxF
5008 2903 BoxF
5027 2732 BoxF
5045 2566 BoxF
5064 2406 BoxF
5083 2254 BoxF
5101 2110 BoxF
5120 1976 BoxF
5138 1851 BoxF
5157 1734 BoxF
5175 1625 BoxF
5194 1523 BoxF
5212 1427 BoxF
5231 1337 BoxF
5249 1252 BoxF
5268 1172 BoxF
5286 1096 BoxF
5305 1024 BoxF
5324 956 BoxF
5342 892 BoxF
5361 832 BoxF
5379 777 BoxF
5398 726 BoxF
5416 680 BoxF
5435 639 BoxF
5453 602 BoxF
5472 571 BoxF
5490 544 BoxF
5509 521 BoxF
5527 503 BoxF
5546 488 BoxF
5565 477 BoxF
5583 468 BoxF
5602 462 BoxF
5620 457 BoxF
5639 454 BoxF
5657 452 BoxF
5676 450 BoxF
5694 449 BoxF
5713 449 BoxF
5731 448 BoxF
5750 448 BoxF
5768 448 BoxF
5787 448 BoxF
5806 448 BoxF
5824 448 BoxF
5843 448 BoxF
5861 448 BoxF
5880 448 BoxF
5898 448 BoxF
5917 448 BoxF
5935 448 BoxF
5954 448 BoxF
5972 448 BoxF
5991 448 BoxF
6009 448 BoxF
6028 448 BoxF
1857 448 BoxF
1876 448 BoxF
1894 448 BoxF
1913 448 BoxF
1931 448 BoxF
1950 448 BoxF
1968 448 BoxF
1987 448 BoxF
2005 448 BoxF
2024 448 BoxF
2042 448 BoxF
2061 448 BoxF
2079 448 BoxF
2098 448 BoxF
2117 448 BoxF
2135 448 BoxF
2154 448 BoxF
2172 449 BoxF
2191 449 BoxF
2209 450 BoxF
2228 452 BoxF
2246 454 BoxF
2265 457 BoxF
2283 462 BoxF
2302 468 BoxF
2320 477 BoxF
2339 488 BoxF
2358 503 BoxF
2376 521 BoxF
2395 544 BoxF
2413 571 BoxF
2432 602 BoxF
2450 639 BoxF
2469 680 BoxF
2487 726 BoxF
2506 777 BoxF
2524 832 BoxF
2543 892 BoxF
2561 956 BoxF
2580 1024 BoxF
2599 1096 BoxF
2617 1172 BoxF
2636 1252 BoxF
2654 1337 BoxF
2673 1427 BoxF
2691 1523 BoxF
2710 1625 BoxF
2728 1734 BoxF
2747 1851 BoxF
2765 1976 BoxF
2784 2110 BoxF
2802 2254 BoxF
2821 2406 BoxF
2840 2566 BoxF
2858 2732 BoxF
2877 2903 BoxF
2895 3074 BoxF
2914 3243 BoxF
2932 3404 BoxF
2951 3555 BoxF
2969 3692 BoxF
2988 3811 BoxF
3006 3912 BoxF
3025 3995 BoxF
3043 4060 BoxF
3062 4110 BoxF
3080 4147 BoxF
3099 4174 BoxF
3118 4192 BoxF
3136 4204 BoxF
3155 4212 BoxF
3173 4217 BoxF
3192 4220 BoxF
3210 4222 BoxF
3229 4223 BoxF
3247 4223 BoxF
3266 4223 BoxF
3284 4224 BoxF
3303 4224 BoxF
3321 4224 BoxF
3340 4224 BoxF
3359 4224 BoxF
3377 4224 BoxF
3396 4224 BoxF
3414 4224 BoxF
3433 4224 BoxF
3451 4224 BoxF
3470 4224 BoxF
3488 4224 BoxF
3507 4224 BoxF
3525 4224 BoxF
3544 4224 BoxF
3562 4224 BoxF
3581 4224 BoxF
3600 4224 BoxF
3618 4224 BoxF
3637 4224 BoxF
3655 4224 BoxF
3674 4224 BoxF
3692 4224 BoxF
3711 4224 BoxF
3729 4224 BoxF
3748 4224 BoxF
3766 4224 BoxF
3785 4224 BoxF
3803 4224 BoxF
3822 4224 BoxF
3841 4224 BoxF
3859 4224 BoxF
3878 4224 BoxF
3896 4224 BoxF
3915 4224 BoxF
3933 4224 BoxF
3952 4224 BoxF
3970 4224 BoxF
3989 4224 BoxF
4007 4224 BoxF
4026 4224 BoxF
4044 4224 BoxF
4063 4224 BoxF
4082 4224 BoxF
4100 4224 BoxF
4119 4224 BoxF
4137 4224 BoxF
4156 4224 BoxF
4174 4224 BoxF
4193 4224 BoxF
4211 4224 BoxF
4230 4224 BoxF
4248 4224 BoxF
4267 4224 BoxF
4285 4224 BoxF
4304 4224 BoxF
4323 4224 BoxF
4341 4224 BoxF
4360 4224 BoxF
4378 4224 BoxF
4397 4224 BoxF
4415 4224 BoxF
4434 4224 BoxF
4452 4224 BoxF
4471 4224 BoxF
4489 4224 BoxF
4508 4224 BoxF
4526 4224 BoxF
4545 4224 BoxF
4564 4224 BoxF
4582 4224 BoxF
4601 4224 BoxF
4619 4223 BoxF
4638 4223 BoxF
4656 4223 BoxF
4675 4222 BoxF
4693 4220 BoxF
4712 4217 BoxF
4730 4212 BoxF
4749 4204 BoxF
4767 4192 BoxF
4786 4174 BoxF
4805 4147 BoxF
4823 4110 BoxF
4842 4060 BoxF
4860 3995 BoxF
4879 3912 BoxF
4897 3811 BoxF
4916 3692 BoxF
4934 3555 BoxF
4953 3404 BoxF
4971 3243 BoxF
4990 3074 BoxF
5008 2903 BoxF
5027 2732 BoxF
5045 2566 BoxF
5064 2406 BoxF
5083 2254 BoxF
5101 2110 BoxF
5120 1976 BoxF
5138 1851 BoxF
5157 1734 BoxF
5175 1625 BoxF
5194 1523 BoxF
5212 1427 BoxF
5231 1337 BoxF
5249 1252 BoxF
5268 1172 BoxF
5286 1096 BoxF
5305 1024 BoxF
5324 956 BoxF
5342 892 BoxF
5361 832 BoxF
5379 777 BoxF
5398 726 BoxF
5416 680 BoxF
5435 639 BoxF
5453 602 BoxF
5472 571 BoxF
5490 544 BoxF
5509 521 BoxF
5527 503 BoxF
5546 488 BoxF
5565 477 BoxF
5583 468 BoxF
5602 462 BoxF
5620 457 BoxF
5639 454 BoxF
5657 452 BoxF
5676 450 BoxF
5694 449 BoxF
5713 449 BoxF
5731 448 BoxF
5750 448 BoxF
5768 448 BoxF
5787 448 BoxF
5806 448 BoxF
5824 448 BoxF
5843 448 BoxF
5861 448 BoxF
5880 448 BoxF
5898 448 BoxF
5917 448 BoxF
5935 448 BoxF
5954 448 BoxF
5972 448 BoxF
5991 448 BoxF
6009 448 BoxF
6028 448 BoxF
1857 448 BoxF
1876 448 BoxF
1894 448 BoxF
1913 448 BoxF
1931 448 BoxF
1950 448 BoxF
1968 448 BoxF
1987 448 BoxF
2005 448 BoxF
2024 448 BoxF
2042 448 BoxF
2061 448 BoxF
2079 448 BoxF
2098 448 BoxF
2117 448 BoxF
2135 448 BoxF
2154 448 BoxF
2172 449 BoxF
2191 449 BoxF
2209 450 BoxF
2228 452 BoxF
2246 454 BoxF
2265 457 BoxF
2283 462 BoxF
2302 468 BoxF
2320 477 BoxF
2339 488 BoxF
2358 503 BoxF
2376 521 BoxF
2395 544 BoxF
2413 571 BoxF
2432 602 BoxF
2450 639 BoxF
2469 680 BoxF
2487 726 BoxF
2506 777 BoxF
2524 832 BoxF
2543 892 BoxF
2561 956 BoxF
2580 1024 BoxF
2599 1096 BoxF
2617 1172 BoxF
2636 1252 BoxF
2654 1337 BoxF
2673 1427 BoxF
2691 1523 BoxF
2710 1625 BoxF
2728 1734 BoxF
2747 1851 BoxF
2765 1976 BoxF
2784 2110 BoxF
2802 2254 BoxF
2821 2406 BoxF
2840 2566 BoxF
2858 2732 BoxF
2877 2903 BoxF
2895 3074 BoxF
2914 3243 BoxF
2932 3404 BoxF
2951 3555 BoxF
2969 3692 BoxF
2988 3811 BoxF
3006 3912 BoxF
3025 3995 BoxF
3043 4060 BoxF
3062 4110 BoxF
3080 4147 BoxF
3099 4174 BoxF
3118 4192 BoxF
3136 4204 BoxF
3155 4212 BoxF
3173 4217 BoxF
3192 4220 BoxF
3210 4222 BoxF
3229 4223 BoxF
3247 4223 BoxF
3266 4223 BoxF
3284 4224 BoxF
3303 4224 BoxF
3321 4224 BoxF
3340 4224 BoxF
3359 4224 BoxF
3377 4224 BoxF
3396 4224 BoxF
3414 4224 BoxF
3433 4224 BoxF
3451 4224 BoxF
3470 4224 BoxF
3488 4224 BoxF
3507 4224 BoxF
3525 4224 BoxF
3544 4224 BoxF
3562 4224 BoxF
3581 4224 BoxF
3600 4224 BoxF
3618 4224 BoxF
3637 4224 BoxF
3655 4224 BoxF
3674 4224 BoxF
3692 4224 BoxF
3711 4224 BoxF
3729 4224 BoxF
3748 4224 BoxF
3766 4224 BoxF
3785 4224 BoxF
3803 4224 BoxF
3822 4224 BoxF
3841 4224 BoxF
3859 4224 BoxF
3878 4224 BoxF
3896 4224 BoxF
3915 4224 BoxF
3933 4224 BoxF
3952 4224 BoxF
3970 4224 BoxF
3989 4224 BoxF
4007 4224 BoxF
4026 4224 BoxF
4044 4224 BoxF
4063 4224 BoxF
4082 4224 BoxF
4100 4224 BoxF
4119 4224 BoxF
4137 4224 BoxF
4156 4224 BoxF
4174 4224 BoxF
4193 4224 BoxF
4211 4224 BoxF
4230 4224 BoxF
4248 4224 BoxF
4267 4224 BoxF
4285 4224 BoxF
4304 4224 BoxF
4323 4224 BoxF
4341 4224 BoxF
4360 4224 BoxF
4378 4224 BoxF
4397 4224 BoxF
4415 4224 BoxF
4434 4224 BoxF
4452 4224 BoxF
4471 4224 BoxF
4489 4224 BoxF
4508 4224 BoxF
4526 4224 BoxF
4545 4224 BoxF
4564 4224 BoxF
4582 4224 BoxF
4601 4224 BoxF
4619 4223 BoxF
4638 4223 BoxF
4656 4223 BoxF
4675 4222 BoxF
4693 4220 BoxF
4712 4217 BoxF
4730 4212 BoxF
4749 4204 BoxF
4767 4192 BoxF
4786 4174 BoxF
4805 4147 BoxF
4823 4110 BoxF
4842 4060 BoxF
4860 3995 BoxF
4879 3912 BoxF
4897 3811 BoxF
4916 3692 BoxF
4934 3555 BoxF
4953 3404 BoxF
4971 3243 BoxF
4990 3074 BoxF
5008 2903 BoxF
5027 2732 BoxF
5045 2566 BoxF
5064 2406 BoxF
5083 2254 BoxF
5101 2110 BoxF
5120 1976 BoxF
5138 1851 BoxF
5157 1734 BoxF
5175 1625 BoxF
5194 1523 BoxF
5212 1427 BoxF
5231 1337 BoxF
5249 1252 BoxF
5268 1172 BoxF
5286 1096 BoxF
5305 1024 BoxF
5324 956 BoxF
5342 892 BoxF
5361 832 BoxF
5379 777 BoxF
5398 726 BoxF
5416 680 BoxF
5435 639 BoxF
5453 602 BoxF
5472 571 BoxF
5490 544 BoxF
5509 521 BoxF
5527 503 BoxF
5546 488 BoxF
5565 477 BoxF
5583 468 BoxF
5602 462 BoxF
5620 457 BoxF
5639 454 BoxF
5657 452 BoxF
5676 450 BoxF
5694 449 BoxF
5713 449 BoxF
5731 448 BoxF
5750 448 BoxF
5768 448 BoxF
5787 448 BoxF
5806 448 BoxF
5824 448 BoxF
5843 448 BoxF
5861 448 BoxF
5880 448 BoxF
5898 448 BoxF
5917 448 BoxF
5935 448 BoxF
5954 448 BoxF
5972 448 BoxF
5991 448 BoxF
6009 448 BoxF
6028 448 BoxF
1857 448 BoxF
1876 448 BoxF
1894 448 BoxF
1913 448 BoxF
1931 448 BoxF
1950 448 BoxF
1968 448 BoxF
1987 448 BoxF
2005 448 BoxF
2024 448 BoxF
2042 448 BoxF
2061 448 BoxF
2079 448 BoxF
2098 448 BoxF
2117 448 BoxF
2135 448 BoxF
2154 448 BoxF
2172 449 BoxF
2191 449 BoxF
2209 450 BoxF
2228 452 BoxF
2246 454 BoxF
2265 457 BoxF
2283 462 BoxF
2302 468 BoxF
2320 477 BoxF
2339 488 BoxF
2358 503 BoxF
2376 521 BoxF
2395 544 BoxF
2413 571 BoxF
2432 602 BoxF
2450 639 BoxF
2469 680 BoxF
2487 726 BoxF
2506 777 BoxF
2524 832 BoxF
2543 892 BoxF
2561 956 BoxF
2580 1024 BoxF
2599 1096 BoxF
2617 1172 BoxF
2636 1252 BoxF
2654 1337 BoxF
2673 1427 BoxF
2691 1523 BoxF
2710 1625 BoxF
2728 1734 BoxF
2747 1851 BoxF
2765 1976 BoxF
2784 2110 BoxF
2802 2254 BoxF
2821 2406 BoxF
2840 2566 BoxF
2858 2732 BoxF
2877 2903 BoxF
2895 3074 BoxF
2914 3243 BoxF
2932 3404 BoxF
2951 3555 BoxF
2969 3692 BoxF
2988 3811 BoxF
3006 3912 BoxF
3025 3995 BoxF
3043 4060 BoxF
3062 4110 BoxF
3080 4147 BoxF
3099 4174 BoxF
3118 4192 BoxF
3136 4204 BoxF
3155 4212 BoxF
3173 4217 BoxF
3192 4220 BoxF
3210 4222 BoxF
3229 4223 BoxF
3247 4223 BoxF
3266 4223 BoxF
3284 4224 BoxF
3303 4224 BoxF
3321 4224 BoxF
3340 4224 BoxF
3359 4224 BoxF
3377 4224 BoxF
3396 4224 BoxF
3414 4224 BoxF
3433 4224 BoxF
3451 4224 BoxF
3470 4224 BoxF
3488 4224 BoxF
3507 4224 BoxF
3525 4224 BoxF
3544 4224 BoxF
3562 4224 BoxF
3581 4224 BoxF
3600 4224 BoxF
3618 4224 BoxF
3637 4224 BoxF
3655 4224 BoxF
3674 4224 BoxF
3692 4224 BoxF
3711 4224 BoxF
3729 4224 BoxF
3748 4224 BoxF
3766 4224 BoxF
3785 4224 BoxF
3803 4224 BoxF
3822 4224 BoxF
3841 4224 BoxF
3859 4224 BoxF
3878 4224 BoxF
3896 4224 BoxF
3915 4224 BoxF
3933 4224 BoxF
3952 4224 BoxF
3970 4224 BoxF
3989 4224 BoxF
4007 4224 BoxF
4026 4224 BoxF
4044 4224 BoxF
4063 4224 BoxF
4082 4224 BoxF
4100 4224 BoxF
4119 4224 BoxF
4137 4224 BoxF
4156 4224 BoxF
4174 4224 BoxF
4193 4224 BoxF
4211 4224 BoxF
4230 4224 BoxF
4248 4224 BoxF
4267 4224 BoxF
4285 4224 BoxF
4304 4224 BoxF
4323 4224 BoxF
4341 4224 BoxF
4360 4224 BoxF
4378 4224 BoxF
4397 4224 BoxF
4415 4224 BoxF
4434 4224 BoxF
4452 4224 BoxF
4471 4224 BoxF
4489 4224 BoxF
4508 4224 BoxF
4526 4224 BoxF
4545 4224 BoxF
4564 4224 BoxF
4582 4224 BoxF
4601 4224 BoxF
4619 4223 BoxF
4638 4223 BoxF
4656 4223 BoxF
4675 4222 BoxF
4693 4220 BoxF
4712 4217 BoxF
4730 4212 BoxF
4749 4204 BoxF
4767 4192 BoxF
4786 4174 BoxF
4805 4147 BoxF
4823 4110 BoxF
4842 4060 BoxF
4860 3995 BoxF
4879 3912 BoxF
4897 3811 BoxF
4916 3692 BoxF
4934 3555 BoxF
4953 3404 BoxF
4971 3243 BoxF
4990 3074 BoxF
5008 2903 BoxF
5027 2732 BoxF
5045 2566 BoxF
5064 2406 BoxF
5083 2254 BoxF
5101 2110 BoxF
5120 1976 BoxF
5138 1851 BoxF
5157 1734 BoxF
5175 1625 BoxF
5194 1523 BoxF
5212 1427 BoxF
5231 1337 BoxF
5249 1252 BoxF
5268 1172 BoxF
5286 1096 BoxF
5305 1024 BoxF
5324 956 BoxF
5342 892 BoxF
5361 832 BoxF
5379 777 BoxF
5398 726 BoxF
5416 680 BoxF
5435 639 BoxF
5453 602 BoxF
5472 571 BoxF
5490 544 BoxF
5509 521 BoxF
5527 503 BoxF
5546 488 BoxF
5565 477 BoxF
5583 468 BoxF
5602 462 BoxF
5620 457 BoxF
5639 454 BoxF
5657 452 BoxF
5676 450 BoxF
5694 449 BoxF
5713 449 BoxF
5731 448 BoxF
5750 448 BoxF
5768 448 BoxF
5787 448 BoxF
5806 448 BoxF
5824 448 BoxF
5843 448 BoxF
5861 448 BoxF
5880 448 BoxF
5898 448 BoxF
5917 448 BoxF
5935 448 BoxF
5954 448 BoxF
5972 448 BoxF
5991 448 BoxF
6009 448 BoxF
6028 448 BoxF
5660 4486 BoxF
% End plot #1
2.000 UL
LTb
LCb setrgbcolor
1.000 UL
LTB
LCb setrgbcolor
1857 4619 N
0 -4171 V
4171 0 V
0 4171 V
-4171 0 V
Z stroke
1.000 UP
1.000 UL
LTb
LCb setrgbcolor
stroke
grestore
end
showpage
%%Trailer
%%DocumentFonts: Helvetica
