%!PS-Adobe-2.0 EPSF-2.0
%%Title: gnuplot_OPTICS_xy.eps
%%Creator: gnuplot 5.2 patchlevel 2
%%CreationDate: Wed Aug 28 08:36:13 2019
%%DocumentFonts: (atend)
%%BoundingBox: 50 50 410 302
%%EndComments
%%BeginProlog
/gnudict 256 dict def
gnudict begin
%
% The following true/false flags may be edited by hand if desired.
% The unit line width and grayscale image gamma correction may also be changed.
%
/Color true def
/Blacktext true def
/Solid false def
/Dashlength 1 def
/Landscape false def
/Level1 false def
/Level3 false def
/Rounded false def
/ClipToBoundingBox false def
/SuppressPDFMark false def
/TransparentPatterns false def
/gnulinewidth 5.000 def
/userlinewidth gnulinewidth def
/Gamma 1.0 def
/BackgroundColor {-1.000 -1.000 -1.000} def
%
/vshift -46 def
/dl1 {
  10.0 Dashlength userlinewidth gnulinewidth div mul mul mul
  Rounded { currentlinewidth 0.75 mul sub dup 0 le { pop 0.01 } if } if
} def
/dl2 {
  10.0 Dashlength userlinewidth gnulinewidth div mul mul mul
  Rounded { currentlinewidth 0.75 mul add } if
} def
/hpt_ 31.5 def
/vpt_ 31.5 def
/hpt hpt_ def
/vpt vpt_ def
/doclip {
  ClipToBoundingBox {
    newpath 50 50 moveto 410 50 lineto 410 302 lineto 50 302 lineto closepath
    clip
  } if
} def
%
% Gnuplot Prolog Version 5.1 (Oct 2015)
%
%/SuppressPDFMark true def
%
/M {moveto} bind def
/L {lineto} bind def
/R {rmoveto} bind def
/V {rlineto} bind def
/N {newpath moveto} bind def
/Z {closepath} bind def
/C {setrgbcolor} bind def
/f {rlineto fill} bind def
/g {setgray} bind def
/Gshow {show} def   % May be redefined later in the file to support UTF-8
/vpt2 vpt 2 mul def
/hpt2 hpt 2 mul def
/Lshow {currentpoint stroke M 0 vshift R 
	Blacktext {gsave 0 setgray textshow grestore} {textshow} ifelse} def
/Rshow {currentpoint stroke M dup stringwidth pop neg vshift R
	Blacktext {gsave 0 setgray textshow grestore} {textshow} ifelse} def
/Cshow {currentpoint stroke M dup stringwidth pop -2 div vshift R 
	Blacktext {gsave 0 setgray textshow grestore} {textshow} ifelse} def
/UP {dup vpt_ mul /vpt exch def hpt_ mul /hpt exch def
  /hpt2 hpt 2 mul def /vpt2 vpt 2 mul def} def
/DL {Color {setrgbcolor Solid {pop []} if 0 setdash}
 {pop pop pop 0 setgray Solid {pop []} if 0 setdash} ifelse} def
/BL {stroke userlinewidth 2 mul setlinewidth
	Rounded {1 setlinejoin 1 setlinecap} if} def
/AL {stroke userlinewidth 2 div setlinewidth
	Rounded {1 setlinejoin 1 setlinecap} if} def
/UL {dup gnulinewidth mul /userlinewidth exch def
	dup 1 lt {pop 1} if 10 mul /udl exch def} def
/PL {stroke userlinewidth setlinewidth
	Rounded {1 setlinejoin 1 setlinecap} if} def
3.8 setmiterlimit
% Classic Line colors (version 5.0)
/LCw {1 1 1} def
/LCb {0 0 0} def
/LCa {0 0 0} def
/LC0 {1 0 0} def
/LC1 {0 1 0} def
/LC2 {0 0 1} def
/LC3 {1 0 1} def
/LC4 {0 1 1} def
/LC5 {1 1 0} def
/LC6 {0 0 0} def
/LC7 {1 0.3 0} def
/LC8 {0.5 0.5 0.5} def
% Default dash patterns (version 5.0)
/LTB {BL [] LCb DL} def
/LTw {PL [] 1 setgray} def
/LTb {PL [] LCb DL} def
/LTa {AL [1 udl mul 2 udl mul] 0 setdash LCa setrgbcolor} def
/LT0 {PL [] LC0 DL} def
/LT1 {PL [2 dl1 3 dl2] LC1 DL} def
/LT2 {PL [1 dl1 1.5 dl2] LC2 DL} def
/LT3 {PL [6 dl1 2 dl2 1 dl1 2 dl2] LC3 DL} def
/LT4 {PL [1 dl1 2 dl2 6 dl1 2 dl2 1 dl1 2 dl2] LC4 DL} def
/LT5 {PL [4 dl1 2 dl2] LC5 DL} def
/LT6 {PL [1.5 dl1 1.5 dl2 1.5 dl1 1.5 dl2 1.5 dl1 6 dl2] LC6 DL} def
/LT7 {PL [3 dl1 3 dl2 1 dl1 3 dl2] LC7 DL} def
/LT8 {PL [2 dl1 2 dl2 2 dl1 6 dl2] LC8 DL} def
/SL {[] 0 setdash} def
/Pnt {stroke [] 0 setdash gsave 1 setlinecap M 0 0 V stroke grestore} def
/Dia {stroke [] 0 setdash 2 copy vpt add M
  hpt neg vpt neg V hpt vpt neg V
  hpt vpt V hpt neg vpt V closepath stroke
  Pnt} def
/Pls {stroke [] 0 setdash vpt sub M 0 vpt2 V
  currentpoint stroke M
  hpt neg vpt neg R hpt2 0 V stroke
 } def
/Box {stroke [] 0 setdash 2 copy exch hpt sub exch vpt add M
  0 vpt2 neg V hpt2 0 V 0 vpt2 V
  hpt2 neg 0 V closepath stroke
  Pnt} def
/Crs {stroke [] 0 setdash exch hpt sub exch vpt add M
  hpt2 vpt2 neg V currentpoint stroke M
  hpt2 neg 0 R hpt2 vpt2 V stroke} def
/TriU {stroke [] 0 setdash 2 copy vpt 1.12 mul add M
  hpt neg vpt -1.62 mul V
  hpt 2 mul 0 V
  hpt neg vpt 1.62 mul V closepath stroke
  Pnt} def
/Star {2 copy Pls Crs} def
/BoxF {stroke [] 0 setdash exch hpt sub exch vpt add M
  0 vpt2 neg V hpt2 0 V 0 vpt2 V
  hpt2 neg 0 V closepath fill} def
/TriUF {stroke [] 0 setdash vpt 1.12 mul add M
  hpt neg vpt -1.62 mul V
  hpt 2 mul 0 V
  hpt neg vpt 1.62 mul V closepath fill} def
/TriD {stroke [] 0 setdash 2 copy vpt 1.12 mul sub M
  hpt neg vpt 1.62 mul V
  hpt 2 mul 0 V
  hpt neg vpt -1.62 mul V closepath stroke
  Pnt} def
/TriDF {stroke [] 0 setdash vpt 1.12 mul sub M
  hpt neg vpt 1.62 mul V
  hpt 2 mul 0 V
  hpt neg vpt -1.62 mul V closepath fill} def
/DiaF {stroke [] 0 setdash vpt add M
  hpt neg vpt neg V hpt vpt neg V
  hpt vpt V hpt neg vpt V closepath fill} def
/Pent {stroke [] 0 setdash 2 copy gsave
  translate 0 hpt M 4 {72 rotate 0 hpt L} repeat
  closepath stroke grestore Pnt} def
/PentF {stroke [] 0 setdash gsave
  translate 0 hpt M 4 {72 rotate 0 hpt L} repeat
  closepath fill grestore} def
/Circle {stroke [] 0 setdash 2 copy
  hpt 0 360 arc stroke Pnt} def
/CircleF {stroke [] 0 setdash hpt 0 360 arc fill} def
/C0 {BL [] 0 setdash 2 copy moveto vpt 90 450 arc} bind def
/C1 {BL [] 0 setdash 2 copy moveto
	2 copy vpt 0 90 arc closepath fill
	vpt 0 360 arc closepath} bind def
/C2 {BL [] 0 setdash 2 copy moveto
	2 copy vpt 90 180 arc closepath fill
	vpt 0 360 arc closepath} bind def
/C3 {BL [] 0 setdash 2 copy moveto
	2 copy vpt 0 180 arc closepath fill
	vpt 0 360 arc closepath} bind def
/C4 {BL [] 0 setdash 2 copy moveto
	2 copy vpt 180 270 arc closepath fill
	vpt 0 360 arc closepath} bind def
/C5 {BL [] 0 setdash 2 copy moveto
	2 copy vpt 0 90 arc
	2 copy moveto
	2 copy vpt 180 270 arc closepath fill
	vpt 0 360 arc} bind def
/C6 {BL [] 0 setdash 2 copy moveto
	2 copy vpt 90 270 arc closepath fill
	vpt 0 360 arc closepath} bind def
/C7 {BL [] 0 setdash 2 copy moveto
	2 copy vpt 0 270 arc closepath fill
	vpt 0 360 arc closepath} bind def
/C8 {BL [] 0 setdash 2 copy moveto
	2 copy vpt 270 360 arc closepath fill
	vpt 0 360 arc closepath} bind def
/C9 {BL [] 0 setdash 2 copy moveto
	2 copy vpt 270 450 arc closepath fill
	vpt 0 360 arc closepath} bind def
/C10 {BL [] 0 setdash 2 copy 2 copy moveto vpt 270 360 arc closepath fill
	2 copy moveto
	2 copy vpt 90 180 arc closepath fill
	vpt 0 360 arc closepath} bind def
/C11 {BL [] 0 setdash 2 copy moveto
	2 copy vpt 0 180 arc closepath fill
	2 copy moveto
	2 copy vpt 270 360 arc closepath fill
	vpt 0 360 arc closepath} bind def
/C12 {BL [] 0 setdash 2 copy moveto
	2 copy vpt 180 360 arc closepath fill
	vpt 0 360 arc closepath} bind def
/C13 {BL [] 0 setdash 2 copy moveto
	2 copy vpt 0 90 arc closepath fill
	2 copy moveto
	2 copy vpt 180 360 arc closepath fill
	vpt 0 360 arc closepath} bind def
/C14 {BL [] 0 setdash 2 copy moveto
	2 copy vpt 90 360 arc closepath fill
	vpt 0 360 arc} bind def
/C15 {BL [] 0 setdash 2 copy vpt 0 360 arc closepath fill
	vpt 0 360 arc closepath} bind def
/Rec {newpath 4 2 roll moveto 1 index 0 rlineto 0 exch rlineto
	neg 0 rlineto closepath} bind def
/Square {dup Rec} bind def
/Bsquare {vpt sub exch vpt sub exch vpt2 Square} bind def
/S0 {BL [] 0 setdash 2 copy moveto 0 vpt rlineto BL Bsquare} bind def
/S1 {BL [] 0 setdash 2 copy vpt Square fill Bsquare} bind def
/S2 {BL [] 0 setdash 2 copy exch vpt sub exch vpt Square fill Bsquare} bind def
/S3 {BL [] 0 setdash 2 copy exch vpt sub exch vpt2 vpt Rec fill Bsquare} bind def
/S4 {BL [] 0 setdash 2 copy exch vpt sub exch vpt sub vpt Square fill Bsquare} bind def
/S5 {BL [] 0 setdash 2 copy 2 copy vpt Square fill
	exch vpt sub exch vpt sub vpt Square fill Bsquare} bind def
/S6 {BL [] 0 setdash 2 copy exch vpt sub exch vpt sub vpt vpt2 Rec fill Bsquare} bind def
/S7 {BL [] 0 setdash 2 copy exch vpt sub exch vpt sub vpt vpt2 Rec fill
	2 copy vpt Square fill Bsquare} bind def
/S8 {BL [] 0 setdash 2 copy vpt sub vpt Square fill Bsquare} bind def
/S9 {BL [] 0 setdash 2 copy vpt sub vpt vpt2 Rec fill Bsquare} bind def
/S10 {BL [] 0 setdash 2 copy vpt sub vpt Square fill 2 copy exch vpt sub exch vpt Square fill
	Bsquare} bind def
/S11 {BL [] 0 setdash 2 copy vpt sub vpt Square fill 2 copy exch vpt sub exch vpt2 vpt Rec fill
	Bsquare} bind def
/S12 {BL [] 0 setdash 2 copy exch vpt sub exch vpt sub vpt2 vpt Rec fill Bsquare} bind def
/S13 {BL [] 0 setdash 2 copy exch vpt sub exch vpt sub vpt2 vpt Rec fill
	2 copy vpt Square fill Bsquare} bind def
/S14 {BL [] 0 setdash 2 copy exch vpt sub exch vpt sub vpt2 vpt Rec fill
	2 copy exch vpt sub exch vpt Square fill Bsquare} bind def
/S15 {BL [] 0 setdash 2 copy Bsquare fill Bsquare} bind def
/D0 {gsave translate 45 rotate 0 0 S0 stroke grestore} bind def
/D1 {gsave translate 45 rotate 0 0 S1 stroke grestore} bind def
/D2 {gsave translate 45 rotate 0 0 S2 stroke grestore} bind def
/D3 {gsave translate 45 rotate 0 0 S3 stroke grestore} bind def
/D4 {gsave translate 45 rotate 0 0 S4 stroke grestore} bind def
/D5 {gsave translate 45 rotate 0 0 S5 stroke grestore} bind def
/D6 {gsave translate 45 rotate 0 0 S6 stroke grestore} bind def
/D7 {gsave translate 45 rotate 0 0 S7 stroke grestore} bind def
/D8 {gsave translate 45 rotate 0 0 S8 stroke grestore} bind def
/D9 {gsave translate 45 rotate 0 0 S9 stroke grestore} bind def
/D10 {gsave translate 45 rotate 0 0 S10 stroke grestore} bind def
/D11 {gsave translate 45 rotate 0 0 S11 stroke grestore} bind def
/D12 {gsave translate 45 rotate 0 0 S12 stroke grestore} bind def
/D13 {gsave translate 45 rotate 0 0 S13 stroke grestore} bind def
/D14 {gsave translate 45 rotate 0 0 S14 stroke grestore} bind def
/D15 {gsave translate 45 rotate 0 0 S15 stroke grestore} bind def
/DiaE {stroke [] 0 setdash vpt add M
  hpt neg vpt neg V hpt vpt neg V
  hpt vpt V hpt neg vpt V closepath stroke} def
/BoxE {stroke [] 0 setdash exch hpt sub exch vpt add M
  0 vpt2 neg V hpt2 0 V 0 vpt2 V
  hpt2 neg 0 V closepath stroke} def
/TriUE {stroke [] 0 setdash vpt 1.12 mul add M
  hpt neg vpt -1.62 mul V
  hpt 2 mul 0 V
  hpt neg vpt 1.62 mul V closepath stroke} def
/TriDE {stroke [] 0 setdash vpt 1.12 mul sub M
  hpt neg vpt 1.62 mul V
  hpt 2 mul 0 V
  hpt neg vpt -1.62 mul V closepath stroke} def
/PentE {stroke [] 0 setdash gsave
  translate 0 hpt M 4 {72 rotate 0 hpt L} repeat
  closepath stroke grestore} def
/CircE {stroke [] 0 setdash 
  hpt 0 360 arc stroke} def
/Opaque {gsave closepath 1 setgray fill grestore 0 setgray closepath} def
/DiaW {stroke [] 0 setdash vpt add M
  hpt neg vpt neg V hpt vpt neg V
  hpt vpt V hpt neg vpt V Opaque stroke} def
/BoxW {stroke [] 0 setdash exch hpt sub exch vpt add M
  0 vpt2 neg V hpt2 0 V 0 vpt2 V
  hpt2 neg 0 V Opaque stroke} def
/TriUW {stroke [] 0 setdash vpt 1.12 mul add M
  hpt neg vpt -1.62 mul V
  hpt 2 mul 0 V
  hpt neg vpt 1.62 mul V Opaque stroke} def
/TriDW {stroke [] 0 setdash vpt 1.12 mul sub M
  hpt neg vpt 1.62 mul V
  hpt 2 mul 0 V
  hpt neg vpt -1.62 mul V Opaque stroke} def
/PentW {stroke [] 0 setdash gsave
  translate 0 hpt M 4 {72 rotate 0 hpt L} repeat
  Opaque stroke grestore} def
/CircW {stroke [] 0 setdash 
  hpt 0 360 arc Opaque stroke} def
/BoxFill {gsave Rec 1 setgray fill grestore} def
/Density {
  /Fillden exch def
  currentrgbcolor
  /ColB exch def /ColG exch def /ColR exch def
  /ColR ColR Fillden mul Fillden sub 1 add def
  /ColG ColG Fillden mul Fillden sub 1 add def
  /ColB ColB Fillden mul Fillden sub 1 add def
  ColR ColG ColB setrgbcolor} def
/BoxColFill {gsave Rec PolyFill} def
/PolyFill {gsave Density fill grestore grestore} def
/h {rlineto rlineto rlineto gsave closepath fill grestore} bind def
%
% PostScript Level 1 Pattern Fill routine for rectangles
% Usage: x y w h s a XX PatternFill
%	x,y = lower left corner of box to be filled
%	w,h = width and height of box
%	  a = angle in degrees between lines and x-axis
%	 XX = 0/1 for no/yes cross-hatch
%
/PatternFill {gsave /PFa [ 9 2 roll ] def
  PFa 0 get PFa 2 get 2 div add PFa 1 get PFa 3 get 2 div add translate
  PFa 2 get -2 div PFa 3 get -2 div PFa 2 get PFa 3 get Rec
  TransparentPatterns {} {gsave 1 setgray fill grestore} ifelse
  clip
  currentlinewidth 0.5 mul setlinewidth
  /PFs PFa 2 get dup mul PFa 3 get dup mul add sqrt def
  0 0 M PFa 5 get rotate PFs -2 div dup translate
  0 1 PFs PFa 4 get div 1 add floor cvi
	{PFa 4 get mul 0 M 0 PFs V} for
  0 PFa 6 get ne {
	0 1 PFs PFa 4 get div 1 add floor cvi
	{PFa 4 get mul 0 2 1 roll M PFs 0 V} for
 } if
  stroke grestore} def
%
/languagelevel where
 {pop languagelevel} {1} ifelse
dup 2 lt
	{/InterpretLevel1 true def
	 /InterpretLevel3 false def}
	{/InterpretLevel1 Level1 def
	 2 gt
	    {/InterpretLevel3 Level3 def}
	    {/InterpretLevel3 false def}
	 ifelse }
 ifelse
%
% PostScript level 2 pattern fill definitions
%
/Level2PatternFill {
/Tile8x8 {/PaintType 2 /PatternType 1 /TilingType 1 /BBox [0 0 8 8] /XStep 8 /YStep 8}
	bind def
/KeepColor {currentrgbcolor [/Pattern /DeviceRGB] setcolorspace} bind def
<< Tile8x8
 /PaintProc {0.5 setlinewidth pop 0 0 M 8 8 L 0 8 M 8 0 L stroke} 
>> matrix makepattern
/Pat1 exch def
<< Tile8x8
 /PaintProc {0.5 setlinewidth pop 0 0 M 8 8 L 0 8 M 8 0 L stroke
	0 4 M 4 8 L 8 4 L 4 0 L 0 4 L stroke}
>> matrix makepattern
/Pat2 exch def
<< Tile8x8
 /PaintProc {0.5 setlinewidth pop 0 0 M 0 8 L
	8 8 L 8 0 L 0 0 L fill}
>> matrix makepattern
/Pat3 exch def
<< Tile8x8
 /PaintProc {0.5 setlinewidth pop -4 8 M 8 -4 L
	0 12 M 12 0 L stroke}
>> matrix makepattern
/Pat4 exch def
<< Tile8x8
 /PaintProc {0.5 setlinewidth pop -4 0 M 8 12 L
	0 -4 M 12 8 L stroke}
>> matrix makepattern
/Pat5 exch def
<< Tile8x8
 /PaintProc {0.5 setlinewidth pop -2 8 M 4 -4 L
	0 12 M 8 -4 L 4 12 M 10 0 L stroke}
>> matrix makepattern
/Pat6 exch def
<< Tile8x8
 /PaintProc {0.5 setlinewidth pop -2 0 M 4 12 L
	0 -4 M 8 12 L 4 -4 M 10 8 L stroke}
>> matrix makepattern
/Pat7 exch def
<< Tile8x8
 /PaintProc {0.5 setlinewidth pop 8 -2 M -4 4 L
	12 0 M -4 8 L 12 4 M 0 10 L stroke}
>> matrix makepattern
/Pat8 exch def
<< Tile8x8
 /PaintProc {0.5 setlinewidth pop 0 -2 M 12 4 L
	-4 0 M 12 8 L -4 4 M 8 10 L stroke}
>> matrix makepattern
/Pat9 exch def
/Pattern1 {PatternBgnd KeepColor Pat1 setpattern} bind def
/Pattern2 {PatternBgnd KeepColor Pat2 setpattern} bind def
/Pattern3 {PatternBgnd KeepColor Pat3 setpattern} bind def
/Pattern4 {PatternBgnd KeepColor Landscape {Pat5} {Pat4} ifelse setpattern} bind def
/Pattern5 {PatternBgnd KeepColor Landscape {Pat4} {Pat5} ifelse setpattern} bind def
/Pattern6 {PatternBgnd KeepColor Landscape {Pat9} {Pat6} ifelse setpattern} bind def
/Pattern7 {PatternBgnd KeepColor Landscape {Pat8} {Pat7} ifelse setpattern} bind def
} def
%
%
%End of PostScript Level 2 code
%
/PatternBgnd {
  TransparentPatterns {} {gsave 1 setgray fill grestore} ifelse
} def
%
% Substitute for Level 2 pattern fill codes with
% grayscale if Level 2 support is not selected.
%
/Level1PatternFill {
/Pattern1 {0.250 Density} bind def
/Pattern2 {0.500 Density} bind def
/Pattern3 {0.750 Density} bind def
/Pattern4 {0.125 Density} bind def
/Pattern5 {0.375 Density} bind def
/Pattern6 {0.625 Density} bind def
/Pattern7 {0.875 Density} bind def
} def
%
% Now test for support of Level 2 code
%
Level1 {Level1PatternFill} {Level2PatternFill} ifelse
%
/Symbol-Oblique /Symbol findfont [1 0 .167 1 0 0] makefont
dup length dict begin {1 index /FID eq {pop pop} {def} ifelse} forall
currentdict end definefont pop
%
/Metrics {ExtendTextBox Gswidth} def
/Lwidth {currentpoint stroke M 0 vshift R Metrics} def
/Rwidth {currentpoint stroke M dup stringwidth pop neg vshift R Metrics} def
/Cwidth {currentpoint stroke M dup stringwidth pop -2 div vshift R Metrics} def
/GLwidth {currentpoint stroke M 0 vshift R {ExtendTextBox} forall} def
/GRwidth {currentpoint stroke M dup Gwidth vshift R {ExtendTextBox} forall} def
/GCwidth {currentpoint stroke M dup Gwidth 2 div vshift R {ExtendTextBox} forall} def
/GLwidth2 {0 Gwidth AddGlyphWidth} def
/GRwidth2 {Gwidth -1 mul 0 AddGlyphWidth} def
/GCwidth2 {Gwidth 2 div dup -1 mul AddGlyphWidth} def
/AddGlyphWidth { dup TBx2 gt {userdict /TBx2 3 -1 roll put} {pop} ifelse
                 dup TBx1 lt {userdict /TBx1 3 -1 roll put} {pop} ifelse } def
/MFshow {
   { dup 5 get 3 ge
     { 5 get 3 eq {gsave} {grestore} ifelse }
     {dup dup 0 get findfont exch 1 get scalefont setfont
     [ currentpoint ] exch dup 2 get 0 exch R dup 5 get 2 ne {dup dup 6
     get exch 4 get {textshow} {Metrics pop 0 R} ifelse }if dup 5 get 0 eq
     {dup 3 get {2 get neg 0 exch R pop} {pop aload pop M} ifelse} {dup 5
     get 1 eq {dup 2 get exch dup 3 get exch 6 get Gswidth pop -2 div
     dup 0 R} {dup 6 get Gswidth pop -2 div 0 R 6 get
     textshow 2 index {aload pop M neg 3 -1 roll neg R pop pop} {pop pop pop
     pop aload pop M} ifelse }ifelse }ifelse }
     ifelse }
   forall} def
/Gswidth {dup type /stringtype eq {stringwidth} {pop (n) stringwidth} ifelse} def
/MFwidth {0 exch { dup 5 get 3 ge { 5 get 3 eq { 0 } { pop } ifelse }
 {dup 3 get{dup dup 0 get findfont exch 1 get scalefont setfont
     6 get Gswidth pop add} {pop} ifelse} ifelse} forall} def
/MLshow { currentpoint stroke M
  0 exch R
  Blacktext {gsave 0 setgray MFshow grestore} {MFshow} ifelse } bind def
/MRshow { currentpoint stroke M
  exch dup MFwidth neg 3 -1 roll R
  Blacktext {gsave 0 setgray MFshow grestore} {MFshow} ifelse } bind def
/MCshow { currentpoint stroke M
  exch dup MFwidth -2 div 3 -1 roll R
  Blacktext {gsave 0 setgray MFshow grestore} {MFshow} ifelse } bind def
/XYsave    { [( ) 1 2 true false 3 ()] } bind def
/XYrestore { [( ) 1 2 true false 4 ()] } bind def
Level1 SuppressPDFMark or 
{} {
/SDict 10 dict def
systemdict /pdfmark known not {
  userdict /pdfmark systemdict /cleartomark get put
} if
SDict begin [
  /Title (gnuplot_OPTICS_xy.eps)
  /Subject (gnuplot plot)
  /Creator (gnuplot 5.2 patchlevel 2)
%  /Producer (gnuplot)
%  /Keywords ()
  /CreationDate (Wed Aug 28 08:36:13 2019)
  /DOCINFO pdfmark
end
} ifelse
%
% Support for boxed text - Ethan A Merritt Sep 2016
%
/InitTextBox { userdict /TBy2 3 -1 roll put userdict /TBx2 3 -1 roll put
           userdict /TBy1 3 -1 roll put userdict /TBx1 3 -1 roll put
	   /Boxing true def } def
/ExtendTextBox { dup type /stringtype eq
    { Boxing { gsave dup false charpath pathbbox
      dup TBy2 gt {userdict /TBy2 3 -1 roll put} {pop} ifelse
      dup TBx2 gt {userdict /TBx2 3 -1 roll put} {pop} ifelse
      dup TBy1 lt {userdict /TBy1 3 -1 roll put} {pop} ifelse
      dup TBx1 lt {userdict /TBx1 3 -1 roll put} {pop} ifelse
      grestore } if }
    {} ifelse} def
/PopTextBox { newpath TBx1 TBxmargin sub TBy1 TBymargin sub M
               TBx1 TBxmargin sub TBy2 TBymargin add L
	       TBx2 TBxmargin add TBy2 TBymargin add L
	       TBx2 TBxmargin add TBy1 TBymargin sub L closepath } def
/DrawTextBox { PopTextBox stroke /Boxing false def} def
/FillTextBox { gsave PopTextBox fill grestore /Boxing false def} def
0 0 0 0 InitTextBox
/TBxmargin 20 def
/TBymargin 20 def
/Boxing false def
/textshow { ExtendTextBox Gshow } def
%
end
%%EndProlog
%%Page: 1 1
gnudict begin
gsave
doclip
50 50 translate
0.050 0.050 scale
0 setgray
newpath
(Helvetica) findfont 140 scalefont setfont
BackgroundColor 0 lt 3 1 roll 0 lt exch 0 lt or or not {BackgroundColor C 1.000 0 0 7200.00 5040.00 BoxColFill} if
1.000 UL
LTb
LCb setrgbcolor
0.500 UL
LTa
LCa setrgbcolor
770 448 M
6177 0 V
stroke
1.000 UL
LTb
LCb setrgbcolor
770 448 M
63 0 V
6114 0 R
-63 0 V
stroke
686 448 M
[ [(roman) 160.0 0.0 true true 0 (-0.03)]
] -53.3 MRshow
1.000 UL
LTb
LCb setrgbcolor
0.500 UL
LTa
LCa setrgbcolor
770 1133 M
6177 0 V
stroke
1.000 UL
LTb
LCb setrgbcolor
770 1133 M
63 0 V
6114 0 R
-63 0 V
stroke
686 1133 M
[ [(roman) 160.0 0.0 true true 0 (-0.02)]
] -53.3 MRshow
1.000 UL
LTb
LCb setrgbcolor
0.500 UL
LTa
LCa setrgbcolor
770 1818 M
6177 0 V
stroke
1.000 UL
LTb
LCb setrgbcolor
770 1818 M
63 0 V
6114 0 R
-63 0 V
stroke
686 1818 M
[ [(roman) 160.0 0.0 true true 0 (-0.01)]
] -53.3 MRshow
1.000 UL
LTb
LCb setrgbcolor
0.500 UL
LTa
LCa setrgbcolor
770 2504 M
6177 0 V
stroke
1.000 UL
LTb
LCb setrgbcolor
770 2504 M
63 0 V
6114 0 R
-63 0 V
stroke
686 2504 M
[ [(roman) 160.0 0.0 true true 0 ( 0)]
] -53.3 MRshow
1.000 UL
LTb
LCb setrgbcolor
0.500 UL
LTa
LCa setrgbcolor
770 3189 M
6177 0 V
stroke
1.000 UL
LTb
LCb setrgbcolor
770 3189 M
63 0 V
6114 0 R
-63 0 V
stroke
686 3189 M
[ [(roman) 160.0 0.0 true true 0 ( 0.01)]
] -53.3 MRshow
1.000 UL
LTb
LCb setrgbcolor
0.500 UL
LTa
LCa setrgbcolor
770 3874 M
6177 0 V
stroke
1.000 UL
LTb
LCb setrgbcolor
770 3874 M
63 0 V
6114 0 R
-63 0 V
stroke
686 3874 M
[ [(roman) 160.0 0.0 true true 0 ( 0.02)]
] -53.3 MRshow
1.000 UL
LTb
LCb setrgbcolor
0.500 UL
LTa
LCa setrgbcolor
770 4559 M
6177 0 V
stroke
1.000 UL
LTb
LCb setrgbcolor
770 4559 M
63 0 V
6114 0 R
-63 0 V
stroke
686 4559 M
[ [(roman) 160.0 0.0 true true 0 ( 0.03)]
] -53.3 MRshow
1.000 UL
LTb
LCb setrgbcolor
0.500 UL
LTa
LCa setrgbcolor
1486 448 M
0 3728 V
0 320 R
0 63 V
stroke
1.000 UL
LTb
LCb setrgbcolor
1486 448 M
0 63 V
0 4048 R
0 -63 V
stroke
1486 308 M
[ [(roman) 160.0 0.0 true true 0 ( 30)]
] -53.3 MCshow
1.000 UL
LTb
LCb setrgbcolor
0.500 UL
LTa
LCa setrgbcolor
2381 448 M
0 3728 V
0 320 R
0 63 V
stroke
1.000 UL
LTb
LCb setrgbcolor
2381 448 M
0 63 V
0 4048 R
0 -63 V
stroke
2381 308 M
[ [(roman) 160.0 0.0 true true 0 ( 40)]
] -53.3 MCshow
1.000 UL
LTb
LCb setrgbcolor
0.500 UL
LTa
LCa setrgbcolor
3277 448 M
0 4111 V
stroke
1.000 UL
LTb
LCb setrgbcolor
3277 448 M
0 63 V
0 4048 R
0 -63 V
stroke
3277 308 M
[ [(roman) 160.0 0.0 true true 0 ( 50)]
] -53.3 MCshow
1.000 UL
LTb
LCb setrgbcolor
0.500 UL
LTa
LCa setrgbcolor
4172 448 M
0 4111 V
stroke
1.000 UL
LTb
LCb setrgbcolor
4172 448 M
0 63 V
0 4048 R
0 -63 V
stroke
4172 308 M
[ [(roman) 160.0 0.0 true true 0 ( 60)]
] -53.3 MCshow
1.000 UL
LTb
LCb setrgbcolor
0.500 UL
LTa
LCa setrgbcolor
5067 448 M
0 4111 V
stroke
1.000 UL
LTb
LCb setrgbcolor
5067 448 M
0 63 V
0 4048 R
0 -63 V
stroke
5067 308 M
[ [(roman) 160.0 0.0 true true 0 ( 70)]
] -53.3 MCshow
1.000 UL
LTb
LCb setrgbcolor
0.500 UL
LTa
LCa setrgbcolor
5962 448 M
0 4111 V
stroke
1.000 UL
LTb
LCb setrgbcolor
5962 448 M
0 63 V
0 4048 R
0 -63 V
stroke
5962 308 M
[ [(roman) 160.0 0.0 true true 0 ( 80)]
] -53.3 MCshow
1.000 UL
LTb
LCb setrgbcolor
0.500 UL
LTa
LCa setrgbcolor
6857 448 M
0 4111 V
stroke
1.000 UL
LTb
LCb setrgbcolor
6857 448 M
0 63 V
0 4048 R
0 -63 V
stroke
6857 308 M
[ [(roman) 160.0 0.0 true true 0 ( 90)]
] -53.3 MCshow
1.000 UL
LTb
LCb setrgbcolor
1.000 UL
LTB
LCb setrgbcolor
770 4559 N
770 448 L
6177 0 V
0 4111 V
-6177 0 V
Z stroke
1.000 UP
1.000 UL
LTb
LCb setrgbcolor
LCb setrgbcolor
126 2503 M
currentpoint gsave translate -270 rotate 0 0 moveto
[ [(roman) 200.0 0.0 true true 0 (x, y [m])]
] -66.7 MCshow
grestore
LTb
LCb setrgbcolor
3858 98 M
[ [(roman) 200.0 0.0 true true 0 (s [m])]
] -66.7 MCshow
LTb
LCb setrgbcolor
3858 4829 M
[ [(roman) 200.0 0.0 true true 0 (Orbits, from zgoubi.OPTICS.out)]
] -66.7 MCshow
% Begin plot #1
0.800 UP
2.000 UL
LTb
1.00 0.00 0.00 C % End plot #1
% Begin plot #2
0.800 UP
2.000 UL
LTb
0.00 0.00 1.00 C % End plot #2
% Begin plot #3
0.800 UL
LTb
0.00 0.00 0.00 C LCb setrgbcolor
1622 4416 M
[ [(roman) 160.0 0.0 true true 0 (x bm)]
] -53.3 MRshow
0.800 UL
LTb
0.00 0.00 0.00 C 1718 4416 M
159 0 V
770 2504 M
5 0 V
10 0 V
1 0 V
4 0 V
5 0 V
11 0 V
6 89 V
42 1186 V
19 345 V
0 23 V
0 -1643 V
46 0 V
8 0 V
2 0 V
13 0 V
18 0 V
8 0 V
3 0 V
20 0 V
25 0 V
13 0 V
3 0 V
8 0 V
7 0 V
3 0 V
20 0 V
7 0 V
13 0 V
6 0 V
43 0 V
2 0 V
14 0 V
2 0 V
4 0 V
19 0 V
8 0 V
38 0 V
3 0 V
3 0 V
19 0 V
6 0 V
14 0 V
3 0 V
43 0 V
5 0 V
13 0 V
4 0 V
3 0 V
20 0 V
9 0 V
8 0 V
4 0 V
13 0 V
22 0 V
3 0 V
20 0 V
13 0 V
9 0 V
2 0 V
14 0 V
14 0 V
46 0 V
0 -80 V
0 -927 V
0 79 V
19 244 V
0 -54 V
9 195 V
7 141 V
4 90 V
1 22 V
6 -188 V
1 -112 V
0 1 V
3 -266 V
5 -451 V
6 -292 V
5 277 V
2 95 V
0 -7 V
1 229 V
2 230 V
0 -6 V
1 168 V
6 374 V
5 -77 V
6 -540 V
5 -451 V
6 -292 V
6 277 V
1 95 V
0 -7 V
2 229 V
2 230 V
0 -6 V
1 168 V
6 374 V
5 -77 V
6 -540 V
5 -451 V
6 -292 V
6 277 V
1 95 V
0 -7 V
2 229 V
2 230 V
0 -6 V
1 168 V
5 374 V
6 -77 V
6 -540 V
5 -451 V
6 -292 V
6 277 V
1 95 V
0 -7 V
2 229 V
2 230 V
0 -6 V
1 168 V
5 374 V
6 -77 V
6 -540 V
5 -451 V
6 -292 V
5 277 V
2 95 V
0 -7 V
1 229 V
2 230 V
0 -6 V
1 168 V
6 374 V
5 -77 V
6 -540 V
5 -451 V
6 -292 V
6 277 V
1 95 V
0 -7 V
2 229 V
2 230 V
0 -6 V
1 168 V
6 374 V
5 -77 V
6 -540 V
5 -451 V
6 -292 V
6 277 V
1 95 V
0 -7 V
2 229 V
2 230 V
0 -6 V
1 168 V
5 374 V
6 -77 V
6 -540 V
5 -451 V
6 -292 V
6 277 V
1 95 V
0 -7 V
2 229 V
2 230 V
0 -6 V
1 168 V
5 374 V
6 -77 V
6 -540 V
5 -451 V
6 -292 V
5 277 V
2 95 V
0 -7 V
1 229 V
2 230 V
0 -6 V
1 168 V
6 374 V
5 -77 V
6 -540 V
5 -451 V
6 -292 V
6 277 V
1 95 V
0 -7 V
2 229 V
2 230 V
0 -6 V
1 168 V
6 374 V
5 -77 V
6 -540 V
5 -451 V
6 -292 V
6 277 V
1 95 V
0 -7 V
2 229 V
2 230 V
0 -6 V
1 168 V
5 374 V
6 -77 V
6 -540 V
5 -451 V
6 -292 V
6 277 V
1 95 V
0 -7 V
2 229 V
2 230 V
0 -6 V
1 168 V
5 374 V
6 -77 V
6 -540 V
5 -451 V
6 -292 V
5 277 V
2 95 V
0 -7 V
1 229 V
2 230 V
0 -6 V
1 168 V
6 374 V
5 -77 V
6 -540 V
5 -451 V
6 -292 V
6 277 V
1 95 V
0 -7 V
2 229 V
2 230 V
0 -6 V
1 168 V
6 374 V
5 -77 V
6 -540 V
5 -451 V
6 -292 V
6 277 V
1 95 V
stroke 2163 1278 M
0 -7 V
2 229 V
2 230 V
0 -6 V
1 168 V
5 374 V
6 -77 V
6 -540 V
5 -451 V
6 -292 V
6 277 V
1 95 V
0 -7 V
2 229 V
2 230 V
0 -6 V
1 168 V
5 374 V
6 -77 V
6 -540 V
5 -451 V
6 -292 V
5 277 V
2 95 V
0 -7 V
1 229 V
2 229 V
0 -6 V
1 169 V
11 298 V
6 -536 V
5 -448 V
6 -289 V
6 275 V
1 95 V
0 -7 V
2 228 V
2 227 V
0 -6 V
1 168 V
11 297 V
6 -530 V
5 -443 V
6 -286 V
6 271 V
1 94 V
0 -6 V
2 224 V
2 225 V
0 -6 V
1 167 V
11 292 V
6 -523 V
5 -438 V
6 -282 V
6 269 V
1 94 V
0 -7 V
2 222 V
2 221 V
0 -5 V
1 165 V
11 292 V
6 -510 V
5 -426 V
6 -275 V
6 262 V
1 92 V
0 -6 V
2 216 V
1 215 V
0 -5 V
2 163 V
10 283 V
6 -495 V
5 -415 V
6 -267 V
6 254 V
1 91 V
0 -6 V
2 209 V
2 208 V
0 -4 V
1 160 V
11 274 V
6 -477 V
5 -398 V
6 -258 V
6 245 V
1 89 V
0 -4 V
2 200 V
2 200 V
0 -4 V
1 156 V
11 266 V
6 -451 V
5 -377 V
6 -244 V
6 230 V
1 87 V
0 -4 V
2 188 V
2 189 V
0 -3 V
1 150 V
11 250 V
6 -426 V
5 -355 V
6 -231 V
6 217 V
1 84 V
0 -4 V
2 177 V
2 177 V
0 -2 V
1 143 V
11 237 V
6 -393 V
5 -328 V
6 -213 V
6 201 V
1 79 V
0 -3 V
2 163 V
2 164 V
0 -3 V
1 136 V
11 220 V
6 -356 V
5 -298 V
6 -193 V
6 181 V
1 73 V
0 -2 V
2 147 V
2 147 V
0 -2 V
1 126 V
11 198 V
6 -321 V
5 -269 V
6 -174 V
6 162 V
2 68 V
0 -1 V
1 132 V
2 131 V
0 -1 V
2 115 V
11 181 V
6 -280 V
5 -235 V
6 -152 V
5 142 V
2 61 V
0 -1 V
2 114 V
2 115 V
0 -1 V
1 103 V
11 159 V
6 -241 V
5 -202 V
6 -131 V
6 121 V
1 53 V
2 97 V
2 98 V
1 89 V
11 136 V
6 -205 V
5 -171 V
6 -111 V
6 103 V
2 46 V
1 83 V
2 82 V
2 77 V
11 119 V
6 -165 V
5 -138 V
6 -89 V
6 83 V
1 38 V
2 66 V
2 67 V
1 63 V
11 97 V
6 -131 V
5 -110 V
6 -72 V
6 65 V
1 31 V
2 52 V
2 53 V
2 51 V
11 77 V
6 -103 V
5 -85 V
6 -56 V
6 52 V
1 25 V
2 40 V
2 41 V
1 40 V
11 64 V
6 -73 V
5 -61 V
6 -39 V
6 36 V
2 18 V
1 29 V
2 29 V
2 29 V
11 45 V
6 -53 V
5 -44 V
6 -29 V
6 26 V
1 13 V
2 20 V
2 21 V
2 21 V
10 33 V
6 -36 V
5 -30 V
6 -19 V
6 19 V
2 9 V
2 14 V
2 14 V
1 14 V
11 26 V
6 -19 V
5 -17 V
6 -10 V
6 10 V
2 4 V
2 8 V
1 8 V
2 8 V
11 12 V
6 -13 V
5 -11 V
6 -7 V
6 6 V
1 4 V
2 4 V
stroke 3129 2479 M
2 5 V
2 5 V
11 9 V
6 -6 V
5 -5 V
6 -2 V
5 3 V
2 2 V
2 2 V
2 3 V
1 2 V
11 7 V
6 0 V
5 0 V
6 0 V
6 0 V
2 0 V
2 0 V
2 0 V
1 0 V
6 -1 V
5 0 V
6 0 V
5 0 V
6 0 V
6 0 V
2 0 V
1 0 V
2 0 V
2 0 V
5 0 V
6 1 V
6 0 V
5 0 V
6 0 V
6 0 V
1 0 V
2 0 V
2 0 V
2 0 V
5 0 V
6 0 V
6 0 V
5 0 V
5 0 V
6 0 V
2 0 V
2 0 V
2 -1 V
1 0 V
6 0 V
5 0 V
6 0 V
5 0 V
6 0 V
6 0 V
2 0 V
2 0 V
1 0 V
2 0 V
6 0 V
5 1 V
6 0 V
5 0 V
6 0 V
6 0 V
1 0 V
2 0 V
2 0 V
2 0 V
5 0 V
6 0 V
6 0 V
5 -1 V
6 0 V
6 0 V
1 0 V
2 0 V
2 0 V
2 0 V
5 0 V
5 0 V
6 0 V
5 0 V
6 0 V
6 0 V
2 0 V
2 0 V
2 0 V
1 0 V
6 1 V
5 0 V
6 0 V
5 0 V
6 0 V
6 0 V
2 0 V
2 0 V
1 0 V
2 0 V
5 0 V
6 -1 V
6 0 V
5 0 V
6 0 V
6 0 V
1 0 V
2 0 V
2 0 V
2 0 V
5 0 V
6 0 V
6 0 V
5 0 V
6 0 V
6 0 V
1 0 V
2 0 V
2 0 V
1 1 V
6 0 V
5 0 V
6 0 V
5 0 V
6 0 V
6 0 V
2 0 V
2 0 V
2 0 V
1 0 V
6 0 V
5 -1 V
6 0 V
5 0 V
6 0 V
6 0 V
2 0 V
1 0 V
2 0 V
2 0 V
5 0 V
6 0 V
6 0 V
5 1 V
6 0 V
6 0 V
1 0 V
2 0 V
2 0 V
2 0 V
5 0 V
6 0 V
6 0 V
5 0 V
6 0 V
5 0 V
2 0 V
2 0 V
2 0 V
1 0 V
6 -1 V
5 0 V
6 0 V
5 0 V
6 0 V
6 0 V
2 0 V
2 0 V
2 0 V
1 0 V
6 0 V
5 0 V
6 1 V
5 0 V
6 0 V
6 0 V
2 0 V
1 0 V
2 0 V
2 0 V
5 0 V
6 0 V
6 0 V
5 0 V
6 0 V
6 0 V
1 0 V
2 0 V
2 0 V
2 0 V
5 -1 V
5 0 V
6 0 V
5 0 V
6 0 V
6 0 V
2 0 V
2 0 V
2 0 V
1 0 V
6 0 V
5 1 V
6 0 V
5 0 V
6 0 V
6 0 V
2 0 V
2 0 V
1 0 V
2 0 V
5 0 V
6 0 V
6 0 V
5 0 V
6 -1 V
6 0 V
1 0 V
2 0 V
2 0 V
2 0 V
5 0 V
6 0 V
6 0 V
5 0 V
6 0 V
6 0 V
1 0 V
2 0 V
2 0 V
1 0 V
6 1 V
5 0 V
6 0 V
5 0 V
6 0 V
6 0 V
2 0 V
2 0 V
2 0 V
1 0 V
6 0 V
5 0 V
6 -1 V
5 0 V
6 0 V
6 0 V
2 0 V
2 0 V
1 0 V
stroke 4149 2503 M
2 0 V
5 0 V
6 0 V
6 0 V
5 0 V
6 0 V
6 0 V
1 0 V
2 0 V
2 0 V
2 0 V
5 1 V
6 0 V
6 0 V
5 0 V
6 0 V
6 0 V
1 0 V
2 0 V
2 0 V
1 0 V
6 0 V
5 -1 V
6 0 V
5 0 V
6 0 V
6 0 V
2 0 V
2 0 V
2 0 V
1 0 V
6 0 V
5 0 V
6 0 V
5 0 V
6 1 V
6 0 V
2 0 V
1 0 V
2 0 V
2 1 V
5 0 V
6 -2 V
6 -4 V
5 -3 V
6 -3 V
6 1 V
1 1 V
2 2 V
2 2 V
2 2 V
5 2 V
6 -4 V
6 -11 V
5 -10 V
5 -6 V
6 5 V
2 2 V
2 5 V
2 5 V
1 5 V
6 7 V
5 -4 V
6 -19 V
5 -15 V
6 -11 V
6 8 V
2 4 V
2 8 V
1 8 V
2 9 V
5 10 V
6 -9 V
6 -33 V
5 -27 V
6 -19 V
6 13 V
1 7 V
2 14 V
2 14 V
2 15 V
5 18 V
6 -12 V
6 -50 V
5 -42 V
6 -28 V
5 21 V
2 12 V
2 21 V
2 21 V
1 22 V
6 29 V
5 -15 V
6 -69 V
5 -59 V
6 -40 V
6 30 V
2 16 V
1 29 V
2 29 V
2 31 V
5 40 V
6 -21 V
6 -98 V
5 -81 V
6 -56 V
6 43 V
1 22 V
2 40 V
2 41 V
1 41 V
6 57 V
5 -25 V
6 -127 V
5 -106 V
6 -72 V
6 57 V
2 28 V
2 53 V
1 53 V
2 53 V
5 75 V
6 -31 V
6 -160 V
5 -134 V
6 -91 V
6 73 V
1 34 V
2 67 V
2 66 V
1 65 V
6 95 V
5 -39 V
6 -199 V
5 -167 V
6 -112 V
6 93 V
1 42 V
2 83 V
2 82 V
2 78 V
5 121 V
6 -43 V
6 -237 V
5 -198 V
6 -132 V
5 112 V
2 50 V
0 -1 V
2 98 V
2 99 V
0 -1 V
1 91 V
5 145 V
6 -49 V
6 -276 V
5 -231 V
6 -154 V
6 132 V
1 56 V
0 -1 V
2 115 V
2 115 V
0 -1 V
1 104 V
6 170 V
5 -55 V
6 -317 V
5 -265 V
6 -175 V
6 154 V
1 63 V
0 -1 V
2 132 V
2 133 V
0 -1 V
1 115 V
6 199 V
5 -58 V
6 -353 V
5 -294 V
6 -195 V
6 173 V
1 69 V
0 -2 V
2 148 V
2 148 V
0 -2 V
1 125 V
6 226 V
5 -65 V
6 -389 V
5 -326 V
6 -214 V
6 192 V
1 75 V
0 -3 V
2 164 V
2 163 V
0 -2 V
1 135 V
6 251 V
5 -68 V
6 -423 V
5 -353 V
6 -231 V
6 211 V
1 80 V
0 -4 V
2 178 V
2 178 V
0 -3 V
1 143 V
6 278 V
5 -70 V
6 -449 V
5 -375 V
6 -245 V
6 225 V
1 83 V
0 -4 V
2 189 V
2 190 V
0 -4 V
1 150 V
6 297 V
5 -74 V
6 -476 V
5 -397 V
6 -258 V
6 239 V
1 87 V
0 -5 V
2 201 V
2 201 V
0 -4 V
1 155 V
5 319 V
6 -75 V
6 -495 V
5 -413 V
6 -268 V
6 251 V
1 89 V
0 -5 V
2 209 V
2 210 V
0 -5 V
1 160 V
stroke 5080 1951 M
5 335 V
6 -76 V
6 -509 V
5 -425 V
6 -276 V
6 259 V
1 90 V
0 -6 V
2 216 V
2 216 V
0 -5 V
1 162 V
5 347 V
6 -79 V
6 -523 V
5 -437 V
6 -283 V
5 267 V
2 92 V
0 -6 V
1 222 V
2 222 V
0 -5 V
1 165 V
6 359 V
5 -77 V
6 -529 V
5 -442 V
6 -286 V
6 271 V
1 93 V
0 -7 V
2 225 V
2 225 V
0 -5 V
1 166 V
6 365 V
5 -78 V
6 -535 V
5 -448 V
6 -289 V
6 273 V
1 94 V
0 -7 V
2 228 V
2 227 V
0 -6 V
1 167 V
5 370 V
6 -79 V
6 -540 V
5 -451 V
6 -292 V
6 277 V
1 95 V
0 -7 V
2 229 V
2 230 V
0 -6 V
1 168 V
5 374 V
6 -77 V
6 -540 V
5 -451 V
6 -292 V
6 277 V
1 95 V
0 -7 V
1 229 V
2 230 V
0 -6 V
1 168 V
6 374 V
5 -77 V
6 -540 V
5 -451 V
6 -292 V
6 277 V
1 95 V
0 -7 V
2 229 V
2 230 V
0 -6 V
1 168 V
6 374 V
5 -77 V
6 -540 V
5 -451 V
6 -292 V
6 277 V
1 95 V
0 -7 V
2 229 V
2 230 V
0 -6 V
1 168 V
5 374 V
6 -77 V
6 -540 V
5 -451 V
6 -292 V
6 277 V
1 95 V
0 -7 V
2 229 V
2 230 V
0 -6 V
1 168 V
5 374 V
6 -77 V
6 -540 V
5 -451 V
6 -292 V
5 277 V
2 95 V
0 -7 V
1 229 V
2 230 V
0 -6 V
1 168 V
6 374 V
5 -77 V
6 -540 V
5 -451 V
6 -292 V
6 277 V
1 95 V
0 -7 V
2 229 V
2 230 V
0 -6 V
1 168 V
6 374 V
5 -77 V
6 -540 V
5 -451 V
6 -292 V
6 277 V
1 95 V
0 -7 V
2 229 V
2 230 V
0 -6 V
1 168 V
5 374 V
6 -77 V
6 -540 V
5 -451 V
6 -292 V
6 277 V
1 95 V
0 -7 V
2 229 V
2 230 V
0 -6 V
1 168 V
5 374 V
6 -77 V
6 -540 V
5 -451 V
6 -292 V
5 277 V
2 95 V
0 -7 V
1 229 V
2 230 V
0 -6 V
1 168 V
6 374 V
5 -77 V
6 -540 V
5 -451 V
6 -292 V
6 277 V
1 95 V
0 -7 V
2 229 V
2 230 V
0 -6 V
1 168 V
6 374 V
5 -77 V
6 -540 V
5 -451 V
6 -292 V
6 277 V
1 95 V
0 -7 V
2 229 V
2 230 V
0 -6 V
1 168 V
5 374 V
6 -77 V
6 -540 V
5 -451 V
6 -292 V
6 277 V
1 95 V
0 -7 V
2 229 V
2 230 V
0 -6 V
1 168 V
5 374 V
6 -77 V
6 -540 V
5 -451 V
6 -292 V
5 277 V
2 95 V
0 -7 V
1 229 V
2 230 V
0 -6 V
1 168 V
6 374 V
5 -77 V
6 -540 V
5 -451 V
6 -292 V
6 277 V
1 95 V
0 -7 V
2 229 V
2 230 V
0 -6 V
1 168 V
6 374 V
5 -77 V
6 -540 V
5 -451 V
6 -292 V
6 277 V
1 95 V
0 -7 V
2 226 V
2 227 V
0 -6 V
1 165 V
5 355 V
6 -103 V
6 -580 V
2 -190 V
0 2 V
1 -90 V
6 -313 V
1 -1 V
4 -1 V
stroke 5906 962 M
7 -3 V
10 -5 V
0 18 V
18 205 V
0 -60 V
0 1386 V
54 0 V
15 0 V
13 0 V
1 0 V
8 0 V
8 0 V
20 0 V
3 0 V
21 1 V
14 0 V
2 0 V
9 0 V
10 0 V
20 0 V
3 0 V
3 0 V
14 0 V
3 0 V
44 0 V
4 0 V
14 0 V
5 0 V
20 0 V
3 0 V
3 0 V
41 -1 V
9 0 V
20 0 V
3 0 V
3 0 V
13 0 V
3 0 V
43 0 V
5 0 V
14 0 V
7 0 V
19 1 V
4 0 V
6 0 V
8 0 V
4 0 V
13 0 V
25 0 V
20 0 V
3 0 V
3 0 V
14 0 V
7 0 V
18 0 V
8 0 V
45 0 V
0 -103 V
0 103 V
19 0 V
183 -1 V
0 1 V
7 -88 V
0 88 V
54 0 V
0 -2011 V
0 -1 V
22 2011 V
17 0 V
14 0 V
2 0 V
16 0 V
% End plot #3
% Begin plot #4
stroke
LTb
0.65 0.16 0.16 C LCb setrgbcolor
1622 4256 M
[ [(roman) 160.0 0.0 true true 0 (y bm)]
] -53.3 MRshow
0.800 UL
LTb
0.65 0.16 0.16 C 1718 4256 M
159 0 V
770 2504 M
5 0 V
10 0 V
1 0 V
4 0 V
5 0 V
11 0 V
6 0 V
42 0 V
19 0 V
46 0 V
8 0 V
2 0 V
13 0 V
18 0 V
8 0 V
3 0 V
20 0 V
25 0 V
13 0 V
3 0 V
8 0 V
7 0 V
3 0 V
20 0 V
7 0 V
13 0 V
6 0 V
43 0 V
2 0 V
14 0 V
2 0 V
4 0 V
19 0 V
8 0 V
38 0 V
3 0 V
3 0 V
19 0 V
6 0 V
14 0 V
3 0 V
43 0 V
5 0 V
13 0 V
4 0 V
3 0 V
20 0 V
9 0 V
8 0 V
4 0 V
13 0 V
22 0 V
3 0 V
20 0 V
13 0 V
9 0 V
2 0 V
14 0 V
14 0 V
46 0 V
19 0 V
9 0 V
7 0 V
4 0 V
1 0 V
6 0 V
1 0 V
3 0 V
5 0 V
6 0 V
5 0 V
2 0 V
1 0 V
2 0 V
1 0 V
6 0 V
5 0 V
6 0 V
5 0 V
6 0 V
6 0 V
1 0 V
2 0 V
2 0 V
1 0 V
6 0 V
5 0 V
6 0 V
5 0 V
6 0 V
6 0 V
1 0 V
2 0 V
2 0 V
1 0 V
5 0 V
6 0 V
6 0 V
5 0 V
6 0 V
6 0 V
1 0 V
2 0 V
2 0 V
1 0 V
5 0 V
6 0 V
6 0 V
5 0 V
6 0 V
5 0 V
2 0 V
1 0 V
2 0 V
1 0 V
6 0 V
5 0 V
6 0 V
5 0 V
6 0 V
6 0 V
1 0 V
2 0 V
2 0 V
1 0 V
6 0 V
5 0 V
6 0 V
5 0 V
6 0 V
6 0 V
1 0 V
2 0 V
2 0 V
1 0 V
5 0 V
6 0 V
6 0 V
5 0 V
6 0 V
6 0 V
1 0 V
2 0 V
2 0 V
1 0 V
5 0 V
6 0 V
6 0 V
5 0 V
6 0 V
5 0 V
2 0 V
1 0 V
2 0 V
1 0 V
6 0 V
5 0 V
6 0 V
5 0 V
6 0 V
6 0 V
1 0 V
2 0 V
2 0 V
1 0 V
6 0 V
5 0 V
6 0 V
5 0 V
6 0 V
6 0 V
1 0 V
2 0 V
2 0 V
1 0 V
5 0 V
6 0 V
6 0 V
5 0 V
6 0 V
6 0 V
1 0 V
2 0 V
2 0 V
1 0 V
5 0 V
6 0 V
6 0 V
5 0 V
6 0 V
5 0 V
2 0 V
1 0 V
2 0 V
1 0 V
6 0 V
5 0 V
6 0 V
5 0 V
6 0 V
6 0 V
1 0 V
2 0 V
2 0 V
1 0 V
6 0 V
5 0 V
6 0 V
5 0 V
6 0 V
6 0 V
1 0 V
2 0 V
2 0 V
1 0 V
5 0 V
6 0 V
6 0 V
5 0 V
6 0 V
6 0 V
1 0 V
2 0 V
2 0 V
1 0 V
5 0 V
6 0 V
6 0 V
5 0 V
6 0 V
5 0 V
2 0 V
1 0 V
2 0 V
1 0 V
11 0 V
6 0 V
5 0 V
6 0 V
6 0 V
1 0 V
2 0 V
2 0 V
1 0 V
11 0 V
6 0 V
5 0 V
stroke 2309 2504 M
6 0 V
6 0 V
1 0 V
2 0 V
2 0 V
1 0 V
11 0 V
6 0 V
5 0 V
6 0 V
6 0 V
1 0 V
2 0 V
2 0 V
1 0 V
11 0 V
6 0 V
5 0 V
6 0 V
6 0 V
1 0 V
2 0 V
1 0 V
2 0 V
10 0 V
6 0 V
5 0 V
6 0 V
6 0 V
1 0 V
2 0 V
2 0 V
1 0 V
11 0 V
6 0 V
5 0 V
6 0 V
6 0 V
1 0 V
2 0 V
2 0 V
1 0 V
11 0 V
6 0 V
5 0 V
6 0 V
6 0 V
1 0 V
2 0 V
2 0 V
1 0 V
11 0 V
6 0 V
5 0 V
6 0 V
6 0 V
1 0 V
2 0 V
2 0 V
1 0 V
11 0 V
6 0 V
5 0 V
6 0 V
6 0 V
1 0 V
2 0 V
2 0 V
1 0 V
11 0 V
6 0 V
5 0 V
6 0 V
6 0 V
1 0 V
2 0 V
2 0 V
1 0 V
11 0 V
6 0 V
5 0 V
6 0 V
6 0 V
2 0 V
1 0 V
2 0 V
2 0 V
11 0 V
6 0 V
5 0 V
6 0 V
5 0 V
2 0 V
2 0 V
2 0 V
1 0 V
11 0 V
6 0 V
5 0 V
6 0 V
6 0 V
1 0 V
2 0 V
2 0 V
1 0 V
11 0 V
6 0 V
5 0 V
6 0 V
6 0 V
2 0 V
1 0 V
2 0 V
2 0 V
11 0 V
6 0 V
5 0 V
6 0 V
6 0 V
1 0 V
2 0 V
2 0 V
1 0 V
11 0 V
6 0 V
5 0 V
6 0 V
6 0 V
1 0 V
2 0 V
2 0 V
2 0 V
11 0 V
6 0 V
5 0 V
6 0 V
6 0 V
1 0 V
2 0 V
2 0 V
1 0 V
11 0 V
6 0 V
5 0 V
6 0 V
6 0 V
2 0 V
1 0 V
2 0 V
2 0 V
11 0 V
6 0 V
5 0 V
6 0 V
6 0 V
1 0 V
2 0 V
2 0 V
2 0 V
10 0 V
6 0 V
5 0 V
6 0 V
6 0 V
2 0 V
2 0 V
2 0 V
1 0 V
11 0 V
6 0 V
5 0 V
6 0 V
6 0 V
2 0 V
2 0 V
1 0 V
2 0 V
11 0 V
6 0 V
5 0 V
6 0 V
6 0 V
1 0 V
2 0 V
2 0 V
2 0 V
11 0 V
6 0 V
5 0 V
6 0 V
5 0 V
2 0 V
2 0 V
2 0 V
1 0 V
11 0 V
6 0 V
5 0 V
6 0 V
6 0 V
2 0 V
2 0 V
2 0 V
1 0 V
6 0 V
5 0 V
6 0 V
5 0 V
6 0 V
6 0 V
2 0 V
1 0 V
2 0 V
2 0 V
5 0 V
6 0 V
6 0 V
5 0 V
6 0 V
6 0 V
1 0 V
2 0 V
2 0 V
2 0 V
5 0 V
6 0 V
6 0 V
5 0 V
5 0 V
6 0 V
2 0 V
2 0 V
2 0 V
1 0 V
6 0 V
5 0 V
6 0 V
5 0 V
6 0 V
6 0 V
2 0 V
2 0 V
1 0 V
2 0 V
6 0 V
5 0 V
6 0 V
5 0 V
6 0 V
stroke 3405 2504 M
6 0 V
1 0 V
2 0 V
2 0 V
2 0 V
5 0 V
6 0 V
6 0 V
5 0 V
6 0 V
6 0 V
1 0 V
2 0 V
2 0 V
2 0 V
5 0 V
5 0 V
6 0 V
5 0 V
6 0 V
6 0 V
2 0 V
2 0 V
2 0 V
1 0 V
6 0 V
5 0 V
6 0 V
5 0 V
6 0 V
6 0 V
2 0 V
2 0 V
1 0 V
2 0 V
5 0 V
6 0 V
6 0 V
5 0 V
6 0 V
6 0 V
1 0 V
2 0 V
2 0 V
2 0 V
5 0 V
6 0 V
6 0 V
5 0 V
6 0 V
6 0 V
1 0 V
2 0 V
2 0 V
1 0 V
6 0 V
5 0 V
6 0 V
5 0 V
6 0 V
6 0 V
2 0 V
2 0 V
2 0 V
1 0 V
6 0 V
5 0 V
6 0 V
5 0 V
6 0 V
6 0 V
2 0 V
1 0 V
2 0 V
2 0 V
5 0 V
6 0 V
6 0 V
5 0 V
6 0 V
6 0 V
1 0 V
2 0 V
2 0 V
2 0 V
5 0 V
6 0 V
6 0 V
5 0 V
6 0 V
5 0 V
2 0 V
2 0 V
2 0 V
1 0 V
6 0 V
5 0 V
6 0 V
5 0 V
6 0 V
6 0 V
2 0 V
2 0 V
2 0 V
1 0 V
6 0 V
5 0 V
6 0 V
5 0 V
6 0 V
6 0 V
2 0 V
1 0 V
2 0 V
2 0 V
5 0 V
6 0 V
6 0 V
5 0 V
6 0 V
6 0 V
1 0 V
2 0 V
2 0 V
2 0 V
5 0 V
5 0 V
6 0 V
5 0 V
6 0 V
6 0 V
2 0 V
2 0 V
2 0 V
1 0 V
6 0 V
5 0 V
6 0 V
5 0 V
6 0 V
6 0 V
2 0 V
2 0 V
1 0 V
2 0 V
5 0 V
6 0 V
6 0 V
5 0 V
6 0 V
6 0 V
1 0 V
2 0 V
2 0 V
2 0 V
5 0 V
6 0 V
6 0 V
5 0 V
6 0 V
6 0 V
1 0 V
2 0 V
2 0 V
1 0 V
6 0 V
5 0 V
6 0 V
5 0 V
6 0 V
6 0 V
2 0 V
2 0 V
2 0 V
1 0 V
6 0 V
5 0 V
6 0 V
5 0 V
6 0 V
6 0 V
2 0 V
2 0 V
1 0 V
2 0 V
5 0 V
6 0 V
6 0 V
5 0 V
6 0 V
6 0 V
1 0 V
2 0 V
2 0 V
2 0 V
5 0 V
6 0 V
6 0 V
5 0 V
6 0 V
6 0 V
1 0 V
2 0 V
2 0 V
1 0 V
6 0 V
5 0 V
6 0 V
5 0 V
6 0 V
6 0 V
2 0 V
2 0 V
2 0 V
1 0 V
6 0 V
5 0 V
6 0 V
5 0 V
6 0 V
6 0 V
2 0 V
1 0 V
2 0 V
2 0 V
5 0 V
6 0 V
6 0 V
5 0 V
6 0 V
6 0 V
1 0 V
2 0 V
2 0 V
2 0 V
5 0 V
6 0 V
6 0 V
5 0 V
5 0 V
6 0 V
2 0 V
2 0 V
2 0 V
1 0 V
6 0 V
5 0 V
6 0 V
5 0 V
stroke 4417 2504 M
6 0 V
6 0 V
2 0 V
2 0 V
1 0 V
2 0 V
5 0 V
6 0 V
6 0 V
5 0 V
6 0 V
6 0 V
1 0 V
2 0 V
2 0 V
2 0 V
5 0 V
6 0 V
6 0 V
5 0 V
6 0 V
5 0 V
2 0 V
2 0 V
2 0 V
1 0 V
6 0 V
5 0 V
6 0 V
5 0 V
6 0 V
6 0 V
2 0 V
1 0 V
2 0 V
2 0 V
5 0 V
6 0 V
6 0 V
5 0 V
6 0 V
6 0 V
1 0 V
2 0 V
2 0 V
1 0 V
6 0 V
5 0 V
6 0 V
5 0 V
6 0 V
6 0 V
2 0 V
2 0 V
1 0 V
2 0 V
5 0 V
6 0 V
6 0 V
5 0 V
6 0 V
6 0 V
1 0 V
2 0 V
2 0 V
1 0 V
6 0 V
5 0 V
6 0 V
5 0 V
6 0 V
6 0 V
1 0 V
2 0 V
2 0 V
2 0 V
5 0 V
6 0 V
6 0 V
5 0 V
6 0 V
5 0 V
2 0 V
2 0 V
2 0 V
1 0 V
5 0 V
6 0 V
6 0 V
5 0 V
6 0 V
6 0 V
1 0 V
2 0 V
2 0 V
1 0 V
6 0 V
5 0 V
6 0 V
5 0 V
6 0 V
6 0 V
1 0 V
2 0 V
2 0 V
1 0 V
6 0 V
5 0 V
6 0 V
5 0 V
6 0 V
6 0 V
1 0 V
2 0 V
2 0 V
1 0 V
6 0 V
5 0 V
6 0 V
5 0 V
6 0 V
6 0 V
1 0 V
2 0 V
2 0 V
1 0 V
6 0 V
5 0 V
6 0 V
5 0 V
6 0 V
6 0 V
1 0 V
2 0 V
2 0 V
1 0 V
6 0 V
5 0 V
6 0 V
5 0 V
6 0 V
6 0 V
1 0 V
2 0 V
2 0 V
1 0 V
6 0 V
5 0 V
6 0 V
5 0 V
6 0 V
6 0 V
1 0 V
2 0 V
2 0 V
1 0 V
5 0 V
6 0 V
6 0 V
5 0 V
6 0 V
6 0 V
1 0 V
2 0 V
2 0 V
1 0 V
5 0 V
6 0 V
6 0 V
5 0 V
6 0 V
6 0 V
1 0 V
2 0 V
2 0 V
1 0 V
5 0 V
6 0 V
6 0 V
5 0 V
6 0 V
5 0 V
2 0 V
1 0 V
2 0 V
1 0 V
6 0 V
5 0 V
6 0 V
5 0 V
6 0 V
6 0 V
1 0 V
2 0 V
2 0 V
1 0 V
6 0 V
5 0 V
6 0 V
5 0 V
6 0 V
6 0 V
1 0 V
2 0 V
2 0 V
1 0 V
5 0 V
6 0 V
6 0 V
5 0 V
6 0 V
6 0 V
1 0 V
2 0 V
2 0 V
1 0 V
5 0 V
6 0 V
6 0 V
5 0 V
6 0 V
6 0 V
1 0 V
1 0 V
2 0 V
1 0 V
6 0 V
5 0 V
6 0 V
5 0 V
6 0 V
6 0 V
1 0 V
2 0 V
2 0 V
1 0 V
6 0 V
5 0 V
6 0 V
5 0 V
6 0 V
6 0 V
1 0 V
2 0 V
2 0 V
1 0 V
5 0 V
6 0 V
6 0 V
stroke 5415 2504 M
5 0 V
6 0 V
6 0 V
1 0 V
2 0 V
2 0 V
1 0 V
5 0 V
6 0 V
6 0 V
5 0 V
6 0 V
5 0 V
2 0 V
1 0 V
2 0 V
1 0 V
6 0 V
5 0 V
6 0 V
5 0 V
6 0 V
6 0 V
1 0 V
2 0 V
2 0 V
1 0 V
6 0 V
5 0 V
6 0 V
5 0 V
6 0 V
6 0 V
1 0 V
2 0 V
2 0 V
1 0 V
5 0 V
6 0 V
6 0 V
5 0 V
6 0 V
6 0 V
1 0 V
2 0 V
2 0 V
1 0 V
5 0 V
6 0 V
6 0 V
5 0 V
6 0 V
5 0 V
2 0 V
1 0 V
2 0 V
1 0 V
6 0 V
5 0 V
6 0 V
5 0 V
6 0 V
6 0 V
1 0 V
2 0 V
2 0 V
1 0 V
6 0 V
5 0 V
6 0 V
5 0 V
6 0 V
6 0 V
1 0 V
2 0 V
2 0 V
1 0 V
5 0 V
6 0 V
6 0 V
5 0 V
6 0 V
6 0 V
1 0 V
2 0 V
2 0 V
1 0 V
5 0 V
6 0 V
6 0 V
5 0 V
6 0 V
5 0 V
2 0 V
1 0 V
2 0 V
1 0 V
6 0 V
5 0 V
6 0 V
5 0 V
6 0 V
6 0 V
1 0 V
2 0 V
2 0 V
1 0 V
6 0 V
5 0 V
6 0 V
5 0 V
6 0 V
6 0 V
1 0 V
2 0 V
2 0 V
1 0 V
5 0 V
6 0 V
6 0 V
2 0 V
1 0 V
6 0 V
1 0 V
4 0 V
7 0 V
10 0 V
18 0 V
54 0 V
15 0 V
13 0 V
1 0 V
8 0 V
8 0 V
20 0 V
3 0 V
21 0 V
14 0 V
2 0 V
9 0 V
10 0 V
20 0 V
3 0 V
3 0 V
14 0 V
3 0 V
44 0 V
4 0 V
14 0 V
5 0 V
20 0 V
3 0 V
3 0 V
41 0 V
9 0 V
20 0 V
3 0 V
3 0 V
13 0 V
3 0 V
43 0 V
5 0 V
14 0 V
7 0 V
19 0 V
4 0 V
6 0 V
8 0 V
4 0 V
13 0 V
25 0 V
20 0 V
3 0 V
3 0 V
14 0 V
7 0 V
18 0 V
8 0 V
45 0 V
19 0 V
183 0 V
7 0 V
54 0 V
22 0 V
17 0 V
14 0 V
2 0 V
16 0 V
% End plot #4
stroke
2.000 UL
LTb
LCb setrgbcolor
1.000 UL
LTB
LCb setrgbcolor
770 4559 N
770 448 L
6177 0 V
0 4111 V
-6177 0 V
Z stroke
1.000 UP
1.000 UL
LTb
LCb setrgbcolor
stroke
grestore
end
showpage
%%Trailer
%%DocumentFonts: roman Helvetica
