%!PS-Adobe-2.0 EPSF-2.0
%%Title: gnuplot_OPTICS_bxyDxy.eps
%%Creator: gnuplot 5.2 patchlevel 2
%%CreationDate: Wed Aug 28 08:36:14 2019
%%DocumentFonts: (atend)
%%BoundingBox: 50 50 410 302
%%EndComments
%%BeginProlog
/gnudict 256 dict def
gnudict begin
%
% The following true/false flags may be edited by hand if desired.
% The unit line width and grayscale image gamma correction may also be changed.
%
/Color true def
/Blacktext true def
/Solid false def
/Dashlength 1 def
/Landscape false def
/Level1 false def
/Level3 false def
/Rounded false def
/ClipToBoundingBox false def
/SuppressPDFMark false def
/TransparentPatterns false def
/gnulinewidth 5.000 def
/userlinewidth gnulinewidth def
/Gamma 1.0 def
/BackgroundColor {-1.000 -1.000 -1.000} def
%
/vshift -46 def
/dl1 {
  10.0 Dashlength userlinewidth gnulinewidth div mul mul mul
  Rounded { currentlinewidth 0.75 mul sub dup 0 le { pop 0.01 } if } if
} def
/dl2 {
  10.0 Dashlength userlinewidth gnulinewidth div mul mul mul
  Rounded { currentlinewidth 0.75 mul add } if
} def
/hpt_ 31.5 def
/vpt_ 31.5 def
/hpt hpt_ def
/vpt vpt_ def
/doclip {
  ClipToBoundingBox {
    newpath 50 50 moveto 410 50 lineto 410 302 lineto 50 302 lineto closepath
    clip
  } if
} def
%
% Gnuplot Prolog Version 5.1 (Oct 2015)
%
%/SuppressPDFMark true def
%
/M {moveto} bind def
/L {lineto} bind def
/R {rmoveto} bind def
/V {rlineto} bind def
/N {newpath moveto} bind def
/Z {closepath} bind def
/C {setrgbcolor} bind def
/f {rlineto fill} bind def
/g {setgray} bind def
/Gshow {show} def   % May be redefined later in the file to support UTF-8
/vpt2 vpt 2 mul def
/hpt2 hpt 2 mul def
/Lshow {currentpoint stroke M 0 vshift R 
	Blacktext {gsave 0 setgray textshow grestore} {textshow} ifelse} def
/Rshow {currentpoint stroke M dup stringwidth pop neg vshift R
	Blacktext {gsave 0 setgray textshow grestore} {textshow} ifelse} def
/Cshow {currentpoint stroke M dup stringwidth pop -2 div vshift R 
	Blacktext {gsave 0 setgray textshow grestore} {textshow} ifelse} def
/UP {dup vpt_ mul /vpt exch def hpt_ mul /hpt exch def
  /hpt2 hpt 2 mul def /vpt2 vpt 2 mul def} def
/DL {Color {setrgbcolor Solid {pop []} if 0 setdash}
 {pop pop pop 0 setgray Solid {pop []} if 0 setdash} ifelse} def
/BL {stroke userlinewidth 2 mul setlinewidth
	Rounded {1 setlinejoin 1 setlinecap} if} def
/AL {stroke userlinewidth 2 div setlinewidth
	Rounded {1 setlinejoin 1 setlinecap} if} def
/UL {dup gnulinewidth mul /userlinewidth exch def
	dup 1 lt {pop 1} if 10 mul /udl exch def} def
/PL {stroke userlinewidth setlinewidth
	Rounded {1 setlinejoin 1 setlinecap} if} def
3.8 setmiterlimit
% Classic Line colors (version 5.0)
/LCw {1 1 1} def
/LCb {0 0 0} def
/LCa {0 0 0} def
/LC0 {1 0 0} def
/LC1 {0 1 0} def
/LC2 {0 0 1} def
/LC3 {1 0 1} def
/LC4 {0 1 1} def
/LC5 {1 1 0} def
/LC6 {0 0 0} def
/LC7 {1 0.3 0} def
/LC8 {0.5 0.5 0.5} def
% Default dash patterns (version 5.0)
/LTB {BL [] LCb DL} def
/LTw {PL [] 1 setgray} def
/LTb {PL [] LCb DL} def
/LTa {AL [1 udl mul 2 udl mul] 0 setdash LCa setrgbcolor} def
/LT0 {PL [] LC0 DL} def
/LT1 {PL [2 dl1 3 dl2] LC1 DL} def
/LT2 {PL [1 dl1 1.5 dl2] LC2 DL} def
/LT3 {PL [6 dl1 2 dl2 1 dl1 2 dl2] LC3 DL} def
/LT4 {PL [1 dl1 2 dl2 6 dl1 2 dl2 1 dl1 2 dl2] LC4 DL} def
/LT5 {PL [4 dl1 2 dl2] LC5 DL} def
/LT6 {PL [1.5 dl1 1.5 dl2 1.5 dl1 1.5 dl2 1.5 dl1 6 dl2] LC6 DL} def
/LT7 {PL [3 dl1 3 dl2 1 dl1 3 dl2] LC7 DL} def
/LT8 {PL [2 dl1 2 dl2 2 dl1 6 dl2] LC8 DL} def
/SL {[] 0 setdash} def
/Pnt {stroke [] 0 setdash gsave 1 setlinecap M 0 0 V stroke grestore} def
/Dia {stroke [] 0 setdash 2 copy vpt add M
  hpt neg vpt neg V hpt vpt neg V
  hpt vpt V hpt neg vpt V closepath stroke
  Pnt} def
/Pls {stroke [] 0 setdash vpt sub M 0 vpt2 V
  currentpoint stroke M
  hpt neg vpt neg R hpt2 0 V stroke
 } def
/Box {stroke [] 0 setdash 2 copy exch hpt sub exch vpt add M
  0 vpt2 neg V hpt2 0 V 0 vpt2 V
  hpt2 neg 0 V closepath stroke
  Pnt} def
/Crs {stroke [] 0 setdash exch hpt sub exch vpt add M
  hpt2 vpt2 neg V currentpoint stroke M
  hpt2 neg 0 R hpt2 vpt2 V stroke} def
/TriU {stroke [] 0 setdash 2 copy vpt 1.12 mul add M
  hpt neg vpt -1.62 mul V
  hpt 2 mul 0 V
  hpt neg vpt 1.62 mul V closepath stroke
  Pnt} def
/Star {2 copy Pls Crs} def
/BoxF {stroke [] 0 setdash exch hpt sub exch vpt add M
  0 vpt2 neg V hpt2 0 V 0 vpt2 V
  hpt2 neg 0 V closepath fill} def
/TriUF {stroke [] 0 setdash vpt 1.12 mul add M
  hpt neg vpt -1.62 mul V
  hpt 2 mul 0 V
  hpt neg vpt 1.62 mul V closepath fill} def
/TriD {stroke [] 0 setdash 2 copy vpt 1.12 mul sub M
  hpt neg vpt 1.62 mul V
  hpt 2 mul 0 V
  hpt neg vpt -1.62 mul V closepath stroke
  Pnt} def
/TriDF {stroke [] 0 setdash vpt 1.12 mul sub M
  hpt neg vpt 1.62 mul V
  hpt 2 mul 0 V
  hpt neg vpt -1.62 mul V closepath fill} def
/DiaF {stroke [] 0 setdash vpt add M
  hpt neg vpt neg V hpt vpt neg V
  hpt vpt V hpt neg vpt V closepath fill} def
/Pent {stroke [] 0 setdash 2 copy gsave
  translate 0 hpt M 4 {72 rotate 0 hpt L} repeat
  closepath stroke grestore Pnt} def
/PentF {stroke [] 0 setdash gsave
  translate 0 hpt M 4 {72 rotate 0 hpt L} repeat
  closepath fill grestore} def
/Circle {stroke [] 0 setdash 2 copy
  hpt 0 360 arc stroke Pnt} def
/CircleF {stroke [] 0 setdash hpt 0 360 arc fill} def
/C0 {BL [] 0 setdash 2 copy moveto vpt 90 450 arc} bind def
/C1 {BL [] 0 setdash 2 copy moveto
	2 copy vpt 0 90 arc closepath fill
	vpt 0 360 arc closepath} bind def
/C2 {BL [] 0 setdash 2 copy moveto
	2 copy vpt 90 180 arc closepath fill
	vpt 0 360 arc closepath} bind def
/C3 {BL [] 0 setdash 2 copy moveto
	2 copy vpt 0 180 arc closepath fill
	vpt 0 360 arc closepath} bind def
/C4 {BL [] 0 setdash 2 copy moveto
	2 copy vpt 180 270 arc closepath fill
	vpt 0 360 arc closepath} bind def
/C5 {BL [] 0 setdash 2 copy moveto
	2 copy vpt 0 90 arc
	2 copy moveto
	2 copy vpt 180 270 arc closepath fill
	vpt 0 360 arc} bind def
/C6 {BL [] 0 setdash 2 copy moveto
	2 copy vpt 90 270 arc closepath fill
	vpt 0 360 arc closepath} bind def
/C7 {BL [] 0 setdash 2 copy moveto
	2 copy vpt 0 270 arc closepath fill
	vpt 0 360 arc closepath} bind def
/C8 {BL [] 0 setdash 2 copy moveto
	2 copy vpt 270 360 arc closepath fill
	vpt 0 360 arc closepath} bind def
/C9 {BL [] 0 setdash 2 copy moveto
	2 copy vpt 270 450 arc closepath fill
	vpt 0 360 arc closepath} bind def
/C10 {BL [] 0 setdash 2 copy 2 copy moveto vpt 270 360 arc closepath fill
	2 copy moveto
	2 copy vpt 90 180 arc closepath fill
	vpt 0 360 arc closepath} bind def
/C11 {BL [] 0 setdash 2 copy moveto
	2 copy vpt 0 180 arc closepath fill
	2 copy moveto
	2 copy vpt 270 360 arc closepath fill
	vpt 0 360 arc closepath} bind def
/C12 {BL [] 0 setdash 2 copy moveto
	2 copy vpt 180 360 arc closepath fill
	vpt 0 360 arc closepath} bind def
/C13 {BL [] 0 setdash 2 copy moveto
	2 copy vpt 0 90 arc closepath fill
	2 copy moveto
	2 copy vpt 180 360 arc closepath fill
	vpt 0 360 arc closepath} bind def
/C14 {BL [] 0 setdash 2 copy moveto
	2 copy vpt 90 360 arc closepath fill
	vpt 0 360 arc} bind def
/C15 {BL [] 0 setdash 2 copy vpt 0 360 arc closepath fill
	vpt 0 360 arc closepath} bind def
/Rec {newpath 4 2 roll moveto 1 index 0 rlineto 0 exch rlineto
	neg 0 rlineto closepath} bind def
/Square {dup Rec} bind def
/Bsquare {vpt sub exch vpt sub exch vpt2 Square} bind def
/S0 {BL [] 0 setdash 2 copy moveto 0 vpt rlineto BL Bsquare} bind def
/S1 {BL [] 0 setdash 2 copy vpt Square fill Bsquare} bind def
/S2 {BL [] 0 setdash 2 copy exch vpt sub exch vpt Square fill Bsquare} bind def
/S3 {BL [] 0 setdash 2 copy exch vpt sub exch vpt2 vpt Rec fill Bsquare} bind def
/S4 {BL [] 0 setdash 2 copy exch vpt sub exch vpt sub vpt Square fill Bsquare} bind def
/S5 {BL [] 0 setdash 2 copy 2 copy vpt Square fill
	exch vpt sub exch vpt sub vpt Square fill Bsquare} bind def
/S6 {BL [] 0 setdash 2 copy exch vpt sub exch vpt sub vpt vpt2 Rec fill Bsquare} bind def
/S7 {BL [] 0 setdash 2 copy exch vpt sub exch vpt sub vpt vpt2 Rec fill
	2 copy vpt Square fill Bsquare} bind def
/S8 {BL [] 0 setdash 2 copy vpt sub vpt Square fill Bsquare} bind def
/S9 {BL [] 0 setdash 2 copy vpt sub vpt vpt2 Rec fill Bsquare} bind def
/S10 {BL [] 0 setdash 2 copy vpt sub vpt Square fill 2 copy exch vpt sub exch vpt Square fill
	Bsquare} bind def
/S11 {BL [] 0 setdash 2 copy vpt sub vpt Square fill 2 copy exch vpt sub exch vpt2 vpt Rec fill
	Bsquare} bind def
/S12 {BL [] 0 setdash 2 copy exch vpt sub exch vpt sub vpt2 vpt Rec fill Bsquare} bind def
/S13 {BL [] 0 setdash 2 copy exch vpt sub exch vpt sub vpt2 vpt Rec fill
	2 copy vpt Square fill Bsquare} bind def
/S14 {BL [] 0 setdash 2 copy exch vpt sub exch vpt sub vpt2 vpt Rec fill
	2 copy exch vpt sub exch vpt Square fill Bsquare} bind def
/S15 {BL [] 0 setdash 2 copy Bsquare fill Bsquare} bind def
/D0 {gsave translate 45 rotate 0 0 S0 stroke grestore} bind def
/D1 {gsave translate 45 rotate 0 0 S1 stroke grestore} bind def
/D2 {gsave translate 45 rotate 0 0 S2 stroke grestore} bind def
/D3 {gsave translate 45 rotate 0 0 S3 stroke grestore} bind def
/D4 {gsave translate 45 rotate 0 0 S4 stroke grestore} bind def
/D5 {gsave translate 45 rotate 0 0 S5 stroke grestore} bind def
/D6 {gsave translate 45 rotate 0 0 S6 stroke grestore} bind def
/D7 {gsave translate 45 rotate 0 0 S7 stroke grestore} bind def
/D8 {gsave translate 45 rotate 0 0 S8 stroke grestore} bind def
/D9 {gsave translate 45 rotate 0 0 S9 stroke grestore} bind def
/D10 {gsave translate 45 rotate 0 0 S10 stroke grestore} bind def
/D11 {gsave translate 45 rotate 0 0 S11 stroke grestore} bind def
/D12 {gsave translate 45 rotate 0 0 S12 stroke grestore} bind def
/D13 {gsave translate 45 rotate 0 0 S13 stroke grestore} bind def
/D14 {gsave translate 45 rotate 0 0 S14 stroke grestore} bind def
/D15 {gsave translate 45 rotate 0 0 S15 stroke grestore} bind def
/DiaE {stroke [] 0 setdash vpt add M
  hpt neg vpt neg V hpt vpt neg V
  hpt vpt V hpt neg vpt V closepath stroke} def
/BoxE {stroke [] 0 setdash exch hpt sub exch vpt add M
  0 vpt2 neg V hpt2 0 V 0 vpt2 V
  hpt2 neg 0 V closepath stroke} def
/TriUE {stroke [] 0 setdash vpt 1.12 mul add M
  hpt neg vpt -1.62 mul V
  hpt 2 mul 0 V
  hpt neg vpt 1.62 mul V closepath stroke} def
/TriDE {stroke [] 0 setdash vpt 1.12 mul sub M
  hpt neg vpt 1.62 mul V
  hpt 2 mul 0 V
  hpt neg vpt -1.62 mul V closepath stroke} def
/PentE {stroke [] 0 setdash gsave
  translate 0 hpt M 4 {72 rotate 0 hpt L} repeat
  closepath stroke grestore} def
/CircE {stroke [] 0 setdash 
  hpt 0 360 arc stroke} def
/Opaque {gsave closepath 1 setgray fill grestore 0 setgray closepath} def
/DiaW {stroke [] 0 setdash vpt add M
  hpt neg vpt neg V hpt vpt neg V
  hpt vpt V hpt neg vpt V Opaque stroke} def
/BoxW {stroke [] 0 setdash exch hpt sub exch vpt add M
  0 vpt2 neg V hpt2 0 V 0 vpt2 V
  hpt2 neg 0 V Opaque stroke} def
/TriUW {stroke [] 0 setdash vpt 1.12 mul add M
  hpt neg vpt -1.62 mul V
  hpt 2 mul 0 V
  hpt neg vpt 1.62 mul V Opaque stroke} def
/TriDW {stroke [] 0 setdash vpt 1.12 mul sub M
  hpt neg vpt 1.62 mul V
  hpt 2 mul 0 V
  hpt neg vpt -1.62 mul V Opaque stroke} def
/PentW {stroke [] 0 setdash gsave
  translate 0 hpt M 4 {72 rotate 0 hpt L} repeat
  Opaque stroke grestore} def
/CircW {stroke [] 0 setdash 
  hpt 0 360 arc Opaque stroke} def
/BoxFill {gsave Rec 1 setgray fill grestore} def
/Density {
  /Fillden exch def
  currentrgbcolor
  /ColB exch def /ColG exch def /ColR exch def
  /ColR ColR Fillden mul Fillden sub 1 add def
  /ColG ColG Fillden mul Fillden sub 1 add def
  /ColB ColB Fillden mul Fillden sub 1 add def
  ColR ColG ColB setrgbcolor} def
/BoxColFill {gsave Rec PolyFill} def
/PolyFill {gsave Density fill grestore grestore} def
/h {rlineto rlineto rlineto gsave closepath fill grestore} bind def
%
% PostScript Level 1 Pattern Fill routine for rectangles
% Usage: x y w h s a XX PatternFill
%	x,y = lower left corner of box to be filled
%	w,h = width and height of box
%	  a = angle in degrees between lines and x-axis
%	 XX = 0/1 for no/yes cross-hatch
%
/PatternFill {gsave /PFa [ 9 2 roll ] def
  PFa 0 get PFa 2 get 2 div add PFa 1 get PFa 3 get 2 div add translate
  PFa 2 get -2 div PFa 3 get -2 div PFa 2 get PFa 3 get Rec
  TransparentPatterns {} {gsave 1 setgray fill grestore} ifelse
  clip
  currentlinewidth 0.5 mul setlinewidth
  /PFs PFa 2 get dup mul PFa 3 get dup mul add sqrt def
  0 0 M PFa 5 get rotate PFs -2 div dup translate
  0 1 PFs PFa 4 get div 1 add floor cvi
	{PFa 4 get mul 0 M 0 PFs V} for
  0 PFa 6 get ne {
	0 1 PFs PFa 4 get div 1 add floor cvi
	{PFa 4 get mul 0 2 1 roll M PFs 0 V} for
 } if
  stroke grestore} def
%
/languagelevel where
 {pop languagelevel} {1} ifelse
dup 2 lt
	{/InterpretLevel1 true def
	 /InterpretLevel3 false def}
	{/InterpretLevel1 Level1 def
	 2 gt
	    {/InterpretLevel3 Level3 def}
	    {/InterpretLevel3 false def}
	 ifelse }
 ifelse
%
% PostScript level 2 pattern fill definitions
%
/Level2PatternFill {
/Tile8x8 {/PaintType 2 /PatternType 1 /TilingType 1 /BBox [0 0 8 8] /XStep 8 /YStep 8}
	bind def
/KeepColor {currentrgbcolor [/Pattern /DeviceRGB] setcolorspace} bind def
<< Tile8x8
 /PaintProc {0.5 setlinewidth pop 0 0 M 8 8 L 0 8 M 8 0 L stroke} 
>> matrix makepattern
/Pat1 exch def
<< Tile8x8
 /PaintProc {0.5 setlinewidth pop 0 0 M 8 8 L 0 8 M 8 0 L stroke
	0 4 M 4 8 L 8 4 L 4 0 L 0 4 L stroke}
>> matrix makepattern
/Pat2 exch def
<< Tile8x8
 /PaintProc {0.5 setlinewidth pop 0 0 M 0 8 L
	8 8 L 8 0 L 0 0 L fill}
>> matrix makepattern
/Pat3 exch def
<< Tile8x8
 /PaintProc {0.5 setlinewidth pop -4 8 M 8 -4 L
	0 12 M 12 0 L stroke}
>> matrix makepattern
/Pat4 exch def
<< Tile8x8
 /PaintProc {0.5 setlinewidth pop -4 0 M 8 12 L
	0 -4 M 12 8 L stroke}
>> matrix makepattern
/Pat5 exch def
<< Tile8x8
 /PaintProc {0.5 setlinewidth pop -2 8 M 4 -4 L
	0 12 M 8 -4 L 4 12 M 10 0 L stroke}
>> matrix makepattern
/Pat6 exch def
<< Tile8x8
 /PaintProc {0.5 setlinewidth pop -2 0 M 4 12 L
	0 -4 M 8 12 L 4 -4 M 10 8 L stroke}
>> matrix makepattern
/Pat7 exch def
<< Tile8x8
 /PaintProc {0.5 setlinewidth pop 8 -2 M -4 4 L
	12 0 M -4 8 L 12 4 M 0 10 L stroke}
>> matrix makepattern
/Pat8 exch def
<< Tile8x8
 /PaintProc {0.5 setlinewidth pop 0 -2 M 12 4 L
	-4 0 M 12 8 L -4 4 M 8 10 L stroke}
>> matrix makepattern
/Pat9 exch def
/Pattern1 {PatternBgnd KeepColor Pat1 setpattern} bind def
/Pattern2 {PatternBgnd KeepColor Pat2 setpattern} bind def
/Pattern3 {PatternBgnd KeepColor Pat3 setpattern} bind def
/Pattern4 {PatternBgnd KeepColor Landscape {Pat5} {Pat4} ifelse setpattern} bind def
/Pattern5 {PatternBgnd KeepColor Landscape {Pat4} {Pat5} ifelse setpattern} bind def
/Pattern6 {PatternBgnd KeepColor Landscape {Pat9} {Pat6} ifelse setpattern} bind def
/Pattern7 {PatternBgnd KeepColor Landscape {Pat8} {Pat7} ifelse setpattern} bind def
} def
%
%
%End of PostScript Level 2 code
%
/PatternBgnd {
  TransparentPatterns {} {gsave 1 setgray fill grestore} ifelse
} def
%
% Substitute for Level 2 pattern fill codes with
% grayscale if Level 2 support is not selected.
%
/Level1PatternFill {
/Pattern1 {0.250 Density} bind def
/Pattern2 {0.500 Density} bind def
/Pattern3 {0.750 Density} bind def
/Pattern4 {0.125 Density} bind def
/Pattern5 {0.375 Density} bind def
/Pattern6 {0.625 Density} bind def
/Pattern7 {0.875 Density} bind def
} def
%
% Now test for support of Level 2 code
%
Level1 {Level1PatternFill} {Level2PatternFill} ifelse
%
/Symbol-Oblique /Symbol findfont [1 0 .167 1 0 0] makefont
dup length dict begin {1 index /FID eq {pop pop} {def} ifelse} forall
currentdict end definefont pop
%
/Metrics {ExtendTextBox Gswidth} def
/Lwidth {currentpoint stroke M 0 vshift R Metrics} def
/Rwidth {currentpoint stroke M dup stringwidth pop neg vshift R Metrics} def
/Cwidth {currentpoint stroke M dup stringwidth pop -2 div vshift R Metrics} def
/GLwidth {currentpoint stroke M 0 vshift R {ExtendTextBox} forall} def
/GRwidth {currentpoint stroke M dup Gwidth vshift R {ExtendTextBox} forall} def
/GCwidth {currentpoint stroke M dup Gwidth 2 div vshift R {ExtendTextBox} forall} def
/GLwidth2 {0 Gwidth AddGlyphWidth} def
/GRwidth2 {Gwidth -1 mul 0 AddGlyphWidth} def
/GCwidth2 {Gwidth 2 div dup -1 mul AddGlyphWidth} def
/AddGlyphWidth { dup TBx2 gt {userdict /TBx2 3 -1 roll put} {pop} ifelse
                 dup TBx1 lt {userdict /TBx1 3 -1 roll put} {pop} ifelse } def
/MFshow {
   { dup 5 get 3 ge
     { 5 get 3 eq {gsave} {grestore} ifelse }
     {dup dup 0 get findfont exch 1 get scalefont setfont
     [ currentpoint ] exch dup 2 get 0 exch R dup 5 get 2 ne {dup dup 6
     get exch 4 get {textshow} {Metrics pop 0 R} ifelse }if dup 5 get 0 eq
     {dup 3 get {2 get neg 0 exch R pop} {pop aload pop M} ifelse} {dup 5
     get 1 eq {dup 2 get exch dup 3 get exch 6 get Gswidth pop -2 div
     dup 0 R} {dup 6 get Gswidth pop -2 div 0 R 6 get
     textshow 2 index {aload pop M neg 3 -1 roll neg R pop pop} {pop pop pop
     pop aload pop M} ifelse }ifelse }ifelse }
     ifelse }
   forall} def
/Gswidth {dup type /stringtype eq {stringwidth} {pop (n) stringwidth} ifelse} def
/MFwidth {0 exch { dup 5 get 3 ge { 5 get 3 eq { 0 } { pop } ifelse }
 {dup 3 get{dup dup 0 get findfont exch 1 get scalefont setfont
     6 get Gswidth pop add} {pop} ifelse} ifelse} forall} def
/MLshow { currentpoint stroke M
  0 exch R
  Blacktext {gsave 0 setgray MFshow grestore} {MFshow} ifelse } bind def
/MRshow { currentpoint stroke M
  exch dup MFwidth neg 3 -1 roll R
  Blacktext {gsave 0 setgray MFshow grestore} {MFshow} ifelse } bind def
/MCshow { currentpoint stroke M
  exch dup MFwidth -2 div 3 -1 roll R
  Blacktext {gsave 0 setgray MFshow grestore} {MFshow} ifelse } bind def
/XYsave    { [( ) 1 2 true false 3 ()] } bind def
/XYrestore { [( ) 1 2 true false 4 ()] } bind def
Level1 SuppressPDFMark or 
{} {
/SDict 10 dict def
systemdict /pdfmark known not {
  userdict /pdfmark systemdict /cleartomark get put
} if
SDict begin [
  /Title (gnuplot_OPTICS_bxyDxy.eps)
  /Subject (gnuplot plot)
  /Creator (gnuplot 5.2 patchlevel 2)
%  /Producer (gnuplot)
%  /Keywords ()
  /CreationDate (Wed Aug 28 08:36:14 2019)
  /DOCINFO pdfmark
end
} ifelse
%
% Support for boxed text - Ethan A Merritt Sep 2016
%
/InitTextBox { userdict /TBy2 3 -1 roll put userdict /TBx2 3 -1 roll put
           userdict /TBy1 3 -1 roll put userdict /TBx1 3 -1 roll put
	   /Boxing true def } def
/ExtendTextBox { dup type /stringtype eq
    { Boxing { gsave dup false charpath pathbbox
      dup TBy2 gt {userdict /TBy2 3 -1 roll put} {pop} ifelse
      dup TBx2 gt {userdict /TBx2 3 -1 roll put} {pop} ifelse
      dup TBy1 lt {userdict /TBy1 3 -1 roll put} {pop} ifelse
      dup TBx1 lt {userdict /TBx1 3 -1 roll put} {pop} ifelse
      grestore } if }
    {} ifelse} def
/PopTextBox { newpath TBx1 TBxmargin sub TBy1 TBymargin sub M
               TBx1 TBxmargin sub TBy2 TBymargin add L
	       TBx2 TBxmargin add TBy2 TBymargin add L
	       TBx2 TBxmargin add TBy1 TBymargin sub L closepath } def
/DrawTextBox { PopTextBox stroke /Boxing false def} def
/FillTextBox { gsave PopTextBox fill grestore /Boxing false def} def
0 0 0 0 InitTextBox
/TBxmargin 20 def
/TBymargin 20 def
/Boxing false def
/textshow { ExtendTextBox Gshow } def
%
end
%%EndProlog
%%Page: 1 1
gnudict begin
gsave
doclip
50 50 translate
0.050 0.050 scale
0 setgray
newpath
(Helvetica) findfont 140 scalefont setfont
BackgroundColor 0 lt 3 1 roll 0 lt exch 0 lt or or not {BackgroundColor C 1.000 0 0 7200.00 5040.00 BoxColFill} if
1.000 UL
LTb
LCb setrgbcolor
0.500 UL
LTa
LCa setrgbcolor
826 448 M
5617 0 V
stroke
1.000 UL
LTb
LCb setrgbcolor
826 448 M
63 0 V
5554 0 R
-63 0 V
stroke
742 448 M
[ [(roman) 220.0 0.0 true true 0 ( 0)]
] -73.3 MRshow
1.000 UL
LTb
LCb setrgbcolor
0.500 UL
LTa
LCa setrgbcolor
826 1004 M
5617 0 V
stroke
1.000 UL
LTb
LCb setrgbcolor
826 1004 M
63 0 V
5554 0 R
-63 0 V
stroke
742 1004 M
[ [(roman) 220.0 0.0 true true 0 ( 20)]
] -73.3 MRshow
1.000 UL
LTb
LCb setrgbcolor
0.500 UL
LTa
LCa setrgbcolor
826 1561 M
5617 0 V
stroke
1.000 UL
LTb
LCb setrgbcolor
826 1561 M
63 0 V
5554 0 R
-63 0 V
stroke
742 1561 M
[ [(roman) 220.0 0.0 true true 0 ( 40)]
] -73.3 MRshow
1.000 UL
LTb
LCb setrgbcolor
0.500 UL
LTa
LCa setrgbcolor
826 2117 M
5617 0 V
stroke
1.000 UL
LTb
LCb setrgbcolor
826 2117 M
63 0 V
5554 0 R
-63 0 V
stroke
742 2117 M
[ [(roman) 220.0 0.0 true true 0 ( 60)]
] -73.3 MRshow
1.000 UL
LTb
LCb setrgbcolor
0.500 UL
LTa
LCa setrgbcolor
826 2674 M
5617 0 V
stroke
1.000 UL
LTb
LCb setrgbcolor
826 2674 M
63 0 V
5554 0 R
-63 0 V
stroke
742 2674 M
[ [(roman) 220.0 0.0 true true 0 ( 80)]
] -73.3 MRshow
1.000 UL
LTb
LCb setrgbcolor
0.500 UL
LTa
LCa setrgbcolor
826 3230 M
5617 0 V
stroke
1.000 UL
LTb
LCb setrgbcolor
826 3230 M
63 0 V
5554 0 R
-63 0 V
stroke
742 3230 M
[ [(roman) 220.0 0.0 true true 0 ( 100)]
] -73.3 MRshow
1.000 UL
LTb
LCb setrgbcolor
0.500 UL
LTa
LCa setrgbcolor
826 3786 M
5617 0 V
stroke
1.000 UL
LTb
LCb setrgbcolor
826 3786 M
63 0 V
5554 0 R
-63 0 V
stroke
742 3786 M
[ [(roman) 220.0 0.0 true true 0 ( 120)]
] -73.3 MRshow
1.000 UL
LTb
LCb setrgbcolor
0.500 UL
LTa
LCa setrgbcolor
826 4343 M
5617 0 V
stroke
1.000 UL
LTb
LCb setrgbcolor
826 4343 M
63 0 V
5554 0 R
-63 0 V
stroke
742 4343 M
[ [(roman) 220.0 0.0 true true 0 ( 140)]
] -73.3 MRshow
1.000 UL
LTb
LCb setrgbcolor
0.500 UL
LTa
LCa setrgbcolor
826 4899 M
5617 0 V
stroke
1.000 UL
LTb
LCb setrgbcolor
826 4899 M
63 0 V
5554 0 R
-63 0 V
stroke
742 4899 M
[ [(roman) 220.0 0.0 true true 0 ( 160)]
] -73.3 MRshow
1.000 UL
LTb
LCb setrgbcolor
0.500 UL
LTa
LCa setrgbcolor
1477 448 M
0 4168 V
0 220 R
0 63 V
stroke
1.000 UL
LTb
LCb setrgbcolor
1477 448 M
0 63 V
0 4388 R
0 -63 V
stroke
1477 308 M
[ [(roman) 220.0 0.0 true true 0 ( 30)]
] -73.3 MCshow
1.000 UL
LTb
LCb setrgbcolor
0.500 UL
LTa
LCa setrgbcolor
2291 448 M
0 4168 V
0 220 R
0 63 V
stroke
1.000 UL
LTb
LCb setrgbcolor
2291 448 M
0 63 V
0 4388 R
0 -63 V
stroke
2291 308 M
[ [(roman) 220.0 0.0 true true 0 ( 40)]
] -73.3 MCshow
1.000 UL
LTb
LCb setrgbcolor
0.500 UL
LTa
LCa setrgbcolor
3105 448 M
0 4168 V
0 220 R
0 63 V
stroke
1.000 UL
LTb
LCb setrgbcolor
3105 448 M
0 63 V
0 4388 R
0 -63 V
stroke
3105 308 M
[ [(roman) 220.0 0.0 true true 0 ( 50)]
] -73.3 MCshow
1.000 UL
LTb
LCb setrgbcolor
0.500 UL
LTa
LCa setrgbcolor
3919 448 M
0 4168 V
0 220 R
0 63 V
stroke
1.000 UL
LTb
LCb setrgbcolor
3919 448 M
0 63 V
0 4388 R
0 -63 V
stroke
3919 308 M
[ [(roman) 220.0 0.0 true true 0 ( 60)]
] -73.3 MCshow
1.000 UL
LTb
LCb setrgbcolor
0.500 UL
LTa
LCa setrgbcolor
4733 448 M
0 4168 V
0 220 R
0 63 V
stroke
1.000 UL
LTb
LCb setrgbcolor
4733 448 M
0 63 V
0 4388 R
0 -63 V
stroke
4733 308 M
[ [(roman) 220.0 0.0 true true 0 ( 70)]
] -73.3 MCshow
1.000 UL
LTb
LCb setrgbcolor
0.500 UL
LTa
LCa setrgbcolor
5548 448 M
0 4168 V
0 220 R
0 63 V
stroke
1.000 UL
LTb
LCb setrgbcolor
5548 448 M
0 63 V
0 4388 R
0 -63 V
stroke
5548 308 M
[ [(roman) 220.0 0.0 true true 0 ( 80)]
] -73.3 MCshow
1.000 UL
LTb
LCb setrgbcolor
0.500 UL
LTa
LCa setrgbcolor
6362 448 M
0 4168 V
0 220 R
0 63 V
stroke
1.000 UL
LTb
LCb setrgbcolor
6362 448 M
0 63 V
0 4388 R
0 -63 V
stroke
6362 308 M
[ [(roman) 220.0 0.0 true true 0 ( 90)]
] -73.3 MCshow
1.000 UL
LTb
LCb setrgbcolor
6443 448 M
-63 0 V
stroke
6527 448 M
[ [(roman) 160.0 0.0 true true 0 (-1.5)]
] -53.3 MLshow
1.000 UL
LTb
LCb setrgbcolor
6443 1190 M
-63 0 V
stroke
6527 1190 M
[ [(roman) 160.0 0.0 true true 0 (-1)]
] -53.3 MLshow
1.000 UL
LTb
LCb setrgbcolor
6443 1932 M
-63 0 V
stroke
6527 1932 M
[ [(roman) 160.0 0.0 true true 0 (-0.5)]
] -53.3 MLshow
1.000 UL
LTb
LCb setrgbcolor
6443 2674 M
-63 0 V
stroke
6527 2674 M
[ [(roman) 160.0 0.0 true true 0 ( 0)]
] -53.3 MLshow
1.000 UL
LTb
LCb setrgbcolor
6443 3415 M
-63 0 V
stroke
6527 3415 M
[ [(roman) 160.0 0.0 true true 0 ( 0.5)]
] -53.3 MLshow
1.000 UL
LTb
LCb setrgbcolor
6443 4157 M
-63 0 V
stroke
6527 4157 M
[ [(roman) 160.0 0.0 true true 0 ( 1)]
] -53.3 MLshow
1.000 UL
LTb
LCb setrgbcolor
6443 4899 M
-63 0 V
stroke
6527 4899 M
[ [(roman) 160.0 0.0 true true 0 ( 1.5)]
] -53.3 MLshow
1.000 UL
LTb
LCb setrgbcolor
1.000 UL
LTB
LCb setrgbcolor
826 4899 N
826 448 L
5617 0 V
0 4451 V
-5617 0 V
Z stroke
1.000 UP
1.000 UL
LTb
LCb setrgbcolor
LCb setrgbcolor
126 2673 M
currentpoint gsave translate -270 rotate 0 0 moveto
[ [(Symbol) 240.0 0.0 true true 0 (b)]
[(roman) 192.0 -72.0 true true 0 (x)]
[(roman) 240.0 0.0 true true 0 (, )]
[(Symbol) 240.0 0.0 true true 0 (b)]
[(roman) 192.0 -72.0 true true 0 (y)]
[(roman) 240.0 0.0 true true 0 (  [m] )]
] -56.0 MCshow
grestore
LTb
LCb setrgbcolor
3634 98 M
[ [(roman) 240.0 0.0 true true 0 (s [m])]
] -80.0 MCshow
LTb
% Begin plot #1
0.500 UP
3.000 UL
LTb
0.00 0.00 0.00 C % End plot #1
% Begin plot #2
0.800 UL
LTb
0.00 0.00 0.00 C LCb setrgbcolor
146 4726 M
[ [(Symbol) 220.0 0.0 true true 0 (n)]
[(roman) 176.0 -66.0 true true 0 (x)]
[(roman) 220.0 0.0 true true 0 ( bm)]
] -51.3 MRshow
0.800 UL
LTb
0.00 0.00 0.00 C 278 4726 M
195 0 V
826 2673 M
5 0 V
9 0 V
1 0 V
4 0 V
4 0 V
10 0 V
6 -1 V
37 -26 V
18 90 V
41 438 V
8 80 V
1 15 V
13 125 V
16 159 V
7 72 V
3 28 V
18 123 V
22 90 V
13 -116 V
2 -50 V
8 -172 V
6 -148 V
3 -64 V
18 -297 V
6 -74 V
12 -134 V
6 -50 V
39 -384 V
2 -17 V
12 -37 V
2 10 V
3 11 V
18 6 V
7 -22 V
35 -120 V
2 -7 V
3 -10 V
18 -125 V
5 -58 V
12 34 V
3 48 V
40 635 V
4 63 V
12 207 V
3 57 V
3 50 V
18 392 V
9 241 V
7 214 V
3 85 V
13 131 V
19 -143 V
3 -21 V
18 -186 V
12 -173 V
8 -105 V
2 -31 V
13 -154 V
12 -141 V
42 -470 V
17 -82 V
0 2 V
9 -4 V
6 -3 V
4 -2 V
1 0 V
5 1 V
1 1 V
2 4 V
5 6 V
5 5 V
6 -8 V
1 -2 V
1 -3 V
2 -3 V
0 -1 V
1 -1 V
5 -2 V
5 1 V
6 8 V
4 6 V
5 5 V
6 -8 V
1 -2 V
2 -3 V
1 -3 V
0 -1 V
1 -1 V
5 -2 V
5 1 V
6 8 V
4 6 V
6 5 V
5 -8 V
1 -2 V
2 -3 V
1 -3 V
0 -1 V
1 -1 V
5 -2 V
5 1 V
6 8 V
4 6 V
6 5 V
5 -8 V
1 -2 V
2 -3 V
2 -3 V
0 -1 V
1 -1 V
5 -2 V
4 1 V
6 8 V
5 6 V
5 5 V
5 -8 V
1 -2 V
2 -3 V
2 -3 V
0 -1 V
1 -1 V
5 -2 V
5 1 V
5 8 V
5 6 V
5 5 V
5 -8 V
1 -2 V
2 -3 V
2 -3 V
0 -1 V
1 -1 V
5 -2 V
5 1 V
5 8 V
5 6 V
5 5 V
6 -8 V
1 -2 V
1 -3 V
2 -3 V
0 -1 V
1 -1 V
5 -2 V
5 1 V
5 8 V
5 6 V
5 5 V
6 -8 V
1 -2 V
1 -3 V
2 -3 V
0 -1 V
1 -1 V
5 -2 V
5 1 V
6 8 V
4 6 V
5 5 V
6 -8 V
1 -2 V
2 -3 V
1 -3 V
0 -1 V
1 -1 V
5 -2 V
5 1 V
6 8 V
4 6 V
6 5 V
5 -8 V
1 -2 V
2 -3 V
1 -3 V
0 -1 V
1 -1 V
5 -2 V
5 1 V
6 8 V
4 6 V
6 5 V
5 -8 V
1 -2 V
2 -3 V
2 -3 V
0 -1 V
1 -1 V
5 -2 V
5 1 V
5 8 V
5 6 V
5 5 V
5 -8 V
1 -2 V
2 -3 V
2 -3 V
0 -1 V
1 -1 V
5 -2 V
5 1 V
5 8 V
5 6 V
5 5 V
5 -8 V
1 -2 V
2 -3 V
2 -3 V
0 -1 V
1 -1 V
5 -2 V
5 1 V
5 8 V
5 6 V
5 5 V
6 -8 V
1 -2 V
1 -3 V
2 -3 V
0 -1 V
1 -1 V
5 -2 V
5 1 V
5 8 V
5 6 V
5 5 V
6 -8 V
1 -2 V
1 -3 V
2 -3 V
0 -1 V
1 -1 V
5 -2 V
5 1 V
6 8 V
4 6 V
6 5 V
5 -8 V
1 -2 V
2 -3 V
1 -3 V
0 -1 V
1 -1 V
5 -2 V
5 1 V
6 8 V
4 6 V
6 5 V
stroke 2159 2669 M
5 -8 V
1 -2 V
2 -3 V
1 -3 V
0 -1 V
1 -1 V
10 -1 V
6 7 V
4 7 V
6 4 V
5 -7 V
1 -2 V
2 -3 V
2 -4 V
1 -1 V
10 -1 V
5 8 V
5 6 V
5 5 V
5 -8 V
1 -2 V
0 1 V
2 -4 V
2 -3 V
1 -2 V
10 0 V
5 7 V
5 6 V
5 5 V
6 -8 V
1 -2 V
1 -3 V
2 -3 V
1 -2 V
10 -1 V
5 7 V
5 6 V
5 4 V
6 -6 V
1 -2 V
1 -3 V
2 -3 V
1 -2 V
10 1 V
6 7 V
4 6 V
6 5 V
5 -7 V
1 -2 V
2 -3 V
1 -3 V
1 -2 V
10 -1 V
6 6 V
4 6 V
6 3 V
5 -6 V
1 -2 V
2 -2 V
2 -3 V
1 -1 V
10 -1 V
5 7 V
5 5 V
5 4 V
5 -6 V
2 -1 V
1 -3 V
2 -2 V
1 -2 V
10 1 V
5 6 V
5 6 V
5 4 V
6 -6 V
1 -2 V
2 -3 V
1 -2 V
1 -2 V
10 -1 V
6 4 V
4 4 V
6 3 V
5 -4 V
1 -2 V
2 -1 V
2 -2 V
1 -1 V
10 0 V
5 6 V
5 4 V
5 4 V
6 -5 V
1 -1 V
1 -2 V
2 -2 V
1 -1 V
10 0 V
6 5 V
4 4 V
6 3 V
5 -4 V
1 -2 V
0 1 V
2 -2 V
2 -2 V
1 -2 V
10 -1 V
5 2 V
5 3 V
5 2 V
6 -3 V
1 0 V
2 -1 V
1 -1 V
2 -1 V
9 2 V
6 4 V
4 4 V
6 3 V
5 -3 V
2 -1 V
1 -2 V
2 -1 V
1 -1 V
10 -1 V
6 3 V
4 3 V
6 2 V
5 -3 V
1 -1 V
2 -1 V
2 -1 V
1 -1 V
10 -2 V
5 1 V
5 1 V
5 2 V
6 -1 V
1 0 V
2 0 V
1 -1 V
2 0 V
10 3 V
5 3 V
5 3 V
5 2 V
6 -2 V
1 -1 V
2 -1 V
1 -1 V
2 -1 V
10 -1 V
5 1 V
5 0 V
5 1 V
5 -1 V
2 -1 V
1 0 V
2 0 V
2 -1 V
9 0 V
6 0 V
4 0 V
6 0 V
5 1 V
2 0 V
1 0 V
2 0 V
1 1 V
10 2 V
6 3 V
4 3 V
6 1 V
5 -2 V
2 0 V
1 -1 V
2 -1 V
1 -1 V
10 -3 V
6 -1 V
4 0 V
6 -1 V
5 0 V
2 0 V
1 0 V
2 1 V
1 0 V
10 0 V
6 0 V
4 0 V
6 1 V
5 1 V
2 0 V
1 0 V
2 1 V
1 0 V
10 2 V
6 3 V
4 2 V
6 1 V
5 -2 V
2 -1 V
1 -1 V
2 -1 V
1 0 V
10 -4 V
6 -3 V
4 -2 V
6 -1 V
5 1 V
2 1 V
1 1 V
2 0 V
1 1 V
10 2 V
6 1 V
4 1 V
6 1 V
5 0 V
2 0 V
1 0 V
2 0 V
2 0 V
5 1 V
4 0 V
6 2 V
4 1 V
6 1 V
5 -2 V
2 -1 V
1 0 V
2 -1 V
2 -1 V
5 -2 V
5 -2 V
5 -3 V
5 -2 V
5 -1 V
5 1 V
2 1 V
1 1 V
2 1 V
2 1 V
5 2 V
5 1 V
5 2 V
5 2 V
5 1 V
stroke 3148 2678 M
5 0 V
2 -1 V
2 0 V
1 0 V
2 -1 V
5 0 V
5 0 V
5 0 V
5 1 V
5 0 V
5 -2 V
2 0 V
2 0 V
1 -1 V
2 0 V
5 -2 V
5 -1 V
5 -3 V
5 -2 V
5 -1 V
5 2 V
2 1 V
2 1 V
1 1 V
2 0 V
5 3 V
5 2 V
5 2 V
5 2 V
5 2 V
6 -1 V
1 -1 V
2 -1 V
1 0 V
2 -1 V
5 -1 V
5 -1 V
5 -1 V
5 0 V
5 -1 V
6 -1 V
1 0 V
2 0 V
1 0 V
2 0 V
5 -1 V
5 -1 V
5 -1 V
5 -2 V
5 0 V
6 1 V
1 1 V
2 1 V
1 1 V
2 1 V
5 2 V
5 2 V
5 3 V
5 2 V
5 1 V
6 -1 V
1 -1 V
2 -1 V
1 -1 V
2 -1 V
5 -2 V
5 -1 V
5 -2 V
5 -1 V
5 -2 V
6 1 V
1 0 V
2 0 V
2 1 V
1 0 V
5 0 V
5 0 V
5 -1 V
5 0 V
5 0 V
6 1 V
1 0 V
2 1 V
2 1 V
1 0 V
5 2 V
5 1 V
5 3 V
5 2 V
5 1 V
6 -2 V
1 0 V
2 -1 V
2 -1 V
1 -1 V
5 -2 V
5 -2 V
5 -3 V
5 -2 V
5 -1 V
6 1 V
1 0 V
2 1 V
2 0 V
1 1 V
5 1 V
5 1 V
5 0 V
5 1 V
5 0 V
6 1 V
1 0 V
2 0 V
2 0 V
1 1 V
5 0 V
5 2 V
5 1 V
5 2 V
5 1 V
6 -2 V
1 -1 V
2 -1 V
2 -1 V
1 0 V
5 -2 V
5 -3 V
6 -2 V
4 -3 V
5 -1 V
6 1 V
1 1 V
2 1 V
2 1 V
1 1 V
5 2 V
5 1 V
6 1 V
4 2 V
6 1 V
5 0 V
1 0 V
2 -1 V
2 0 V
1 0 V
5 0 V
5 0 V
6 1 V
4 1 V
6 0 V
5 -1 V
1 -1 V
2 -1 V
2 0 V
1 -1 V
5 -1 V
5 -2 V
6 -3 V
4 -2 V
6 -1 V
5 1 V
1 1 V
2 1 V
2 1 V
1 1 V
5 2 V
5 2 V
6 3 V
4 2 V
6 1 V
5 -1 V
1 0 V
2 -1 V
2 -1 V
1 0 V
5 -1 V
5 -1 V
6 0 V
4 0 V
6 0 V
5 -1 V
2 -1 V
1 0 V
2 0 V
1 0 V
5 -1 V
5 -2 V
6 -2 V
4 -1 V
6 -1 V
5 2 V
2 0 V
1 1 V
2 1 V
1 1 V
5 2 V
5 2 V
6 3 V
4 2 V
6 2 V
5 -2 V
2 0 V
1 -1 V
2 -1 V
1 -1 V
5 -1 V
5 -2 V
6 -1 V
4 -1 V
6 -1 V
5 0 V
2 0 V
1 0 V
2 0 V
1 0 V
5 0 V
5 0 V
6 -1 V
4 -1 V
6 -1 V
5 2 V
2 1 V
1 0 V
2 1 V
2 1 V
4 1 V
5 2 V
6 3 V
4 2 V
6 2 V
5 -2 V
2 -1 V
1 -1 V
2 -1 V
2 -1 V
5 -2 V
4 -2 V
6 -2 V
5 -2 V
5 -1 V
5 0 V
2 1 V
1 0 V
2 1 V
2 0 V
5 1 V
5 1 V
5 0 V
5 0 V
stroke 4069 2672 M
5 0 V
5 1 V
2 0 V
1 1 V
2 0 V
2 0 V
5 1 V
5 1 V
5 3 V
5 2 V
5 0 V
5 -2 V
2 -1 V
2 -1 V
1 -1 V
2 -1 V
5 -2 V
5 -2 V
5 -3 V
5 -2 V
5 -1 V
5 1 V
2 1 V
2 0 V
1 1 V
2 1 V
5 1 V
5 2 V
5 2 V
5 1 V
5 2 V
5 -1 V
2 0 V
2 -1 V
1 0 V
2 -1 V
5 0 V
5 1 V
5 1 V
5 2 V
5 0 V
5 -2 V
2 -1 V
1 -1 V
2 -1 V
2 -1 V
5 -2 V
4 -2 V
6 -2 V
4 -1 V
6 -1 V
5 1 V
2 0 V
1 1 V
2 0 V
1 1 V
5 2 V
5 2 V
6 3 V
4 4 V
6 2 V
5 -3 V
2 -1 V
1 -1 V
2 -1 V
1 -1 V
5 -2 V
5 0 V
6 1 V
4 1 V
6 0 V
5 -3 V
1 0 V
2 -1 V
2 -2 V
1 0 V
5 -2 V
5 -1 V
5 0 V
5 0 V
5 0 V
6 0 V
1 0 V
2 0 V
2 0 V
1 0 V
5 1 V
5 3 V
5 5 V
5 5 V
5 3 V
6 -5 V
1 -2 V
2 -2 V
1 -2 V
2 -2 V
5 -2 V
4 -1 V
6 1 V
4 2 V
6 0 V
5 -4 V
2 0 V
1 -2 V
2 -1 V
1 -1 V
5 0 V
5 0 V
6 2 V
4 2 V
6 2 V
5 -3 V
1 0 V
2 -1 V
2 -1 V
1 -1 V
5 1 V
5 2 V
5 7 V
5 6 V
5 4 V
6 -7 V
1 -2 V
1 -3 V
2 -3 V
1 -2 V
5 -3 V
5 -2 V
6 2 V
4 2 V
6 1 V
5 -4 V
1 -1 V
2 -1 V
2 -2 V
1 -1 V
5 0 V
5 2 V
5 5 V
5 5 V
5 3 V
5 -5 V
2 -1 V
1 -2 V
2 -2 V
1 -2 V
5 0 V
5 2 V
5 7 V
5 7 V
5 4 V
6 -9 V
1 -2 V
2 -3 V
1 -4 V
1 -2 V
5 -3 V
5 -2 V
6 3 V
4 3 V
6 2 V
5 -5 V
1 -1 V
2 -1 V
2 -2 V
1 -1 V
5 1 V
5 2 V
5 9 V
5 7 V
5 5 V
5 -8 V
1 -2 V
2 -3 V
2 -3 V
1 -2 V
5 -2 V
5 1 V
5 7 V
5 6 V
5 3 V
6 -8 V
1 -2 V
1 -3 V
2 -4 V
1 -2 V
5 -2 V
5 -1 V
5 4 V
5 4 V
5 4 V
6 -6 V
1 -1 V
2 -2 V
1 -2 V
1 -1 V
5 1 V
5 3 V
6 10 V
4 9 V
6 5 V
5 -9 V
1 -2 V
2 -4 V
1 -4 V
1 -3 V
5 -3 V
5 -1 V
6 6 V
4 4 V
6 4 V
5 -8 V
1 -1 V
2 -3 V
2 -3 V
1 -2 V
5 -1 V
5 1 V
5 7 V
5 6 V
5 5 V
5 -7 V
1 -1 V
2 -3 V
2 -3 V
1 -2 V
5 1 V
5 2 V
5 10 V
5 8 V
5 6 V
6 -10 V
1 -2 V
1 -5 V
2 -4 V
1 -2 V
5 -4 V
5 -2 V
5 5 V
5 4 V
5 3 V
6 -6 V
1 -1 V
1 -3 V
2 -2 V
1 -2 V
5 1 V
5 2 V
5 10 V
stroke 4977 2659 M
5 7 V
5 6 V
6 -8 V
1 -2 V
2 -3 V
1 -4 V
1 -2 V
5 -1 V
5 1 V
6 8 V
4 7 V
6 5 V
5 -9 V
1 -3 V
2 -4 V
1 -3 V
0 -1 V
1 -2 V
5 -3 V
5 -1 V
6 5 V
4 4 V
6 4 V
5 -6 V
1 -1 V
2 -2 V
2 -3 V
0 -1 V
5 1 V
5 3 V
6 11 V
4 8 V
6 6 V
5 -9 V
1 -2 V
2 -4 V
2 -4 V
1 -2 V
5 -3 V
5 -1 V
5 7 V
5 5 V
5 4 V
5 -8 V
1 -2 V
2 -3 V
2 -3 V
1 -2 V
5 -2 V
5 0 V
5 6 V
5 6 V
5 4 V
6 -6 V
1 -1 V
1 -3 V
2 -2 V
0 -1 V
1 -1 V
5 1 V
5 3 V
5 10 V
5 9 V
5 6 V
6 -10 V
1 -2 V
1 -5 V
2 -4 V
1 -3 V
5 -3 V
5 -2 V
5 6 V
5 4 V
5 3 V
6 -7 V
1 -1 V
2 -3 V
1 -3 V
1 -1 V
5 0 V
5 1 V
6 8 V
4 7 V
6 5 V
5 -7 V
1 -1 V
2 -3 V
1 -3 V
0 -1 V
1 -1 V
5 -1 V
5 2 V
6 10 V
4 7 V
6 6 V
5 -10 V
1 -3 V
0 1 V
2 -5 V
2 -4 V
1 -2 V
4 -4 V
5 -1 V
6 4 V
4 4 V
6 4 V
5 -6 V
1 -2 V
2 -2 V
2 -2 V
1 -2 V
5 1 V
5 3 V
5 10 V
5 8 V
5 6 V
5 -8 V
1 -3 V
0 1 V
2 -4 V
2 -4 V
1 -2 V
5 -2 V
5 0 V
5 8 V
5 6 V
5 5 V
6 -9 V
1 -2 V
1 -4 V
2 -4 V
1 -2 V
5 -2 V
5 -1 V
5 5 V
5 5 V
5 4 V
6 -6 V
1 -1 V
1 -3 V
2 -2 V
1 -1 V
5 1 V
5 3 V
5 11 V
2 4 V
1 2 V
6 8 V
1 0 V
4 0 V
6 1 V
9 0 V
0 -1 V
17 70 V
48 508 V
14 143 V
12 163 V
1 10 V
7 124 V
7 109 V
18 238 V
3 30 V
19 208 V
13 -166 V
2 -82 V
8 -280 V
9 -347 V
18 -536 V
3 -73 V
3 -84 V
12 -323 V
4 -84 V
39 -1052 V
4 -107 V
12 13 V
5 150 V
18 434 V
3 59 V
2 46 V
38 789 V
8 166 V
18 292 V
3 36 V
3 30 V
12 60 V
2 -8 V
40 -134 V
4 -16 V
13 -50 V
6 -28 V
18 11 V
3 16 V
5 33 V
8 46 V
3 19 V
12 85 V
23 179 V
18 91 V
3 7 V
3 7 V
12 -50 V
6 -63 V
17 -171 V
7 -79 V
41 -423 V
17 -88 V
167 8 V
6 2 V
50 35 V
-1 -1 V
21 9 V
15 1 V
12 0 V
2 0 V
15 1 V
% End plot #2
% Begin plot #3
0.800 UP
stroke
3.000 UL
LTb
1.00 0.00 0.00 C % End plot #3
% Begin plot #4
0.800 UP
3.000 UL
LTb
0.00 0.00 1.00 C % End plot #4
% Begin plot #5
0.800 UL
LTb
1.00 0.00 0.00 C LCb setrgbcolor
1661 4726 M
[ [(Symbol) 220.0 0.0 true true 0 (b)]
[(roman) 176.0 -66.0 true true 0 (x)]
[(roman) 220.0 0.0 true true 0 ( bm)]
] -51.3 MRshow
0.800 UL
LTb
1.00 0.00 0.00 C 1793 4726 M
195 0 V
826 806 M
5 3 V
9 6 V
1 0 V
4 3 V
4 3 V
10 6 V
6 4 V
37 27 V
18 -91 V
0 -1 V
41 33 V
8 6 V
1 1 V
13 6 V
16 1 V
7 0 V
3 1 V
18 1 V
22 2 V
13 -93 V
2 -30 V
8 -89 V
6 -61 V
3 -22 V
18 -71 V
6 -1 V
12 40 V
6 35 V
39 646 V
2 44 V
12 -73 V
2 -82 V
3 -90 V
18 -398 V
7 -78 V
35 236 V
2 48 V
3 72 V
18 606 V
5 235 V
12 -54 V
3 -157 V
1324 449 L
4 3 V
12 136 V
3 71 V
3 75 V
18 694 V
9 506 V
7 536 V
3 237 V
13 289 V
19 -681 V
3 -91 V
18 -510 V
12 -309 V
8 -169 V
2 -46 V
13 -203 V
12 -153 V
42 -326 V
17 -37 V
0 -1 V
9 -14 V
6 -5 V
4 -1 V
1 0 V
5 2 V
1 1 V
2 4 V
5 10 V
5 6 V
6 -9 V
1 -3 V
0 1 V
1 -4 V
2 -3 V
1 -2 V
5 -3 V
5 1 V
6 6 V
4 10 V
5 6 V
6 -9 V
1 -3 V
0 1 V
2 -4 V
1 -3 V
1 -2 V
5 -3 V
5 1 V
6 6 V
4 10 V
6 6 V
5 -9 V
1 -3 V
0 1 V
2 -4 V
1 -3 V
1 -2 V
5 -3 V
5 1 V
6 6 V
4 10 V
6 6 V
5 -9 V
1 -3 V
0 1 V
2 -4 V
2 -3 V
1 -2 V
5 -3 V
4 1 V
6 6 V
5 10 V
5 6 V
5 -9 V
1 -3 V
0 1 V
2 -4 V
2 -3 V
1 -2 V
5 -3 V
5 1 V
5 6 V
5 10 V
5 6 V
5 -9 V
1 -3 V
0 1 V
2 -4 V
2 -3 V
1 -2 V
5 -3 V
5 1 V
5 6 V
5 10 V
5 6 V
6 -9 V
1 -3 V
0 1 V
1 -4 V
2 -3 V
1 -2 V
5 -3 V
5 1 V
5 6 V
5 10 V
5 6 V
6 -9 V
1 -3 V
0 1 V
1 -4 V
2 -3 V
1 -2 V
5 -3 V
5 1 V
6 6 V
4 10 V
5 6 V
6 -9 V
1 -3 V
0 1 V
2 -4 V
1 -3 V
1 -2 V
5 -3 V
5 1 V
6 6 V
4 10 V
6 6 V
5 -9 V
1 -3 V
0 1 V
2 -4 V
1 -3 V
1 -2 V
5 -3 V
5 1 V
6 6 V
4 10 V
6 6 V
5 -9 V
1 -3 V
0 1 V
2 -4 V
2 -3 V
1 -2 V
5 -3 V
5 1 V
5 6 V
5 10 V
5 6 V
5 -9 V
1 -3 V
0 1 V
2 -4 V
2 -3 V
1 -2 V
5 -3 V
5 1 V
5 6 V
5 10 V
5 6 V
5 -9 V
1 -3 V
0 1 V
2 -4 V
2 -3 V
1 -2 V
5 -3 V
5 1 V
5 6 V
5 10 V
5 6 V
6 -9 V
1 -3 V
0 1 V
1 -4 V
2 -3 V
1 -2 V
5 -3 V
5 1 V
5 6 V
5 10 V
5 6 V
6 -9 V
1 -3 V
0 1 V
1 -4 V
2 -3 V
1 -2 V
5 -3 V
5 1 V
6 6 V
4 10 V
6 6 V
5 -9 V
1 -3 V
0 1 V
2 -4 V
1 -3 V
1 -2 V
5 -3 V
5 1 V
6 6 V
4 10 V
6 6 V
5 -9 V
1 -3 V
0 1 V
2 -4 V
1 -3 V
1 -2 V
10 -2 V
6 6 V
4 10 V
6 7 V
5 -10 V
1 -3 V
0 1 V
2 -4 V
2 -3 V
1 -2 V
10 -2 V
5 6 V
5 10 V
5 6 V
5 -9 V
1 -3 V
0 1 V
2 -4 V
2 -3 V
1 -2 V
10 -2 V
5 6 V
5 10 V
5 6 V
6 -9 V
1 -3 V
0 1 V
1 -4 V
2 -3 V
1 -2 V
10 -2 V
5 6 V
5 10 V
5 6 V
6 -9 V
1 -3 V
0 1 V
1 -4 V
stroke 2311 458 M
2 -3 V
1 -2 V
10 -2 V
6 6 V
4 9 V
6 7 V
5 -9 V
1 -3 V
2 -3 V
1 -3 V
1 -2 V
10 -2 V
6 6 V
4 9 V
6 7 V
5 -9 V
1 -3 V
2 -3 V
2 -4 V
0 1 V
1 -2 V
10 -2 V
5 6 V
5 9 V
5 7 V
5 -9 V
2 -3 V
1 -3 V
2 -4 V
0 1 V
1 -2 V
10 -2 V
5 6 V
5 9 V
5 7 V
6 -9 V
1 -3 V
2 -4 V
1 -3 V
0 1 V
1 -2 V
10 -2 V
6 6 V
4 9 V
6 7 V
5 -9 V
1 -3 V
2 -4 V
2 -3 V
1 -1 V
10 -2 V
5 6 V
5 9 V
5 7 V
6 -9 V
1 -3 V
1 -4 V
2 -3 V
1 -1 V
10 -2 V
6 6 V
4 9 V
6 7 V
5 -9 V
1 -3 V
2 -4 V
2 -3 V
1 -1 V
10 -2 V
5 6 V
5 9 V
5 7 V
6 -9 V
1 -3 V
2 -4 V
1 -3 V
2 -1 V
9 -2 V
6 6 V
4 9 V
6 7 V
5 -9 V
2 -3 V
1 -4 V
2 -3 V
1 -1 V
10 -2 V
6 6 V
4 9 V
6 7 V
5 -9 V
1 -3 V
2 -4 V
2 -3 V
1 -1 V
10 -2 V
5 6 V
5 9 V
5 7 V
6 -9 V
1 -3 V
2 -4 V
1 -3 V
2 -1 V
10 -2 V
5 6 V
5 9 V
5 7 V
6 -9 V
1 -3 V
2 -4 V
1 -3 V
2 -1 V
10 -2 V
5 6 V
5 9 V
5 7 V
5 -9 V
2 -3 V
1 -4 V
2 -3 V
2 -1 V
9 -2 V
6 6 V
4 10 V
6 6 V
5 -9 V
2 -3 V
1 -4 V
2 -3 V
1 -1 V
10 -2 V
6 6 V
4 10 V
6 7 V
5 -10 V
2 -3 V
1 -4 V
2 -3 V
1 -1 V
10 -2 V
6 6 V
4 10 V
6 7 V
5 -10 V
2 -3 V
1 -4 V
2 -3 V
1 -1 V
10 -2 V
6 6 V
4 10 V
6 7 V
5 -10 V
2 -3 V
1 -4 V
2 -3 V
1 -1 V
10 -2 V
6 6 V
4 10 V
6 7 V
5 -9 V
2 -4 V
1 -4 V
2 -2 V
1 -2 V
10 -2 V
6 6 V
4 10 V
6 7 V
5 -9 V
2 -4 V
1 -4 V
2 -3 V
1 -1 V
10 -2 V
6 6 V
4 10 V
6 7 V
5 -9 V
2 -4 V
1 -4 V
2 -3 V
2 -1 V
5 -3 V
4 1 V
6 6 V
4 10 V
6 7 V
5 -9 V
2 -4 V
1 -4 V
2 -2 V
2 -2 V
5 -3 V
5 1 V
5 6 V
5 10 V
5 7 V
5 -9 V
2 -4 V
1 -4 V
2 -2 V
2 -2 V
5 -3 V
5 1 V
5 6 V
5 10 V
5 7 V
5 -10 V
2 -3 V
2 -4 V
1 -3 V
2 -1 V
5 -3 V
5 1 V
5 6 V
5 10 V
5 7 V
5 -9 V
2 -4 V
2 -4 V
1 -3 V
2 -1 V
5 -3 V
5 1 V
5 6 V
5 10 V
5 7 V
5 -9 V
2 -4 V
2 -4 V
1 -2 V
2 -2 V
5 -3 V
5 1 V
5 6 V
5 10 V
5 7 V
6 -9 V
1 -4 V
2 -4 V
1 -3 V
2 -1 V
5 -3 V
5 1 V
5 6 V
5 10 V
stroke 3291 467 M
5 7 V
6 -9 V
1 -4 V
2 -4 V
1 -3 V
2 -1 V
5 -3 V
5 1 V
5 6 V
5 10 V
5 7 V
6 -9 V
1 -4 V
2 -4 V
1 -2 V
2 -2 V
5 -3 V
5 1 V
5 6 V
5 10 V
5 7 V
6 -9 V
1 -4 V
2 -4 V
1 -2 V
2 -2 V
5 -3 V
5 1 V
5 6 V
5 10 V
5 7 V
6 -10 V
1 -3 V
2 -4 V
2 -3 V
1 -1 V
5 -3 V
5 1 V
5 6 V
5 10 V
5 7 V
6 -9 V
1 -4 V
2 -4 V
2 -2 V
1 -2 V
5 -3 V
5 1 V
5 6 V
5 10 V
5 7 V
6 -9 V
1 -4 V
2 -4 V
2 -2 V
1 -2 V
5 -3 V
5 1 V
5 6 V
5 10 V
5 7 V
6 -9 V
1 -4 V
2 -4 V
2 -3 V
1 -1 V
5 -3 V
5 1 V
5 6 V
5 10 V
5 7 V
6 -9 V
1 -4 V
2 -4 V
2 -3 V
1 -1 V
5 -3 V
5 1 V
5 6 V
5 10 V
5 7 V
6 -9 V
1 -4 V
2 -4 V
2 -2 V
1 -2 V
5 -3 V
5 1 V
6 6 V
4 10 V
5 7 V
6 -9 V
1 -4 V
2 -4 V
2 -2 V
1 -2 V
5 -3 V
5 1 V
6 6 V
4 10 V
6 7 V
5 -10 V
1 -3 V
2 -4 V
2 -3 V
1 -1 V
5 -3 V
5 1 V
6 6 V
4 10 V
6 7 V
5 -9 V
1 -4 V
2 -4 V
2 -2 V
1 -2 V
5 -3 V
5 1 V
6 6 V
4 10 V
6 7 V
5 -9 V
1 -4 V
2 -4 V
2 -2 V
1 -2 V
5 -3 V
5 1 V
6 6 V
4 10 V
6 7 V
5 -9 V
1 -4 V
2 -4 V
2 -3 V
1 -1 V
5 -3 V
5 1 V
6 6 V
4 10 V
6 7 V
5 -9 V
2 -4 V
1 -4 V
2 -3 V
1 -1 V
5 -3 V
5 1 V
6 6 V
4 10 V
6 7 V
5 -9 V
2 -4 V
1 -4 V
2 -2 V
1 -2 V
5 -3 V
5 1 V
6 6 V
4 10 V
6 7 V
5 -9 V
2 -4 V
1 -4 V
2 -2 V
1 -2 V
5 -3 V
5 1 V
6 6 V
4 10 V
6 7 V
5 -10 V
2 -3 V
1 -4 V
2 -3 V
1 -1 V
5 -3 V
5 1 V
6 6 V
4 10 V
6 7 V
5 -9 V
2 -4 V
1 -4 V
2 -2 V
2 -2 V
4 -3 V
5 1 V
6 6 V
4 10 V
6 7 V
5 -9 V
2 -4 V
1 -4 V
2 -2 V
2 -2 V
5 -3 V
4 1 V
6 6 V
5 10 V
5 7 V
5 -9 V
2 -4 V
1 -4 V
2 -3 V
2 -1 V
5 -3 V
5 1 V
5 6 V
5 10 V
5 7 V
5 -9 V
2 -4 V
1 -4 V
2 -3 V
2 -1 V
5 -3 V
5 1 V
5 6 V
5 10 V
5 7 V
5 -9 V
2 -4 V
2 -4 V
1 -2 V
2 -2 V
5 -3 V
5 1 V
5 6 V
5 10 V
5 7 V
5 -10 V
2 -3 V
2 -4 V
1 -3 V
2 -1 V
5 -3 V
5 1 V
5 6 V
5 10 V
5 6 V
5 -9 V
2 -3 V
2 -4 V
1 -3 V
2 -1 V
5 -3 V
5 1 V
5 6 V
stroke 4212 457 M
5 10 V
5 6 V
5 -9 V
2 -3 V
1 -4 V
2 -3 V
2 -1 V
5 -3 V
4 1 V
6 6 V
4 10 V
6 6 V
5 -9 V
2 -3 V
1 -4 V
2 -3 V
1 -1 V
5 -3 V
5 1 V
6 6 V
4 9 V
6 7 V
5 -9 V
2 -3 V
1 -4 V
2 -3 V
1 -1 V
5 -3 V
5 1 V
6 6 V
4 9 V
6 7 V
5 -9 V
1 -3 V
2 -4 V
2 -3 V
1 -1 V
5 -3 V
5 1 V
5 6 V
5 9 V
5 7 V
6 -9 V
1 -3 V
2 -4 V
2 -3 V
1 -1 V
5 -3 V
5 1 V
5 6 V
5 9 V
5 7 V
6 -9 V
1 -3 V
2 -4 V
1 -3 V
2 -1 V
5 -3 V
4 1 V
6 6 V
4 9 V
6 7 V
5 -9 V
2 -3 V
1 -4 V
2 -3 V
1 -1 V
5 -3 V
5 1 V
6 6 V
4 9 V
6 7 V
5 -9 V
1 -3 V
2 -4 V
2 -3 V
1 -1 V
5 -3 V
5 1 V
5 6 V
5 9 V
5 7 V
6 -9 V
1 -3 V
1 -4 V
2 -3 V
1 -1 V
5 -3 V
5 1 V
6 6 V
4 9 V
6 7 V
5 -9 V
1 -3 V
2 -4 V
2 -3 V
1 -1 V
5 -3 V
5 1 V
5 6 V
5 9 V
5 7 V
5 -9 V
2 -3 V
1 -4 V
2 -3 V
1 -1 V
5 -3 V
5 1 V
5 6 V
5 9 V
5 7 V
6 -9 V
1 -3 V
2 -4 V
1 -3 V
0 1 V
1 -2 V
5 -3 V
5 1 V
6 6 V
4 9 V
6 7 V
5 -9 V
1 -3 V
2 -4 V
2 -3 V
0 1 V
1 -2 V
5 -3 V
5 1 V
5 6 V
5 9 V
5 7 V
5 -9 V
1 -3 V
2 -3 V
2 -4 V
0 1 V
1 -2 V
5 -3 V
5 1 V
5 6 V
5 10 V
5 6 V
6 -9 V
1 -3 V
1 -3 V
2 -4 V
0 1 V
1 -2 V
5 -3 V
5 1 V
5 6 V
5 10 V
5 6 V
6 -9 V
1 -3 V
0 1 V
2 -4 V
1 -3 V
1 -2 V
5 -3 V
5 1 V
6 6 V
4 10 V
6 6 V
5 -9 V
1 -3 V
0 1 V
2 -4 V
1 -4 V
0 1 V
1 -2 V
5 -3 V
5 1 V
6 6 V
4 10 V
6 6 V
5 -9 V
1 -3 V
0 1 V
2 -4 V
2 -3 V
1 -2 V
5 -3 V
5 1 V
5 6 V
5 10 V
5 7 V
5 -10 V
1 -3 V
0 1 V
2 -4 V
2 -3 V
1 -2 V
5 -3 V
5 1 V
5 6 V
5 10 V
5 6 V
6 -9 V
1 -3 V
0 1 V
1 -4 V
2 -3 V
1 -2 V
5 -3 V
5 1 V
5 6 V
5 10 V
5 6 V
6 -9 V
1 -3 V
0 1 V
1 -4 V
2 -3 V
1 -2 V
5 -3 V
5 1 V
5 6 V
5 10 V
5 7 V
6 -10 V
1 -3 V
0 1 V
2 -4 V
1 -3 V
1 -2 V
5 -3 V
5 1 V
6 6 V
4 10 V
6 6 V
5 -9 V
1 -3 V
0 1 V
2 -4 V
1 -3 V
1 -2 V
5 -3 V
5 1 V
6 6 V
4 10 V
6 6 V
5 -9 V
1 -3 V
0 1 V
2 -4 V
stroke 5068 458 M
2 -3 V
0 -2 V
5 -3 V
5 1 V
6 6 V
4 10 V
6 7 V
5 -10 V
1 -3 V
0 1 V
2 -4 V
2 -3 V
1 -2 V
5 -3 V
5 1 V
5 6 V
5 10 V
5 7 V
5 -10 V
1 -3 V
0 1 V
2 -4 V
2 -3 V
1 -2 V
5 -3 V
5 1 V
5 6 V
5 10 V
5 6 V
6 -9 V
1 -3 V
0 1 V
1 -4 V
2 -3 V
1 -2 V
5 -3 V
5 1 V
5 6 V
5 10 V
5 6 V
6 -9 V
1 -3 V
0 1 V
1 -4 V
2 -3 V
1 -2 V
5 -3 V
5 1 V
5 6 V
5 10 V
5 7 V
6 -10 V
1 -3 V
0 1 V
2 -4 V
1 -3 V
1 -2 V
5 -3 V
5 1 V
6 6 V
4 10 V
6 7 V
5 -10 V
1 -3 V
0 1 V
2 -4 V
1 -3 V
1 -2 V
5 -3 V
5 1 V
6 6 V
4 10 V
6 6 V
5 -9 V
1 -3 V
0 1 V
2 -4 V
2 -3 V
1 -2 V
4 -3 V
5 1 V
6 6 V
4 10 V
6 6 V
5 -9 V
1 -3 V
0 1 V
2 -4 V
2 -3 V
1 -2 V
5 -3 V
5 1 V
5 6 V
5 10 V
5 7 V
5 -10 V
1 -3 V
0 1 V
2 -4 V
2 -3 V
1 -2 V
5 -3 V
5 1 V
5 6 V
5 10 V
5 6 V
6 -9 V
1 -3 V
0 1 V
1 -4 V
2 -3 V
1 -2 V
5 -3 V
5 1 V
5 6 V
5 10 V
5 6 V
6 -9 V
1 -3 V
0 1 V
1 -4 V
2 -3 V
1 -2 V
5 -3 V
5 1 V
5 6 V
2 4 V
0 -1 V
1 2 V
6 8 V
1 1 V
4 0 V
6 0 V
9 2 V
17 -2 V
48 35 V
14 15 V
12 24 V
1 2 V
7 22 V
7 22 V
18 67 V
3 12 V
19 90 V
13 -51 V
2 -27 V
8 -81 V
9 -76 V
18 -71 V
3 -4 V
3 -1 V
12 24 V
4 13 V
39 435 V
4 71 V
12 -16 V
5 -102 V
18 -263 V
3 -31 V
2 -22 V
38 -66 V
8 61 V
18 222 V
3 48 V
3 43 V
12 65 V
2 -22 V
40 -286 V
4 -25 V
13 -61 V
6 -26 V
18 -48 V
3 -5 V
5 -6 V
8 -2 V
3 1 V
12 18 V
23 84 V
18 115 V
3 22 V
3 27 V
12 51 V
6 -4 V
17 -11 V
7 -5 V
41 -25 V
17 80 V
167 -79 V
6 -2 V
0 -1 V
50 -17 V
-1 14 V
21 -20 V
15 -4 V
12 -4 V
2 0 V
15 -4 V
% End plot #5
% Begin plot #6
stroke
LTb
0.00 0.00 1.00 C LCb setrgbcolor
3176 4726 M
[ [(Symbol) 220.0 0.0 true true 0 (b)]
[(roman) 176.0 -66.0 true true 0 (y)]
[(roman) 220.0 0.0 true true 0 ( bm)]
] -51.3 MRshow
0.800 UL
LTb
0.00 0.00 1.00 C 3308 4726 M
195 0 V
826 806 M
5 3 V
9 6 V
1 0 V
4 3 V
4 3 V
10 6 V
6 4 V
37 19 V
18 -26 V
961 459 L
8 -10 V
1 0 V
13 27 V
16 106 V
7 75 V
3 34 V
18 234 V
22 324 V
13 500 V
2 167 V
8 651 V
6 659 V
3 310 V
18 1175 V
6 -9 V
12 -624 V
6 -466 V
39 -2522 V
2 -68 V
12 -186 V
2 5 V
3 7 V
18 -23 V
7 -31 V
35 -142 V
2 -7 V
3 -10 V
18 -80 V
5 -23 V
12 -13 V
3 6 V
40 99 V
4 12 V
12 21 V
3 1 V
3 1 V
18 -55 V
9 -43 V
7 -32 V
3 -12 V
13 -22 V
19 -8 V
3 0 V
18 -9 V
12 -6 V
8 -3 V
2 -1 V
13 -3 V
12 -2 V
42 12 V
17 -6 V
9 -2 V
6 0 V
4 0 V
1 0 V
5 -5 V
1 -2 V
2 -4 V
5 -4 V
5 -1 V
6 3 V
1 1 V
1 3 V
2 3 V
1 2 V
5 7 V
5 -5 V
6 -9 V
4 -4 V
5 -1 V
6 3 V
1 1 V
2 3 V
1 3 V
1 2 V
5 7 V
5 -5 V
6 -9 V
4 -4 V
6 -1 V
5 3 V
1 1 V
2 3 V
1 3 V
1 2 V
5 7 V
5 -5 V
6 -9 V
4 -4 V
6 -1 V
5 3 V
1 1 V
2 3 V
2 3 V
1 2 V
5 7 V
4 -5 V
6 -9 V
5 -4 V
5 -1 V
5 3 V
1 1 V
2 3 V
2 3 V
1 2 V
5 7 V
5 -5 V
5 -9 V
5 -4 V
5 -1 V
5 3 V
1 1 V
2 3 V
2 3 V
1 2 V
5 7 V
5 -5 V
5 -9 V
5 -4 V
5 -1 V
6 3 V
1 1 V
1 3 V
2 3 V
1 2 V
5 7 V
5 -5 V
5 -9 V
5 -4 V
5 -1 V
6 3 V
1 1 V
1 3 V
2 3 V
1 2 V
5 7 V
5 -5 V
6 -9 V
4 -4 V
5 -1 V
6 3 V
1 1 V
2 3 V
1 3 V
1 2 V
5 7 V
5 -5 V
6 -9 V
4 -4 V
6 -1 V
5 3 V
1 1 V
2 3 V
1 3 V
1 2 V
5 7 V
5 -5 V
6 -9 V
4 -4 V
6 -1 V
5 3 V
1 1 V
2 3 V
2 3 V
1 2 V
5 7 V
5 -5 V
5 -9 V
5 -4 V
5 -1 V
5 3 V
1 1 V
2 3 V
2 3 V
1 2 V
5 7 V
5 -5 V
5 -9 V
5 -4 V
5 -1 V
5 3 V
1 1 V
2 3 V
2 3 V
1 2 V
5 7 V
5 -5 V
5 -9 V
5 -4 V
5 -1 V
6 3 V
1 1 V
1 3 V
2 3 V
1 2 V
5 7 V
5 -5 V
5 -9 V
5 -4 V
5 -1 V
6 3 V
1 1 V
1 3 V
2 3 V
1 2 V
5 7 V
5 -5 V
6 -9 V
4 -4 V
6 -1 V
5 3 V
1 1 V
2 3 V
1 3 V
1 2 V
5 7 V
5 -5 V
6 -9 V
4 -4 V
6 -1 V
5 3 V
1 1 V
2 3 V
1 3 V
1 2 V
10 2 V
6 -9 V
4 -4 V
6 -1 V
5 3 V
1 1 V
2 3 V
2 3 V
1 2 V
10 2 V
5 -9 V
5 -4 V
5 -1 V
5 3 V
1 1 V
2 3 V
2 3 V
1 2 V
10 2 V
5 -9 V
5 -4 V
5 -1 V
6 3 V
1 1 V
stroke 2274 455 M
1 3 V
2 3 V
1 2 V
10 2 V
5 -9 V
5 -4 V
5 -1 V
6 3 V
1 1 V
1 3 V
2 3 V
1 2 V
10 2 V
6 -9 V
4 -4 V
6 -1 V
5 3 V
1 1 V
2 3 V
1 3 V
1 2 V
10 2 V
6 -9 V
4 -4 V
6 -1 V
5 3 V
1 1 V
2 3 V
2 3 V
1 2 V
10 3 V
5 -9 V
5 -5 V
5 -1 V
5 3 V
2 1 V
1 3 V
2 3 V
1 2 V
10 3 V
5 -9 V
5 -5 V
5 -1 V
6 3 V
1 1 V
2 3 V
1 3 V
1 2 V
10 3 V
6 -9 V
4 -5 V
6 -1 V
5 3 V
1 1 V
2 3 V
2 3 V
1 2 V
10 3 V
5 -9 V
5 -5 V
5 -1 V
6 3 V
1 1 V
1 3 V
2 3 V
1 3 V
10 2 V
6 -9 V
4 -5 V
6 -1 V
5 3 V
1 1 V
2 3 V
2 3 V
1 3 V
10 2 V
5 -9 V
5 -5 V
5 -1 V
6 3 V
1 1 V
2 3 V
1 3 V
2 3 V
9 2 V
6 -9 V
4 -5 V
6 -1 V
5 3 V
2 1 V
1 3 V
2 3 V
1 3 V
10 2 V
6 -9 V
4 -5 V
6 -1 V
5 3 V
1 1 V
2 3 V
2 3 V
1 3 V
10 2 V
5 -9 V
5 -5 V
5 -1 V
6 3 V
1 1 V
2 3 V
1 3 V
2 3 V
10 2 V
5 -9 V
5 -5 V
5 -1 V
6 3 V
1 2 V
2 2 V
1 3 V
2 3 V
10 2 V
5 -9 V
5 -5 V
5 -1 V
5 3 V
2 2 V
1 2 V
2 3 V
2 3 V
9 2 V
6 -9 V
4 -5 V
6 -1 V
5 3 V
2 2 V
1 2 V
2 3 V
1 3 V
10 2 V
6 -9 V
4 -5 V
6 -1 V
5 3 V
2 2 V
1 2 V
2 3 V
1 3 V
10 2 V
6 -9 V
4 -5 V
6 -1 V
5 3 V
2 2 V
1 2 V
2 3 V
1 3 V
10 2 V
6 -9 V
4 -5 V
6 -1 V
5 3 V
2 2 V
1 2 V
2 3 V
1 3 V
10 2 V
6 -9 V
4 -5 V
6 -1 V
5 3 V
2 2 V
1 2 V
2 3 V
1 3 V
10 2 V
6 -9 V
4 -5 V
6 -1 V
5 3 V
2 2 V
1 2 V
2 3 V
1 3 V
10 2 V
6 -9 V
4 -5 V
6 -1 V
5 3 V
2 2 V
1 2 V
2 3 V
2 3 V
5 7 V
4 -5 V
6 -9 V
4 -5 V
6 -1 V
5 3 V
2 2 V
1 2 V
2 3 V
2 3 V
5 7 V
5 -5 V
5 -9 V
5 -5 V
5 -1 V
5 3 V
2 2 V
1 2 V
2 3 V
2 3 V
5 7 V
5 -5 V
5 -9 V
5 -5 V
5 -1 V
5 3 V
2 2 V
2 2 V
1 3 V
2 3 V
5 7 V
5 -5 V
5 -9 V
5 -5 V
5 -1 V
5 3 V
2 2 V
2 2 V
1 3 V
2 3 V
5 7 V
5 -5 V
5 -9 V
5 -5 V
5 -1 V
5 3 V
2 2 V
2 2 V
1 3 V
2 3 V
5 7 V
5 -5 V
5 -9 V
5 -5 V
5 -1 V
6 3 V
1 2 V
stroke 3266 456 M
2 2 V
1 3 V
2 3 V
5 7 V
5 -5 V
5 -9 V
5 -5 V
5 -1 V
6 3 V
1 2 V
2 2 V
1 3 V
2 3 V
5 7 V
5 -5 V
5 -9 V
5 -5 V
5 -1 V
6 3 V
1 2 V
2 2 V
1 3 V
2 3 V
5 7 V
5 -5 V
5 -9 V
5 -5 V
5 -1 V
6 3 V
1 2 V
2 2 V
1 3 V
2 3 V
5 7 V
5 -5 V
5 -9 V
5 -5 V
5 -1 V
6 3 V
1 2 V
2 2 V
2 3 V
1 3 V
5 7 V
5 -5 V
5 -9 V
5 -5 V
5 -1 V
6 3 V
1 2 V
2 2 V
2 3 V
1 3 V
5 7 V
5 -5 V
5 -9 V
5 -5 V
5 -1 V
6 3 V
1 2 V
2 2 V
2 3 V
1 3 V
5 7 V
5 -5 V
5 -9 V
5 -5 V
5 -1 V
6 3 V
1 2 V
2 2 V
2 3 V
1 3 V
5 7 V
5 -5 V
5 -9 V
5 -5 V
5 -1 V
6 3 V
1 2 V
2 2 V
2 3 V
1 3 V
5 7 V
5 -5 V
5 -9 V
5 -5 V
5 -1 V
6 3 V
1 2 V
2 2 V
2 3 V
1 3 V
5 7 V
5 -5 V
6 -9 V
4 -5 V
5 -1 V
6 3 V
1 2 V
2 2 V
2 3 V
1 3 V
5 7 V
5 -5 V
6 -9 V
4 -5 V
6 -1 V
5 3 V
1 2 V
2 2 V
2 3 V
1 3 V
5 7 V
5 -5 V
6 -9 V
4 -5 V
6 -1 V
5 3 V
1 2 V
2 2 V
2 3 V
1 3 V
5 7 V
5 -5 V
6 -9 V
4 -5 V
6 -1 V
5 3 V
1 2 V
2 2 V
2 3 V
1 3 V
5 7 V
5 -5 V
6 -9 V
4 -5 V
6 -1 V
5 3 V
1 2 V
2 2 V
2 3 V
1 3 V
5 7 V
5 -5 V
6 -9 V
4 -5 V
6 -1 V
5 3 V
2 2 V
1 2 V
2 3 V
1 3 V
5 7 V
5 -5 V
6 -9 V
4 -5 V
6 -1 V
5 3 V
2 2 V
1 2 V
2 3 V
1 3 V
5 7 V
5 -5 V
6 -9 V
4 -5 V
6 -1 V
5 3 V
2 2 V
1 2 V
2 3 V
1 3 V
5 7 V
5 -5 V
6 -9 V
4 -5 V
6 -1 V
5 3 V
2 2 V
1 2 V
2 3 V
1 3 V
5 7 V
5 -5 V
6 -9 V
4 -5 V
6 -1 V
5 3 V
2 2 V
1 2 V
2 3 V
2 3 V
4 7 V
5 -5 V
6 -9 V
4 -5 V
6 -1 V
5 3 V
2 2 V
1 2 V
2 3 V
2 3 V
5 7 V
4 -5 V
6 -9 V
5 -5 V
5 -1 V
5 3 V
2 2 V
1 2 V
2 3 V
2 3 V
5 7 V
5 -5 V
5 -9 V
5 -5 V
5 -1 V
5 3 V
2 2 V
1 2 V
2 3 V
2 3 V
5 7 V
5 -5 V
5 -9 V
5 -5 V
5 -1 V
5 3 V
2 2 V
2 2 V
1 3 V
2 3 V
5 7 V
5 -5 V
5 -9 V
5 -5 V
5 -1 V
5 3 V
2 2 V
2 2 V
1 3 V
2 3 V
5 7 V
5 -5 V
5 -9 V
5 -5 V
5 -1 V
5 3 V
stroke 4190 454 M
2 2 V
2 2 V
1 3 V
2 3 V
5 7 V
5 -5 V
5 -9 V
5 -5 V
5 -1 V
5 3 V
2 2 V
1 2 V
2 3 V
2 3 V
5 7 V
4 -5 V
6 -9 V
4 -5 V
6 -1 V
5 3 V
2 2 V
1 2 V
2 3 V
1 3 V
5 7 V
5 -5 V
6 -9 V
4 -5 V
6 -1 V
5 3 V
2 1 V
1 3 V
2 3 V
1 3 V
5 7 V
5 -5 V
6 -9 V
4 -5 V
6 -1 V
5 3 V
1 1 V
2 3 V
2 3 V
1 3 V
5 7 V
5 -5 V
5 -9 V
5 -5 V
5 -1 V
6 3 V
1 1 V
2 3 V
2 3 V
1 3 V
5 7 V
5 -5 V
5 -9 V
5 -5 V
5 -1 V
6 3 V
1 1 V
2 3 V
1 3 V
2 3 V
5 6 V
4 -4 V
6 -9 V
4 -5 V
6 -1 V
5 3 V
2 1 V
1 3 V
2 3 V
1 3 V
5 6 V
5 -4 V
6 -9 V
4 -5 V
6 -1 V
5 3 V
1 1 V
2 3 V
2 3 V
1 3 V
5 6 V
5 -4 V
5 -9 V
5 -5 V
5 -1 V
6 3 V
1 1 V
1 3 V
2 3 V
1 2 V
5 7 V
5 -4 V
6 -9 V
4 -5 V
6 -1 V
5 3 V
1 1 V
2 3 V
2 3 V
1 2 V
5 7 V
5 -4 V
5 -9 V
5 -5 V
5 -1 V
5 3 V
2 1 V
1 3 V
2 3 V
1 2 V
5 7 V
5 -4 V
5 -9 V
5 -5 V
5 -1 V
6 3 V
1 1 V
2 3 V
1 3 V
1 2 V
5 7 V
5 -5 V
6 -8 V
4 -5 V
6 -1 V
5 3 V
1 1 V
2 3 V
2 3 V
1 2 V
5 7 V
5 -5 V
5 -9 V
5 -4 V
5 -1 V
5 3 V
1 1 V
2 3 V
2 3 V
1 2 V
5 7 V
5 -5 V
5 -9 V
5 -4 V
5 -1 V
6 3 V
1 1 V
1 3 V
2 3 V
1 2 V
5 7 V
5 -5 V
5 -9 V
5 -4 V
5 -1 V
6 3 V
1 1 V
2 3 V
1 3 V
1 2 V
5 7 V
5 -5 V
6 -9 V
4 -4 V
6 -1 V
5 3 V
1 1 V
2 3 V
1 3 V
1 2 V
5 7 V
5 -5 V
6 -9 V
4 -4 V
6 -1 V
5 3 V
1 1 V
2 3 V
2 3 V
1 2 V
5 7 V
5 -5 V
5 -9 V
5 -4 V
5 -1 V
5 3 V
1 1 V
2 3 V
2 3 V
1 2 V
5 7 V
5 -5 V
5 -9 V
5 -4 V
5 -1 V
6 3 V
1 1 V
1 3 V
2 3 V
1 2 V
5 7 V
5 -5 V
5 -9 V
5 -4 V
5 -1 V
6 3 V
1 1 V
1 3 V
2 3 V
1 2 V
5 7 V
5 -5 V
5 -9 V
5 -4 V
5 -1 V
6 3 V
1 1 V
2 3 V
1 3 V
1 2 V
5 7 V
5 -5 V
6 -9 V
4 -4 V
6 -1 V
5 3 V
1 1 V
2 3 V
1 3 V
1 2 V
5 7 V
5 -5 V
6 -9 V
4 -4 V
6 -1 V
5 3 V
1 1 V
2 3 V
2 3 V
0 2 V
5 7 V
5 -5 V
6 -9 V
4 -4 V
6 -1 V
stroke 5096 451 M
5 3 V
1 1 V
2 3 V
2 3 V
1 2 V
5 7 V
5 -5 V
5 -9 V
5 -4 V
5 -1 V
5 3 V
1 1 V
2 3 V
2 3 V
1 2 V
5 7 V
5 -5 V
5 -9 V
5 -4 V
5 -1 V
6 3 V
1 1 V
1 3 V
2 3 V
1 2 V
5 7 V
5 -5 V
5 -9 V
5 -4 V
5 -1 V
6 3 V
1 1 V
1 3 V
2 3 V
1 2 V
5 7 V
5 -5 V
5 -9 V
5 -4 V
5 -1 V
6 3 V
1 1 V
2 3 V
1 3 V
1 2 V
5 7 V
5 -5 V
6 -9 V
4 -4 V
6 -1 V
5 3 V
1 1 V
2 3 V
1 3 V
1 2 V
5 7 V
5 -5 V
6 -9 V
4 -4 V
6 -1 V
5 3 V
1 1 V
2 3 V
2 3 V
1 2 V
4 7 V
5 -5 V
6 -9 V
4 -4 V
6 -1 V
5 3 V
1 1 V
2 3 V
2 3 V
1 2 V
5 7 V
5 -5 V
5 -9 V
5 -4 V
5 -1 V
5 3 V
1 1 V
2 3 V
2 3 V
1 2 V
5 7 V
5 -5 V
5 -9 V
5 -4 V
5 -1 V
6 3 V
1 1 V
1 3 V
2 3 V
1 2 V
5 7 V
5 -5 V
5 -9 V
5 -4 V
5 -1 V
6 3 V
1 1 V
1 3 V
2 3 V
1 2 V
5 7 V
5 -5 V
5 -9 V
2 -2 V
1 -1 V
6 -2 V
1 0 V
4 1 V
6 3 V
9 10 V
17 34 V
48 48 V
14 18 V
12 7 V
1 -1 V
7 -2 V
7 -2 V
18 -15 V
3 -4 V
19 -23 V
13 16 V
2 10 V
8 35 V
9 51 V
18 46 V
3 -5 V
3 -5 V
12 -33 V
4 -12 V
39 -113 V
4 -9 V
12 1 V
5 11 V
18 31 V
3 2 V
2 2 V
38 36 V
8 9 V
18 -9 V
3 -5 V
3 -5 V
12 27 V
2 17 V
40 399 V
4 65 V
13 214 V
6 135 V
18 96 V
3 -40 V
5 -77 V
8 -100 V
3 -42 V
12 -184 V
23 -323 V
18 -197 V
3 -25 V
3 -24 V
12 -54 V
6 -12 V
17 4 V
7 20 V
41 301 V
17 -6 V
167 -50 V
6 -1 V
50 -16 V
-1 0 V
21 -6 V
15 -5 V
12 -3 V
2 -1 V
15 -3 V
% End plot #6
stroke
2.000 UL
LTb
LCb setrgbcolor
1.000 UL
LTB
LCb setrgbcolor
826 4899 N
826 448 L
5617 0 V
0 4451 V
-5617 0 V
Z stroke
1.000 UP
1.000 UL
LTb
LCb setrgbcolor
stroke
grestore
end
showpage
%%Trailer
%%DocumentFonts: Symbol roman Helvetica
