%!PS-Adobe-2.0 EPSF-2.0
%%Title: gnuplot_betaFromPlt.eps
%%Creator: gnuplot 5.0 patchlevel 3
%%CreationDate: Sun Aug  5 16:33:14 2018
%%DocumentFonts: (atend)
%%BoundingBox: 50 50 285 220
%%EndComments
%%BeginProlog
/gnudict 256 dict def
gnudict begin
%
% The following true/false flags may be edited by hand if desired.
% The unit line width and grayscale image gamma correction may also be changed.
%
/Color true def
/Blacktext true def
/Solid false def
/Dashlength 1 def
/Landscape false def
/Level1 false def
/Level3 false def
/Rounded false def
/ClipToBoundingBox false def
/SuppressPDFMark false def
/TransparentPatterns false def
/gnulinewidth 5.000 def
/userlinewidth gnulinewidth def
/Gamma 1.0 def
/BackgroundColor {-1.000 -1.000 -1.000} def
%
/vshift -40 def
/dl1 {
  10.0 Dashlength userlinewidth gnulinewidth div mul mul mul
  Rounded { currentlinewidth 0.75 mul sub dup 0 le { pop 0.01 } if } if
} def
/dl2 {
  10.0 Dashlength userlinewidth gnulinewidth div mul mul mul
  Rounded { currentlinewidth 0.75 mul add } if
} def
/hpt_ 31.5 def
/vpt_ 31.5 def
/hpt hpt_ def
/vpt vpt_ def
/doclip {
  ClipToBoundingBox {
    newpath 50 50 moveto 285 50 lineto 285 220 lineto 50 220 lineto closepath
    clip
  } if
} def
%
% Gnuplot Prolog Version 5.1 (Oct 2015)
%
%/SuppressPDFMark true def
%
/M {moveto} bind def
/L {lineto} bind def
/R {rmoveto} bind def
/V {rlineto} bind def
/N {newpath moveto} bind def
/Z {closepath} bind def
/C {setrgbcolor} bind def
/f {rlineto fill} bind def
/g {setgray} bind def
/Gshow {show} def   % May be redefined later in the file to support UTF-8
/vpt2 vpt 2 mul def
/hpt2 hpt 2 mul def
/Lshow {currentpoint stroke M 0 vshift R 
	Blacktext {gsave 0 setgray textshow grestore} {textshow} ifelse} def
/Rshow {currentpoint stroke M dup stringwidth pop neg vshift R
	Blacktext {gsave 0 setgray textshow grestore} {textshow} ifelse} def
/Cshow {currentpoint stroke M dup stringwidth pop -2 div vshift R 
	Blacktext {gsave 0 setgray textshow grestore} {textshow} ifelse} def
/UP {dup vpt_ mul /vpt exch def hpt_ mul /hpt exch def
  /hpt2 hpt 2 mul def /vpt2 vpt 2 mul def} def
/DL {Color {setrgbcolor Solid {pop []} if 0 setdash}
 {pop pop pop 0 setgray Solid {pop []} if 0 setdash} ifelse} def
/BL {stroke userlinewidth 2 mul setlinewidth
	Rounded {1 setlinejoin 1 setlinecap} if} def
/AL {stroke userlinewidth 2 div setlinewidth
	Rounded {1 setlinejoin 1 setlinecap} if} def
/UL {dup gnulinewidth mul /userlinewidth exch def
	dup 1 lt {pop 1} if 10 mul /udl exch def} def
/PL {stroke userlinewidth setlinewidth
	Rounded {1 setlinejoin 1 setlinecap} if} def
3.8 setmiterlimit
% Classic Line colors (version 5.0)
/LCw {1 1 1} def
/LCb {0 0 0} def
/LCa {0 0 0} def
/LC0 {1 0 0} def
/LC1 {0 1 0} def
/LC2 {0 0 1} def
/LC3 {1 0 1} def
/LC4 {0 1 1} def
/LC5 {1 1 0} def
/LC6 {0 0 0} def
/LC7 {1 0.3 0} def
/LC8 {0.5 0.5 0.5} def
% Default dash patterns (version 5.0)
/LTB {BL [] LCb DL} def
/LTw {PL [] 1 setgray} def
/LTb {PL [] LCb DL} def
/LTa {AL [1 udl mul 2 udl mul] 0 setdash LCa setrgbcolor} def
/LT0 {PL [] LC0 DL} def
/LT1 {PL [2 dl1 3 dl2] LC1 DL} def
/LT2 {PL [1 dl1 1.5 dl2] LC2 DL} def
/LT3 {PL [6 dl1 2 dl2 1 dl1 2 dl2] LC3 DL} def
/LT4 {PL [1 dl1 2 dl2 6 dl1 2 dl2 1 dl1 2 dl2] LC4 DL} def
/LT5 {PL [4 dl1 2 dl2] LC5 DL} def
/LT6 {PL [1.5 dl1 1.5 dl2 1.5 dl1 1.5 dl2 1.5 dl1 6 dl2] LC6 DL} def
/LT7 {PL [3 dl1 3 dl2 1 dl1 3 dl2] LC7 DL} def
/LT8 {PL [2 dl1 2 dl2 2 dl1 6 dl2] LC8 DL} def
/SL {[] 0 setdash} def
/Pnt {stroke [] 0 setdash gsave 1 setlinecap M 0 0 V stroke grestore} def
/Dia {stroke [] 0 setdash 2 copy vpt add M
  hpt neg vpt neg V hpt vpt neg V
  hpt vpt V hpt neg vpt V closepath stroke
  Pnt} def
/Pls {stroke [] 0 setdash vpt sub M 0 vpt2 V
  currentpoint stroke M
  hpt neg vpt neg R hpt2 0 V stroke
 } def
/Box {stroke [] 0 setdash 2 copy exch hpt sub exch vpt add M
  0 vpt2 neg V hpt2 0 V 0 vpt2 V
  hpt2 neg 0 V closepath stroke
  Pnt} def
/Crs {stroke [] 0 setdash exch hpt sub exch vpt add M
  hpt2 vpt2 neg V currentpoint stroke M
  hpt2 neg 0 R hpt2 vpt2 V stroke} def
/TriU {stroke [] 0 setdash 2 copy vpt 1.12 mul add M
  hpt neg vpt -1.62 mul V
  hpt 2 mul 0 V
  hpt neg vpt 1.62 mul V closepath stroke
  Pnt} def
/Star {2 copy Pls Crs} def
/BoxF {stroke [] 0 setdash exch hpt sub exch vpt add M
  0 vpt2 neg V hpt2 0 V 0 vpt2 V
  hpt2 neg 0 V closepath fill} def
/TriUF {stroke [] 0 setdash vpt 1.12 mul add M
  hpt neg vpt -1.62 mul V
  hpt 2 mul 0 V
  hpt neg vpt 1.62 mul V closepath fill} def
/TriD {stroke [] 0 setdash 2 copy vpt 1.12 mul sub M
  hpt neg vpt 1.62 mul V
  hpt 2 mul 0 V
  hpt neg vpt -1.62 mul V closepath stroke
  Pnt} def
/TriDF {stroke [] 0 setdash vpt 1.12 mul sub M
  hpt neg vpt 1.62 mul V
  hpt 2 mul 0 V
  hpt neg vpt -1.62 mul V closepath fill} def
/DiaF {stroke [] 0 setdash vpt add M
  hpt neg vpt neg V hpt vpt neg V
  hpt vpt V hpt neg vpt V closepath fill} def
/Pent {stroke [] 0 setdash 2 copy gsave
  translate 0 hpt M 4 {72 rotate 0 hpt L} repeat
  closepath stroke grestore Pnt} def
/PentF {stroke [] 0 setdash gsave
  translate 0 hpt M 4 {72 rotate 0 hpt L} repeat
  closepath fill grestore} def
/Circle {stroke [] 0 setdash 2 copy
  hpt 0 360 arc stroke Pnt} def
/CircleF {stroke [] 0 setdash hpt 0 360 arc fill} def
/C0 {BL [] 0 setdash 2 copy moveto vpt 90 450 arc} bind def
/C1 {BL [] 0 setdash 2 copy moveto
	2 copy vpt 0 90 arc closepath fill
	vpt 0 360 arc closepath} bind def
/C2 {BL [] 0 setdash 2 copy moveto
	2 copy vpt 90 180 arc closepath fill
	vpt 0 360 arc closepath} bind def
/C3 {BL [] 0 setdash 2 copy moveto
	2 copy vpt 0 180 arc closepath fill
	vpt 0 360 arc closepath} bind def
/C4 {BL [] 0 setdash 2 copy moveto
	2 copy vpt 180 270 arc closepath fill
	vpt 0 360 arc closepath} bind def
/C5 {BL [] 0 setdash 2 copy moveto
	2 copy vpt 0 90 arc
	2 copy moveto
	2 copy vpt 180 270 arc closepath fill
	vpt 0 360 arc} bind def
/C6 {BL [] 0 setdash 2 copy moveto
	2 copy vpt 90 270 arc closepath fill
	vpt 0 360 arc closepath} bind def
/C7 {BL [] 0 setdash 2 copy moveto
	2 copy vpt 0 270 arc closepath fill
	vpt 0 360 arc closepath} bind def
/C8 {BL [] 0 setdash 2 copy moveto
	2 copy vpt 270 360 arc closepath fill
	vpt 0 360 arc closepath} bind def
/C9 {BL [] 0 setdash 2 copy moveto
	2 copy vpt 270 450 arc closepath fill
	vpt 0 360 arc closepath} bind def
/C10 {BL [] 0 setdash 2 copy 2 copy moveto vpt 270 360 arc closepath fill
	2 copy moveto
	2 copy vpt 90 180 arc closepath fill
	vpt 0 360 arc closepath} bind def
/C11 {BL [] 0 setdash 2 copy moveto
	2 copy vpt 0 180 arc closepath fill
	2 copy moveto
	2 copy vpt 270 360 arc closepath fill
	vpt 0 360 arc closepath} bind def
/C12 {BL [] 0 setdash 2 copy moveto
	2 copy vpt 180 360 arc closepath fill
	vpt 0 360 arc closepath} bind def
/C13 {BL [] 0 setdash 2 copy moveto
	2 copy vpt 0 90 arc closepath fill
	2 copy moveto
	2 copy vpt 180 360 arc closepath fill
	vpt 0 360 arc closepath} bind def
/C14 {BL [] 0 setdash 2 copy moveto
	2 copy vpt 90 360 arc closepath fill
	vpt 0 360 arc} bind def
/C15 {BL [] 0 setdash 2 copy vpt 0 360 arc closepath fill
	vpt 0 360 arc closepath} bind def
/Rec {newpath 4 2 roll moveto 1 index 0 rlineto 0 exch rlineto
	neg 0 rlineto closepath} bind def
/Square {dup Rec} bind def
/Bsquare {vpt sub exch vpt sub exch vpt2 Square} bind def
/S0 {BL [] 0 setdash 2 copy moveto 0 vpt rlineto BL Bsquare} bind def
/S1 {BL [] 0 setdash 2 copy vpt Square fill Bsquare} bind def
/S2 {BL [] 0 setdash 2 copy exch vpt sub exch vpt Square fill Bsquare} bind def
/S3 {BL [] 0 setdash 2 copy exch vpt sub exch vpt2 vpt Rec fill Bsquare} bind def
/S4 {BL [] 0 setdash 2 copy exch vpt sub exch vpt sub vpt Square fill Bsquare} bind def
/S5 {BL [] 0 setdash 2 copy 2 copy vpt Square fill
	exch vpt sub exch vpt sub vpt Square fill Bsquare} bind def
/S6 {BL [] 0 setdash 2 copy exch vpt sub exch vpt sub vpt vpt2 Rec fill Bsquare} bind def
/S7 {BL [] 0 setdash 2 copy exch vpt sub exch vpt sub vpt vpt2 Rec fill
	2 copy vpt Square fill Bsquare} bind def
/S8 {BL [] 0 setdash 2 copy vpt sub vpt Square fill Bsquare} bind def
/S9 {BL [] 0 setdash 2 copy vpt sub vpt vpt2 Rec fill Bsquare} bind def
/S10 {BL [] 0 setdash 2 copy vpt sub vpt Square fill 2 copy exch vpt sub exch vpt Square fill
	Bsquare} bind def
/S11 {BL [] 0 setdash 2 copy vpt sub vpt Square fill 2 copy exch vpt sub exch vpt2 vpt Rec fill
	Bsquare} bind def
/S12 {BL [] 0 setdash 2 copy exch vpt sub exch vpt sub vpt2 vpt Rec fill Bsquare} bind def
/S13 {BL [] 0 setdash 2 copy exch vpt sub exch vpt sub vpt2 vpt Rec fill
	2 copy vpt Square fill Bsquare} bind def
/S14 {BL [] 0 setdash 2 copy exch vpt sub exch vpt sub vpt2 vpt Rec fill
	2 copy exch vpt sub exch vpt Square fill Bsquare} bind def
/S15 {BL [] 0 setdash 2 copy Bsquare fill Bsquare} bind def
/D0 {gsave translate 45 rotate 0 0 S0 stroke grestore} bind def
/D1 {gsave translate 45 rotate 0 0 S1 stroke grestore} bind def
/D2 {gsave translate 45 rotate 0 0 S2 stroke grestore} bind def
/D3 {gsave translate 45 rotate 0 0 S3 stroke grestore} bind def
/D4 {gsave translate 45 rotate 0 0 S4 stroke grestore} bind def
/D5 {gsave translate 45 rotate 0 0 S5 stroke grestore} bind def
/D6 {gsave translate 45 rotate 0 0 S6 stroke grestore} bind def
/D7 {gsave translate 45 rotate 0 0 S7 stroke grestore} bind def
/D8 {gsave translate 45 rotate 0 0 S8 stroke grestore} bind def
/D9 {gsave translate 45 rotate 0 0 S9 stroke grestore} bind def
/D10 {gsave translate 45 rotate 0 0 S10 stroke grestore} bind def
/D11 {gsave translate 45 rotate 0 0 S11 stroke grestore} bind def
/D12 {gsave translate 45 rotate 0 0 S12 stroke grestore} bind def
/D13 {gsave translate 45 rotate 0 0 S13 stroke grestore} bind def
/D14 {gsave translate 45 rotate 0 0 S14 stroke grestore} bind def
/D15 {gsave translate 45 rotate 0 0 S15 stroke grestore} bind def
/DiaE {stroke [] 0 setdash vpt add M
  hpt neg vpt neg V hpt vpt neg V
  hpt vpt V hpt neg vpt V closepath stroke} def
/BoxE {stroke [] 0 setdash exch hpt sub exch vpt add M
  0 vpt2 neg V hpt2 0 V 0 vpt2 V
  hpt2 neg 0 V closepath stroke} def
/TriUE {stroke [] 0 setdash vpt 1.12 mul add M
  hpt neg vpt -1.62 mul V
  hpt 2 mul 0 V
  hpt neg vpt 1.62 mul V closepath stroke} def
/TriDE {stroke [] 0 setdash vpt 1.12 mul sub M
  hpt neg vpt 1.62 mul V
  hpt 2 mul 0 V
  hpt neg vpt -1.62 mul V closepath stroke} def
/PentE {stroke [] 0 setdash gsave
  translate 0 hpt M 4 {72 rotate 0 hpt L} repeat
  closepath stroke grestore} def
/CircE {stroke [] 0 setdash 
  hpt 0 360 arc stroke} def
/Opaque {gsave closepath 1 setgray fill grestore 0 setgray closepath} def
/DiaW {stroke [] 0 setdash vpt add M
  hpt neg vpt neg V hpt vpt neg V
  hpt vpt V hpt neg vpt V Opaque stroke} def
/BoxW {stroke [] 0 setdash exch hpt sub exch vpt add M
  0 vpt2 neg V hpt2 0 V 0 vpt2 V
  hpt2 neg 0 V Opaque stroke} def
/TriUW {stroke [] 0 setdash vpt 1.12 mul add M
  hpt neg vpt -1.62 mul V
  hpt 2 mul 0 V
  hpt neg vpt 1.62 mul V Opaque stroke} def
/TriDW {stroke [] 0 setdash vpt 1.12 mul sub M
  hpt neg vpt 1.62 mul V
  hpt 2 mul 0 V
  hpt neg vpt -1.62 mul V Opaque stroke} def
/PentW {stroke [] 0 setdash gsave
  translate 0 hpt M 4 {72 rotate 0 hpt L} repeat
  Opaque stroke grestore} def
/CircW {stroke [] 0 setdash 
  hpt 0 360 arc Opaque stroke} def
/BoxFill {gsave Rec 1 setgray fill grestore} def
/Density {
  /Fillden exch def
  currentrgbcolor
  /ColB exch def /ColG exch def /ColR exch def
  /ColR ColR Fillden mul Fillden sub 1 add def
  /ColG ColG Fillden mul Fillden sub 1 add def
  /ColB ColB Fillden mul Fillden sub 1 add def
  ColR ColG ColB setrgbcolor} def
/BoxColFill {gsave Rec PolyFill} def
/PolyFill {gsave Density fill grestore grestore} def
/h {rlineto rlineto rlineto gsave closepath fill grestore} bind def
%
% PostScript Level 1 Pattern Fill routine for rectangles
% Usage: x y w h s a XX PatternFill
%	x,y = lower left corner of box to be filled
%	w,h = width and height of box
%	  a = angle in degrees between lines and x-axis
%	 XX = 0/1 for no/yes cross-hatch
%
/PatternFill {gsave /PFa [ 9 2 roll ] def
  PFa 0 get PFa 2 get 2 div add PFa 1 get PFa 3 get 2 div add translate
  PFa 2 get -2 div PFa 3 get -2 div PFa 2 get PFa 3 get Rec
  TransparentPatterns {} {gsave 1 setgray fill grestore} ifelse
  clip
  currentlinewidth 0.5 mul setlinewidth
  /PFs PFa 2 get dup mul PFa 3 get dup mul add sqrt def
  0 0 M PFa 5 get rotate PFs -2 div dup translate
  0 1 PFs PFa 4 get div 1 add floor cvi
	{PFa 4 get mul 0 M 0 PFs V} for
  0 PFa 6 get ne {
	0 1 PFs PFa 4 get div 1 add floor cvi
	{PFa 4 get mul 0 2 1 roll M PFs 0 V} for
 } if
  stroke grestore} def
%
/languagelevel where
 {pop languagelevel} {1} ifelse
dup 2 lt
	{/InterpretLevel1 true def
	 /InterpretLevel3 false def}
	{/InterpretLevel1 Level1 def
	 2 gt
	    {/InterpretLevel3 Level3 def}
	    {/InterpretLevel3 false def}
	 ifelse }
 ifelse
%
% PostScript level 2 pattern fill definitions
%
/Level2PatternFill {
/Tile8x8 {/PaintType 2 /PatternType 1 /TilingType 1 /BBox [0 0 8 8] /XStep 8 /YStep 8}
	bind def
/KeepColor {currentrgbcolor [/Pattern /DeviceRGB] setcolorspace} bind def
<< Tile8x8
 /PaintProc {0.5 setlinewidth pop 0 0 M 8 8 L 0 8 M 8 0 L stroke} 
>> matrix makepattern
/Pat1 exch def
<< Tile8x8
 /PaintProc {0.5 setlinewidth pop 0 0 M 8 8 L 0 8 M 8 0 L stroke
	0 4 M 4 8 L 8 4 L 4 0 L 0 4 L stroke}
>> matrix makepattern
/Pat2 exch def
<< Tile8x8
 /PaintProc {0.5 setlinewidth pop 0 0 M 0 8 L
	8 8 L 8 0 L 0 0 L fill}
>> matrix makepattern
/Pat3 exch def
<< Tile8x8
 /PaintProc {0.5 setlinewidth pop -4 8 M 8 -4 L
	0 12 M 12 0 L stroke}
>> matrix makepattern
/Pat4 exch def
<< Tile8x8
 /PaintProc {0.5 setlinewidth pop -4 0 M 8 12 L
	0 -4 M 12 8 L stroke}
>> matrix makepattern
/Pat5 exch def
<< Tile8x8
 /PaintProc {0.5 setlinewidth pop -2 8 M 4 -4 L
	0 12 M 8 -4 L 4 12 M 10 0 L stroke}
>> matrix makepattern
/Pat6 exch def
<< Tile8x8
 /PaintProc {0.5 setlinewidth pop -2 0 M 4 12 L
	0 -4 M 8 12 L 4 -4 M 10 8 L stroke}
>> matrix makepattern
/Pat7 exch def
<< Tile8x8
 /PaintProc {0.5 setlinewidth pop 8 -2 M -4 4 L
	12 0 M -4 8 L 12 4 M 0 10 L stroke}
>> matrix makepattern
/Pat8 exch def
<< Tile8x8
 /PaintProc {0.5 setlinewidth pop 0 -2 M 12 4 L
	-4 0 M 12 8 L -4 4 M 8 10 L stroke}
>> matrix makepattern
/Pat9 exch def
/Pattern1 {PatternBgnd KeepColor Pat1 setpattern} bind def
/Pattern2 {PatternBgnd KeepColor Pat2 setpattern} bind def
/Pattern3 {PatternBgnd KeepColor Pat3 setpattern} bind def
/Pattern4 {PatternBgnd KeepColor Landscape {Pat5} {Pat4} ifelse setpattern} bind def
/Pattern5 {PatternBgnd KeepColor Landscape {Pat4} {Pat5} ifelse setpattern} bind def
/Pattern6 {PatternBgnd KeepColor Landscape {Pat9} {Pat6} ifelse setpattern} bind def
/Pattern7 {PatternBgnd KeepColor Landscape {Pat8} {Pat7} ifelse setpattern} bind def
} def
%
%
%End of PostScript Level 2 code
%
/PatternBgnd {
  TransparentPatterns {} {gsave 1 setgray fill grestore} ifelse
} def
%
% Substitute for Level 2 pattern fill codes with
% grayscale if Level 2 support is not selected.
%
/Level1PatternFill {
/Pattern1 {0.250 Density} bind def
/Pattern2 {0.500 Density} bind def
/Pattern3 {0.750 Density} bind def
/Pattern4 {0.125 Density} bind def
/Pattern5 {0.375 Density} bind def
/Pattern6 {0.625 Density} bind def
/Pattern7 {0.875 Density} bind def
} def
%
% Now test for support of Level 2 code
%
Level1 {Level1PatternFill} {Level2PatternFill} ifelse
%
/Symbol-Oblique /Symbol findfont [1 0 .167 1 0 0] makefont
dup length dict begin {1 index /FID eq {pop pop} {def} ifelse} forall
currentdict end definefont pop
%
/MFshow {
   { dup 5 get 3 ge
     { 5 get 3 eq {gsave} {grestore} ifelse }
     {dup dup 0 get findfont exch 1 get scalefont setfont
     [ currentpoint ] exch dup 2 get 0 exch R dup 5 get 2 ne {dup dup 6
     get exch 4 get {textshow} {stringwidth pop 0 R} ifelse }if dup 5 get 0 eq
     {dup 3 get {2 get neg 0 exch R pop} {pop aload pop M} ifelse} {dup 5
     get 1 eq {dup 2 get exch dup 3 get exch 6 get stringwidth pop -2 div
     dup 0 R} {dup 6 get stringwidth pop -2 div 0 R 6 get
     textshow 2 index {aload pop M neg 3 -1 roll neg R pop pop} {pop pop pop
     pop aload pop M} ifelse }ifelse }ifelse }
     ifelse }
   forall} def
/Gswidth {dup type /stringtype eq {stringwidth} {pop (n) stringwidth} ifelse} def
/MFwidth {0 exch { dup 5 get 3 ge { 5 get 3 eq { 0 } { pop } ifelse }
 {dup 3 get{dup dup 0 get findfont exch 1 get scalefont setfont
     6 get Gswidth pop add} {pop} ifelse} ifelse} forall} def
/MLshow { currentpoint stroke M
  0 exch R
  Blacktext {gsave 0 setgray MFshow grestore} {MFshow} ifelse } bind def
/MRshow { currentpoint stroke M
  exch dup MFwidth neg 3 -1 roll R
  Blacktext {gsave 0 setgray MFshow grestore} {MFshow} ifelse } bind def
/MCshow { currentpoint stroke M
  exch dup MFwidth -2 div 3 -1 roll R
  Blacktext {gsave 0 setgray MFshow grestore} {MFshow} ifelse } bind def
/XYsave    { [( ) 1 2 true false 3 ()] } bind def
/XYrestore { [( ) 1 2 true false 4 ()] } bind def
Level1 SuppressPDFMark or 
{} {
/SDict 10 dict def
systemdict /pdfmark known not {
  userdict /pdfmark systemdict /cleartomark get put
} if
SDict begin [
  /Title (gnuplot_betaFromPlt.eps)
  /Subject (gnuplot plot)
  /Creator (gnuplot 5.0 patchlevel 3)
  /Author (meot)
%  /Producer (gnuplot)
%  /Keywords ()
  /CreationDate (Sun Aug  5 16:33:14 2018)
  /DOCINFO pdfmark
end
} ifelse
%
% Support for boxed text - Ethan A Merritt May 2005
%
/InitTextBox { userdict /TBy2 3 -1 roll put userdict /TBx2 3 -1 roll put
           userdict /TBy1 3 -1 roll put userdict /TBx1 3 -1 roll put
	   /Boxing true def } def
/ExtendTextBox { Boxing
    { gsave dup false charpath pathbbox
      dup TBy2 gt {userdict /TBy2 3 -1 roll put} {pop} ifelse
      dup TBx2 gt {userdict /TBx2 3 -1 roll put} {pop} ifelse
      dup TBy1 lt {userdict /TBy1 3 -1 roll put} {pop} ifelse
      dup TBx1 lt {userdict /TBx1 3 -1 roll put} {pop} ifelse
      grestore } if } def
/PopTextBox { newpath TBx1 TBxmargin sub TBy1 TBymargin sub M
               TBx1 TBxmargin sub TBy2 TBymargin add L
	       TBx2 TBxmargin add TBy2 TBymargin add L
	       TBx2 TBxmargin add TBy1 TBymargin sub L closepath } def
/DrawTextBox { PopTextBox stroke /Boxing false def} def
/FillTextBox { gsave PopTextBox 1 1 1 setrgbcolor fill grestore /Boxing false def} def
0 0 0 0 InitTextBox
/TBxmargin 20 def
/TBymargin 20 def
/Boxing false def
/textshow { ExtendTextBox Gshow } def
%
% redundant definitions for compatibility with prologue.ps older than 5.0.2
/LTB {BL [] LCb DL} def
/LTb {PL [] LCb DL} def
end
%%EndProlog
%%Page: 1 1
gnudict begin
gsave
doclip
50 50 translate
0.050 0.050 scale
0 setgray
newpath
(Times-Roman) findfont 120 scalefont setfont
BackgroundColor 0 lt 3 1 roll 0 lt exch 0 lt or or not {BackgroundColor C 1.000 0 0 4704.00 3400.00 BoxColFill} if
1.000 UL
LTb
LCb setrgbcolor
0.500 UL
LTa
LCa setrgbcolor
444 384 M
3347 0 V
stroke
1.000 UL
LTb
LCb setrgbcolor
444 384 M
63 0 V
stroke
372 384 M
[ [(roman) 120.0 0.0 true true 0 ( 0)]
] -40.0 MRshow
1.000 UL
LTb
LCb setrgbcolor
0.500 UL
LTa
LCa setrgbcolor
444 735 M
3347 0 V
stroke
1.000 UL
LTb
LCb setrgbcolor
444 735 M
63 0 V
stroke
372 735 M
[ [(roman) 120.0 0.0 true true 0 ( 1)]
] -40.0 MRshow
1.000 UL
LTb
LCb setrgbcolor
0.500 UL
LTa
LCa setrgbcolor
444 1085 M
3347 0 V
stroke
1.000 UL
LTb
LCb setrgbcolor
444 1085 M
63 0 V
stroke
372 1085 M
[ [(roman) 120.0 0.0 true true 0 ( 2)]
] -40.0 MRshow
1.000 UL
LTb
LCb setrgbcolor
0.500 UL
LTa
LCa setrgbcolor
444 1436 M
3347 0 V
stroke
1.000 UL
LTb
LCb setrgbcolor
444 1436 M
63 0 V
stroke
372 1436 M
[ [(roman) 120.0 0.0 true true 0 ( 3)]
] -40.0 MRshow
1.000 UL
LTb
LCb setrgbcolor
0.500 UL
LTa
LCa setrgbcolor
444 1787 M
3347 0 V
stroke
1.000 UL
LTb
LCb setrgbcolor
444 1787 M
63 0 V
stroke
372 1787 M
[ [(roman) 120.0 0.0 true true 0 ( 4)]
] -40.0 MRshow
1.000 UL
LTb
LCb setrgbcolor
0.500 UL
LTa
LCa setrgbcolor
444 2138 M
3347 0 V
stroke
1.000 UL
LTb
LCb setrgbcolor
444 2138 M
63 0 V
stroke
372 2138 M
[ [(roman) 120.0 0.0 true true 0 ( 5)]
] -40.0 MRshow
1.000 UL
LTb
LCb setrgbcolor
0.500 UL
LTa
LCa setrgbcolor
444 2488 M
3347 0 V
stroke
1.000 UL
LTb
LCb setrgbcolor
444 2488 M
63 0 V
stroke
372 2488 M
[ [(roman) 120.0 0.0 true true 0 ( 6)]
] -40.0 MRshow
1.000 UL
LTb
LCb setrgbcolor
0.500 UL
LTa
LCa setrgbcolor
444 2839 M
3347 0 V
stroke
1.000 UL
LTb
LCb setrgbcolor
444 2839 M
63 0 V
stroke
372 2839 M
[ [(roman) 120.0 0.0 true true 0 ( 7)]
] -40.0 MRshow
1.000 UL
LTb
LCb setrgbcolor
0.500 UL
LTa
LCa setrgbcolor
444 384 M
0 2455 V
stroke
1.000 UL
LTb
LCb setrgbcolor
444 384 M
0 63 V
stroke
444 264 M
[ [(roman) 120.0 0.0 true true 0 ( 0)]
] -40.0 MCshow
1.000 UL
LTb
LCb setrgbcolor
0.500 UL
LTa
LCa setrgbcolor
922 384 M
0 63 V
0 120 R
0 2272 V
stroke
1.000 UL
LTb
LCb setrgbcolor
922 384 M
0 63 V
stroke
922 264 M
[ [(roman) 120.0 0.0 true true 0 ( 50)]
] -40.0 MCshow
1.000 UL
LTb
LCb setrgbcolor
0.500 UL
LTa
LCa setrgbcolor
1400 384 M
0 63 V
0 120 R
0 2272 V
stroke
1.000 UL
LTb
LCb setrgbcolor
1400 384 M
0 63 V
stroke
1400 264 M
[ [(roman) 120.0 0.0 true true 0 ( 100)]
] -40.0 MCshow
1.000 UL
LTb
LCb setrgbcolor
0.500 UL
LTa
LCa setrgbcolor
1878 384 M
0 63 V
0 120 R
0 2272 V
stroke
1.000 UL
LTb
LCb setrgbcolor
1878 384 M
0 63 V
stroke
1878 264 M
[ [(roman) 120.0 0.0 true true 0 ( 150)]
] -40.0 MCshow
1.000 UL
LTb
LCb setrgbcolor
0.500 UL
LTa
LCa setrgbcolor
2357 384 M
0 2455 V
stroke
1.000 UL
LTb
LCb setrgbcolor
2357 384 M
0 63 V
stroke
2357 264 M
[ [(roman) 120.0 0.0 true true 0 ( 200)]
] -40.0 MCshow
1.000 UL
LTb
LCb setrgbcolor
0.500 UL
LTa
LCa setrgbcolor
2835 384 M
0 2455 V
stroke
1.000 UL
LTb
LCb setrgbcolor
2835 384 M
0 63 V
stroke
2835 264 M
[ [(roman) 120.0 0.0 true true 0 ( 250)]
] -40.0 MCshow
1.000 UL
LTb
LCb setrgbcolor
0.500 UL
LTa
LCa setrgbcolor
3313 384 M
0 2455 V
stroke
1.000 UL
LTb
LCb setrgbcolor
3313 384 M
0 63 V
stroke
3313 264 M
[ [(roman) 120.0 0.0 true true 0 ( 300)]
] -40.0 MCshow
1.000 UL
LTb
LCb setrgbcolor
0.500 UL
LTa
LCa setrgbcolor
3791 384 M
0 2455 V
stroke
1.000 UL
LTb
LCb setrgbcolor
3791 384 M
0 63 V
stroke
3791 264 M
[ [(roman) 120.0 0.0 true true 0 ( 350)]
] -40.0 MCshow
1.000 UL
LTb
LCb setrgbcolor
3791 384 M
-63 0 V
stroke
3863 384 M
[ [(roman) 120.0 0.0 true true 0 (-0.006)]
] -40.0 MLshow
1.000 UL
LTb
LCb setrgbcolor
3791 657 M
-63 0 V
stroke
3863 657 M
[ [(roman) 120.0 0.0 true true 0 (-0.005)]
] -40.0 MLshow
1.000 UL
LTb
LCb setrgbcolor
3791 930 M
-63 0 V
stroke
3863 930 M
[ [(roman) 120.0 0.0 true true 0 (-0.004)]
] -40.0 MLshow
1.000 UL
LTb
LCb setrgbcolor
3791 1202 M
-63 0 V
stroke
3863 1202 M
[ [(roman) 120.0 0.0 true true 0 (-0.003)]
] -40.0 MLshow
1.000 UL
LTb
LCb setrgbcolor
3791 1475 M
-63 0 V
stroke
3863 1475 M
[ [(roman) 120.0 0.0 true true 0 (-0.002)]
] -40.0 MLshow
1.000 UL
LTb
LCb setrgbcolor
3791 1748 M
-63 0 V
stroke
3863 1748 M
[ [(roman) 120.0 0.0 true true 0 (-0.001)]
] -40.0 MLshow
1.000 UL
LTb
LCb setrgbcolor
3791 2021 M
-63 0 V
stroke
3863 2021 M
[ [(roman) 120.0 0.0 true true 0 ( 0)]
] -40.0 MLshow
1.000 UL
LTb
LCb setrgbcolor
3791 2293 M
-63 0 V
stroke
3863 2293 M
[ [(roman) 120.0 0.0 true true 0 ( 0.001)]
] -40.0 MLshow
1.000 UL
LTb
LCb setrgbcolor
3791 2566 M
-63 0 V
stroke
3863 2566 M
[ [(roman) 120.0 0.0 true true 0 ( 0.002)]
] -40.0 MLshow
1.000 UL
LTb
LCb setrgbcolor
3791 2839 M
-63 0 V
stroke
3863 2839 M
[ [(roman) 120.0 0.0 true true 0 ( 0.003)]
] -40.0 MLshow
1.000 UL
LTb
LCb setrgbcolor
1.000 UL
LTB
LCb setrgbcolor
444 2839 N
444 384 L
3347 0 V
0 2455 V
-3347 0 V
Z stroke
1.000 UP
1.000 UL
LTb
LCb setrgbcolor
LCb setrgbcolor
96 1611 M
currentpoint gsave translate -270 rotate 0 0 moveto
[ [(Symbol) 130.0 0.0 true true 0 (b)]
[(roman) 104.0 -39.0 true true 0 (x)]
[(roman) 130.0 0.0 true true 0 (, )]
[(Symbol) 130.0 0.0 true true 0 (b)]
[(roman) 104.0 -39.0 true true 0 (y)]
[(roman) 130.0 0.0 true true 0 ( \(m\))]
] -30.3 MCshow
grestore
LTb
LCb setrgbcolor
4426 1611 M
currentpoint gsave translate -270 rotate 0 0 moveto
[ [(roman) 130.0 0.0 true true 0 (D)]
[(roman) 104.0 -39.0 true true 0 (x)]
[(roman) 130.0 0.0 true true 0 (, D)]
[(roman) 104.0 -39.0 true true 0 (y)]
[(roman) 130.0 0.0 true true 0 ( \(m\))]
] -30.3 MCshow
grestore
LTb
LCb setrgbcolor
2117 84 M
[ [(roman) 160.0 0.0 true true 0 (s \(m\))]
] -53.3 MCshow
LTb
LCb setrgbcolor
2117 3219 M
[ [(roman) 160.0 0.0 true true 0 (Beta and dispersion functions )]
] -53.3 MCshow
2117 3059 M
[ [(roman) 160.0 0.0 true true 0 ( - from betaFromPlt -)]
] -53.3 MCshow
% Begin plot #1
0.600 UP
1.000 UL
LTb
1.00 0.00 0.00 C LCb setrgbcolor
588 507 M
[ [(Symbol) 120.0 0.0 true true 0 (b)]
[(roman) 96.0 -36.0 true true 0 (x)]
] -28.0 MRshow
0.600 UP
1.000 UL
LTb
1.00 0.00 0.00 C 444 563 Box
444 563 Box
454 563 Box
463 563 Box
473 564 Box
482 564 Box
492 565 Box
501 566 Box
511 567 Box
521 569 Box
530 570 Box
540 572 Box
549 574 Box
559 576 Box
568 578 Box
578 581 Box
587 584 Box
597 587 Box
607 590 Box
616 593 Box
626 596 Box
635 600 Box
645 604 Box
654 608 Box
664 613 Box
674 617 Box
683 622 Box
693 627 Box
702 632 Box
712 637 Box
721 643 Box
731 649 Box
740 655 Box
750 661 Box
760 668 Box
769 675 Box
779 682 Box
788 689 Box
798 696 Box
807 704 Box
817 712 Box
827 721 Box
836 729 Box
846 738 Box
855 747 Box
865 756 Box
874 766 Box
884 776 Box
893 786 Box
903 797 Box
913 808 Box
922 819 Box
932 830 Box
941 842 Box
951 854 Box
960 867 Box
970 880 Box
980 893 Box
1169 1202 Box
1178 1220 Box
1188 1238 Box
1197 1256 Box
1207 1274 Box
1216 1293 Box
1226 1311 Box
1235 1329 Box
1245 1347 Box
1255 1365 Box
1264 1384 Box
1274 1402 Box
1283 1420 Box
1293 1438 Box
1302 1457 Box
1312 1475 Box
1322 1493 Box
1331 1511 Box
1341 1529 Box
1350 1548 Box
1360 1566 Box
1369 1584 Box
1379 1601 Box
1388 1619 Box
1398 1637 Box
1408 1655 Box
1417 1672 Box
1427 1690 Box
1436 1707 Box
1446 1724 Box
1455 1741 Box
1465 1758 Box
1475 1775 Box
1484 1792 Box
1494 1808 Box
1503 1825 Box
1513 1841 Box
1522 1857 Box
1532 1873 Box
1541 1889 Box
1551 1904 Box
1561 1920 Box
1570 1935 Box
1580 1950 Box
1589 1965 Box
1599 1979 Box
1608 1994 Box
1618 2008 Box
1628 2022 Box
1637 2035 Box
1647 2049 Box
1656 2062 Box
1666 2075 Box
1675 2088 Box
1685 2100 Box
1694 2112 Box
1704 2124 Box
1714 2136 Box
1723 2147 Box
1733 2158 Box
1742 2169 Box
1752 2180 Box
1761 2190 Box
1771 2200 Box
1781 2210 Box
1790 2219 Box
1800 2228 Box
1809 2237 Box
1819 2245 Box
1828 2253 Box
1838 2261 Box
1848 2269 Box
1857 2276 Box
1867 2283 Box
1876 2289 Box
1886 2295 Box
1895 2301 Box
1905 2307 Box
1914 2312 Box
1924 2316 Box
1934 2321 Box
1943 2325 Box
1953 2329 Box
1962 2332 Box
1972 2335 Box
1981 2338 Box
1991 2341 Box
2001 2343 Box
2010 2344 Box
2020 2346 Box
2029 2347 Box
2039 2347 Box
2048 2348 Box
2058 2348 Box
2067 2347 Box
2077 2347 Box
2087 2345 Box
2096 2344 Box
2106 2342 Box
2115 2340 Box
2125 2337 Box
2134 2335 Box
2144 2331 Box
2154 2328 Box
2163 2324 Box
2173 2320 Box
2182 2315 Box
2192 2310 Box
2201 2305 Box
2211 2299 Box
2220 2293 Box
2230 2287 Box
2240 2281 Box
2249 2274 Box
2259 2266 Box
2268 2259 Box
2278 2251 Box
2287 2243 Box
2297 2234 Box
2307 2225 Box
2316 2216 Box
2326 2207 Box
2335 2197 Box
2345 2187 Box
2354 2177 Box
2364 2166 Box
2373 2155 Box
2383 2144 Box
2393 2133 Box
2402 2121 Box
2412 2109 Box
2421 2097 Box
2431 2084 Box
2440 2071 Box
2450 2058 Box
2460 2045 Box
2469 2031 Box
2479 2018 Box
2488 2004 Box
2498 1990 Box
2507 1975 Box
2517 1960 Box
2526 1946 Box
2536 1931 Box
2546 1915 Box
2555 1900 Box
2565 1884 Box
2574 1868 Box
2584 1853 Box
2593 1836 Box
2603 1820 Box
2613 1804 Box
2622 1787 Box
2632 1770 Box
2641 1753 Box
2651 1736 Box
2660 1719 Box
2670 1702 Box
2679 1685 Box
2689 1667 Box
2699 1649 Box
2708 1632 Box
2718 1614 Box
2727 1596 Box
2737 1578 Box
2746 1560 Box
2756 1542 Box
2766 1524 Box
2775 1506 Box
2785 1488 Box
2794 1470 Box
2804 1451 Box
2813 1433 Box
2823 1415 Box
2832 1397 Box
2842 1378 Box
2852 1360 Box
2861 1342 Box
2871 1324 Box
2880 1305 Box
2890 1287 Box
2899 1269 Box
2909 1251 Box
2919 1233 Box
2928 1215 Box
3119 899 Box
3129 886 Box
3139 873 Box
3148 860 Box
3158 848 Box
3167 836 Box
3177 824 Box
3186 813 Box
3196 802 Box
3205 791 Box
3215 781 Box
3225 771 Box
3234 761 Box
3244 751 Box
3253 742 Box
3263 733 Box
3272 725 Box
3282 716 Box
3292 708 Box
3301 700 Box
3311 692 Box
3320 685 Box
3330 678 Box
3339 671 Box
3349 664 Box
3358 658 Box
3368 652 Box
3378 646 Box
3387 640 Box
3397 634 Box
3406 629 Box
3416 624 Box
3425 619 Box
3435 615 Box
3445 610 Box
3454 606 Box
3464 602 Box
3473 598 Box
3483 595 Box
3492 591 Box
3502 588 Box
3511 585 Box
3521 582 Box
3531 580 Box
3540 577 Box
3550 575 Box
3559 573 Box
3569 571 Box
3578 569 Box
3588 568 Box
3598 567 Box
3607 565 Box
3617 565 Box
3626 564 Box
3636 563 Box
3645 563 Box
3655 563 Box
3659 563 Box
727 507 Box
% End plot #1
% Begin plot #2
0.600 UP
1.000 UL
LTb
0.00 0.00 1.00 C LCb setrgbcolor
939 507 M
[ [(Symbol) 120.0 0.0 true true 0 (b)]
[(roman) 96.0 -36.0 true true 0 (y)]
] -28.0 MRshow
0.600 UP
1.000 UL
LTb
0.00 0.00 1.00 C 444 2705 BoxF
444 2705 BoxF
454 2704 BoxF
463 2703 BoxF
473 2702 BoxF
482 2700 BoxF
492 2697 BoxF
501 2694 BoxF
511 2690 BoxF
521 2686 BoxF
530 2681 BoxF
540 2675 BoxF
549 2669 BoxF
559 2662 BoxF
568 2655 BoxF
578 2647 BoxF
587 2638 BoxF
597 2629 BoxF
607 2620 BoxF
616 2610 BoxF
626 2599 BoxF
635 2588 BoxF
645 2576 BoxF
654 2564 BoxF
664 2551 BoxF
674 2538 BoxF
683 2524 BoxF
693 2510 BoxF
702 2495 BoxF
712 2480 BoxF
721 2464 BoxF
731 2448 BoxF
740 2431 BoxF
750 2414 BoxF
760 2396 BoxF
769 2378 BoxF
779 2360 BoxF
788 2341 BoxF
798 2322 BoxF
807 2302 BoxF
817 2282 BoxF
827 2262 BoxF
836 2241 BoxF
846 2220 BoxF
855 2198 BoxF
865 2177 BoxF
874 2154 BoxF
884 2132 BoxF
893 2109 BoxF
903 2086 BoxF
913 2063 BoxF
922 2040 BoxF
932 2016 BoxF
941 1992 BoxF
951 1968 BoxF
960 1943 BoxF
970 1919 BoxF
980 1894 BoxF
1169 1442 BoxF
1178 1421 BoxF
1188 1401 BoxF
1197 1381 BoxF
1207 1362 BoxF
1216 1343 BoxF
1226 1325 BoxF
1235 1307 BoxF
1245 1289 BoxF
1255 1272 BoxF
1264 1255 BoxF
1274 1238 BoxF
1283 1222 BoxF
1293 1206 BoxF
1302 1190 BoxF
1312 1175 BoxF
1322 1160 BoxF
1331 1146 BoxF
1341 1131 BoxF
1350 1117 BoxF
1360 1104 BoxF
1369 1090 BoxF
1379 1077 BoxF
1388 1064 BoxF
1398 1052 BoxF
1408 1039 BoxF
1417 1027 BoxF
1427 1016 BoxF
1436 1004 BoxF
1446 993 BoxF
1455 982 BoxF
1465 971 BoxF
1475 961 BoxF
1484 950 BoxF
1494 940 BoxF
1503 931 BoxF
1513 921 BoxF
1522 912 BoxF
1532 903 BoxF
1541 894 BoxF
1551 885 BoxF
1561 877 BoxF
1570 869 BoxF
1580 861 BoxF
1589 853 BoxF
1599 845 BoxF
1608 838 BoxF
1618 831 BoxF
1628 824 BoxF
1637 817 BoxF
1647 810 BoxF
1656 804 BoxF
1666 798 BoxF
1675 792 BoxF
1685 786 BoxF
1694 780 BoxF
1704 774 BoxF
1714 769 BoxF
1723 764 BoxF
1733 759 BoxF
1742 754 BoxF
1752 749 BoxF
1761 745 BoxF
1771 740 BoxF
1781 736 BoxF
1790 732 BoxF
1800 728 BoxF
1809 725 BoxF
1819 721 BoxF
1828 718 BoxF
1838 714 BoxF
1848 711 BoxF
1857 708 BoxF
1867 705 BoxF
1876 703 BoxF
1886 700 BoxF
1895 698 BoxF
1905 696 BoxF
1914 694 BoxF
1924 692 BoxF
1934 690 BoxF
1943 688 BoxF
1953 687 BoxF
1962 685 BoxF
1972 684 BoxF
1981 683 BoxF
1991 682 BoxF
2001 681 BoxF
2010 681 BoxF
2020 680 BoxF
2029 680 BoxF
2039 679 BoxF
2048 679 BoxF
2058 679 BoxF
2067 680 BoxF
2077 680 BoxF
2087 680 BoxF
2096 681 BoxF
2106 682 BoxF
2115 682 BoxF
2125 683 BoxF
2134 685 BoxF
2144 686 BoxF
2154 687 BoxF
2163 689 BoxF
2173 690 BoxF
2182 692 BoxF
2192 694 BoxF
2201 696 BoxF
2211 699 BoxF
2220 701 BoxF
2230 704 BoxF
2240 706 BoxF
2249 709 BoxF
2259 712 BoxF
2268 715 BoxF
2278 719 BoxF
2287 722 BoxF
2297 726 BoxF
2307 729 BoxF
2316 733 BoxF
2326 737 BoxF
2335 742 BoxF
2345 746 BoxF
2354 751 BoxF
2364 755 BoxF
2373 760 BoxF
2383 765 BoxF
2393 771 BoxF
2402 776 BoxF
2412 782 BoxF
2421 787 BoxF
2431 793 BoxF
2440 799 BoxF
2450 806 BoxF
2460 812 BoxF
2469 819 BoxF
2479 826 BoxF
2488 833 BoxF
2498 840 BoxF
2507 848 BoxF
2517 855 BoxF
2526 863 BoxF
2536 871 BoxF
2546 879 BoxF
2555 888 BoxF
2565 897 BoxF
2574 905 BoxF
2584 915 BoxF
2593 924 BoxF
2603 934 BoxF
2613 943 BoxF
2622 953 BoxF
2632 964 BoxF
2641 974 BoxF
2651 985 BoxF
2660 996 BoxF
2670 1007 BoxF
2679 1019 BoxF
2689 1031 BoxF
2699 1043 BoxF
2708 1055 BoxF
2718 1068 BoxF
2727 1081 BoxF
2737 1094 BoxF
2746 1108 BoxF
2756 1121 BoxF
2766 1136 BoxF
2775 1150 BoxF
2785 1165 BoxF
2794 1180 BoxF
2804 1195 BoxF
2813 1211 BoxF
2823 1227 BoxF
2832 1243 BoxF
2842 1260 BoxF
2852 1277 BoxF
2861 1294 BoxF
2871 1312 BoxF
2880 1330 BoxF
2890 1349 BoxF
2899 1368 BoxF
2909 1387 BoxF
2919 1407 BoxF
2928 1427 BoxF
3119 1882 BoxF
3129 1907 BoxF
3139 1932 BoxF
3148 1956 BoxF
3158 1981 BoxF
3167 2005 BoxF
3177 2029 BoxF
3186 2052 BoxF
3196 2076 BoxF
3205 2099 BoxF
3215 2122 BoxF
3225 2144 BoxF
3234 2166 BoxF
3244 2188 BoxF
3253 2210 BoxF
3263 2231 BoxF
3272 2252 BoxF
3282 2273 BoxF
3292 2293 BoxF
3301 2313 BoxF
3311 2332 BoxF
3320 2351 BoxF
3330 2370 BoxF
3339 2388 BoxF
3349 2406 BoxF
3358 2423 BoxF
3368 2440 BoxF
3378 2456 BoxF
3387 2472 BoxF
3397 2488 BoxF
3406 2503 BoxF
3416 2517 BoxF
3425 2531 BoxF
3435 2545 BoxF
3445 2558 BoxF
3454 2571 BoxF
3464 2582 BoxF
3473 2594 BoxF
3483 2605 BoxF
3492 2615 BoxF
3502 2625 BoxF
3511 2634 BoxF
3521 2643 BoxF
3531 2651 BoxF
3540 2659 BoxF
3550 2666 BoxF
3559 2672 BoxF
3569 2678 BoxF
3578 2683 BoxF
3588 2688 BoxF
3598 2692 BoxF
3607 2696 BoxF
3617 2699 BoxF
3626 2701 BoxF
3636 2703 BoxF
3645 2704 BoxF
3655 2705 BoxF
3659 2705 BoxF
1078 507 BoxF
% End plot #2
% Begin plot #3
0.600 UP
1.000 UL
LTb
1.00 0.00 0.00 C LCb setrgbcolor
1290 507 M
[ [(roman) 120.0 0.0 true true 0 (D)]
[(roman) 96.0 -36.0 true true 0 (x)]
] -28.0 MRshow
0.600 UP
1.000 UL
LTb
1.00 0.00 0.00 C 444 627 Circle
444 627 Circle
454 627 Circle
463 628 Circle
473 629 Circle
482 630 Circle
492 631 Circle
501 633 Circle
511 635 Circle
521 638 Circle
530 640 Circle
540 644 Circle
549 647 Circle
559 651 Circle
568 655 Circle
578 659 Circle
587 664 Circle
597 669 Circle
607 675 Circle
616 681 Circle
626 687 Circle
635 694 Circle
645 700 Circle
654 708 Circle
664 715 Circle
674 723 Circle
683 732 Circle
693 740 Circle
702 749 Circle
712 759 Circle
721 768 Circle
731 779 Circle
740 789 Circle
750 800 Circle
760 811 Circle
769 823 Circle
779 835 Circle
788 848 Circle
798 861 Circle
807 874 Circle
817 888 Circle
827 902 Circle
836 916 Circle
846 931 Circle
855 947 Circle
865 963 Circle
874 979 Circle
884 995 Circle
893 1013 Circle
903 1030 Circle
913 1048 Circle
922 1067 Circle
932 1086 Circle
941 1105 Circle
951 1125 Circle
960 1146 Circle
970 1167 Circle
980 1188 Circle
1169 1622 Circle
1178 1644 Circle
1188 1666 Circle
1197 1687 Circle
1207 1709 Circle
1216 1730 Circle
1226 1751 Circle
1235 1773 Circle
1245 1794 Circle
1255 1815 Circle
1264 1835 Circle
1274 1856 Circle
1283 1876 Circle
1293 1897 Circle
1302 1917 Circle
1312 1937 Circle
1322 1956 Circle
1331 1976 Circle
1341 1995 Circle
1350 2015 Circle
1360 2034 Circle
1369 2053 Circle
1379 2071 Circle
1388 2090 Circle
1398 2108 Circle
1408 2127 Circle
1417 2144 Circle
1427 2162 Circle
1436 2180 Circle
1446 2197 Circle
1455 2214 Circle
1465 2231 Circle
1475 2248 Circle
1484 2264 Circle
1494 2281 Circle
1503 2297 Circle
1513 2313 Circle
1522 2328 Circle
1532 2344 Circle
1541 2359 Circle
1551 2374 Circle
1561 2388 Circle
1570 2403 Circle
1580 2417 Circle
1589 2431 Circle
1599 2445 Circle
1608 2458 Circle
1618 2471 Circle
1628 2484 Circle
1637 2497 Circle
1647 2509 Circle
1656 2521 Circle
1666 2533 Circle
1675 2545 Circle
1685 2556 Circle
1694 2567 Circle
1704 2578 Circle
1714 2589 Circle
1723 2599 Circle
1733 2609 Circle
1742 2619 Circle
1752 2628 Circle
1761 2637 Circle
1771 2646 Circle
1781 2655 Circle
1790 2663 Circle
1800 2671 Circle
1809 2679 Circle
1819 2686 Circle
1828 2694 Circle
1838 2700 Circle
1848 2707 Circle
1857 2713 Circle
1867 2719 Circle
1876 2725 Circle
1886 2730 Circle
1895 2735 Circle
1905 2740 Circle
1914 2745 Circle
1924 2749 Circle
1934 2753 Circle
1943 2756 Circle
1953 2760 Circle
1962 2763 Circle
1972 2765 Circle
1981 2768 Circle
1991 2770 Circle
2001 2772 Circle
2010 2773 Circle
2020 2774 Circle
2029 2775 Circle
2039 2776 Circle
2048 2776 Circle
2058 2776 Circle
2067 2776 Circle
2077 2775 Circle
2087 2774 Circle
2096 2773 Circle
2106 2771 Circle
2115 2769 Circle
2125 2767 Circle
2134 2765 Circle
2144 2762 Circle
2154 2759 Circle
2163 2755 Circle
2173 2752 Circle
2182 2748 Circle
2192 2743 Circle
2201 2739 Circle
2211 2734 Circle
2220 2729 Circle
2230 2723 Circle
2240 2718 Circle
2249 2711 Circle
2259 2705 Circle
2268 2698 Circle
2278 2691 Circle
2287 2684 Circle
2297 2677 Circle
2307 2669 Circle
2316 2661 Circle
2326 2652 Circle
2335 2644 Circle
2345 2635 Circle
2354 2625 Circle
2364 2616 Circle
2373 2606 Circle
2383 2596 Circle
2393 2586 Circle
2402 2575 Circle
2412 2564 Circle
2421 2553 Circle
2431 2542 Circle
2440 2530 Circle
2450 2518 Circle
2460 2506 Circle
2469 2493 Circle
2479 2480 Circle
2488 2467 Circle
2498 2454 Circle
2507 2441 Circle
2517 2427 Circle
2526 2413 Circle
2536 2399 Circle
2546 2384 Circle
2555 2369 Circle
2565 2354 Circle
2574 2339 Circle
2584 2324 Circle
2593 2308 Circle
2603 2292 Circle
2613 2276 Circle
2622 2260 Circle
2632 2243 Circle
2641 2226 Circle
2651 2209 Circle
2660 2192 Circle
2670 2175 Circle
2679 2157 Circle
2689 2139 Circle
2699 2121 Circle
2708 2103 Circle
2718 2085 Circle
2727 2066 Circle
2737 2047 Circle
2746 2028 Circle
2756 2009 Circle
2766 1990 Circle
2775 1970 Circle
2785 1951 Circle
2794 1931 Circle
2804 1911 Circle
2813 1891 Circle
2823 1870 Circle
2832 1850 Circle
2842 1829 Circle
2852 1808 Circle
2861 1787 Circle
2871 1766 Circle
2880 1745 Circle
2890 1724 Circle
2899 1702 Circle
2909 1681 Circle
2919 1659 Circle
2928 1637 Circle
3119 1198 Circle
3129 1177 Circle
3139 1155 Circle
3148 1135 Circle
3158 1115 Circle
3167 1095 Circle
3177 1076 Circle
3186 1057 Circle
3196 1039 Circle
3205 1021 Circle
3215 1003 Circle
3225 986 Circle
3234 970 Circle
3244 954 Circle
3253 938 Circle
3263 923 Circle
3272 908 Circle
3282 894 Circle
3292 880 Circle
3301 867 Circle
3311 854 Circle
3320 841 Circle
3330 829 Circle
3339 817 Circle
3349 805 Circle
3358 794 Circle
3368 784 Circle
3378 773 Circle
3387 763 Circle
3397 754 Circle
3406 744 Circle
3416 736 Circle
3425 727 Circle
3435 719 Circle
3445 711 Circle
3454 704 Circle
3464 697 Circle
3473 690 Circle
3483 684 Circle
3492 678 Circle
3502 672 Circle
3511 667 Circle
3521 662 Circle
3531 657 Circle
3540 653 Circle
3550 649 Circle
3559 645 Circle
3569 642 Circle
3578 639 Circle
3588 636 Circle
3598 634 Circle
3607 632 Circle
3617 630 Circle
3626 629 Circle
3636 628 Circle
3645 627 Circle
3655 627 Circle
3659 627 Circle
1429 507 Circle
% End plot #3
% Begin plot #4
0.600 UP
1.000 UL
LTb
0.00 0.00 1.00 C LCb setrgbcolor
1641 507 M
[ [(roman) 120.0 0.0 true true 0 (D)]
[(roman) 96.0 -36.0 true true 0 (y)]
] -28.0 MRshow
0.600 UP
1.000 UL
LTb
0.00 0.00 1.00 C 444 2021 CircleF
444 2021 CircleF
454 2021 CircleF
463 2021 CircleF
473 2021 CircleF
482 2021 CircleF
492 2021 CircleF
501 2021 CircleF
511 2021 CircleF
521 2021 CircleF
530 2021 CircleF
540 2021 CircleF
549 2021 CircleF
559 2021 CircleF
568 2021 CircleF
578 2021 CircleF
587 2021 CircleF
597 2021 CircleF
607 2021 CircleF
616 2021 CircleF
626 2021 CircleF
635 2021 CircleF
645 2021 CircleF
654 2021 CircleF
664 2021 CircleF
674 2021 CircleF
683 2021 CircleF
693 2021 CircleF
702 2021 CircleF
712 2021 CircleF
721 2021 CircleF
731 2021 CircleF
740 2021 CircleF
750 2021 CircleF
760 2021 CircleF
769 2021 CircleF
779 2021 CircleF
788 2021 CircleF
798 2021 CircleF
807 2021 CircleF
817 2021 CircleF
827 2021 CircleF
836 2021 CircleF
846 2021 CircleF
855 2021 CircleF
865 2021 CircleF
874 2021 CircleF
884 2021 CircleF
893 2021 CircleF
903 2021 CircleF
913 2021 CircleF
922 2021 CircleF
932 2021 CircleF
941 2021 CircleF
951 2021 CircleF
960 2021 CircleF
970 2021 CircleF
980 2021 CircleF
1169 2021 CircleF
1178 2021 CircleF
1188 2021 CircleF
1197 2021 CircleF
1207 2021 CircleF
1216 2021 CircleF
1226 2021 CircleF
1235 2021 CircleF
1245 2021 CircleF
1255 2021 CircleF
1264 2021 CircleF
1274 2021 CircleF
1283 2021 CircleF
1293 2021 CircleF
1302 2021 CircleF
1312 2021 CircleF
1322 2021 CircleF
1331 2021 CircleF
1341 2021 CircleF
1350 2021 CircleF
1360 2021 CircleF
1369 2021 CircleF
1379 2021 CircleF
1388 2021 CircleF
1398 2021 CircleF
1408 2021 CircleF
1417 2021 CircleF
1427 2021 CircleF
1436 2021 CircleF
1446 2021 CircleF
1455 2021 CircleF
1465 2021 CircleF
1475 2021 CircleF
1484 2021 CircleF
1494 2021 CircleF
1503 2021 CircleF
1513 2021 CircleF
1522 2021 CircleF
1532 2021 CircleF
1541 2021 CircleF
1551 2021 CircleF
1561 2021 CircleF
1570 2021 CircleF
1580 2021 CircleF
1589 2021 CircleF
1599 2021 CircleF
1608 2021 CircleF
1618 2021 CircleF
1628 2021 CircleF
1637 2021 CircleF
1647 2021 CircleF
1656 2021 CircleF
1666 2021 CircleF
1675 2021 CircleF
1685 2021 CircleF
1694 2021 CircleF
1704 2021 CircleF
1714 2021 CircleF
1723 2021 CircleF
1733 2021 CircleF
1742 2021 CircleF
1752 2021 CircleF
1761 2021 CircleF
1771 2021 CircleF
1781 2021 CircleF
1790 2021 CircleF
1800 2021 CircleF
1809 2021 CircleF
1819 2021 CircleF
1828 2021 CircleF
1838 2021 CircleF
1848 2021 CircleF
1857 2021 CircleF
1867 2021 CircleF
1876 2021 CircleF
1886 2021 CircleF
1895 2021 CircleF
1905 2021 CircleF
1914 2021 CircleF
1924 2021 CircleF
1934 2021 CircleF
1943 2021 CircleF
1953 2021 CircleF
1962 2021 CircleF
1972 2021 CircleF
1981 2021 CircleF
1991 2021 CircleF
2001 2021 CircleF
2010 2021 CircleF
2020 2021 CircleF
2029 2021 CircleF
2039 2021 CircleF
2048 2021 CircleF
2058 2021 CircleF
2067 2021 CircleF
2077 2021 CircleF
2087 2021 CircleF
2096 2021 CircleF
2106 2021 CircleF
2115 2021 CircleF
2125 2021 CircleF
2134 2021 CircleF
2144 2021 CircleF
2154 2021 CircleF
2163 2021 CircleF
2173 2021 CircleF
2182 2021 CircleF
2192 2021 CircleF
2201 2021 CircleF
2211 2021 CircleF
2220 2021 CircleF
2230 2021 CircleF
2240 2021 CircleF
2249 2021 CircleF
2259 2021 CircleF
2268 2021 CircleF
2278 2021 CircleF
2287 2021 CircleF
2297 2021 CircleF
2307 2021 CircleF
2316 2021 CircleF
2326 2021 CircleF
2335 2021 CircleF
2345 2021 CircleF
2354 2021 CircleF
2364 2021 CircleF
2373 2021 CircleF
2383 2021 CircleF
2393 2021 CircleF
2402 2021 CircleF
2412 2021 CircleF
2421 2021 CircleF
2431 2021 CircleF
2440 2021 CircleF
2450 2021 CircleF
2460 2021 CircleF
2469 2021 CircleF
2479 2021 CircleF
2488 2021 CircleF
2498 2021 CircleF
2507 2021 CircleF
2517 2021 CircleF
2526 2021 CircleF
2536 2021 CircleF
2546 2021 CircleF
2555 2021 CircleF
2565 2021 CircleF
2574 2021 CircleF
2584 2021 CircleF
2593 2021 CircleF
2603 2021 CircleF
2613 2021 CircleF
2622 2021 CircleF
2632 2021 CircleF
2641 2021 CircleF
2651 2021 CircleF
2660 2021 CircleF
2670 2021 CircleF
2679 2021 CircleF
2689 2021 CircleF
2699 2021 CircleF
2708 2021 CircleF
2718 2021 CircleF
2727 2021 CircleF
2737 2021 CircleF
2746 2021 CircleF
2756 2021 CircleF
2766 2021 CircleF
2775 2021 CircleF
2785 2021 CircleF
2794 2021 CircleF
2804 2021 CircleF
2813 2021 CircleF
2823 2021 CircleF
2832 2021 CircleF
2842 2021 CircleF
2852 2021 CircleF
2861 2021 CircleF
2871 2021 CircleF
2880 2021 CircleF
2890 2021 CircleF
2899 2021 CircleF
2909 2021 CircleF
2919 2021 CircleF
2928 2021 CircleF
3119 2021 CircleF
3129 2021 CircleF
3139 2021 CircleF
3148 2021 CircleF
3158 2021 CircleF
3167 2021 CircleF
3177 2021 CircleF
3186 2021 CircleF
3196 2021 CircleF
3205 2021 CircleF
3215 2021 CircleF
3225 2021 CircleF
3234 2021 CircleF
3244 2021 CircleF
3253 2021 CircleF
3263 2021 CircleF
3272 2021 CircleF
3282 2021 CircleF
3292 2021 CircleF
3301 2021 CircleF
3311 2021 CircleF
3320 2021 CircleF
3330 2021 CircleF
3339 2021 CircleF
3349 2021 CircleF
3358 2021 CircleF
3368 2021 CircleF
3378 2021 CircleF
3387 2021 CircleF
3397 2021 CircleF
3406 2021 CircleF
3416 2021 CircleF
3425 2021 CircleF
3435 2021 CircleF
3445 2021 CircleF
3454 2021 CircleF
3464 2021 CircleF
3473 2021 CircleF
3483 2021 CircleF
3492 2021 CircleF
3502 2021 CircleF
3511 2021 CircleF
3521 2021 CircleF
3531 2021 CircleF
3540 2021 CircleF
3550 2021 CircleF
3559 2021 CircleF
3569 2021 CircleF
3578 2021 CircleF
3588 2021 CircleF
3598 2021 CircleF
3607 2021 CircleF
3617 2021 CircleF
3626 2021 CircleF
3636 2021 CircleF
3645 2021 CircleF
3655 2021 CircleF
3659 2021 CircleF
1780 507 CircleF
% End plot #4
2.000 UL
LTb
LCb setrgbcolor
1.000 UL
LTB
LCb setrgbcolor
444 2839 N
444 384 L
3347 0 V
0 2455 V
-3347 0 V
Z stroke
1.000 UP
1.000 UL
LTb
LCb setrgbcolor
stroke
grestore
end
showpage
%%Trailer
%%DocumentFonts: Symbol roman Times-Roman
