%!PS-Adobe-2.0 EPSF-2.0
%%Title: X-BZ_Cartesian_6GeV.eps
%%Titre: X-BZ_Cartesian_6GeV.eps
%%Creator: Fminigraf Library
%%BoundingBox: 20 40 567 457
%%EndComments
/offx 20 def
/offy 40 def
/lx 595 def
/ly 842 def
/maxx 1023 def
/maxy 779 def
/reduc 0.92 def
/coeff lx maxx div reduc mul def
offx offy translate
coeff coeff scale
1 setlinewidth newpath 0 0 moveto
/Courier-Bold findfont 32 scalefont setfont
/M {moveto} def
/L {lineto} def
/S {stroke} def
/H {show} def
/D {setdash} def
0 0 0 setrgbcolor
[] 0 D
102 156 M 102 161 L S
102 735 M 102 740 L S
135 156 M 135 161 L S
135 735 M 135 740 L S
169 156 M 169 161 L S
169 735 M 169 740 L S
[2 3] 0 D
202 156 M 202 740 L S
[] 0 D
/Courier-Bold findfont 30 scalefont setfont
184 128 M (-1.) H
202 156 M 202 166 L S
202 730 M 202 740 L S
236 156 M 236 161 L S
236 735 M 236 740 L S
269 156 M 269 161 L S
269 735 M 269 740 L S
303 156 M 303 161 L S
303 735 M 303 740 L S
336 156 M 336 161 L S
336 735 M 336 740 L S
[2 3] 0 D
370 156 M 370 740 L S
[] 0 D
352 128 M (-.5) H
370 156 M 370 166 L S
370 730 M 370 740 L S
403 156 M 403 161 L S
403 735 M 403 740 L S
437 156 M 437 161 L S
437 735 M 437 740 L S
470 156 M 470 161 L S
470 735 M 470 740 L S
504 156 M 504 161 L S
504 735 M 504 740 L S
[2 3] 0 D
537 156 M 537 740 L S
[] 0 D
519 128 M (0.0) H
537 156 M 537 166 L S
537 730 M 537 740 L S
571 156 M 571 161 L S
571 735 M 571 740 L S
604 156 M 604 161 L S
604 735 M 604 740 L S
638 156 M 638 161 L S
638 735 M 638 740 L S
671 156 M 671 161 L S
671 735 M 671 740 L S
[2 3] 0 D
704 156 M 704 740 L S
[] 0 D
686 128 M (0.5) H
704 156 M 704 166 L S
704 730 M 704 740 L S
738 156 M 738 161 L S
738 735 M 738 740 L S
771 156 M 771 161 L S
771 735 M 771 740 L S
805 156 M 805 161 L S
805 735 M 805 740 L S
838 156 M 838 161 L S
838 735 M 838 740 L S
[2 3] 0 D
872 156 M 872 740 L S
[] 0 D
860 128 M (1.) H
872 156 M 872 166 L S
872 730 M 872 740 L S
905 156 M 905 161 L S
905 735 M 905 740 L S
939 156 M 939 161 L S
939 735 M 939 740 L S
102 162 M 107 162 L S
532 162 M 542 162 L S
967 162 M 972 162 L S
102 181 M 107 181 L S
532 181 M 542 181 L S
967 181 M 972 181 L S
102 200 M 107 200 L S
532 200 M 542 200 L S
967 200 M 972 200 L S
102 219 M 107 219 L S
532 219 M 542 219 L S
967 219 M 972 219 L S
[2 3] 0 D
102 238 M 972 238 L S
[] 0 D
33 228 M (0.1) H
102 238 M 112 238 L S
527 238 M 547 238 L S
962 238 M 972 238 L S
102 257 M 107 257 L S
532 257 M 542 257 L S
967 257 M 972 257 L S
102 276 M 107 276 L S
532 276 M 542 276 L S
967 276 M 972 276 L S
102 294 M 107 294 L S
532 294 M 542 294 L S
967 294 M 972 294 L S
102 313 M 107 313 L S
532 313 M 542 313 L S
967 313 M 972 313 L S
[2 3] 0 D
102 332 M 972 332 L S
[] 0 D
33 322 M (0.2) H
102 332 M 112 332 L S
527 332 M 547 332 L S
962 332 M 972 332 L S
102 351 M 107 351 L S
532 351 M 542 351 L S
967 351 M 972 351 L S
102 370 M 107 370 L S
532 370 M 542 370 L S
967 370 M 972 370 L S
102 389 M 107 389 L S
532 389 M 542 389 L S
967 389 M 972 389 L S
102 407 M 107 407 L S
532 407 M 542 407 L S
967 407 M 972 407 L S
[2 3] 0 D
102 426 M 972 426 L S
[] 0 D
33 416 M (0.3) H
102 426 M 112 426 L S
527 426 M 547 426 L S
962 426 M 972 426 L S
102 445 M 107 445 L S
532 445 M 542 445 L S
967 445 M 972 445 L S
102 464 M 107 464 L S
532 464 M 542 464 L S
967 464 M 972 464 L S
102 483 M 107 483 L S
532 483 M 542 483 L S
967 483 M 972 483 L S
102 502 M 107 502 L S
532 502 M 542 502 L S
967 502 M 972 502 L S
[2 3] 0 D
102 520 M 972 520 L S
[] 0 D
33 510 M (0.4) H
102 520 M 112 520 L S
527 520 M 547 520 L S
962 520 M 972 520 L S
102 539 M 107 539 L S
532 539 M 542 539 L S
967 539 M 972 539 L S
102 558 M 107 558 L S
532 558 M 542 558 L S
967 558 M 972 558 L S
102 577 M 107 577 L S
532 577 M 542 577 L S
967 577 M 972 577 L S
102 596 M 107 596 L S
532 596 M 542 596 L S
967 596 M 972 596 L S
[2 3] 0 D
102 615 M 972 615 L S
[] 0 D
33 605 M (0.5) H
102 615 M 112 615 L S
527 615 M 547 615 L S
962 615 M 972 615 L S
102 633 M 107 633 L S
532 633 M 542 633 L S
967 633 M 972 633 L S
102 652 M 107 652 L S
532 652 M 542 652 L S
967 652 M 972 652 L S
102 671 M 107 671 L S
532 671 M 542 671 L S
967 671 M 972 671 L S
102 690 M 107 690 L S
532 690 M 542 690 L S
967 690 M 972 690 L S
[2 3] 0 D
102 709 M 972 709 L S
[] 0 D
33 699 M (0.6) H
102 709 M 112 709 L S
527 709 M 547 709 L S
962 709 M 972 709 L S
102 728 M 107 728 L S
532 728 M 542 728 L S
967 728 M 972 728 L S
[] 0 D
102 156 M 972 156 L S
972 156 M 972 740 L S
972 740 M 102 740 L S
102 740 M 102 156 L S
537 156 M 537 740 L S
102 156 M 102 157 L S
102 156 M 102 157 L S
109 167 M 109 168 L S
115 183 M 115 184 L S
122 207 M 122 208 L S
129 239 M 129 240 L S
135 287 M 135 288 L S
142 378 M 142 379 L S
149 567 M 149 568 L S
156 716 M 156 717 L S
162 735 M 162 736 L S
169 737 M 169 738 L S
176 737 M 176 738 L S
182 737 M 182 738 L S
189 738 M 189 739 L S
196 738 M 196 739 L S
202 738 M 202 739 L S
209 738 M 209 739 L S
216 738 M 216 739 L S
222 738 M 222 739 L S
229 738 M 229 739 L S
236 738 M 236 739 L S
242 738 M 242 739 L S
249 738 M 249 739 L S
256 738 M 256 739 L S
263 739 M 263 740 L S
269 739 M 269 740 L S
276 739 M 276 740 L S
283 739 M 283 740 L S
289 739 M 289 740 L S
296 739 M 296 740 L S
303 739 M 303 740 L S
309 739 M 309 740 L S
316 739 M 316 740 L S
323 739 M 323 740 L S
329 739 M 329 740 L S
336 739 M 336 740 L S
343 739 M 343 740 L S
350 739 M 350 740 L S
356 739 M 356 740 L S
363 739 M 363 740 L S
370 739 M 370 740 L S
376 739 M 376 740 L S
383 739 M 383 740 L S
390 739 M 390 740 L S
396 739 M 396 740 L S
403 739 M 403 740 L S
410 739 M 410 740 L S
417 740 M 417 741 L S
423 740 M 423 741 L S
430 740 M 430 741 L S
437 740 M 437 741 L S
443 740 M 443 741 L S
450 740 M 450 741 L S
457 740 M 457 741 L S
463 740 M 463 741 L S
470 740 M 470 741 L S
477 740 M 477 741 L S
483 740 M 483 741 L S
490 740 M 490 741 L S
497 740 M 497 741 L S
504 740 M 504 741 L S
510 740 M 510 741 L S
517 740 M 517 741 L S
524 740 M 524 741 L S
530 740 M 530 741 L S
537 740 M 537 741 L S
544 740 M 544 741 L S
550 740 M 550 741 L S
557 740 M 557 741 L S
564 740 M 564 741 L S
570 740 M 570 741 L S
577 740 M 577 741 L S
584 740 M 584 741 L S
591 740 M 591 741 L S
597 740 M 597 741 L S
604 740 M 604 741 L S
611 740 M 611 741 L S
617 740 M 617 741 L S
624 740 M 624 741 L S
631 740 M 631 741 L S
637 740 M 637 741 L S
644 740 M 644 741 L S
651 740 M 651 741 L S
657 740 M 657 741 L S
664 740 M 664 741 L S
671 740 M 671 741 L S
678 740 M 678 741 L S
684 739 M 684 740 L S
691 739 M 691 740 L S
698 739 M 698 740 L S
704 739 M 704 740 L S
711 739 M 711 740 L S
718 739 M 718 740 L S
724 739 M 724 740 L S
731 739 M 731 740 L S
738 739 M 738 740 L S
745 739 M 745 740 L S
751 739 M 751 740 L S
758 739 M 758 740 L S
765 739 M 765 740 L S
771 739 M 771 740 L S
778 739 M 778 740 L S
785 739 M 785 740 L S
791 739 M 791 740 L S
798 739 M 798 740 L S
805 739 M 805 740 L S
811 739 M 811 740 L S
818 739 M 818 740 L S
825 738 M 825 739 L S
832 738 M 832 739 L S
838 738 M 838 739 L S
845 738 M 845 739 L S
852 738 M 852 739 L S
858 738 M 858 739 L S
865 738 M 865 739 L S
872 738 M 872 739 L S
878 738 M 878 739 L S
885 738 M 885 739 L S
892 737 M 892 738 L S
898 737 M 898 738 L S
905 737 M 905 738 L S
912 735 M 912 736 L S
918 718 M 918 719 L S
925 574 M 925 575 L S
932 383 M 932 384 L S
939 289 M 939 290 L S
945 240 M 945 241 L S
952 208 M 952 209 L S
959 184 M 959 185 L S
965 167 M 965 168 L S
972 156 M 972 157 L S
102 156 M 102 157 L S
102 156 M 102 157 L S
109 167 M 109 168 L S
115 183 M 115 184 L S
122 207 M 122 208 L S
129 239 M 129 240 L S
135 287 M 135 288 L S
142 378 M 142 379 L S
149 567 M 149 568 L S
156 716 M 156 717 L S
162 735 M 162 736 L S
169 737 M 169 738 L S
176 737 M 176 738 L S
182 737 M 182 738 L S
189 738 M 189 739 L S
196 738 M 196 739 L S
202 738 M 202 739 L S
209 738 M 209 739 L S
216 738 M 216 739 L S
222 738 M 222 739 L S
229 738 M 229 739 L S
236 738 M 236 739 L S
242 738 M 242 739 L S
249 738 M 249 739 L S
256 738 M 256 739 L S
263 739 M 263 740 L S
269 739 M 269 740 L S
276 739 M 276 740 L S
283 739 M 283 740 L S
289 739 M 289 740 L S
296 739 M 296 740 L S
303 739 M 303 740 L S
309 739 M 309 740 L S
316 739 M 316 740 L S
323 739 M 323 740 L S
329 739 M 329 740 L S
336 739 M 336 740 L S
343 739 M 343 740 L S
350 739 M 350 740 L S
356 739 M 356 740 L S
363 739 M 363 740 L S
370 739 M 370 740 L S
376 739 M 376 740 L S
383 739 M 383 740 L S
390 739 M 390 740 L S
396 739 M 396 740 L S
403 739 M 403 740 L S
410 739 M 410 740 L S
417 740 M 417 741 L S
423 740 M 423 741 L S
430 740 M 430 741 L S
437 740 M 437 741 L S
443 740 M 443 741 L S
450 740 M 450 741 L S
457 740 M 457 741 L S
463 740 M 463 741 L S
470 740 M 470 741 L S
477 740 M 477 741 L S
483 740 M 483 741 L S
490 740 M 490 741 L S
497 740 M 497 741 L S
504 740 M 504 741 L S
510 740 M 510 741 L S
517 740 M 517 741 L S
524 740 M 524 741 L S
530 740 M 530 741 L S
537 740 M 537 741 L S
544 740 M 544 741 L S
550 740 M 550 741 L S
557 740 M 557 741 L S
564 740 M 564 741 L S
570 740 M 570 741 L S
577 740 M 577 741 L S
584 740 M 584 741 L S
591 740 M 591 741 L S
597 740 M 597 741 L S
604 740 M 604 741 L S
611 740 M 611 741 L S
617 740 M 617 741 L S
624 740 M 624 741 L S
631 740 M 631 741 L S
637 740 M 637 741 L S
644 740 M 644 741 L S
651 740 M 651 741 L S
657 740 M 657 741 L S
664 740 M 664 741 L S
671 740 M 671 741 L S
678 740 M 678 741 L S
684 739 M 684 740 L S
691 739 M 691 740 L S
698 739 M 698 740 L S
704 739 M 704 740 L S
711 739 M 711 740 L S
718 739 M 718 740 L S
724 739 M 724 740 L S
731 739 M 731 740 L S
738 739 M 738 740 L S
745 739 M 745 740 L S
751 739 M 751 740 L S
758 739 M 758 740 L S
765 739 M 765 740 L S
771 739 M 771 740 L S
778 739 M 778 740 L S
785 739 M 785 740 L S
791 739 M 791 740 L S
798 739 M 798 740 L S
805 739 M 805 740 L S
811 739 M 811 740 L S
818 739 M 818 740 L S
825 738 M 825 739 L S
832 738 M 832 739 L S
838 738 M 838 739 L S
845 738 M 845 739 L S
852 738 M 852 739 L S
858 738 M 858 739 L S
865 738 M 865 739 L S
872 738 M 872 739 L S
878 738 M 878 739 L S
885 738 M 885 739 L S
892 737 M 892 738 L S
898 737 M 898 738 L S
905 737 M 905 738 L S
912 735 M 912 736 L S
918 718 M 918 719 L S
925 574 M 925 575 L S
932 383 M 932 384 L S
939 289 M 939 290 L S
945 240 M 945 241 L S
952 208 M 952 209 L S
959 184 M 959 185 L S
965 167 M 965 168 L S
972 156 M 972 157 L S
972 156 M 972 157 L S
/Courier-Bold findfont 27 scalefont setfont
101 764 M (Zgoubi|Zpop                                                                     ) H
101 743 M (17-04-2020                                                                      ) H
/Courier-Bold findfont 26 scalefont setfont
160 85 M (* # TRAJECTORIES - STORAGE FILE, 17-04-2020 06:19:26 *                                                                            ) H
293 755 M (  BZ     (T)  vs.    X     (m)                                                                                                    ) H
26 42 M (Mi-ma H/V:  -1.30000E+00  1.29929E+00/  1.30991E-02  6.33184E-01                                                                  ) H
26 21 M (Part#  1- 10000 (*); Lmnt#     1; pass#       1-      1, [    1];    262 pnts                                                     ) H
[] 0 D
102 156 M 102 156 L S
102 156 M 102 156 L S
102 156 M 109 167 L S
109 167 M 115 183 L S
115 183 M 122 207 L S
122 207 M 129 239 L S
129 239 M 135 287 L S
135 287 M 142 378 L S
142 378 M 149 567 L S
149 567 M 156 716 L S
156 716 M 162 735 L S
162 735 M 169 737 L S
169 737 M 176 737 L S
176 737 M 182 737 L S
182 737 M 189 738 L S
189 738 M 196 738 L S
196 738 M 202 738 L S
202 738 M 209 738 L S
209 738 M 216 738 L S
216 738 M 222 738 L S
222 738 M 229 738 L S
229 738 M 236 738 L S
236 738 M 242 738 L S
242 738 M 249 738 L S
249 738 M 256 738 L S
256 738 M 263 739 L S
263 739 M 269 739 L S
269 739 M 276 739 L S
276 739 M 283 739 L S
283 739 M 289 739 L S
289 739 M 296 739 L S
296 739 M 303 739 L S
303 739 M 309 739 L S
309 739 M 316 739 L S
316 739 M 323 739 L S
323 739 M 329 739 L S
329 739 M 336 739 L S
336 739 M 343 739 L S
343 739 M 350 739 L S
350 739 M 356 739 L S
356 739 M 363 739 L S
363 739 M 370 739 L S
370 739 M 376 739 L S
376 739 M 383 739 L S
383 739 M 390 739 L S
390 739 M 396 739 L S
396 739 M 403 739 L S
403 739 M 410 739 L S
410 739 M 417 740 L S
417 740 M 423 740 L S
423 740 M 430 740 L S
430 740 M 437 740 L S
437 740 M 443 740 L S
443 740 M 450 740 L S
450 740 M 457 740 L S
457 740 M 463 740 L S
463 740 M 470 740 L S
470 740 M 477 740 L S
477 740 M 483 740 L S
483 740 M 490 740 L S
490 740 M 497 740 L S
497 740 M 504 740 L S
504 740 M 510 740 L S
510 740 M 517 740 L S
517 740 M 524 740 L S
524 740 M 530 740 L S
530 740 M 537 740 L S
537 740 M 544 740 L S
544 740 M 550 740 L S
550 740 M 557 740 L S
557 740 M 564 740 L S
564 740 M 570 740 L S
570 740 M 577 740 L S
577 740 M 584 740 L S
584 740 M 591 740 L S
591 740 M 597 740 L S
597 740 M 604 740 L S
604 740 M 611 740 L S
611 740 M 617 740 L S
617 740 M 624 740 L S
624 740 M 631 740 L S
631 740 M 637 740 L S
637 740 M 644 740 L S
644 740 M 651 740 L S
651 740 M 657 740 L S
657 740 M 664 740 L S
664 740 M 671 740 L S
671 740 M 678 740 L S
678 740 M 684 739 L S
684 739 M 691 739 L S
691 739 M 698 739 L S
698 739 M 704 739 L S
704 739 M 711 739 L S
711 739 M 718 739 L S
718 739 M 724 739 L S
724 739 M 731 739 L S
731 739 M 738 739 L S
738 739 M 745 739 L S
745 739 M 751 739 L S
751 739 M 758 739 L S
758 739 M 765 739 L S
765 739 M 771 739 L S
771 739 M 778 739 L S
778 739 M 785 739 L S
785 739 M 791 739 L S
791 739 M 798 739 L S
798 739 M 805 739 L S
805 739 M 811 739 L S
811 739 M 818 739 L S
818 739 M 825 738 L S
825 738 M 832 738 L S
832 738 M 838 738 L S
838 738 M 845 738 L S
845 738 M 852 738 L S
852 738 M 858 738 L S
858 738 M 865 738 L S
865 738 M 872 738 L S
872 738 M 878 738 L S
878 738 M 885 738 L S
885 738 M 892 737 L S
892 737 M 898 737 L S
898 737 M 905 737 L S
905 737 M 912 735 L S
912 735 M 918 718 L S
918 718 M 925 574 L S
925 574 M 932 383 L S
932 383 M 939 289 L S
939 289 M 945 240 L S
945 240 M 952 208 L S
952 208 M 959 184 L S
959 184 M 965 167 L S
965 167 M 972 156 L S
102 156 M 102 156 L S
102 156 M 102 156 L S
102 156 M 109 167 L S
109 167 M 115 183 L S
115 183 M 122 207 L S
122 207 M 129 239 L S
129 239 M 135 287 L S
135 287 M 142 378 L S
142 378 M 149 567 L S
149 567 M 156 716 L S
156 716 M 162 735 L S
162 735 M 169 737 L S
169 737 M 176 737 L S
176 737 M 182 737 L S
182 737 M 189 738 L S
189 738 M 196 738 L S
196 738 M 202 738 L S
202 738 M 209 738 L S
209 738 M 216 738 L S
216 738 M 222 738 L S
222 738 M 229 738 L S
229 738 M 236 738 L S
236 738 M 242 738 L S
242 738 M 249 738 L S
249 738 M 256 738 L S
256 738 M 263 739 L S
263 739 M 269 739 L S
269 739 M 276 739 L S
276 739 M 283 739 L S
283 739 M 289 739 L S
289 739 M 296 739 L S
296 739 M 303 739 L S
303 739 M 309 739 L S
309 739 M 316 739 L S
316 739 M 323 739 L S
323 739 M 329 739 L S
329 739 M 336 739 L S
336 739 M 343 739 L S
343 739 M 350 739 L S
350 739 M 356 739 L S
356 739 M 363 739 L S
363 739 M 370 739 L S
370 739 M 376 739 L S
376 739 M 383 739 L S
383 739 M 390 739 L S
390 739 M 396 739 L S
396 739 M 403 739 L S
403 739 M 410 739 L S
410 739 M 417 740 L S
417 740 M 423 740 L S
423 740 M 430 740 L S
430 740 M 437 740 L S
437 740 M 443 740 L S
443 740 M 450 740 L S
450 740 M 457 740 L S
457 740 M 463 740 L S
463 740 M 470 740 L S
470 740 M 477 740 L S
477 740 M 483 740 L S
483 740 M 490 740 L S
490 740 M 497 740 L S
497 740 M 504 740 L S
504 740 M 510 740 L S
510 740 M 517 740 L S
517 740 M 524 740 L S
524 740 M 530 740 L S
530 740 M 537 740 L S
537 740 M 544 740 L S
544 740 M 550 740 L S
550 740 M 557 740 L S
557 740 M 564 740 L S
564 740 M 570 740 L S
570 740 M 577 740 L S
577 740 M 584 740 L S
584 740 M 591 740 L S
591 740 M 597 740 L S
597 740 M 604 740 L S
604 740 M 611 740 L S
611 740 M 617 740 L S
617 740 M 624 740 L S
624 740 M 631 740 L S
631 740 M 637 740 L S
637 740 M 644 740 L S
644 740 M 651 740 L S
651 740 M 657 740 L S
657 740 M 664 740 L S
664 740 M 671 740 L S
671 740 M 678 740 L S
678 740 M 684 739 L S
684 739 M 691 739 L S
691 739 M 698 739 L S
698 739 M 704 739 L S
704 739 M 711 739 L S
711 739 M 718 739 L S
718 739 M 724 739 L S
724 739 M 731 739 L S
731 739 M 738 739 L S
738 739 M 745 739 L S
745 739 M 751 739 L S
751 739 M 758 739 L S
758 739 M 765 739 L S
765 739 M 771 739 L S
771 739 M 778 739 L S
778 739 M 785 739 L S
785 739 M 791 739 L S
791 739 M 798 739 L S
798 739 M 805 739 L S
805 739 M 811 739 L S
811 739 M 818 739 L S
818 739 M 825 738 L S
825 738 M 832 738 L S
832 738 M 838 738 L S
838 738 M 845 738 L S
845 738 M 852 738 L S
852 738 M 858 738 L S
858 738 M 865 738 L S
865 738 M 872 738 L S
872 738 M 878 738 L S
878 738 M 885 738 L S
885 738 M 892 737 L S
892 737 M 898 737 L S
898 737 M 905 737 L S
905 737 M 912 735 L S
912 735 M 918 718 L S
918 718 M 925 574 L S
925 574 M 932 383 L S
932 383 M 939 289 L S
939 289 M 945 240 L S
945 240 M 952 208 L S
952 208 M 959 184 L S
959 184 M 965 167 L S
965 167 M 972 156 L S
972 156 M 972 156 L S
/Courier-Bold findfont 27 scalefont setfont
101 764 M (Zgoubi|Zpop                                                                     ) H
101 743 M (17-04-2020                                                                      ) H
/Courier-Bold findfont 26 scalefont setfont
160 85 M (* # TRAJECTORIES - STORAGE FILE, 17-04-2020 06:19:26 *                                                                            ) H
293 755 M (  BZ     (T)  vs.    X     (m)                                                                                                    ) H
26 42 M (Mi-ma H/V:  -1.30000E+00  1.29929E+00/  1.30991E-02  6.33184E-01                                                                  ) H
26 21 M (Part#  1- 10000 (*); Lmnt#     1; pass#       1-      1, [    1];    262 pnts                                                     ) H
showpage
