%!PS-Adobe-2.0 EPSF-2.0
%%Title: X-Y_Cartesian_6GeV.eps
%%Titre: X-Y_Cartesian_6GeV.eps
%%Creator: Fminigraf Library
%%BoundingBox: 20 40 567 457
%%EndComments
/offx 20 def
/offy 40 def
/lx 595 def
/ly 842 def
/maxx 1023 def
/maxy 779 def
/reduc 0.92 def
/coeff lx maxx div reduc mul def
offx offy translate
coeff coeff scale
1 setlinewidth newpath 0 0 moveto
/Courier-Bold findfont 32 scalefont setfont
/M {moveto} def
/L {lineto} def
/S {stroke} def
/H {show} def
/D {setdash} def
0 0 0 setrgbcolor
[] 0 D
102 156 M 102 161 L S
102 520 M 102 530 L S
102 735 M 102 740 L S
135 156 M 135 161 L S
135 520 M 135 530 L S
135 735 M 135 740 L S
169 156 M 169 161 L S
169 520 M 169 530 L S
169 735 M 169 740 L S
[2 3] 0 D
202 156 M 202 740 L S
[] 0 D
/Courier-Bold findfont 30 scalefont setfont
184 128 M (-1.) H
202 156 M 202 166 L S
202 515 M 202 535 L S
202 730 M 202 740 L S
236 156 M 236 161 L S
236 520 M 236 530 L S
236 735 M 236 740 L S
269 156 M 269 161 L S
269 520 M 269 530 L S
269 735 M 269 740 L S
303 156 M 303 161 L S
303 520 M 303 530 L S
303 735 M 303 740 L S
336 156 M 336 161 L S
336 520 M 336 530 L S
336 735 M 336 740 L S
[2 3] 0 D
370 156 M 370 740 L S
[] 0 D
352 128 M (-.5) H
370 156 M 370 166 L S
370 515 M 370 535 L S
370 730 M 370 740 L S
403 156 M 403 161 L S
403 520 M 403 530 L S
403 735 M 403 740 L S
437 156 M 437 161 L S
437 520 M 437 530 L S
437 735 M 437 740 L S
470 156 M 470 161 L S
470 520 M 470 530 L S
470 735 M 470 740 L S
504 156 M 504 161 L S
504 520 M 504 530 L S
504 735 M 504 740 L S
[2 3] 0 D
537 156 M 537 740 L S
[] 0 D
519 128 M (0.0) H
537 156 M 537 166 L S
537 515 M 537 535 L S
537 730 M 537 740 L S
571 156 M 571 161 L S
571 520 M 571 530 L S
571 735 M 571 740 L S
604 156 M 604 161 L S
604 520 M 604 530 L S
604 735 M 604 740 L S
638 156 M 638 161 L S
638 520 M 638 530 L S
638 735 M 638 740 L S
671 156 M 671 161 L S
671 520 M 671 530 L S
671 735 M 671 740 L S
[2 3] 0 D
704 156 M 704 740 L S
[] 0 D
686 128 M (0.5) H
704 156 M 704 166 L S
704 515 M 704 535 L S
704 730 M 704 740 L S
738 156 M 738 161 L S
738 520 M 738 530 L S
738 735 M 738 740 L S
771 156 M 771 161 L S
771 520 M 771 530 L S
771 735 M 771 740 L S
805 156 M 805 161 L S
805 520 M 805 530 L S
805 735 M 805 740 L S
838 156 M 838 161 L S
838 520 M 838 530 L S
838 735 M 838 740 L S
[2 3] 0 D
872 156 M 872 740 L S
[] 0 D
860 128 M (1.) H
872 156 M 872 166 L S
872 515 M 872 535 L S
872 730 M 872 740 L S
905 156 M 905 161 L S
905 520 M 905 530 L S
905 735 M 905 740 L S
939 156 M 939 161 L S
939 520 M 939 530 L S
939 735 M 939 740 L S
102 172 M 107 172 L S
532 172 M 542 172 L S
967 172 M 972 172 L S
[2 3] 0 D
102 194 M 972 194 L S
[] 0 D
21 184 M (-.015) H
102 194 M 112 194 L S
527 194 M 547 194 L S
962 194 M 972 194 L S
102 216 M 107 216 L S
532 216 M 542 216 L S
967 216 M 972 216 L S
102 238 M 107 238 L S
532 238 M 542 238 L S
967 238 M 972 238 L S
102 260 M 107 260 L S
532 260 M 542 260 L S
967 260 M 972 260 L S
102 283 M 107 283 L S
532 283 M 542 283 L S
967 283 M 972 283 L S
[2 3] 0 D
102 305 M 972 305 L S
[] 0 D
27 295 M (-.01) H
102 305 M 112 305 L S
527 305 M 547 305 L S
962 305 M 972 305 L S
102 327 M 107 327 L S
532 327 M 542 327 L S
967 327 M 972 327 L S
102 349 M 107 349 L S
532 349 M 542 349 L S
967 349 M 972 349 L S
102 371 M 107 371 L S
532 371 M 542 371 L S
967 371 M 972 371 L S
102 393 M 107 393 L S
532 393 M 542 393 L S
967 393 M 972 393 L S
[2 3] 0 D
102 415 M 972 415 L S
[] 0 D
21 405 M (-.005) H
102 415 M 112 415 L S
527 415 M 547 415 L S
962 415 M 972 415 L S
102 437 M 107 437 L S
532 437 M 542 437 L S
967 437 M 972 437 L S
102 459 M 107 459 L S
532 459 M 542 459 L S
967 459 M 972 459 L S
102 481 M 107 481 L S
532 481 M 542 481 L S
967 481 M 972 481 L S
102 503 M 107 503 L S
532 503 M 542 503 L S
967 503 M 972 503 L S
[2 3] 0 D
102 525 M 972 525 L S
[] 0 D
33 515 M (0.0) H
102 525 M 112 525 L S
527 525 M 547 525 L S
962 525 M 972 525 L S
102 547 M 107 547 L S
532 547 M 542 547 L S
967 547 M 972 547 L S
102 569 M 107 569 L S
532 569 M 542 569 L S
967 569 M 972 569 L S
102 591 M 107 591 L S
532 591 M 542 591 L S
967 591 M 972 591 L S
102 613 M 107 613 L S
532 613 M 542 613 L S
967 613 M 972 613 L S
[2 3] 0 D
102 635 M 972 635 L S
[] 0 D
21 625 M (0.005) H
102 635 M 112 635 L S
527 635 M 547 635 L S
962 635 M 972 635 L S
102 657 M 107 657 L S
532 657 M 542 657 L S
967 657 M 972 657 L S
102 679 M 107 679 L S
532 679 M 542 679 L S
967 679 M 972 679 L S
102 702 M 107 702 L S
532 702 M 542 702 L S
967 702 M 972 702 L S
102 724 M 107 724 L S
532 724 M 542 724 L S
967 724 M 972 724 L S
[] 0 D
102 156 M 972 156 L S
972 156 M 972 740 L S
972 740 M 102 740 L S
102 740 M 102 156 L S
537 156 M 537 740 L S
102 525 M 972 525 L S
102 156 M 102 157 L S
102 156 M 102 157 L S
109 172 M 109 173 L S
115 189 M 115 190 L S
122 205 M 122 206 L S
129 222 M 129 223 L S
135 238 M 135 239 L S
142 255 M 142 256 L S
149 271 M 149 272 L S
156 287 M 156 288 L S
162 303 M 162 304 L S
169 318 M 169 319 L S
176 333 M 176 334 L S
182 348 M 182 349 L S
189 363 M 189 364 L S
196 377 M 196 378 L S
202 391 M 202 392 L S
209 405 M 209 406 L S
216 418 M 216 419 L S
222 432 M 222 433 L S
229 445 M 229 446 L S
236 457 M 236 458 L S
242 470 M 242 471 L S
249 482 M 249 483 L S
256 494 M 256 495 L S
263 505 M 263 506 L S
269 517 M 269 518 L S
276 528 M 276 529 L S
283 538 M 283 539 L S
289 549 M 289 550 L S
296 559 M 296 560 L S
303 569 M 303 570 L S
309 579 M 309 580 L S
316 588 M 316 589 L S
323 597 M 323 598 L S
329 606 M 329 607 L S
336 614 M 336 615 L S
343 623 M 343 624 L S
350 630 M 350 631 L S
356 638 M 356 639 L S
363 646 M 363 647 L S
370 653 M 370 654 L S
376 660 M 376 661 L S
383 666 M 383 667 L S
390 672 M 390 673 L S
396 678 M 396 679 L S
403 684 M 403 685 L S
410 690 M 410 691 L S
417 695 M 417 696 L S
423 700 M 423 701 L S
430 704 M 430 705 L S
437 709 M 437 710 L S
443 713 M 443 714 L S
450 716 M 450 717 L S
457 720 M 457 721 L S
463 723 M 463 724 L S
470 726 M 470 727 L S
477 729 M 477 730 L S
483 731 M 483 732 L S
490 733 M 490 734 L S
497 735 M 497 736 L S
504 736 M 504 737 L S
510 738 M 510 739 L S
517 739 M 517 740 L S
524 739 M 524 740 L S
530 740 M 530 741 L S
537 740 M 537 741 L S
544 740 M 544 741 L S
550 739 M 550 740 L S
557 739 M 557 740 L S
564 738 M 564 739 L S
570 737 M 570 738 L S
577 735 M 577 736 L S
584 733 M 584 734 L S
591 731 M 591 732 L S
597 729 M 597 730 L S
604 726 M 604 727 L S
611 723 M 611 724 L S
617 720 M 617 721 L S
624 716 M 624 717 L S
631 713 M 631 714 L S
637 709 M 637 710 L S
644 704 M 644 705 L S
651 700 M 651 701 L S
657 695 M 657 696 L S
664 690 M 664 691 L S
671 684 M 671 685 L S
678 679 M 678 680 L S
684 673 M 684 674 L S
691 666 M 691 667 L S
698 660 M 698 661 L S
704 653 M 704 654 L S
711 646 M 711 647 L S
718 638 M 718 639 L S
724 631 M 724 632 L S
731 623 M 731 624 L S
738 615 M 738 616 L S
745 606 M 745 607 L S
751 597 M 751 598 L S
758 588 M 758 589 L S
765 579 M 765 580 L S
771 569 M 771 570 L S
778 559 M 778 560 L S
785 549 M 785 550 L S
791 539 M 791 540 L S
798 528 M 798 529 L S
805 517 M 805 518 L S
811 506 M 811 507 L S
818 494 M 818 495 L S
825 482 M 825 483 L S
832 470 M 832 471 L S
838 458 M 838 459 L S
845 445 M 845 446 L S
852 432 M 852 433 L S
858 419 M 858 420 L S
865 405 M 865 406 L S
872 392 M 872 393 L S
878 378 M 878 379 L S
885 363 M 885 364 L S
892 349 M 892 350 L S
898 334 M 898 335 L S
905 319 M 905 320 L S
912 303 M 912 304 L S
918 287 M 918 288 L S
925 271 M 925 272 L S
932 255 M 932 256 L S
939 239 M 939 240 L S
945 222 M 945 223 L S
952 206 M 952 207 L S
959 190 M 959 191 L S
965 173 M 965 174 L S
972 157 M 972 158 L S
102 156 M 102 157 L S
102 156 M 102 157 L S
109 172 M 109 173 L S
115 189 M 115 190 L S
122 205 M 122 206 L S
129 222 M 129 223 L S
135 238 M 135 239 L S
142 255 M 142 256 L S
149 271 M 149 272 L S
156 287 M 156 288 L S
162 303 M 162 304 L S
169 318 M 169 319 L S
176 333 M 176 334 L S
182 348 M 182 349 L S
189 363 M 189 364 L S
196 377 M 196 378 L S
202 391 M 202 392 L S
209 405 M 209 406 L S
216 418 M 216 419 L S
222 432 M 222 433 L S
229 445 M 229 446 L S
236 457 M 236 458 L S
242 470 M 242 471 L S
249 482 M 249 483 L S
256 494 M 256 495 L S
263 505 M 263 506 L S
269 517 M 269 518 L S
276 528 M 276 529 L S
283 538 M 283 539 L S
289 549 M 289 550 L S
296 559 M 296 560 L S
303 569 M 303 570 L S
309 579 M 309 580 L S
316 588 M 316 589 L S
323 597 M 323 598 L S
329 606 M 329 607 L S
336 614 M 336 615 L S
343 623 M 343 624 L S
350 630 M 350 631 L S
356 638 M 356 639 L S
363 646 M 363 647 L S
370 653 M 370 654 L S
376 660 M 376 661 L S
383 666 M 383 667 L S
390 672 M 390 673 L S
396 678 M 396 679 L S
403 684 M 403 685 L S
410 690 M 410 691 L S
417 695 M 417 696 L S
423 700 M 423 701 L S
430 704 M 430 705 L S
437 709 M 437 710 L S
443 713 M 443 714 L S
450 716 M 450 717 L S
457 720 M 457 721 L S
463 723 M 463 724 L S
470 726 M 470 727 L S
477 729 M 477 730 L S
483 731 M 483 732 L S
490 733 M 490 734 L S
497 735 M 497 736 L S
504 736 M 504 737 L S
510 738 M 510 739 L S
517 739 M 517 740 L S
524 739 M 524 740 L S
530 740 M 530 741 L S
537 740 M 537 741 L S
544 740 M 544 741 L S
550 739 M 550 740 L S
557 739 M 557 740 L S
564 738 M 564 739 L S
570 737 M 570 738 L S
577 735 M 577 736 L S
584 733 M 584 734 L S
591 731 M 591 732 L S
597 729 M 597 730 L S
604 726 M 604 727 L S
611 723 M 611 724 L S
617 720 M 617 721 L S
624 716 M 624 717 L S
631 713 M 631 714 L S
637 709 M 637 710 L S
644 704 M 644 705 L S
651 700 M 651 701 L S
657 695 M 657 696 L S
664 690 M 664 691 L S
671 684 M 671 685 L S
678 679 M 678 680 L S
684 673 M 684 674 L S
691 666 M 691 667 L S
698 660 M 698 661 L S
704 653 M 704 654 L S
711 646 M 711 647 L S
718 638 M 718 639 L S
724 631 M 724 632 L S
731 623 M 731 624 L S
738 615 M 738 616 L S
745 606 M 745 607 L S
751 597 M 751 598 L S
758 588 M 758 589 L S
765 579 M 765 580 L S
771 569 M 771 570 L S
778 559 M 778 560 L S
785 549 M 785 550 L S
791 539 M 791 540 L S
798 528 M 798 529 L S
805 517 M 805 518 L S
811 506 M 811 507 L S
818 494 M 818 495 L S
825 482 M 825 483 L S
832 470 M 832 471 L S
838 458 M 838 459 L S
845 445 M 845 446 L S
852 432 M 852 433 L S
858 419 M 858 420 L S
865 405 M 865 406 L S
872 392 M 872 393 L S
878 378 M 878 379 L S
885 363 M 885 364 L S
892 349 M 892 350 L S
898 334 M 898 335 L S
905 319 M 905 320 L S
912 303 M 912 304 L S
918 287 M 918 288 L S
925 271 M 925 272 L S
932 255 M 932 256 L S
939 239 M 939 240 L S
945 222 M 945 223 L S
952 206 M 952 207 L S
959 190 M 959 191 L S
965 173 M 965 174 L S
972 157 M 972 158 L S
972 157 M 972 158 L S
/Courier-Bold findfont 27 scalefont setfont
101 764 M (Zgoubi|Zpop                                                                     ) H
101 743 M (17-04-2020                                                                      ) H
/Courier-Bold findfont 26 scalefont setfont
160 85 M (* # TRAJECTORIES - STORAGE FILE, 17-04-2020 06:19:26 *                                                                            ) H
293 755 M (   Y     (m)  vs.    X     (m)                                                                                                    ) H
26 42 M (Mi-ma H/V:  -1.30000E+00  1.29929E+00/ -1.67361E-02  9.74367E-03                                                                  ) H
26 21 M (Part#  1- 10000 (*); Lmnt#     1; pass#       1-      1, [    1];    262 pnts                                                     ) H
showpage
