%!PS-Adobe-2.0 EPSF-2.0
%%Title: gnuplot_mapField_3Cell.eps
%%Creator: gnuplot 5.2 patchlevel 2
%%CreationDate: Tue Aug 27 09:01:52 2019
%%DocumentFonts: (atend)
%%BoundingBox: 50 50 285 163
%%EndComments
%%BeginProlog
/gnudict 256 dict def
gnudict begin
%
% The following true/false flags may be edited by hand if desired.
% The unit line width and grayscale image gamma correction may also be changed.
%
/Color true def
/Blacktext true def
/Solid false def
/Dashlength 1 def
/Landscape false def
/Level1 false def
/Level3 false def
/Rounded false def
/ClipToBoundingBox false def
/SuppressPDFMark false def
/TransparentPatterns false def
/gnulinewidth 5.000 def
/userlinewidth gnulinewidth def
/Gamma 1.0 def
/BackgroundColor {-1.000 -1.000 -1.000} def
%
/vshift -40 def
/dl1 {
  10.0 Dashlength userlinewidth gnulinewidth div mul mul mul
  Rounded { currentlinewidth 0.75 mul sub dup 0 le { pop 0.01 } if } if
} def
/dl2 {
  10.0 Dashlength userlinewidth gnulinewidth div mul mul mul
  Rounded { currentlinewidth 0.75 mul add } if
} def
/hpt_ 31.5 def
/vpt_ 31.5 def
/hpt hpt_ def
/vpt vpt_ def
/doclip {
  ClipToBoundingBox {
    newpath 50 50 moveto 285 50 lineto 285 163 lineto 50 163 lineto closepath
    clip
  } if
} def
%
% Gnuplot Prolog Version 5.1 (Oct 2015)
%
%/SuppressPDFMark true def
%
/M {moveto} bind def
/L {lineto} bind def
/R {rmoveto} bind def
/V {rlineto} bind def
/N {newpath moveto} bind def
/Z {closepath} bind def
/C {setrgbcolor} bind def
/f {rlineto fill} bind def
/g {setgray} bind def
/Gshow {show} def   % May be redefined later in the file to support UTF-8
/vpt2 vpt 2 mul def
/hpt2 hpt 2 mul def
/Lshow {currentpoint stroke M 0 vshift R 
	Blacktext {gsave 0 setgray textshow grestore} {textshow} ifelse} def
/Rshow {currentpoint stroke M dup stringwidth pop neg vshift R
	Blacktext {gsave 0 setgray textshow grestore} {textshow} ifelse} def
/Cshow {currentpoint stroke M dup stringwidth pop -2 div vshift R 
	Blacktext {gsave 0 setgray textshow grestore} {textshow} ifelse} def
/UP {dup vpt_ mul /vpt exch def hpt_ mul /hpt exch def
  /hpt2 hpt 2 mul def /vpt2 vpt 2 mul def} def
/DL {Color {setrgbcolor Solid {pop []} if 0 setdash}
 {pop pop pop 0 setgray Solid {pop []} if 0 setdash} ifelse} def
/BL {stroke userlinewidth 2 mul setlinewidth
	Rounded {1 setlinejoin 1 setlinecap} if} def
/AL {stroke userlinewidth 2 div setlinewidth
	Rounded {1 setlinejoin 1 setlinecap} if} def
/UL {dup gnulinewidth mul /userlinewidth exch def
	dup 1 lt {pop 1} if 10 mul /udl exch def} def
/PL {stroke userlinewidth setlinewidth
	Rounded {1 setlinejoin 1 setlinecap} if} def
3.8 setmiterlimit
% Classic Line colors (version 5.0)
/LCw {1 1 1} def
/LCb {0 0 0} def
/LCa {0 0 0} def
/LC0 {1 0 0} def
/LC1 {0 1 0} def
/LC2 {0 0 1} def
/LC3 {1 0 1} def
/LC4 {0 1 1} def
/LC5 {1 1 0} def
/LC6 {0 0 0} def
/LC7 {1 0.3 0} def
/LC8 {0.5 0.5 0.5} def
% Default dash patterns (version 5.0)
/LTB {BL [] LCb DL} def
/LTw {PL [] 1 setgray} def
/LTb {PL [] LCb DL} def
/LTa {AL [1 udl mul 2 udl mul] 0 setdash LCa setrgbcolor} def
/LT0 {PL [] LC0 DL} def
/LT1 {PL [2 dl1 3 dl2] LC1 DL} def
/LT2 {PL [1 dl1 1.5 dl2] LC2 DL} def
/LT3 {PL [6 dl1 2 dl2 1 dl1 2 dl2] LC3 DL} def
/LT4 {PL [1 dl1 2 dl2 6 dl1 2 dl2 1 dl1 2 dl2] LC4 DL} def
/LT5 {PL [4 dl1 2 dl2] LC5 DL} def
/LT6 {PL [1.5 dl1 1.5 dl2 1.5 dl1 1.5 dl2 1.5 dl1 6 dl2] LC6 DL} def
/LT7 {PL [3 dl1 3 dl2 1 dl1 3 dl2] LC7 DL} def
/LT8 {PL [2 dl1 2 dl2 2 dl1 6 dl2] LC8 DL} def
/SL {[] 0 setdash} def
/Pnt {stroke [] 0 setdash gsave 1 setlinecap M 0 0 V stroke grestore} def
/Dia {stroke [] 0 setdash 2 copy vpt add M
  hpt neg vpt neg V hpt vpt neg V
  hpt vpt V hpt neg vpt V closepath stroke
  Pnt} def
/Pls {stroke [] 0 setdash vpt sub M 0 vpt2 V
  currentpoint stroke M
  hpt neg vpt neg R hpt2 0 V stroke
 } def
/Box {stroke [] 0 setdash 2 copy exch hpt sub exch vpt add M
  0 vpt2 neg V hpt2 0 V 0 vpt2 V
  hpt2 neg 0 V closepath stroke
  Pnt} def
/Crs {stroke [] 0 setdash exch hpt sub exch vpt add M
  hpt2 vpt2 neg V currentpoint stroke M
  hpt2 neg 0 R hpt2 vpt2 V stroke} def
/TriU {stroke [] 0 setdash 2 copy vpt 1.12 mul add M
  hpt neg vpt -1.62 mul V
  hpt 2 mul 0 V
  hpt neg vpt 1.62 mul V closepath stroke
  Pnt} def
/Star {2 copy Pls Crs} def
/BoxF {stroke [] 0 setdash exch hpt sub exch vpt add M
  0 vpt2 neg V hpt2 0 V 0 vpt2 V
  hpt2 neg 0 V closepath fill} def
/TriUF {stroke [] 0 setdash vpt 1.12 mul add M
  hpt neg vpt -1.62 mul V
  hpt 2 mul 0 V
  hpt neg vpt 1.62 mul V closepath fill} def
/TriD {stroke [] 0 setdash 2 copy vpt 1.12 mul sub M
  hpt neg vpt 1.62 mul V
  hpt 2 mul 0 V
  hpt neg vpt -1.62 mul V closepath stroke
  Pnt} def
/TriDF {stroke [] 0 setdash vpt 1.12 mul sub M
  hpt neg vpt 1.62 mul V
  hpt 2 mul 0 V
  hpt neg vpt -1.62 mul V closepath fill} def
/DiaF {stroke [] 0 setdash vpt add M
  hpt neg vpt neg V hpt vpt neg V
  hpt vpt V hpt neg vpt V closepath fill} def
/Pent {stroke [] 0 setdash 2 copy gsave
  translate 0 hpt M 4 {72 rotate 0 hpt L} repeat
  closepath stroke grestore Pnt} def
/PentF {stroke [] 0 setdash gsave
  translate 0 hpt M 4 {72 rotate 0 hpt L} repeat
  closepath fill grestore} def
/Circle {stroke [] 0 setdash 2 copy
  hpt 0 360 arc stroke Pnt} def
/CircleF {stroke [] 0 setdash hpt 0 360 arc fill} def
/C0 {BL [] 0 setdash 2 copy moveto vpt 90 450 arc} bind def
/C1 {BL [] 0 setdash 2 copy moveto
	2 copy vpt 0 90 arc closepath fill
	vpt 0 360 arc closepath} bind def
/C2 {BL [] 0 setdash 2 copy moveto
	2 copy vpt 90 180 arc closepath fill
	vpt 0 360 arc closepath} bind def
/C3 {BL [] 0 setdash 2 copy moveto
	2 copy vpt 0 180 arc closepath fill
	vpt 0 360 arc closepath} bind def
/C4 {BL [] 0 setdash 2 copy moveto
	2 copy vpt 180 270 arc closepath fill
	vpt 0 360 arc closepath} bind def
/C5 {BL [] 0 setdash 2 copy moveto
	2 copy vpt 0 90 arc
	2 copy moveto
	2 copy vpt 180 270 arc closepath fill
	vpt 0 360 arc} bind def
/C6 {BL [] 0 setdash 2 copy moveto
	2 copy vpt 90 270 arc closepath fill
	vpt 0 360 arc closepath} bind def
/C7 {BL [] 0 setdash 2 copy moveto
	2 copy vpt 0 270 arc closepath fill
	vpt 0 360 arc closepath} bind def
/C8 {BL [] 0 setdash 2 copy moveto
	2 copy vpt 270 360 arc closepath fill
	vpt 0 360 arc closepath} bind def
/C9 {BL [] 0 setdash 2 copy moveto
	2 copy vpt 270 450 arc closepath fill
	vpt 0 360 arc closepath} bind def
/C10 {BL [] 0 setdash 2 copy 2 copy moveto vpt 270 360 arc closepath fill
	2 copy moveto
	2 copy vpt 90 180 arc closepath fill
	vpt 0 360 arc closepath} bind def
/C11 {BL [] 0 setdash 2 copy moveto
	2 copy vpt 0 180 arc closepath fill
	2 copy moveto
	2 copy vpt 270 360 arc closepath fill
	vpt 0 360 arc closepath} bind def
/C12 {BL [] 0 setdash 2 copy moveto
	2 copy vpt 180 360 arc closepath fill
	vpt 0 360 arc closepath} bind def
/C13 {BL [] 0 setdash 2 copy moveto
	2 copy vpt 0 90 arc closepath fill
	2 copy moveto
	2 copy vpt 180 360 arc closepath fill
	vpt 0 360 arc closepath} bind def
/C14 {BL [] 0 setdash 2 copy moveto
	2 copy vpt 90 360 arc closepath fill
	vpt 0 360 arc} bind def
/C15 {BL [] 0 setdash 2 copy vpt 0 360 arc closepath fill
	vpt 0 360 arc closepath} bind def
/Rec {newpath 4 2 roll moveto 1 index 0 rlineto 0 exch rlineto
	neg 0 rlineto closepath} bind def
/Square {dup Rec} bind def
/Bsquare {vpt sub exch vpt sub exch vpt2 Square} bind def
/S0 {BL [] 0 setdash 2 copy moveto 0 vpt rlineto BL Bsquare} bind def
/S1 {BL [] 0 setdash 2 copy vpt Square fill Bsquare} bind def
/S2 {BL [] 0 setdash 2 copy exch vpt sub exch vpt Square fill Bsquare} bind def
/S3 {BL [] 0 setdash 2 copy exch vpt sub exch vpt2 vpt Rec fill Bsquare} bind def
/S4 {BL [] 0 setdash 2 copy exch vpt sub exch vpt sub vpt Square fill Bsquare} bind def
/S5 {BL [] 0 setdash 2 copy 2 copy vpt Square fill
	exch vpt sub exch vpt sub vpt Square fill Bsquare} bind def
/S6 {BL [] 0 setdash 2 copy exch vpt sub exch vpt sub vpt vpt2 Rec fill Bsquare} bind def
/S7 {BL [] 0 setdash 2 copy exch vpt sub exch vpt sub vpt vpt2 Rec fill
	2 copy vpt Square fill Bsquare} bind def
/S8 {BL [] 0 setdash 2 copy vpt sub vpt Square fill Bsquare} bind def
/S9 {BL [] 0 setdash 2 copy vpt sub vpt vpt2 Rec fill Bsquare} bind def
/S10 {BL [] 0 setdash 2 copy vpt sub vpt Square fill 2 copy exch vpt sub exch vpt Square fill
	Bsquare} bind def
/S11 {BL [] 0 setdash 2 copy vpt sub vpt Square fill 2 copy exch vpt sub exch vpt2 vpt Rec fill
	Bsquare} bind def
/S12 {BL [] 0 setdash 2 copy exch vpt sub exch vpt sub vpt2 vpt Rec fill Bsquare} bind def
/S13 {BL [] 0 setdash 2 copy exch vpt sub exch vpt sub vpt2 vpt Rec fill
	2 copy vpt Square fill Bsquare} bind def
/S14 {BL [] 0 setdash 2 copy exch vpt sub exch vpt sub vpt2 vpt Rec fill
	2 copy exch vpt sub exch vpt Square fill Bsquare} bind def
/S15 {BL [] 0 setdash 2 copy Bsquare fill Bsquare} bind def
/D0 {gsave translate 45 rotate 0 0 S0 stroke grestore} bind def
/D1 {gsave translate 45 rotate 0 0 S1 stroke grestore} bind def
/D2 {gsave translate 45 rotate 0 0 S2 stroke grestore} bind def
/D3 {gsave translate 45 rotate 0 0 S3 stroke grestore} bind def
/D4 {gsave translate 45 rotate 0 0 S4 stroke grestore} bind def
/D5 {gsave translate 45 rotate 0 0 S5 stroke grestore} bind def
/D6 {gsave translate 45 rotate 0 0 S6 stroke grestore} bind def
/D7 {gsave translate 45 rotate 0 0 S7 stroke grestore} bind def
/D8 {gsave translate 45 rotate 0 0 S8 stroke grestore} bind def
/D9 {gsave translate 45 rotate 0 0 S9 stroke grestore} bind def
/D10 {gsave translate 45 rotate 0 0 S10 stroke grestore} bind def
/D11 {gsave translate 45 rotate 0 0 S11 stroke grestore} bind def
/D12 {gsave translate 45 rotate 0 0 S12 stroke grestore} bind def
/D13 {gsave translate 45 rotate 0 0 S13 stroke grestore} bind def
/D14 {gsave translate 45 rotate 0 0 S14 stroke grestore} bind def
/D15 {gsave translate 45 rotate 0 0 S15 stroke grestore} bind def
/DiaE {stroke [] 0 setdash vpt add M
  hpt neg vpt neg V hpt vpt neg V
  hpt vpt V hpt neg vpt V closepath stroke} def
/BoxE {stroke [] 0 setdash exch hpt sub exch vpt add M
  0 vpt2 neg V hpt2 0 V 0 vpt2 V
  hpt2 neg 0 V closepath stroke} def
/TriUE {stroke [] 0 setdash vpt 1.12 mul add M
  hpt neg vpt -1.62 mul V
  hpt 2 mul 0 V
  hpt neg vpt 1.62 mul V closepath stroke} def
/TriDE {stroke [] 0 setdash vpt 1.12 mul sub M
  hpt neg vpt 1.62 mul V
  hpt 2 mul 0 V
  hpt neg vpt -1.62 mul V closepath stroke} def
/PentE {stroke [] 0 setdash gsave
  translate 0 hpt M 4 {72 rotate 0 hpt L} repeat
  closepath stroke grestore} def
/CircE {stroke [] 0 setdash 
  hpt 0 360 arc stroke} def
/Opaque {gsave closepath 1 setgray fill grestore 0 setgray closepath} def
/DiaW {stroke [] 0 setdash vpt add M
  hpt neg vpt neg V hpt vpt neg V
  hpt vpt V hpt neg vpt V Opaque stroke} def
/BoxW {stroke [] 0 setdash exch hpt sub exch vpt add M
  0 vpt2 neg V hpt2 0 V 0 vpt2 V
  hpt2 neg 0 V Opaque stroke} def
/TriUW {stroke [] 0 setdash vpt 1.12 mul add M
  hpt neg vpt -1.62 mul V
  hpt 2 mul 0 V
  hpt neg vpt 1.62 mul V Opaque stroke} def
/TriDW {stroke [] 0 setdash vpt 1.12 mul sub M
  hpt neg vpt 1.62 mul V
  hpt 2 mul 0 V
  hpt neg vpt -1.62 mul V Opaque stroke} def
/PentW {stroke [] 0 setdash gsave
  translate 0 hpt M 4 {72 rotate 0 hpt L} repeat
  Opaque stroke grestore} def
/CircW {stroke [] 0 setdash 
  hpt 0 360 arc Opaque stroke} def
/BoxFill {gsave Rec 1 setgray fill grestore} def
/Density {
  /Fillden exch def
  currentrgbcolor
  /ColB exch def /ColG exch def /ColR exch def
  /ColR ColR Fillden mul Fillden sub 1 add def
  /ColG ColG Fillden mul Fillden sub 1 add def
  /ColB ColB Fillden mul Fillden sub 1 add def
  ColR ColG ColB setrgbcolor} def
/BoxColFill {gsave Rec PolyFill} def
/PolyFill {gsave Density fill grestore grestore} def
/h {rlineto rlineto rlineto gsave closepath fill grestore} bind def
%
% PostScript Level 1 Pattern Fill routine for rectangles
% Usage: x y w h s a XX PatternFill
%	x,y = lower left corner of box to be filled
%	w,h = width and height of box
%	  a = angle in degrees between lines and x-axis
%	 XX = 0/1 for no/yes cross-hatch
%
/PatternFill {gsave /PFa [ 9 2 roll ] def
  PFa 0 get PFa 2 get 2 div add PFa 1 get PFa 3 get 2 div add translate
  PFa 2 get -2 div PFa 3 get -2 div PFa 2 get PFa 3 get Rec
  TransparentPatterns {} {gsave 1 setgray fill grestore} ifelse
  clip
  currentlinewidth 0.5 mul setlinewidth
  /PFs PFa 2 get dup mul PFa 3 get dup mul add sqrt def
  0 0 M PFa 5 get rotate PFs -2 div dup translate
  0 1 PFs PFa 4 get div 1 add floor cvi
	{PFa 4 get mul 0 M 0 PFs V} for
  0 PFa 6 get ne {
	0 1 PFs PFa 4 get div 1 add floor cvi
	{PFa 4 get mul 0 2 1 roll M PFs 0 V} for
 } if
  stroke grestore} def
%
/languagelevel where
 {pop languagelevel} {1} ifelse
dup 2 lt
	{/InterpretLevel1 true def
	 /InterpretLevel3 false def}
	{/InterpretLevel1 Level1 def
	 2 gt
	    {/InterpretLevel3 Level3 def}
	    {/InterpretLevel3 false def}
	 ifelse }
 ifelse
%
% PostScript level 2 pattern fill definitions
%
/Level2PatternFill {
/Tile8x8 {/PaintType 2 /PatternType 1 /TilingType 1 /BBox [0 0 8 8] /XStep 8 /YStep 8}
	bind def
/KeepColor {currentrgbcolor [/Pattern /DeviceRGB] setcolorspace} bind def
<< Tile8x8
 /PaintProc {0.5 setlinewidth pop 0 0 M 8 8 L 0 8 M 8 0 L stroke} 
>> matrix makepattern
/Pat1 exch def
<< Tile8x8
 /PaintProc {0.5 setlinewidth pop 0 0 M 8 8 L 0 8 M 8 0 L stroke
	0 4 M 4 8 L 8 4 L 4 0 L 0 4 L stroke}
>> matrix makepattern
/Pat2 exch def
<< Tile8x8
 /PaintProc {0.5 setlinewidth pop 0 0 M 0 8 L
	8 8 L 8 0 L 0 0 L fill}
>> matrix makepattern
/Pat3 exch def
<< Tile8x8
 /PaintProc {0.5 setlinewidth pop -4 8 M 8 -4 L
	0 12 M 12 0 L stroke}
>> matrix makepattern
/Pat4 exch def
<< Tile8x8
 /PaintProc {0.5 setlinewidth pop -4 0 M 8 12 L
	0 -4 M 12 8 L stroke}
>> matrix makepattern
/Pat5 exch def
<< Tile8x8
 /PaintProc {0.5 setlinewidth pop -2 8 M 4 -4 L
	0 12 M 8 -4 L 4 12 M 10 0 L stroke}
>> matrix makepattern
/Pat6 exch def
<< Tile8x8
 /PaintProc {0.5 setlinewidth pop -2 0 M 4 12 L
	0 -4 M 8 12 L 4 -4 M 10 8 L stroke}
>> matrix makepattern
/Pat7 exch def
<< Tile8x8
 /PaintProc {0.5 setlinewidth pop 8 -2 M -4 4 L
	12 0 M -4 8 L 12 4 M 0 10 L stroke}
>> matrix makepattern
/Pat8 exch def
<< Tile8x8
 /PaintProc {0.5 setlinewidth pop 0 -2 M 12 4 L
	-4 0 M 12 8 L -4 4 M 8 10 L stroke}
>> matrix makepattern
/Pat9 exch def
/Pattern1 {PatternBgnd KeepColor Pat1 setpattern} bind def
/Pattern2 {PatternBgnd KeepColor Pat2 setpattern} bind def
/Pattern3 {PatternBgnd KeepColor Pat3 setpattern} bind def
/Pattern4 {PatternBgnd KeepColor Landscape {Pat5} {Pat4} ifelse setpattern} bind def
/Pattern5 {PatternBgnd KeepColor Landscape {Pat4} {Pat5} ifelse setpattern} bind def
/Pattern6 {PatternBgnd KeepColor Landscape {Pat9} {Pat6} ifelse setpattern} bind def
/Pattern7 {PatternBgnd KeepColor Landscape {Pat8} {Pat7} ifelse setpattern} bind def
} def
%
%
%End of PostScript Level 2 code
%
/PatternBgnd {
  TransparentPatterns {} {gsave 1 setgray fill grestore} ifelse
} def
%
% Substitute for Level 2 pattern fill codes with
% grayscale if Level 2 support is not selected.
%
/Level1PatternFill {
/Pattern1 {0.250 Density} bind def
/Pattern2 {0.500 Density} bind def
/Pattern3 {0.750 Density} bind def
/Pattern4 {0.125 Density} bind def
/Pattern5 {0.375 Density} bind def
/Pattern6 {0.625 Density} bind def
/Pattern7 {0.875 Density} bind def
} def
%
% Now test for support of Level 2 code
%
Level1 {Level1PatternFill} {Level2PatternFill} ifelse
%
/Symbol-Oblique /Symbol findfont [1 0 .167 1 0 0] makefont
dup length dict begin {1 index /FID eq {pop pop} {def} ifelse} forall
currentdict end definefont pop
%
/Metrics {ExtendTextBox Gswidth} def
/Lwidth {currentpoint stroke M 0 vshift R Metrics} def
/Rwidth {currentpoint stroke M dup stringwidth pop neg vshift R Metrics} def
/Cwidth {currentpoint stroke M dup stringwidth pop -2 div vshift R Metrics} def
/GLwidth {currentpoint stroke M 0 vshift R {ExtendTextBox} forall} def
/GRwidth {currentpoint stroke M dup Gwidth vshift R {ExtendTextBox} forall} def
/GCwidth {currentpoint stroke M dup Gwidth 2 div vshift R {ExtendTextBox} forall} def
/GLwidth2 {0 Gwidth AddGlyphWidth} def
/GRwidth2 {Gwidth -1 mul 0 AddGlyphWidth} def
/GCwidth2 {Gwidth 2 div dup -1 mul AddGlyphWidth} def
/AddGlyphWidth { dup TBx2 gt {userdict /TBx2 3 -1 roll put} {pop} ifelse
                 dup TBx1 lt {userdict /TBx1 3 -1 roll put} {pop} ifelse } def
/MFshow {
   { dup 5 get 3 ge
     { 5 get 3 eq {gsave} {grestore} ifelse }
     {dup dup 0 get findfont exch 1 get scalefont setfont
     [ currentpoint ] exch dup 2 get 0 exch R dup 5 get 2 ne {dup dup 6
     get exch 4 get {textshow} {Metrics pop 0 R} ifelse }if dup 5 get 0 eq
     {dup 3 get {2 get neg 0 exch R pop} {pop aload pop M} ifelse} {dup 5
     get 1 eq {dup 2 get exch dup 3 get exch 6 get Gswidth pop -2 div
     dup 0 R} {dup 6 get Gswidth pop -2 div 0 R 6 get
     textshow 2 index {aload pop M neg 3 -1 roll neg R pop pop} {pop pop pop
     pop aload pop M} ifelse }ifelse }ifelse }
     ifelse }
   forall} def
/Gswidth {dup type /stringtype eq {stringwidth} {pop (n) stringwidth} ifelse} def
/MFwidth {0 exch { dup 5 get 3 ge { 5 get 3 eq { 0 } { pop } ifelse }
 {dup 3 get{dup dup 0 get findfont exch 1 get scalefont setfont
     6 get Gswidth pop add} {pop} ifelse} ifelse} forall} def
/MLshow { currentpoint stroke M
  0 exch R
  Blacktext {gsave 0 setgray MFshow grestore} {MFshow} ifelse } bind def
/MRshow { currentpoint stroke M
  exch dup MFwidth neg 3 -1 roll R
  Blacktext {gsave 0 setgray MFshow grestore} {MFshow} ifelse } bind def
/MCshow { currentpoint stroke M
  exch dup MFwidth -2 div 3 -1 roll R
  Blacktext {gsave 0 setgray MFshow grestore} {MFshow} ifelse } bind def
/XYsave    { [( ) 1 2 true false 3 ()] } bind def
/XYrestore { [( ) 1 2 true false 4 ()] } bind def
Level1 SuppressPDFMark or 
{} {
/SDict 10 dict def
systemdict /pdfmark known not {
  userdict /pdfmark systemdict /cleartomark get put
} if
SDict begin [
  /Title (gnuplot_mapField_3Cell.eps)
  /Subject (gnuplot plot)
  /Creator (gnuplot 5.2 patchlevel 2)
%  /Producer (gnuplot)
%  /Keywords ()
  /CreationDate (Tue Aug 27 09:01:52 2019)
  /DOCINFO pdfmark
end
} ifelse
%
% Support for boxed text - Ethan A Merritt Sep 2016
%
/InitTextBox { userdict /TBy2 3 -1 roll put userdict /TBx2 3 -1 roll put
           userdict /TBy1 3 -1 roll put userdict /TBx1 3 -1 roll put
	   /Boxing true def } def
/ExtendTextBox { dup type /stringtype eq
    { Boxing { gsave dup false charpath pathbbox
      dup TBy2 gt {userdict /TBy2 3 -1 roll put} {pop} ifelse
      dup TBx2 gt {userdict /TBx2 3 -1 roll put} {pop} ifelse
      dup TBy1 lt {userdict /TBy1 3 -1 roll put} {pop} ifelse
      dup TBx1 lt {userdict /TBx1 3 -1 roll put} {pop} ifelse
      grestore } if }
    {} ifelse} def
/PopTextBox { newpath TBx1 TBxmargin sub TBy1 TBymargin sub M
               TBx1 TBxmargin sub TBy2 TBymargin add L
	       TBx2 TBxmargin add TBy2 TBymargin add L
	       TBx2 TBxmargin add TBy1 TBymargin sub L closepath } def
/DrawTextBox { PopTextBox stroke /Boxing false def} def
/FillTextBox { gsave PopTextBox fill grestore /Boxing false def} def
0 0 0 0 InitTextBox
/TBxmargin 20 def
/TBymargin 20 def
/Boxing false def
/textshow { ExtendTextBox Gshow } def
%
end
%%EndProlog
%%Page: 1 1
gnudict begin
gsave
doclip
50 50 translate
0.050 0.050 scale
0 setgray
newpath
(Times-Roman) findfont 120 scalefont setfont
BackgroundColor 0 lt 3 1 roll 0 lt exch 0 lt or or not {BackgroundColor C 1.000 0 0 4704.00 2266.00 BoxColFill} if
1.000 UL
LTb
LCb setrgbcolor
660 384 M
63 0 V
3764 0 R
-63 0 V
stroke
588 384 M
[ [(Times-Roman) 120.0 0.0 true true 0 (-5000)]
] -40.0 MRshow
1.000 UL
LTb
LCb setrgbcolor
660 604 M
63 0 V
3764 0 R
-63 0 V
stroke
588 604 M
[ [(Times-Roman) 120.0 0.0 true true 0 (-4000)]
] -40.0 MRshow
1.000 UL
LTb
LCb setrgbcolor
660 824 M
63 0 V
3764 0 R
-63 0 V
stroke
588 824 M
[ [(Times-Roman) 120.0 0.0 true true 0 (-3000)]
] -40.0 MRshow
1.000 UL
LTb
LCb setrgbcolor
660 1044 M
63 0 V
3764 0 R
-63 0 V
stroke
588 1044 M
[ [(Times-Roman) 120.0 0.0 true true 0 (-2000)]
] -40.0 MRshow
1.000 UL
LTb
LCb setrgbcolor
660 1265 M
63 0 V
3764 0 R
-63 0 V
stroke
588 1265 M
[ [(Times-Roman) 120.0 0.0 true true 0 (-1000)]
] -40.0 MRshow
1.000 UL
LTb
LCb setrgbcolor
660 1485 M
63 0 V
3764 0 R
-63 0 V
stroke
588 1485 M
[ [(Times-Roman) 120.0 0.0 true true 0 ( 0)]
] -40.0 MRshow
1.000 UL
LTb
LCb setrgbcolor
660 1705 M
63 0 V
3764 0 R
-63 0 V
stroke
588 1705 M
[ [(Times-Roman) 120.0 0.0 true true 0 ( 1000)]
] -40.0 MRshow
1.000 UL
LTb
LCb setrgbcolor
660 1925 M
63 0 V
3764 0 R
-63 0 V
stroke
588 1925 M
[ [(Times-Roman) 120.0 0.0 true true 0 ( 2000)]
] -40.0 MRshow
1.000 UL
LTb
LCb setrgbcolor
660 2145 M
63 0 V
3764 0 R
-63 0 V
stroke
588 2145 M
[ [(Times-Roman) 120.0 0.0 true true 0 ( 3000)]
] -40.0 MRshow
1.000 UL
LTb
LCb setrgbcolor
701 384 M
0 63 V
0 1698 R
0 -63 V
stroke
701 264 M
[ [(Times-Roman) 120.0 0.0 true true 0 ( 0)]
] -40.0 MCshow
1.000 UL
LTb
LCb setrgbcolor
1113 384 M
0 63 V
0 1698 R
0 -63 V
stroke
1113 264 M
[ [(Times-Roman) 120.0 0.0 true true 0 ( 5)]
] -40.0 MCshow
1.000 UL
LTb
LCb setrgbcolor
1524 384 M
0 63 V
0 1698 R
0 -63 V
stroke
1524 264 M
[ [(Times-Roman) 120.0 0.0 true true 0 ( 10)]
] -40.0 MCshow
1.000 UL
LTb
LCb setrgbcolor
1936 384 M
0 63 V
0 1698 R
0 -63 V
stroke
1936 264 M
[ [(Times-Roman) 120.0 0.0 true true 0 ( 15)]
] -40.0 MCshow
1.000 UL
LTb
LCb setrgbcolor
2347 384 M
0 63 V
0 1698 R
0 -63 V
stroke
2347 264 M
[ [(Times-Roman) 120.0 0.0 true true 0 ( 20)]
] -40.0 MCshow
1.000 UL
LTb
LCb setrgbcolor
2759 384 M
0 63 V
0 1698 R
0 -63 V
stroke
2759 264 M
[ [(Times-Roman) 120.0 0.0 true true 0 ( 25)]
] -40.0 MCshow
1.000 UL
LTb
LCb setrgbcolor
3170 384 M
0 63 V
0 1698 R
0 -63 V
stroke
3170 264 M
[ [(Times-Roman) 120.0 0.0 true true 0 ( 30)]
] -40.0 MCshow
1.000 UL
LTb
LCb setrgbcolor
3582 384 M
0 63 V
0 1698 R
0 -63 V
stroke
3582 264 M
[ [(Times-Roman) 120.0 0.0 true true 0 ( 35)]
] -40.0 MCshow
1.000 UL
LTb
LCb setrgbcolor
3993 384 M
0 63 V
0 1698 R
0 -63 V
stroke
3993 264 M
[ [(Times-Roman) 120.0 0.0 true true 0 ( 40)]
] -40.0 MCshow
1.000 UL
LTb
LCb setrgbcolor
4405 384 M
0 63 V
0 1698 R
0 -63 V
stroke
4405 264 M
[ [(Times-Roman) 120.0 0.0 true true 0 ( 45)]
] -40.0 MCshow
1.000 UL
LTb
LCb setrgbcolor
1.000 UL
LTB
LCb setrgbcolor
660 2145 N
660 384 L
3827 0 V
0 1761 V
-3827 0 V
Z stroke
1.000 UP
1.000 UL
LTb
LCb setrgbcolor
LCb setrgbcolor
108 1264 M
currentpoint gsave translate -270 rotate 0 0 moveto
[ [(Times-Roman) 120.0 0.0 true true 0 (B)]
[(Times-Roman) 96.0 -36.0 true true 0 (y)]
[(Times-Roman) 120.0 0.0 true true 0 ( /G)]
] -28.0 MCshow
grestore
LTb
LCb setrgbcolor
2573 84 M
[ [(Times-Roman) 120.0 0.0 true true 0 (z /cm)]
] -40.0 MCshow
LTb
% Begin plot #1
0.200 UP
1.000 UL
LTb
0.58 0.00 0.83 C LCb setrgbcolor
1164 987 M
[ [(Times-Roman) 120.0 0.0 true true 0 (x=+2cm)]
] -40.0 MRshow
0.200 UP
1.000 UL
LTb
0.58 0.00 0.83 C 1236 987 M
351 0 V
701 1460 M
8 0 V
9 0 V
8 0 V
8 1 V
8 0 V
9 0 V
8 0 V
8 0 V
8 0 V
8 0 V
9 -1 V
8 0 V
8 0 V
8 -1 V
9 0 V
8 -1 V
8 0 V
8 -1 V
9 -1 V
8 -1 V
8 -1 V
8 -1 V
8 -1 V
9 -1 V
8 -2 V
8 -1 V
8 -2 V
9 -2 V
8 -2 V
8 -3 V
8 -2 V
9 -3 V
8 -3 V
8 -3 V
8 -3 V
8 -4 V
9 -4 V
8 -4 V
8 -4 V
8 -5 V
9 -5 V
8 -5 V
8 -6 V
8 -6 V
9 -7 V
8 -6 V
8 -7 V
8 -8 V
8 -8 V
9 -8 V
8 -9 V
8 -9 V
8 -9 V
9 -10 V
8 -10 V
8 -10 V
8 -11 V
8 -10 V
9 -11 V
8 -11 V
8 -11 V
8 -11 V
9 -11 V
8 -11 V
8 -11 V
8 -10 V
9 -11 V
8 -10 V
8 -10 V
8 -10 V
8 -9 V
9 -10 V
8 -8 V
8 -9 V
8 -8 V
9 -7 V
8 -8 V
8 -7 V
8 -6 V
9 -6 V
8 -6 V
8 -6 V
8 -5 V
8 -5 V
9 -5 V
8 -4 V
8 -4 V
8 -4 V
9 -3 V
8 -4 V
8 -3 V
8 -3 V
9 -2 V
8 -3 V
8 -2 V
8 -2 V
8 -2 V
9 -2 V
8 -2 V
8 -1 V
8 -2 V
9 -1 V
8 -2 V
8 -1 V
8 -1 V
9 -1 V
8 -1 V
8 -1 V
8 -1 V
8 0 V
9 -1 V
8 -1 V
8 0 V
8 -1 V
9 0 V
8 -1 V
8 0 V
8 -1 V
9 0 V
8 0 V
8 -1 V
8 0 V
8 0 V
9 0 V
8 0 V
8 -1 V
8 0 V
9 0 V
8 0 V
8 0 V
8 0 V
9 0 V
8 0 V
8 1 V
8 0 V
8 0 V
9 0 V
8 0 V
8 1 V
8 0 V
9 0 V
8 1 V
8 0 V
8 1 V
9 0 V
8 1 V
8 0 V
8 1 V
8 1 V
9 1 V
8 0 V
8 1 V
8 1 V
9 2 V
8 1 V
8 1 V
8 2 V
9 1 V
8 2 V
8 2 V
8 2 V
8 2 V
9 2 V
8 3 V
8 2 V
8 3 V
9 3 V
8 4 V
8 3 V
8 4 V
8 4 V
9 4 V
8 5 V
8 5 V
8 5 V
9 6 V
8 6 V
8 6 V
8 6 V
9 7 V
8 8 V
8 7 V
8 8 V
8 9 V
9 8 V
8 9 V
8 10 V
8 9 V
9 10 V
8 10 V
8 11 V
8 10 V
9 11 V
8 10 V
8 11 V
8 10 V
8 11 V
9 10 V
8 10 V
8 10 V
8 10 V
9 9 V
8 9 V
8 9 V
8 9 V
9 8 V
8 7 V
8 8 V
8 7 V
8 6 V
9 6 V
8 6 V
8 5 V
8 5 V
9 5 V
8 4 V
8 4 V
8 4 V
9 3 V
8 3 V
8 3 V
8 3 V
8 2 V
9 2 V
8 2 V
8 1 V
8 1 V
9 2 V
8 1 V
8 0 V
8 1 V
9 1 V
8 0 V
8 1 V
8 0 V
8 0 V
9 0 V
8 0 V
8 0 V
8 0 V
9 0 V
8 1 V
8 0 V
8 0 V
9 0 V
8 0 V
8 0 V
stroke 2734 1411 M
8 1 V
8 0 V
9 0 V
8 1 V
8 1 V
8 1 V
9 1 V
8 1 V
8 1 V
8 2 V
9 1 V
8 2 V
8 2 V
8 2 V
8 2 V
9 2 V
8 2 V
8 3 V
8 2 V
9 2 V
8 2 V
8 3 V
8 2 V
9 2 V
8 2 V
8 2 V
8 2 V
8 2 V
9 2 V
8 2 V
8 2 V
8 2 V
9 1 V
8 2 V
8 1 V
8 2 V
9 1 V
8 1 V
8 2 V
8 1 V
8 1 V
9 2 V
8 1 V
8 1 V
8 1 V
9 2 V
8 1 V
8 1 V
8 2 V
8 1 V
9 1 V
8 2 V
8 1 V
8 1 V
9 2 V
8 1 V
8 2 V
8 1 V
9 2 V
8 1 V
8 2 V
8 1 V
8 2 V
9 2 V
8 1 V
8 2 V
8 2 V
9 2 V
8 1 V
8 2 V
8 2 V
9 2 V
8 2 V
8 2 V
8 2 V
8 2 V
9 2 V
8 2 V
8 2 V
8 2 V
9 2 V
8 2 V
8 3 V
8 2 V
9 2 V
8 2 V
8 2 V
8 3 V
8 2 V
9 2 V
8 3 V
8 2 V
8 2 V
9 3 V
8 2 V
8 2 V
8 2 V
9 3 V
8 2 V
8 2 V
8 3 V
8 2 V
9 2 V
8 2 V
8 2 V
8 3 V
9 2 V
8 2 V
8 2 V
8 2 V
9 1 V
8 2 V
8 2 V
8 1 V
8 1 V
9 2 V
8 1 V
8 1 V
8 0 V
9 1 V
8 0 V
8 0 V
8 0 V
9 -1 V
8 -1 V
8 -1 V
8 -2 V
8 -2 V
9 -3 V
8 -3 V
8 -4 V
8 -5 V
9 -5 V
8 -6 V
8 -6 V
8 -7 V
9 -7 V
8 -8 V
8 -8 V
8 -7 V
8 -8 V
9 -8 V
8 -7 V
8 -6 V
8 -6 V
9 -6 V
8 -5 V
8 -4 V
8 -4 V
9 -4 V
8 -3 V
8 -3 V
8 -3 V
8 -2 V
9 -2 V
8 -1 V
8 -2 V
8 -1 V
9 -1 V
8 -1 V
8 -1 V
8 -1 V
8 0 V
9 -1 V
8 0 V
8 0 V
8 0 V
9 0 V
8 0 V
8 0 V
8 0 V
9 0 V
8 0 V
8 0 V
8 0 V
8 0 V
9 0 V
8 1 V
8 0 V
8 0 V
9 0 V
8 0 V
8 1 V
8 0 V
9 0 V
8 0 V
8 0 V
8 1 V
8 0 V
9 0 V
8 0 V
8 0 V
8 0 V
9 0 V
8 0 V
8 0 V
8 0 V
9 0 V
8 0 V
8 0 V
8 0 V
8 0 V
9 0 V
701 1460 Pent
709 1460 Pent
718 1460 Pent
726 1460 Pent
734 1461 Pent
742 1461 Pent
751 1461 Pent
759 1461 Pent
767 1461 Pent
775 1461 Pent
783 1461 Pent
792 1460 Pent
800 1460 Pent
808 1460 Pent
816 1459 Pent
825 1459 Pent
833 1458 Pent
841 1458 Pent
849 1457 Pent
858 1456 Pent
866 1455 Pent
874 1454 Pent
882 1453 Pent
890 1452 Pent
899 1451 Pent
907 1449 Pent
915 1448 Pent
923 1446 Pent
932 1444 Pent
940 1442 Pent
948 1439 Pent
956 1437 Pent
965 1434 Pent
973 1431 Pent
981 1428 Pent
989 1425 Pent
997 1421 Pent
1006 1417 Pent
1014 1413 Pent
1022 1409 Pent
1030 1404 Pent
1039 1399 Pent
1047 1394 Pent
1055 1388 Pent
1063 1382 Pent
1072 1375 Pent
1080 1369 Pent
1088 1362 Pent
1096 1354 Pent
1104 1346 Pent
1113 1338 Pent
1121 1329 Pent
1129 1320 Pent
1137 1311 Pent
1146 1301 Pent
1154 1291 Pent
1162 1281 Pent
1170 1270 Pent
1178 1260 Pent
1187 1249 Pent
1195 1238 Pent
1203 1227 Pent
1211 1216 Pent
1220 1205 Pent
1228 1194 Pent
1236 1183 Pent
1244 1173 Pent
1253 1162 Pent
1261 1152 Pent
1269 1142 Pent
1277 1132 Pent
1285 1123 Pent
1294 1113 Pent
1302 1105 Pent
1310 1096 Pent
1318 1088 Pent
1327 1081 Pent
1335 1073 Pent
1343 1066 Pent
1351 1060 Pent
1360 1054 Pent
1368 1048 Pent
1376 1042 Pent
1384 1037 Pent
1392 1032 Pent
1401 1027 Pent
1409 1023 Pent
1417 1019 Pent
1425 1015 Pent
1434 1012 Pent
1442 1008 Pent
1450 1005 Pent
1458 1002 Pent
1467 1000 Pent
1475 997 Pent
1483 995 Pent
1491 993 Pent
1499 991 Pent
1508 989 Pent
1516 987 Pent
1524 986 Pent
1532 984 Pent
1541 983 Pent
1549 981 Pent
1557 980 Pent
1565 979 Pent
1574 978 Pent
1582 977 Pent
1590 976 Pent
1598 975 Pent
1606 975 Pent
1615 974 Pent
1623 973 Pent
1631 973 Pent
1639 972 Pent
1648 972 Pent
1656 971 Pent
1664 971 Pent
1672 970 Pent
1681 970 Pent
1689 970 Pent
1697 969 Pent
1705 969 Pent
1713 969 Pent
1722 969 Pent
1730 969 Pent
1738 968 Pent
1746 968 Pent
1755 968 Pent
1763 968 Pent
1771 968 Pent
1779 968 Pent
1788 968 Pent
1796 968 Pent
1804 969 Pent
1812 969 Pent
1820 969 Pent
1829 969 Pent
1837 969 Pent
1845 970 Pent
1853 970 Pent
1862 970 Pent
1870 971 Pent
1878 971 Pent
1886 972 Pent
1895 972 Pent
1903 973 Pent
1911 973 Pent
1919 974 Pent
1927 975 Pent
1936 976 Pent
1944 976 Pent
1952 977 Pent
1960 978 Pent
1969 980 Pent
1977 981 Pent
1985 982 Pent
1993 984 Pent
2002 985 Pent
2010 987 Pent
2018 989 Pent
2026 991 Pent
2034 993 Pent
2043 995 Pent
2051 998 Pent
2059 1000 Pent
2067 1003 Pent
2076 1006 Pent
2084 1010 Pent
2092 1013 Pent
2100 1017 Pent
2108 1021 Pent
2117 1025 Pent
2125 1030 Pent
2133 1035 Pent
2141 1040 Pent
2150 1046 Pent
2158 1052 Pent
2166 1058 Pent
2174 1064 Pent
2183 1071 Pent
2191 1079 Pent
2199 1086 Pent
2207 1094 Pent
2215 1103 Pent
2224 1111 Pent
2232 1120 Pent
2240 1130 Pent
2248 1139 Pent
2257 1149 Pent
2265 1159 Pent
2273 1170 Pent
2281 1180 Pent
2290 1191 Pent
2298 1201 Pent
2306 1212 Pent
2314 1222 Pent
2322 1233 Pent
2331 1243 Pent
2339 1253 Pent
2347 1263 Pent
2355 1273 Pent
2364 1282 Pent
2372 1291 Pent
2380 1300 Pent
2388 1309 Pent
2397 1317 Pent
2405 1324 Pent
2413 1332 Pent
2421 1339 Pent
2429 1345 Pent
2438 1351 Pent
2446 1357 Pent
2454 1362 Pent
2462 1367 Pent
2471 1372 Pent
2479 1376 Pent
2487 1380 Pent
2495 1384 Pent
2504 1387 Pent
2512 1390 Pent
2520 1393 Pent
2528 1396 Pent
2536 1398 Pent
2545 1400 Pent
2553 1402 Pent
2561 1403 Pent
2569 1404 Pent
2578 1406 Pent
2586 1407 Pent
2594 1407 Pent
2602 1408 Pent
2611 1409 Pent
2619 1409 Pent
2627 1410 Pent
2635 1410 Pent
2643 1410 Pent
2652 1410 Pent
2660 1410 Pent
2668 1410 Pent
2676 1410 Pent
2685 1410 Pent
2693 1411 Pent
2701 1411 Pent
2709 1411 Pent
2718 1411 Pent
2726 1411 Pent
2734 1411 Pent
2742 1412 Pent
2750 1412 Pent
2759 1412 Pent
2767 1413 Pent
2775 1414 Pent
2783 1415 Pent
2792 1416 Pent
2800 1417 Pent
2808 1418 Pent
2816 1420 Pent
2825 1421 Pent
2833 1423 Pent
2841 1425 Pent
2849 1427 Pent
2857 1429 Pent
2866 1431 Pent
2874 1433 Pent
2882 1436 Pent
2890 1438 Pent
2899 1440 Pent
2907 1442 Pent
2915 1445 Pent
2923 1447 Pent
2932 1449 Pent
2940 1451 Pent
2948 1453 Pent
2956 1455 Pent
2964 1457 Pent
2973 1459 Pent
2981 1461 Pent
2989 1463 Pent
2997 1465 Pent
3006 1466 Pent
3014 1468 Pent
3022 1469 Pent
3030 1471 Pent
3039 1472 Pent
3047 1473 Pent
3055 1475 Pent
3063 1476 Pent
3071 1477 Pent
3080 1479 Pent
3088 1480 Pent
3096 1481 Pent
3104 1482 Pent
3113 1484 Pent
3121 1485 Pent
3129 1486 Pent
3137 1488 Pent
3145 1489 Pent
3154 1490 Pent
3162 1492 Pent
3170 1493 Pent
3178 1494 Pent
3187 1496 Pent
3195 1497 Pent
3203 1499 Pent
3211 1500 Pent
3220 1502 Pent
3228 1503 Pent
3236 1505 Pent
3244 1506 Pent
3252 1508 Pent
3261 1510 Pent
3269 1511 Pent
3277 1513 Pent
3285 1515 Pent
3294 1517 Pent
3302 1518 Pent
3310 1520 Pent
3318 1522 Pent
3327 1524 Pent
3335 1526 Pent
3343 1528 Pent
3351 1530 Pent
3359 1532 Pent
3368 1534 Pent
3376 1536 Pent
3384 1538 Pent
3392 1540 Pent
3401 1542 Pent
3409 1544 Pent
3417 1547 Pent
3425 1549 Pent
3434 1551 Pent
3442 1553 Pent
3450 1555 Pent
3458 1558 Pent
3466 1560 Pent
3475 1562 Pent
3483 1565 Pent
3491 1567 Pent
3499 1569 Pent
3508 1572 Pent
3516 1574 Pent
3524 1576 Pent
3532 1578 Pent
3541 1581 Pent
3549 1583 Pent
3557 1585 Pent
3565 1588 Pent
3573 1590 Pent
3582 1592 Pent
3590 1594 Pent
3598 1596 Pent
3606 1599 Pent
3615 1601 Pent
3623 1603 Pent
3631 1605 Pent
3639 1607 Pent
3648 1608 Pent
3656 1610 Pent
3664 1612 Pent
3672 1613 Pent
3680 1614 Pent
3689 1616 Pent
3697 1617 Pent
3705 1618 Pent
3713 1618 Pent
3722 1619 Pent
3730 1619 Pent
3738 1619 Pent
3746 1619 Pent
3755 1618 Pent
3763 1617 Pent
3771 1616 Pent
3779 1614 Pent
3787 1612 Pent
3796 1609 Pent
3804 1606 Pent
3812 1602 Pent
3820 1597 Pent
3829 1592 Pent
3837 1586 Pent
3845 1580 Pent
3853 1573 Pent
3862 1566 Pent
3870 1558 Pent
3878 1550 Pent
3886 1543 Pent
3894 1535 Pent
3903 1527 Pent
3911 1520 Pent
3919 1514 Pent
3927 1508 Pent
3936 1502 Pent
3944 1497 Pent
3952 1493 Pent
3960 1489 Pent
3969 1485 Pent
3977 1482 Pent
3985 1479 Pent
3993 1476 Pent
4001 1474 Pent
4010 1472 Pent
4018 1471 Pent
4026 1469 Pent
4034 1468 Pent
4043 1467 Pent
4051 1466 Pent
4059 1465 Pent
4067 1464 Pent
4075 1464 Pent
4084 1463 Pent
4092 1463 Pent
4100 1463 Pent
4108 1463 Pent
4117 1463 Pent
4125 1463 Pent
4133 1463 Pent
4141 1463 Pent
4150 1463 Pent
4158 1463 Pent
4166 1463 Pent
4174 1463 Pent
4182 1463 Pent
4191 1463 Pent
4199 1464 Pent
4207 1464 Pent
4215 1464 Pent
4224 1464 Pent
4232 1464 Pent
4240 1465 Pent
4248 1465 Pent
4257 1465 Pent
4265 1465 Pent
4273 1465 Pent
4281 1466 Pent
4289 1466 Pent
4298 1466 Pent
4306 1466 Pent
4314 1466 Pent
4322 1466 Pent
4331 1466 Pent
4339 1466 Pent
4347 1466 Pent
4355 1466 Pent
4364 1466 Pent
4372 1466 Pent
4380 1466 Pent
4388 1466 Pent
4396 1466 Pent
4405 1466 Pent
1411 987 Pent
% End plot #1
% Begin plot #2
0.200 UP
1.000 UL
LTb
0.00 0.62 0.45 C LCb setrgbcolor
1164 867 M
[ [(Times-Roman) 120.0 0.0 true true 0 (x=+1cm)]
] -40.0 MRshow
0.200 UP
1.000 UL
LTb
0.00 0.62 0.45 C 1236 867 M
351 0 V
701 1456 M
8 1 V
9 1 V
8 0 V
8 1 V
8 0 V
9 1 V
8 0 V
8 1 V
8 0 V
8 0 V
9 1 V
8 0 V
8 0 V
8 0 V
9 0 V
8 0 V
8 0 V
8 0 V
9 0 V
8 -1 V
8 0 V
8 0 V
8 -1 V
9 0 V
8 -1 V
8 -1 V
8 0 V
9 -1 V
8 -1 V
8 -1 V
8 -2 V
9 -1 V
8 -1 V
8 -2 V
8 -2 V
8 -1 V
9 -2 V
8 -2 V
8 -3 V
8 -2 V
9 -3 V
8 -2 V
8 -3 V
8 -3 V
9 -3 V
8 -4 V
8 -3 V
8 -4 V
8 -3 V
9 -4 V
8 -5 V
8 -4 V
8 -4 V
9 -5 V
8 -4 V
8 -5 V
8 -5 V
8 -5 V
9 -5 V
8 -4 V
8 -5 V
8 -6 V
9 -5 V
8 -5 V
8 -4 V
8 -5 V
9 -5 V
8 -5 V
8 -5 V
8 -4 V
8 -5 V
9 -4 V
8 -4 V
8 -4 V
8 -4 V
9 -4 V
8 -3 V
8 -4 V
8 -3 V
9 -3 V
8 -3 V
8 -3 V
8 -3 V
8 -2 V
9 -3 V
8 -2 V
8 -2 V
8 -2 V
9 -2 V
8 -2 V
8 -2 V
8 -1 V
9 -2 V
8 -1 V
8 -1 V
8 -2 V
8 -1 V
9 -1 V
8 -1 V
8 -1 V
8 0 V
9 -1 V
8 -1 V
8 -1 V
8 0 V
9 -1 V
8 0 V
8 -1 V
8 0 V
8 -1 V
9 0 V
8 -1 V
8 0 V
8 0 V
9 -1 V
8 0 V
8 0 V
8 0 V
9 -1 V
8 0 V
8 0 V
8 0 V
8 0 V
9 0 V
8 -1 V
8 0 V
8 0 V
9 0 V
8 0 V
8 0 V
8 0 V
9 0 V
8 0 V
8 0 V
8 0 V
8 0 V
9 0 V
8 0 V
8 1 V
8 0 V
9 0 V
8 0 V
8 0 V
8 0 V
9 1 V
8 0 V
8 0 V
8 1 V
8 0 V
9 0 V
8 1 V
8 0 V
8 1 V
9 0 V
8 1 V
8 1 V
8 0 V
9 1 V
8 1 V
8 1 V
8 1 V
8 1 V
9 1 V
8 1 V
8 2 V
8 1 V
9 2 V
8 1 V
8 2 V
8 2 V
8 2 V
9 2 V
8 2 V
8 2 V
8 3 V
9 3 V
8 2 V
8 3 V
8 3 V
9 4 V
8 3 V
8 3 V
8 4 V
8 4 V
9 4 V
8 3 V
8 5 V
8 4 V
9 4 V
8 4 V
8 4 V
8 5 V
9 4 V
8 5 V
8 4 V
8 4 V
8 4 V
9 5 V
8 4 V
8 4 V
8 4 V
9 3 V
8 4 V
8 3 V
8 4 V
9 3 V
8 3 V
8 2 V
8 3 V
8 2 V
9 2 V
8 2 V
8 2 V
8 1 V
9 2 V
8 1 V
8 1 V
8 0 V
9 1 V
8 0 V
8 0 V
8 0 V
8 0 V
9 -1 V
8 -1 V
8 0 V
8 -1 V
9 -2 V
8 -1 V
8 -1 V
8 -2 V
9 -2 V
8 -2 V
8 -2 V
8 -2 V
8 -2 V
9 -2 V
8 -3 V
8 -2 V
8 -3 V
9 -3 V
8 -2 V
8 -3 V
8 -3 V
9 -3 V
8 -3 V
8 -3 V
stroke 2734 1350 M
8 -3 V
8 -3 V
9 -4 V
8 -3 V
8 -3 V
8 -3 V
9 -3 V
8 -3 V
8 -3 V
8 -3 V
9 -3 V
8 -3 V
8 -3 V
8 -3 V
8 -2 V
9 -3 V
8 -2 V
8 -3 V
8 -2 V
9 -3 V
8 -2 V
8 -2 V
8 -2 V
9 -2 V
8 -2 V
8 -2 V
8 -2 V
8 -2 V
9 -1 V
8 -2 V
8 -1 V
8 -2 V
9 -1 V
8 -1 V
8 -1 V
8 -1 V
9 -1 V
8 -1 V
8 -1 V
8 -1 V
8 0 V
9 -1 V
8 0 V
8 0 V
8 0 V
9 0 V
8 0 V
8 0 V
8 0 V
8 0 V
9 0 V
8 1 V
8 0 V
8 1 V
9 0 V
8 1 V
8 1 V
8 1 V
9 1 V
8 1 V
8 1 V
8 1 V
8 1 V
9 2 V
8 1 V
8 1 V
8 2 V
9 1 V
8 2 V
8 2 V
8 1 V
9 2 V
8 2 V
8 2 V
8 2 V
8 2 V
9 2 V
8 2 V
8 2 V
8 2 V
9 3 V
8 2 V
8 2 V
8 3 V
9 2 V
8 2 V
8 3 V
8 3 V
8 2 V
9 3 V
8 3 V
8 2 V
8 3 V
9 3 V
8 3 V
8 3 V
8 2 V
9 3 V
8 3 V
8 3 V
8 3 V
8 3 V
9 3 V
8 3 V
8 3 V
8 4 V
9 3 V
8 3 V
8 3 V
8 3 V
9 3 V
8 3 V
8 3 V
8 3 V
8 2 V
9 3 V
8 3 V
8 3 V
8 2 V
9 3 V
8 2 V
8 2 V
8 2 V
9 2 V
8 2 V
8 2 V
8 1 V
8 1 V
9 1 V
8 1 V
8 1 V
8 1 V
9 0 V
8 1 V
8 0 V
8 0 V
9 0 V
8 0 V
8 -1 V
8 0 V
8 0 V
9 -1 V
8 0 V
8 0 V
8 0 V
9 -1 V
8 0 V
8 0 V
8 0 V
9 1 V
8 0 V
8 0 V
8 1 V
8 0 V
9 1 V
8 0 V
8 1 V
8 1 V
9 0 V
8 1 V
8 1 V
8 1 V
8 1 V
9 1 V
8 1 V
8 1 V
8 1 V
9 1 V
8 0 V
8 1 V
8 1 V
9 1 V
8 1 V
8 1 V
8 1 V
8 1 V
9 1 V
8 1 V
8 0 V
8 1 V
9 1 V
8 1 V
8 0 V
8 1 V
9 1 V
8 0 V
8 1 V
8 0 V
8 1 V
9 0 V
8 1 V
8 0 V
8 0 V
9 1 V
8 0 V
8 0 V
8 1 V
9 0 V
8 0 V
8 0 V
8 0 V
8 0 V
9 0 V
701 1456 Pent
709 1457 Pent
718 1458 Pent
726 1458 Pent
734 1459 Pent
742 1459 Pent
751 1460 Pent
759 1460 Pent
767 1461 Pent
775 1461 Pent
783 1461 Pent
792 1462 Pent
800 1462 Pent
808 1462 Pent
816 1462 Pent
825 1462 Pent
833 1462 Pent
841 1462 Pent
849 1462 Pent
858 1462 Pent
866 1461 Pent
874 1461 Pent
882 1461 Pent
890 1460 Pent
899 1460 Pent
907 1459 Pent
915 1458 Pent
923 1458 Pent
932 1457 Pent
940 1456 Pent
948 1455 Pent
956 1453 Pent
965 1452 Pent
973 1451 Pent
981 1449 Pent
989 1447 Pent
997 1446 Pent
1006 1444 Pent
1014 1442 Pent
1022 1439 Pent
1030 1437 Pent
1039 1434 Pent
1047 1432 Pent
1055 1429 Pent
1063 1426 Pent
1072 1423 Pent
1080 1419 Pent
1088 1416 Pent
1096 1412 Pent
1104 1409 Pent
1113 1405 Pent
1121 1400 Pent
1129 1396 Pent
1137 1392 Pent
1146 1387 Pent
1154 1383 Pent
1162 1378 Pent
1170 1373 Pent
1178 1368 Pent
1187 1363 Pent
1195 1359 Pent
1203 1354 Pent
1211 1348 Pent
1220 1343 Pent
1228 1338 Pent
1236 1334 Pent
1244 1329 Pent
1253 1324 Pent
1261 1319 Pent
1269 1314 Pent
1277 1310 Pent
1285 1305 Pent
1294 1301 Pent
1302 1297 Pent
1310 1293 Pent
1318 1289 Pent
1327 1285 Pent
1335 1282 Pent
1343 1278 Pent
1351 1275 Pent
1360 1272 Pent
1368 1269 Pent
1376 1266 Pent
1384 1263 Pent
1392 1261 Pent
1401 1258 Pent
1409 1256 Pent
1417 1254 Pent
1425 1252 Pent
1434 1250 Pent
1442 1248 Pent
1450 1246 Pent
1458 1245 Pent
1467 1243 Pent
1475 1242 Pent
1483 1241 Pent
1491 1239 Pent
1499 1238 Pent
1508 1237 Pent
1516 1236 Pent
1524 1235 Pent
1532 1235 Pent
1541 1234 Pent
1549 1233 Pent
1557 1232 Pent
1565 1232 Pent
1574 1231 Pent
1582 1231 Pent
1590 1230 Pent
1598 1230 Pent
1606 1229 Pent
1615 1229 Pent
1623 1228 Pent
1631 1228 Pent
1639 1228 Pent
1648 1227 Pent
1656 1227 Pent
1664 1227 Pent
1672 1227 Pent
1681 1226 Pent
1689 1226 Pent
1697 1226 Pent
1705 1226 Pent
1713 1226 Pent
1722 1226 Pent
1730 1225 Pent
1738 1225 Pent
1746 1225 Pent
1755 1225 Pent
1763 1225 Pent
1771 1225 Pent
1779 1225 Pent
1788 1225 Pent
1796 1225 Pent
1804 1225 Pent
1812 1225 Pent
1820 1225 Pent
1829 1225 Pent
1837 1225 Pent
1845 1226 Pent
1853 1226 Pent
1862 1226 Pent
1870 1226 Pent
1878 1226 Pent
1886 1226 Pent
1895 1227 Pent
1903 1227 Pent
1911 1227 Pent
1919 1228 Pent
1927 1228 Pent
1936 1228 Pent
1944 1229 Pent
1952 1229 Pent
1960 1230 Pent
1969 1230 Pent
1977 1231 Pent
1985 1232 Pent
1993 1232 Pent
2002 1233 Pent
2010 1234 Pent
2018 1235 Pent
2026 1236 Pent
2034 1237 Pent
2043 1238 Pent
2051 1239 Pent
2059 1241 Pent
2067 1242 Pent
2076 1244 Pent
2084 1245 Pent
2092 1247 Pent
2100 1249 Pent
2108 1251 Pent
2117 1253 Pent
2125 1255 Pent
2133 1257 Pent
2141 1260 Pent
2150 1263 Pent
2158 1265 Pent
2166 1268 Pent
2174 1271 Pent
2183 1275 Pent
2191 1278 Pent
2199 1281 Pent
2207 1285 Pent
2215 1289 Pent
2224 1293 Pent
2232 1296 Pent
2240 1301 Pent
2248 1305 Pent
2257 1309 Pent
2265 1313 Pent
2273 1317 Pent
2281 1322 Pent
2290 1326 Pent
2298 1331 Pent
2306 1335 Pent
2314 1339 Pent
2322 1343 Pent
2331 1348 Pent
2339 1352 Pent
2347 1356 Pent
2355 1360 Pent
2364 1363 Pent
2372 1367 Pent
2380 1370 Pent
2388 1374 Pent
2397 1377 Pent
2405 1380 Pent
2413 1382 Pent
2421 1385 Pent
2429 1387 Pent
2438 1389 Pent
2446 1391 Pent
2454 1393 Pent
2462 1394 Pent
2471 1396 Pent
2479 1397 Pent
2487 1398 Pent
2495 1398 Pent
2504 1399 Pent
2512 1399 Pent
2520 1399 Pent
2528 1399 Pent
2536 1399 Pent
2545 1398 Pent
2553 1397 Pent
2561 1397 Pent
2569 1396 Pent
2578 1394 Pent
2586 1393 Pent
2594 1392 Pent
2602 1390 Pent
2611 1388 Pent
2619 1386 Pent
2627 1384 Pent
2635 1382 Pent
2643 1380 Pent
2652 1378 Pent
2660 1375 Pent
2668 1373 Pent
2676 1370 Pent
2685 1367 Pent
2693 1365 Pent
2701 1362 Pent
2709 1359 Pent
2718 1356 Pent
2726 1353 Pent
2734 1350 Pent
2742 1347 Pent
2750 1344 Pent
2759 1340 Pent
2767 1337 Pent
2775 1334 Pent
2783 1331 Pent
2792 1328 Pent
2800 1325 Pent
2808 1322 Pent
2816 1319 Pent
2825 1316 Pent
2833 1313 Pent
2841 1310 Pent
2849 1307 Pent
2857 1305 Pent
2866 1302 Pent
2874 1300 Pent
2882 1297 Pent
2890 1295 Pent
2899 1292 Pent
2907 1290 Pent
2915 1288 Pent
2923 1286 Pent
2932 1284 Pent
2940 1282 Pent
2948 1280 Pent
2956 1278 Pent
2964 1276 Pent
2973 1275 Pent
2981 1273 Pent
2989 1272 Pent
2997 1270 Pent
3006 1269 Pent
3014 1268 Pent
3022 1267 Pent
3030 1266 Pent
3039 1265 Pent
3047 1264 Pent
3055 1263 Pent
3063 1262 Pent
3071 1262 Pent
3080 1261 Pent
3088 1261 Pent
3096 1261 Pent
3104 1261 Pent
3113 1261 Pent
3121 1261 Pent
3129 1261 Pent
3137 1261 Pent
3145 1261 Pent
3154 1261 Pent
3162 1262 Pent
3170 1262 Pent
3178 1263 Pent
3187 1263 Pent
3195 1264 Pent
3203 1265 Pent
3211 1266 Pent
3220 1267 Pent
3228 1268 Pent
3236 1269 Pent
3244 1270 Pent
3252 1271 Pent
3261 1273 Pent
3269 1274 Pent
3277 1275 Pent
3285 1277 Pent
3294 1278 Pent
3302 1280 Pent
3310 1282 Pent
3318 1283 Pent
3327 1285 Pent
3335 1287 Pent
3343 1289 Pent
3351 1291 Pent
3359 1293 Pent
3368 1295 Pent
3376 1297 Pent
3384 1299 Pent
3392 1301 Pent
3401 1304 Pent
3409 1306 Pent
3417 1308 Pent
3425 1311 Pent
3434 1313 Pent
3442 1315 Pent
3450 1318 Pent
3458 1321 Pent
3466 1323 Pent
3475 1326 Pent
3483 1329 Pent
3491 1331 Pent
3499 1334 Pent
3508 1337 Pent
3516 1340 Pent
3524 1343 Pent
3532 1345 Pent
3541 1348 Pent
3549 1351 Pent
3557 1354 Pent
3565 1357 Pent
3573 1360 Pent
3582 1363 Pent
3590 1366 Pent
3598 1369 Pent
3606 1373 Pent
3615 1376 Pent
3623 1379 Pent
3631 1382 Pent
3639 1385 Pent
3648 1388 Pent
3656 1391 Pent
3664 1394 Pent
3672 1397 Pent
3680 1399 Pent
3689 1402 Pent
3697 1405 Pent
3705 1408 Pent
3713 1410 Pent
3722 1413 Pent
3730 1415 Pent
3738 1417 Pent
3746 1419 Pent
3755 1421 Pent
3763 1423 Pent
3771 1425 Pent
3779 1426 Pent
3787 1427 Pent
3796 1428 Pent
3804 1429 Pent
3812 1430 Pent
3820 1431 Pent
3829 1431 Pent
3837 1432 Pent
3845 1432 Pent
3853 1432 Pent
3862 1432 Pent
3870 1432 Pent
3878 1431 Pent
3886 1431 Pent
3894 1431 Pent
3903 1430 Pent
3911 1430 Pent
3919 1430 Pent
3927 1430 Pent
3936 1429 Pent
3944 1429 Pent
3952 1429 Pent
3960 1429 Pent
3969 1430 Pent
3977 1430 Pent
3985 1430 Pent
3993 1431 Pent
4001 1431 Pent
4010 1432 Pent
4018 1432 Pent
4026 1433 Pent
4034 1434 Pent
4043 1434 Pent
4051 1435 Pent
4059 1436 Pent
4067 1437 Pent
4075 1438 Pent
4084 1439 Pent
4092 1440 Pent
4100 1441 Pent
4108 1442 Pent
4117 1443 Pent
4125 1443 Pent
4133 1444 Pent
4141 1445 Pent
4150 1446 Pent
4158 1447 Pent
4166 1448 Pent
4174 1449 Pent
4182 1450 Pent
4191 1451 Pent
4199 1452 Pent
4207 1452 Pent
4215 1453 Pent
4224 1454 Pent
4232 1455 Pent
4240 1455 Pent
4248 1456 Pent
4257 1457 Pent
4265 1457 Pent
4273 1458 Pent
4281 1458 Pent
4289 1459 Pent
4298 1459 Pent
4306 1460 Pent
4314 1460 Pent
4322 1460 Pent
4331 1461 Pent
4339 1461 Pent
4347 1461 Pent
4355 1462 Pent
4364 1462 Pent
4372 1462 Pent
4380 1462 Pent
4388 1462 Pent
4396 1462 Pent
4405 1462 Pent
1411 867 Pent
% End plot #2
% Begin plot #3
0.200 UP
1.000 UL
LTb
0.34 0.71 0.91 C LCb setrgbcolor
1164 747 M
[ [(Times-Roman) 120.0 0.0 true true 0 (x=0cm)]
] -40.0 MRshow
0.200 UP
1.000 UL
LTb
0.34 0.71 0.91 C 1236 747 M
351 0 V
1411 747 Pent
% End plot #3
% Begin plot #4
0.200 UP
1.000 UL
LTb
0.90 0.62 0.00 C LCb setrgbcolor
1164 627 M
[ [(Times-Roman) 120.0 0.0 true true 0 (x=-1cm)]
] -40.0 MRshow
0.200 UP
1.000 UL
LTb
0.90 0.62 0.00 C 1236 627 M
351 0 V
701 1453 M
8 2 V
9 1 V
8 2 V
8 1 V
8 2 V
9 1 V
8 1 V
8 2 V
8 1 V
8 1 V
9 1 V
8 2 V
8 1 V
8 1 V
9 1 V
8 2 V
8 1 V
8 1 V
9 1 V
8 2 V
8 1 V
8 1 V
8 2 V
9 1 V
8 2 V
8 1 V
8 2 V
9 1 V
8 2 V
8 2 V
8 2 V
9 2 V
8 2 V
8 2 V
8 2 V
8 2 V
9 3 V
8 2 V
8 3 V
8 3 V
9 3 V
8 3 V
8 3 V
8 4 V
9 3 V
8 4 V
8 4 V
8 3 V
8 5 V
9 4 V
8 4 V
8 5 V
8 4 V
9 5 V
8 5 V
8 5 V
8 5 V
8 5 V
9 5 V
8 5 V
8 6 V
8 5 V
9 5 V
8 5 V
8 5 V
8 5 V
9 5 V
8 5 V
8 5 V
8 5 V
8 4 V
9 5 V
8 4 V
8 4 V
8 4 V
9 4 V
8 4 V
8 3 V
8 4 V
9 3 V
8 3 V
8 3 V
8 3 V
8 2 V
9 3 V
8 2 V
8 2 V
8 2 V
9 2 V
8 2 V
8 2 V
8 1 V
9 2 V
8 1 V
8 2 V
8 1 V
8 1 V
9 1 V
8 1 V
8 1 V
8 1 V
9 1 V
8 0 V
8 1 V
8 1 V
9 0 V
8 1 V
8 0 V
8 1 V
8 0 V
9 0 V
8 1 V
8 0 V
8 0 V
9 1 V
8 0 V
8 0 V
8 0 V
9 0 V
8 0 V
8 0 V
8 1 V
8 0 V
9 0 V
8 0 V
8 0 V
8 0 V
9 -1 V
8 0 V
8 0 V
8 0 V
9 0 V
8 0 V
8 0 V
8 0 V
8 -1 V
9 0 V
8 0 V
8 -1 V
8 0 V
9 0 V
8 -1 V
8 0 V
8 -1 V
9 0 V
8 -1 V
8 0 V
8 -1 V
8 0 V
9 -1 V
8 -1 V
8 -1 V
8 -1 V
9 0 V
8 -1 V
8 -1 V
8 -2 V
9 -1 V
8 -1 V
8 -1 V
8 -2 V
8 -1 V
9 -2 V
8 -2 V
8 -2 V
8 -2 V
9 -2 V
8 -2 V
8 -3 V
8 -2 V
8 -3 V
9 -3 V
8 -3 V
8 -3 V
8 -3 V
9 -4 V
8 -3 V
8 -4 V
8 -4 V
9 -4 V
8 -5 V
8 -4 V
8 -5 V
8 -5 V
9 -5 V
8 -6 V
8 -5 V
8 -6 V
9 -5 V
8 -6 V
8 -6 V
8 -6 V
9 -6 V
8 -7 V
8 -6 V
8 -6 V
8 -7 V
9 -6 V
8 -7 V
8 -6 V
8 -6 V
9 -7 V
8 -6 V
8 -7 V
8 -6 V
9 -6 V
8 -6 V
8 -7 V
8 -6 V
8 -6 V
9 -6 V
8 -6 V
8 -6 V
8 -6 V
9 -6 V
8 -6 V
8 -6 V
8 -6 V
9 -6 V
8 -6 V
8 -6 V
8 -6 V
8 -7 V
9 -6 V
8 -7 V
8 -6 V
8 -7 V
9 -7 V
8 -7 V
8 -7 V
8 -7 V
9 -8 V
8 -8 V
8 -8 V
8 -8 V
8 -8 V
9 -9 V
8 -9 V
8 -9 V
8 -9 V
9 -10 V
8 -10 V
8 -10 V
8 -10 V
9 -10 V
8 -11 V
8 -11 V
stroke 2734 1207 M
8 -11 V
8 -11 V
9 -12 V
8 -11 V
8 -12 V
8 -12 V
9 -11 V
8 -12 V
8 -12 V
8 -12 V
9 -12 V
8 -12 V
8 -12 V
8 -11 V
8 -12 V
9 -11 V
8 -11 V
8 -11 V
8 -11 V
9 -11 V
8 -10 V
8 -10 V
8 -10 V
9 -9 V
8 -10 V
8 -9 V
8 -8 V
8 -8 V
9 -8 V
8 -8 V
8 -7 V
8 -7 V
9 -6 V
8 -7 V
8 -6 V
8 -5 V
9 -5 V
8 -5 V
8 -5 V
8 -4 V
8 -4 V
9 -4 V
8 -4 V
8 -3 V
8 -3 V
9 -3 V
8 -2 V
8 -2 V
8 -2 V
8 -2 V
9 -1 V
8 -2 V
8 -1 V
8 -1 V
9 -1 V
8 0 V
8 -1 V
8 0 V
9 0 V
8 0 V
8 1 V
8 0 V
8 0 V
9 1 V
8 1 V
8 1 V
8 1 V
9 1 V
8 2 V
8 1 V
8 2 V
9 2 V
8 1 V
8 2 V
8 2 V
8 3 V
9 2 V
8 2 V
8 3 V
8 3 V
9 2 V
8 3 V
8 3 V
8 3 V
9 4 V
8 3 V
8 3 V
8 4 V
8 4 V
9 4 V
8 4 V
8 4 V
8 4 V
9 5 V
8 4 V
8 5 V
8 5 V
9 5 V
8 5 V
8 5 V
8 5 V
8 6 V
9 6 V
8 6 V
8 6 V
8 6 V
9 6 V
8 7 V
8 7 V
8 7 V
9 7 V
8 7 V
8 7 V
8 8 V
8 7 V
9 8 V
8 8 V
8 8 V
8 9 V
9 8 V
8 9 V
8 8 V
8 9 V
9 9 V
8 9 V
8 9 V
8 9 V
8 9 V
9 9 V
8 9 V
8 9 V
8 10 V
9 9 V
8 9 V
8 9 V
8 9 V
9 9 V
8 9 V
8 8 V
8 9 V
8 8 V
9 9 V
8 8 V
8 8 V
8 8 V
9 8 V
8 7 V
8 8 V
8 7 V
9 7 V
8 7 V
8 7 V
8 6 V
8 6 V
9 6 V
8 6 V
8 6 V
8 6 V
9 5 V
8 5 V
8 5 V
8 5 V
8 4 V
9 5 V
8 4 V
8 4 V
8 4 V
9 4 V
8 3 V
8 4 V
8 3 V
9 3 V
8 3 V
8 3 V
8 3 V
8 3 V
9 2 V
8 3 V
8 2 V
8 3 V
9 2 V
8 2 V
8 2 V
8 1 V
9 2 V
8 2 V
8 2 V
8 1 V
8 1 V
9 2 V
8 1 V
8 1 V
8 2 V
9 1 V
8 1 V
8 1 V
8 1 V
9 0 V
8 1 V
8 1 V
8 1 V
8 0 V
9 1 V
701 1453 Pent
709 1455 Pent
718 1456 Pent
726 1458 Pent
734 1459 Pent
742 1461 Pent
751 1462 Pent
759 1463 Pent
767 1465 Pent
775 1466 Pent
783 1467 Pent
792 1468 Pent
800 1470 Pent
808 1471 Pent
816 1472 Pent
825 1473 Pent
833 1475 Pent
841 1476 Pent
849 1477 Pent
858 1478 Pent
866 1480 Pent
874 1481 Pent
882 1482 Pent
890 1484 Pent
899 1485 Pent
907 1487 Pent
915 1488 Pent
923 1490 Pent
932 1491 Pent
940 1493 Pent
948 1495 Pent
956 1497 Pent
965 1499 Pent
973 1501 Pent
981 1503 Pent
989 1505 Pent
997 1507 Pent
1006 1510 Pent
1014 1512 Pent
1022 1515 Pent
1030 1518 Pent
1039 1521 Pent
1047 1524 Pent
1055 1527 Pent
1063 1531 Pent
1072 1534 Pent
1080 1538 Pent
1088 1542 Pent
1096 1545 Pent
1104 1550 Pent
1113 1554 Pent
1121 1558 Pent
1129 1563 Pent
1137 1567 Pent
1146 1572 Pent
1154 1577 Pent
1162 1582 Pent
1170 1587 Pent
1178 1592 Pent
1187 1597 Pent
1195 1602 Pent
1203 1608 Pent
1211 1613 Pent
1220 1618 Pent
1228 1623 Pent
1236 1628 Pent
1244 1633 Pent
1253 1638 Pent
1261 1643 Pent
1269 1648 Pent
1277 1653 Pent
1285 1657 Pent
1294 1662 Pent
1302 1666 Pent
1310 1670 Pent
1318 1674 Pent
1327 1678 Pent
1335 1682 Pent
1343 1685 Pent
1351 1689 Pent
1360 1692 Pent
1368 1695 Pent
1376 1698 Pent
1384 1701 Pent
1392 1703 Pent
1401 1706 Pent
1409 1708 Pent
1417 1710 Pent
1425 1712 Pent
1434 1714 Pent
1442 1716 Pent
1450 1718 Pent
1458 1719 Pent
1467 1721 Pent
1475 1722 Pent
1483 1724 Pent
1491 1725 Pent
1499 1726 Pent
1508 1727 Pent
1516 1728 Pent
1524 1729 Pent
1532 1730 Pent
1541 1731 Pent
1549 1731 Pent
1557 1732 Pent
1565 1733 Pent
1574 1733 Pent
1582 1734 Pent
1590 1734 Pent
1598 1735 Pent
1606 1735 Pent
1615 1735 Pent
1623 1736 Pent
1631 1736 Pent
1639 1736 Pent
1648 1737 Pent
1656 1737 Pent
1664 1737 Pent
1672 1737 Pent
1681 1737 Pent
1689 1737 Pent
1697 1737 Pent
1705 1738 Pent
1713 1738 Pent
1722 1738 Pent
1730 1738 Pent
1738 1738 Pent
1746 1738 Pent
1755 1737 Pent
1763 1737 Pent
1771 1737 Pent
1779 1737 Pent
1788 1737 Pent
1796 1737 Pent
1804 1737 Pent
1812 1737 Pent
1820 1736 Pent
1829 1736 Pent
1837 1736 Pent
1845 1735 Pent
1853 1735 Pent
1862 1735 Pent
1870 1734 Pent
1878 1734 Pent
1886 1733 Pent
1895 1733 Pent
1903 1732 Pent
1911 1732 Pent
1919 1731 Pent
1927 1731 Pent
1936 1730 Pent
1944 1729 Pent
1952 1728 Pent
1960 1727 Pent
1969 1727 Pent
1977 1726 Pent
1985 1725 Pent
1993 1723 Pent
2002 1722 Pent
2010 1721 Pent
2018 1720 Pent
2026 1718 Pent
2034 1717 Pent
2043 1715 Pent
2051 1713 Pent
2059 1711 Pent
2067 1709 Pent
2076 1707 Pent
2084 1705 Pent
2092 1702 Pent
2100 1700 Pent
2108 1697 Pent
2117 1694 Pent
2125 1691 Pent
2133 1688 Pent
2141 1685 Pent
2150 1681 Pent
2158 1678 Pent
2166 1674 Pent
2174 1670 Pent
2183 1666 Pent
2191 1661 Pent
2199 1657 Pent
2207 1652 Pent
2215 1647 Pent
2224 1642 Pent
2232 1636 Pent
2240 1631 Pent
2248 1625 Pent
2257 1620 Pent
2265 1614 Pent
2273 1608 Pent
2281 1602 Pent
2290 1596 Pent
2298 1589 Pent
2306 1583 Pent
2314 1577 Pent
2322 1570 Pent
2331 1564 Pent
2339 1557 Pent
2347 1551 Pent
2355 1545 Pent
2364 1538 Pent
2372 1532 Pent
2380 1525 Pent
2388 1519 Pent
2397 1513 Pent
2405 1507 Pent
2413 1500 Pent
2421 1494 Pent
2429 1488 Pent
2438 1482 Pent
2446 1476 Pent
2454 1470 Pent
2462 1464 Pent
2471 1458 Pent
2479 1452 Pent
2487 1446 Pent
2495 1440 Pent
2504 1434 Pent
2512 1428 Pent
2520 1422 Pent
2528 1416 Pent
2536 1409 Pent
2545 1403 Pent
2553 1396 Pent
2561 1390 Pent
2569 1383 Pent
2578 1376 Pent
2586 1369 Pent
2594 1362 Pent
2602 1355 Pent
2611 1347 Pent
2619 1339 Pent
2627 1331 Pent
2635 1323 Pent
2643 1315 Pent
2652 1306 Pent
2660 1297 Pent
2668 1288 Pent
2676 1279 Pent
2685 1269 Pent
2693 1259 Pent
2701 1249 Pent
2709 1239 Pent
2718 1229 Pent
2726 1218 Pent
2734 1207 Pent
2742 1196 Pent
2750 1185 Pent
2759 1173 Pent
2767 1162 Pent
2775 1150 Pent
2783 1138 Pent
2792 1127 Pent
2800 1115 Pent
2808 1103 Pent
2816 1091 Pent
2825 1079 Pent
2833 1067 Pent
2841 1055 Pent
2849 1044 Pent
2857 1032 Pent
2866 1021 Pent
2874 1010 Pent
2882 999 Pent
2890 988 Pent
2899 977 Pent
2907 967 Pent
2915 957 Pent
2923 947 Pent
2932 938 Pent
2940 928 Pent
2948 919 Pent
2956 911 Pent
2964 903 Pent
2973 895 Pent
2981 887 Pent
2989 880 Pent
2997 873 Pent
3006 867 Pent
3014 860 Pent
3022 854 Pent
3030 849 Pent
3039 844 Pent
3047 839 Pent
3055 834 Pent
3063 830 Pent
3071 826 Pent
3080 822 Pent
3088 818 Pent
3096 815 Pent
3104 812 Pent
3113 809 Pent
3121 807 Pent
3129 805 Pent
3137 803 Pent
3145 801 Pent
3154 800 Pent
3162 798 Pent
3170 797 Pent
3178 796 Pent
3187 795 Pent
3195 795 Pent
3203 794 Pent
3211 794 Pent
3220 794 Pent
3228 794 Pent
3236 795 Pent
3244 795 Pent
3252 795 Pent
3261 796 Pent
3269 797 Pent
3277 798 Pent
3285 799 Pent
3294 800 Pent
3302 802 Pent
3310 803 Pent
3318 805 Pent
3327 807 Pent
3335 808 Pent
3343 810 Pent
3351 812 Pent
3359 815 Pent
3368 817 Pent
3376 819 Pent
3384 822 Pent
3392 825 Pent
3401 827 Pent
3409 830 Pent
3417 833 Pent
3425 836 Pent
3434 840 Pent
3442 843 Pent
3450 846 Pent
3458 850 Pent
3466 854 Pent
3475 858 Pent
3483 862 Pent
3491 866 Pent
3499 870 Pent
3508 875 Pent
3516 879 Pent
3524 884 Pent
3532 889 Pent
3541 894 Pent
3549 899 Pent
3557 904 Pent
3565 909 Pent
3573 915 Pent
3582 921 Pent
3590 927 Pent
3598 933 Pent
3606 939 Pent
3615 945 Pent
3623 952 Pent
3631 959 Pent
3639 966 Pent
3648 973 Pent
3656 980 Pent
3664 987 Pent
3672 995 Pent
3680 1002 Pent
3689 1010 Pent
3697 1018 Pent
3705 1026 Pent
3713 1035 Pent
3722 1043 Pent
3730 1052 Pent
3738 1060 Pent
3746 1069 Pent
3755 1078 Pent
3763 1087 Pent
3771 1096 Pent
3779 1105 Pent
3787 1114 Pent
3796 1123 Pent
3804 1132 Pent
3812 1141 Pent
3820 1151 Pent
3829 1160 Pent
3837 1169 Pent
3845 1178 Pent
3853 1187 Pent
3862 1196 Pent
3870 1205 Pent
3878 1213 Pent
3886 1222 Pent
3894 1230 Pent
3903 1239 Pent
3911 1247 Pent
3919 1255 Pent
3927 1263 Pent
3936 1271 Pent
3944 1278 Pent
3952 1286 Pent
3960 1293 Pent
3969 1300 Pent
3977 1307 Pent
3985 1314 Pent
3993 1320 Pent
4001 1326 Pent
4010 1332 Pent
4018 1338 Pent
4026 1344 Pent
4034 1350 Pent
4043 1355 Pent
4051 1360 Pent
4059 1365 Pent
4067 1370 Pent
4075 1374 Pent
4084 1379 Pent
4092 1383 Pent
4100 1387 Pent
4108 1391 Pent
4117 1395 Pent
4125 1398 Pent
4133 1402 Pent
4141 1405 Pent
4150 1408 Pent
4158 1411 Pent
4166 1414 Pent
4174 1417 Pent
4182 1420 Pent
4191 1422 Pent
4199 1425 Pent
4207 1427 Pent
4215 1430 Pent
4224 1432 Pent
4232 1434 Pent
4240 1436 Pent
4248 1437 Pent
4257 1439 Pent
4265 1441 Pent
4273 1443 Pent
4281 1444 Pent
4289 1445 Pent
4298 1447 Pent
4306 1448 Pent
4314 1449 Pent
4322 1451 Pent
4331 1452 Pent
4339 1453 Pent
4347 1454 Pent
4355 1455 Pent
4364 1455 Pent
4372 1456 Pent
4380 1457 Pent
4388 1458 Pent
4396 1458 Pent
4405 1459 Pent
1411 627 Pent
% End plot #4
% Begin plot #5
0.200 UP
1.000 UL
LTb
0.94 0.89 0.26 C LCb setrgbcolor
1164 507 M
[ [(Times-Roman) 120.0 0.0 true true 0 (x=-2cm)]
] -40.0 MRshow
0.200 UP
1.000 UL
LTb
0.94 0.89 0.26 C 1236 507 M
351 0 V
701 1453 M
8 2 V
9 2 V
8 2 V
8 2 V
8 1 V
9 2 V
8 2 V
8 1 V
8 2 V
8 1 V
9 2 V
8 2 V
8 1 V
8 2 V
9 1 V
8 2 V
8 2 V
8 2 V
9 1 V
8 2 V
8 2 V
8 2 V
8 2 V
9 2 V
8 3 V
8 2 V
8 3 V
9 2 V
8 3 V
8 3 V
8 3 V
9 3 V
8 4 V
8 3 V
8 4 V
8 4 V
9 5 V
8 4 V
8 5 V
8 5 V
9 6 V
8 6 V
8 6 V
8 6 V
9 7 V
8 7 V
8 7 V
8 8 V
8 9 V
9 8 V
8 9 V
8 9 V
8 10 V
9 10 V
8 10 V
8 10 V
8 11 V
8 11 V
9 11 V
8 11 V
8 11 V
8 11 V
9 12 V
8 11 V
8 11 V
8 11 V
9 10 V
8 11 V
8 10 V
8 10 V
8 9 V
9 10 V
8 8 V
8 9 V
8 8 V
9 8 V
8 7 V
8 7 V
8 7 V
9 6 V
8 6 V
8 6 V
8 5 V
8 5 V
9 5 V
8 4 V
8 4 V
8 4 V
9 3 V
8 4 V
8 3 V
8 3 V
9 3 V
8 2 V
8 2 V
8 3 V
8 2 V
9 2 V
8 1 V
8 2 V
8 1 V
9 2 V
8 1 V
8 1 V
8 1 V
9 1 V
8 1 V
8 1 V
8 1 V
8 1 V
9 0 V
8 1 V
8 1 V
8 0 V
9 0 V
8 1 V
8 0 V
8 1 V
9 0 V
8 0 V
8 0 V
8 0 V
8 0 V
9 1 V
8 0 V
8 0 V
8 0 V
9 0 V
8 -1 V
8 0 V
8 0 V
9 0 V
8 0 V
8 0 V
8 -1 V
8 0 V
9 0 V
8 -1 V
8 0 V
8 -1 V
9 0 V
8 -1 V
8 -1 V
8 0 V
9 -1 V
8 -1 V
8 -1 V
8 -1 V
8 -1 V
9 -1 V
8 -1 V
8 -1 V
8 -2 V
9 -1 V
8 -2 V
8 -2 V
8 -1 V
9 -2 V
8 -3 V
8 -2 V
8 -2 V
8 -3 V
9 -3 V
8 -3 V
8 -3 V
8 -3 V
9 -4 V
8 -4 V
8 -4 V
8 -4 V
8 -5 V
9 -5 V
8 -5 V
8 -6 V
8 -6 V
9 -7 V
8 -6 V
8 -7 V
8 -8 V
9 -8 V
8 -8 V
8 -9 V
8 -9 V
8 -10 V
9 -10 V
8 -10 V
8 -10 V
8 -11 V
9 -12 V
8 -11 V
8 -12 V
8 -12 V
9 -12 V
8 -13 V
8 -12 V
8 -13 V
8 -12 V
9 -13 V
8 -12 V
8 -12 V
8 -13 V
9 -12 V
8 -11 V
8 -12 V
8 -11 V
9 -12 V
8 -10 V
8 -11 V
8 -11 V
8 -10 V
9 -10 V
8 -10 V
8 -9 V
8 -10 V
9 -9 V
8 -9 V
8 -9 V
8 -9 V
9 -9 V
8 -9 V
8 -9 V
8 -8 V
8 -9 V
9 -9 V
8 -9 V
8 -9 V
8 -10 V
9 -9 V
8 -10 V
8 -9 V
8 -10 V
9 -11 V
8 -10 V
8 -11 V
8 -11 V
8 -12 V
9 -12 V
8 -12 V
8 -12 V
8 -13 V
9 -13 V
8 -14 V
8 -14 V
8 -15 V
9 -14 V
8 -16 V
8 -15 V
stroke 2734 1135 M
8 -16 V
8 -16 V
9 -17 V
8 -16 V
8 -17 V
8 -17 V
9 -18 V
8 -17 V
8 -17 V
8 -18 V
9 -17 V
8 -17 V
8 -18 V
8 -17 V
8 -16 V
9 -17 V
8 -16 V
8 -16 V
8 -15 V
9 -15 V
8 -15 V
8 -14 V
8 -14 V
9 -13 V
8 -13 V
8 -12 V
8 -12 V
8 -11 V
9 -11 V
8 -10 V
8 -10 V
8 -10 V
9 -8 V
8 -9 V
8 -7 V
8 -8 V
9 -7 V
8 -6 V
8 -6 V
8 -6 V
8 -5 V
9 -5 V
8 -5 V
8 -4 V
8 -4 V
9 -4 V
8 -3 V
8 -3 V
8 -2 V
8 -3 V
9 -2 V
8 -2 V
8 -1 V
8 -2 V
9 -1 V
8 -1 V
8 0 V
8 -1 V
9 0 V
8 0 V
8 0 V
8 0 V
8 0 V
9 1 V
8 1 V
8 1 V
8 1 V
9 1 V
8 1 V
8 2 V
8 2 V
9 1 V
8 2 V
8 3 V
8 2 V
8 2 V
9 3 V
8 2 V
8 3 V
8 3 V
9 3 V
8 4 V
8 3 V
8 4 V
9 3 V
8 4 V
8 4 V
8 5 V
8 4 V
9 5 V
8 4 V
8 5 V
8 5 V
9 6 V
8 5 V
8 6 V
8 6 V
9 6 V
8 6 V
8 7 V
8 7 V
8 7 V
9 7 V
8 8 V
8 8 V
8 8 V
9 8 V
8 9 V
8 9 V
8 9 V
9 10 V
8 10 V
8 10 V
8 10 V
8 11 V
9 11 V
8 11 V
8 11 V
8 12 V
9 12 V
8 12 V
8 13 V
8 12 V
9 13 V
8 13 V
8 13 V
8 13 V
8 14 V
9 13 V
8 14 V
8 13 V
8 14 V
9 13 V
8 14 V
8 13 V
8 14 V
9 13 V
8 13 V
8 13 V
8 13 V
8 12 V
9 13 V
8 12 V
8 12 V
8 11 V
9 12 V
8 11 V
8 11 V
8 10 V
9 10 V
8 10 V
8 10 V
8 9 V
8 9 V
9 8 V
8 9 V
8 8 V
8 7 V
9 8 V
8 7 V
8 7 V
8 6 V
8 6 V
9 6 V
8 6 V
8 6 V
8 5 V
9 5 V
8 5 V
8 5 V
8 4 V
9 4 V
8 4 V
8 4 V
8 4 V
8 3 V
9 3 V
8 4 V
8 3 V
8 3 V
9 2 V
8 3 V
8 3 V
8 2 V
9 2 V
8 2 V
8 2 V
8 2 V
8 2 V
9 2 V
8 2 V
8 2 V
8 1 V
9 2 V
8 1 V
8 1 V
8 2 V
9 1 V
8 1 V
8 1 V
8 1 V
8 1 V
9 1 V
701 1453 Pent
709 1455 Pent
718 1457 Pent
726 1459 Pent
734 1461 Pent
742 1462 Pent
751 1464 Pent
759 1466 Pent
767 1467 Pent
775 1469 Pent
783 1470 Pent
792 1472 Pent
800 1474 Pent
808 1475 Pent
816 1477 Pent
825 1478 Pent
833 1480 Pent
841 1482 Pent
849 1484 Pent
858 1485 Pent
866 1487 Pent
874 1489 Pent
882 1491 Pent
890 1493 Pent
899 1495 Pent
907 1498 Pent
915 1500 Pent
923 1503 Pent
932 1505 Pent
940 1508 Pent
948 1511 Pent
956 1514 Pent
965 1517 Pent
973 1521 Pent
981 1524 Pent
989 1528 Pent
997 1532 Pent
1006 1537 Pent
1014 1541 Pent
1022 1546 Pent
1030 1551 Pent
1039 1557 Pent
1047 1563 Pent
1055 1569 Pent
1063 1575 Pent
1072 1582 Pent
1080 1589 Pent
1088 1596 Pent
1096 1604 Pent
1104 1613 Pent
1113 1621 Pent
1121 1630 Pent
1129 1639 Pent
1137 1649 Pent
1146 1659 Pent
1154 1669 Pent
1162 1679 Pent
1170 1690 Pent
1178 1701 Pent
1187 1712 Pent
1195 1723 Pent
1203 1734 Pent
1211 1745 Pent
1220 1757 Pent
1228 1768 Pent
1236 1779 Pent
1244 1790 Pent
1253 1800 Pent
1261 1811 Pent
1269 1821 Pent
1277 1831 Pent
1285 1840 Pent
1294 1850 Pent
1302 1858 Pent
1310 1867 Pent
1318 1875 Pent
1327 1883 Pent
1335 1890 Pent
1343 1897 Pent
1351 1904 Pent
1360 1910 Pent
1368 1916 Pent
1376 1922 Pent
1384 1927 Pent
1392 1932 Pent
1401 1937 Pent
1409 1941 Pent
1417 1945 Pent
1425 1949 Pent
1434 1952 Pent
1442 1956 Pent
1450 1959 Pent
1458 1962 Pent
1467 1965 Pent
1475 1967 Pent
1483 1969 Pent
1491 1972 Pent
1499 1974 Pent
1508 1976 Pent
1516 1977 Pent
1524 1979 Pent
1532 1980 Pent
1541 1982 Pent
1549 1983 Pent
1557 1984 Pent
1565 1985 Pent
1574 1986 Pent
1582 1987 Pent
1590 1988 Pent
1598 1989 Pent
1606 1990 Pent
1615 1990 Pent
1623 1991 Pent
1631 1992 Pent
1639 1992 Pent
1648 1992 Pent
1656 1993 Pent
1664 1993 Pent
1672 1994 Pent
1681 1994 Pent
1689 1994 Pent
1697 1994 Pent
1705 1994 Pent
1713 1994 Pent
1722 1995 Pent
1730 1995 Pent
1738 1995 Pent
1746 1995 Pent
1755 1995 Pent
1763 1994 Pent
1771 1994 Pent
1779 1994 Pent
1788 1994 Pent
1796 1994 Pent
1804 1994 Pent
1812 1993 Pent
1820 1993 Pent
1829 1993 Pent
1837 1992 Pent
1845 1992 Pent
1853 1991 Pent
1862 1991 Pent
1870 1990 Pent
1878 1989 Pent
1886 1989 Pent
1895 1988 Pent
1903 1987 Pent
1911 1986 Pent
1919 1985 Pent
1927 1984 Pent
1936 1983 Pent
1944 1982 Pent
1952 1981 Pent
1960 1979 Pent
1969 1978 Pent
1977 1976 Pent
1985 1974 Pent
1993 1973 Pent
2002 1971 Pent
2010 1968 Pent
2018 1966 Pent
2026 1964 Pent
2034 1961 Pent
2043 1958 Pent
2051 1955 Pent
2059 1952 Pent
2067 1949 Pent
2076 1945 Pent
2084 1941 Pent
2092 1937 Pent
2100 1933 Pent
2108 1928 Pent
2117 1923 Pent
2125 1918 Pent
2133 1912 Pent
2141 1906 Pent
2150 1899 Pent
2158 1893 Pent
2166 1886 Pent
2174 1878 Pent
2183 1870 Pent
2191 1862 Pent
2199 1853 Pent
2207 1844 Pent
2215 1834 Pent
2224 1824 Pent
2232 1814 Pent
2240 1804 Pent
2248 1793 Pent
2257 1781 Pent
2265 1770 Pent
2273 1758 Pent
2281 1746 Pent
2290 1734 Pent
2298 1721 Pent
2306 1709 Pent
2314 1696 Pent
2322 1684 Pent
2331 1671 Pent
2339 1659 Pent
2347 1647 Pent
2355 1634 Pent
2364 1622 Pent
2372 1611 Pent
2380 1599 Pent
2388 1588 Pent
2397 1576 Pent
2405 1566 Pent
2413 1555 Pent
2421 1544 Pent
2429 1534 Pent
2438 1524 Pent
2446 1514 Pent
2454 1505 Pent
2462 1495 Pent
2471 1486 Pent
2479 1477 Pent
2487 1468 Pent
2495 1459 Pent
2504 1450 Pent
2512 1441 Pent
2520 1432 Pent
2528 1424 Pent
2536 1415 Pent
2545 1406 Pent
2553 1397 Pent
2561 1388 Pent
2569 1378 Pent
2578 1369 Pent
2586 1359 Pent
2594 1350 Pent
2602 1340 Pent
2611 1329 Pent
2619 1319 Pent
2627 1308 Pent
2635 1297 Pent
2643 1285 Pent
2652 1273 Pent
2660 1261 Pent
2668 1249 Pent
2676 1236 Pent
2685 1223 Pent
2693 1209 Pent
2701 1195 Pent
2709 1180 Pent
2718 1166 Pent
2726 1150 Pent
2734 1135 Pent
2742 1119 Pent
2750 1103 Pent
2759 1086 Pent
2767 1070 Pent
2775 1053 Pent
2783 1036 Pent
2792 1018 Pent
2800 1001 Pent
2808 984 Pent
2816 966 Pent
2825 949 Pent
2833 932 Pent
2841 914 Pent
2849 897 Pent
2857 881 Pent
2866 864 Pent
2874 848 Pent
2882 832 Pent
2890 817 Pent
2899 802 Pent
2907 787 Pent
2915 773 Pent
2923 759 Pent
2932 746 Pent
2940 733 Pent
2948 721 Pent
2956 709 Pent
2964 698 Pent
2973 687 Pent
2981 677 Pent
2989 667 Pent
2997 657 Pent
3006 649 Pent
3014 640 Pent
3022 633 Pent
3030 625 Pent
3039 618 Pent
3047 612 Pent
3055 606 Pent
3063 600 Pent
3071 595 Pent
3080 590 Pent
3088 585 Pent
3096 581 Pent
3104 577 Pent
3113 573 Pent
3121 570 Pent
3129 567 Pent
3137 565 Pent
3145 562 Pent
3154 560 Pent
3162 558 Pent
3170 557 Pent
3178 555 Pent
3187 554 Pent
3195 553 Pent
3203 553 Pent
3211 552 Pent
3220 552 Pent
3228 552 Pent
3236 552 Pent
3244 552 Pent
3252 552 Pent
3261 553 Pent
3269 554 Pent
3277 555 Pent
3285 556 Pent
3294 557 Pent
3302 558 Pent
3310 560 Pent
3318 562 Pent
3327 563 Pent
3335 565 Pent
3343 568 Pent
3351 570 Pent
3359 572 Pent
3368 575 Pent
3376 577 Pent
3384 580 Pent
3392 583 Pent
3401 586 Pent
3409 590 Pent
3417 593 Pent
3425 597 Pent
3434 600 Pent
3442 604 Pent
3450 608 Pent
3458 613 Pent
3466 617 Pent
3475 622 Pent
3483 626 Pent
3491 631 Pent
3499 636 Pent
3508 642 Pent
3516 647 Pent
3524 653 Pent
3532 659 Pent
3541 665 Pent
3549 671 Pent
3557 678 Pent
3565 685 Pent
3573 692 Pent
3582 699 Pent
3590 707 Pent
3598 715 Pent
3606 723 Pent
3615 731 Pent
3623 740 Pent
3631 749 Pent
3639 758 Pent
3648 768 Pent
3656 778 Pent
3664 788 Pent
3672 798 Pent
3680 809 Pent
3689 820 Pent
3697 831 Pent
3705 842 Pent
3713 854 Pent
3722 866 Pent
3730 878 Pent
3738 891 Pent
3746 903 Pent
3755 916 Pent
3763 929 Pent
3771 942 Pent
3779 955 Pent
3787 969 Pent
3796 982 Pent
3804 996 Pent
3812 1009 Pent
3820 1023 Pent
3829 1036 Pent
3837 1050 Pent
3845 1063 Pent
3853 1077 Pent
3862 1090 Pent
3870 1103 Pent
3878 1116 Pent
3886 1129 Pent
3894 1141 Pent
3903 1154 Pent
3911 1166 Pent
3919 1178 Pent
3927 1189 Pent
3936 1201 Pent
3944 1212 Pent
3952 1223 Pent
3960 1233 Pent
3969 1243 Pent
3977 1253 Pent
3985 1263 Pent
3993 1272 Pent
4001 1281 Pent
4010 1289 Pent
4018 1298 Pent
4026 1306 Pent
4034 1313 Pent
4043 1321 Pent
4051 1328 Pent
4059 1335 Pent
4067 1341 Pent
4075 1347 Pent
4084 1353 Pent
4092 1359 Pent
4100 1365 Pent
4108 1370 Pent
4117 1375 Pent
4125 1380 Pent
4133 1385 Pent
4141 1389 Pent
4150 1393 Pent
4158 1397 Pent
4166 1401 Pent
4174 1405 Pent
4182 1408 Pent
4191 1411 Pent
4199 1415 Pent
4207 1418 Pent
4215 1421 Pent
4224 1423 Pent
4232 1426 Pent
4240 1429 Pent
4248 1431 Pent
4257 1433 Pent
4265 1435 Pent
4273 1437 Pent
4281 1439 Pent
4289 1441 Pent
4298 1443 Pent
4306 1445 Pent
4314 1447 Pent
4322 1448 Pent
4331 1450 Pent
4339 1451 Pent
4347 1452 Pent
4355 1454 Pent
4364 1455 Pent
4372 1456 Pent
4380 1457 Pent
4388 1458 Pent
4396 1459 Pent
4405 1460 Pent
1411 507 Pent
% End plot #5
2.000 UL
LTb
LCb setrgbcolor
1.000 UL
LTB
LCb setrgbcolor
660 2145 N
660 384 L
3827 0 V
0 1761 V
-3827 0 V
Z stroke
1.000 UP
1.000 UL
LTb
LCb setrgbcolor
stroke
grestore
end
showpage
%%Trailer
%%DocumentFonts: Times-Roman
