
  Job  started  on   6-Oct-95,  at  16:31:42

 ...  Copy of the ZGOUBI input data file  ...                                   


********************************************************************************************************************************
      1  OBJET             
                RIGIDITE  MAGNETIQUE =       2335.000 KG*CM

                                         CALCUL  DES  TRAJECTOIRES

                              OBJET  (5)  FORME  DE   11 POINTS 



                              Y (cm)    T (mrd)   Z (cm)    P (mrd)   S (cm)     dp/p 
               Sampling :        .10       .83       .10      1.85       .00     .0010
   Reference trajectory :        .00       .00       .00       .00       .00    1.0000


********************************************************************************************************************************
      2  ESL               

                              ESPACE  LIBRE =    60.00000  CM

  TRAJ #1  D,Y,T,Z,P,S :  1.0000E+00   .0000E+00   .0000E+00   .0000E+00   .0000E+00      6.00000E+01

********************************************************************************************************************************
      3  QUADRUPO          

      -----  QUADRUPOLE  : 
                LONGUEUR  DE  L'ELEMENT  :   40.000  CM
                RAYON DE GORGE  RO =   10.00  CM
               B-QUADRUPOLE  = -5.610000E+00 kG
                LENTILLE  A  GRADIENT  CRENEAU 

                    Integration step :      3.00 cm


********************************************************************************************************************************
      4  ESL               

                              ESPACE  LIBRE =    27.89300  CM

  TRAJ #1  D,Y,T,Z,P,S :  1.0000E+00   .0000E+00   .0000E+00   .0000E+00   .0000E+00      1.27893E+02

********************************************************************************************************************************
      5  DIPOLE            
                    AIMANT  PRINCIPAL

           ANGLES * A.TOTAL =107.00 DEGRES     A.CENTRAL = 50.00 DEGRES
           RM = 131.00 CM     RMIN =  70.00 CM     RMAX = 180.00 CM
           HNORM = 15.2730 KGAUSS     COEF.N =   .00000     COEF.B =   .00000     COEF.G=   .00000
                    NBRE PAS ANGULAIRE=  350  NBRE PAS RAYON=  200
                    PAS ANGULAIRE =   .3066 DEG. OU    .7010 CM AU RAYON MOYEN
                    PAS EN RAYON  =   .5528 CM

     FACE  D'ENTREE
          CHAMP FUITE : LAMBDA =  46.00 CM
           COEFFICIENTS :    .14552   5.21405  -3.38307  14.06290    .00000    .00000
           DECALAGE  FACE  MAGNETIQUE =    .0000E+00 CM

          OMEGA =  31.00     ANGLE  DE  FACE =  17.50
           RAYON 1 = -5.72E+01 CM
           PARTIE  DROITE 1 =   .00E+00 CM
           PARTIE  DROITE 2 =   .00E+00 CM
           RAYON 2 = -5.72E+01 CM

     FACE  DE  SORTIE
          CHAMP FUITE : LAMBDA =  46.00 CM
           COEFFICIENTS :    .14552   5.21405  -3.38307  14.06290    .00000    .00000
           DECALAGE  FACE  MAGNETIQUE =    .0000E+00 CM

          OMEGA = -32.00     ANGLE  DE  FACE = -10.00
           RAYON 1 = -1.58E+02 CM
           PARTIE  DROITE 1 =   .00E+00 CM
           PARTIE  DROITE 2 =   .00E+00 CM
           RAYON 2 = -1.26E+02 CM

                     OPTION  DE  CALCUL  :25
                     LISSAGE  A  25  POINTS 

                     PAS  D'INTEGRATION =       .30 CM   ( SOIT   .00229 RD  AU  RAYON  MOYEN 


                               POSITION DE L'ORBITE MOYENNE SUR LES FACES MECANIQUES
                                         D ENTREE  RE = 138.548 CM  TE = -.331613 RAD
                                        DE SORTIE  RS = 144.648 CM  TS =  .438270 RAD

  O   1  1.0000      .000      .000      .000      .000          1.8675   167.593      .580      .000      .000          1
  A   1  1.0000      .104      .000      .000      .000          1.8675   167.961      .580      .000      .000          2
  B   1  1.0000     -.104      .000      .000      .000          1.8675   167.225      .580      .000      .000          3
  C   1  1.0000      .000      .833      .000      .000          1.8675   168.054      .581      .000      .000          4
  D   1  1.0000      .000     -.833      .000      .000          1.8675   167.131      .580      .000      .000          5
  E   1  1.0000      .000      .000      .104      .000          1.8675   167.593      .580     -.195     -.001          6
  F   1  1.0000      .000      .000     -.104      .000          1.8675   167.593      .580      .195      .001          7
  G   1  1.0000      .000      .000      .000     1.850          1.8675   167.593      .580      .218      .000          8
  H   1  1.0000      .000      .000      .000    -1.850          1.8675   167.593      .580     -.218      .000          9
  I   1  1.0010      .000      .000      .000      .000          1.8675   167.746      .581      .000      .000         10
  J   1   .9990      .000      .000      .000      .000          1.8675   167.440      .579      .000      .000         11

********************************************************************************************************************************
      6  ESL               

                              ESPACE  LIBRE =    24.21000  CM

  TRAJ #1  D,Y,T,Z,P,S :  1.0000E+00  2.2845E+01  1.4195E+02   .0000E+00   .0000E+00      4.07227E+02

********************************************************************************************************************************
      7  DIPOLE            
                    AIMANT  PRINCIPAL

           ANGLES * A.TOTAL = 78.00 DEGRES     A.CENTRAL = 39.00 DEGRES
           RM = 131.00 CM     RMIN =  60.00 CM     RMAX = 210.00 CM
           HNORM = 15.2730 KGAUSS     COEF.N =   .00000     COEF.B =   .00000     COEF.G=   .00000
                    NBRE PAS ANGULAIRE=  350  NBRE PAS RAYON=  200
                    PAS ANGULAIRE =   .2235 DEG. OU    .5110 CM AU RAYON MOYEN
                    PAS EN RAYON  =   .7538 CM

     FACE  D'ENTREE
          CHAMP FUITE : LAMBDA =  46.00 CM
           COEFFICIENTS :    .14552   5.21405  -3.38307  14.06290    .00000    .00000
           DECALAGE  FACE  MAGNETIQUE =    .0000E+00 CM

          OMEGA =  20.00     ANGLE  DE  FACE =  20.00
           RAYON 1 =  1.00E+06 CM
           PARTIE  DROITE 1 = -1.00E+06 CM
           PARTIE  DROITE 2 =  1.00E+06 CM
           RAYON 2 =  1.00E+06 CM

     FACE  DE  SORTIE
          CHAMP FUITE : LAMBDA =  46.00 CM
           COEFFICIENTS :    .14552   5.21405  -3.38307  14.06290    .00000    .00000
           DECALAGE  FACE  MAGNETIQUE =    .0000E+00 CM

          OMEGA = -20.00     ANGLE  DE  FACE =  20.00
           RAYON 1 = -3.50E+02 CM
           PARTIE  DROITE 1 = -2.65E+01 CM
           PARTIE  DROITE 2 =  2.05E+01 CM
           RAYON 2 =  8.00E+02 CM

                     OPTION  DE  CALCUL  :25
                     LISSAGE  A  25  POINTS 

                     PAS  D'INTEGRATION =       .30 CM   ( SOIT   .00229 RD  AU  RAYON  MOYEN 


                               POSITION DE L'ORBITE MOYENNE SUR LES FACES MECANIQUES
                                         D ENTREE  RE = 138.548 CM  TE = -.331613 RAD
                                        DE SORTIE  RS = 138.716 CM  TS =  .334510 RAD

  O   1  1.0000      .000      .000      .000      .000          1.3614   192.346      .328      .000      .000          1
  A   1  1.0000      .104      .000      .000      .000          1.3614   192.618      .326      .000      .000          2
  B   1  1.0000     -.104      .000      .000      .000          1.3614   192.074      .329      .000      .000          3
  C   1  1.0000      .000      .833      .000      .000          1.3614   192.743      .326      .000      .000          4
  D   1  1.0000      .000     -.833      .000      .000          1.3614   191.949      .330      .000      .000          5
  E   1  1.0000      .000      .000      .104      .000          1.3614   192.346      .328     -.320     -.001          6
  F   1  1.0000      .000      .000     -.104      .000          1.3614   192.346      .328      .320      .001          7
  G   1  1.0000      .000      .000      .000     1.850          1.3614   192.346      .328      .130      .000          8
  H   1  1.0000      .000      .000      .000    -1.850          1.3614   192.346      .328     -.130      .000          9
  I   1  1.0010      .000      .000      .000      .000          1.3614   192.713      .328      .000      .000         10
  J   1   .9990      .000      .000      .000      .000          1.3614   191.980      .328      .000      .000         11

********************************************************************************************************************************
      8  ESL               

                              ESPACE  LIBRE =   123.39000  CM

  TRAJ #1  D,Y,T,Z,P,S :  1.0000E+00  4.9951E+01 -6.6757E+00   .0000E+00   .0000E+00      7.42113E+02

********************************************************************************************************************************
      9  ESL               

                              ESPACE  LIBRE =    75.00000  CM

  TRAJ #1  D,Y,T,Z,P,S :  1.0000E+00  4.9451E+01 -6.6757E+00   .0000E+00   .0000E+00      8.17114E+02

********************************************************************************************************************************
     10  FAISCEAU          
0                                             TRACE DU FAISCEAU

                                               11 TRAJECTOIRES

                                   OBJET                                                  FAISCEAU

          D      Y(CM)    T(MR)    Z(CM)    P(MR)    S(CM)          D      Y(CM)    T(MR)    Z(CM)    P(MR)    S(CM)

 
 O  1  1.0000     .000     .000     .000     .000     .000       1.0000   49.451   -6.676     .000     .000       817.114   1  1
 
 A  1  1.0000     .104     .000     .000     .000     .000       1.0000   49.407   -8.338     .000     .000       817.664   2  2
 
 B  1  1.0000    -.104     .000     .000     .000     .000       1.0000   49.494   -5.014     .000     .000       816.565   3  3
 
 C  1  1.0000     .000     .833     .000     .000     .000       1.0000   49.449   -8.767     .000     .000       817.801   4  4
 
 D  1  1.0000     .000    -.833     .000     .000     .000       1.0000   49.453   -4.584     .000     .000       816.429   5  5
 E  1  1.0000     .000     .000     .104     .000     .000       1.0000   49.450   -6.676    -.499    -.989       817.115   6  6
 F  1  1.0000     .000     .000    -.104     .000     .000       1.0000   49.450   -6.676     .499     .989       817.115   7  7
 G  1  1.0000     .000     .000     .000    1.850     .000       1.0000   49.450   -6.678     .094    -.199       817.115   8  8
 H  1  1.0000     .000     .000     .000   -1.850     .000       1.0000   49.450   -6.678    -.094     .199       817.115   9  9
 
 I  1  1.0010     .000     .000     .000     .000     .000       1.0010   49.779   -6.782     .000     .000       817.369  10 10
 
 J  1   .9990     .000     .000     .000     .000     .000        .9990   49.123   -6.572     .000     .000       816.861  11 11

********************************************************************************************************************************
     11  IMAGES            

     RECHERCHE DU POINT DE FOCALISATION HORIZONTAL DE 11 TRAJECTOIRES (SUR 11)

     POINT DE FOCALISATION HORIZONTAL SUR L ORBITE MOYENNE    X =    -5.82 CM    Y =    49.49 CM

     DECALAGE DU CENTRE DE GRAVITE EN Y =       .00 CM

     LARGEUR IMAGE,  A MI-HAUTEUR =     .331017 CM,  TOTALE =     .656985 CM
                                      .........                 .........

0                                             TRACE DU FAISCEAU

                                               11 TRAJECTOIRES

                                   OBJET                                                  FAISCEAU

          D      Y(CM)    T(MR)    Z(CM)    P(MR)    S(CM)          D      Y(CM)    T(MR)    Z(CM)    P(MR)    S(CM)

 
 O  1  1.0000     .000     .000     .000     .000     .000       1.0000   49.451   -6.676     .000     .000       817.114   1  1
 
 A  1  1.0000     .104     .000     .000     .000     .000       1.0000   49.407   -8.338     .000     .000       817.664   2  2
 
 B  1  1.0000    -.104     .000     .000     .000     .000       1.0000   49.494   -5.014     .000     .000       816.565   3  3
 
 C  1  1.0000     .000     .833     .000     .000     .000       1.0000   49.449   -8.767     .000     .000       817.801   4  4
 
 D  1  1.0000     .000    -.833     .000     .000     .000       1.0000   49.453   -4.584     .000     .000       816.429   5  5
 E  1  1.0000     .000     .000     .104     .000     .000       1.0000   49.450   -6.676    -.499    -.989       817.115   6  6
 F  1  1.0000     .000     .000    -.104     .000     .000       1.0000   49.450   -6.676     .499     .989       817.115   7  7
 G  1  1.0000     .000     .000     .000    1.850     .000       1.0000   49.450   -6.678     .094    -.199       817.115   8  8
 H  1  1.0000     .000     .000     .000   -1.850     .000       1.0000   49.450   -6.678    -.094     .199       817.115   9  9
 
 I  1  1.0010     .000     .000     .000     .000     .000       1.0010   49.779   -6.782     .000     .000       817.369  10 10
 
 J  1   .9990     .000     .000     .000     .000     .000        .9990   49.123   -6.572     .000     .000       816.861  11 11

********************************************************************************************************************************
     12  MATRIX            

           Frame for MATRIX calculation moved by :
            XC =    -.981 CM , YC =   49.457  CM ,   A =  -.38249 DEG  ( = -.006676 RD )
            Path length of particle #1 :    816.1330 m



                  MATRICE  DE  TRANSFERT  ORDRE  1  ( MKSA )

         -.398074    .000000    .000000    .000000    .000000   3.279790
        -1.596239  -2.512098    .000000    .000000    .000000   -.104579
          .000000    .000000  -4.785429    .509099    .000000    .000000
          .000000    .000000   -.950878   -.107808    .000000    .000000
         5.276520   8.238953    .000000    .000000   1.000000   2.562592
          .000000    .000000    .000000    .000000    .000000   1.000000

      Determinants  :        1-DetY = -.0000000212
                             1-DetZ =  .0000000003

       R12=0  at         .0000  metres
       R34=0  at        4.7223  metres

      First order sympletic conditions (expected values = 0) :
         2.1194E-08   -3.1465E-10    1.7428E-12    2.4704E-12   -5.2251E-13   -9.3935E-13

 TRAJ #1  D,Y,T,Z,P,S :  1.0000E+00  8.1012E-16   .0000E+00   .0000E+00   .0000E+00      8.16133E+02

********************************************************************************************************************************
     12  END               

********************************************************************************************************************************

           PGM PRINCIPAL : ARRET SUR CLE   END     

********************************************************************************************************************************

  Job  started  on   6-Oct-95,  at  16:31:42

  Job  ended  on   6-Oct-95,  at  16:31:50

