 ***  SPES2  600MEV/C                                                           
 'OBJET'                                                                             1
 2037.                                                                          
 1                                                                              
 1     5    1    1  1   5                                                       
 0.   20.  .0    0. 0.  .09                                                     
 0. 0. 0. 0. 0. 1.                                                              
 'ESL'                                                                               2
 60.                                                                            
 'QUADRUPO'                                                                          3
  0                                                                             
 40.  10. -5.61                                                                 
 0.  0.                                                                         
 6  .1122 6.2671 -1.4982 3.5882 -2.1209 1.723                                   
 0.   0.                                                                        
 6  .1122 6.2671 -1.4982 3.5882 -2.1209 1.723                                   
 3.                                                                             
 1 0. 0. 0.                                                                     
 'ESL'                                                                               4
 27.893                                                                         
 'DIPOLE-M'                                                                          5
 2 0 0                                                                          
 350  200                                                                       
 15.273   0. 0. 0.                                                              
 107.  50.   131.  70.  180.                                                    
 46. -1.                                                                        
 4   .14552 5.21405 -3.38307 14.0629 0. 0. 0.                                   
  31.  17.5    -57.24  0.    0.  -57.24                                         
 46. -1.                                                                        
 4   .14552 5.21405 -3.38307 14.0629 0. 0. 0.                                   
 -32. -10.    -158.    0.    0. -126.                                           
 0                                                                              
 2                                                                              
 .3                                                                             
 2                                                                              
  138.548   -.33161256  144.648 .43827                                          
 'ESL'                                                                               6
 24.21                                                                          
 'DIPOLE-M'                                                                          7
 2 0 0                                                                          
 350  200                                                                       
 15.2730  0. 0. 0.                                                              
 78.   39.   131.  60.  210.                                                    
 46. -1.                                                                        
 4   .14552 5.21405 -3.38307 14.0629 0. 0. 0.                                   
  20.  20.     1.E6   -1.E6    1.E6   1.E6                                      
 46. -1.                                                                        
 4  .14552  5.21405  -3.38307  14.0629 0. 0. 0.                                 
 -20.  20.    -350.  -26.5  20.5  800.                                          
 0                                                                              
 2                                                                              
 .3                                                                             
 2                                                                              
  138.548   -.331612558   138.716 .33451                                        
 'ESL'                                                                               8
 123.39                                                                         
 'FAISCEAU'                                                                          9
 'IMAGES'                                                                           10
 'END'                                                                              11

********************************************************************************************************************************
      1  OBJET                         
                          MAGNETIC  RIGIDITY =       2037.000 kG*cm

                                         CALCUL  DES  TRAJECTOIRES

                              OBJET  (1)  FORME  DE     25 POINTS 



                                          D       Y(cm)     T(mrd)    Z(cm)     P(mrd)    X(cm)

                              NOMBRE       5         1         5         1         1

       6

                    ECHANTILLONNAGE     0.0900      0.00     20.00      0.00      0.00      0.00


********************************************************************************************************************************
      2  ESL                           

                              Drift,  length =    60.00000  cm

 TRAJ 1 IEX,D,Y,T,Z,P,S,time :  1   1.000       0.000       0.000       0.000       0.000           60.000           0.0000    

 Cumulative length of optical axis =   0.600000     m ;   corresponding Time  (for ref. rigidity & particle) =   1.9193E+10 s 

********************************************************************************************************************************
      3  QUADRUPO                      

      -----  QUADRUPOLE  : 
                Length  of  element  =    40.00      cm
                Bore  radius      RO =    10.00      cm
               B-QUADRUPOLE  =  -5.61000     kG 

               Lens field model is sharp edge

                    Integration step :   3.000     cm


 Cumulative length of optical axis =    1.00000     m ;   corresponding Time  (for ref. rigidity & particle) =   3.1988E+10 s 

********************************************************************************************************************************
      4  ESL                           

                              Drift,  length =    27.89300  cm

 TRAJ 1 IEX,D,Y,T,Z,P,S,time :  1   1.000       0.000       0.000       0.000       0.000           127.89           0.0000    

 Cumulative length of optical axis =    1.27893     m ;   corresponding Time  (for ref. rigidity & particle) =   4.0910E+10 s 

********************************************************************************************************************************
      5  DIPOLE-M                      
                    AIMANT  PRINCIPAL

           ANGLES : A.TOTAL =107.00 degrees     A.CENTRAL = 50.00 degrees
           RM = 131.00 cm     RMIN =  70.00 cm     RMAX = 180.00 cm
           HNORM = 15.2730 kGauss     COEF.N =  0.00000     COEF.B =  0.00000     COEF.G=  0.00000
                    NBRE PAS ANGULAIRE=  350  NBRE PAS RAYON=  200
                    PAS ANGULAIRE =  0.3066 DEG. OU   0.7010 CM AU RAYON MOYEN
                    PAS EN RAYON  =  0.5528 CM

     Entrance  face
          Champ FUITE : LAMBDA =  46.00 CM
           COEFFICIENTS :   0.14552   5.21405  -3.38307  14.06290   0.00000   0.00000
           DECALAGE  FACE  MAGNETIQUE =    0.000     CM

          OMEGA =  31.00 deg.     Wedge  angle  =  17.50 deg.
           Radius 1 =  -57.     cm
           Straight  segment 1 =   0.0     cm
           Straight  segment 2 =   0.0     cm
           Radius 2 =  -57.     cm

     Exit  face
          Champ FUITE : LAMBDA =  46.00 CM
           COEFFICIENTS :   0.14552   5.21405  -3.38307  14.06290   0.00000   0.00000
           DECALAGE  FACE  MAGNETIQUE =    0.000     CM

          OMEGA = -32.00 deg.     Wedge  angle  = -10.00 deg.
           Radius 1 = -1.58E+02 cm
           Straight  segment 1 =   0.0     cm
           Straight  segment 2 =   0.0     cm
           Radius 2 = -1.26E+02 cm


      Min / max  fields  drawn  from  map  data :    0.00                       /    1.00    
       @  A(rad),  R(cm), Z(cm) :                0.00      142.      0.00       /  0.246      70.0      0.00    
     Normalisation  coeff.  BNORM   :   15.27    
     Field  min/max  normalised  :                0.00          /    15.3    
     Nbre of  steps  in  angle/radius/Z : 350/ 200/   0
     Steps  in  angle/radius/Z :    5.3510E-03/  0.5528    /   0.000      (rad/cm/cm)

                     Option  for  interpolation : 2
                     Smoothing  using  9  points 

                    Integration step :  0.3000     cm   (i.e.,   2.2901E-03 rad  at mean radius)

                               Position of reference orbit on mechanical  faces
                                         at entrance    RE =   138.548     cm  TE = -0.331613     rad
                                         at exit        RS =   144.648     cm  TS =  0.438270     rad

  O   1  1.0000     0.000     0.000     0.000     0.000            1.868   147.234     0.456     0.000     0.000           1
  A   1  1.0000     0.000    20.000     0.000     0.000            1.868   156.645     0.456     0.000     0.000           2
  B   1  1.0000     0.000   -20.000     0.000     0.000            1.868   137.482     0.455     0.000     0.000           3
  C   1  1.0000     0.000    40.000     0.000     0.000            1.868   165.721     0.457     0.000     0.000           4
  D   1  1.0000     0.000   -40.000     0.000     0.000            1.868   127.382     0.453     0.000     0.000           5
  O   1  1.0900     0.000     0.000     0.000     0.000            1.868   159.958     0.536     0.000     0.000           6
  A   1  1.0900     0.000    20.000     0.000     0.000            1.868   170.383     0.541     0.000     0.000           7
  B   1  1.0900     0.000   -20.000     0.000     0.000            1.868   149.352     0.531     0.000     0.000           8

    Y =  180.28 X =    1.86 T = 0.544 TRAJECTOIRE   9 HORS LIMITES Champ 
  C   1  1.0900     0.000    40.000     0.000     0.000            1.868   180.624     0.547     0.000     0.000           9
  D   1  1.0900     0.000   -40.000     0.000     0.000            1.868   138.534     0.526     0.000     0.000          10
  O   1  0.9100     0.000     0.000     0.000     0.000            1.868   133.699     0.361     0.000     0.000          11
  A   1  0.9100     0.000    20.000     0.000     0.000            1.868   142.051     0.356     0.000     0.000          12
  B   1  0.9100     0.000   -20.000     0.000     0.000            1.868   124.825     0.365     0.000     0.000          13
  C   1  0.9100     0.000    40.000     0.000     0.000            1.868   149.884     0.350     0.000     0.000          14
  D   1  0.9100     0.000   -40.000     0.000     0.000            1.868   115.469     0.368     0.000     0.000          15
  O   1  1.1800     0.000     0.000     0.000     0.000            1.868   172.063     0.605     0.000     0.000          16

    Y =  180.39 X =    1.84 T = 0.589 TRAJECTOIRE  17 HORS LIMITES Champ 
  A   1  1.1800     0.000    20.000     0.000     0.000            1.868   183.473     0.613     0.000     0.000          17
  B   1  1.1800     0.000   -20.000     0.000     0.000            1.868   160.604     0.597     0.000     0.000          18

    Y =  180.32 X =    1.74 T = 0.499 TRAJECTOIRE  19 HORS LIMITES Champ 
  C   1  1.1800     0.000    40.000     0.000     0.000            1.868   194.840     0.622     0.000     0.000          19
  D   1  1.1800     0.000   -40.000     0.000     0.000            1.868   149.079     0.589     0.000     0.000          20
  O   1  0.8200     0.000     0.000     0.000     0.000            1.868   119.048     0.246     0.000     0.000          21
  A   1  0.8200     0.000    20.000     0.000     0.000            1.868   126.259     0.233     0.000     0.000          22
  B   1  0.8200     0.000   -20.000     0.000     0.000            1.868   111.133     0.257     0.000     0.000          23
  C   1  0.8200     0.000    40.000     0.000     0.000            1.868   132.719     0.218     0.000     0.000          24
  D   1  0.8200     0.000   -40.000     0.000     0.000            1.868   102.575     0.266     0.000     0.000          25

 Cumulative length of optical axis =    1.27893     m ;   corresponding Time  (for ref. rigidity & particle) =   4.0910E+10 s 

********************************************************************************************************************************
      6  ESL                           

                              Drift,  length =    24.21000  cm

 TRAJ 1 IEX,D,Y,T,Z,P,S,time :  1   1.000       2.743       17.36       0.000       0.000           402.26           0.0000    

 Cumulative length of optical axis =    1.52103     m ;   corresponding Time  (for ref. rigidity & particle) =   4.8655E+10 s 

********************************************************************************************************************************
      7  DIPOLE-M                      
                    AIMANT  PRINCIPAL

           ANGLES : A.TOTAL = 78.00 degrees     A.CENTRAL = 39.00 degrees
           RM = 131.00 cm     RMIN =  60.00 cm     RMAX = 210.00 cm
           HNORM = 15.2730 kGauss     COEF.N =  0.00000     COEF.B =  0.00000     COEF.G=  0.00000
                    NBRE PAS ANGULAIRE=  350  NBRE PAS RAYON=  200
                    PAS ANGULAIRE =  0.2235 DEG. OU   0.5110 CM AU RAYON MOYEN
                    PAS EN RAYON  =  0.7538 CM

     Entrance  face
          Champ FUITE : LAMBDA =  46.00 CM
           COEFFICIENTS :   0.14552   5.21405  -3.38307  14.06290   0.00000   0.00000
           DECALAGE  FACE  MAGNETIQUE =    0.000     CM

          OMEGA =  20.00 deg.     Wedge  angle  =  20.00 deg.
           Radius 1 =  1.00E+06 cm
           Straight  segment 1 = -1.00E+06 cm
           Straight  segment 2 =  1.00E+06 cm
           Radius 2 =  1.00E+06 cm

     Exit  face
          Champ FUITE : LAMBDA =  46.00 CM
           COEFFICIENTS :   0.14552   5.21405  -3.38307  14.06290   0.00000   0.00000
           DECALAGE  FACE  MAGNETIQUE =    0.000     CM

          OMEGA = -20.00 deg.     Wedge  angle  =  20.00 deg.
           Radius 1 = -3.50E+02 cm
           Straight  segment 1 =  -27.     cm
           Straight  segment 2 =   21.     cm
           Radius 2 =  8.00E+02 cm


      Min / max  fields  drawn  from  map  data :    0.00                       /    1.00    
       @  A(rad),  R(cm), Z(cm) :                0.00      137.      0.00       /  0.601      118.      0.00    
     Normalisation  coeff.  BNORM   :   15.27    
     Field  min/max  normalised  :                0.00          /    15.3    
     Nbre of  steps  in  angle/radius/Z : 350/ 200/   0
     Steps  in  angle/radius/Z :    3.9007E-03/  0.7538    /   0.000      (rad/cm/cm)

                     Option  for  interpolation : 2
                     Smoothing  using  9  points 

                    Integration step :  0.3000     cm   (i.e.,   2.2901E-03 rad  at mean radius)

                               Position of reference orbit on mechanical  faces
                                         at entrance    RE =   138.548     cm  TE = -0.331613     rad
                                         at exit        RS =   138.716     cm  TS =  0.334510     rad

  O   1  1.0000     0.000     0.000     0.000     0.000            1.361   144.606     0.334     0.000     0.000           1
  A   1  1.0000     0.000    20.000     0.000     0.000            1.361   151.414     0.288     0.000     0.000           2
  B   1  1.0000     0.000   -20.000     0.000     0.000            1.361   137.338     0.383     0.000     0.000           3
  C   1  1.0000     0.000    40.000     0.000     0.000            1.361   157.825     0.244     0.000     0.000           4
  D   1  1.0000     0.000   -40.000     0.000     0.000            1.361   129.510     0.434     0.000     0.000           5
  O   1  1.0900     0.000     0.000     0.000     0.000            1.361   174.218     0.332     0.000     0.000           6
  A   1  1.0900     0.000    20.000     0.000     0.000            1.361   182.679     0.284     0.000     0.000           7
  B   1  1.0900     0.000   -20.000     0.000     0.000            1.361   165.433     0.380     0.000     0.000           8
  C   1  1.0900     0.000    40.000     0.000     0.000            1.361   190.829     0.236     0.000     0.000           9
  D   1  1.0900     0.000   -40.000     0.000     0.000            1.361   156.204     0.430     0.000     0.000          10
  O   1  0.9100     0.000     0.000     0.000     0.000            1.361   114.338     0.338     0.000     0.000          11
  A   1  0.9100     0.000    20.000     0.000     0.000            1.361   119.313     0.291     0.000     0.000          12
  B   1  0.9100     0.000   -20.000     0.000     0.000            1.361   108.748     0.389     0.000     0.000          13
  C   1  0.9100     0.000    40.000     0.000     0.000            1.361   123.713     0.248     0.000     0.000          14
  D   1  0.9100     0.000   -40.000     0.000     0.000            1.361   102.710     0.446     0.000     0.000          15
  O   1  1.1800     0.000     0.000     0.000     0.000            1.361   203.065     0.324     0.000     0.000          16

    Y =  210.42 X =    1.31 T = 0.224 TRAJECTOIRE  17 HORS LIMITES Champ 
  A   1  1.1800     0.000    20.000     0.000     0.000            1.361   213.042     0.273     0.000     0.000          17
  B   1  1.1800     0.000   -20.000     0.000     0.000            1.361   192.872     0.376     0.000     0.000          18

    Y =  210.39 X =    0.88 T = 0.158 TRAJECTOIRE  19 HORS LIMITES Champ 
  C   1  1.1800     0.000    40.000     0.000     0.000            1.361   222.814     0.221     0.000     0.000          19
  D   1  1.1800     0.000   -40.000     0.000     0.000            1.361   182.408     0.427     0.000     0.000          20
  O   1  0.8200     0.000     0.000     0.000     0.000            1.361    84.156     0.362     0.000     0.000          21
  A   1  0.8200     0.000    20.000     0.000     0.000            1.361    86.803     0.309     0.000     0.000          22
  B   1  0.8200     0.000   -20.000     0.000     0.000            1.361    81.111     0.424     0.000     0.000          23
  C   1  0.8200     0.000    40.000     0.000     0.000            1.361    88.793     0.263     0.000     0.000          24
  D   1  0.8200     0.000   -40.000     0.000     0.000            1.361    78.094     0.498     0.000     0.000          25

 Cumulative length of optical axis =    1.52103     m ;   corresponding Time  (for ref. rigidity & particle) =   4.8655E+10 s 

********************************************************************************************************************************
      8  ESL                           

                              Drift,  length =   123.39000  cm

 TRAJ 1 IEX,D,Y,T,Z,P,S,time :  1   1.000       5.509     -0.4541       0.000       0.000           710.24           0.0000    

 Cumulative length of optical axis =    2.75493     m ;   corresponding Time  (for ref. rigidity & particle) =   8.8124E+10 s 

********************************************************************************************************************************
      9  FAISCEAU                      
0                                             TRACE DU FAISCEAU

                                               25 TRAJECTOIRES

                                   OBJET                                                  FAISCEAU

          D       Y(CM)     T(MR)     Z(CM)     P(MR)    S(CM)          D       Y(CM)     T(MR)     Z(CM)     P(MR)    S(CM)

O   1   1.0000     0.000     0.000     0.000     0.000     0.000       1.0000    5.509   -0.454    0.000    0.000     710.240      1
A   1   1.0000     0.000    20.000     0.000     0.000     0.000       1.0000    6.453  -46.440    0.000    0.000     725.063      2
B   1   1.0000     0.000   -20.000     0.000     0.000     0.000       1.0000    4.648   48.012    0.000    0.000     695.728      3
C   1   1.0000     0.000    40.000     0.000     0.000     0.000       1.0000    7.455  -90.223    0.000    0.000     740.147      4
D   1   1.0000     0.000   -40.000     0.000     0.000     0.000       1.0000    3.886   99.203    0.000    0.000     681.576      5
O   1   1.0900     0.000     0.000     0.000     0.000     0.000       1.0900   33.229   -2.726    0.000    0.000     729.716      6
A   1   1.0900     0.000    20.000     0.000     0.000     0.000       1.0900   35.999  -50.686    0.000    0.000     745.660      7
B   1   1.0900     0.000   -20.000     0.000     0.000     0.000       1.0900   30.500   45.892    0.000    0.000     714.237      8
C   1   1.0900     0.000    40.000     0.000     0.000     0.000       1.0900   38.775  -98.012    0.000    0.000     762.028      9
D   1   1.0900     0.000   -40.000     0.000     0.000     0.000       1.0900   27.814   95.718    0.000    0.000     699.196     10
O   1   0.9100     0.000     0.000     0.000     0.000     0.000       0.9100  -22.580    3.402    0.000    0.000     691.291     11
A   1   0.9100     0.000    20.000     0.000     0.000     0.000       0.9100  -23.938  -43.214    0.000    0.000     705.171     12
B   1   0.9100     0.000   -20.000     0.000     0.000     0.000       0.9100  -21.055   54.381    0.000    0.000     677.630     13
C   1   0.9100     0.000    40.000     0.000     0.000     0.000       0.9100  -25.295  -86.474    0.000    0.000     719.186     14
D   1   0.9100     0.000   -40.000     0.000     0.000     0.000       0.9100  -18.884  111.410    0.000    0.000     664.426     15
O   1   1.1800     0.000     0.000     0.000     0.000     0.000       1.1800   59.747  -10.124    0.000    0.000     749.604     16
A   1   1.1800     0.000    20.000     0.000     0.000     0.000       1.1800   64.092  -61.694    0.000    0.000     766.826     17
B   1   1.1800     0.000   -20.000     0.000     0.000     0.000       1.1800   55.524   41.353    0.000    0.000     732.999     18
C   1   1.1800     0.000    40.000     0.000     0.000     0.000       1.1800   68.526 -113.422    0.000    0.000     784.649     19
D   1   1.1800     0.000   -40.000     0.000     0.000     0.000       1.1800   51.423   92.838    0.000    0.000     717.010     20
O   1   0.8200     0.000     0.000     0.000     0.000     0.000       0.8200  -47.598   27.862    0.000    0.000     673.160     21
A   1   0.8200     0.000    20.000     0.000     0.000     0.000       0.8200  -52.587  -25.284    0.000    0.000     686.158     22
B   1   0.8200     0.000   -20.000     0.000     0.000     0.000       0.8200  -41.625   89.616    0.000    0.000     660.622     23
C   1   0.8200     0.000    40.000     0.000     0.000     0.000       0.8200  -57.202  -71.751    0.000    0.000     699.293     24
D   1   0.8200     0.000   -40.000     0.000     0.000     0.000       0.8200  -33.690  163.041    0.000    0.000     649.098     25


  Beam  characteristics   (EMIT,ALP,BET,XM,XPM,NLIV,NINL,RATIN) : 

   1   0.3507       0.1939        5.257       5.9650E-02   6.8889E-03      25      25    1.000    B-Dim     1 
   1    0.000       0.1939        5.257        0.000        0.000          25      25    1.000    B-Dim     2 
   1    0.000       0.1939        5.257        0.000        0.000          25      25    1.000    B-Dim     3 

********************************************************************************************************************************
     10  IMAGES                        

     RECHERCHE DU POINT DE FOCALISATION HORIZONTAL DE      5 TRAJECTOIRES (SUR      5)

     POINT DE FOCALISATION HORIZONTAL SUR L ORBITE MOYENNE    X =   18.7972     CM    Y =   5.50018     CM

     DECALAGE DU CENTRE DE GRAVITE EN Y =   0.128286     CM

     LARGEUR IMAGE,  A MI-HAUTEUR =  0.250925     CM,  TOTALE =  0.256387     CM
                                      .........                 .........

0                                             TRACE DU FAISCEAU

                                                5 TRAJECTOIRES

                                   OBJET                                                  FAISCEAU

          D       Y(CM)     T(MR)     Z(CM)     P(MR)    S(CM)          D       Y(CM)     T(MR)     Z(CM)     P(MR)    S(CM)

O   1   1.0000     0.000     0.000     0.000     0.000     0.000       1.0000    5.509   -0.454    0.000    0.000     710.240      1
A   1   1.0000     0.000    20.000     0.000     0.000     0.000       1.0000    6.453  -46.440    0.000    0.000     725.063      2
B   1   1.0000     0.000   -20.000     0.000     0.000     0.000       1.0000    4.648   48.012    0.000    0.000     695.728      3
C   1   1.0000     0.000    40.000     0.000     0.000     0.000       1.0000    7.455  -90.223    0.000    0.000     740.147      4
D   1   1.0000     0.000   -40.000     0.000     0.000     0.000       1.0000    3.886   99.203    0.000    0.000     681.576      5


  Beam  characteristics   (EMIT,ALP,BET,XM,XPM,NLIV,NINL,RATIN) : 

   1   0.3507       0.1939        5.257       5.9650E-02   6.8889E-03      25      25    1.000    B-Dim     1 
   1    0.000       0.1939        5.257        0.000        0.000          25      25    1.000    B-Dim     2 
   1    0.000       0.1939        5.257        0.000        0.000          25      25    1.000    B-Dim     3 

     RECHERCHE DU POINT DE FOCALISATION HORIZONTAL DE      5 TRAJECTOIRES (SUR      5)

     POINT DE FOCALISATION HORIZONTAL SUR L ORBITE MOYENNE    X =   56.4889     CM    Y =   33.0755     CM

     DECALAGE DU CENTRE DE GRAVITE EN Y =   7.676611E-02 CM

     LARGEUR IMAGE,  A MI-HAUTEUR =  0.154167     CM,  TOTALE =  0.162127     CM
                                      .........                 .........

0                                             TRACE DU FAISCEAU

                                                5 TRAJECTOIRES

                                   OBJET                                                  FAISCEAU

          D       Y(CM)     T(MR)     Z(CM)     P(MR)    S(CM)          D       Y(CM)     T(MR)     Z(CM)     P(MR)    S(CM)

O   1   1.0900     0.000     0.000     0.000     0.000     0.000       1.0900   33.229   -2.726    0.000    0.000     729.716      6
A   1   1.0900     0.000    20.000     0.000     0.000     0.000       1.0900   35.999  -50.686    0.000    0.000     745.660      7
B   1   1.0900     0.000   -20.000     0.000     0.000     0.000       1.0900   30.500   45.892    0.000    0.000     714.237      8
C   1   1.0900     0.000    40.000     0.000     0.000     0.000       1.0900   38.775  -98.012    0.000    0.000     762.028      9
D   1   1.0900     0.000   -40.000     0.000     0.000     0.000       1.0900   27.814   95.718    0.000    0.000     699.196     10


  Beam  characteristics   (EMIT,ALP,BET,XM,XPM,NLIV,NINL,RATIN) : 

   1   0.3507       0.1939        5.257       5.9650E-02   6.8889E-03      25      25    1.000    B-Dim     1 
   1    0.000       0.1939        5.257        0.000        0.000          25      25    1.000    B-Dim     2 
   1    0.000       0.1939        5.257        0.000        0.000          25      25    1.000    B-Dim     3 

     RECHERCHE DU POINT DE FOCALISATION HORIZONTAL DE      5 TRAJECTOIRES (SUR      5)

     POINT DE FOCALISATION HORIZONTAL SUR L ORBITE MOYENNE    X =  -31.8213     CM    Y =  -22.6881     CM

     DECALAGE DU CENTRE DE GRAVITE EN Y =   8.441995E-02 CM

     LARGEUR IMAGE,  A MI-HAUTEUR =  0.282746     CM,  TOTALE =  0.342908     CM
                                      .........                 .........

0                                             TRACE DU FAISCEAU

                                                5 TRAJECTOIRES

                                   OBJET                                                  FAISCEAU

          D       Y(CM)     T(MR)     Z(CM)     P(MR)    S(CM)          D       Y(CM)     T(MR)     Z(CM)     P(MR)    S(CM)

O   1   0.9100     0.000     0.000     0.000     0.000     0.000       0.9100  -22.580    3.402    0.000    0.000     691.291     11
A   1   0.9100     0.000    20.000     0.000     0.000     0.000       0.9100  -23.938  -43.214    0.000    0.000     705.171     12
B   1   0.9100     0.000   -20.000     0.000     0.000     0.000       0.9100  -21.055   54.381    0.000    0.000     677.630     13
C   1   0.9100     0.000    40.000     0.000     0.000     0.000       0.9100  -25.295  -86.474    0.000    0.000     719.186     14
D   1   0.9100     0.000   -40.000     0.000     0.000     0.000       0.9100  -18.884  111.410    0.000    0.000     664.426     15


  Beam  characteristics   (EMIT,ALP,BET,XM,XPM,NLIV,NINL,RATIN) : 

   1   0.3507       0.1939        5.257       5.9650E-02   6.8889E-03      25      25    1.000    B-Dim     1 
   1    0.000       0.1939        5.257        0.000        0.000          25      25    1.000    B-Dim     2 
   1    0.000       0.1939        5.257        0.000        0.000          25      25    1.000    B-Dim     3 

     RECHERCHE DU POINT DE FOCALISATION HORIZONTAL DE      5 TRAJECTOIRES (SUR      5)

     POINT DE FOCALISATION HORIZONTAL SUR L ORBITE MOYENNE    X =   82.7079     CM    Y =   58.9097     CM

     DECALAGE DU CENTRE DE GRAVITE EN Y =   0.103585     CM

     LARGEUR IMAGE,  A MI-HAUTEUR =  0.201198     CM,  TOTALE =  0.213606     CM
                                      .........                 .........

0                                             TRACE DU FAISCEAU

                                                5 TRAJECTOIRES

                                   OBJET                                                  FAISCEAU

          D       Y(CM)     T(MR)     Z(CM)     P(MR)    S(CM)          D       Y(CM)     T(MR)     Z(CM)     P(MR)    S(CM)

O   1   1.1800     0.000     0.000     0.000     0.000     0.000       1.1800   59.747  -10.124    0.000    0.000     749.604     16
A   1   1.1800     0.000    20.000     0.000     0.000     0.000       1.1800   64.092  -61.694    0.000    0.000     766.826     17
B   1   1.1800     0.000   -20.000     0.000     0.000     0.000       1.1800   55.524   41.353    0.000    0.000     732.999     18
C   1   1.1800     0.000    40.000     0.000     0.000     0.000       1.1800   68.526 -113.422    0.000    0.000     784.649     19
D   1   1.1800     0.000   -40.000     0.000     0.000     0.000       1.1800   51.423   92.838    0.000    0.000     717.010     20


  Beam  characteristics   (EMIT,ALP,BET,XM,XPM,NLIV,NINL,RATIN) : 

   1   0.3507       0.1939        5.257       5.9650E-02   6.8889E-03      25      25    1.000    B-Dim     1 
   1    0.000       0.1939        5.257        0.000        0.000          25      25    1.000    B-Dim     2 
   1    0.000       0.1939        5.257        0.000        0.000          25      25    1.000    B-Dim     3 

     RECHERCHE DU POINT DE FOCALISATION HORIZONTAL DE      5 TRAJECTOIRES (SUR      5)

     POINT DE FOCALISATION HORIZONTAL SUR L ORBITE MOYENNE    X =  -98.8152     CM    Y =  -50.3520     CM

     DECALAGE DU CENTRE DE GRAVITE EN Y =   0.154043     CM

     LARGEUR IMAGE,  A MI-HAUTEUR =  0.473821     CM,  TOTALE =  0.559528     CM
                                      .........                 .........

0                                             TRACE DU FAISCEAU

                                                5 TRAJECTOIRES

                                   OBJET                                                  FAISCEAU

          D       Y(CM)     T(MR)     Z(CM)     P(MR)    S(CM)          D       Y(CM)     T(MR)     Z(CM)     P(MR)    S(CM)

O   1   0.8200     0.000     0.000     0.000     0.000     0.000       0.8200  -47.598   27.862    0.000    0.000     673.160     21
A   1   0.8200     0.000    20.000     0.000     0.000     0.000       0.8200  -52.587  -25.284    0.000    0.000     686.158     22
B   1   0.8200     0.000   -20.000     0.000     0.000     0.000       0.8200  -41.625   89.616    0.000    0.000     660.622     23
C   1   0.8200     0.000    40.000     0.000     0.000     0.000       0.8200  -57.202  -71.751    0.000    0.000     699.293     24
D   1   0.8200     0.000   -40.000     0.000     0.000     0.000       0.8200  -33.690  163.041    0.000    0.000     649.098     25


  Beam  characteristics   (EMIT,ALP,BET,XM,XPM,NLIV,NINL,RATIN) : 

   1   0.3507       0.1939        5.257       5.9650E-02   6.8889E-03      25      25    1.000    B-Dim     1 
   1    0.000       0.1939        5.257        0.000        0.000          25      25    1.000    B-Dim     2 
   1    0.000       0.1939        5.257        0.000        0.000          25      25    1.000    B-Dim     3 

********************************************************************************************************************************
     11  END                           

                            25 particles have been launched
                     Made  it  to  the  end :     25

********************************************************************************************************************************

           MAIN PROGRAM : Execution ended upon key  END       

********************************************************************************************************************************
  Job  ended  on  05-Nov-08,  at  19:53:02 

   CPU time, total :    0.284018000000000     
