Nutrino Factory. Pion Funnel, and muon collect channel.   
'MCOBJET'        
833.910238      
3
100
2 2 2 2 1 1
40.e-2  -0.0923169923 .0  .0   0.   1.2 
   0.   4.   0.01   1   1.00001      
   0.   4.   0.01   1   1.00001      
   0.   1.   0.16   1           
123456 234567 345678
'FAISTORE'    #START FUN CELLQ DRF #END CHAMB
b_zgoubi.fai  #END 
1
'COLLIMA'   #START 
1  collim.
2 20.00 20.00 40. 0.  
'PARTICUL'  
139.567 1.60217733D-19 0. 26.03E-9 0.            ! PION MASS AND LIFE TIME
'MCDESINT'      
105.66   0.                                       ! Decay: PION -> MUON + NEUTRINO DECAY
136928 768370 548375
'CHAMBR'  
1  
2 60.01 60.01 0. 0.  
'DRIFT'    DRIF      DRF1 
50.0000   split 5 2
'MULTIPOL'   FUN  HKIC      DQ1        
20   .kicker   
100.1 10.00  -8.38529167E-01  2.91349611E-01  0.0 0.0 0.0 0.0 0.0 0.0 0.0 0.0            
29. 18.  1.00 0.00 0.00 0.00 0.00 0. 0. 0. 0.   
6 -.010967  5.464823  .996848 1.568787 -5.671630 18.505734         
29. 18.  1.00 0.00 0.00 0.00 0.00 0. 0. 0. 0.   
6 -.010967  5.464823  .996848 1.568787 -5.671630 18.505734         
0. 0. 0. 0. 0. 0. 0. 0. 0. 0.
#20|20|20  Kick
1 0. 0. 0.     
'DRIFT'    DRIF      DRF2 
40.0000   split 5 2     
'MULTIPOL'   FUN  QUAD      Q2         
20   .Quad     
100. 10.00    0.0000000000 -6.17467029E-01  0.0 0.0 0.0 0.0 0.0 0.0 0.0 0.0          
29. 18.  1.00 0.00 0.00 0.00 0.00 0. 0. 0. 0.   
6 -.010967  5.464823  .996848 1.568787 -5.671630 18.505734         
29. 18.  1.00 0.00 0.00 0.00 0.00 0. 0. 0. 0.   
6 -.010967  5.464823  .996848 1.568787 -5.671630 18.505734         
0. 0. 0. 0. 0. 0. 0. 0. 0. 0.
#20|20|20    Quad  Q2       
1 0. 0. 0.     
'DRIFT'    DRIF      DRF3 
65.          
'MULTIPOL'   FUN  QUAD      Q3         
20   .Quad     
100.1 10.00 -2.50226990E-01  8.14436770E-01 0.0 0.0 0.0 0.0 0.0 0.0 0.0 0.0 
29. 18.  1.00 0.00 0.00 0.00 0.00 0. 0. 0. 0.   
6 -.010967  5.464823  .996848 1.568787 -5.671630 18.505734         
29. 18.  1.00 0.00 0.00 0.00 0.00 0. 0. 0. 0.   
6 -.010967  5.464823  .996848 1.568787 -5.671630 18.505734         
0. 0. 0. 0. 0. 0. 0. 0. 0. 0.           
#20|20|20    Quad  Q3       
1 0. 0. 0.     
'DRIFT'    DRIF      DRF2 
 40.0000   split 5 2      
'MULTIPOL'   FUN  QUAD      Q4         
20   .Quad     
100. 10.00    0.0000000000 -7.36299540E-01 0.0 0.0 0.0 0.0 0.0 0.0 0.0 0.0         
29. 18.  1.00 0.00 0.00 0.00 0.00 0. 0. 0. 0.   
6 -.010967  5.464823  .996848 1.568787 -5.671630 18.505734         
29. 18.  1.00 0.00 0.00 0.00 0.00 0. 0. 0. 0.   
6 -.010967  5.464823  .996848 1.568787 -5.671630 18.505734         
0. 0. 0. 0. 0. 0. 0. 0. 0. 0.
#20|20|20    Quad  Q4       
1 0. 0. 0.     
'DRIFT'    DRIF      DRF4 
40.0000   split 5 2      
'MULTIPOL'   FUN HKIC      DIP4        
20   .kicker   
0.4000E+02 10.00  -1.35257476E+00  0.000000 0.0 0.0 0.0 0.0 0.0 0.0 0.0 0.0        
12. 8.  1.00 0.00 0.00 0.00 0.00 0. 0. 0. 0.    
6 .015527 3.874961 -2.362230 2.978209 12.604429 15.025689          
12. 8.  1.00 0.00 0.00 0.00 0.00 0. 0. 0. 0.    
6 .015527 3.874961 -2.362230 2.978209 12.604429 15.025689          
0. 0. 0. 0. 0. 0. 0. 0. 0. 0.
#20|20|20  Kick
1 0. 0. 0.     
'DRIFT'    DRIF      DRFM1
   44.         
'MULTIPOL'  FUN      QM1 
20   .Quad     
40.0000 10.00    0.000000  1.79773547E+00  0 0.0 0.0 0.0 0.0 0.0 0.0 0.0 0.0  
12. 8.  1.00 0.00 0.00 0.00 0.00 0. 0. 0. 0.    
6 -.010967  5.464823  .996848 1.568787 -5.671630 18.505734         
12. 8.  1.00 0.00 0.00 0.00 0.00 0. 0. 0. 0.    
6 -.010967  5.464823  .996848 1.568787 -5.671630 18.505734         
0. 0. 0. 0. 0. 0. 0. 0. 0. 0.
#20|20|20    Quad  QM1      
1 0. 0. 0.     
'DRIFT'    DRIF      DRFM2
107.  split 5 2
'MULTIPOL' FUN      QM2  
2  .Quad     
40.0000 10.00    0.0000000000 -2.40617729E+00 0.0 0.0 0.0 0.0 0.0 0.0 0.0 0.0     
12. 8.  1.00 0.00 0.00 0.00 0.00 0. 0. 0. 0.    
6 -.010967  5.464823  .996848 1.568787 -5.671630 18.505734         
12. 8.  1.00 0.00 0.00 0.00 0.00 0. 0. 0. 0.    
6 -.010967  5.464823  .996848 1.568787 -5.671630 18.505734         
0. 0. 0. 0. 0. 0. 0. 0. 0. 0.
#20|20|20    Quad  QM2      
1 0. 0. 0.     
'DRIFT'    DRIF      DRFM3 
40.0000  split 5 2
'CHAMBR'   
1  
2 50.00 50.00 0. 0. 

'INCLUDE'
1
14* FODOCell.inc[#S_muonFODO:#E_muonFODO]

'FAISCEAU' #END 
!'SYSTEM'
!1
!gnuplot <./gnuplot_Zplt_sYZ.gnu

'END'
