GSI Q-D spectrometer, using DIPOLE
'OBJET'                                                                                                      1
1000.                 750MeV/c
1
1  5    1    3   1   1
0. 20.  .0   50.  0. 1.
0. 0. 0. 0. 0. 1.
'FAISCEAU'                                                                                                   2
'DRIFT     '                                                                                                 3
60.
'QUADRUPO'                                                                                                   4
0
80.  15.  -7.6
25.  30.                LAMBDA(ZGOUBI) = 2*RADIUS(RAYTRACE) <=> CHP FUIT ID.
6  .1122 6.2671 -1.4982 3.5882 -2.1209 1.723
25.   30.
6  .1122 6.2671 -1.4982 3.5882 -2.1209 1.723
4.
1 0. 0. 0.
'DRIFT'                                                                                                      5
9.32978
'CHANGREF'                                                                                                   6
0. 0. 19.
'DIPOLE'           A single dipole, analytiq model                                                           7
0
70.      200.                             AT, RM
35. 10. 0. 0. 0.                          ACNT,  HNORM, indices
15. -1.                                       face 1
4  .1455   2.2670  -.6395  1.1558  0. 0.  0.
10.   10.    1.E6  -1.E6  1.E6  1.E6
15. -1.                                       face 2
4  .1455   2.2670  -.6395  1.1558  0. 0.  0.
-10.   -10.    1.E6  -1.E6  1.E6  1.E6
0. 0.                                        face 3
0  0.      0.      0.      0.      0. 0.  0.
0.  0.   0.    0.    0. 0. 0.
2  64.                                                 IRD(=2, 25 or 4), resol(
2.9                                         step
2   200. 0. 0. 0.
'IMAGE'                                                                                                      8
 
'END'

************************************************************************************************************************************
      1  Keyword, label(s) :  OBJET                                                                                    IPASS= 1

                          MAGNETIC  RIGIDITY =       1000.000 kG*cm

                                         TRAJECTOIRY SETTING UP

                              OBJET  (1)  BUILT  UP  FROM      15 POINTS 



                                 D         Y(cm)       T(mrd)      Z(cm)       P(mrd)      X(cm)

                     NUMBER         1           1           5           1           3           0


                    SAMPLING      1.0000      0.00       20.00        0.00       50.00        0.00


************************************************************************************************************************************
      2  Keyword, label(s) :  FAISCEAU                                                                                 IPASS= 1

0                                             TRACE DU FAISCEAU
                                           (follows element #      1)
                                                 15 TRAJECTOIRES

                                   OBJET                                                  FAISCEAU

          D       Y(cm)     T(mr)     Z(cm)     P(mr)       S(cm)      D-1     Y(cm)    T(mr)    Z(cm)    P(mr)      S(cm)

O  1   1.0000     0.000     0.000     0.000     0.000      0.0000    0.0000    0.000    0.000    0.000    0.000   0.000000E+00     1
O  1   1.0000     0.000     0.000     0.000    50.000      0.0000    0.0000    0.000    0.000    0.000   50.000   0.000000E+00     2
O  1   1.0000     0.000     0.000     0.000   -50.000      0.0000    0.0000    0.000    0.000    0.000  -50.000   0.000000E+00     3
A  1   1.0000     0.000    20.000     0.000     0.000      0.0000    0.0000    0.000   20.000    0.000    0.000   0.000000E+00     4
A  1   1.0000     0.000    20.000     0.000    50.000      0.0000    0.0000    0.000   20.000    0.000   50.000   0.000000E+00     5
A  1   1.0000     0.000    20.000     0.000   -50.000      0.0000    0.0000    0.000   20.000    0.000  -50.000   0.000000E+00     6
B  1   1.0000     0.000   -20.000     0.000     0.000      0.0000    0.0000    0.000  -20.000    0.000    0.000   0.000000E+00     7
B  1   1.0000     0.000   -20.000     0.000    50.000      0.0000    0.0000    0.000  -20.000    0.000   50.000   0.000000E+00     8
B  1   1.0000     0.000   -20.000     0.000   -50.000      0.0000    0.0000    0.000  -20.000    0.000  -50.000   0.000000E+00     9
C  1   1.0000     0.000    40.000     0.000     0.000      0.0000    0.0000    0.000   40.000    0.000    0.000   0.000000E+00    10
C  1   1.0000     0.000    40.000     0.000    50.000      0.0000    0.0000    0.000   40.000    0.000   50.000   0.000000E+00    11
C  1   1.0000     0.000    40.000     0.000   -50.000      0.0000    0.0000    0.000   40.000    0.000  -50.000   0.000000E+00    12
D  1   1.0000     0.000   -40.000     0.000     0.000      0.0000    0.0000    0.000  -40.000    0.000    0.000   0.000000E+00    13
D  1   1.0000     0.000   -40.000     0.000    50.000      0.0000    0.0000    0.000  -40.000    0.000   50.000   0.000000E+00    14
D  1   1.0000     0.000   -40.000     0.000   -50.000      0.0000    0.0000    0.000  -40.000    0.000  -50.000   0.000000E+00    15


---------------  Concentration ellipses : 
   surface/pi              alpha        beta         <X>            <XP>           numb. of prtcls   ratio      space      pass# 
                                                                                   in ellips,  out 
   0.0000E+00 [m.rad]      0.0000E+00   1.0000E+00   0.000000E+00  -9.251859E-19       15        0    0.000      (Y,T)         1
   0.0000E+00 [m.rad]      0.0000E+00   1.0000E+00   0.000000E+00   0.000000E+00       15        5   0.3333      (Z,P)         1
   0.0000E+00 [mu_s.MeV]   0.0000E+00   1.0000E+00   0.000000E+00   2.997925E+02       15        0    0.000      (t,K)         1

(Y,T)  space (units : m, rad   ) :  
      sigma_Y = sqrt(surface/pi * beta) =   0.000000E+00
      sigma_T = sqrt(surface/pi * (1+alpha^2)/beta) =   0.000000E+00

(Z,P)  space (units : m, rad   ) :  
      sigma_Z = sqrt(surface/pi * beta) =   0.000000E+00
      sigma_P = sqrt(surface/pi * (1+alpha^2)/beta) =   0.000000E+00

(t,K)  space (units : mu_s, MeV) :  
      sigma_t = sqrt(surface/pi * beta) =   0.000000E+00
      sigma_K = sqrt(surface/pi * (1+alpha^2)/beta) =   0.000000E+00


  Beam  sigma  matrix  and  determinants : 

   0.000000E+00   0.000000E+00   0.000000E+00   0.000000E+00
   0.000000E+00   8.000000E-04   0.000000E+00   0.000000E+00
   0.000000E+00   0.000000E+00   0.000000E+00   0.000000E+00
   0.000000E+00   0.000000E+00   0.000000E+00   1.666667E-03

      sqrt(det_Y), sqrt(det_Z) :     0.000000E+00    0.000000E+00    (Note :  sqrt(determinant) = ellipse surface / pi)

************************************************************************************************************************************
      3  Keyword, label(s) :  DRIFT       '                                                                            IPASS= 1


                              Drift,  length =    60.00000  cm

TRAJ #1 IEX,D,Y,T,Z,P,S,time :  1  0.000000E+00  0.000000E+00  0.000000E+00  0.000000E+00  0.000000E+00  6.0000000E+01  0.00000E+00

 Cumulative length of optical axis =   0.600000000     m   ;  Time  (for reference rigidity & particle) =   6.575779E-09 s 

************************************************************************************************************************************
      4  Keyword, label(s) :  QUADRUPO                                                                                 IPASS= 1


      -----  QUADRUPOLE  : 
                Length  of  element  =    80.000000      cm
                Bore  radius      RO =    15.000      cm                              B/RO^IM/Brho (strength)
               B-QUADRUPOLE  = -7.6000000E+00 kG   (i.e.,  -7.6000000E+00 * SCAL)    -5.0666667E+00

                Entrance  face  
                     with  fringe  field :
                     DX  =  25.000  CM 
                     LAMBDA-QUADRUPOLE = 30.000  CM
                    6 COEFFICIENTS :  0.11220  6.26710 -1.49820  3.58820 -2.12090  1.72300

                Exit  face  
                     with  fringe  field :
                     DX  =  25.000  CM 
                     LAMBDA-QUADRUPOLE = 30.000  CM
                    6 COEFFICIENTS :  0.11220  6.26710 -1.49820  3.58820 -2.12090  1.72300

                    Integration step :   4.000     cm

  A    1  1.0000     0.000     0.000     0.000     0.000          130.000     0.000     0.000     0.000     0.000            1
  A    1  1.0000     0.000     0.000     0.000    50.000          130.000     0.000     0.000     1.534    -0.075            2
  A    1  1.0000     0.000    20.000     0.000     0.000          130.000     6.286     0.144     0.000     0.000            4
  A    1  1.0000     0.000    20.000     0.000    50.000          130.000     6.286     0.144     1.518    -0.076            5
  A    1  1.0000     0.000   -20.000     0.000     0.000          130.000    -6.286    -0.144     0.000     0.000            7
  A    1  1.0000     0.000   -20.000     0.000    50.000          130.000    -6.286    -0.144     1.518    -0.076            8
  A    1  1.0000     0.000    40.000     0.000     0.000          130.000    12.789     0.287     0.000     0.000           10
  A    1  1.0000     0.000    40.000     0.000    50.000          130.000    12.789     0.287     1.464    -0.078           11
  A    1  1.0000     0.000   -40.000     0.000     0.000          130.000   -12.789    -0.287     0.000     0.000           13
  A    1  1.0000     0.000   -40.000     0.000    50.000          130.000   -12.789    -0.287     1.464    -0.078           14

     QUASEX - KPOS =  1 :  Change  of  frame  at  exit  of  element.
          X =   0.000     CM   Y =   0.000     cm,  tilt  angle =   0.0000000     RAD


 Cumulative length of optical axis =    1.40000000     m ;  Time  (for ref. rigidity & particle) =   1.534348E-08 s 

************************************************************************************************************************************
      5  Keyword, label(s) :  DRIFT                                                                                    IPASS= 1


                              Drift,  length =     9.32978  cm

TRAJ #1 IEX,D,Y,T,Z,P,S,time :  1  0.000000E+00  0.000000E+00  0.000000E+00  0.000000E+00  0.000000E+00  1.4932978E+02  2.66851E-03

 Cumulative length of optical axis =    1.49329780     m   ;  Time  (for reference rigidity & particle) =   1.636599E-08 s 

************************************************************************************************************************************
      6  Keyword, label(s) :  CHANGREF                                                                                 IPASS= 1


 CHANGE  OF  REFERENCE  FRAME,   XC =     0.000 cm , YC =     0.000  cm ,   A =    19.00000 deg  (  0.331613 rad)

TRAJ #1 IEX,D,Y,T,Z,P,S,time :  1  0.000000E+00  0.000000E+00 -3.316126E+02  0.000000E+00  0.000000E+00  1.4932978E+02  2.66851E-03

************************************************************************************************************************************
      7  Keyword, label(s) :  DIPOLE      A                     single                                                 IPASS= 1

                    Dipole  magnet

           ANGLES : A.TOTAL =  7.0000E+01 degrees     A.CENTRAL =  3.5000E+01 degrees
           RM =  2.0000E+02 cm
           HNORM =  1.0000E+01 kGauss     COEF.N =  0.0000E+00     COEF.B =  0.0000E+00     COEF.G=  0.0000E+00

     Entrance  EFB 
          Fringe  field  : LAMBDA =  15.00 CM     QSI=  -1.00
           COEFFICIENTS :  4   0.14550   2.26700  -0.63950   1.15580   0.00000   0.00000
           Shift  of  EFB  =   0.0000E+00 CM

          OMEGA =  10.00 deg.     Wedge  angle  =  10.00 deg.
           Radius 1 =  1.00E+06 CM
           Straight  segment 1 = -1.00E+06 CM
           Straight  segment 2 =  1.00E+06 CM
           Radius 2 =  1.00E+06 CM

     Exit  EFB     
          Fringe  field  : LAMBDA =  15.00 CM     QSI=  -1.00
           COEFFICIENTS :  4   0.14550   2.26700  -0.63950   1.15580   0.00000   0.00000
           Shift  of  EFB  =   0.0000E+00 CM

          OMEGA = -10.00 deg.     Wedge  angle  = -10.00 deg.
           Radius 1 =  1.00E+06 CM
           Straight  segment 1 = -1.00E+06 CM
           Straight  segment 2 =  1.00E+06 CM
           Radius 2 =  1.00E+06 CM

     Lateral  EFB  
          Fringe  field  : LAMBDA =   0.00 CM     QSI=   0.00
           COEFFICIENTS :  0   0.00000   0.00000   0.00000   0.00000   0.00000   0.00000
           Shift  of  EFB  =   0.0000E+00 CM

                     Face centred on direction ACENT+OMEGA, A   0.0000E+00 CM

          OMEGA =   0.00 deg.     Wedge  angle  =   0.00 deg.
           Radius 1 =  0.00E+00 CM
           Straight  segment 1 =  0.00E+00 CM
           Straight  segment 2 =  0.00E+00 CM
           Radius 2 =  0.00E+00 CM
********** ATTENTION |    R1 OU R2 = 0 |**********

                     Interpolation  option : 2
                     9-point  interpolation, size of flying mesh :   STEP /   64.0

                    Integration step :   2.900     cm   (i.e.,   1.4500E-02 rad  at mean radius RM =    200.0    )

                              AIMANT - KPOS = 2 ;  position of reference orbit on mechanical  faces
                                         at entrance    RE =   200.000     cm  TE =   0.00000     rad
                                         at exit        RS =   0.00000     cm  TS =   0.00000     rad

  A    1  1.0000     0.000     0.000     0.000     0.000            1.222   182.220     0.178     0.000     0.000            1
  A    1  1.0000     0.000     0.000     0.000    50.000            1.222   181.651     0.177   -11.617    -0.022            2
  A    1  1.0000     0.000    20.000     0.000     0.000            1.222   225.408     0.322     0.000     0.000            4
  A    1  1.0000     0.000    20.000     0.000    50.000            1.222   224.889     0.321   -12.516    -0.027            5
  A    1  1.0000     0.000   -20.000     0.000     0.000            1.222   144.729     0.017     0.000     0.000            7
  A    1  1.0000     0.000   -20.000     0.000    50.000            1.222   144.022     0.016   -10.951    -0.008            8
  A    1  1.0000     0.000    40.000     0.000     0.000            1.222   276.569     0.452     0.000     0.000           10
  A    1  1.0000     0.000    40.000     0.000    50.000            1.222   276.091     0.450   -13.219    -0.026           11
  A    1  1.0000     0.000   -40.000     0.000     0.000            1.222   111.411    -0.168     0.000     0.000           13
  A    1  1.0000     0.000   -40.000     0.000    50.000            1.222   110.316    -0.169   -10.820     0.019           14

 Cumulative length of optical axis =    4.05666013     m ;  Time  (for ref. rigidity & particle) =   4.445950E-08 s 

************************************************************************************************************************************
      8  Keyword, label(s) :  IMAGE                                                                                    IPASS= 1


     RECHERCHE DU POINT DE FOCALISATION HORIZONTAL DE     15 TRAJECTOIRES (SUR     15)

     POINT DE FOCALISATION HORIZONTAL SUR L ORBITE MOYENNE    X =  -252.202     CM    Y =   136.796     CM

     DECALAGE DU CENTRE DE GRAVITE EN Y =    8.34546     CM

     LARGEUR IMAGE,  A MI-HAUTEUR =   17.2528     CM,  TOTALE =   17.7433     CM
                                      .........                 .........

0                                             TRACE DU FAISCEAU
                                           (follows element #      7)
                                                 15 TRAJECTOIRES

                                   OBJET                                                  FAISCEAU

          D       Y(cm)     T(mr)     Z(cm)     P(mr)       S(cm)      D-1     Y(cm)    T(mr)    Z(cm)    P(mr)      S(cm)

O  1   1.0000     0.000     0.000     0.000     0.000      0.0000    0.0000  182.220  178.200    0.000    0.000   3.802728E+02     1
O  1   1.0000     0.000     0.000     0.000    50.000      0.0000    0.0000  181.651  177.114  -11.617  -21.729   3.808045E+02     2
O  1   1.0000     0.000     0.000     0.000   -50.000      0.0000    0.0000  181.651  177.114   11.617   21.729   3.808045E+02     3
A  1   1.0000     0.000    20.000     0.000     0.000      0.0000    0.0000  225.408  322.284    0.000    0.000   4.091101E+02     4
A  1   1.0000     0.000    20.000     0.000    50.000      0.0000    0.0000  224.889  320.936  -12.516  -27.357   4.096229E+02     5
A  1   1.0000     0.000    20.000     0.000   -50.000      0.0000    0.0000  224.889  320.936   12.516   27.357   4.096229E+02     6
B  1   1.0000     0.000   -20.000     0.000     0.000      0.0000    0.0000  144.729   16.886    0.000    0.000   3.590624E+02     7
B  1   1.0000     0.000   -20.000     0.000    50.000      0.0000    0.0000  144.022   16.102  -10.951   -8.478   3.596747E+02     8
B  1   1.0000     0.000   -20.000     0.000   -50.000      0.0000    0.0000  144.022   16.102   10.951    8.478   3.596747E+02     9
C  1   1.0000     0.000    40.000     0.000     0.000      0.0000    0.0000  276.569  451.640    0.000    0.000   4.481116E+02    10
C  1   1.0000     0.000    40.000     0.000    50.000      0.0000    0.0000  276.091  450.034  -13.219  -26.250   4.486738E+02    11
C  1   1.0000     0.000    40.000     0.000   -50.000      0.0000    0.0000  276.091  450.034   13.219   26.250   4.486738E+02    12
D  1   1.0000     0.000   -40.000     0.000     0.000      0.0000    0.0000  111.411 -168.124    0.000    0.000   3.437932E+02    13
D  1   1.0000     0.000   -40.000     0.000    50.000      0.0000    0.0000  110.316 -168.945  -10.820   18.900   3.446347E+02    14
D  1   1.0000     0.000   -40.000     0.000   -50.000      0.0000    0.0000  110.316 -168.945   10.820  -18.900   3.446347E+02    15


---------------  Concentration ellipses : 
   surface/pi              alpha        beta         <X>            <XP>           numb. of prtcls   ratio      space      pass# 
                                                                                   in ellips,  out 
   1.9650E-02 [m.rad]     -6.4339E+00   1.7396E+01   1.876185E+00   1.594246E-01       15        9   0.6000      (Y,T)         1
   1.3035E-03 [m.rad]     -8.4914E-01   7.1943E+00   0.000000E+00   0.000000E+00       15       13   0.8667      (Z,P)         1
   7.0329E-17 [mu_s.MeV]   2.4303E-15   2.1766E+10   1.063594E-02   2.997925E+02       15       12   0.8000      (t,K)         1

(Y,T)  space (units : m, rad   ) :  
      sigma_Y = sqrt(surface/pi * beta) =   5.846569E-01
      sigma_T = sqrt(surface/pi * (1+alpha^2)/beta) =   2.188320E-01

(Z,P)  space (units : m, rad   ) :  
      sigma_Z = sqrt(surface/pi * beta) =   9.684029E-02
      sigma_P = sqrt(surface/pi * (1+alpha^2)/beta) =   1.765872E-02

(t,K)  space (units : mu_s, MeV) :  
      sigma_t = sqrt(surface/pi * beta) =   1.237240E-03
      sigma_K = sqrt(surface/pi * (1+alpha^2)/beta) =   5.684342E-14


  Beam  sigma  matrix  and  determinants : 

   3.418236E-01   1.264237E-01   0.000000E+00   0.000000E+00
   1.264237E-01   4.788744E-02   0.000000E+00   0.000000E+00
   0.000000E+00   0.000000E+00   9.378042E-03   1.106874E-03
   0.000000E+00   0.000000E+00   1.106874E-03   3.118304E-04

      sqrt(det_Y), sqrt(det_Z) :     1.964971E-02    1.303529E-03    (Note :  sqrt(determinant) = ellipse surface / pi)

************************************************************************************************************************************
      9  Keyword, label(s) :  END                                                                                      IPASS= 1


                            15 particles have been launched
                     Made  it  to  the  end :     15

************************************************************************************************************************************
 Pgm zgoubi : Execution ended normally, upon keyword END or FIN
   
 File in:   DIPOLE.res
 File out:  zgoubi.res

  Zgoubi, author's dvlpmnt version.
  Job  started  on  17-02-2021,  at  12:47:55 
  JOB  ENDED  ON    17-02-2021,  AT  12:47:55 

   CPU time, total :     1.2737000000000000E-002
