%!PS-Adobe-2.0 EPSF-2.0
%%Title: phase-dp.eps
%%Titre: phase-dp.eps
%%Creator: Fminigraf Library
%%BoundingBox: 20 40 567 457
%%EndComments
/offx 20 def
/offy 40 def
/lx 595 def
/ly 842 def
/maxx 1023 def
/maxy 779 def
/reduc 0.92 def
/coeff lx maxx div reduc mul def
offx offy translate
coeff coeff scale
1 setlinewidth newpath 0 0 moveto
/Courier-Bold findfont 32 scalefont setfont
/M {moveto} def
/L {lineto} def
/S {stroke} def
/H {show} def
/D {setdash} def
0 0 0 setrgbcolor
[] 0 D
[2 3] 0 D
121 156 M 121 740 L S
[] 0 D
/Courier-Bold findfont 30 scalefont setfont
91 128 M (1.175) H
121 156 M 121 166 L S
121 511 M 121 531 L S
121 730 M 121 740 L S
143 156 M 143 161 L S
143 516 M 143 526 L S
143 735 M 143 740 L S
164 156 M 164 161 L S
164 516 M 164 526 L S
164 735 M 164 740 L S
186 156 M 186 161 L S
186 516 M 186 526 L S
186 735 M 186 740 L S
207 156 M 207 161 L S
207 516 M 207 526 L S
207 735 M 207 740 L S
[2 3] 0 D
229 156 M 229 740 L S
[] 0 D
229 156 M 229 166 L S
229 511 M 229 531 L S
229 730 M 229 740 L S
250 156 M 250 161 L S
250 516 M 250 526 L S
250 735 M 250 740 L S
272 156 M 272 161 L S
272 516 M 272 526 L S
272 735 M 272 740 L S
293 156 M 293 161 L S
293 516 M 293 526 L S
293 735 M 293 740 L S
315 156 M 315 161 L S
315 516 M 315 526 L S
315 735 M 315 740 L S
[2 3] 0 D
336 156 M 336 740 L S
[] 0 D
306 128 M (1.185) H
336 156 M 336 166 L S
336 511 M 336 531 L S
336 730 M 336 740 L S
358 156 M 358 161 L S
358 516 M 358 526 L S
358 735 M 358 740 L S
379 156 M 379 161 L S
379 516 M 379 526 L S
379 735 M 379 740 L S
401 156 M 401 161 L S
401 516 M 401 526 L S
401 735 M 401 740 L S
422 156 M 422 161 L S
422 516 M 422 526 L S
422 735 M 422 740 L S
[2 3] 0 D
444 156 M 444 740 L S
[] 0 D
444 156 M 444 166 L S
444 511 M 444 531 L S
444 730 M 444 740 L S
465 156 M 465 161 L S
465 516 M 465 526 L S
465 735 M 465 740 L S
487 156 M 487 161 L S
487 516 M 487 526 L S
487 735 M 487 740 L S
508 156 M 508 161 L S
508 516 M 508 526 L S
508 735 M 508 740 L S
530 156 M 530 161 L S
530 516 M 530 526 L S
530 735 M 530 740 L S
[2 3] 0 D
551 156 M 551 740 L S
[] 0 D
521 128 M (1.195) H
551 156 M 551 166 L S
551 511 M 551 531 L S
551 730 M 551 740 L S
573 156 M 573 161 L S
573 516 M 573 526 L S
573 735 M 573 740 L S
594 156 M 594 161 L S
594 516 M 594 526 L S
594 735 M 594 740 L S
616 156 M 616 161 L S
616 516 M 616 526 L S
616 735 M 616 740 L S
637 156 M 637 161 L S
637 516 M 637 526 L S
637 735 M 637 740 L S
[2 3] 0 D
659 156 M 659 740 L S
[] 0 D
659 156 M 659 166 L S
659 511 M 659 531 L S
659 730 M 659 740 L S
680 156 M 680 161 L S
680 516 M 680 526 L S
680 735 M 680 740 L S
702 156 M 702 161 L S
702 516 M 702 526 L S
702 735 M 702 740 L S
723 156 M 723 161 L S
723 516 M 723 526 L S
723 735 M 723 740 L S
745 156 M 745 161 L S
745 516 M 745 526 L S
745 735 M 745 740 L S
[2 3] 0 D
766 156 M 766 740 L S
[] 0 D
736 128 M (1.205) H
766 156 M 766 166 L S
766 511 M 766 531 L S
766 730 M 766 740 L S
788 156 M 788 161 L S
788 516 M 788 526 L S
788 735 M 788 740 L S
809 156 M 809 161 L S
809 516 M 809 526 L S
809 735 M 809 740 L S
831 156 M 831 161 L S
831 516 M 831 526 L S
831 735 M 831 740 L S
852 156 M 852 161 L S
852 516 M 852 526 L S
852 735 M 852 740 L S
[2 3] 0 D
874 156 M 874 740 L S
[] 0 D
874 156 M 874 166 L S
874 511 M 874 531 L S
874 730 M 874 740 L S
895 156 M 895 161 L S
895 516 M 895 526 L S
895 735 M 895 740 L S
916 156 M 916 161 L S
916 516 M 916 526 L S
916 735 M 916 740 L S
938 156 M 938 161 L S
938 516 M 938 526 L S
938 735 M 938 740 L S
959 156 M 959 161 L S
959 516 M 959 526 L S
959 735 M 959 740 L S
[2 3] 0 D
102 163 M 972 163 L S
[] 0 D
9 153 M (-.00025) H
102 163 M 112 163 L S
962 163 M 972 163 L S
102 178 M 107 178 L S
967 178 M 972 178 L S
102 192 M 107 192 L S
967 192 M 972 192 L S
102 206 M 107 206 L S
967 206 M 972 206 L S
102 221 M 107 221 L S
967 221 M 972 221 L S
[2 3] 0 D
102 235 M 972 235 L S
[] 0 D
15 225 M (-.0002) H
102 235 M 112 235 L S
962 235 M 972 235 L S
102 249 M 107 249 L S
967 249 M 972 249 L S
102 264 M 107 264 L S
967 264 M 972 264 L S
102 278 M 107 278 L S
967 278 M 972 278 L S
102 292 M 107 292 L S
967 292 M 972 292 L S
[2 3] 0 D
102 307 M 972 307 L S
[] 0 D
9 297 M (-.00015) H
102 307 M 112 307 L S
962 307 M 972 307 L S
102 321 M 107 321 L S
967 321 M 972 321 L S
102 335 M 107 335 L S
967 335 M 972 335 L S
102 350 M 107 350 L S
967 350 M 972 350 L S
102 364 M 107 364 L S
967 364 M 972 364 L S
[2 3] 0 D
102 378 M 972 378 L S
[] 0 D
15 368 M (-.0001) H
102 378 M 112 378 L S
962 378 M 972 378 L S
102 393 M 107 393 L S
967 393 M 972 393 L S
102 407 M 107 407 L S
967 407 M 972 407 L S
102 421 M 107 421 L S
967 421 M 972 421 L S
102 436 M 107 436 L S
967 436 M 972 436 L S
[2 3] 0 D
102 450 M 972 450 L S
[] 0 D
27 440 M (-0.5) H
33 421 M (E-4) H
102 450 M 112 450 L S
962 450 M 972 450 L S
102 464 M 107 464 L S
967 464 M 972 464 L S
102 479 M 107 479 L S
967 479 M 972 479 L S
102 493 M 107 493 L S
967 493 M 972 493 L S
102 507 M 107 507 L S
967 507 M 972 507 L S
[2 3] 0 D
102 521 M 972 521 L S
[] 0 D
33 511 M (0.0) H
102 521 M 112 521 L S
962 521 M 972 521 L S
102 536 M 107 536 L S
967 536 M 972 536 L S
102 550 M 107 550 L S
967 550 M 972 550 L S
102 564 M 107 564 L S
967 564 M 972 564 L S
102 579 M 107 579 L S
967 579 M 972 579 L S
[2 3] 0 D
102 593 M 972 593 L S
[] 0 D
33 583 M (0.5) H
33 564 M (E-4) H
102 593 M 112 593 L S
962 593 M 972 593 L S
102 607 M 107 607 L S
967 607 M 972 607 L S
102 622 M 107 622 L S
967 622 M 972 622 L S
102 636 M 107 636 L S
967 636 M 972 636 L S
102 650 M 107 650 L S
967 650 M 972 650 L S
[2 3] 0 D
102 665 M 972 665 L S
[] 0 D
15 655 M (0.0001) H
102 665 M 112 665 L S
962 665 M 972 665 L S
102 679 M 107 679 L S
967 679 M 972 679 L S
102 693 M 107 693 L S
967 693 M 972 693 L S
102 708 M 107 708 L S
967 708 M 972 708 L S
102 722 M 107 722 L S
967 722 M 972 722 L S
[2 3] 0 D
102 736 M 972 736 L S
[] 0 D
9 726 M (0.00015) H
102 736 M 112 736 L S
962 736 M 972 736 L S
[] 0 D
102 156 M 972 156 L S
972 156 M 972 740 L S
972 740 M 102 740 L S
102 740 M 102 156 L S
102 521 M 972 521 L S
102 428 M 102 429 L S
102 428 M 102 429 L S
102 428 M 102 429 L S
123 341 M 123 342 L S
123 341 M 123 342 L S
172 267 M 172 268 L S
172 267 M 172 268 L S
235 211 M 235 212 L S
235 211 M 235 212 L S
306 173 M 306 174 L S
306 173 M 306 174 L S
393 156 M 393 157 L S
393 156 M 393 157 L S
496 163 M 496 164 L S
496 163 M 496 164 L S
605 196 M 605 197 L S
605 196 M 605 197 L S
702 249 M 702 250 L S
702 249 M 702 250 L S
771 316 M 771 317 L S
771 316 M 771 317 L S
807 390 M 807 391 L S
807 390 M 807 391 L S
822 466 M 822 467 L S
822 466 M 822 467 L S
823 541 M 823 542 L S
806 611 M 806 612 L S
806 611 M 806 612 L S
764 671 M 764 672 L S
764 671 M 764 672 L S
691 715 M 691 716 L S
691 715 M 691 716 L S
595 738 M 595 739 L S
595 738 M 595 739 L S
494 740 M 494 741 L S
494 740 M 494 741 L S
405 723 M 405 724 L S
405 723 M 405 724 L S
327 689 M 327 690 L S
327 689 M 327 690 L S
258 642 M 258 643 L S
258 642 M 258 643 L S
194 582 M 194 583 L S
194 582 M 194 583 L S
142 512 M 142 513 L S
142 512 M 142 513 L S
118 438 M 118 439 L S
118 438 M 118 439 L S
118 438 M 118 439 L S
129 367 M 129 368 L S
129 367 M 129 368 L S
169 306 M 169 307 L S
169 306 M 169 307 L S
228 258 M 228 259 L S
228 258 M 228 259 L S
292 223 M 292 224 L S
292 223 M 292 224 L S
360 202 M 360 203 L S
360 202 M 360 203 L S
440 197 M 440 198 L S
440 197 M 440 198 L S
532 209 M 532 210 L S
532 209 M 532 210 L S
625 239 M 625 240 L S
625 239 M 625 240 L S
705 284 M 705 285 L S
705 284 M 705 285 L S
760 337 M 760 338 L S
760 337 M 760 338 L S
790 396 M 790 397 L S
790 396 M 790 397 L S
806 456 M 806 457 L S
806 456 M 806 457 L S
812 517 M 812 518 L S
802 575 M 802 576 L S
802 575 M 802 576 L S
770 626 M 770 627 L S
770 626 M 770 627 L S
710 667 M 710 668 L S
710 667 M 710 668 L S
630 693 M 630 694 L S
630 693 M 630 694 L S
547 704 M 547 705 L S
547 704 M 547 705 L S
471 701 M 471 702 L S
471 701 M 471 702 L S
400 687 M 400 688 L S
400 687 M 400 688 L S
330 660 M 330 661 L S
330 660 M 330 661 L S
259 620 M 259 621 L S
259 620 M 259 621 L S
195 570 M 195 571 L S
195 570 M 195 571 L S
153 513 M 153 514 L S
153 513 M 153 514 L S
141 455 M 141 456 L S
141 455 M 141 456 L S
141 455 M 141 456 L S
151 399 M 151 400 L S
151 399 M 151 400 L S
177 349 M 177 350 L S
177 349 M 177 350 L S
208 304 M 208 305 L S
208 304 M 208 305 L S
250 267 M 250 268 L S
250 267 M 250 268 L S
310 241 M 310 242 L S
310 241 M 310 242 L S
389 228 M 389 229 L S
389 228 M 389 229 L S
475 230 M 475 231 L S
475 230 M 475 231 L S
557 244 M 557 245 L S
557 244 M 557 245 L S
623 269 M 623 270 L S
623 269 M 623 270 L S
677 302 M 677 303 L S
677 302 M 677 303 L S
726 342 M 726 343 L S
726 342 M 726 343 L S
771 388 M 771 389 L S
771 388 M 771 389 L S
804 439 M 804 440 L S
804 439 M 804 440 L S
815 491 M 815 492 L S
798 540 M 798 541 L S
798 540 M 798 541 L S
762 582 M 762 583 L S
762 582 M 762 583 L S
718 618 M 718 619 L S
718 618 M 718 619 L S
671 647 M 671 648 L S
671 647 M 671 648 L S
617 667 M 617 668 L S
617 667 M 617 668 L S
552 677 M 552 678 L S
552 677 M 552 678 L S
473 675 M 473 676 L S
473 675 M 473 676 L S
392 662 M 392 663 L S
392 662 M 392 663 L S
322 638 M 322 639 L S
322 638 M 322 639 L S
269 606 M 269 607 L S
269 606 M 269 607 L S
228 568 M 228 569 L S
228 568 M 228 569 L S
196 526 M 196 527 L S
196 526 M 196 527 L S
167 480 M 167 481 L S
167 480 M 167 481 L S
152 433 M 152 434 L S
152 433 M 152 434 L S
152 433 M 152 434 L S
158 387 M 158 388 L S
158 387 M 158 388 L S
189 346 M 189 347 L S
189 346 M 189 347 L S
236 312 M 236 313 L S
236 312 M 236 313 L S
289 286 M 289 287 L S
289 286 M 289 287 L S
340 268 M 340 269 L S
340 268 M 340 269 L S
395 257 M 395 258 L S
395 257 M 395 258 L S
461 256 M 461 257 L S
461 256 M 461 257 L S
535 266 M 535 267 L S
535 266 M 535 267 L S
608 285 M 608 286 L S
608 285 M 608 286 L S
670 312 M 670 313 L S
670 312 M 670 313 L S
712 344 M 712 345 L S
712 344 M 712 345 L S
742 380 M 742 381 L S
742 380 M 742 381 L S
768 419 M 768 420 L S
768 419 M 768 420 L S
787 460 M 787 461 L S
787 460 M 787 461 L S
795 502 M 795 503 L S
783 542 M 783 543 L S
783 542 M 783 543 L S
749 577 M 749 578 L S
749 577 M 749 578 L S
702 605 M 702 606 L S
702 605 M 702 606 L S
652 627 M 652 628 L S
652 627 M 652 628 L S
603 643 M 603 644 L S
603 643 M 603 644 L S
549 651 M 549 652 L S
549 651 M 549 652 L S
487 652 M 487 653 L S
487 652 M 487 653 L S
415 643 M 415 644 L S
415 643 M 415 644 L S
346 626 M 346 627 L S
346 626 M 346 627 L S
291 601 M 291 602 L S
291 601 M 291 602 L S
250 572 M 250 573 L S
250 572 M 250 573 L S
221 539 M 221 540 L S
221 539 M 221 540 L S
195 503 M 195 504 L S
195 503 M 195 504 L S
174 464 M 174 465 L S
174 464 M 174 465 L S
165 425 M 165 426 L S
165 425 M 165 426 L S
165 425 M 165 426 L S
177 388 M 177 389 L S
177 388 M 177 389 L S
207 354 M 207 355 L S
207 354 M 207 355 L S
250 327 M 250 328 L S
250 327 M 250 328 L S
294 305 M 294 306 L S
294 305 M 294 306 L S
339 289 M 339 290 L S
339 289 M 339 290 L S
389 279 M 389 280 L S
389 279 M 389 280 L S
449 277 M 449 278 L S
449 277 M 449 278 L S
516 283 M 516 284 L S
516 283 M 516 284 L S
582 296 M 582 297 L S
582 296 M 582 297 L S
637 316 M 637 317 L S
637 316 M 637 317 L S
679 340 M 679 341 L S
679 340 M 679 341 L S
711 368 M 711 369 L S
711 368 M 711 369 L S
743 399 M 743 400 L S
743 399 M 743 400 L S
770 433 M 770 434 L S
770 433 M 770 434 L S
786 468 M 786 469 L S
783 503 M 783 504 L S
783 503 M 783 504 L S
761 535 M 761 536 L S
761 535 M 761 536 L S
729 563 M 729 564 L S
729 563 M 729 564 L S
696 587 M 696 588 L S
696 587 M 696 588 L S
659 607 M 659 608 L S
659 607 M 659 608 L S
617 623 M 617 624 L S
617 623 M 617 624 L S
562 632 M 562 633 L S
562 632 M 562 633 L S
497 633 M 497 634 L S
497 633 M 497 634 L S
432 628 M 432 629 L S
432 628 M 432 629 L S
378 616 M 378 617 L S
378 616 M 378 617 L S
332 599 M 332 600 L S
332 599 M 332 600 L S
293 579 M 293 580 L S
293 579 M 293 580 L S
252 553 M 252 554 L S
252 553 M 252 554 L S
214 524 M 214 525 L S
214 524 M 214 525 L S
186 492 M 186 493 L S
186 492 M 186 493 L S
176 459 M 176 460 L S
176 459 M 176 460 L S
176 459 M 176 460 L S
184 427 M 184 428 L S
184 427 M 184 428 L S
201 397 M 201 398 L S
201 397 M 201 398 L S
221 370 M 221 371 L S
221 370 M 221 371 L S
244 345 M 244 346 L S
244 345 M 244 346 L S
277 324 M 277 325 L S
277 324 M 277 325 L S
324 308 M 324 309 L S
324 308 M 324 309 L S
381 299 M 381 300 L S
381 299 M 381 300 L S
441 296 M 441 297 L S
441 296 M 441 297 L S
494 299 M 494 300 L S
494 299 M 494 300 L S
541 306 M 541 307 L S
541 306 M 541 307 L S
587 318 M 587 319 L S
587 318 M 587 319 L S
636 335 M 636 336 L S
636 335 M 636 336 L S
685 357 M 685 358 L S
685 357 M 685 358 L S
725 382 M 725 383 L S
725 382 M 725 383 L S
749 410 M 749 411 L S
749 410 M 749 411 L S
758 438 M 758 439 L S
758 438 M 758 439 L S
760 467 M 760 468 L S
759 495 M 759 496 L S
759 495 M 759 496 L S
754 522 M 754 523 L S
754 522 M 754 523 L S
739 548 M 739 549 L S
739 548 M 739 549 L S
708 571 M 708 572 L S
708 571 M 708 572 L S
664 589 M 664 590 L S
664 589 M 664 590 L S
615 602 M 615 603 L S
615 602 M 615 603 L S
571 611 M 571 612 L S
571 611 M 571 612 L S
528 615 M 528 616 L S
528 615 M 528 616 L S
481 615 M 481 616 L S
481 615 M 481 616 L S
426 610 M 426 611 L S
426 610 M 426 611 L S
369 599 M 369 600 L S
369 599 M 369 600 L S
318 583 M 318 584 L S
318 583 M 318 584 L S
278 563 M 278 564 L S
278 563 M 278 564 L S
251 541 M 251 542 L S
251 541 M 251 542 L S
229 517 M 229 518 L S
229 517 M 229 518 L S
207 491 M 207 492 L S
207 491 M 207 492 L S
190 463 M 190 464 L S
190 463 M 190 464 L S
184 435 M 184 436 L S
184 435 M 184 436 L S
184 435 M 184 436 L S
195 408 M 195 409 L S
195 408 M 195 409 L S
219 384 M 219 385 L S
219 384 M 219 385 L S
249 363 M 249 364 L S
249 363 M 249 364 L S
279 344 M 279 345 L S
279 344 M 279 345 L S
310 329 M 310 330 L S
310 329 M 310 330 L S
350 318 M 350 319 L S
350 318 M 350 319 L S
400 311 M 400 312 L S
400 311 M 400 312 L S
456 310 M 456 311 L S
456 310 M 456 311 L S
510 314 M 510 315 L S
510 314 M 510 315 L S
557 322 M 557 323 L S
557 322 M 557 323 L S
596 333 M 596 334 L S
596 333 M 596 334 L S
634 348 M 634 349 L S
634 348 M 634 349 L S
673 366 M 673 367 L S
673 366 M 673 367 L S
712 388 M 712 389 L S
712 388 M 712 389 L S
741 411 M 741 412 L S
741 411 M 741 412 L S
754 436 M 754 437 L S
753 461 M 753 462 L S
753 461 M 753 462 L S
750 485 M 750 486 L S
750 485 M 750 486 L S
745 508 M 745 509 L S
745 508 M 745 509 L S
736 531 M 736 532 L S
736 531 M 736 532 L S
716 551 M 716 552 L S
716 551 M 716 552 L S
682 569 M 682 570 L S
682 569 M 682 570 L S
639 583 M 639 584 L S
639 583 M 639 584 L S
594 593 M 594 594 L S
594 593 M 594 594 L S
553 599 M 553 600 L S
553 599 M 553 600 L S
514 602 M 514 603 L S
514 602 M 514 603 L S
471 601 M 471 602 L S
471 601 M 471 602 L S
421 596 M 421 597 L S
421 596 M 421 597 L S
367 586 M 367 587 L S
367 586 M 367 587 L S
322 572 M 322 573 L S
322 572 M 322 573 L S
288 556 M 288 557 L S
288 556 M 288 557 L S
264 537 M 264 538 L S
264 537 M 264 538 L S
241 517 M 241 518 L S
241 517 M 241 518 L S
219 494 M 219 495 L S
219 494 M 219 495 L S
199 471 M 199 472 L S
199 471 M 199 472 L S
193 446 M 193 447 L S
193 446 M 193 447 L S
193 446 M 193 447 L S
202 423 M 202 424 L S
202 423 M 202 424 L S
221 401 M 221 402 L S
221 401 M 221 402 L S
243 382 M 243 383 L S
243 382 M 243 383 L S
265 364 M 265 365 L S
265 364 M 265 365 L S
289 349 M 289 350 L S
289 349 M 289 350 L S
322 336 M 322 337 L S
322 336 M 322 337 L S
365 328 M 365 329 L S
365 328 M 365 329 L S
418 323 M 418 324 L S
418 323 M 418 324 L S
467 323 M 467 324 L S
467 323 M 467 324 L S
510 326 M 510 327 L S
510 326 M 510 327 L S
548 332 M 548 333 L S
548 332 M 548 333 L S
589 342 M 589 343 L S
589 342 M 589 343 L S
632 354 M 632 355 L S
632 354 M 632 355 L S
674 370 M 674 371 L S
674 370 M 674 371 L S
706 389 M 706 390 L S
706 389 M 706 390 L S
725 408 M 725 409 L S
725 408 M 725 409 L S
734 429 M 734 430 L S
734 429 M 734 430 L S
741 449 M 741 450 L S
741 449 M 741 450 L S
749 471 M 749 472 L S
749 471 M 749 472 L S
754 492 M 754 493 L S
746 513 M 746 514 L S
746 513 M 746 514 L S
725 532 M 725 533 L S
725 532 M 725 533 L S
694 549 M 694 550 L S
694 549 M 694 550 L S
663 563 M 663 564 L S
663 563 M 663 564 L S
633 575 M 633 576 L S
633 575 M 633 576 L S
600 584 M 600 585 L S
600 584 M 600 585 L S
561 590 M 561 591 L S
561 590 M 561 591 L S
512 592 M 512 593 L S
512 592 M 512 593 L S
460 590 M 460 591 L S
460 590 M 460 591 L S
413 585 M 413 586 L S
413 585 M 413 586 L S
378 577 M 378 578 L S
378 577 M 378 578 L S
346 567 M 346 568 L S
346 567 M 346 568 L S
314 554 M 314 555 L S
314 554 M 314 555 L S
278 538 M 278 539 L S
278 538 M 278 539 L S
246 521 M 246 522 L S
246 521 M 246 522 L S
225 501 M 225 502 L S
225 501 M 225 502 L S
216 481 M 216 482 L S
216 481 M 216 482 L S
215 461 M 215 462 L S
215 461 M 215 462 L S
215 461 M 215 462 L S
216 441 M 216 442 L S
216 441 M 216 442 L S
217 422 M 217 423 L S
217 422 M 217 423 L S
222 403 M 222 404 L S
222 403 M 222 404 L S
239 385 M 239 386 L S
239 385 M 239 386 L S
268 370 M 268 371 L S
268 370 M 268 371 L S
302 357 M 302 358 L S
302 357 M 302 358 L S
340 347 M 340 348 L S
340 347 M 340 348 L S
374 340 M 374 341 L S
374 340 M 374 341 L S
409 335 M 409 336 L S
409 335 M 409 336 L S
450 334 M 450 335 L S
450 334 M 450 335 L S
498 336 M 498 337 L S
498 336 M 498 337 L S
546 341 M 546 342 L S
546 341 M 546 342 L S
587 350 M 587 351 L S
587 350 M 587 351 L S
619 360 M 619 361 L S
619 360 M 619 361 L S
647 373 M 647 374 L S
647 373 M 647 374 L S
675 387 M 675 388 L S
675 387 M 675 388 L S
703 403 M 703 404 L S
703 403 M 703 404 L S
727 421 M 727 422 L S
727 421 M 727 422 L S
741 439 M 741 440 L S
741 439 M 741 440 L S
742 458 M 742 459 L S
735 476 M 735 477 L S
735 476 M 735 477 L S
728 493 M 728 494 L S
728 493 M 728 494 L S
723 510 M 723 511 L S
723 510 M 723 511 L S
713 527 M 713 528 L S
713 527 M 713 528 L S
694 541 M 694 542 L S
694 541 M 694 542 L S
662 554 M 662 555 L S
662 554 M 662 555 L S
626 564 M 626 565 L S
626 564 M 626 565 L S
591 572 M 591 573 L S
591 572 M 591 573 L S
559 577 M 559 578 L S
559 577 M 559 578 L S
525 580 M 525 581 L S
525 580 M 525 581 L S
486 581 M 486 582 L S
486 581 M 486 582 L S
440 578 M 440 579 L S
440 578 M 440 579 L S
395 572 M 395 573 L S
395 572 M 395 573 L S
357 564 M 357 565 L S
357 564 M 357 565 L S
327 553 M 327 554 L S
327 553 M 327 554 L S
300 541 M 300 542 L S
300 541 M 300 542 L S
273 527 M 273 528 L S
273 527 M 273 528 L S
244 511 M 244 512 L S
244 511 M 244 512 L S
220 493 M 220 494 L S
220 493 M 220 494 L S
211 475 M 211 476 L S
211 475 M 211 476 L S
211 475 M 211 476 L S
213 456 M 213 457 L S
213 456 M 213 457 L S
221 439 M 221 440 L S
221 439 M 221 440 L S
229 422 M 229 423 L S
229 422 M 229 423 L S
238 406 M 238 407 L S
238 406 M 238 407 L S
251 391 M 251 392 L S
251 391 M 251 392 L S
275 378 M 275 379 L S
275 378 M 275 379 L S
308 366 M 308 367 L S
308 366 M 308 367 L S
345 358 M 345 359 L S
345 358 M 345 359 L S
380 351 M 380 352 L S
380 351 M 380 352 L S
411 347 M 411 348 L S
411 347 M 411 348 L S
444 345 M 444 346 L S
444 345 M 444 346 L S
482 345 M 482 346 L S
482 345 M 482 346 L S
525 349 M 525 350 L S
525 349 M 525 350 L S
567 355 M 567 356 L S
567 355 M 567 356 L S
602 363 M 602 364 L S
602 363 M 602 364 L S
628 372 M 628 373 L S
628 372 M 628 373 L S
652 384 M 652 385 L S
652 384 M 652 385 L S
676 396 M 676 397 L S
676 396 M 676 397 L S
702 411 M 702 412 L S
702 411 M 702 412 L S
722 426 M 722 427 L S
722 426 M 722 427 L S
735 443 M 735 444 L S
735 443 M 735 444 L S
737 459 M 737 460 L S
734 475 M 734 476 L S
734 475 M 734 476 L S
731 491 M 731 492 L S
731 491 M 731 492 L S
727 506 M 727 507 L S
727 506 M 727 507 L S
717 521 M 717 522 L S
717 521 M 717 522 L S
698 534 M 698 535 L S
698 534 M 698 535 L S
668 546 M 668 547 L S
668 546 M 668 547 L S
635 556 M 635 557 L S
635 556 M 635 557 L S
604 563 M 604 564 L S
604 563 M 604 564 L S
576 569 M 576 570 L S
576 569 M 576 570 L S
544 573 M 544 574 L S
544 573 M 544 574 L S
506 575 M 506 576 L S
506 575 M 506 576 L S
462 573 M 462 574 L S
462 573 M 462 574 L S
420 569 M 420 570 L S
420 569 M 420 570 L S
384 563 M 384 564 L S
384 563 M 384 564 L S
354 555 M 354 556 L S
354 555 M 354 556 L S
327 546 M 327 547 L S
327 546 M 327 547 L S
297 534 M 297 535 L S
297 534 M 297 535 L S
266 521 M 266 522 L S
266 521 M 266 522 L S
240 506 M 240 507 L S
240 506 M 240 507 L S
225 490 M 225 491 L S
225 490 M 225 491 L S
219 474 M 219 475 L S
219 474 M 219 475 L S
218 458 M 218 459 L S
218 458 M 218 459 L S
217 442 M 217 443 L S
217 442 M 217 443 L S
217 442 M 217 443 L S
219 426 M 219 427 L S
219 426 M 219 427 L S
227 411 M 227 412 L S
227 411 M 227 412 L S
247 397 M 247 398 L S
247 397 M 247 398 L S
274 384 M 274 385 L S
274 384 M 274 385 L S
305 374 M 305 375 L S
305 374 M 305 375 L S
334 366 M 334 367 L S
334 366 M 334 367 L S
361 359 M 361 360 L S
361 359 M 361 360 L S
392 354 M 392 355 L S
392 354 M 392 355 L S
429 351 M 429 352 L S
429 351 M 429 352 L S
471 351 M 471 352 L S
471 351 M 471 352 L S
513 354 M 513 355 L S
513 354 M 513 355 L S
548 358 M 548 359 L S
548 358 M 548 359 L S
577 364 M 577 365 L S
577 364 M 577 365 L S
605 371 M 605 372 L S
605 371 M 605 372 L S
636 381 M 636 382 L S
636 381 M 636 382 L S
668 392 M 668 393 L S
668 392 M 668 393 L S
695 404 M 695 405 L S
695 404 M 695 405 L S
712 418 M 712 419 L S
712 418 M 712 419 L S
721 432 M 721 433 L S
721 432 M 721 433 L S
726 446 M 726 447 L S
726 446 M 726 447 L S
732 460 M 732 461 L S
732 460 M 732 461 L S
736 475 M 736 476 L S
735 490 M 735 491 L S
735 490 M 735 491 L S
723 503 M 723 504 L S
723 503 M 723 504 L S
702 516 M 702 517 L S
702 516 M 702 517 L S
678 527 M 678 528 L S
678 527 M 678 528 L S
657 537 M 657 538 L S
657 537 M 657 538 L S
635 546 M 635 547 L S
635 546 M 635 547 L S
610 553 M 610 554 L S
610 553 M 610 554 L S
579 559 M 579 560 L S
579 559 M 579 560 L S
542 562 M 542 563 L S
542 562 M 542 563 L S
506 563 M 506 564 L S
506 563 M 506 564 L S
475 563 M 475 564 L S
475 563 M 475 564 L S
447 561 M 447 562 L S
447 561 M 447 562 L S
418 558 M 418 559 L S
418 558 M 418 559 L S
385 552 M 385 553 L S
385 552 M 385 553 L S
350 545 M 350 546 L S
350 545 M 350 546 L S
319 536 M 319 537 L S
319 536 M 319 537 L S
297 526 M 297 527 L S
297 526 M 297 527 L S
281 514 M 281 515 L S
281 514 M 281 515 L S
268 503 M 268 504 L S
268 503 M 268 504 L S
252 490 M 252 491 L S
252 490 M 252 491 L S
237 477 M 237 478 L S
237 477 M 237 478 L S
229 463 M 229 464 L S
229 463 M 229 464 L S
229 463 M 229 464 L S
231 449 M 231 450 L S
231 449 M 231 450 L S
240 436 M 240 437 L S
240 436 M 240 437 L S
252 424 M 252 425 L S
252 424 M 252 425 L S
262 412 M 262 413 L S
262 412 M 262 413 L S
273 401 M 273 402 L S
273 401 M 273 402 L S
289 391 M 289 392 L S
289 391 M 289 392 L S
315 382 M 315 383 L S
315 382 M 315 383 L S
346 375 M 346 376 L S
346 375 M 346 376 L S
378 370 M 378 371 L S
378 370 M 378 371 L S
406 366 M 406 367 L S
406 366 M 406 367 L S
431 364 M 431 365 L S
431 364 M 431 365 L S
460 363 M 460 364 L S
460 363 M 460 364 L S
494 364 M 494 365 L S
494 364 M 494 365 L S
531 367 M 531 368 L S
531 367 M 531 368 L S
565 372 M 565 373 L S
565 372 M 565 373 L S
591 378 M 591 379 L S
591 378 M 591 379 L S
612 386 M 612 387 L S
612 386 M 612 387 L S
633 394 M 633 395 L S
633 394 M 633 395 L S
657 404 M 657 405 L S
657 404 M 657 405 L S
680 414 M 680 415 L S
680 414 M 680 415 L S
697 426 M 697 427 L S
697 426 M 697 427 L S
708 438 M 708 439 L S
708 438 M 708 439 L S
712 450 M 712 451 L S
712 450 M 712 451 L S
715 462 M 715 463 L S
715 462 M 715 463 L S
718 474 M 718 475 L S
718 474 M 718 475 L S
721 487 M 721 488 L S
716 499 M 716 500 L S
716 499 M 716 500 L S
702 510 M 702 511 L S
702 510 M 702 511 L S
681 520 M 681 521 L S
681 520 M 681 521 L S
660 529 M 660 530 L S
660 529 M 660 530 L S
641 537 M 641 538 L S
641 537 M 641 538 L S
622 544 M 622 545 L S
622 544 M 622 545 L S
598 550 M 598 551 L S
598 550 M 598 551 L S
566 554 M 566 555 L S
566 554 M 566 555 L S
530 557 M 530 558 L S
530 557 M 530 558 L S
497 557 M 497 558 L S
497 557 M 497 558 L S
468 556 M 468 557 L S
468 556 M 468 557 L S
442 554 M 442 555 L S
442 554 M 442 555 L S
414 550 M 414 551 L S
414 550 M 414 551 L S
382 545 M 382 546 L S
382 545 M 382 546 L S
348 538 M 348 539 L S
348 538 M 348 539 L S
321 530 M 321 531 L S
321 530 M 321 531 L S
301 521 M 301 522 L S
301 521 M 301 522 L S
286 511 M 286 512 L S
286 511 M 286 512 L S
272 501 M 272 502 L S
272 501 M 272 502 L S
255 490 M 255 491 L S
255 490 M 255 491 L S
240 478 M 240 479 L S
240 478 M 240 479 L S
232 466 M 232 467 L S
232 466 M 232 467 L S
232 466 M 232 467 L S
234 454 M 234 455 L S
234 454 M 234 455 L S
241 442 M 241 443 L S
241 442 M 241 443 L S
249 431 M 249 432 L S
249 431 M 249 432 L S
256 420 M 256 421 L S
256 420 M 256 421 L S
264 409 M 264 410 L S
264 409 M 264 410 L S
279 400 M 279 401 L S
279 400 M 279 401 L S
302 392 M 302 393 L S
302 392 M 302 393 L S
329 385 M 329 386 L S
329 385 M 329 386 L S
356 379 M 356 380 L S
356 379 M 356 380 L S
380 374 M 380 375 L S
380 374 M 380 375 L S
403 371 M 403 372 L S
403 371 M 403 372 L S
430 369 M 430 370 L S
430 369 M 430 370 L S
463 369 M 463 370 L S
463 369 M 463 370 L S
498 370 M 498 371 L S
498 370 M 498 371 L S
529 373 M 529 374 L S
529 373 M 529 374 L S
554 378 M 554 379 L S
554 378 M 554 379 L S
575 383 M 575 384 L S
575 383 M 575 384 L S
598 389 M 598 390 L S
598 389 M 598 390 L S
624 397 M 624 398 L S
624 397 M 624 398 L S
649 406 M 649 407 L S
649 406 M 649 407 L S
668 416 M 668 417 L S
668 416 M 668 417 L S
678 426 M 678 427 L S
678 426 M 678 427 L S
683 436 M 683 437 L S
683 436 M 683 437 L S
688 447 M 688 448 L S
688 447 M 688 448 L S
695 457 M 695 458 L S
695 457 M 695 458 L S
699 468 M 699 469 L S
697 479 M 697 480 L S
697 479 M 697 480 L S
685 490 M 685 491 L S
685 490 M 685 491 L S
669 499 M 669 500 L S
669 499 M 669 500 L S
653 508 M 653 509 L S
653 508 M 653 509 L S
639 515 M 639 516 L S
639 515 M 639 516 L S
624 523 M 624 524 L S
624 523 M 624 524 L S
603 529 M 603 530 L S
603 529 M 603 530 L S
574 534 M 574 535 L S
574 534 M 574 535 L S
543 537 M 543 538 L S
543 537 M 543 538 L S
514 539 M 514 540 L S
514 539 M 514 540 L S
489 540 M 489 541 L S
489 540 M 489 541 L S
465 540 M 465 541 L S
465 540 M 465 541 L S
438 538 M 438 539 L S
438 538 M 438 539 L S
406 535 M 406 536 L S
406 535 M 406 536 L S
374 530 M 374 531 L S
374 530 M 374 531 L S
348 524 M 348 525 L S
348 524 M 348 525 L S
328 517 M 328 518 L S
328 517 M 328 518 L S
311 510 M 311 511 L S
311 510 M 311 511 L S
294 501 M 294 502 L S
294 501 M 294 502 L S
274 492 M 274 493 L S
274 492 M 274 493 L S
256 481 M 256 482 L S
256 481 M 256 482 L S
252 471 M 252 472 L S
252 471 M 252 472 L S
252 471 M 252 472 L S
256 461 M 256 462 L S
256 461 M 256 462 L S
264 451 M 264 452 L S
264 451 M 264 452 L S
272 442 M 272 443 L S
272 442 M 272 443 L S
278 433 M 278 434 L S
278 433 M 278 434 L S
286 424 M 286 425 L S
286 424 M 286 425 L S
300 416 M 300 417 L S
300 416 M 300 417 L S
322 409 M 322 410 L S
322 409 M 322 410 L S
347 403 M 347 404 L S
347 403 M 347 404 L S
371 399 M 371 400 L S
371 399 M 371 400 L S
391 395 M 391 396 L S
391 395 M 391 396 L S
411 392 M 411 393 L S
411 392 M 411 393 L S
436 391 M 436 392 L S
436 391 M 436 392 L S
467 390 M 467 391 L S
467 390 M 467 391 L S
498 391 M 498 392 L S
498 391 M 498 392 L S
525 393 M 525 394 L S
525 393 M 525 394 L S
546 397 M 546 398 L S
546 397 M 546 398 L S
566 401 M 566 402 L S
566 401 M 566 402 L S
588 406 M 588 407 L S
588 406 M 588 407 L S
613 412 M 613 413 L S
613 412 M 613 413 L S
636 419 M 636 420 L S
636 419 M 636 420 L S
654 427 M 654 428 L S
654 427 M 654 428 L S
664 435 M 664 436 L S
664 435 M 664 436 L S
670 444 M 670 445 L S
670 444 M 670 445 L S
678 453 M 678 454 L S
678 453 M 678 454 L S
687 462 M 687 463 L S
687 462 M 687 463 L S
694 471 M 694 472 L S
693 481 M 693 482 L S
693 481 M 693 482 L S
685 490 M 685 491 L S
685 490 M 685 491 L S
673 498 M 673 499 L S
673 498 M 673 499 L S
662 506 M 662 507 L S
662 506 M 662 507 L S
653 514 M 653 515 L S
653 514 M 653 515 L S
642 521 M 642 522 L S
642 521 M 642 522 L S
625 527 M 625 528 L S
625 527 M 625 528 L S
600 533 M 600 534 L S
600 533 M 600 534 L S
574 537 M 574 538 L S
574 537 M 574 538 L S
551 540 M 551 541 L S
551 540 M 551 541 L S
530 542 M 530 543 L S
530 542 M 530 543 L S
509 544 M 509 545 L S
509 544 M 509 545 L S
484 544 M 484 545 L S
484 544 M 484 545 L S
454 543 M 454 544 L S
454 543 M 454 544 L S
424 541 M 424 542 L S
424 541 M 424 542 L S
399 538 M 399 539 L S
399 538 M 399 539 L S
379 534 M 379 535 L S
379 534 M 379 535 L S
360 529 M 360 530 L S
360 529 M 360 530 L S
340 523 M 340 524 L S
340 523 M 340 524 L S
316 516 M 316 517 L S
316 516 M 316 517 L S
295 509 M 295 510 L S
295 509 M 295 510 L S
281 501 M 281 502 L S
281 501 M 281 502 L S
273 492 M 273 493 L S
273 492 M 273 493 L S
269 483 M 269 484 L S
269 483 M 269 484 L S
263 474 M 263 475 L S
263 474 M 263 475 L S
255 465 M 255 466 L S
255 465 M 255 466 L S
251 456 M 251 457 L S
251 456 M 251 457 L S
251 456 M 251 457 L S
254 447 M 254 448 L S
254 447 M 254 448 L S
264 438 M 264 439 L S
264 438 M 264 439 L S
278 430 M 278 431 L S
278 430 M 278 431 L S
289 422 M 289 423 L S
289 422 M 289 423 L S
299 415 M 299 416 L S
299 415 M 299 416 L S
312 408 M 312 409 L S
312 408 M 312 409 L S
331 402 M 331 403 L S
331 402 M 331 403 L S
356 397 M 356 398 L S
356 397 M 356 398 L S
382 394 M 382 395 L S
382 394 M 382 395 L S
406 391 M 406 392 L S
406 391 M 406 392 L S
426 389 M 426 390 L S
426 389 M 426 390 L S
447 388 M 447 389 L S
447 388 M 447 389 L S
472 388 M 472 389 L S
472 388 M 472 389 L S
502 389 M 502 390 L S
502 389 M 502 390 L S
531 392 M 531 393 L S
531 392 M 531 393 L S
554 396 M 554 397 L S
554 396 M 554 397 L S
572 400 M 572 401 L S
572 400 M 572 401 L S
589 405 M 589 406 L S
589 405 M 589 406 L S
609 411 M 609 412 L S
609 411 M 609 412 L S
631 418 M 631 419 L S
631 418 M 631 419 L S
649 426 M 649 427 L S
649 426 M 649 427 L S
661 434 M 661 435 L S
661 434 M 661 435 L S
667 442 M 667 443 L S
667 442 M 667 443 L S
670 450 M 670 451 L S
670 450 M 670 451 L S
675 459 M 675 460 L S
675 459 M 675 460 L S
680 467 M 680 468 L S
680 467 M 680 468 L S
683 476 M 683 477 L S
678 484 M 678 485 L S
678 484 M 678 485 L S
666 492 M 666 493 L S
666 492 M 666 493 L S
652 499 M 652 500 L S
652 499 M 652 500 L S
641 506 M 641 507 L S
641 506 M 641 507 L S
630 513 M 630 514 L S
630 513 M 630 514 L S
617 519 M 617 520 L S
617 519 M 617 520 L S
597 524 M 597 525 L S
597 524 M 597 525 L S
571 529 M 571 530 L S
571 529 M 571 530 L S
545 532 M 545 533 L S
545 532 M 545 533 L S
523 534 M 523 535 L S
523 534 M 523 535 L S
503 536 M 503 537 L S
503 536 M 503 537 L S
482 536 M 482 537 L S
482 536 M 482 537 L S
456 536 M 456 537 L S
456 536 M 456 537 L S
426 535 M 426 536 L S
426 535 M 426 536 L S
398 532 M 398 533 L S
398 532 M 398 533 L S
375 529 M 375 530 L S
375 529 M 375 530 L S
357 524 M 357 525 L S
357 524 M 357 525 L S
339 519 M 339 520 L S
339 519 M 339 520 L S
319 513 M 319 514 L S
319 513 M 319 514 L S
297 507 M 297 508 L S
297 507 M 297 508 L S
278 499 M 278 500 L S
278 499 M 278 500 L S
266 491 M 266 492 L S
266 491 M 266 492 L S
261 483 M 261 484 L S
261 483 M 261 484 L S
256 475 M 256 476 L S
256 475 M 256 476 L S
250 466 M 250 467 L S
250 466 M 250 467 L S
244 457 M 244 458 L S
244 457 M 244 458 L S
242 448 M 242 449 L S
242 448 M 242 449 L S
242 448 M 242 449 L S
247 440 M 247 441 L S
247 440 M 247 441 L S
258 431 M 258 432 L S
258 431 M 258 432 L S
271 424 M 271 425 L S
271 424 M 271 425 L S
282 416 M 282 417 L S
282 416 M 282 417 L S
292 409 M 292 410 L S
292 409 M 292 410 L S
306 403 M 306 404 L S
306 403 M 306 404 L S
326 398 M 326 399 L S
326 398 M 326 399 L S
352 393 M 352 394 L S
352 393 M 352 394 L S
377 390 M 377 391 L S
377 390 M 377 391 L S
399 387 M 399 388 L S
399 387 M 399 388 L S
419 385 M 419 386 L S
419 385 M 419 386 L S
441 384 M 441 385 L S
441 384 M 441 385 L S
468 383 M 468 384 L S
468 383 M 468 384 L S
498 384 M 498 385 L S
498 384 M 498 385 L S
526 386 M 526 387 L S
526 386 M 526 387 L S
549 389 M 549 390 L S
549 389 M 549 390 L S
568 392 M 568 393 L S
568 392 M 568 393 L S
587 397 M 587 398 L S
587 397 M 587 398 L S
610 402 M 610 403 L S
610 402 M 610 403 L S
633 408 M 633 409 L S
633 408 M 633 409 L S
653 415 M 653 416 L S
653 415 M 653 416 L S
667 422 M 667 423 L S
667 422 M 667 423 L S
674 429 M 674 430 L S
674 429 M 674 430 L S
682 437 M 682 438 L S
682 437 M 682 438 L S
690 445 M 690 446 L S
690 445 M 690 446 L S
699 454 M 699 455 L S
699 454 M 699 455 L S
704 462 M 704 463 L S
701 471 M 701 472 L S
701 471 M 701 472 L S
692 479 M 692 480 L S
692 479 M 692 480 L S
683 487 M 683 488 L S
683 487 M 683 488 L S
675 494 M 675 495 L S
675 494 M 675 495 L S
667 502 M 667 503 L S
667 502 M 667 503 L S
655 508 M 655 509 L S
655 508 M 655 509 L S
637 515 M 637 516 L S
637 515 M 637 516 L S
613 520 M 613 521 L S
613 520 M 613 521 L S
590 524 M 590 525 L S
590 524 M 590 525 L S
570 528 M 570 529 L S
570 528 M 570 529 L S
551 531 M 551 532 L S
551 531 M 551 532 L S
529 533 M 529 534 L S
529 533 M 529 534 L S
503 534 M 503 535 L S
503 534 M 503 535 L S
473 533 M 473 534 L S
473 533 M 473 534 L S
445 531 M 445 532 L S
445 531 M 445 532 L S
423 529 M 423 530 L S
423 529 M 423 530 L S
403 526 M 403 527 L S
403 526 M 403 527 L S
383 522 M 383 523 L S
383 522 M 383 523 L S
360 516 M 360 517 L S
360 516 M 360 517 L S
336 511 M 336 512 L S
336 511 M 336 512 L S
316 504 M 316 505 L S
316 504 M 316 505 L S
303 497 M 303 498 L S
303 497 M 303 498 L S
294 489 M 294 490 L S
294 489 M 294 490 L S
286 482 M 286 483 L S
286 482 M 286 483 L S
276 473 M 276 474 L S
276 473 M 276 474 L S
266 465 M 266 466 L S
266 465 M 266 466 L S
261 457 M 261 458 L S
261 457 M 261 458 L S
261 457 M 261 458 L S
264 448 M 264 449 L S
264 448 M 264 449 L S
271 440 M 271 441 L S
271 440 M 271 441 L S
279 433 M 279 434 L S
279 433 M 279 434 L S
285 425 M 285 426 L S
285 425 M 285 426 L S
291 418 M 291 419 L S
291 418 M 291 419 L S
302 411 M 302 412 L S
302 411 M 302 412 L S
320 405 M 320 406 L S
320 405 M 320 406 L S
342 400 M 342 401 L S
342 400 M 342 401 L S
363 395 M 363 396 L S
363 395 M 363 396 L S
382 392 M 382 393 L S
382 392 M 382 393 L S
399 389 M 399 390 L S
399 389 M 399 390 L S
420 386 M 420 387 L S
420 386 M 420 387 L S
446 385 M 446 386 L S
446 385 M 446 386 L S
474 385 M 474 386 L S
474 385 M 474 386 L S
500 385 M 500 386 L S
500 385 M 500 386 L S
522 386 M 522 387 L S
522 386 M 522 387 L S
541 388 M 541 389 L S
541 388 M 541 389 L S
562 389 M 562 390 L S
562 389 M 562 390 L S
587 392 M 587 393 L S
587 392 M 587 393 L S
613 397 M 613 398 L S
613 397 M 613 398 L S
642 401 M 642 402 L S
642 401 M 642 402 L S
664 407 M 664 408 L S
664 407 M 664 408 L S
682 413 M 682 414 L S
682 413 M 682 414 L S
701 420 M 701 421 L S
701 420 M 701 421 L S
722 428 M 722 429 L S
722 428 M 722 429 L S
742 436 M 742 437 L S
742 436 M 742 437 L S
758 445 M 758 446 L S
758 445 M 758 446 L S
765 454 M 765 455 L S
765 454 M 765 455 L S
768 463 M 768 464 L S
768 463 M 768 464 L S
770 472 M 770 473 L S
770 472 M 770 473 L S
773 482 M 773 483 L S
773 482 M 773 483 L S
775 491 M 775 492 L S
772 500 M 772 501 L S
772 500 M 772 501 L S
761 509 M 761 510 L S
761 509 M 761 510 L S
745 518 M 745 519 L S
745 518 M 745 519 L S
729 525 M 729 526 L S
729 525 M 729 526 L S
715 533 M 715 534 L S
715 533 M 715 534 L S
700 540 M 700 541 L S
700 540 M 700 541 L S
680 546 M 680 547 L S
680 546 M 680 547 L S
653 551 M 653 552 L S
653 551 M 653 552 L S
623 555 M 623 556 L S
623 555 M 623 556 L S
595 559 M 595 560 L S
595 559 M 595 560 L S
569 561 M 569 562 L S
569 561 M 569 562 L S
545 563 M 545 564 L S
545 563 M 545 564 L S
517 564 M 517 565 L S
517 564 M 517 565 L S
484 563 M 484 564 L S
484 563 M 484 564 L S
450 562 M 450 563 L S
450 562 M 450 563 L S
420 559 M 420 560 L S
420 559 M 420 560 L S
394 555 M 394 556 L S
394 555 M 394 556 L S
371 551 M 371 552 L S
371 551 M 371 552 L S
347 546 M 347 547 L S
347 546 M 347 547 L S
320 540 M 320 541 L S
320 540 M 320 541 L S
294 533 M 294 534 L S
294 533 M 294 534 L S
273 525 M 273 526 L S
273 525 M 273 526 L S
259 517 M 259 518 L S
259 517 M 259 518 L S
249 509 M 249 510 L S
249 509 M 249 510 L S
239 500 M 239 501 L S
239 500 M 239 501 L S
227 491 M 227 492 L S
227 491 M 227 492 L S
217 481 M 217 482 L S
217 481 M 217 482 L S
214 472 M 214 473 L S
214 472 M 214 473 L S
214 472 M 214 473 L S
217 463 M 217 464 L S
217 463 M 217 464 L S
225 454 M 225 455 L S
225 454 M 225 455 L S
233 445 M 233 446 L S
233 445 M 233 446 L S
240 436 M 240 437 L S
240 436 M 240 437 L S
248 428 M 248 429 L S
248 428 M 248 429 L S
262 420 M 262 421 L S
262 420 M 262 421 L S
283 413 M 283 414 L S
283 413 M 283 414 L S
307 407 M 307 408 L S
307 407 M 307 408 L S
331 401 M 331 402 L S
331 401 M 331 402 L S
352 396 M 352 397 L S
352 396 M 352 397 L S
374 392 M 374 393 L S
374 392 M 374 393 L S
400 389 M 400 390 L S
400 389 M 400 390 L S
432 386 M 432 387 L S
432 386 M 432 387 L S
465 385 M 465 386 L S
465 385 M 465 386 L S
495 385 M 495 386 L S
495 385 M 495 386 L S
522 386 M 522 387 L S
522 386 M 522 387 L S
547 388 M 547 389 L S
547 388 M 547 389 L S
574 390 M 574 391 L S
574 390 M 574 391 L S
605 394 M 605 395 L S
605 394 M 605 395 L S
636 399 M 636 400 L S
636 399 M 636 400 L S
661 404 M 661 405 L S
661 404 M 661 405 L S
681 410 M 681 411 L S
681 410 M 681 411 L S
698 417 M 698 418 L S
698 417 M 698 418 L S
717 424 M 717 425 L S
717 424 M 717 425 L S
736 431 M 736 432 L S
736 431 M 736 432 L S
754 439 M 754 440 L S
754 439 M 754 440 L S
766 448 M 766 449 L S
766 448 M 766 449 L S
772 456 M 772 457 L S
772 456 M 772 457 L S
773 465 M 773 466 L S
773 465 M 773 466 L S
775 474 M 775 475 L S
775 474 M 775 475 L S
778 483 M 778 484 L S
778 483 M 778 484 L S
778 491 M 778 492 L S
773 500 M 773 501 L S
773 500 M 773 501 L S
761 508 M 761 509 L S
761 508 M 761 509 L S
745 516 M 745 517 L S
745 516 M 745 517 L S
730 524 M 730 525 L S
730 524 M 730 525 L S
716 531 M 716 532 L S
716 531 M 716 532 L S
700 537 M 700 538 L S
700 537 M 700 538 L S
679 544 M 679 545 L S
679 544 M 679 545 L S
652 549 M 652 550 L S
652 549 M 652 550 L S
623 553 M 623 554 L S
623 553 M 623 554 L S
595 556 M 595 557 L S
595 556 M 595 557 L S
571 559 M 571 560 L S
571 559 M 571 560 L S
546 561 M 546 562 L S
546 561 M 546 562 L S
517 562 M 517 563 L S
517 562 M 517 563 L S
483 562 M 483 563 L S
483 562 M 483 563 L S
450 561 M 450 562 L S
450 561 M 450 562 L S
420 559 M 420 560 L S
420 559 M 420 560 L S
394 556 M 394 557 L S
394 556 M 394 557 L S
370 552 M 370 553 L S
370 552 M 370 553 L S
344 547 M 344 548 L S
344 547 M 344 548 L S
315 542 M 315 543 L S
315 542 M 315 543 L S
288 535 M 288 536 L S
288 535 M 288 536 L S
267 528 M 267 529 L S
267 528 M 267 529 L S
252 521 M 252 522 L S
252 521 M 252 522 L S
240 513 M 240 514 L S
240 513 M 240 514 L S
226 504 M 226 505 L S
226 504 M 226 505 L S
212 495 M 212 496 L S
212 495 M 212 496 L S
201 487 M 201 488 L S
201 487 M 201 488 L S
196 477 M 196 478 L S
196 477 M 196 478 L S
196 477 M 196 478 L S
198 468 M 198 469 L S
198 468 M 198 469 L S
203 458 M 203 459 L S
203 458 M 203 459 L S
209 448 M 209 449 L S
209 448 M 209 449 L S
213 438 M 213 439 L S
213 438 M 213 439 L S
222 428 M 222 429 L S
222 428 M 222 429 L S
237 418 M 237 419 L S
237 418 M 237 419 L S
258 410 M 258 411 L S
258 410 M 258 411 L S
283 402 M 283 403 L S
283 402 M 283 403 L S
307 394 M 307 395 L S
307 394 M 307 395 L S
330 388 M 330 389 L S
330 388 M 330 389 L S
355 382 M 355 383 L S
355 382 M 355 383 L S
385 377 M 385 378 L S
385 377 M 385 378 L S
421 374 M 421 375 L S
421 374 M 421 375 L S
458 371 M 458 372 L S
458 371 M 458 372 L S
492 370 M 492 371 L S
492 370 M 492 371 L S
523 369 M 523 370 L S
523 369 M 523 370 L S
554 370 M 554 371 L S
554 370 M 554 371 L S
589 371 M 589 372 L S
589 371 M 589 372 L S
626 374 M 626 375 L S
626 374 M 626 375 L S
663 378 M 663 379 L S
663 378 M 663 379 L S
695 383 M 695 384 L S
695 383 M 695 384 L S
721 388 M 721 389 L S
721 388 M 721 389 L S
746 394 M 746 395 L S
746 394 M 746 395 L S
773 401 M 773 402 L S
773 401 M 773 402 L S
800 409 M 800 410 L S
800 409 M 800 410 L S
825 418 M 825 419 L S
825 418 M 825 419 L S
843 427 M 843 428 L S
843 427 M 843 428 L S
855 437 M 855 438 L S
855 437 M 855 438 L S
863 446 M 863 447 L S
863 446 M 863 447 L S
873 457 M 873 458 L S
873 457 M 873 458 L S
882 467 M 882 468 L S
882 467 M 882 468 L S
887 478 M 887 479 L S
885 488 M 885 489 L S
885 488 M 885 489 L S
876 498 M 876 499 L S
876 498 M 876 499 L S
864 508 M 864 509 L S
864 508 M 864 509 L S
853 517 M 853 518 L S
853 517 M 853 518 L S
842 526 M 842 527 L S
842 526 M 842 527 L S
827 535 M 827 536 L S
827 535 M 827 536 L S
806 543 M 806 544 L S
806 543 M 806 544 L S
779 550 M 779 551 L S
779 550 M 779 551 L S
749 556 M 749 557 L S
749 556 M 749 557 L S
722 562 M 722 563 L S
722 562 M 722 563 L S
696 566 M 696 567 L S
696 566 M 696 567 L S
668 571 M 668 572 L S
668 571 M 668 572 L S
634 573 M 634 574 L S
634 573 M 634 574 L S
597 575 M 597 576 L S
597 575 M 597 576 L S
559 576 M 559 577 L S
559 576 M 559 577 L S
525 577 M 525 578 L S
525 577 M 525 578 L S
494 577 M 494 578 L S
494 577 M 494 578 L S
461 576 M 461 577 L S
461 576 M 461 577 L S
426 574 M 426 575 L S
426 574 M 426 575 L S
388 571 M 388 572 L S
388 571 M 388 572 L S
351 567 M 351 568 L S
351 567 M 351 568 L S
320 563 M 320 564 L S
320 563 M 320 564 L S
293 557 M 293 558 L S
293 557 M 293 558 L S
267 550 M 267 551 L S
267 550 M 267 551 L S
240 543 M 240 544 L S
240 543 M 240 544 L S
212 535 M 212 536 L S
212 535 M 212 536 L S
188 526 M 188 527 L S
188 526 M 188 527 L S
170 517 M 170 518 L S
170 517 M 170 518 L S
158 508 M 158 509 L S
158 508 M 158 509 L S
149 499 M 149 500 L S
149 499 M 149 500 L S
139 489 M 139 490 L S
139 489 M 139 490 L S
129 479 M 129 480 L S
129 479 M 129 480 L S
124 469 M 124 470 L S
124 469 M 124 470 L S
124 469 M 124 470 L S
125 459 M 125 460 L S
125 459 M 125 460 L S
133 449 M 133 450 L S
133 449 M 133 450 L S
143 440 M 143 441 L S
143 440 M 143 441 L S
153 431 M 153 432 L S
153 431 M 153 432 L S
163 422 M 163 423 L S
163 422 M 163 423 L S
176 414 M 176 415 L S
176 414 M 176 415 L S
196 406 M 196 407 L S
196 406 M 196 407 L S
222 398 M 222 399 L S
222 398 M 222 399 L S
249 392 M 249 393 L S
249 392 M 249 393 L S
275 385 M 275 386 L S
275 385 M 275 386 L S
299 380 M 299 381 L S
299 380 M 299 381 L S
327 376 M 327 377 L S
327 376 M 327 377 L S
360 372 M 360 373 L S
360 372 M 360 373 L S
397 369 M 397 370 L S
397 369 M 397 370 L S
434 368 M 434 369 L S
434 368 M 434 369 L S
467 367 M 467 368 L S
467 367 M 467 368 L S
498 368 M 498 369 L S
498 368 M 498 369 L S
530 369 M 530 370 L S
530 369 M 530 370 L S
565 372 M 565 373 L S
565 372 M 565 373 L S
602 376 M 602 377 L S
602 376 M 602 377 L S
636 381 M 636 382 L S
636 381 M 636 382 L S
665 386 M 665 387 L S
665 386 M 665 387 L S
690 393 M 690 394 L S
690 393 M 690 394 L S
713 400 M 713 401 L S
713 400 M 713 401 L S
738 408 M 738 409 L S
738 408 M 738 409 L S
763 416 M 763 417 L S
763 416 M 763 417 L S
784 425 M 784 426 L S
784 425 M 784 426 L S
798 433 M 798 434 L S
798 433 M 798 434 L S
807 442 M 807 443 L S
807 442 M 807 443 L S
814 452 M 814 453 L S
814 452 M 814 453 L S
822 462 M 822 463 L S
822 462 M 822 463 L S
829 471 M 829 472 L S
829 471 M 829 472 L S
832 481 M 832 482 L S
828 490 M 828 491 L S
828 490 M 828 491 L S
817 500 M 817 501 L S
817 500 M 817 501 L S
805 509 M 805 510 L S
805 509 M 805 510 L S
794 517 M 794 518 L S
794 517 M 794 518 L S
783 525 M 783 526 L S
783 525 M 783 526 L S
768 531 M 768 532 L S
768 531 M 768 532 L S
747 538 M 747 539 L S
747 538 M 747 539 L S
721 544 M 721 545 L S
721 544 M 721 545 L S
694 549 M 694 550 L S
694 549 M 694 550 L S
670 554 M 670 555 L S
670 554 M 670 555 L S
646 558 M 646 559 L S
646 558 M 646 559 L S
620 561 M 620 562 L S
620 561 M 620 562 L S
589 564 M 589 565 L S
589 564 M 589 565 L S
554 565 M 554 566 L S
554 565 M 554 566 L S
521 566 M 521 567 L S
521 566 M 521 567 L S
491 566 M 491 567 L S
491 566 M 491 567 L S
463 565 M 463 566 L S
463 565 M 463 566 L S
434 563 M 434 564 L S
434 563 M 434 564 L S
402 559 M 402 560 L S
402 559 M 402 560 L S
370 555 M 370 556 L S
370 555 M 370 556 L S
340 549 M 340 550 L S
340 549 M 340 550 L S
316 543 M 316 544 L S
316 543 M 316 544 L S
296 537 M 296 538 L S
296 537 M 296 538 L S
277 530 M 277 531 L S
277 530 M 277 531 L S
256 522 M 256 523 L S
256 522 M 256 523 L S
236 514 M 236 515 L S
236 514 M 236 515 L S
220 505 M 220 506 L S
220 505 M 220 506 L S
211 496 M 211 497 L S
211 496 M 211 497 L S
206 487 M 206 488 L S
206 487 M 206 488 L S
204 479 M 204 480 L S
204 479 M 204 480 L S
200 469 M 200 470 L S
200 469 M 200 470 L S
197 460 M 197 461 L S
197 460 M 197 461 L S
197 460 M 197 461 L S
199 450 M 199 451 L S
199 450 M 199 451 L S
209 441 M 209 442 L S
209 441 M 209 442 L S
223 432 M 223 433 L S
223 432 M 223 433 L S
239 424 M 239 425 L S
239 424 M 239 425 L S
253 416 M 253 417 L S
253 416 M 253 417 L S
268 408 M 268 409 L S
268 408 M 268 409 L S
288 402 M 288 403 L S
288 402 M 288 403 L S
313 395 M 313 396 L S
313 395 M 313 396 L S
343 390 M 343 391 L S
343 390 M 343 391 L S
373 386 M 373 387 L S
373 386 M 373 387 L S
400 382 M 400 383 L S
400 382 M 400 383 L S
426 379 M 426 380 L S
426 379 M 426 380 L S
456 376 M 456 377 L S
456 376 M 456 377 L S
491 372 M 491 373 L S
491 372 M 491 373 L S
528 370 M 528 371 L S
528 370 M 528 371 L S
565 368 M 565 369 L S
565 368 M 565 369 L S
598 368 M 598 369 L S
598 368 M 598 369 L S
630 368 M 630 369 L S
630 368 M 630 369 L S
664 370 M 664 371 L S
664 370 M 664 371 L S
701 373 M 701 374 L S
701 373 M 701 374 L S
738 377 M 738 378 L S
738 377 M 738 378 L S
772 382 M 772 383 L S
772 382 M 772 383 L S
801 387 M 801 388 L S
801 387 M 801 388 L S
826 394 M 826 395 L S
826 394 M 826 395 L S
851 401 M 851 402 L S
851 401 M 851 402 L S
877 408 M 877 409 L S
877 408 M 877 409 L S
903 417 M 903 418 L S
903 417 M 903 418 L S
924 426 M 924 427 L S
924 426 M 924 427 L S
937 435 M 937 436 L S
937 435 M 937 436 L S
946 445 M 946 446 L S
946 445 M 946 446 L S
955 454 M 955 455 L S
955 454 M 955 455 L S
963 464 M 963 465 L S
963 464 M 963 465 L S
971 474 M 971 475 L S
971 474 M 971 475 L S
972 485 M 972 486 L S
966 494 M 966 495 L S
966 494 M 966 495 L S
956 504 M 956 505 L S
956 504 M 956 505 L S
944 513 M 944 514 L S
944 513 M 944 514 L S
933 523 M 933 524 L S
933 523 M 933 524 L S
920 532 M 920 533 L S
920 532 M 920 533 L S
902 541 M 902 542 L S
902 541 M 902 542 L S
878 549 M 878 550 L S
878 549 M 878 550 L S
849 556 M 849 557 L S
849 556 M 849 557 L S
820 562 M 820 563 L S
820 562 M 820 563 L S
793 568 M 793 569 L S
793 568 M 793 569 L S
766 572 M 766 573 L S
766 572 M 766 573 L S
734 577 M 734 578 L S
734 577 M 734 578 L S
698 580 M 698 581 L S
698 580 M 698 581 L S
659 582 M 659 583 L S
659 582 M 659 583 L S
621 584 M 621 585 L S
621 584 M 621 585 L S
587 585 M 587 586 L S
587 585 M 587 586 L S
554 585 M 554 586 L S
554 585 M 554 586 L S
518 584 M 518 585 L S
518 584 M 518 585 L S
478 583 M 478 584 L S
478 583 M 478 584 L S
438 581 M 438 582 L S
438 581 M 438 582 L S
401 578 M 401 579 L S
401 578 M 401 579 L S
368 573 M 368 574 L S
368 573 M 368 574 L S
338 568 M 338 569 L S
338 568 M 338 569 L S
308 562 M 308 563 L S
308 562 M 308 563 L S
276 555 M 276 556 L S
276 555 M 276 556 L S
245 547 M 245 548 L S
245 547 M 245 548 L S
220 539 M 220 540 L S
220 539 M 220 540 L S
200 529 M 200 530 L S
200 529 M 200 530 L S
185 520 M 185 521 L S
185 520 M 185 521 L S
171 510 M 171 511 L S
171 510 M 171 511 L S
156 500 M 156 501 L S
156 500 M 156 501 L S
144 490 M 144 491 L S
144 490 M 144 491 L S
137 479 M 137 480 L S
137 479 M 137 480 L S
137 479 M 137 480 L S
138 469 M 138 470 L S
138 469 M 138 470 L S
143 459 M 143 460 L S
143 459 M 143 460 L S
149 448 M 149 449 L S
149 448 M 149 449 L S
155 438 M 155 439 L S
155 438 M 155 439 L S
163 429 M 163 430 L S
163 429 M 163 430 L S
177 420 M 177 421 L S
177 420 M 177 421 L S
198 411 M 198 412 L S
198 411 M 198 412 L S
222 403 M 222 404 L S
222 403 M 222 404 L S
247 396 M 247 397 L S
247 396 M 247 397 L S
270 389 M 270 390 L S
270 389 M 270 390 L S
295 383 M 295 384 L S
295 383 M 295 384 L S
325 378 M 325 379 L S
325 378 M 325 379 L S
359 374 M 359 375 L S
359 374 M 359 375 L S
396 371 M 396 372 L S
396 371 M 396 372 L S
431 368 M 431 369 L S
431 368 M 431 369 L S
464 367 M 464 368 L S
464 367 M 464 368 L S
496 366 M 496 367 L S
496 366 M 496 367 L S
531 366 M 531 367 L S
531 366 M 531 367 L S
570 368 M 570 369 L S
570 368 M 570 369 L S
608 370 M 608 371 L S
608 370 M 608 371 L S
644 373 M 644 374 L S
644 373 M 644 374 L S
675 377 M 675 378 L S
675 377 M 675 378 L S
704 382 M 704 383 L S
704 382 M 704 383 L S
734 387 M 734 388 L S
734 387 M 734 388 L S
766 393 M 766 394 L S
766 393 M 766 394 L S
796 400 M 796 401 L S
796 400 M 796 401 L S
822 407 M 822 408 L S
822 407 M 822 408 L S
841 415 M 841 416 L S
841 415 M 841 416 L S
857 423 M 857 424 L S
857 423 M 857 424 L S
874 432 M 874 433 L S
874 432 M 874 433 L S
890 442 M 890 443 L S
890 442 M 890 443 L S
905 450 M 905 451 L S
905 450 M 905 451 L S
913 459 M 913 460 L S
913 459 M 913 460 L S
915 468 M 915 469 L S
914 478 M 914 479 L S
914 478 M 914 479 L S
912 487 M 912 488 L S
912 487 M 912 488 L S
911 497 M 911 498 L S
911 497 M 911 498 L S
906 506 M 906 507 L S
906 506 M 906 507 L S
896 514 M 896 515 L S
896 514 M 896 515 L S
880 523 M 880 524 L S
880 523 M 880 524 L S
860 532 M 860 533 L S
860 532 M 860 533 L S
841 539 M 841 540 L S
841 539 M 841 540 L S
822 547 M 822 548 L S
822 547 M 822 548 L S
801 554 M 801 555 L S
801 554 M 801 555 L S
775 561 M 775 562 L S
775 561 M 775 562 L S
742 567 M 742 568 L S
742 567 M 742 568 L S
708 573 M 708 574 L S
708 573 M 708 574 L S
675 576 M 675 577 L S
675 576 M 675 577 L S
643 581 M 643 582 L S
643 581 M 643 582 L S
611 584 M 611 585 L S
611 584 M 611 585 L S
611 584 M 611 585 L S
/Courier-Bold findfont 27 scalefont setfont
101 764 M (Zgoubi|Zpop                                                                     ) H
101 743 M (05-05-2020                                                                      ) H
/Courier-Bold findfont 26 scalefont setfont
160 85 M (* # COORDINATES  - STORAGE FILE, 05-05-2020 22:45:36 *                                                                            ) H
293 755 M ( dp/p         vs. Phase   (rad)                                                                                                   ) H
26 42 M (Mi-ma H/V:   1.17409E+00  1.21458E+00/ -2.55094E-04  1.52506E-04                                                                  ) H
26 21 M (Part#  1- 10000 (*); Lmnt#     1; pass#       2-   1001, [    1];   1000 pnts                                                     ) H
[] 0 D
26 63 M (Eps/pi, Beta, Alpha :   9.9264E+02  1.3783E+04 -3.9956E+03                      ) H
[] 0 D
102 740 M 102 740 L S
102 740 M 102 733 L S
102 733 M 111 733 L S
111 733 M 111 733 L S
111 733 M 120 733 L S
120 733 M 120 720 L S
120 720 M 128 720 L S
128 720 M 128 720 L S
128 720 M 137 720 L S
137 720 M 137 687 L S
137 687 M 146 687 L S
146 687 M 146 700 L S
146 700 M 155 700 L S
155 700 M 155 700 L S
155 700 M 164 700 L S
164 700 M 164 700 L S
164 700 M 172 700 L S
172 700 M 172 700 L S
172 700 M 181 700 L S
181 700 M 181 700 L S
181 700 M 190 700 L S
190 700 M 190 660 L S
190 660 M 199 660 L S
199 660 M 199 660 L S
199 660 M 207 660 L S
207 660 M 207 647 L S
207 647 M 216 647 L S
216 647 M 216 587 L S
216 587 M 225 587 L S
225 587 M 225 654 L S
225 654 M 234 654 L S
234 654 M 234 621 L S
234 621 M 243 621 L S
243 621 M 243 601 L S
243 601 M 251 601 L S
251 601 M 251 614 L S
251 614 M 260 614 L S
260 614 M 260 601 L S
260 601 M 269 601 L S
269 601 M 269 614 L S
269 614 M 278 614 L S
278 614 M 278 640 L S
278 640 M 287 640 L S
287 640 M 287 614 L S
287 614 M 295 614 L S
295 614 M 295 654 L S
295 654 M 304 654 L S
304 654 M 304 667 L S
304 667 M 313 667 L S
313 667 M 313 647 L S
313 647 M 322 647 L S
322 647 M 322 640 L S
322 640 M 330 640 L S
330 640 M 330 694 L S
330 694 M 339 694 L S
339 694 M 339 640 L S
339 640 M 348 640 L S
348 640 M 348 667 L S
348 667 M 357 667 L S
357 667 M 357 680 L S
357 680 M 366 680 L S
366 680 M 366 667 L S
366 667 M 374 667 L S
374 667 M 374 660 L S
374 660 M 383 660 L S
383 660 M 383 680 L S
383 680 M 392 680 L S
392 680 M 392 627 L S
392 627 M 401 627 L S
401 627 M 401 687 L S
401 687 M 410 687 L S
410 687 M 410 700 L S
410 700 M 418 700 L S
418 700 M 418 640 L S
418 640 M 427 640 L S
427 640 M 427 687 L S
427 687 M 436 687 L S
436 687 M 436 680 L S
436 680 M 445 680 L S
445 680 M 445 687 L S
445 687 M 454 687 L S
454 687 M 454 680 L S
454 680 M 462 680 L S
462 680 M 462 660 L S
462 660 M 471 660 L S
471 660 M 471 680 L S
471 680 M 480 680 L S
480 680 M 480 687 L S
480 687 M 489 687 L S
489 687 M 489 654 L S
489 654 M 497 654 L S
497 654 M 497 667 L S
497 667 M 506 667 L S
506 667 M 506 694 L S
506 694 M 515 694 L S
515 694 M 515 680 L S
515 680 M 524 680 L S
524 680 M 524 634 L S
524 634 M 533 634 L S
533 634 M 533 720 L S
533 720 M 541 720 L S
541 720 M 541 647 L S
541 647 M 550 647 L S
550 647 M 550 660 L S
550 660 M 559 660 L S
559 660 M 559 667 L S
559 667 M 568 667 L S
568 667 M 568 660 L S
568 660 M 577 660 L S
577 660 M 577 720 L S
577 720 M 585 720 L S
585 720 M 585 654 L S
585 654 M 594 654 L S
594 654 M 594 634 L S
594 634 M 603 634 L S
603 634 M 603 674 L S
603 674 M 612 674 L S
612 674 M 612 674 L S
612 674 M 620 674 L S
620 674 M 620 660 L S
620 660 M 629 660 L S
629 660 M 629 614 L S
629 614 M 638 614 L S
638 614 M 638 674 L S
638 674 M 647 674 L S
647 674 M 647 660 L S
647 660 M 656 660 L S
656 660 M 656 640 L S
656 640 M 664 640 L S
664 640 M 664 634 L S
664 634 M 673 634 L S
673 634 M 673 594 L S
673 594 M 682 594 L S
682 594 M 682 660 L S
682 660 M 691 660 L S
691 660 M 691 607 L S
691 607 M 700 607 L S
700 607 M 700 627 L S
700 627 M 708 627 L S
708 627 M 708 647 L S
708 647 M 717 647 L S
717 647 M 717 627 L S
717 627 M 726 627 L S
726 627 M 726 660 L S
726 660 M 735 660 L S
735 660 M 735 621 L S
735 621 M 744 621 L S
744 621 M 744 667 L S
744 667 M 752 667 L S
752 667 M 752 660 L S
752 660 M 761 660 L S
761 660 M 761 654 L S
761 654 M 770 654 L S
770 654 M 770 634 L S
770 634 M 779 634 L S
779 634 M 779 707 L S
779 707 M 787 707 L S
787 707 M 787 700 L S
787 700 M 796 700 L S
796 700 M 796 694 L S
796 694 M 805 694 L S
805 694 M 805 694 L S
805 694 M 814 694 L S
814 694 M 814 687 L S
814 687 M 823 687 L S
823 687 M 823 700 L S
823 700 M 831 700 L S
831 700 M 831 733 L S
831 733 M 840 733 L S
840 733 M 840 707 L S
840 707 M 849 707 L S
849 707 M 849 713 L S
849 713 M 858 713 L S
858 713 M 858 720 L S
858 720 M 867 720 L S
867 720 M 867 727 L S
867 727 M 875 727 L S
875 727 M 875 707 L S
875 707 M 884 707 L S
884 707 M 884 720 L S
884 720 M 893 720 L S
893 720 M 893 733 L S
893 733 M 902 733 L S
902 733 M 902 713 L S
902 713 M 910 713 L S
910 713 M 910 707 L S
910 707 M 919 707 L S
919 707 M 919 727 L S
919 727 M 928 727 L S
928 727 M 928 733 L S
928 733 M 937 733 L S
937 733 M 937 727 L S
937 727 M 946 727 L S
946 727 M 946 733 L S
946 733 M 954 733 L S
954 733 M 954 727 L S
954 727 M 963 727 L S
963 727 M 963 720 L S
963 720 M 972 720 L S
972 720 M 972 733 L S
[] 0 D
972 156 M 972 156 L S
972 156 M 967 156 L S
967 156 M 967 162 L S
967 162 M 967 162 L S
967 162 M 967 168 L S
967 168 M 967 168 L S
967 168 M 967 174 L S
967 174 M 972 174 L S
972 174 M 972 180 L S
972 180 M 972 180 L S
972 180 M 972 185 L S
972 185 M 972 185 L S
972 185 M 972 191 L S
972 191 M 962 191 L S
962 191 M 962 197 L S
962 197 M 967 197 L S
967 197 M 967 203 L S
967 203 M 972 203 L S
972 203 M 972 209 L S
972 209 M 962 209 L S
962 209 M 962 215 L S
962 215 M 972 215 L S
972 215 M 972 221 L S
972 221 M 967 221 L S
967 221 M 967 227 L S
967 227 M 962 227 L S
962 227 M 962 233 L S
962 233 M 972 233 L S
972 233 M 972 239 L S
972 239 M 957 239 L S
957 239 M 957 244 L S
957 244 M 967 244 L S
967 244 M 967 250 L S
967 250 M 967 250 L S
967 250 M 967 256 L S
967 256 M 962 256 L S
962 256 M 962 262 L S
962 262 M 952 262 L S
952 262 M 952 268 L S
952 268 M 967 268 L S
967 268 M 967 274 L S
967 274 M 962 274 L S
962 274 M 962 280 L S
962 280 M 957 280 L S
957 280 M 957 286 L S
957 286 M 962 286 L S
962 286 M 962 292 L S
962 292 M 962 292 L S
962 292 M 962 298 L S
962 298 M 957 298 L S
957 298 M 957 303 L S
957 303 M 947 303 L S
947 303 M 947 309 L S
947 309 M 947 309 L S
947 309 M 947 315 L S
947 315 M 952 315 L S
952 315 M 952 321 L S
952 321 M 942 321 L S
942 321 M 942 327 L S
942 327 M 957 327 L S
957 327 M 957 333 L S
957 333 M 937 333 L S
937 333 M 937 339 L S
937 339 M 932 339 L S
932 339 M 932 345 L S
932 345 M 916 345 L S
916 345 M 916 351 L S
916 351 M 932 351 L S
932 351 M 932 357 L S
932 357 M 942 357 L S
942 357 M 942 362 L S
942 362 M 856 362 L S
856 362 M 856 368 L S
856 368 M 795 368 L S
795 368 M 795 374 L S
795 374 M 891 374 L S
891 374 M 891 380 L S
891 380 M 815 380 L S
815 380 M 815 386 L S
815 386 M 754 386 L S
754 386 M 754 392 L S
754 392 M 820 392 L S
820 392 M 820 398 L S
820 398 M 835 398 L S
835 398 M 835 404 L S
835 404 M 861 404 L S
861 404 M 861 410 L S
861 410 M 881 410 L S
881 410 M 881 416 L S
881 416 M 876 416 L S
876 416 M 876 421 L S
876 421 M 851 421 L S
851 421 M 851 427 L S
851 427 M 876 427 L S
876 427 M 876 433 L S
876 433 M 871 433 L S
871 433 M 871 439 L S
871 439 M 881 439 L S
881 439 M 881 445 L S
881 445 M 881 445 L S
881 445 M 881 451 L S
881 451 M 896 451 L S
896 451 M 896 457 L S
896 457 M 861 457 L S
861 457 M 861 463 L S
861 463 M 881 463 L S
881 463 M 881 469 L S
881 469 M 886 469 L S
886 469 M 886 475 L S
886 475 M 886 475 L S
886 475 M 886 480 L S
886 480 M 906 480 L S
906 480 M 906 486 L S
906 486 M 835 486 L S
835 486 M 835 492 L S
835 492 M 916 492 L S
916 492 M 916 498 L S
916 498 M 856 498 L S
856 498 M 856 504 L S
856 504 M 871 504 L S
871 504 M 871 510 L S
871 510 M 876 510 L S
876 510 M 876 516 L S
876 516 M 846 516 L S
846 516 M 846 522 L S
846 522 M 851 522 L S
851 522 M 851 528 L S
851 528 M 835 528 L S
835 528 M 835 534 L S
835 534 M 810 534 L S
810 534 M 810 539 L S
810 539 M 840 539 L S
840 539 M 840 545 L S
840 545 M 871 545 L S
871 545 M 871 551 L S
871 551 M 835 551 L S
835 551 M 835 557 L S
835 557 M 840 557 L S
840 557 M 840 563 L S
840 563 M 861 563 L S
861 563 M 861 569 L S
861 569 M 866 569 L S
866 569 M 866 575 L S
866 575 M 891 575 L S
891 575 M 891 581 L S
891 581 M 891 581 L S
891 581 M 891 587 L S
891 587 M 947 587 L S
947 587 M 947 593 L S
947 593 M 962 593 L S
962 593 M 962 598 L S
962 598 M 937 598 L S
937 598 M 937 604 L S
937 604 M 952 604 L S
952 604 M 952 610 L S
952 610 M 947 610 L S
947 610 M 947 616 L S
947 616 M 962 616 L S
962 616 M 962 622 L S
962 622 M 947 622 L S
947 622 M 947 628 L S
947 628 M 962 628 L S
962 628 M 962 634 L S
962 634 M 967 634 L S
967 634 M 967 640 L S
967 640 M 957 640 L S
957 640 M 957 646 L S
957 646 M 962 646 L S
962 646 M 962 652 L S
962 652 M 967 652 L S
967 652 M 967 657 L S
967 657 M 962 657 L S
962 657 M 962 663 L S
962 663 M 962 663 L S
962 663 M 962 669 L S
962 669 M 967 669 L S
967 669 M 967 675 L S
967 675 M 962 675 L S
962 675 M 962 681 L S
962 681 M 967 681 L S
967 681 M 967 687 L S
967 687 M 962 687 L S
962 687 M 962 693 L S
962 693 M 972 693 L S
972 693 M 972 699 L S
972 699 M 962 699 L S
962 699 M 962 705 L S
962 705 M 972 705 L S
972 705 M 972 711 L S
972 711 M 967 711 L S
967 711 M 967 716 L S
967 716 M 972 716 L S
972 716 M 972 722 L S
972 722 M 967 722 L S
967 722 M 967 728 L S
967 728 M 972 728 L S
972 728 M 972 734 L S
972 734 M 967 734 L S
967 734 M 967 740 L S
967 740 M 967 740 L S
/Courier-Bold findfont 27 scalefont setfont
101 764 M (Zgoubi|Zpop                                                                     ) H
101 743 M (05-05-2020                                                                      ) H
/Courier-Bold findfont 26 scalefont setfont
160 85 M (* # COORDINATES  - STORAGE FILE, 05-05-2020 22:45:36 *                                                                            ) H
293 755 M ( dp/p         vs. Phase   (rad)                                                                                                   ) H
26 42 M (Mi-ma H/V:   1.17409E+00  1.21458E+00/ -2.55094E-04  1.52506E-04                                                                  ) H
26 21 M (Part#  1- 10000 (*); Lmnt#     1; pass#       2-   1001, [    1];    100 pnts                                                     ) H
26 0 M (Mean:-4.04195E-05; Sigma: 6.36452E-05; X(max):-2.50977E-04                      ) H
showpage
