%!PS-Adobe-2.0 EPSF-2.0
%%Title: turn-Y.eps
%%Titre: turn-Y.eps
%%Creator: Fminigraf Library
%%BoundingBox: 20 40 567 457
%%EndComments
/offx 20 def
/offy 40 def
/lx 595 def
/ly 842 def
/maxx 1023 def
/maxy 779 def
/reduc 0.92 def
/coeff lx maxx div reduc mul def
offx offy translate
coeff coeff scale
1 setlinewidth newpath 0 0 moveto
/Courier-Bold findfont 32 scalefont setfont
/M {moveto} def
/L {lineto} def
/S {stroke} def
/H {show} def
/D {setdash} def
0 0 0 setrgbcolor
[] 0 D
[] 0 D
134 156 M 134 161 L S
134 449 M 134 459 L S
134 735 M 134 740 L S
168 156 M 168 161 L S
168 449 M 168 459 L S
168 735 M 168 740 L S
202 156 M 202 161 L S
202 449 M 202 459 L S
202 735 M 202 740 L S
236 156 M 236 161 L S
236 449 M 236 459 L S
236 735 M 236 740 L S
[2 3] 0 D
270 156 M 270 740 L S
[] 0 D
252 128 M (100) H
270 156 M 270 166 L S
270 444 M 270 464 L S
270 730 M 270 740 L S
304 156 M 304 161 L S
304 449 M 304 459 L S
304 735 M 304 740 L S
338 156 M 338 161 L S
338 449 M 338 459 L S
338 735 M 338 740 L S
372 156 M 372 161 L S
372 449 M 372 459 L S
372 735 M 372 740 L S
406 156 M 406 161 L S
406 449 M 406 459 L S
406 735 M 406 740 L S
[2 3] 0 D
439 156 M 439 740 L S
[] 0 D
421 128 M (200) H
439 156 M 439 166 L S
439 444 M 439 464 L S
439 730 M 439 740 L S
473 156 M 473 161 L S
473 449 M 473 459 L S
473 735 M 473 740 L S
507 156 M 507 161 L S
507 449 M 507 459 L S
507 735 M 507 740 L S
541 156 M 541 161 L S
541 449 M 541 459 L S
541 735 M 541 740 L S
575 156 M 575 161 L S
575 449 M 575 459 L S
575 735 M 575 740 L S
[2 3] 0 D
609 156 M 609 740 L S
[] 0 D
591 128 M (300) H
609 156 M 609 166 L S
609 444 M 609 464 L S
609 730 M 609 740 L S
643 156 M 643 161 L S
643 449 M 643 459 L S
643 735 M 643 740 L S
677 156 M 677 161 L S
677 449 M 677 459 L S
677 735 M 677 740 L S
711 156 M 711 161 L S
711 449 M 711 459 L S
711 735 M 711 740 L S
745 156 M 745 161 L S
745 449 M 745 459 L S
745 735 M 745 740 L S
[2 3] 0 D
779 156 M 779 740 L S
[] 0 D
761 128 M (400) H
779 156 M 779 166 L S
779 444 M 779 464 L S
779 730 M 779 740 L S
813 156 M 813 161 L S
813 449 M 813 459 L S
813 735 M 813 740 L S
847 156 M 847 161 L S
847 449 M 847 459 L S
847 735 M 847 740 L S
880 156 M 880 161 L S
880 449 M 880 459 L S
880 735 M 880 740 L S
914 156 M 914 161 L S
914 449 M 914 459 L S
914 735 M 914 740 L S
[2 3] 0 D
948 156 M 948 740 L S
[] 0 D
930 128 M (500) H
948 156 M 948 166 L S
948 444 M 948 464 L S
948 730 M 948 740 L S
102 159 M 107 159 L S
967 159 M 972 159 L S
102 179 M 107 179 L S
967 179 M 972 179 L S
102 198 M 107 198 L S
967 198 M 972 198 L S
[2 3] 0 D
102 218 M 972 218 L S
[] 0 D
15 208 M (-.0006) H
102 218 M 112 218 L S
962 218 M 972 218 L S
102 238 M 107 238 L S
967 238 M 972 238 L S
102 257 M 107 257 L S
967 257 M 972 257 L S
102 277 M 107 277 L S
967 277 M 972 277 L S
[2 3] 0 D
102 297 M 972 297 L S
[] 0 D
15 287 M (-.0004) H
102 297 M 112 297 L S
962 297 M 972 297 L S
102 316 M 107 316 L S
967 316 M 972 316 L S
102 336 M 107 336 L S
967 336 M 972 336 L S
102 356 M 107 356 L S
967 356 M 972 356 L S
[2 3] 0 D
102 375 M 972 375 L S
[] 0 D
15 365 M (-.0002) H
102 375 M 112 375 L S
962 375 M 972 375 L S
102 395 M 107 395 L S
967 395 M 972 395 L S
102 415 M 107 415 L S
967 415 M 972 415 L S
102 434 M 107 434 L S
967 434 M 972 434 L S
[2 3] 0 D
102 454 M 972 454 L S
[] 0 D
33 444 M (0.0) H
102 454 M 112 454 L S
962 454 M 972 454 L S
102 474 M 107 474 L S
967 474 M 972 474 L S
102 493 M 107 493 L S
967 493 M 972 493 L S
102 513 M 107 513 L S
967 513 M 972 513 L S
[2 3] 0 D
102 533 M 972 533 L S
[] 0 D
15 523 M (0.0002) H
102 533 M 112 533 L S
962 533 M 972 533 L S
102 552 M 107 552 L S
967 552 M 972 552 L S
102 572 M 107 572 L S
967 572 M 972 572 L S
102 592 M 107 592 L S
967 592 M 972 592 L S
[2 3] 0 D
102 612 M 972 612 L S
[] 0 D
15 602 M (0.0004) H
102 612 M 112 612 L S
962 612 M 972 612 L S
102 631 M 107 631 L S
967 631 M 972 631 L S
102 651 M 107 651 L S
967 651 M 972 651 L S
102 671 M 107 671 L S
967 671 M 972 671 L S
[2 3] 0 D
102 690 M 972 690 L S
[] 0 D
15 680 M (0.0006) H
102 690 M 112 690 L S
962 690 M 972 690 L S
102 710 M 107 710 L S
967 710 M 972 710 L S
102 730 M 107 730 L S
967 730 M 972 730 L S
[] 0 D
102 156 M 972 156 L S
972 156 M 972 740 L S
972 740 M 102 740 L S
102 740 M 102 156 L S
102 454 M 972 454 L S
102 740 M 102 741 L S
102 740 M 102 741 L S
104 589 M 104 590 L S
104 589 M 104 590 L S
105 300 M 105 301 L S
105 300 M 105 301 L S
107 156 M 107 157 L S
107 156 M 107 157 L S
109 315 M 109 316 L S
109 315 M 109 316 L S
110 598 M 110 599 L S
110 598 M 110 599 L S
112 736 M 112 737 L S
112 736 M 112 737 L S
114 575 M 114 576 L S
114 575 M 114 576 L S
116 297 M 116 298 L S
116 297 M 116 298 L S
117 176 M 117 177 L S
117 176 M 117 177 L S
119 347 M 119 348 L S
119 347 M 119 348 L S
121 621 M 121 622 L S
121 621 M 121 622 L S
122 737 M 122 738 L S
122 737 M 122 738 L S
124 565 M 124 566 L S
124 565 M 124 566 L S
126 294 M 126 295 L S
126 294 M 126 295 L S
127 189 M 127 190 L S
127 189 M 127 190 L S
129 365 M 129 366 L S
129 365 M 129 366 L S
131 627 M 131 628 L S
131 627 M 131 628 L S
133 724 M 133 725 L S
133 724 M 133 725 L S
134 544 M 134 545 L S
134 544 M 134 545 L S
136 279 M 136 280 L S
136 279 M 136 280 L S
138 188 M 138 189 L S
138 188 M 138 189 L S
139 369 M 139 370 L S
139 369 M 139 370 L S
141 623 M 141 624 L S
141 623 M 141 624 L S
143 706 M 143 707 L S
143 706 M 143 707 L S
144 521 M 144 522 L S
144 521 M 144 522 L S
146 267 M 146 268 L S
146 267 M 146 268 L S
148 194 M 148 195 L S
148 194 M 148 195 L S
149 383 M 149 384 L S
149 383 M 149 384 L S
151 632 M 151 633 L S
151 632 M 151 633 L S
153 700 M 153 701 L S
153 700 M 153 701 L S
155 511 M 155 512 L S
155 511 M 155 512 L S
156 267 M 156 268 L S
156 267 M 156 268 L S
158 213 M 158 214 L S
158 213 M 158 214 L S
160 408 M 160 409 L S
160 408 M 160 409 L S
161 647 M 161 648 L S
161 647 M 161 648 L S
163 698 M 163 699 L S
163 698 M 163 699 L S
165 503 M 165 504 L S
165 503 M 165 504 L S
166 268 M 166 269 L S
166 268 M 166 269 L S
168 226 M 168 227 L S
168 226 M 168 227 L S
170 423 M 170 424 L S
170 423 M 170 424 L S
172 651 M 172 652 L S
172 651 M 172 652 L S
173 686 M 173 687 L S
173 686 M 173 687 L S
175 487 M 175 488 L S
175 487 M 175 488 L S
177 259 M 177 260 L S
177 259 M 177 260 L S
178 228 M 178 229 L S
178 228 M 178 229 L S
180 426 M 180 427 L S
180 426 M 180 427 L S
182 646 M 182 647 L S
182 646 M 182 647 L S
183 669 M 183 670 L S
183 669 M 183 670 L S
185 469 M 185 470 L S
185 469 M 185 470 L S
187 249 M 187 250 L S
187 249 M 187 250 L S
188 233 M 188 234 L S
188 233 M 188 234 L S
190 435 M 190 436 L S
190 435 M 190 436 L S
192 648 M 192 649 L S
192 648 M 192 649 L S
194 660 M 194 661 L S
194 660 M 194 661 L S
195 458 M 195 459 L S
195 458 M 195 459 L S
197 250 M 197 251 L S
197 250 M 197 251 L S
199 248 M 199 249 L S
199 248 M 199 249 L S
200 453 M 200 454 L S
200 453 M 200 454 L S
202 658 M 202 659 L S
202 658 M 202 659 L S
204 656 M 204 657 L S
204 656 M 204 657 L S
205 453 M 205 454 L S
205 453 M 205 454 L S
207 253 M 207 254 L S
207 253 M 207 254 L S
209 263 M 209 264 L S
209 263 M 209 264 L S
211 469 M 211 470 L S
211 469 M 211 470 L S
212 663 M 212 664 L S
212 663 M 212 664 L S
214 649 M 214 650 L S
214 649 M 214 650 L S
216 443 M 216 444 L S
216 443 M 216 444 L S
217 252 M 217 253 L S
217 252 M 217 253 L S
219 270 M 219 271 L S
219 270 M 219 271 L S
221 474 M 221 475 L S
221 474 M 221 475 L S
222 660 M 222 661 L S
222 660 M 222 661 L S
224 635 M 224 636 L S
224 635 M 224 636 L S
226 429 M 226 430 L S
226 429 M 226 430 L S
227 245 M 227 246 L S
227 245 M 227 246 L S
229 273 M 229 274 L S
229 273 M 229 274 L S
231 477 M 231 478 L S
231 477 M 231 478 L S
233 656 M 233 657 L S
233 656 M 233 657 L S
234 622 M 234 623 L S
234 622 M 234 623 L S
236 417 M 236 418 L S
236 417 M 236 418 L S
238 242 M 238 243 L S
238 242 M 238 243 L S
239 281 M 239 282 L S
239 281 M 239 282 L S
241 487 M 241 488 L S
241 487 M 241 488 L S
243 658 M 243 659 L S
243 658 M 243 659 L S
244 616 M 244 617 L S
244 616 M 244 617 L S
246 411 M 246 412 L S
246 411 M 246 412 L S
248 246 M 248 247 L S
248 246 M 248 247 L S
250 296 M 250 297 L S
250 296 M 250 297 L S
251 502 M 251 503 L S
251 502 M 251 503 L S
253 663 M 253 664 L S
253 663 M 253 664 L S
255 611 M 255 612 L S
255 611 M 255 612 L S
256 406 M 256 407 L S
256 406 M 256 407 L S
258 250 M 258 251 L S
258 250 M 258 251 L S
260 308 M 260 309 L S
260 308 M 260 309 L S
261 512 M 261 513 L S
261 512 M 261 513 L S
263 664 M 263 665 L S
263 664 M 263 665 L S
265 604 M 265 605 L S
265 604 M 265 605 L S
267 398 M 267 399 L S
267 398 M 267 399 L S
268 250 M 268 251 L S
268 250 M 268 251 L S
270 314 M 270 315 L S
270 314 M 270 315 L S
272 516 M 272 517 L S
272 516 M 272 517 L S
273 659 M 273 660 L S
273 659 M 273 660 L S
275 592 M 275 593 L S
275 592 M 275 593 L S
277 387 M 277 388 L S
277 387 M 277 388 L S
278 246 M 278 247 L S
278 246 M 278 247 L S
280 317 M 280 318 L S
280 317 M 280 318 L S
282 518 M 282 519 L S
282 518 M 282 519 L S
283 654 M 283 655 L S
283 654 M 283 655 L S
285 581 M 285 582 L S
285 581 M 285 582 L S
287 377 M 287 378 L S
287 377 M 287 378 L S
289 246 M 289 247 L S
289 246 M 289 247 L S
290 325 M 290 326 L S
290 325 M 290 326 L S
292 526 M 292 527 L S
292 526 M 292 527 L S
294 654 M 294 655 L S
294 654 M 294 655 L S
295 574 M 295 575 L S
295 574 M 295 575 L S
297 373 M 297 374 L S
297 373 M 297 374 L S
299 251 M 299 252 L S
299 251 M 299 252 L S
300 337 M 300 338 L S
300 337 M 300 338 L S
302 537 M 302 538 L S
302 537 M 302 538 L S
304 656 M 304 657 L S
304 656 M 304 657 L S
306 569 M 306 570 L S
306 569 M 306 570 L S
307 370 M 307 371 L S
307 370 M 307 371 L S
309 256 M 309 257 L S
309 256 M 309 257 L S
311 348 M 311 349 L S
311 348 M 311 349 L S
312 546 M 312 547 L S
312 546 M 312 547 L S
314 656 M 314 657 L S
314 656 M 314 657 L S
316 563 M 316 564 L S
316 563 M 316 564 L S
317 364 M 317 365 L S
317 364 M 317 365 L S
319 259 M 319 260 L S
319 259 M 319 260 L S
321 355 M 321 356 L S
321 355 M 321 356 L S
322 550 M 322 551 L S
322 550 M 322 551 L S
324 651 M 324 652 L S
324 651 M 324 652 L S
326 553 M 326 554 L S
326 553 M 326 554 L S
328 356 M 328 357 L S
328 356 M 328 357 L S
329 257 M 329 258 L S
329 257 M 329 258 L S
331 358 M 331 359 L S
331 358 M 331 359 L S
333 551 M 333 552 L S
333 551 M 333 552 L S
334 644 M 334 645 L S
334 644 M 334 645 L S
336 543 M 336 544 L S
336 543 M 336 544 L S
338 348 M 338 349 L S
338 348 M 338 349 L S
339 258 M 339 259 L S
339 258 M 339 259 L S
341 363 M 341 364 L S
341 363 M 341 364 L S
343 555 M 343 556 L S
343 555 M 343 556 L S
345 641 M 345 642 L S
345 641 M 345 642 L S
346 535 M 346 536 L S
346 535 M 346 536 L S
348 343 M 348 344 L S
348 343 M 348 344 L S
350 262 M 350 263 L S
350 262 M 350 263 L S
351 373 M 351 374 L S
351 373 M 351 374 L S
353 563 M 353 564 L S
353 563 M 353 564 L S
355 641 M 355 642 L S
355 641 M 355 642 L S
356 530 M 356 531 L S
356 530 M 356 531 L S
358 341 M 358 342 L S
358 341 M 358 342 L S
360 269 M 360 270 L S
360 269 M 360 270 L S
361 384 M 361 385 L S
361 384 M 361 385 L S
363 571 M 363 572 L S
363 571 M 363 572 L S
365 640 M 365 641 L S
365 640 M 365 641 L S
367 525 M 367 526 L S
367 525 M 367 526 L S
368 339 M 368 340 L S
368 339 M 368 340 L S
370 274 M 370 275 L S
370 274 M 370 275 L S
372 392 M 372 393 L S
372 392 M 372 393 L S
373 576 M 373 577 L S
373 576 M 373 577 L S
375 637 M 375 638 L S
375 637 M 375 638 L S
377 518 M 377 519 L S
377 518 M 377 519 L S
378 334 M 378 335 L S
378 334 M 378 335 L S
380 275 M 380 276 L S
380 275 M 380 276 L S
382 396 M 382 397 L S
382 396 M 382 397 L S
384 577 M 384 578 L S
384 577 M 384 578 L S
385 631 M 385 632 L S
385 631 M 385 632 L S
387 509 M 387 510 L S
387 509 M 387 510 L S
389 327 M 389 328 L S
389 327 M 389 328 L S
390 276 M 390 277 L S
390 276 M 390 277 L S
392 400 M 392 401 L S
392 400 M 392 401 L S
394 577 M 394 578 L S
394 577 M 394 578 L S
395 626 M 395 627 L S
395 626 M 395 627 L S
397 500 M 397 501 L S
397 500 M 397 501 L S
399 322 M 399 323 L S
399 322 M 399 323 L S
400 278 M 400 279 L S
400 278 M 400 279 L S
402 406 M 402 407 L S
402 406 M 402 407 L S
404 580 M 404 581 L S
404 580 M 404 581 L S
406 622 M 406 623 L S
406 622 M 406 623 L S
407 494 M 407 495 L S
407 494 M 407 495 L S
409 320 M 409 321 L S
409 320 M 409 321 L S
411 283 M 411 284 L S
411 283 M 411 284 L S
412 415 M 412 416 L S
412 415 M 412 416 L S
414 586 M 414 587 L S
414 586 M 414 587 L S
416 621 M 416 622 L S
416 621 M 416 622 L S
417 489 M 417 490 L S
417 489 M 417 490 L S
419 320 M 419 321 L S
419 320 M 419 321 L S
421 290 M 421 291 L S
421 290 M 421 291 L S
423 425 M 423 426 L S
423 425 M 423 426 L S
424 591 M 424 592 L S
424 591 M 424 592 L S
426 620 M 426 621 L S
426 620 M 426 621 L S
428 484 M 428 485 L S
428 484 M 428 485 L S
429 319 M 429 320 L S
429 319 M 429 320 L S
431 295 M 431 296 L S
431 295 M 431 296 L S
433 432 M 433 433 L S
433 432 M 433 433 L S
434 594 M 434 595 L S
434 594 M 434 595 L S
436 616 M 436 617 L S
436 616 M 436 617 L S
438 477 M 438 478 L S
438 477 M 438 478 L S
439 316 M 439 317 L S
439 316 M 439 317 L S
441 297 M 441 298 L S
441 297 M 441 298 L S
443 436 M 443 437 L S
443 436 M 443 437 L S
445 593 M 445 594 L S
445 593 M 445 594 L S
446 610 M 446 611 L S
446 610 M 446 611 L S
448 469 M 448 470 L S
448 469 M 448 470 L S
450 312 M 450 313 L S
450 312 M 450 313 L S
451 298 M 451 299 L S
451 298 M 451 299 L S
453 439 M 453 440 L S
453 439 M 453 440 L S
455 593 M 455 594 L S
455 593 M 455 594 L S
456 605 M 456 606 L S
456 605 M 456 606 L S
458 461 M 458 462 L S
458 461 M 458 462 L S
460 308 M 460 309 L S
460 308 M 460 309 L S
462 301 M 462 302 L S
462 301 M 462 302 L S
463 444 M 463 445 L S
463 444 M 463 445 L S
465 594 M 465 595 L S
465 594 M 465 595 L S
467 601 M 467 602 L S
467 601 M 467 602 L S
468 455 M 468 456 L S
468 455 M 468 456 L S
470 307 M 470 308 L S
470 307 M 470 308 L S
472 306 M 472 307 L S
472 306 M 472 307 L S
473 452 M 473 453 L S
473 452 M 473 453 L S
475 597 M 475 598 L S
475 597 M 475 598 L S
477 598 M 477 599 L S
477 598 M 477 599 L S
478 451 M 478 452 L S
478 451 M 478 452 L S
480 308 M 480 309 L S
480 308 M 480 309 L S
482 313 M 482 314 L S
482 313 M 482 314 L S
484 460 M 484 461 L S
484 460 M 484 461 L S
485 601 M 485 602 L S
485 601 M 485 602 L S
487 596 M 487 597 L S
487 596 M 487 597 L S
489 447 M 489 448 L S
489 447 M 489 448 L S
490 309 M 490 310 L S
490 309 M 490 310 L S
492 318 M 492 319 L S
492 318 M 492 319 L S
494 467 M 494 468 L S
494 467 M 494 468 L S
495 603 M 495 604 L S
495 603 M 495 604 L S
497 593 M 497 594 L S
497 593 M 497 594 L S
499 442 M 499 443 L S
499 442 M 499 443 L S
501 308 M 501 309 L S
501 308 M 501 309 L S
502 322 M 502 323 L S
502 322 M 502 323 L S
504 471 M 504 472 L S
504 471 M 504 472 L S
506 602 M 506 603 L S
506 602 M 506 603 L S
507 587 M 507 588 L S
507 587 M 507 588 L S
509 436 M 509 437 L S
509 436 M 509 437 L S
511 305 M 511 306 L S
511 305 M 511 306 L S
512 324 M 512 325 L S
512 324 M 512 325 L S
514 474 M 514 475 L S
514 474 M 514 475 L S
516 601 M 516 602 L S
516 601 M 516 602 L S
517 581 M 517 582 L S
517 581 M 517 582 L S
519 429 M 519 430 L S
519 429 M 519 430 L S
521 303 M 521 304 L S
521 303 M 521 304 L S
523 326 M 523 327 L S
523 326 M 523 327 L S
524 477 M 524 478 L S
524 477 M 524 478 L S
526 600 M 526 601 L S
526 600 M 526 601 L S
528 575 M 528 576 L S
528 575 M 528 576 L S
529 423 M 529 424 L S
529 423 M 529 424 L S
531 302 M 531 303 L S
531 302 M 531 303 L S
533 330 M 533 331 L S
533 330 M 533 331 L S
534 482 M 534 483 L S
534 482 M 534 483 L S
536 601 M 536 602 L S
536 601 M 536 602 L S
538 572 M 538 573 L S
538 572 M 538 573 L S
540 419 M 540 420 L S
540 419 M 540 420 L S
541 303 M 541 304 L S
541 303 M 541 304 L S
543 337 M 543 338 L S
543 337 M 543 338 L S
545 489 M 545 490 L S
545 489 M 545 490 L S
546 604 M 546 605 L S
546 604 M 546 605 L S
548 569 M 548 570 L S
548 569 M 548 570 L S
550 416 M 550 417 L S
550 416 M 550 417 L S
551 304 M 551 305 L S
551 304 M 551 305 L S
553 343 M 553 344 L S
553 343 M 553 344 L S
555 495 M 555 496 L S
555 495 M 555 496 L S
557 606 M 557 607 L S
557 606 M 557 607 L S
558 565 M 558 566 L S
558 565 M 558 566 L S
560 413 M 560 414 L S
560 413 M 560 414 L S
562 305 M 562 306 L S
562 305 M 562 306 L S
563 349 M 563 350 L S
563 349 M 563 350 L S
565 500 M 565 501 L S
565 500 M 565 501 L S
567 606 M 567 607 L S
567 606 M 567 607 L S
568 561 M 568 562 L S
568 561 M 568 562 L S
570 409 M 570 410 L S
570 409 M 570 410 L S
572 305 M 572 306 L S
572 305 M 572 306 L S
573 352 M 573 353 L S
573 352 M 573 353 L S
575 502 M 575 503 L S
575 502 M 575 503 L S
577 605 M 577 606 L S
577 605 M 577 606 L S
579 555 M 579 556 L S
579 555 M 579 556 L S
580 404 M 580 405 L S
580 404 M 580 405 L S
582 303 M 582 304 L S
582 303 M 582 304 L S
584 354 M 584 355 L S
584 354 M 584 355 L S
585 504 M 585 505 L S
585 504 M 585 505 L S
587 603 M 587 604 L S
587 603 M 587 604 L S
589 549 M 589 550 L S
589 549 M 589 550 L S
590 399 M 590 400 L S
590 399 M 590 400 L S
592 302 M 592 303 L S
592 302 M 592 303 L S
594 357 M 594 358 L S
594 357 M 594 358 L S
596 507 M 596 508 L S
596 507 M 596 508 L S
597 602 M 597 603 L S
597 602 M 597 603 L S
599 544 M 599 545 L S
599 544 M 599 545 L S
601 394 M 601 395 L S
601 394 M 601 395 L S
602 302 M 602 303 L S
602 302 M 602 303 L S
604 362 M 604 363 L S
604 362 M 604 363 L S
606 511 M 606 512 L S
606 511 M 606 512 L S
607 602 M 607 603 L S
607 602 M 607 603 L S
609 540 M 609 541 L S
609 540 M 609 541 L S
611 391 M 611 392 L S
611 391 M 611 392 L S
612 304 M 612 305 L S
612 304 M 612 305 L S
614 369 M 614 370 L S
614 369 M 614 370 L S
616 517 M 616 518 L S
616 517 M 616 518 L S
618 603 M 618 604 L S
618 603 M 618 604 L S
619 537 M 619 538 L S
619 537 M 619 538 L S
621 389 M 621 390 L S
621 389 M 621 390 L S
623 306 M 623 307 L S
623 306 M 623 307 L S
624 375 M 624 376 L S
624 375 M 624 376 L S
626 522 M 626 523 L S
626 522 M 626 523 L S
628 604 M 628 605 L S
628 604 M 628 605 L S
629 534 M 629 535 L S
629 534 M 629 535 L S
631 387 M 631 388 L S
631 387 M 631 388 L S
633 308 M 633 309 L S
633 308 M 633 309 L S
635 380 M 635 381 L S
635 380 M 635 381 L S
636 526 M 636 527 L S
636 526 M 636 527 L S
638 603 M 638 604 L S
638 603 M 638 604 L S
640 530 M 640 531 L S
640 530 M 640 531 L S
641 383 M 641 384 L S
641 383 M 641 384 L S
643 308 M 643 309 L S
643 308 M 643 309 L S
645 383 M 645 384 L S
645 383 M 645 384 L S
646 528 M 646 529 L S
646 528 M 646 529 L S
648 601 M 648 602 L S
648 601 M 648 602 L S
650 525 M 650 526 L S
650 525 M 650 526 L S
651 379 M 651 380 L S
651 379 M 651 380 L S
653 308 M 653 309 L S
653 308 M 653 309 L S
655 385 M 655 386 L S
655 385 M 655 386 L S
657 529 M 657 530 L S
657 529 M 657 530 L S
658 598 M 658 599 L S
658 598 M 658 599 L S
660 519 M 660 520 L S
660 519 M 660 520 L S
662 375 M 662 376 L S
662 375 M 662 376 L S
663 308 M 663 309 L S
663 308 M 663 309 L S
665 388 M 665 389 L S
665 388 M 665 389 L S
667 531 M 667 532 L S
667 531 M 667 532 L S
668 596 M 668 597 L S
668 596 M 668 597 L S
670 514 M 670 515 L S
670 514 M 670 515 L S
672 371 M 672 372 L S
672 371 M 672 372 L S
674 309 M 674 310 L S
674 309 M 674 310 L S
675 392 M 675 393 L S
675 392 M 675 393 L S
677 535 M 677 536 L S
677 535 M 677 536 L S
679 594 M 679 595 L S
679 594 M 679 595 L S
680 511 M 680 512 L S
680 511 M 680 512 L S
682 368 M 682 369 L S
682 368 M 682 369 L S
684 311 M 684 312 L S
684 311 M 684 312 L S
685 398 M 685 399 L S
685 398 M 685 399 L S
687 539 M 687 540 L S
687 539 M 687 540 L S
689 594 M 689 595 L S
689 594 M 689 595 L S
690 507 M 690 508 L S
690 507 M 690 508 L S
692 366 M 692 367 L S
692 366 M 692 367 L S
694 314 M 694 315 L S
694 314 M 694 315 L S
696 404 M 696 405 L S
696 404 M 696 405 L S
697 543 M 697 544 L S
697 543 M 697 544 L S
699 594 M 699 595 L S
699 594 M 699 595 L S
701 505 M 701 506 L S
701 505 M 701 506 L S
702 365 M 702 366 L S
702 365 M 702 366 L S
704 317 M 704 318 L S
704 317 M 704 318 L S
706 408 M 706 409 L S
706 408 M 706 409 L S
707 547 M 707 548 L S
707 547 M 707 548 L S
709 593 M 709 594 L S
709 593 M 709 594 L S
711 501 M 711 502 L S
711 501 M 711 502 L S
713 363 M 713 364 L S
713 363 M 713 364 L S
714 319 M 714 320 L S
714 319 M 714 320 L S
716 412 M 716 413 L S
716 412 M 716 413 L S
718 549 M 718 550 L S
718 549 M 718 550 L S
719 590 M 719 591 L S
719 590 M 719 591 L S
721 497 M 721 498 L S
721 497 M 721 498 L S
723 360 M 723 361 L S
723 360 M 723 361 L S
724 320 M 724 321 L S
724 320 M 724 321 L S
726 415 M 726 416 L S
726 415 M 726 416 L S
728 550 M 728 551 L S
728 550 M 728 551 L S
729 588 M 729 589 L S
729 588 M 729 589 L S
731 492 M 731 493 L S
731 492 M 731 493 L S
733 356 M 733 357 L S
733 356 M 733 357 L S
735 320 M 735 321 L S
735 320 M 735 321 L S
736 417 M 736 418 L S
736 417 M 736 418 L S
738 551 M 738 552 L S
738 551 M 738 552 L S
740 585 M 740 586 L S
740 585 M 740 586 L S
741 487 M 741 488 L S
741 487 M 741 488 L S
743 353 M 743 354 L S
743 353 M 743 354 L S
745 322 M 745 323 L S
745 322 M 745 323 L S
746 421 M 746 422 L S
746 421 M 746 422 L S
748 552 M 748 553 L S
748 552 M 748 553 L S
750 582 M 750 583 L S
750 582 M 750 583 L S
752 482 M 752 483 L S
752 482 M 752 483 L S
753 351 M 753 352 L S
753 351 M 753 352 L S
755 324 M 755 325 L S
755 324 M 755 325 L S
757 425 M 757 426 L S
757 425 M 757 426 L S
758 555 M 758 556 L S
758 555 M 758 556 L S
760 581 M 760 582 L S
760 581 M 760 582 L S
762 478 M 762 479 L S
762 478 M 762 479 L S
763 349 M 763 350 L S
763 349 M 763 350 L S
765 327 M 765 328 L S
765 327 M 765 328 L S
767 430 M 767 431 L S
767 430 M 767 431 L S
768 558 M 768 559 L S
768 558 M 768 559 L S
770 580 M 770 581 L S
770 580 M 770 581 L S
772 475 M 772 476 L S
772 475 M 772 476 L S
774 349 M 774 350 L S
774 349 M 774 350 L S
775 330 M 775 331 L S
775 330 M 775 331 L S
777 436 M 777 437 L S
777 436 M 777 437 L S
779 561 M 779 562 L S
779 561 M 779 562 L S
780 579 M 780 580 L S
780 579 M 780 580 L S
782 472 M 782 473 L S
782 472 M 782 473 L S
784 348 M 784 349 L S
784 348 M 784 349 L S
785 333 M 785 334 L S
785 333 M 785 334 L S
787 440 M 787 441 L S
787 440 M 787 441 L S
789 563 M 789 564 L S
789 563 M 789 564 L S
791 577 M 791 578 L S
791 577 M 791 578 L S
792 469 M 792 470 L S
792 469 M 792 470 L S
794 347 M 794 348 L S
794 347 M 794 348 L S
796 335 M 796 336 L S
796 335 M 796 336 L S
797 444 M 797 445 L S
797 444 M 797 445 L S
799 564 M 799 565 L S
799 564 M 799 565 L S
801 575 M 801 576 L S
801 575 M 801 576 L S
802 465 M 802 466 L S
802 465 M 802 466 L S
804 345 M 804 346 L S
804 345 M 804 346 L S
806 336 M 806 337 L S
806 336 M 806 337 L S
807 447 M 807 448 L S
807 447 M 807 448 L S
809 564 M 809 565 L S
809 564 M 809 565 L S
811 572 M 811 573 L S
811 572 M 811 573 L S
813 460 M 813 461 L S
813 460 M 813 461 L S
814 343 M 814 344 L S
814 343 M 814 344 L S
816 337 M 816 338 L S
816 337 M 816 338 L S
818 449 M 818 450 L S
818 449 M 818 450 L S
819 564 M 819 565 L S
819 564 M 819 565 L S
821 568 M 821 569 L S
821 568 M 821 569 L S
823 455 M 823 456 L S
823 455 M 823 456 L S
824 341 M 824 342 L S
824 341 M 824 342 L S
826 339 M 826 340 L S
826 339 M 826 340 L S
828 452 M 828 453 L S
828 452 M 828 453 L S
830 565 M 830 566 L S
830 565 M 830 566 L S
831 566 M 831 567 L S
831 566 M 831 567 L S
833 451 M 833 452 L S
833 451 M 833 452 L S
835 339 M 835 340 L S
835 339 M 835 340 L S
836 341 M 836 342 L S
836 341 M 836 342 L S
838 456 M 838 457 L S
838 456 M 838 457 L S
840 566 M 840 567 L S
840 566 M 840 567 L S
841 563 M 841 564 L S
841 563 M 841 564 L S
843 448 M 843 449 L S
843 448 M 843 449 L S
845 339 M 845 340 L S
845 339 M 845 340 L S
847 345 M 847 346 L S
847 345 M 847 346 L S
848 461 M 848 462 L S
848 461 M 848 462 L S
850 568 M 850 569 L S
850 568 M 850 569 L S
852 561 M 852 562 L S
852 561 M 852 562 L S
853 445 M 853 446 L S
853 445 M 853 446 L S
855 339 M 855 340 L S
855 339 M 855 340 L S
857 348 M 857 349 L S
857 348 M 857 349 L S
858 465 M 858 466 L S
858 465 M 858 466 L S
860 570 M 860 571 L S
860 570 M 860 571 L S
862 560 M 862 561 L S
862 560 M 862 561 L S
863 442 M 863 443 L S
863 442 M 863 443 L S
865 339 M 865 340 L S
865 339 M 865 340 L S
867 352 M 867 353 L S
867 352 M 867 353 L S
869 470 M 869 471 L S
869 470 M 869 471 L S
870 571 M 870 572 L S
870 571 M 870 572 L S
872 557 M 872 558 L S
872 557 M 872 558 L S
874 439 M 874 440 L S
874 439 M 874 440 L S
875 338 M 875 339 L S
875 338 M 875 339 L S
877 355 M 877 356 L S
877 355 M 877 356 L S
879 473 M 879 474 L S
879 473 M 879 474 L S
880 572 M 880 573 L S
880 572 M 880 573 L S
882 555 M 882 556 L S
882 555 M 882 556 L S
884 436 M 884 437 L S
884 436 M 884 437 L S
886 337 M 886 338 L S
886 337 M 886 338 L S
887 357 M 887 358 L S
887 357 M 887 358 L S
889 475 M 889 476 L S
889 475 M 889 476 L S
891 572 M 891 573 L S
891 572 M 891 573 L S
892 551 M 892 552 L S
892 551 M 892 552 L S
894 432 M 894 433 L S
894 432 M 894 433 L S
896 336 M 896 337 L S
896 336 M 896 337 L S
897 358 M 897 359 L S
897 358 M 897 359 L S
899 477 M 899 478 L S
899 477 M 899 478 L S
901 572 M 901 573 L S
901 572 M 901 573 L S
902 548 M 902 549 L S
902 548 M 902 549 L S
904 428 M 904 429 L S
904 428 M 904 429 L S
906 334 M 906 335 L S
906 334 M 906 335 L S
908 360 M 908 361 L S
908 360 M 908 361 L S
909 480 M 909 481 L S
909 480 M 909 481 L S
911 572 M 911 573 L S
911 572 M 911 573 L S
913 544 M 913 545 L S
913 544 M 913 545 L S
914 425 M 914 426 L S
914 425 M 914 426 L S
916 334 M 916 335 L S
916 334 M 916 335 L S
918 363 M 918 364 L S
918 363 M 918 364 L S
919 483 M 919 484 L S
919 483 M 919 484 L S
921 572 M 921 573 L S
921 572 M 921 573 L S
923 542 M 923 543 L S
923 542 M 923 543 L S
925 422 M 925 423 L S
925 422 M 925 423 L S
926 334 M 926 335 L S
926 334 M 926 335 L S
928 367 M 928 368 L S
928 367 M 928 368 L S
930 487 M 930 488 L S
930 487 M 930 488 L S
931 574 M 931 575 L S
931 574 M 931 575 L S
933 539 M 933 540 L S
933 539 M 933 540 L S
935 420 M 935 421 L S
935 420 M 935 421 L S
936 334 M 936 335 L S
936 334 M 936 335 L S
938 371 M 938 372 L S
938 371 M 938 372 L S
940 490 M 940 491 L S
940 490 M 940 491 L S
941 575 M 941 576 L S
941 575 M 941 576 L S
943 537 M 943 538 L S
943 537 M 943 538 L S
945 417 M 945 418 L S
945 417 M 945 418 L S
947 335 M 947 336 L S
947 335 M 947 336 L S
948 375 M 948 376 L S
948 375 M 948 376 L S
950 494 M 950 495 L S
950 494 M 950 495 L S
952 575 M 952 576 L S
952 575 M 952 576 L S
953 535 M 953 536 L S
953 535 M 953 536 L S
955 415 M 955 416 L S
955 415 M 955 416 L S
957 335 M 957 336 L S
957 335 M 957 336 L S
958 378 M 958 379 L S
958 378 M 958 379 L S
960 497 M 960 498 L S
960 497 M 960 498 L S
962 575 M 962 576 L S
962 575 M 962 576 L S
964 532 M 964 533 L S
964 532 M 964 533 L S
965 412 M 965 413 L S
965 412 M 965 413 L S
967 335 M 967 336 L S
967 335 M 967 336 L S
969 380 M 969 381 L S
969 380 M 969 381 L S
970 499 M 970 500 L S
970 499 M 970 500 L S
972 575 M 972 576 L S
972 575 M 972 576 L S
/Courier-Bold findfont 27 scalefont setfont
101 764 M (Zgoubi|Zpop                                                                     ) H
101 743 M (05-05-2020                                                                      ) H
/Courier-Bold findfont 26 scalefont setfont
160 85 M (* # COORDINATES  - STORAGE FILE, 05-05-2020 22:45:36 *                                                                            ) H
293 755 M (   Y     (m)  vs.  Pass#                                                                                                          ) H
26 42 M (Mi-ma H/V:   1.00000E+00  5.14000E+02/ -7.57217E-04  7.26391E-04                                                                  ) H
26 21 M (Part#  1- 10000 (*); Lmnt#     1; pass#       1-    514, [    1];    514 pnts                                                     ) H
showpage
