%!PS-Adobe-2.0 EPSF-2.0
%%Title: turn-E.eps
%%Titre: turn-E.eps
%%Creator: Fminigraf Library
%%BoundingBox: 20 40 567 457
%%EndComments
/offx 20 def
/offy 40 def
/lx 595 def
/ly 842 def
/maxx 1023 def
/maxy 779 def
/reduc 0.92 def
/coeff lx maxx div reduc mul def
offx offy translate
coeff coeff scale
1 setlinewidth newpath 0 0 moveto
/Courier-Bold findfont 32 scalefont setfont
/M {moveto} def
/L {lineto} def
/S {stroke} def
/H {show} def
/D {setdash} def
0 0 0 setrgbcolor
[] 0 D
118 156 M 118 161 L S
118 735 M 118 740 L S
135 156 M 135 161 L S
135 735 M 135 740 L S
153 156 M 153 161 L S
153 735 M 153 740 L S
170 156 M 170 161 L S
170 735 M 170 740 L S
[2 3] 0 D
187 156 M 187 740 L S
[] 0 D
/Courier-Bold findfont 30 scalefont setfont
169 128 M (100) H
187 156 M 187 166 L S
187 730 M 187 740 L S
205 156 M 205 161 L S
205 735 M 205 740 L S
222 156 M 222 161 L S
222 735 M 222 740 L S
240 156 M 240 161 L S
240 735 M 240 740 L S
257 156 M 257 161 L S
257 735 M 257 740 L S
[2 3] 0 D
274 156 M 274 740 L S
[] 0 D
256 128 M (200) H
274 156 M 274 166 L S
274 730 M 274 740 L S
292 156 M 292 161 L S
292 735 M 292 740 L S
309 156 M 309 161 L S
309 735 M 309 740 L S
327 156 M 327 161 L S
327 735 M 327 740 L S
344 156 M 344 161 L S
344 735 M 344 740 L S
[2 3] 0 D
362 156 M 362 740 L S
[] 0 D
344 128 M (300) H
362 156 M 362 166 L S
362 730 M 362 740 L S
379 156 M 379 161 L S
379 735 M 379 740 L S
396 156 M 396 161 L S
396 735 M 396 740 L S
414 156 M 414 161 L S
414 735 M 414 740 L S
431 156 M 431 161 L S
431 735 M 431 740 L S
[2 3] 0 D
449 156 M 449 740 L S
[] 0 D
431 128 M (400) H
449 156 M 449 166 L S
449 730 M 449 740 L S
466 156 M 466 161 L S
466 735 M 466 740 L S
483 156 M 483 161 L S
483 735 M 483 740 L S
501 156 M 501 161 L S
501 735 M 501 740 L S
518 156 M 518 161 L S
518 735 M 518 740 L S
[2 3] 0 D
536 156 M 536 740 L S
[] 0 D
518 128 M (500) H
536 156 M 536 166 L S
536 730 M 536 740 L S
553 156 M 553 161 L S
553 735 M 553 740 L S
571 156 M 571 161 L S
571 735 M 571 740 L S
588 156 M 588 161 L S
588 735 M 588 740 L S
605 156 M 605 161 L S
605 735 M 605 740 L S
[2 3] 0 D
623 156 M 623 740 L S
[] 0 D
605 128 M (600) H
623 156 M 623 166 L S
623 730 M 623 740 L S
640 156 M 640 161 L S
640 735 M 640 740 L S
658 156 M 658 161 L S
658 735 M 658 740 L S
675 156 M 675 161 L S
675 735 M 675 740 L S
692 156 M 692 161 L S
692 735 M 692 740 L S
[2 3] 0 D
710 156 M 710 740 L S
[] 0 D
692 128 M (700) H
710 156 M 710 166 L S
710 730 M 710 740 L S
727 156 M 727 161 L S
727 735 M 727 740 L S
745 156 M 745 161 L S
745 735 M 745 740 L S
762 156 M 762 161 L S
762 735 M 762 740 L S
780 156 M 780 161 L S
780 735 M 780 740 L S
[2 3] 0 D
797 156 M 797 740 L S
[] 0 D
779 128 M (800) H
797 156 M 797 166 L S
797 730 M 797 740 L S
814 156 M 814 161 L S
814 735 M 814 740 L S
832 156 M 832 161 L S
832 735 M 832 740 L S
849 156 M 849 161 L S
849 735 M 849 740 L S
867 156 M 867 161 L S
867 735 M 867 740 L S
[2 3] 0 D
884 156 M 884 740 L S
[] 0 D
866 128 M (900) H
884 156 M 884 166 L S
884 730 M 884 740 L S
901 156 M 901 161 L S
901 735 M 901 740 L S
919 156 M 919 161 L S
919 735 M 919 740 L S
936 156 M 936 161 L S
936 735 M 936 740 L S
954 156 M 954 161 L S
954 735 M 954 740 L S
[2 3] 0 D
971 156 M 971 740 L S
[] 0 D
947 128 M (1000) H
971 156 M 971 166 L S
971 730 M 971 740 L S
[2 3] 0 D
102 171 M 972 171 L S
[] 0 D
33 161 M (500) H
102 171 M 112 171 L S
962 171 M 972 171 L S
102 187 M 107 187 L S
967 187 M 972 187 L S
102 203 M 107 203 L S
967 203 M 972 203 L S
102 218 M 107 218 L S
967 218 M 972 218 L S
102 234 M 107 234 L S
967 234 M 972 234 L S
[2 3] 0 D
102 250 M 972 250 L S
[] 0 D
27 240 M (1000) H
102 250 M 112 250 L S
962 250 M 972 250 L S
102 266 M 107 266 L S
967 266 M 972 266 L S
102 281 M 107 281 L S
967 281 M 972 281 L S
102 297 M 107 297 L S
967 297 M 972 297 L S
102 313 M 107 313 L S
967 313 M 972 313 L S
[2 3] 0 D
102 329 M 972 329 L S
[] 0 D
27 319 M (1500) H
102 329 M 112 329 L S
962 329 M 972 329 L S
102 344 M 107 344 L S
967 344 M 972 344 L S
102 360 M 107 360 L S
967 360 M 972 360 L S
102 376 M 107 376 L S
967 376 M 972 376 L S
102 392 M 107 392 L S
967 392 M 972 392 L S
[2 3] 0 D
102 407 M 972 407 L S
[] 0 D
27 397 M (2000) H
102 407 M 112 407 L S
962 407 M 972 407 L S
102 423 M 107 423 L S
967 423 M 972 423 L S
102 439 M 107 439 L S
967 439 M 972 439 L S
102 455 M 107 455 L S
967 455 M 972 455 L S
102 470 M 107 470 L S
967 470 M 972 470 L S
[2 3] 0 D
102 486 M 972 486 L S
[] 0 D
27 476 M (2500) H
102 486 M 112 486 L S
962 486 M 972 486 L S
102 502 M 107 502 L S
967 502 M 972 502 L S
102 517 M 107 517 L S
967 517 M 972 517 L S
102 533 M 107 533 L S
967 533 M 972 533 L S
102 549 M 107 549 L S
967 549 M 972 549 L S
[2 3] 0 D
102 565 M 972 565 L S
[] 0 D
27 555 M (3000) H
102 565 M 112 565 L S
962 565 M 972 565 L S
102 580 M 107 580 L S
967 580 M 972 580 L S
102 596 M 107 596 L S
967 596 M 972 596 L S
102 612 M 107 612 L S
967 612 M 972 612 L S
102 628 M 107 628 L S
967 628 M 972 628 L S
[2 3] 0 D
102 643 M 972 643 L S
[] 0 D
27 633 M (3500) H
102 643 M 112 643 L S
962 643 M 972 643 L S
102 659 M 107 659 L S
967 659 M 972 659 L S
102 675 M 107 675 L S
967 675 M 972 675 L S
102 691 M 107 691 L S
967 691 M 972 691 L S
102 706 M 107 706 L S
967 706 M 972 706 L S
[2 3] 0 D
102 722 M 972 722 L S
[] 0 D
27 712 M (4000) H
102 722 M 112 722 L S
962 722 M 972 722 L S
102 738 M 107 738 L S
967 738 M 972 738 L S
[] 0 D
102 156 M 972 156 L S
972 156 M 972 740 L S
972 740 M 102 740 L S
102 740 M 102 156 L S
102 156 M 102 157 L S
102 156 M 102 157 L S
103 157 M 103 158 L S
103 157 M 103 158 L S
104 157 M 104 158 L S
104 157 M 104 158 L S
105 158 M 105 159 L S
105 158 M 105 159 L S
105 158 M 105 159 L S
105 158 M 105 159 L S
106 159 M 106 160 L S
106 159 M 106 160 L S
107 159 M 107 160 L S
107 159 M 107 160 L S
108 160 M 108 161 L S
108 160 M 108 161 L S
109 161 M 109 162 L S
109 161 M 109 162 L S
110 161 M 110 162 L S
110 161 M 110 162 L S
111 162 M 111 163 L S
111 162 M 111 163 L S
112 162 M 112 163 L S
112 162 M 112 163 L S
112 163 M 112 164 L S
112 163 M 112 164 L S
113 164 M 113 165 L S
113 164 M 113 165 L S
114 164 M 114 165 L S
114 164 M 114 165 L S
115 165 M 115 166 L S
115 165 M 115 166 L S
116 165 M 116 166 L S
116 165 M 116 166 L S
117 166 M 117 167 L S
117 166 M 117 167 L S
118 167 M 118 168 L S
118 167 M 118 168 L S
119 167 M 119 168 L S
119 167 M 119 168 L S
119 168 M 119 169 L S
119 168 M 119 169 L S
120 168 M 120 169 L S
120 168 M 120 169 L S
121 169 M 121 170 L S
121 169 M 121 170 L S
122 169 M 122 170 L S
122 169 M 122 170 L S
123 170 M 123 171 L S
123 170 M 123 171 L S
124 171 M 124 172 L S
124 171 M 124 172 L S
125 171 M 125 172 L S
125 171 M 125 172 L S
126 172 M 126 173 L S
126 172 M 126 173 L S
126 172 M 126 173 L S
126 172 M 126 173 L S
127 173 M 127 174 L S
127 173 M 127 174 L S
128 174 M 128 175 L S
128 174 M 128 175 L S
129 174 M 129 175 L S
129 174 M 129 175 L S
130 175 M 130 176 L S
130 175 M 130 176 L S
131 175 M 131 176 L S
131 175 M 131 176 L S
132 176 M 132 177 L S
132 176 M 132 177 L S
132 176 M 132 177 L S
132 176 M 132 177 L S
133 177 M 133 178 L S
133 177 M 133 178 L S
134 178 M 134 179 L S
134 178 M 134 179 L S
135 178 M 135 179 L S
135 178 M 135 179 L S
136 179 M 136 180 L S
136 179 M 136 180 L S
137 179 M 137 180 L S
137 179 M 137 180 L S
138 180 M 138 181 L S
138 180 M 138 181 L S
139 181 M 139 182 L S
139 181 M 139 182 L S
139 181 M 139 182 L S
139 181 M 139 182 L S
140 182 M 140 183 L S
140 182 M 140 183 L S
141 182 M 141 183 L S
141 182 M 141 183 L S
142 183 M 142 184 L S
142 183 M 142 184 L S
143 183 M 143 184 L S
143 183 M 143 184 L S
144 184 M 144 185 L S
144 184 M 144 185 L S
145 185 M 145 186 L S
145 185 M 145 186 L S
146 185 M 146 186 L S
146 185 M 146 186 L S
146 186 M 146 187 L S
146 186 M 146 187 L S
147 186 M 147 187 L S
147 186 M 147 187 L S
148 187 M 148 188 L S
148 187 M 148 188 L S
149 188 M 149 189 L S
149 188 M 149 189 L S
150 188 M 150 189 L S
150 188 M 150 189 L S
151 189 M 151 190 L S
151 189 M 151 190 L S
152 189 M 152 190 L S
152 189 M 152 190 L S
153 190 M 153 191 L S
153 190 M 153 191 L S
153 190 M 153 191 L S
153 190 M 153 191 L S
154 191 M 154 192 L S
154 191 M 154 192 L S
155 192 M 155 193 L S
155 192 M 155 193 L S
156 192 M 156 193 L S
156 192 M 156 193 L S
157 193 M 157 194 L S
157 193 M 157 194 L S
158 193 M 158 194 L S
158 193 M 158 194 L S
159 194 M 159 195 L S
159 194 M 159 195 L S
159 195 M 159 196 L S
159 195 M 159 196 L S
160 195 M 160 196 L S
160 195 M 160 196 L S
161 196 M 161 197 L S
161 196 M 161 197 L S
162 196 M 162 197 L S
162 196 M 162 197 L S
163 197 M 163 198 L S
163 197 M 163 198 L S
164 198 M 164 199 L S
164 198 M 164 199 L S
165 198 M 165 199 L S
165 198 M 165 199 L S
166 199 M 166 200 L S
166 199 M 166 200 L S
166 199 M 166 200 L S
166 199 M 166 200 L S
167 200 M 167 201 L S
167 200 M 167 201 L S
168 200 M 168 201 L S
168 200 M 168 201 L S
169 201 M 169 202 L S
169 201 M 169 202 L S
170 202 M 170 203 L S
170 202 M 170 203 L S
171 202 M 171 203 L S
171 202 M 171 203 L S
172 203 M 172 204 L S
172 203 M 172 204 L S
173 203 M 173 204 L S
173 203 M 173 204 L S
173 204 M 173 205 L S
173 204 M 173 205 L S
174 205 M 174 206 L S
174 205 M 174 206 L S
175 205 M 175 206 L S
175 205 M 175 206 L S
176 206 M 176 207 L S
176 206 M 176 207 L S
177 206 M 177 207 L S
177 206 M 177 207 L S
178 207 M 178 208 L S
178 207 M 178 208 L S
179 207 M 179 208 L S
179 207 M 179 208 L S
180 208 M 180 209 L S
180 208 M 180 209 L S
180 209 M 180 210 L S
180 209 M 180 210 L S
181 209 M 181 210 L S
181 209 M 181 210 L S
182 210 M 182 211 L S
182 210 M 182 211 L S
183 210 M 183 211 L S
183 210 M 183 211 L S
184 211 M 184 212 L S
184 211 M 184 212 L S
185 212 M 185 213 L S
185 212 M 185 213 L S
186 212 M 186 213 L S
186 212 M 186 213 L S
186 213 M 186 214 L S
186 213 M 186 214 L S
187 213 M 187 214 L S
187 213 M 187 214 L S
188 214 M 188 215 L S
188 214 M 188 215 L S
189 214 M 189 215 L S
189 214 M 189 215 L S
190 215 M 190 216 L S
190 215 M 190 216 L S
191 216 M 191 217 L S
191 216 M 191 217 L S
192 216 M 192 217 L S
192 216 M 192 217 L S
193 217 M 193 218 L S
193 217 M 193 218 L S
193 217 M 193 218 L S
193 217 M 193 218 L S
194 218 M 194 219 L S
194 218 M 194 219 L S
195 219 M 195 220 L S
195 219 M 195 220 L S
196 219 M 196 220 L S
196 219 M 196 220 L S
197 220 M 197 221 L S
197 220 M 197 221 L S
198 220 M 198 221 L S
198 220 M 198 221 L S
199 221 M 199 222 L S
199 221 M 199 222 L S
200 221 M 200 222 L S
200 221 M 200 222 L S
200 222 M 200 223 L S
200 222 M 200 223 L S
201 223 M 201 224 L S
201 223 M 201 224 L S
202 223 M 202 224 L S
202 223 M 202 224 L S
203 224 M 203 225 L S
203 224 M 203 225 L S
204 224 M 204 225 L S
204 224 M 204 225 L S
205 225 M 205 226 L S
205 225 M 205 226 L S
206 226 M 206 227 L S
206 226 M 206 227 L S
207 226 M 207 227 L S
207 226 M 207 227 L S
207 227 M 207 228 L S
207 227 M 207 228 L S
208 227 M 208 228 L S
208 227 M 208 228 L S
209 228 M 209 229 L S
209 228 M 209 229 L S
210 229 M 210 230 L S
210 229 M 210 230 L S
211 229 M 211 230 L S
211 229 M 211 230 L S
212 230 M 212 231 L S
212 230 M 212 231 L S
213 230 M 213 231 L S
213 230 M 213 231 L S
213 231 M 213 232 L S
213 231 M 213 232 L S
214 231 M 214 232 L S
214 231 M 214 232 L S
215 232 M 215 233 L S
215 232 M 215 233 L S
216 233 M 216 234 L S
216 233 M 216 234 L S
217 233 M 217 234 L S
217 233 M 217 234 L S
218 234 M 218 235 L S
218 234 M 218 235 L S
219 234 M 219 235 L S
219 234 M 219 235 L S
220 235 M 220 236 L S
220 235 M 220 236 L S
220 236 M 220 237 L S
220 236 M 220 237 L S
221 236 M 221 237 L S
221 236 M 221 237 L S
222 237 M 222 238 L S
222 237 M 222 238 L S
223 237 M 223 238 L S
223 237 M 223 238 L S
224 238 M 224 239 L S
224 238 M 224 239 L S
225 238 M 225 239 L S
225 238 M 225 239 L S
226 239 M 226 240 L S
226 239 M 226 240 L S
227 240 M 227 241 L S
227 240 M 227 241 L S
227 240 M 227 241 L S
227 240 M 227 241 L S
228 241 M 228 242 L S
228 241 M 228 242 L S
229 241 M 229 242 L S
229 241 M 229 242 L S
230 242 M 230 243 L S
230 242 M 230 243 L S
231 243 M 231 244 L S
231 243 M 231 244 L S
232 243 M 232 244 L S
232 243 M 232 244 L S
233 244 M 233 245 L S
233 244 M 233 245 L S
234 244 M 234 245 L S
234 244 M 234 245 L S
234 245 M 234 246 L S
234 245 M 234 246 L S
235 245 M 235 246 L S
235 245 M 235 246 L S
236 246 M 236 247 L S
236 246 M 236 247 L S
237 247 M 237 248 L S
237 247 M 237 248 L S
238 247 M 238 248 L S
238 247 M 238 248 L S
239 248 M 239 249 L S
239 248 M 239 249 L S
240 248 M 240 249 L S
240 248 M 240 249 L S
240 249 M 240 250 L S
240 249 M 240 250 L S
241 250 M 241 251 L S
241 250 M 241 251 L S
242 250 M 242 251 L S
242 250 M 242 251 L S
243 251 M 243 252 L S
243 251 M 243 252 L S
244 251 M 244 252 L S
244 251 M 244 252 L S
245 252 M 245 253 L S
245 252 M 245 253 L S
246 253 M 246 254 L S
246 253 M 246 254 L S
247 253 M 247 254 L S
247 253 M 247 254 L S
247 254 M 247 255 L S
247 254 M 247 255 L S
248 254 M 248 255 L S
248 254 M 248 255 L S
249 255 M 249 256 L S
249 255 M 249 256 L S
250 255 M 250 256 L S
250 255 M 250 256 L S
251 256 M 251 257 L S
251 256 M 251 257 L S
252 257 M 252 258 L S
252 257 M 252 258 L S
253 257 M 253 258 L S
253 257 M 253 258 L S
254 258 M 254 259 L S
254 258 M 254 259 L S
254 258 M 254 259 L S
254 258 M 254 259 L S
255 259 M 255 260 L S
255 259 M 255 260 L S
256 259 M 256 260 L S
256 259 M 256 260 L S
257 260 M 257 261 L S
257 260 M 257 261 L S
258 261 M 258 262 L S
258 261 M 258 262 L S
259 261 M 259 262 L S
259 261 M 259 262 L S
260 262 M 260 263 L S
260 262 M 260 263 L S
260 262 M 260 263 L S
260 262 M 260 263 L S
261 263 M 261 264 L S
261 263 M 261 264 L S
262 264 M 262 265 L S
262 264 M 262 265 L S
263 264 M 263 265 L S
263 264 M 263 265 L S
264 265 M 264 266 L S
264 265 M 264 266 L S
265 265 M 265 266 L S
265 265 M 265 266 L S
266 266 M 266 267 L S
266 266 M 266 267 L S
267 267 M 267 268 L S
267 267 M 267 268 L S
267 267 M 267 268 L S
267 267 M 267 268 L S
268 268 M 268 269 L S
268 268 M 268 269 L S
269 268 M 269 269 L S
269 268 M 269 269 L S
270 269 M 270 270 L S
270 269 M 270 270 L S
271 269 M 271 270 L S
271 269 M 271 270 L S
272 270 M 272 271 L S
272 270 M 272 271 L S
273 271 M 273 272 L S
273 271 M 273 272 L S
274 271 M 274 272 L S
274 271 M 274 272 L S
274 272 M 274 273 L S
274 272 M 274 273 L S
275 272 M 275 273 L S
275 272 M 275 273 L S
276 273 M 276 274 L S
276 273 M 276 274 L S
277 274 M 277 275 L S
277 274 M 277 275 L S
278 274 M 278 275 L S
278 274 M 278 275 L S
279 275 M 279 276 L S
279 275 M 279 276 L S
280 275 M 280 276 L S
280 275 M 280 276 L S
281 276 M 281 277 L S
281 276 M 281 277 L S
281 276 M 281 277 L S
281 276 M 281 277 L S
282 277 M 282 278 L S
282 277 M 282 278 L S
283 278 M 283 279 L S
283 278 M 283 279 L S
284 278 M 284 279 L S
284 278 M 284 279 L S
285 279 M 285 280 L S
285 279 M 285 280 L S
286 279 M 286 280 L S
286 279 M 286 280 L S
287 280 M 287 281 L S
287 280 M 287 281 L S
287 281 M 287 282 L S
287 281 M 287 282 L S
288 281 M 288 282 L S
288 281 M 288 282 L S
289 282 M 289 283 L S
289 282 M 289 283 L S
290 282 M 290 283 L S
290 282 M 290 283 L S
291 283 M 291 284 L S
291 283 M 291 284 L S
292 283 M 292 284 L S
292 283 M 292 284 L S
293 284 M 293 285 L S
293 284 M 293 285 L S
294 285 M 294 286 L S
294 285 M 294 286 L S
294 285 M 294 286 L S
294 285 M 294 286 L S
295 286 M 295 287 L S
295 286 M 295 287 L S
296 286 M 296 287 L S
296 286 M 296 287 L S
297 287 M 297 288 L S
297 287 M 297 288 L S
298 288 M 298 289 L S
298 288 M 298 289 L S
299 288 M 299 289 L S
299 288 M 299 289 L S
300 289 M 300 290 L S
300 289 M 300 290 L S
301 289 M 301 290 L S
301 289 M 301 290 L S
301 290 M 301 291 L S
301 290 M 301 291 L S
302 291 M 302 292 L S
302 291 M 302 292 L S
303 291 M 303 292 L S
303 291 M 303 292 L S
304 292 M 304 293 L S
304 292 M 304 293 L S
305 292 M 305 293 L S
305 292 M 305 293 L S
306 293 M 306 294 L S
306 293 M 306 294 L S
307 293 M 307 294 L S
307 293 M 307 294 L S
308 294 M 308 295 L S
308 294 M 308 295 L S
308 295 M 308 296 L S
308 295 M 308 296 L S
309 295 M 309 296 L S
309 295 M 309 296 L S
310 296 M 310 297 L S
310 296 M 310 297 L S
311 296 M 311 297 L S
311 296 M 311 297 L S
312 297 M 312 298 L S
312 297 M 312 298 L S
313 298 M 313 299 L S
313 298 M 313 299 L S
314 298 M 314 299 L S
314 298 M 314 299 L S
314 299 M 314 300 L S
314 299 M 314 300 L S
315 299 M 315 300 L S
315 299 M 315 300 L S
316 300 M 316 301 L S
316 300 M 316 301 L S
317 300 M 317 301 L S
317 300 M 317 301 L S
318 301 M 318 302 L S
318 301 M 318 302 L S
319 302 M 319 303 L S
319 302 M 319 303 L S
320 302 M 320 303 L S
320 302 M 320 303 L S
321 303 M 321 304 L S
321 303 M 321 304 L S
321 303 M 321 304 L S
321 303 M 321 304 L S
322 304 M 322 305 L S
322 304 M 322 305 L S
323 305 M 323 306 L S
323 305 M 323 306 L S
324 305 M 324 306 L S
324 305 M 324 306 L S
325 306 M 325 307 L S
325 306 M 325 307 L S
326 306 M 326 307 L S
326 306 M 326 307 L S
327 307 M 327 308 L S
327 307 M 327 308 L S
328 307 M 328 308 L S
328 307 M 328 308 L S
328 308 M 328 309 L S
328 308 M 328 309 L S
329 309 M 329 310 L S
329 309 M 329 310 L S
330 309 M 330 310 L S
330 309 M 330 310 L S
331 310 M 331 311 L S
331 310 M 331 311 L S
332 310 M 332 311 L S
332 310 M 332 311 L S
333 311 M 333 312 L S
333 311 M 333 312 L S
334 312 M 334 313 L S
334 312 M 334 313 L S
335 312 M 335 313 L S
335 312 M 335 313 L S
335 313 M 335 314 L S
335 313 M 335 314 L S
336 313 M 336 314 L S
336 313 M 336 314 L S
337 314 M 337 315 L S
337 314 M 337 315 L S
338 314 M 338 315 L S
338 314 M 338 315 L S
339 315 M 339 316 L S
339 315 M 339 316 L S
340 316 M 340 317 L S
340 316 M 340 317 L S
341 316 M 341 317 L S
341 316 M 341 317 L S
341 317 M 341 318 L S
341 317 M 341 318 L S
342 317 M 342 318 L S
342 317 M 342 318 L S
343 318 M 343 319 L S
343 318 M 343 319 L S
344 319 M 344 320 L S
344 319 M 344 320 L S
345 319 M 345 320 L S
345 319 M 345 320 L S
346 320 M 346 321 L S
346 320 M 346 321 L S
347 320 M 347 321 L S
347 320 M 347 321 L S
348 321 M 348 322 L S
348 321 M 348 322 L S
348 322 M 348 323 L S
348 322 M 348 323 L S
349 322 M 349 323 L S
349 322 M 349 323 L S
350 323 M 350 324 L S
350 323 M 350 324 L S
351 323 M 351 324 L S
351 323 M 351 324 L S
352 324 M 352 325 L S
352 324 M 352 325 L S
353 324 M 353 325 L S
353 324 M 353 325 L S
354 325 M 354 326 L S
354 325 M 354 326 L S
355 326 M 355 327 L S
355 326 M 355 327 L S
355 326 M 355 327 L S
355 326 M 355 327 L S
356 327 M 356 328 L S
356 327 M 356 328 L S
357 327 M 357 328 L S
357 327 M 357 328 L S
358 328 M 358 329 L S
358 328 M 358 329 L S
359 328 M 359 329 L S
359 328 M 359 329 L S
360 329 M 360 330 L S
360 329 M 360 330 L S
361 330 M 361 331 L S
361 330 M 361 331 L S
362 330 M 362 331 L S
362 330 M 362 331 L S
362 331 M 362 332 L S
362 331 M 362 332 L S
363 331 M 363 332 L S
363 331 M 363 332 L S
364 332 M 364 333 L S
364 332 M 364 333 L S
365 333 M 365 334 L S
365 333 M 365 334 L S
366 333 M 366 334 L S
366 333 M 366 334 L S
367 334 M 367 335 L S
367 334 M 367 335 L S
368 334 M 368 335 L S
368 334 M 368 335 L S
368 335 M 368 336 L S
368 335 M 368 336 L S
369 336 M 369 337 L S
369 336 M 369 337 L S
370 336 M 370 337 L S
370 336 M 370 337 L S
371 337 M 371 338 L S
371 337 M 371 338 L S
372 337 M 372 338 L S
372 337 M 372 338 L S
373 338 M 373 339 L S
373 338 M 373 339 L S
374 338 M 374 339 L S
374 338 M 374 339 L S
375 339 M 375 340 L S
375 339 M 375 340 L S
375 340 M 375 341 L S
375 340 M 375 341 L S
376 340 M 376 341 L S
376 340 M 376 341 L S
377 341 M 377 342 L S
377 341 M 377 342 L S
378 341 M 378 342 L S
378 341 M 378 342 L S
379 342 M 379 343 L S
379 342 M 379 343 L S
380 343 M 380 344 L S
380 343 M 380 344 L S
381 343 M 381 344 L S
381 343 M 381 344 L S
382 344 M 382 345 L S
382 344 M 382 345 L S
382 344 M 382 345 L S
382 344 M 382 345 L S
383 345 M 383 346 L S
383 345 M 383 346 L S
384 345 M 384 346 L S
384 345 M 384 346 L S
385 346 M 385 347 L S
385 346 M 385 347 L S
386 347 M 386 348 L S
386 347 M 386 348 L S
387 347 M 387 348 L S
387 347 M 387 348 L S
388 348 M 388 349 L S
388 348 M 388 349 L S
389 348 M 389 349 L S
389 348 M 389 349 L S
389 349 M 389 350 L S
389 349 M 389 350 L S
390 350 M 390 351 L S
390 350 M 390 351 L S
391 350 M 391 351 L S
391 350 M 391 351 L S
392 351 M 392 352 L S
392 351 M 392 352 L S
393 351 M 393 352 L S
393 351 M 393 352 L S
394 352 M 394 353 L S
394 352 M 394 353 L S
395 352 M 395 353 L S
395 352 M 395 353 L S
395 353 M 395 354 L S
395 353 M 395 354 L S
396 354 M 396 355 L S
396 354 M 396 355 L S
397 354 M 397 355 L S
397 354 M 397 355 L S
398 355 M 398 356 L S
398 355 M 398 356 L S
399 355 M 399 356 L S
399 355 M 399 356 L S
400 356 M 400 357 L S
400 356 M 400 357 L S
401 357 M 401 358 L S
401 357 M 401 358 L S
402 357 M 402 358 L S
402 357 M 402 358 L S
402 358 M 402 359 L S
402 358 M 402 359 L S
403 358 M 403 359 L S
403 358 M 403 359 L S
404 359 M 404 360 L S
404 359 M 404 360 L S
405 359 M 405 360 L S
405 359 M 405 360 L S
406 360 M 406 361 L S
406 360 M 406 361 L S
407 361 M 407 362 L S
407 361 M 407 362 L S
408 361 M 408 362 L S
408 361 M 408 362 L S
409 362 M 409 363 L S
409 362 M 409 363 L S
409 362 M 409 363 L S
409 362 M 409 363 L S
410 363 M 410 364 L S
410 363 M 410 364 L S
411 364 M 411 365 L S
411 364 M 411 365 L S
412 364 M 412 365 L S
412 364 M 412 365 L S
413 365 M 413 366 L S
413 365 M 413 366 L S
414 365 M 414 366 L S
414 365 M 414 366 L S
415 366 M 415 367 L S
415 366 M 415 367 L S
416 367 M 416 368 L S
416 367 M 416 368 L S
416 367 M 416 368 L S
416 367 M 416 368 L S
417 368 M 417 369 L S
417 368 M 417 369 L S
418 368 M 418 369 L S
418 368 M 418 369 L S
419 369 M 419 370 L S
419 369 M 419 370 L S
420 369 M 420 370 L S
420 369 M 420 370 L S
421 370 M 421 371 L S
421 370 M 421 371 L S
422 371 M 422 372 L S
422 371 M 422 372 L S
422 371 M 422 372 L S
422 371 M 422 372 L S
423 372 M 423 373 L S
423 372 M 423 373 L S
424 372 M 424 373 L S
424 372 M 424 373 L S
425 373 M 425 374 L S
425 373 M 425 374 L S
426 374 M 426 375 L S
426 374 M 426 375 L S
427 374 M 427 375 L S
427 374 M 427 375 L S
428 375 M 428 376 L S
428 375 M 428 376 L S
429 375 M 429 376 L S
429 375 M 429 376 L S
429 376 M 429 377 L S
429 376 M 429 377 L S
430 376 M 430 377 L S
430 376 M 430 377 L S
431 377 M 431 378 L S
431 377 M 431 378 L S
432 378 M 432 379 L S
432 378 M 432 379 L S
433 378 M 433 379 L S
433 378 M 433 379 L S
434 379 M 434 380 L S
434 379 M 434 380 L S
435 379 M 435 380 L S
435 379 M 435 380 L S
436 380 M 436 381 L S
436 380 M 436 381 L S
436 381 M 436 382 L S
436 381 M 436 382 L S
437 381 M 437 382 L S
437 381 M 437 382 L S
438 382 M 438 383 L S
438 382 M 438 383 L S
439 382 M 439 383 L S
439 382 M 439 383 L S
440 383 M 440 384 L S
440 383 M 440 384 L S
441 383 M 441 384 L S
441 383 M 441 384 L S
442 384 M 442 385 L S
442 384 M 442 385 L S
443 385 M 443 386 L S
443 385 M 443 386 L S
443 385 M 443 386 L S
443 385 M 443 386 L S
444 386 M 444 387 L S
444 386 M 444 387 L S
445 386 M 445 387 L S
445 386 M 445 387 L S
446 387 M 446 388 L S
446 387 M 446 388 L S
447 388 M 447 389 L S
447 388 M 447 389 L S
448 388 M 448 389 L S
448 388 M 448 389 L S
449 389 M 449 390 L S
449 389 M 449 390 L S
449 389 M 449 390 L S
449 389 M 449 390 L S
450 390 M 450 391 L S
450 390 M 450 391 L S
451 391 M 451 392 L S
451 391 M 451 392 L S
452 391 M 452 392 L S
452 391 M 452 392 L S
453 392 M 453 393 L S
453 392 M 453 393 L S
454 392 M 454 393 L S
454 392 M 454 393 L S
455 393 M 455 394 L S
455 393 M 455 394 L S
456 393 M 456 394 L S
456 393 M 456 394 L S
456 394 M 456 395 L S
456 394 M 456 395 L S
457 395 M 457 396 L S
457 395 M 457 396 L S
458 395 M 458 396 L S
458 395 M 458 396 L S
459 396 M 459 397 L S
459 396 M 459 397 L S
460 396 M 460 397 L S
460 396 M 460 397 L S
461 397 M 461 398 L S
461 397 M 461 398 L S
462 398 M 462 399 L S
462 398 M 462 399 L S
463 398 M 463 399 L S
463 398 M 463 399 L S
463 399 M 463 400 L S
463 399 M 463 400 L S
464 399 M 464 400 L S
464 399 M 464 400 L S
465 400 M 465 401 L S
465 400 M 465 401 L S
466 400 M 466 401 L S
466 400 M 466 401 L S
467 401 M 467 402 L S
467 401 M 467 402 L S
468 402 M 468 403 L S
468 402 M 468 403 L S
469 402 M 469 403 L S
469 402 M 469 403 L S
470 403 M 470 404 L S
470 403 M 470 404 L S
470 403 M 470 404 L S
470 403 M 470 404 L S
471 404 M 471 405 L S
471 404 M 471 405 L S
472 405 M 472 406 L S
472 405 M 472 406 L S
473 405 M 473 406 L S
473 405 M 473 406 L S
474 406 M 474 407 L S
474 406 M 474 407 L S
475 406 M 475 407 L S
475 406 M 475 407 L S
476 407 M 476 408 L S
476 407 M 476 408 L S
476 407 M 476 408 L S
476 407 M 476 408 L S
477 408 M 477 409 L S
477 408 M 477 409 L S
478 409 M 478 410 L S
478 409 M 478 410 L S
479 409 M 479 410 L S
479 409 M 479 410 L S
480 410 M 480 411 L S
480 410 M 480 411 L S
481 410 M 481 411 L S
481 410 M 481 411 L S
482 411 M 482 412 L S
482 411 M 482 412 L S
483 412 M 483 413 L S
483 412 M 483 413 L S
483 412 M 483 413 L S
483 412 M 483 413 L S
484 413 M 484 414 L S
484 413 M 484 414 L S
485 413 M 485 414 L S
485 413 M 485 414 L S
486 414 M 486 415 L S
486 414 M 486 415 L S
487 414 M 487 415 L S
487 414 M 487 415 L S
488 415 M 488 416 L S
488 415 M 488 416 L S
489 416 M 489 417 L S
489 416 M 489 417 L S
490 416 M 490 417 L S
490 416 M 490 417 L S
490 417 M 490 418 L S
490 417 M 490 418 L S
491 417 M 491 418 L S
491 417 M 491 418 L S
492 418 M 492 419 L S
492 418 M 492 419 L S
493 419 M 493 420 L S
493 419 M 493 420 L S
494 419 M 494 420 L S
494 419 M 494 420 L S
495 420 M 495 421 L S
495 420 M 495 421 L S
496 420 M 496 421 L S
496 420 M 496 421 L S
497 421 M 497 422 L S
497 421 M 497 422 L S
497 422 M 497 423 L S
497 422 M 497 423 L S
498 422 M 498 423 L S
498 422 M 498 423 L S
499 423 M 499 424 L S
499 423 M 499 424 L S
500 423 M 500 424 L S
500 423 M 500 424 L S
501 424 M 501 425 L S
501 424 M 501 425 L S
502 424 M 502 425 L S
502 424 M 502 425 L S
503 425 M 503 426 L S
503 425 M 503 426 L S
503 426 M 503 427 L S
503 426 M 503 427 L S
504 426 M 504 427 L S
504 426 M 504 427 L S
505 427 M 505 428 L S
505 427 M 505 428 L S
506 427 M 506 428 L S
506 427 M 506 428 L S
507 428 M 507 429 L S
507 428 M 507 429 L S
508 429 M 508 430 L S
508 429 M 508 430 L S
509 429 M 509 430 L S
509 429 M 509 430 L S
510 430 M 510 431 L S
510 430 M 510 431 L S
510 430 M 510 431 L S
510 430 M 510 431 L S
511 431 M 511 432 L S
511 431 M 511 432 L S
512 431 M 512 432 L S
512 431 M 512 432 L S
513 432 M 513 433 L S
513 432 M 513 433 L S
514 433 M 514 434 L S
514 433 M 514 434 L S
515 433 M 515 434 L S
515 433 M 515 434 L S
516 434 M 516 435 L S
516 434 M 516 435 L S
517 434 M 517 435 L S
517 434 M 517 435 L S
517 435 M 517 436 L S
517 435 M 517 436 L S
518 436 M 518 437 L S
518 436 M 518 437 L S
519 436 M 519 437 L S
519 436 M 519 437 L S
520 437 M 520 438 L S
520 437 M 520 438 L S
521 437 M 521 438 L S
521 437 M 521 438 L S
522 438 M 522 439 L S
522 438 M 522 439 L S
523 438 M 523 439 L S
523 438 M 523 439 L S
524 439 M 524 440 L S
524 439 M 524 440 L S
524 440 M 524 441 L S
524 440 M 524 441 L S
525 440 M 525 441 L S
525 440 M 525 441 L S
526 441 M 526 442 L S
526 441 M 526 442 L S
527 441 M 527 442 L S
527 441 M 527 442 L S
528 442 M 528 443 L S
528 442 M 528 443 L S
529 443 M 529 444 L S
529 443 M 529 444 L S
530 443 M 530 444 L S
530 443 M 530 444 L S
530 444 M 530 445 L S
530 444 M 530 445 L S
531 444 M 531 445 L S
531 444 M 531 445 L S
532 445 M 532 446 L S
532 445 M 532 446 L S
533 445 M 533 446 L S
533 445 M 533 446 L S
534 446 M 534 447 L S
534 446 M 534 447 L S
535 447 M 535 448 L S
535 447 M 535 448 L S
536 447 M 536 448 L S
536 447 M 536 448 L S
537 448 M 537 449 L S
537 448 M 537 449 L S
537 448 M 537 449 L S
537 448 M 537 449 L S
538 449 M 538 450 L S
538 449 M 538 450 L S
539 450 M 539 451 L S
539 450 M 539 451 L S
540 450 M 540 451 L S
540 450 M 540 451 L S
541 451 M 541 452 L S
541 451 M 541 452 L S
542 451 M 542 452 L S
542 451 M 542 452 L S
543 452 M 543 453 L S
543 452 M 543 453 L S
544 453 M 544 454 L S
544 453 M 544 454 L S
544 453 M 544 454 L S
544 453 M 544 454 L S
545 454 M 545 455 L S
545 454 M 545 455 L S
546 454 M 546 455 L S
546 454 M 546 455 L S
547 455 M 547 456 L S
547 455 M 547 456 L S
548 455 M 548 456 L S
548 455 M 548 456 L S
549 456 M 549 457 L S
549 456 M 549 457 L S
550 457 M 550 458 L S
550 457 M 550 458 L S
550 457 M 550 458 L S
550 457 M 550 458 L S
551 458 M 551 459 L S
551 458 M 551 459 L S
552 458 M 552 459 L S
552 458 M 552 459 L S
553 459 M 553 460 L S
553 459 M 553 460 L S
554 460 M 554 461 L S
554 460 M 554 461 L S
555 460 M 555 461 L S
555 460 M 555 461 L S
556 461 M 556 462 L S
556 461 M 556 462 L S
557 461 M 557 462 L S
557 461 M 557 462 L S
557 462 M 557 463 L S
557 462 M 557 463 L S
558 462 M 558 463 L S
558 462 M 558 463 L S
559 463 M 559 464 L S
559 463 M 559 464 L S
560 464 M 560 465 L S
560 464 M 560 465 L S
561 464 M 561 465 L S
561 464 M 561 465 L S
562 465 M 562 466 L S
562 465 M 562 466 L S
563 465 M 563 466 L S
563 465 M 563 466 L S
564 466 M 564 467 L S
564 466 M 564 467 L S
564 466 M 564 467 L S
564 466 M 564 467 L S
565 467 M 565 468 L S
565 467 M 565 468 L S
566 468 M 566 469 L S
566 468 M 566 469 L S
567 468 M 567 469 L S
567 468 M 567 469 L S
568 469 M 568 470 L S
568 469 M 568 470 L S
569 469 M 569 470 L S
569 469 M 569 470 L S
570 470 M 570 471 L S
570 470 M 570 471 L S
571 471 M 571 472 L S
571 471 M 571 472 L S
571 471 M 571 472 L S
571 471 M 571 472 L S
572 472 M 572 473 L S
572 472 M 572 473 L S
573 472 M 573 473 L S
573 472 M 573 473 L S
574 473 M 574 474 L S
574 473 M 574 474 L S
575 474 M 575 475 L S
575 474 M 575 475 L S
576 474 M 576 475 L S
576 474 M 576 475 L S
577 475 M 577 476 L S
577 475 M 577 476 L S
577 475 M 577 476 L S
577 475 M 577 476 L S
578 476 M 578 477 L S
578 476 M 578 477 L S
579 476 M 579 477 L S
579 476 M 579 477 L S
580 477 M 580 478 L S
580 477 M 580 478 L S
581 478 M 581 479 L S
581 478 M 581 479 L S
582 478 M 582 479 L S
582 478 M 582 479 L S
583 479 M 583 480 L S
583 479 M 583 480 L S
584 479 M 584 480 L S
584 479 M 584 480 L S
584 480 M 584 481 L S
584 480 M 584 481 L S
585 481 M 585 482 L S
585 481 M 585 482 L S
586 481 M 586 482 L S
586 481 M 586 482 L S
587 482 M 587 483 L S
587 482 M 587 483 L S
588 482 M 588 483 L S
588 482 M 588 483 L S
589 483 M 589 484 L S
589 483 M 589 484 L S
590 483 M 590 484 L S
590 483 M 590 484 L S
591 484 M 591 485 L S
591 484 M 591 485 L S
591 485 M 591 486 L S
591 485 M 591 486 L S
592 485 M 592 486 L S
592 485 M 592 486 L S
593 486 M 593 487 L S
593 486 M 593 487 L S
594 486 M 594 487 L S
594 486 M 594 487 L S
595 487 M 595 488 L S
595 487 M 595 488 L S
596 488 M 596 489 L S
596 488 M 596 489 L S
597 488 M 597 489 L S
597 488 M 597 489 L S
598 489 M 598 490 L S
598 489 M 598 490 L S
598 489 M 598 490 L S
598 489 M 598 490 L S
599 490 M 599 491 L S
599 490 M 599 491 L S
600 490 M 600 491 L S
600 490 M 600 491 L S
601 491 M 601 492 L S
601 491 M 601 492 L S
602 492 M 602 493 L S
602 492 M 602 493 L S
603 492 M 603 493 L S
603 492 M 603 493 L S
604 493 M 604 494 L S
604 493 M 604 494 L S
604 493 M 604 494 L S
604 493 M 604 494 L S
605 494 M 605 495 L S
605 494 M 605 495 L S
606 495 M 606 496 L S
606 495 M 606 496 L S
607 495 M 607 496 L S
607 495 M 607 496 L S
608 496 M 608 497 L S
608 496 M 608 497 L S
609 496 M 609 497 L S
609 496 M 609 497 L S
610 497 M 610 498 L S
610 497 M 610 498 L S
611 497 M 611 498 L S
611 497 M 611 498 L S
611 498 M 611 499 L S
611 498 M 611 499 L S
612 499 M 612 500 L S
612 499 M 612 500 L S
613 499 M 613 500 L S
613 499 M 613 500 L S
614 500 M 614 501 L S
614 500 M 614 501 L S
615 500 M 615 501 L S
615 500 M 615 501 L S
616 501 M 616 502 L S
616 501 M 616 502 L S
617 502 M 617 503 L S
617 502 M 617 503 L S
618 502 M 618 503 L S
618 502 M 618 503 L S
618 503 M 618 504 L S
618 503 M 618 504 L S
619 503 M 619 504 L S
619 503 M 619 504 L S
620 504 M 620 505 L S
620 504 M 620 505 L S
621 504 M 621 505 L S
621 504 M 621 505 L S
622 505 M 622 506 L S
622 505 M 622 506 L S
623 506 M 623 507 L S
623 506 M 623 507 L S
624 506 M 624 507 L S
624 506 M 624 507 L S
625 507 M 625 508 L S
625 507 M 625 508 L S
625 507 M 625 508 L S
625 507 M 625 508 L S
626 508 M 626 509 L S
626 508 M 626 509 L S
627 509 M 627 510 L S
627 509 M 627 510 L S
628 509 M 628 510 L S
628 509 M 628 510 L S
629 510 M 629 511 L S
629 510 M 629 511 L S
630 510 M 630 511 L S
630 510 M 630 511 L S
631 511 M 631 512 L S
631 511 M 631 512 L S
631 512 M 631 513 L S
631 512 M 631 513 L S
632 512 M 632 513 L S
632 512 M 632 513 L S
633 513 M 633 514 L S
633 513 M 633 514 L S
634 513 M 634 514 L S
634 513 M 634 514 L S
635 514 M 635 515 L S
635 514 M 635 515 L S
636 514 M 636 515 L S
636 514 M 636 515 L S
637 515 M 637 516 L S
637 515 M 637 516 L S
638 516 M 638 517 L S
638 516 M 638 517 L S
638 516 M 638 517 L S
638 516 M 638 517 L S
639 517 M 639 518 L S
639 517 M 639 518 L S
640 517 M 640 518 L S
640 517 M 640 518 L S
641 518 M 641 519 L S
641 518 M 641 519 L S
642 519 M 642 520 L S
642 519 M 642 520 L S
643 519 M 643 520 L S
643 519 M 643 520 L S
644 520 M 644 521 L S
644 520 M 644 521 L S
645 520 M 645 521 L S
645 520 M 645 521 L S
645 521 M 645 522 L S
645 521 M 645 522 L S
646 521 M 646 522 L S
646 521 M 646 522 L S
647 522 M 647 523 L S
647 522 M 647 523 L S
648 523 M 648 524 L S
648 523 M 648 524 L S
649 523 M 649 524 L S
649 523 M 649 524 L S
650 524 M 650 525 L S
650 524 M 650 525 L S
651 524 M 651 525 L S
651 524 M 651 525 L S
652 525 M 652 526 L S
652 525 M 652 526 L S
652 526 M 652 527 L S
652 526 M 652 527 L S
653 526 M 653 527 L S
653 526 M 653 527 L S
654 527 M 654 528 L S
654 527 M 654 528 L S
655 527 M 655 528 L S
655 527 M 655 528 L S
656 528 M 656 529 L S
656 528 M 656 529 L S
657 528 M 657 529 L S
657 528 M 657 529 L S
658 529 M 658 530 L S
658 529 M 658 530 L S
658 530 M 658 531 L S
658 530 M 658 531 L S
659 530 M 659 531 L S
659 530 M 659 531 L S
660 531 M 660 532 L S
660 531 M 660 532 L S
661 531 M 661 532 L S
661 531 M 661 532 L S
662 532 M 662 533 L S
662 532 M 662 533 L S
663 533 M 663 534 L S
663 533 M 663 534 L S
664 533 M 664 534 L S
664 533 M 664 534 L S
665 534 M 665 535 L S
665 534 M 665 535 L S
665 534 M 665 535 L S
665 534 M 665 535 L S
666 535 M 666 536 L S
666 535 M 666 536 L S
667 535 M 667 536 L S
667 535 M 667 536 L S
668 536 M 668 537 L S
668 536 M 668 537 L S
669 537 M 669 538 L S
669 537 M 669 538 L S
670 537 M 670 538 L S
670 537 M 670 538 L S
671 538 M 671 539 L S
671 538 M 671 539 L S
672 538 M 672 539 L S
672 538 M 672 539 L S
672 539 M 672 540 L S
672 539 M 672 540 L S
673 540 M 673 541 L S
673 540 M 673 541 L S
674 540 M 674 541 L S
674 540 M 674 541 L S
675 541 M 675 542 L S
675 541 M 675 542 L S
676 541 M 676 542 L S
676 541 M 676 542 L S
677 542 M 677 543 L S
677 542 M 677 543 L S
678 543 M 678 544 L S
678 543 M 678 544 L S
679 543 M 679 544 L S
679 543 M 679 544 L S
679 544 M 679 545 L S
679 544 M 679 545 L S
680 544 M 680 545 L S
680 544 M 680 545 L S
681 545 M 681 546 L S
681 545 M 681 546 L S
682 545 M 682 546 L S
682 545 M 682 546 L S
683 546 M 683 547 L S
683 546 M 683 547 L S
684 547 M 684 548 L S
684 547 M 684 548 L S
685 547 M 685 548 L S
685 547 M 685 548 L S
685 548 M 685 549 L S
685 548 M 685 549 L S
686 548 M 686 549 L S
686 548 M 686 549 L S
687 549 M 687 550 L S
687 549 M 687 550 L S
688 550 M 688 551 L S
688 550 M 688 551 L S
689 550 M 689 551 L S
689 550 M 689 551 L S
690 551 M 690 552 L S
690 551 M 690 552 L S
691 551 M 691 552 L S
691 551 M 691 552 L S
692 552 M 692 553 L S
692 552 M 692 553 L S
692 552 M 692 553 L S
692 552 M 692 553 L S
693 553 M 693 554 L S
693 553 M 693 554 L S
694 554 M 694 555 L S
694 554 M 694 555 L S
695 554 M 695 555 L S
695 554 M 695 555 L S
696 555 M 696 556 L S
696 555 M 696 556 L S
697 555 M 697 556 L S
697 555 M 697 556 L S
698 556 M 698 557 L S
698 556 M 698 557 L S
699 557 M 699 558 L S
699 557 M 699 558 L S
699 557 M 699 558 L S
699 557 M 699 558 L S
700 558 M 700 559 L S
700 558 M 700 559 L S
701 558 M 701 559 L S
701 558 M 701 559 L S
702 559 M 702 560 L S
702 559 M 702 560 L S
703 559 M 703 560 L S
703 559 M 703 560 L S
704 560 M 704 561 L S
704 560 M 704 561 L S
705 561 M 705 562 L S
705 561 M 705 562 L S
706 561 M 706 562 L S
706 561 M 706 562 L S
706 562 M 706 563 L S
706 562 M 706 563 L S
707 562 M 707 563 L S
707 562 M 707 563 L S
708 563 M 708 564 L S
708 563 M 708 564 L S
709 564 M 709 565 L S
709 564 M 709 565 L S
710 564 M 710 565 L S
710 564 M 710 565 L S
711 565 M 711 566 L S
711 565 M 711 566 L S
712 565 M 712 566 L S
712 565 M 712 566 L S
712 566 M 712 567 L S
712 566 M 712 567 L S
713 566 M 713 567 L S
713 566 M 713 567 L S
714 567 M 714 568 L S
714 567 M 714 568 L S
715 568 M 715 569 L S
715 568 M 715 569 L S
716 568 M 716 569 L S
716 568 M 716 569 L S
717 569 M 717 570 L S
717 569 M 717 570 L S
718 569 M 718 570 L S
718 569 M 718 570 L S
719 570 M 719 571 L S
719 570 M 719 571 L S
719 571 M 719 572 L S
719 571 M 719 572 L S
720 571 M 720 572 L S
720 571 M 720 572 L S
721 572 M 721 573 L S
721 572 M 721 573 L S
722 572 M 722 573 L S
722 572 M 722 573 L S
723 573 M 723 574 L S
723 573 M 723 574 L S
724 573 M 724 574 L S
724 573 M 724 574 L S
725 574 M 725 575 L S
725 574 M 725 575 L S
726 575 M 726 576 L S
726 575 M 726 576 L S
726 575 M 726 576 L S
726 575 M 726 576 L S
727 576 M 727 577 L S
727 576 M 727 577 L S
728 576 M 728 577 L S
728 576 M 728 577 L S
729 577 M 729 578 L S
729 577 M 729 578 L S
730 578 M 730 579 L S
730 578 M 730 579 L S
731 578 M 731 579 L S
731 578 M 731 579 L S
732 579 M 732 580 L S
732 579 M 732 580 L S
733 579 M 733 580 L S
733 579 M 733 580 L S
733 580 M 733 581 L S
733 580 M 733 581 L S
734 581 M 734 582 L S
734 581 M 734 582 L S
735 581 M 735 582 L S
735 581 M 735 582 L S
736 582 M 736 583 L S
736 582 M 736 583 L S
737 582 M 737 583 L S
737 582 M 737 583 L S
738 583 M 738 584 L S
738 583 M 738 584 L S
739 583 M 739 584 L S
739 583 M 739 584 L S
739 584 M 739 585 L S
739 584 M 739 585 L S
740 585 M 740 586 L S
740 585 M 740 586 L S
741 585 M 741 586 L S
741 585 M 741 586 L S
742 586 M 742 587 L S
742 586 M 742 587 L S
743 586 M 743 587 L S
743 586 M 743 587 L S
744 587 M 744 588 L S
744 587 M 744 588 L S
745 588 M 745 589 L S
745 588 M 745 589 L S
746 588 M 746 589 L S
746 588 M 746 589 L S
746 589 M 746 590 L S
746 589 M 746 590 L S
747 589 M 747 590 L S
747 589 M 747 590 L S
748 590 M 748 591 L S
748 590 M 748 591 L S
749 590 M 749 591 L S
749 590 M 749 591 L S
750 591 M 750 592 L S
750 591 M 750 592 L S
751 592 M 751 593 L S
751 592 M 751 593 L S
752 592 M 752 593 L S
752 592 M 752 593 L S
753 593 M 753 594 L S
753 593 M 753 594 L S
753 593 M 753 594 L S
753 593 M 753 594 L S
754 594 M 754 595 L S
754 594 M 754 595 L S
755 595 M 755 596 L S
755 595 M 755 596 L S
756 595 M 756 596 L S
756 595 M 756 596 L S
757 596 M 757 597 L S
757 596 M 757 597 L S
758 596 M 758 597 L S
758 596 M 758 597 L S
759 597 M 759 598 L S
759 597 M 759 598 L S
760 597 M 760 598 L S
760 597 M 760 598 L S
760 598 M 760 599 L S
760 598 M 760 599 L S
761 599 M 761 600 L S
761 599 M 761 600 L S
762 599 M 762 600 L S
762 599 M 762 600 L S
763 600 M 763 601 L S
763 600 M 763 601 L S
764 600 M 764 601 L S
764 600 M 764 601 L S
765 601 M 765 602 L S
765 601 M 765 602 L S
766 602 M 766 603 L S
766 602 M 766 603 L S
766 602 M 766 603 L S
766 602 M 766 603 L S
767 603 M 767 604 L S
767 603 M 767 604 L S
768 603 M 768 604 L S
768 603 M 768 604 L S
769 604 M 769 605 L S
769 604 M 769 605 L S
770 604 M 770 605 L S
770 604 M 770 605 L S
771 605 M 771 606 L S
771 605 M 771 606 L S
772 606 M 772 607 L S
772 606 M 772 607 L S
773 606 M 773 607 L S
773 606 M 773 607 L S
773 607 M 773 608 L S
773 607 M 773 608 L S
774 607 M 774 608 L S
774 607 M 774 608 L S
775 608 M 775 609 L S
775 608 M 775 609 L S
776 609 M 776 610 L S
776 609 M 776 610 L S
777 609 M 777 610 L S
777 609 M 777 610 L S
778 610 M 778 611 L S
778 610 M 778 611 L S
779 610 M 779 611 L S
779 610 M 779 611 L S
780 611 M 780 612 L S
780 611 M 780 612 L S
780 611 M 780 612 L S
780 611 M 780 612 L S
781 612 M 781 613 L S
781 612 M 781 613 L S
782 613 M 782 614 L S
782 613 M 782 614 L S
783 613 M 783 614 L S
783 613 M 783 614 L S
784 614 M 784 615 L S
784 614 M 784 615 L S
785 614 M 785 615 L S
785 614 M 785 615 L S
786 615 M 786 616 L S
786 615 M 786 616 L S
787 616 M 787 617 L S
787 616 M 787 617 L S
787 616 M 787 617 L S
787 616 M 787 617 L S
788 617 M 788 618 L S
788 617 M 788 618 L S
789 617 M 789 618 L S
789 617 M 789 618 L S
790 618 M 790 619 L S
790 618 M 790 619 L S
791 619 M 791 620 L S
791 619 M 791 620 L S
792 619 M 792 620 L S
792 619 M 792 620 L S
793 620 M 793 621 L S
793 620 M 793 621 L S
793 620 M 793 621 L S
793 620 M 793 621 L S
794 621 M 794 622 L S
794 621 M 794 622 L S
795 621 M 795 622 L S
795 621 M 795 622 L S
796 622 M 796 623 L S
796 622 M 796 623 L S
797 623 M 797 624 L S
797 623 M 797 624 L S
798 623 M 798 624 L S
798 623 M 798 624 L S
799 624 M 799 625 L S
799 624 M 799 625 L S
800 624 M 800 625 L S
800 624 M 800 625 L S
800 625 M 800 626 L S
800 625 M 800 626 L S
801 626 M 801 627 L S
801 626 M 801 627 L S
802 626 M 802 627 L S
802 626 M 802 627 L S
803 627 M 803 628 L S
803 627 M 803 628 L S
804 627 M 804 628 L S
804 627 M 804 628 L S
805 628 M 805 629 L S
805 628 M 805 629 L S
806 628 M 806 629 L S
806 628 M 806 629 L S
807 629 M 807 630 L S
807 629 M 807 630 L S
807 630 M 807 631 L S
807 630 M 807 631 L S
808 630 M 808 631 L S
808 630 M 808 631 L S
809 631 M 809 632 L S
809 631 M 809 632 L S
810 631 M 810 632 L S
810 631 M 810 632 L S
811 632 M 811 633 L S
811 632 M 811 633 L S
812 633 M 812 634 L S
812 633 M 812 634 L S
813 633 M 813 634 L S
813 633 M 813 634 L S
814 634 M 814 635 L S
814 634 M 814 635 L S
814 634 M 814 635 L S
814 634 M 814 635 L S
815 635 M 815 636 L S
815 635 M 815 636 L S
816 635 M 816 636 L S
816 635 M 816 636 L S
817 636 M 817 637 L S
817 636 M 817 637 L S
818 637 M 818 638 L S
818 637 M 818 638 L S
819 637 M 819 638 L S
819 637 M 819 638 L S
820 638 M 820 639 L S
820 638 M 820 639 L S
820 638 M 820 639 L S
820 638 M 820 639 L S
821 639 M 821 640 L S
821 639 M 821 640 L S
822 639 M 822 640 L S
822 639 M 822 640 L S
823 640 M 823 641 L S
823 640 M 823 641 L S
824 641 M 824 642 L S
824 641 M 824 642 L S
825 641 M 825 642 L S
825 641 M 825 642 L S
826 642 M 826 643 L S
826 642 M 826 643 L S
827 642 M 827 643 L S
827 642 M 827 643 L S
827 643 M 827 644 L S
827 643 M 827 644 L S
828 644 M 828 645 L S
828 644 M 828 645 L S
829 644 M 829 645 L S
829 644 M 829 645 L S
830 645 M 830 646 L S
830 645 M 830 646 L S
831 645 M 831 646 L S
831 645 M 831 646 L S
832 646 M 832 647 L S
832 646 M 832 647 L S
833 646 M 833 647 L S
833 646 M 833 647 L S
834 647 M 834 648 L S
834 647 M 834 648 L S
834 648 M 834 649 L S
834 648 M 834 649 L S
835 648 M 835 649 L S
835 648 M 835 649 L S
836 649 M 836 650 L S
836 649 M 836 650 L S
837 649 M 837 650 L S
837 649 M 837 650 L S
838 650 M 838 651 L S
838 650 M 838 651 L S
839 651 M 839 652 L S
839 651 M 839 652 L S
840 651 M 840 652 L S
840 651 M 840 652 L S
840 652 M 840 653 L S
840 652 M 840 653 L S
841 652 M 841 653 L S
841 652 M 841 653 L S
842 653 M 842 654 L S
842 653 M 842 654 L S
843 654 M 843 655 L S
843 654 M 843 655 L S
844 654 M 844 655 L S
844 654 M 844 655 L S
845 655 M 845 656 L S
845 655 M 845 656 L S
846 655 M 846 656 L S
846 655 M 846 656 L S
847 656 M 847 657 L S
847 656 M 847 657 L S
847 656 M 847 657 L S
847 656 M 847 657 L S
848 657 M 848 658 L S
848 657 M 848 658 L S
849 658 M 849 659 L S
849 658 M 849 659 L S
850 658 M 850 659 L S
850 658 M 850 659 L S
851 659 M 851 660 L S
851 659 M 851 660 L S
852 659 M 852 660 L S
852 659 M 852 660 L S
853 660 M 853 661 L S
853 660 M 853 661 L S
854 661 M 854 662 L S
854 661 M 854 662 L S
854 661 M 854 662 L S
854 661 M 854 662 L S
855 662 M 855 663 L S
855 662 M 855 663 L S
856 662 M 856 663 L S
856 662 M 856 663 L S
857 663 M 857 664 L S
857 663 M 857 664 L S
858 664 M 858 665 L S
858 664 M 858 665 L S
859 664 M 859 665 L S
859 664 M 859 665 L S
860 665 M 860 666 L S
860 665 M 860 666 L S
861 665 M 861 666 L S
861 665 M 861 666 L S
861 666 M 861 667 L S
861 666 M 861 667 L S
862 666 M 862 667 L S
862 666 M 862 667 L S
863 667 M 863 668 L S
863 667 M 863 668 L S
864 668 M 864 669 L S
864 668 M 864 669 L S
865 668 M 865 669 L S
865 668 M 865 669 L S
866 669 M 866 670 L S
866 669 M 866 670 L S
867 669 M 867 670 L S
867 669 M 867 670 L S
867 670 M 867 671 L S
867 670 M 867 671 L S
868 670 M 868 671 L S
868 670 M 868 671 L S
869 671 M 869 672 L S
869 671 M 869 672 L S
870 672 M 870 673 L S
870 672 M 870 673 L S
871 672 M 871 673 L S
871 672 M 871 673 L S
872 673 M 872 674 L S
872 673 M 872 674 L S
873 673 M 873 674 L S
873 673 M 873 674 L S
874 674 M 874 675 L S
874 674 M 874 675 L S
874 675 M 874 676 L S
874 675 M 874 676 L S
875 675 M 875 676 L S
875 675 M 875 676 L S
876 676 M 876 677 L S
876 676 M 876 677 L S
877 676 M 877 677 L S
877 676 M 877 677 L S
878 677 M 878 678 L S
878 677 M 878 678 L S
879 677 M 879 678 L S
879 677 M 879 678 L S
880 678 M 880 679 L S
880 678 M 880 679 L S
881 679 M 881 680 L S
881 679 M 881 680 L S
881 679 M 881 680 L S
881 679 M 881 680 L S
882 680 M 882 681 L S
882 680 M 882 681 L S
883 680 M 883 681 L S
883 680 M 883 681 L S
884 681 M 884 682 L S
884 681 M 884 682 L S
885 682 M 885 683 L S
885 682 M 885 683 L S
886 682 M 886 683 L S
886 682 M 886 683 L S
887 683 M 887 684 L S
887 683 M 887 684 L S
888 683 M 888 684 L S
888 683 M 888 684 L S
888 684 M 888 685 L S
888 684 M 888 685 L S
889 684 M 889 685 L S
889 684 M 889 685 L S
890 685 M 890 686 L S
890 685 M 890 686 L S
891 686 M 891 687 L S
891 686 M 891 687 L S
892 686 M 892 687 L S
892 686 M 892 687 L S
893 687 M 893 688 L S
893 687 M 893 688 L S
894 687 M 894 688 L S
894 687 M 894 688 L S
894 688 M 894 689 L S
894 688 M 894 689 L S
895 689 M 895 690 L S
895 689 M 895 690 L S
896 689 M 896 690 L S
896 689 M 896 690 L S
897 690 M 897 691 L S
897 690 M 897 691 L S
898 690 M 898 691 L S
898 690 M 898 691 L S
899 691 M 899 692 L S
899 691 M 899 692 L S
900 692 M 900 693 L S
900 692 M 900 693 L S
901 692 M 901 693 L S
901 692 M 901 693 L S
901 693 M 901 694 L S
901 693 M 901 694 L S
902 693 M 902 694 L S
902 693 M 902 694 L S
903 694 M 903 695 L S
903 694 M 903 695 L S
904 694 M 904 695 L S
904 694 M 904 695 L S
905 695 M 905 696 L S
905 695 M 905 696 L S
906 696 M 906 697 L S
906 696 M 906 697 L S
907 696 M 907 697 L S
907 696 M 907 697 L S
908 697 M 908 698 L S
908 697 M 908 698 L S
908 697 M 908 698 L S
908 697 M 908 698 L S
909 698 M 909 699 L S
909 698 M 909 699 L S
910 699 M 910 700 L S
910 699 M 910 700 L S
911 699 M 911 700 L S
911 699 M 911 700 L S
912 700 M 912 701 L S
912 700 M 912 701 L S
913 700 M 913 701 L S
913 700 M 913 701 L S
914 701 M 914 702 L S
914 701 M 914 702 L S
915 701 M 915 702 L S
915 701 M 915 702 L S
915 702 M 915 703 L S
915 702 M 915 703 L S
916 703 M 916 704 L S
916 703 M 916 704 L S
917 703 M 917 704 L S
917 703 M 917 704 L S
918 704 M 918 705 L S
918 704 M 918 705 L S
919 704 M 919 705 L S
919 704 M 919 705 L S
920 705 M 920 706 L S
920 705 M 920 706 L S
921 706 M 921 707 L S
921 706 M 921 707 L S
921 706 M 921 707 L S
921 706 M 921 707 L S
922 707 M 922 708 L S
922 707 M 922 708 L S
923 707 M 923 708 L S
923 707 M 923 708 L S
924 708 M 924 709 L S
924 708 M 924 709 L S
925 708 M 925 709 L S
925 708 M 925 709 L S
926 709 M 926 710 L S
926 709 M 926 710 L S
927 710 M 927 711 L S
927 710 M 927 711 L S
928 710 M 928 711 L S
928 710 M 928 711 L S
928 711 M 928 712 L S
928 711 M 928 712 L S
929 711 M 929 712 L S
929 711 M 929 712 L S
930 712 M 930 713 L S
930 712 M 930 713 L S
931 713 M 931 714 L S
931 713 M 931 714 L S
932 713 M 932 714 L S
932 713 M 932 714 L S
933 714 M 933 715 L S
933 714 M 933 715 L S
934 714 M 934 715 L S
934 714 M 934 715 L S
935 715 M 935 716 L S
935 715 M 935 716 L S
935 715 M 935 716 L S
935 715 M 935 716 L S
936 716 M 936 717 L S
936 716 M 936 717 L S
937 717 M 937 718 L S
937 717 M 937 718 L S
938 717 M 938 718 L S
938 717 M 938 718 L S
939 718 M 939 719 L S
939 718 M 939 719 L S
940 718 M 940 719 L S
940 718 M 940 719 L S
941 719 M 941 720 L S
941 719 M 941 720 L S
942 719 M 942 720 L S
942 719 M 942 720 L S
942 720 M 942 721 L S
942 720 M 942 721 L S
943 721 M 943 722 L S
943 721 M 943 722 L S
944 721 M 944 722 L S
944 721 M 944 722 L S
945 722 M 945 723 L S
945 722 M 945 723 L S
946 722 M 946 723 L S
946 722 M 946 723 L S
947 723 M 947 724 L S
947 723 M 947 724 L S
948 724 M 948 725 L S
948 724 M 948 725 L S
948 724 M 948 725 L S
948 724 M 948 725 L S
949 725 M 949 726 L S
949 725 M 949 726 L S
950 725 M 950 726 L S
950 725 M 950 726 L S
951 726 M 951 727 L S
951 726 M 951 727 L S
952 726 M 952 727 L S
952 726 M 952 727 L S
953 727 M 953 728 L S
953 727 M 953 728 L S
954 728 M 954 729 L S
954 728 M 954 729 L S
955 728 M 955 729 L S
955 728 M 955 729 L S
955 729 M 955 730 L S
955 729 M 955 730 L S
956 729 M 956 730 L S
956 729 M 956 730 L S
957 730 M 957 731 L S
957 730 M 957 731 L S
958 731 M 958 732 L S
958 731 M 958 732 L S
959 731 M 959 732 L S
959 731 M 959 732 L S
960 732 M 960 733 L S
960 732 M 960 733 L S
961 732 M 961 733 L S
961 732 M 961 733 L S
962 733 M 962 734 L S
962 733 M 962 734 L S
962 734 M 962 735 L S
962 734 M 962 735 L S
963 734 M 963 735 L S
963 734 M 963 735 L S
964 735 M 964 736 L S
964 735 M 964 736 L S
965 735 M 965 736 L S
965 735 M 965 736 L S
966 736 M 966 737 L S
966 736 M 966 737 L S
967 736 M 967 737 L S
967 736 M 967 737 L S
968 737 M 968 738 L S
968 737 M 968 738 L S
969 738 M 969 739 L S
969 738 M 969 739 L S
969 738 M 969 739 L S
969 738 M 969 739 L S
970 739 M 970 740 L S
970 739 M 970 740 L S
971 739 M 971 740 L S
971 739 M 971 740 L S
972 740 M 972 741 L S
972 740 M 972 741 L S
/Courier-Bold findfont 27 scalefont setfont
101 764 M (Zgoubi|Zpop                                                                     ) H
101 743 M (05-05-2020                                                                      ) H
/Courier-Bold findfont 26 scalefont setfont
160 85 M (* # COORDINATES  - STORAGE FILE, 05-05-2020 22:45:36 *                                                                            ) H
293 755 M (KinEnr  (MeV) vs.  Pass#                                                                                                          ) H
26 42 M (Mi-ma H/V:   2.00000E+00  1.00100E+03/  4.03178E+02  4.11374E+03                                                                  ) H
26 21 M (Part#  1- 10000 (*); Lmnt#     1; pass#       2-   1001, [    1];   1000 pnts                                                     ) H
showpage
