%!PS-Adobe-2.0 EPSF-2.0
%%Title: E_kin.vs.pass.eps
%%Titre: E_kin.vs.pass.eps
%%Creator: Fminigraf Library
%%BoundingBox: 20 40 567 457
%%EndComments
/offx 20 def
/offy 40 def
/lx 595 def
/ly 842 def
/maxx 1023 def
/maxy 779 def
/reduc 0.92 def
/coeff lx maxx div reduc mul def
offx offy translate
coeff coeff scale
1 setlinewidth newpath 0 0 moveto
/Courier-Bold findfont 32 scalefont setfont
/M {moveto} def
/L {lineto} def
/S {stroke} def
/H {show} def
/D {setdash} def
0 0 0 setrgbcolor
[] 0 D
[] 0 D
102 156 M 102 161 L S
102 735 M 102 740 L S
140 156 M 140 161 L S
140 735 M 140 740 L S
178 156 M 178 161 L S
178 735 M 178 740 L S
215 156 M 215 161 L S
215 735 M 215 740 L S
[2 3] 0 D
253 156 M 253 740 L S
[] 0 D
247 128 M (5) H
253 156 M 253 166 L S
253 730 M 253 740 L S
291 156 M 291 161 L S
291 735 M 291 740 L S
329 156 M 329 161 L S
329 735 M 329 740 L S
367 156 M 367 161 L S
367 735 M 367 740 L S
405 156 M 405 161 L S
405 735 M 405 740 L S
[2 3] 0 D
442 156 M 442 740 L S
[] 0 D
430 128 M (10) H
442 156 M 442 166 L S
442 730 M 442 740 L S
480 156 M 480 161 L S
480 735 M 480 740 L S
518 156 M 518 161 L S
518 735 M 518 740 L S
556 156 M 556 161 L S
556 735 M 556 740 L S
594 156 M 594 161 L S
594 735 M 594 740 L S
[2 3] 0 D
632 156 M 632 740 L S
[] 0 D
620 128 M (15) H
632 156 M 632 166 L S
632 730 M 632 740 L S
669 156 M 669 161 L S
669 735 M 669 740 L S
707 156 M 707 161 L S
707 735 M 707 740 L S
745 156 M 745 161 L S
745 735 M 745 740 L S
783 156 M 783 161 L S
783 735 M 783 740 L S
[2 3] 0 D
821 156 M 821 740 L S
[] 0 D
809 128 M (20) H
821 156 M 821 166 L S
821 730 M 821 740 L S
859 156 M 859 161 L S
859 735 M 859 740 L S
896 156 M 896 161 L S
896 735 M 896 740 L S
934 156 M 934 161 L S
934 735 M 934 740 L S
972 156 M 972 161 L S
972 735 M 972 740 L S
102 163 M 107 163 L S
967 163 M 972 163 L S
[2 3] 0 D
102 182 M 972 182 L S
[] 0 D
27 172 M (6000) H
102 182 M 112 182 L S
962 182 M 972 182 L S
102 200 M 107 200 L S
967 200 M 972 200 L S
102 219 M 107 219 L S
967 219 M 972 219 L S
102 237 M 107 237 L S
967 237 M 972 237 L S
[2 3] 0 D
102 255 M 972 255 L S
[] 0 D
27 245 M (8000) H
102 255 M 112 255 L S
962 255 M 972 255 L S
102 274 M 107 274 L S
967 274 M 972 274 L S
102 292 M 107 292 L S
967 292 M 972 292 L S
102 311 M 107 311 L S
967 311 M 972 311 L S
[2 3] 0 D
102 329 M 972 329 L S
[] 0 D
21 319 M (10000) H
102 329 M 112 329 L S
962 329 M 972 329 L S
102 347 M 107 347 L S
967 347 M 972 347 L S
102 366 M 107 366 L S
967 366 M 972 366 L S
102 384 M 107 384 L S
967 384 M 972 384 L S
[2 3] 0 D
102 403 M 972 403 L S
[] 0 D
21 393 M (12000) H
102 403 M 112 403 L S
962 403 M 972 403 L S
102 421 M 107 421 L S
967 421 M 972 421 L S
102 439 M 107 439 L S
967 439 M 972 439 L S
102 458 M 107 458 L S
967 458 M 972 458 L S
[2 3] 0 D
102 476 M 972 476 L S
[] 0 D
21 466 M (14000) H
102 476 M 112 476 L S
962 476 M 972 476 L S
102 495 M 107 495 L S
967 495 M 972 495 L S
102 513 M 107 513 L S
967 513 M 972 513 L S
102 531 M 107 531 L S
967 531 M 972 531 L S
[2 3] 0 D
102 550 M 972 550 L S
[] 0 D
21 540 M (16000) H
102 550 M 112 550 L S
962 550 M 972 550 L S
102 568 M 107 568 L S
967 568 M 972 568 L S
102 587 M 107 587 L S
967 587 M 972 587 L S
102 605 M 107 605 L S
967 605 M 972 605 L S
[2 3] 0 D
102 624 M 972 624 L S
[] 0 D
21 614 M (18000) H
102 624 M 112 624 L S
962 624 M 972 624 L S
102 642 M 107 642 L S
967 642 M 972 642 L S
102 660 M 107 660 L S
967 660 M 972 660 L S
102 679 M 107 679 L S
967 679 M 972 679 L S
[2 3] 0 D
102 697 M 972 697 L S
[] 0 D
21 687 M (20000) H
102 697 M 112 697 L S
962 697 M 972 697 L S
102 716 M 107 716 L S
967 716 M 972 716 L S
102 734 M 107 734 L S
967 734 M 972 734 L S
[] 0 D
102 156 M 972 156 L S
972 156 M 972 740 L S
972 740 M 102 740 L S
102 740 M 102 156 L S
102 156 M 102 157 L S
102 205 M 102 206 L S
102 205 M 102 206 L S
140 205 M 140 206 L S
140 253 M 140 254 L S
140 253 M 140 254 L S
178 253 M 178 254 L S
178 302 M 178 303 L S
178 302 M 178 303 L S
215 302 M 215 303 L S
215 351 M 215 352 L S
215 351 M 215 352 L S
253 351 M 253 352 L S
253 399 M 253 400 L S
253 399 M 253 400 L S
291 399 M 291 400 L S
291 448 M 291 449 L S
291 448 M 291 449 L S
329 448 M 329 449 L S
329 497 M 329 498 L S
329 497 M 329 498 L S
367 497 M 367 498 L S
367 545 M 367 546 L S
367 545 M 367 546 L S
405 545 M 405 546 L S
405 594 M 405 595 L S
405 594 M 405 595 L S
442 594 M 442 595 L S
442 643 M 442 644 L S
442 643 M 442 644 L S
480 643 M 480 644 L S
480 691 M 480 692 L S
480 691 M 480 692 L S
518 691 M 518 692 L S
518 740 M 518 741 L S
518 740 M 518 741 L S
556 740 M 556 741 L S
556 691 M 556 692 L S
556 691 M 556 692 L S
594 691 M 594 692 L S
594 643 M 594 644 L S
594 643 M 594 644 L S
632 643 M 632 644 L S
632 594 M 632 595 L S
632 594 M 632 595 L S
669 594 M 669 595 L S
669 545 M 669 546 L S
669 545 M 669 546 L S
707 545 M 707 546 L S
707 497 M 707 498 L S
707 497 M 707 498 L S
745 497 M 745 498 L S
745 448 M 745 449 L S
745 448 M 745 449 L S
783 448 M 783 449 L S
783 399 M 783 400 L S
783 399 M 783 400 L S
821 399 M 821 400 L S
821 351 M 821 352 L S
821 351 M 821 352 L S
859 351 M 859 352 L S
859 302 M 859 303 L S
859 302 M 859 303 L S
896 302 M 896 303 L S
896 253 M 896 254 L S
896 253 M 896 254 L S
934 253 M 934 254 L S
934 205 M 934 206 L S
934 205 M 934 206 L S
972 205 M 972 206 L S
972 156 M 972 157 L S
972 156 M 972 157 L S
972 156 M 972 157 L S
/Courier-Bold findfont 27 scalefont setfont
101 764 M (Zgoubi|Zpop                                                                     ) H
101 743 M (06-10-2018                                                                      ) H
/Courier-Bold findfont 26 scalefont setfont
160 85 M (* # COORDINATES  - STORAGE FILE, 06-10-2018 09:08:23 *                                                                            ) H
293 755 M (KinEnr  (MeV) vs.  Pass#                                                                                                          ) H
26 42 M (Mi-ma H/V:    1.00       24.0    /  5.299E+03  2.116E+04                                                                          ) H
26 21 M (Part#  1- 10000 (*); Lmnt#     1; pass#       1-     24, [    1];     49 pnts                                                     ) H
102 161 M 107 161 L S
107 161 M 107 156 L S
102 161 M 107 161 L S
107 161 M 107 156 L S
102 161 M 107 161 L S
107 161 M 107 156 L S
102 210 M 107 210 L S
107 210 M 107 200 L S
107 200 M 102 200 L S
102 210 M 107 210 L S
107 210 M 107 200 L S
107 200 M 102 200 L S
135 210 M 145 210 L S
145 210 M 145 200 L S
145 200 M 135 200 L S
135 200 M 135 210 L S
135 258 M 145 258 L S
145 258 M 145 248 L S
145 248 M 135 248 L S
135 248 M 135 258 L S
135 258 M 145 258 L S
145 258 M 145 248 L S
145 248 M 135 248 L S
135 248 M 135 258 L S
173 258 M 183 258 L S
183 258 M 183 248 L S
183 248 M 173 248 L S
173 248 M 173 258 L S
173 307 M 183 307 L S
183 307 M 183 297 L S
183 297 M 173 297 L S
173 297 M 173 307 L S
173 307 M 183 307 L S
183 307 M 183 297 L S
183 297 M 173 297 L S
173 297 M 173 307 L S
210 307 M 220 307 L S
220 307 M 220 297 L S
220 297 M 210 297 L S
210 297 M 210 307 L S
210 356 M 220 356 L S
220 356 M 220 346 L S
220 346 M 210 346 L S
210 346 M 210 356 L S
210 356 M 220 356 L S
220 356 M 220 346 L S
220 346 M 210 346 L S
210 346 M 210 356 L S
248 356 M 258 356 L S
258 356 M 258 346 L S
258 346 M 248 346 L S
248 346 M 248 356 L S
248 404 M 258 404 L S
258 404 M 258 394 L S
258 394 M 248 394 L S
248 394 M 248 404 L S
248 404 M 258 404 L S
258 404 M 258 394 L S
258 394 M 248 394 L S
248 394 M 248 404 L S
286 404 M 296 404 L S
296 404 M 296 394 L S
296 394 M 286 394 L S
286 394 M 286 404 L S
286 453 M 296 453 L S
296 453 M 296 443 L S
296 443 M 286 443 L S
286 443 M 286 453 L S
286 453 M 296 453 L S
296 453 M 296 443 L S
296 443 M 286 443 L S
286 443 M 286 453 L S
324 453 M 334 453 L S
334 453 M 334 443 L S
334 443 M 324 443 L S
324 443 M 324 453 L S
324 502 M 334 502 L S
334 502 M 334 492 L S
334 492 M 324 492 L S
324 492 M 324 502 L S
324 502 M 334 502 L S
334 502 M 334 492 L S
334 492 M 324 492 L S
324 492 M 324 502 L S
362 502 M 372 502 L S
372 502 M 372 492 L S
372 492 M 362 492 L S
362 492 M 362 502 L S
362 550 M 372 550 L S
372 550 M 372 540 L S
372 540 M 362 540 L S
362 540 M 362 550 L S
362 550 M 372 550 L S
372 550 M 372 540 L S
372 540 M 362 540 L S
362 540 M 362 550 L S
400 550 M 410 550 L S
410 550 M 410 540 L S
410 540 M 400 540 L S
400 540 M 400 550 L S
400 599 M 410 599 L S
410 599 M 410 589 L S
410 589 M 400 589 L S
400 589 M 400 599 L S
400 599 M 410 599 L S
410 599 M 410 589 L S
410 589 M 400 589 L S
400 589 M 400 599 L S
437 599 M 447 599 L S
447 599 M 447 589 L S
447 589 M 437 589 L S
437 589 M 437 599 L S
437 648 M 447 648 L S
447 648 M 447 638 L S
447 638 M 437 638 L S
437 638 M 437 648 L S
437 648 M 447 648 L S
447 648 M 447 638 L S
447 638 M 437 638 L S
437 638 M 437 648 L S
475 648 M 485 648 L S
485 648 M 485 638 L S
485 638 M 475 638 L S
475 638 M 475 648 L S
475 696 M 485 696 L S
485 696 M 485 686 L S
485 686 M 475 686 L S
475 686 M 475 696 L S
475 696 M 485 696 L S
485 696 M 485 686 L S
485 686 M 475 686 L S
475 686 M 475 696 L S
513 696 M 523 696 L S
523 696 M 523 686 L S
523 686 M 513 686 L S
513 686 M 513 696 L S
523 740 M 523 735 L S
523 735 M 513 735 L S
513 735 M 513 740 L S
523 740 M 523 735 L S
523 735 M 513 735 L S
513 735 M 513 740 L S
561 740 M 561 735 L S
561 735 M 551 735 L S
551 735 M 551 740 L S
551 696 M 561 696 L S
561 696 M 561 686 L S
561 686 M 551 686 L S
551 686 M 551 696 L S
551 696 M 561 696 L S
561 696 M 561 686 L S
561 686 M 551 686 L S
551 686 M 551 696 L S
589 696 M 599 696 L S
599 696 M 599 686 L S
599 686 M 589 686 L S
589 686 M 589 696 L S
589 648 M 599 648 L S
599 648 M 599 638 L S
599 638 M 589 638 L S
589 638 M 589 648 L S
589 648 M 599 648 L S
599 648 M 599 638 L S
599 638 M 589 638 L S
589 638 M 589 648 L S
627 648 M 637 648 L S
637 648 M 637 638 L S
637 638 M 627 638 L S
627 638 M 627 648 L S
627 599 M 637 599 L S
637 599 M 637 589 L S
637 589 M 627 589 L S
627 589 M 627 599 L S
627 599 M 637 599 L S
637 599 M 637 589 L S
637 589 M 627 589 L S
627 589 M 627 599 L S
664 599 M 674 599 L S
674 599 M 674 589 L S
674 589 M 664 589 L S
664 589 M 664 599 L S
664 550 M 674 550 L S
674 550 M 674 540 L S
674 540 M 664 540 L S
664 540 M 664 550 L S
664 550 M 674 550 L S
674 550 M 674 540 L S
674 540 M 664 540 L S
664 540 M 664 550 L S
702 550 M 712 550 L S
712 550 M 712 540 L S
712 540 M 702 540 L S
702 540 M 702 550 L S
702 502 M 712 502 L S
712 502 M 712 492 L S
712 492 M 702 492 L S
702 492 M 702 502 L S
702 502 M 712 502 L S
712 502 M 712 492 L S
712 492 M 702 492 L S
702 492 M 702 502 L S
740 502 M 750 502 L S
750 502 M 750 492 L S
750 492 M 740 492 L S
740 492 M 740 502 L S
740 453 M 750 453 L S
750 453 M 750 443 L S
750 443 M 740 443 L S
740 443 M 740 453 L S
740 453 M 750 453 L S
750 453 M 750 443 L S
750 443 M 740 443 L S
740 443 M 740 453 L S
778 453 M 788 453 L S
788 453 M 788 443 L S
788 443 M 778 443 L S
778 443 M 778 453 L S
778 404 M 788 404 L S
788 404 M 788 394 L S
788 394 M 778 394 L S
778 394 M 778 404 L S
778 404 M 788 404 L S
788 404 M 788 394 L S
788 394 M 778 394 L S
778 394 M 778 404 L S
816 404 M 826 404 L S
826 404 M 826 394 L S
826 394 M 816 394 L S
816 394 M 816 404 L S
816 356 M 826 356 L S
826 356 M 826 346 L S
826 346 M 816 346 L S
816 346 M 816 356 L S
816 356 M 826 356 L S
826 356 M 826 346 L S
826 346 M 816 346 L S
816 346 M 816 356 L S
854 356 M 864 356 L S
864 356 M 864 346 L S
864 346 M 854 346 L S
854 346 M 854 356 L S
854 307 M 864 307 L S
864 307 M 864 297 L S
864 297 M 854 297 L S
854 297 M 854 307 L S
854 307 M 864 307 L S
864 307 M 864 297 L S
864 297 M 854 297 L S
854 297 M 854 307 L S
891 307 M 901 307 L S
901 307 M 901 297 L S
901 297 M 891 297 L S
891 297 M 891 307 L S
891 258 M 901 258 L S
901 258 M 901 248 L S
901 248 M 891 248 L S
891 248 M 891 258 L S
891 258 M 901 258 L S
901 258 M 901 248 L S
901 248 M 891 248 L S
891 248 M 891 258 L S
929 258 M 939 258 L S
939 258 M 939 248 L S
939 248 M 929 248 L S
929 248 M 929 258 L S
929 210 M 939 210 L S
939 210 M 939 200 L S
939 200 M 929 200 L S
929 200 M 929 210 L S
929 210 M 939 210 L S
939 210 M 939 200 L S
939 200 M 929 200 L S
929 200 M 929 210 L S
967 210 M 972 210 L S
972 200 M 967 200 L S
967 200 M 967 210 L S
967 161 M 972 161 L S
967 156 M 967 161 L S
967 161 M 972 161 L S
967 156 M 967 161 L S
/Courier-Bold findfont 27 scalefont setfont
101 764 M (Zgoubi|Zpop                                                                     ) H
101 743 M (06-10-2018                                                                      ) H
/Courier-Bold findfont 26 scalefont setfont
160 85 M (* # COORDINATES  - STORAGE FILE, 06-10-2018 09:08:23 *                                                                            ) H
293 755 M (KinEnr  (MeV) vs.  Pass#                                                                                                          ) H
26 42 M (Mi-ma H/V:    1.00       24.0    /  5.299E+03  2.116E+04                                                                          ) H
26 21 M (Part#  1- 10000 (*); Lmnt#     1; pass#       1-     24, [    1];     49 pnts                                                     ) H
showpage
