%!PS-Adobe-2.0 EPSF-2.0
%%Title: B.vs.X_FFAG_fromZpop.eps
%%Titre: B.vs.X_FFAG_fromZpop.eps
%%Creator: Fminigraf Library
%%BoundingBox: 20 40 567 457
%%EndComments
/offx 20 def
/offy 40 def
/lx 595 def
/ly 842 def
/maxx 1023 def
/maxy 779 def
/reduc 0.92 def
/coeff lx maxx div reduc mul def
offx offy translate
coeff coeff scale
1 setlinewidth newpath 0 0 moveto
/Courier-Bold findfont 32 scalefont setfont
/M {moveto} def
/L {lineto} def
/S {stroke} def
/H {show} def
/D {setdash} def
0 0 0 setrgbcolor
[] 0 D
[] 0 D
129 156 M 129 161 L S
129 346 M 129 356 L S
129 735 M 129 740 L S
162 156 M 162 161 L S
162 346 M 162 356 L S
162 735 M 162 740 L S
195 156 M 195 161 L S
195 346 M 195 356 L S
195 735 M 195 740 L S
[2 3] 0 D
228 156 M 228 740 L S
[] 0 D
210 128 M (-.5) H
228 156 M 228 166 L S
228 341 M 228 361 L S
228 730 M 228 740 L S
261 156 M 261 161 L S
261 346 M 261 356 L S
261 735 M 261 740 L S
295 156 M 295 161 L S
295 346 M 295 356 L S
295 735 M 295 740 L S
328 156 M 328 161 L S
328 346 M 328 356 L S
328 735 M 328 740 L S
361 156 M 361 161 L S
361 346 M 361 356 L S
361 735 M 361 740 L S
[2 3] 0 D
394 156 M 394 740 L S
[] 0 D
376 128 M (-.4) H
394 156 M 394 166 L S
394 341 M 394 361 L S
394 730 M 394 740 L S
428 156 M 428 161 L S
428 346 M 428 356 L S
428 735 M 428 740 L S
461 156 M 461 161 L S
461 346 M 461 356 L S
461 735 M 461 740 L S
494 156 M 494 161 L S
494 346 M 494 356 L S
494 735 M 494 740 L S
527 156 M 527 161 L S
527 346 M 527 356 L S
527 735 M 527 740 L S
[2 3] 0 D
561 156 M 561 740 L S
[] 0 D
543 128 M (-.3) H
561 156 M 561 166 L S
561 341 M 561 361 L S
561 730 M 561 740 L S
594 156 M 594 161 L S
594 346 M 594 356 L S
594 735 M 594 740 L S
627 156 M 627 161 L S
627 346 M 627 356 L S
627 735 M 627 740 L S
660 156 M 660 161 L S
660 346 M 660 356 L S
660 735 M 660 740 L S
694 156 M 694 161 L S
694 346 M 694 356 L S
694 735 M 694 740 L S
[2 3] 0 D
727 156 M 727 740 L S
[] 0 D
709 128 M (-.2) H
727 156 M 727 166 L S
727 341 M 727 361 L S
727 730 M 727 740 L S
760 156 M 760 161 L S
760 346 M 760 356 L S
760 735 M 760 740 L S
793 156 M 793 161 L S
793 346 M 793 356 L S
793 735 M 793 740 L S
827 156 M 827 161 L S
827 346 M 827 356 L S
827 735 M 827 740 L S
860 156 M 860 161 L S
860 346 M 860 356 L S
860 735 M 860 740 L S
[2 3] 0 D
893 156 M 893 740 L S
[] 0 D
875 128 M (-.1) H
893 156 M 893 166 L S
893 341 M 893 361 L S
893 730 M 893 740 L S
926 156 M 926 161 L S
926 346 M 926 356 L S
926 735 M 926 740 L S
960 156 M 960 161 L S
960 346 M 960 356 L S
960 735 M 960 740 L S
102 156 M 107 156 L S
967 156 M 972 156 L S
102 181 M 107 181 L S
967 181 M 972 181 L S
102 205 M 107 205 L S
967 205 M 972 205 L S
[2 3] 0 D
102 230 M 972 230 L S
[] 0 D
33 220 M (-.5) H
102 230 M 112 230 L S
962 230 M 972 230 L S
102 254 M 107 254 L S
967 254 M 972 254 L S
102 278 M 107 278 L S
967 278 M 972 278 L S
102 303 M 107 303 L S
967 303 M 972 303 L S
102 327 M 107 327 L S
967 327 M 972 327 L S
[2 3] 0 D
102 352 M 972 352 L S
[] 0 D
33 342 M (0.0) H
102 352 M 112 352 L S
962 352 M 972 352 L S
102 376 M 107 376 L S
967 376 M 972 376 L S
102 401 M 107 401 L S
967 401 M 972 401 L S
102 425 M 107 425 L S
967 425 M 972 425 L S
102 449 M 107 449 L S
967 449 M 972 449 L S
[2 3] 0 D
102 474 M 972 474 L S
[] 0 D
33 464 M (0.5) H
102 474 M 112 474 L S
962 474 M 972 474 L S
102 498 M 107 498 L S
967 498 M 972 498 L S
102 523 M 107 523 L S
967 523 M 972 523 L S
102 547 M 107 547 L S
967 547 M 972 547 L S
102 572 M 107 572 L S
967 572 M 972 572 L S
[2 3] 0 D
102 596 M 972 596 L S
[] 0 D
39 586 M (1.) H
102 596 M 112 596 L S
962 596 M 972 596 L S
102 620 M 107 620 L S
967 620 M 972 620 L S
102 645 M 107 645 L S
967 645 M 972 645 L S
102 669 M 107 669 L S
967 669 M 972 669 L S
102 694 M 107 694 L S
967 694 M 972 694 L S
[2 3] 0 D
102 718 M 972 718 L S
[] 0 D
33 708 M (1.5) H
102 718 M 112 718 L S
962 718 M 972 718 L S
[] 0 D
102 156 M 972 156 L S
972 156 M 972 740 L S
972 740 M 102 740 L S
102 740 M 102 156 L S
102 351 M 972 351 L S
102 341 M 102 342 L S
102 341 M 102 342 L S
107 341 M 107 342 L S
111 341 M 111 342 L S
116 341 M 116 342 L S
121 341 M 121 342 L S
125 341 M 125 342 L S
130 340 M 130 341 L S
135 340 M 135 341 L S
139 340 M 139 341 L S
144 340 M 144 341 L S
149 339 M 149 340 L S
153 339 M 153 340 L S
158 338 M 158 339 L S
163 338 M 163 339 L S
167 337 M 167 338 L S
172 337 M 172 338 L S
177 336 M 177 337 L S
181 335 M 181 336 L S
186 334 M 186 335 L S
191 333 M 191 334 L S
195 331 M 195 332 L S
200 330 M 200 331 L S
205 329 M 205 330 L S
209 327 M 209 328 L S
214 325 M 214 326 L S
219 323 M 219 324 L S
223 321 M 223 322 L S
228 319 M 228 320 L S
232 317 M 232 318 L S
237 316 M 237 317 L S
242 314 M 242 315 L S
246 312 M 246 313 L S
251 311 M 251 312 L S
255 309 M 255 310 L S
260 308 M 260 309 L S
265 307 M 265 308 L S
269 307 M 269 308 L S
274 306 M 274 307 L S
278 306 M 278 307 L S
283 306 M 283 307 L S
287 306 M 287 307 L S
292 305 M 292 306 L S
296 305 M 296 306 L S
301 305 M 301 306 L S
305 306 M 305 307 L S
310 306 M 310 307 L S
314 307 M 314 308 L S
319 308 M 319 309 L S
323 310 M 323 311 L S
328 313 M 328 314 L S
332 316 M 332 317 L S
337 320 M 337 321 L S
341 325 M 341 326 L S
345 331 M 345 332 L S
350 339 M 350 340 L S
354 347 M 354 348 L S
358 356 M 358 357 L S
363 366 M 363 367 L S
367 378 M 367 379 L S
371 389 M 371 390 L S
376 401 M 376 402 L S
380 412 M 380 413 L S
384 423 M 384 424 L S
389 433 M 389 434 L S
393 442 M 393 443 L S
398 448 M 398 449 L S
402 454 M 402 455 L S
406 457 M 406 458 L S
411 460 M 411 461 L S
415 461 M 415 462 L S
419 463 M 419 464 L S
424 464 M 424 465 L S
428 465 M 428 466 L S
433 465 M 433 466 L S
437 466 M 437 467 L S
441 467 M 441 468 L S
446 467 M 446 468 L S
450 468 M 450 469 L S
455 468 M 455 469 L S
459 468 M 459 469 L S
464 469 M 464 470 L S
468 469 M 468 470 L S
472 470 M 472 471 L S
477 470 M 477 471 L S
481 470 M 481 471 L S
486 470 M 486 471 L S
490 471 M 490 472 L S
495 471 M 495 472 L S
499 471 M 499 472 L S
504 471 M 504 472 L S
508 471 M 508 472 L S
513 472 M 513 473 L S
517 472 M 517 473 L S
522 472 M 522 473 L S
526 472 M 526 473 L S
531 472 M 531 473 L S
535 472 M 535 473 L S
540 472 M 540 473 L S
544 472 M 544 473 L S
549 472 M 549 473 L S
553 472 M 553 473 L S
558 472 M 558 473 L S
562 472 M 562 473 L S
567 471 M 567 472 L S
571 471 M 571 472 L S
575 471 M 575 472 L S
580 471 M 580 472 L S
584 471 M 584 472 L S
589 470 M 589 471 L S
593 470 M 593 471 L S
598 470 M 598 471 L S
602 469 M 602 470 L S
607 469 M 607 470 L S
611 469 M 611 470 L S
616 468 M 616 469 L S
620 468 M 620 469 L S
624 467 M 624 468 L S
629 467 M 629 468 L S
633 467 M 633 468 L S
638 466 M 638 467 L S
642 465 M 642 466 L S
647 465 M 647 466 L S
651 464 M 651 465 L S
655 463 M 655 464 L S
660 461 M 660 462 L S
664 459 M 664 460 L S
669 457 M 669 458 L S
673 453 M 673 454 L S
677 448 M 677 449 L S
682 441 M 682 442 L S
686 432 M 686 433 L S
690 421 M 690 422 L S
695 411 M 695 412 L S
699 400 M 699 401 L S
703 388 M 703 389 L S
708 377 M 708 378 L S
712 365 M 712 366 L S
716 355 M 716 356 L S
721 346 M 721 347 L S
725 338 M 725 339 L S
729 331 M 729 332 L S
734 325 M 734 326 L S
738 320 M 738 321 L S
743 316 M 743 317 L S
747 313 M 747 314 L S
751 310 M 751 311 L S
756 308 M 756 309 L S
760 306 M 760 307 L S
765 306 M 765 307 L S
769 306 M 769 307 L S
774 305 M 774 306 L S
778 305 M 778 306 L S
783 305 M 783 306 L S
787 306 M 787 307 L S
792 306 M 792 307 L S
796 306 M 796 307 L S
801 306 M 801 307 L S
806 307 M 806 308 L S
810 307 M 810 308 L S
815 308 M 815 309 L S
819 309 M 819 310 L S
824 311 M 824 312 L S
828 312 M 828 313 L S
833 314 M 833 315 L S
838 316 M 838 317 L S
842 318 M 842 319 L S
847 319 M 847 320 L S
852 321 M 852 322 L S
856 323 M 856 324 L S
861 325 M 861 326 L S
865 327 M 865 328 L S
870 329 M 870 330 L S
875 330 M 875 331 L S
879 332 M 879 333 L S
884 333 M 884 334 L S
889 334 M 889 335 L S
893 335 M 893 336 L S
898 336 M 898 337 L S
903 337 M 903 338 L S
907 337 M 907 338 L S
912 338 M 912 339 L S
917 338 M 917 339 L S
921 339 M 921 340 L S
926 339 M 926 340 L S
931 340 M 931 341 L S
935 340 M 935 341 L S
940 340 M 940 341 L S
945 340 M 945 341 L S
949 341 M 949 342 L S
954 341 M 954 342 L S
959 341 M 959 342 L S
963 341 M 963 342 L S
968 341 M 968 342 L S
102 341 M 102 342 L S
102 341 M 102 342 L S
107 341 M 107 342 L S
111 341 M 111 342 L S
116 341 M 116 342 L S
121 341 M 121 342 L S
125 341 M 125 342 L S
130 340 M 130 341 L S
135 340 M 135 341 L S
139 340 M 139 341 L S
144 340 M 144 341 L S
149 339 M 149 340 L S
153 339 M 153 340 L S
158 338 M 158 339 L S
163 338 M 163 339 L S
167 337 M 167 338 L S
172 337 M 172 338 L S
177 336 M 177 337 L S
181 335 M 181 336 L S
186 334 M 186 335 L S
191 333 M 191 334 L S
195 331 M 195 332 L S
200 330 M 200 331 L S
205 329 M 205 330 L S
209 327 M 209 328 L S
214 325 M 214 326 L S
219 323 M 219 324 L S
223 321 M 223 322 L S
228 319 M 228 320 L S
232 317 M 232 318 L S
237 316 M 237 317 L S
242 314 M 242 315 L S
246 312 M 246 313 L S
251 311 M 251 312 L S
255 309 M 255 310 L S
260 308 M 260 309 L S
265 307 M 265 308 L S
269 307 M 269 308 L S
274 306 M 274 307 L S
278 306 M 278 307 L S
283 306 M 283 307 L S
287 306 M 287 307 L S
292 305 M 292 306 L S
296 305 M 296 306 L S
301 305 M 301 306 L S
305 306 M 305 307 L S
310 306 M 310 307 L S
314 307 M 314 308 L S
319 308 M 319 309 L S
323 310 M 323 311 L S
328 313 M 328 314 L S
332 316 M 332 317 L S
337 320 M 337 321 L S
341 325 M 341 326 L S
345 331 M 345 332 L S
350 339 M 350 340 L S
354 347 M 354 348 L S
358 356 M 358 357 L S
363 366 M 363 367 L S
367 378 M 367 379 L S
371 389 M 371 390 L S
376 401 M 376 402 L S
380 412 M 380 413 L S
384 423 M 384 424 L S
389 433 M 389 434 L S
393 442 M 393 443 L S
398 448 M 398 449 L S
402 454 M 402 455 L S
406 457 M 406 458 L S
411 460 M 411 461 L S
415 461 M 415 462 L S
419 463 M 419 464 L S
424 464 M 424 465 L S
428 465 M 428 466 L S
433 465 M 433 466 L S
437 466 M 437 467 L S
441 467 M 441 468 L S
446 467 M 446 468 L S
450 468 M 450 469 L S
455 468 M 455 469 L S
459 468 M 459 469 L S
464 469 M 464 470 L S
468 469 M 468 470 L S
472 470 M 472 471 L S
477 470 M 477 471 L S
481 470 M 481 471 L S
486 470 M 486 471 L S
490 471 M 490 472 L S
495 471 M 495 472 L S
499 471 M 499 472 L S
504 471 M 504 472 L S
508 471 M 508 472 L S
513 472 M 513 473 L S
517 472 M 517 473 L S
522 472 M 522 473 L S
526 472 M 526 473 L S
531 472 M 531 473 L S
535 472 M 535 473 L S
540 472 M 540 473 L S
544 472 M 544 473 L S
549 472 M 549 473 L S
553 472 M 553 473 L S
558 472 M 558 473 L S
562 472 M 562 473 L S
567 471 M 567 472 L S
571 471 M 571 472 L S
575 471 M 575 472 L S
580 471 M 580 472 L S
584 471 M 584 472 L S
589 470 M 589 471 L S
593 470 M 593 471 L S
598 470 M 598 471 L S
602 469 M 602 470 L S
607 469 M 607 470 L S
611 469 M 611 470 L S
616 468 M 616 469 L S
620 468 M 620 469 L S
624 467 M 624 468 L S
629 467 M 629 468 L S
633 467 M 633 468 L S
638 466 M 638 467 L S
642 465 M 642 466 L S
647 465 M 647 466 L S
651 464 M 651 465 L S
655 463 M 655 464 L S
660 461 M 660 462 L S
664 459 M 664 460 L S
669 457 M 669 458 L S
673 453 M 673 454 L S
677 448 M 677 449 L S
682 441 M 682 442 L S
686 432 M 686 433 L S
690 421 M 690 422 L S
695 411 M 695 412 L S
699 400 M 699 401 L S
703 388 M 703 389 L S
708 377 M 708 378 L S
712 365 M 712 366 L S
716 355 M 716 356 L S
721 346 M 721 347 L S
725 338 M 725 339 L S
729 331 M 729 332 L S
734 325 M 734 326 L S
738 320 M 738 321 L S
743 316 M 743 317 L S
747 313 M 747 314 L S
751 310 M 751 311 L S
756 308 M 756 309 L S
760 306 M 760 307 L S
765 306 M 765 307 L S
769 306 M 769 307 L S
774 305 M 774 306 L S
778 305 M 778 306 L S
783 305 M 783 306 L S
787 306 M 787 307 L S
792 306 M 792 307 L S
796 306 M 796 307 L S
801 306 M 801 307 L S
806 307 M 806 308 L S
810 307 M 810 308 L S
815 308 M 815 309 L S
819 309 M 819 310 L S
824 311 M 824 312 L S
828 312 M 828 313 L S
833 314 M 833 315 L S
838 316 M 838 317 L S
842 318 M 842 319 L S
847 319 M 847 320 L S
852 321 M 852 322 L S
856 323 M 856 324 L S
861 325 M 861 326 L S
865 327 M 865 328 L S
870 329 M 870 330 L S
875 330 M 875 331 L S
879 332 M 879 333 L S
884 333 M 884 334 L S
889 334 M 889 335 L S
893 335 M 893 336 L S
898 336 M 898 337 L S
903 337 M 903 338 L S
907 337 M 907 338 L S
912 338 M 912 339 L S
917 338 M 917 339 L S
921 339 M 921 340 L S
926 339 M 926 340 L S
931 340 M 931 341 L S
935 340 M 935 341 L S
940 340 M 940 341 L S
945 340 M 945 341 L S
949 341 M 949 342 L S
954 341 M 954 342 L S
959 341 M 959 342 L S
963 341 M 963 342 L S
968 341 M 968 342 L S
102 341 M 102 342 L S
102 341 M 102 342 L S
106 341 M 106 342 L S
111 341 M 111 342 L S
115 341 M 115 342 L S
120 340 M 120 341 L S
124 340 M 124 341 L S
129 340 M 129 341 L S
133 340 M 133 341 L S
138 339 M 138 340 L S
142 339 M 142 340 L S
147 339 M 147 340 L S
151 338 M 151 339 L S
156 338 M 156 339 L S
160 337 M 160 338 L S
165 337 M 165 338 L S
169 336 M 169 337 L S
174 336 M 174 337 L S
178 335 M 178 336 L S
183 333 M 183 334 L S
187 332 M 187 333 L S
192 330 M 192 331 L S
196 328 M 196 329 L S
201 326 M 201 327 L S
205 324 M 205 325 L S
210 322 M 210 323 L S
214 319 M 214 320 L S
219 316 M 219 317 L S
223 312 M 223 313 L S
228 308 M 228 309 L S
232 305 M 232 306 L S
236 301 M 236 302 L S
241 297 M 241 298 L S
245 295 M 245 296 L S
250 292 M 250 293 L S
254 290 M 254 291 L S
259 288 M 259 289 L S
263 287 M 263 288 L S
267 286 M 267 287 L S
272 286 M 272 287 L S
276 286 M 276 287 L S
281 285 M 281 286 L S
285 285 M 285 286 L S
289 285 M 289 286 L S
294 284 M 294 285 L S
298 284 M 298 285 L S
302 284 M 302 285 L S
307 283 M 307 284 L S
311 283 M 311 284 L S
315 283 M 315 284 L S
320 284 M 320 285 L S
324 286 M 324 287 L S
328 289 M 328 290 L S
332 293 M 332 294 L S
337 297 M 337 298 L S
341 304 M 341 305 L S
345 313 M 345 314 L S
349 323 M 349 324 L S
353 334 M 353 335 L S
358 347 M 358 348 L S
362 361 M 362 362 L S
366 377 M 366 378 L S
370 393 M 370 394 L S
374 410 M 374 411 L S
378 426 M 378 427 L S
383 443 M 383 444 L S
387 460 M 387 461 L S
391 474 M 391 475 L S
395 485 M 395 486 L S
399 492 M 399 493 L S
403 497 M 403 498 L S
408 499 M 408 500 L S
412 500 M 412 501 L S
416 502 M 416 503 L S
420 503 M 420 504 L S
424 504 M 424 505 L S
429 505 M 429 506 L S
433 506 M 433 507 L S
437 506 M 437 507 L S
441 507 M 441 508 L S
446 507 M 446 508 L S
450 508 M 450 509 L S
454 509 M 454 510 L S
458 509 M 458 510 L S
463 510 M 463 511 L S
467 510 M 467 511 L S
471 511 M 471 512 L S
476 511 M 476 512 L S
480 512 M 480 513 L S
484 512 M 484 513 L S
488 512 M 488 513 L S
493 513 M 493 514 L S
497 513 M 497 514 L S
501 513 M 501 514 L S
506 513 M 506 514 L S
510 514 M 510 515 L S
514 514 M 514 515 L S
519 514 M 519 515 L S
523 514 M 523 515 L S
527 514 M 527 515 L S
532 514 M 532 515 L S
536 514 M 536 515 L S
540 514 M 540 515 L S
544 514 M 544 515 L S
549 514 M 549 515 L S
553 514 M 553 515 L S
557 514 M 557 515 L S
562 514 M 562 515 L S
566 514 M 566 515 L S
570 513 M 570 514 L S
575 513 M 575 514 L S
579 513 M 579 514 L S
583 512 M 583 513 L S
588 512 M 588 513 L S
592 512 M 592 513 L S
596 511 M 596 512 L S
600 511 M 600 512 L S
605 511 M 605 512 L S
609 510 M 609 511 L S
613 510 M 613 511 L S
617 509 M 617 510 L S
622 508 M 622 509 L S
626 508 M 626 509 L S
630 507 M 630 508 L S
635 507 M 635 508 L S
639 506 M 639 507 L S
643 505 M 643 506 L S
647 505 M 647 506 L S
651 504 M 651 505 L S
656 503 M 656 504 L S
660 501 M 660 502 L S
664 500 M 664 501 L S
668 498 M 668 499 L S
672 495 M 672 496 L S
677 490 M 677 491 L S
681 481 M 681 482 L S
685 470 M 685 471 L S
689 453 M 689 454 L S
693 436 M 693 437 L S
698 420 M 698 421 L S
702 403 M 702 404 L S
706 387 M 706 388 L S
710 370 M 710 371 L S
714 355 M 714 356 L S
718 342 M 718 343 L S
723 330 M 723 331 L S
727 319 M 727 320 L S
731 309 M 731 310 L S
735 301 M 735 302 L S
739 295 M 739 296 L S
744 291 M 744 292 L S
748 287 M 748 288 L S
752 285 M 752 286 L S
756 283 M 756 284 L S
761 283 M 761 284 L S
765 283 M 765 284 L S
769 284 M 769 285 L S
774 284 M 774 285 L S
778 284 M 778 285 L S
782 285 M 782 286 L S
787 285 M 787 286 L S
791 285 M 791 286 L S
795 285 M 795 286 L S
800 286 M 800 287 L S
804 286 M 804 287 L S
809 287 M 809 288 L S
813 288 M 813 289 L S
817 289 M 817 290 L S
822 291 M 822 292 L S
826 293 M 826 294 L S
831 296 M 831 297 L S
835 299 M 835 300 L S
840 302 M 840 303 L S
844 306 M 844 307 L S
848 310 M 848 311 L S
853 314 M 853 315 L S
857 317 M 857 318 L S
862 320 M 862 321 L S
866 323 M 866 324 L S
871 325 M 871 326 L S
875 327 M 875 328 L S
880 329 M 880 330 L S
884 331 M 884 332 L S
889 332 M 889 333 L S
893 334 M 893 335 L S
898 335 M 898 336 L S
902 336 M 902 337 L S
907 337 M 907 338 L S
911 337 M 911 338 L S
916 337 M 916 338 L S
920 338 M 920 339 L S
925 338 M 925 339 L S
929 339 M 929 340 L S
934 339 M 934 340 L S
938 340 M 938 341 L S
943 340 M 943 341 L S
947 340 M 947 341 L S
952 340 M 952 341 L S
956 341 M 956 342 L S
961 341 M 961 342 L S
965 341 M 965 342 L S
970 341 M 970 342 L S
102 341 M 102 342 L S
102 341 M 102 342 L S
106 341 M 106 342 L S
111 341 M 111 342 L S
115 341 M 115 342 L S
119 341 M 119 342 L S
124 340 M 124 341 L S
128 340 M 128 341 L S
133 340 M 133 341 L S
137 340 M 137 341 L S
141 339 M 141 340 L S
146 339 M 146 340 L S
150 338 M 150 339 L S
154 338 M 154 339 L S
159 337 M 159 338 L S
163 337 M 163 338 L S
168 337 M 168 338 L S
172 336 M 172 337 L S
176 335 M 176 336 L S
181 334 M 181 335 L S
185 333 M 185 334 L S
189 331 M 189 332 L S
194 329 M 194 330 L S
198 326 M 198 327 L S
202 324 M 202 325 L S
207 321 M 207 322 L S
211 318 M 211 319 L S
215 314 M 215 315 L S
220 310 M 220 311 L S
224 305 M 224 306 L S
228 298 M 228 299 L S
233 291 M 233 292 L S
237 285 M 237 286 L S
241 280 M 241 281 L S
246 276 M 246 277 L S
250 272 M 250 273 L S
254 270 M 254 271 L S
259 268 M 259 269 L S
263 266 M 263 267 L S
267 266 M 267 267 L S
271 266 M 271 267 L S
276 265 M 276 266 L S
280 265 M 280 266 L S
284 265 M 284 266 L S
288 264 M 288 265 L S
293 264 M 293 265 L S
297 263 M 297 264 L S
301 263 M 301 264 L S
305 263 M 305 264 L S
309 261 M 309 262 L S
314 260 M 314 261 L S
318 260 M 318 261 L S
322 261 M 322 262 L S
326 264 M 326 265 L S
330 267 M 330 268 L S
334 271 M 334 272 L S
338 277 M 338 278 L S
343 288 M 343 289 L S
347 301 M 347 302 L S
351 315 M 351 316 L S
355 330 M 355 331 L S
359 346 M 359 347 L S
363 363 M 363 364 L S
367 382 M 367 383 L S
371 403 M 371 404 L S
375 423 M 375 424 L S
379 445 M 379 446 L S
383 468 M 383 469 L S
387 492 M 387 493 L S
391 512 M 391 513 L S
395 524 M 395 525 L S
399 532 M 399 533 L S
403 536 M 403 537 L S
407 537 M 407 538 L S
411 538 M 411 539 L S
416 540 M 416 541 L S
420 541 M 420 542 L S
424 542 M 424 543 L S
428 543 M 428 544 L S
432 544 M 432 545 L S
436 545 M 436 546 L S
440 545 M 440 546 L S
444 546 M 444 547 L S
448 547 M 448 548 L S
453 548 M 453 549 L S
457 548 M 457 549 L S
461 549 M 461 550 L S
465 550 M 465 551 L S
469 550 M 469 551 L S
473 551 M 473 552 L S
478 551 M 478 552 L S
482 552 M 482 553 L S
486 552 M 486 553 L S
490 553 M 490 554 L S
494 553 M 494 554 L S
498 553 M 498 554 L S
503 554 M 503 555 L S
507 554 M 507 555 L S
511 554 M 511 555 L S
515 554 M 515 555 L S
519 555 M 519 556 L S
523 555 M 523 556 L S
528 555 M 528 556 L S
532 555 M 532 556 L S
536 555 M 536 556 L S
540 555 M 540 556 L S
544 555 M 544 556 L S
549 555 M 549 556 L S
553 555 M 553 556 L S
557 555 M 557 556 L S
561 554 M 561 555 L S
565 554 M 565 555 L S
570 554 M 570 555 L S
574 554 M 574 555 L S
578 553 M 578 554 L S
582 553 M 582 554 L S
586 552 M 586 553 L S
590 552 M 590 553 L S
595 552 M 595 553 L S
599 551 M 599 552 L S
603 551 M 603 552 L S
607 550 M 607 551 L S
611 549 M 611 550 L S
615 549 M 615 550 L S
620 548 M 620 549 L S
624 547 M 624 548 L S
628 547 M 628 548 L S
632 546 M 632 547 L S
636 545 M 636 546 L S
640 544 M 640 545 L S
644 543 M 644 544 L S
648 542 M 648 543 L S
652 542 M 652 543 L S
657 540 M 657 541 L S
661 539 M 661 540 L S
665 538 M 665 539 L S
669 536 M 669 537 L S
673 535 M 673 536 L S
677 529 M 677 530 L S
681 519 M 681 520 L S
685 505 M 685 506 L S
689 481 M 689 482 L S
693 457 M 693 458 L S
697 435 M 697 436 L S
701 413 M 701 414 L S
705 393 M 705 394 L S
709 373 M 709 374 L S
713 355 M 713 356 L S
717 339 M 717 340 L S
721 323 M 721 324 L S
726 308 M 726 309 L S
730 295 M 730 296 L S
734 282 M 734 283 L S
738 274 M 738 275 L S
742 269 M 742 270 L S
746 265 M 746 266 L S
750 262 M 750 263 L S
754 261 M 754 262 L S
758 260 M 758 261 L S
763 260 M 763 261 L S
767 262 M 767 263 L S
771 263 M 771 264 L S
775 263 M 775 264 L S
779 263 M 779 264 L S
784 264 M 784 265 L S
788 264 M 788 265 L S
792 265 M 792 266 L S
796 265 M 796 266 L S
801 266 M 801 267 L S
805 265 M 805 266 L S
809 266 M 809 267 L S
813 267 M 813 268 L S
818 268 M 818 269 L S
822 271 M 822 272 L S
826 274 M 826 275 L S
831 278 M 831 279 L S
835 282 M 835 283 L S
839 288 M 839 289 L S
844 295 M 844 296 L S
848 301 M 848 302 L S
852 307 M 852 308 L S
857 312 M 857 313 L S
861 316 M 861 317 L S
865 319 M 865 320 L S
870 322 M 870 323 L S
874 325 M 874 326 L S
878 328 M 878 329 L S
883 330 M 883 331 L S
887 332 M 887 333 L S
891 333 M 891 334 L S
896 335 M 896 336 L S
900 336 M 900 337 L S
904 336 M 904 337 L S
909 337 M 909 338 L S
913 337 M 913 338 L S
918 338 M 918 339 L S
922 338 M 922 339 L S
926 339 M 926 340 L S
931 339 M 931 340 L S
935 339 M 935 340 L S
939 340 M 939 341 L S
944 340 M 944 341 L S
948 340 M 948 341 L S
953 340 M 953 341 L S
957 341 M 957 342 L S
961 341 M 961 342 L S
966 341 M 966 342 L S
970 341 M 970 342 L S
102 341 M 102 342 L S
102 341 M 102 342 L S
106 341 M 106 342 L S
111 341 M 111 342 L S
115 341 M 115 342 L S
119 341 M 119 342 L S
123 341 M 123 342 L S
128 340 M 128 341 L S
132 340 M 132 341 L S
136 340 M 136 341 L S
140 340 M 140 341 L S
145 339 M 145 340 L S
149 339 M 149 340 L S
153 338 M 153 339 L S
157 338 M 157 339 L S
162 337 M 162 338 L S
166 337 M 166 338 L S
170 337 M 170 338 L S
175 336 M 175 337 L S
179 335 M 179 336 L S
183 334 M 183 335 L S
187 332 M 187 333 L S
192 330 M 192 331 L S
196 327 M 196 328 L S
200 325 M 200 326 L S
204 322 M 204 323 L S
209 318 M 209 319 L S
213 314 M 213 315 L S
217 310 M 217 311 L S
221 304 M 221 305 L S
226 297 M 226 298 L S
230 287 M 230 288 L S
234 277 M 234 278 L S
238 267 M 238 268 L S
242 260 M 242 261 L S
247 255 M 247 256 L S
251 251 M 251 252 L S
255 248 M 255 249 L S
259 246 M 259 247 L S
263 245 M 263 246 L S
268 245 M 268 246 L S
272 245 M 272 246 L S
276 245 M 276 246 L S
280 244 M 280 245 L S
284 244 M 284 245 L S
288 243 M 288 244 L S
293 243 M 293 244 L S
297 242 M 297 243 L S
301 242 M 301 243 L S
305 242 M 305 243 L S
309 240 M 309 241 L S
313 238 M 313 239 L S
317 237 M 317 238 L S
321 238 M 321 239 L S
325 240 M 325 241 L S
329 243 M 329 244 L S
333 247 M 333 248 L S
337 252 M 337 253 L S
341 264 M 341 265 L S
345 282 M 345 283 L S
349 300 M 349 301 L S
353 318 M 353 319 L S
357 336 M 357 337 L S
361 355 M 361 356 L S
365 374 M 365 375 L S
369 395 M 369 396 L S
373 419 M 373 420 L S
377 445 M 377 446 L S
381 473 M 381 474 L S
385 505 M 385 506 L S
389 537 M 389 538 L S
393 554 M 393 555 L S
397 566 M 397 567 L S
401 572 M 401 573 L S
405 573 M 405 574 L S
409 574 M 409 575 L S
413 576 M 413 577 L S
417 577 M 417 578 L S
421 578 M 421 579 L S
425 579 M 425 580 L S
429 580 M 429 581 L S
433 581 M 433 582 L S
437 582 M 437 583 L S
441 583 M 441 584 L S
445 584 M 445 585 L S
449 585 M 449 586 L S
453 586 M 453 587 L S
457 587 M 457 588 L S
461 588 M 461 589 L S
465 588 M 465 589 L S
469 589 M 469 590 L S
473 590 M 473 591 L S
477 590 M 477 591 L S
481 591 M 481 592 L S
485 591 M 485 592 L S
489 592 M 489 593 L S
493 592 M 493 593 L S
498 593 M 498 594 L S
502 593 M 502 594 L S
506 594 M 506 595 L S
510 594 M 510 595 L S
514 594 M 514 595 L S
518 594 M 518 595 L S
522 595 M 522 596 L S
526 595 M 526 596 L S
530 595 M 530 596 L S
534 595 M 534 596 L S
538 595 M 538 596 L S
543 595 M 543 596 L S
547 595 M 547 596 L S
551 595 M 551 596 L S
555 594 M 555 595 L S
559 594 M 559 595 L S
563 594 M 563 595 L S
567 594 M 567 595 L S
571 593 M 571 594 L S
575 593 M 575 594 L S
579 593 M 579 594 L S
583 592 M 583 593 L S
587 592 M 587 593 L S
592 591 M 592 592 L S
596 591 M 596 592 L S
600 590 M 600 591 L S
604 589 M 604 590 L S
608 589 M 608 590 L S
612 588 M 612 589 L S
616 587 M 616 588 L S
620 586 M 620 587 L S
624 586 M 624 587 L S
628 585 M 628 586 L S
632 584 M 632 585 L S
636 583 M 636 584 L S
640 582 M 640 583 L S
644 581 M 644 582 L S
648 580 M 648 581 L S
652 579 M 652 580 L S
656 578 M 656 579 L S
660 576 M 660 577 L S
664 575 M 664 576 L S
668 573 M 668 574 L S
672 573 M 672 574 L S
676 569 M 676 570 L S
680 559 M 680 560 L S
684 545 M 684 546 L S
688 517 M 688 518 L S
692 485 M 692 486 L S
696 455 M 696 456 L S
700 428 M 700 429 L S
704 404 M 704 405 L S
708 381 M 708 382 L S
712 361 M 712 362 L S
716 343 M 716 344 L S
720 325 M 720 326 L S
723 306 M 723 307 L S
727 288 M 727 289 L S
731 271 M 731 272 L S
735 255 M 735 256 L S
739 249 M 739 250 L S
743 244 M 743 245 L S
748 241 M 748 242 L S
752 239 M 752 240 L S
756 238 M 756 239 L S
760 238 M 760 239 L S
764 239 M 764 240 L S
768 241 M 768 242 L S
772 242 M 772 243 L S
776 242 M 776 243 L S
780 242 M 780 243 L S
784 243 M 784 244 L S
788 243 M 788 244 L S
793 244 M 793 245 L S
797 245 M 797 246 L S
801 246 M 801 247 L S
805 245 M 805 246 L S
809 245 M 809 246 L S
813 246 M 813 247 L S
818 247 M 818 248 L S
822 250 M 822 251 L S
826 254 M 826 255 L S
830 258 M 830 259 L S
835 264 M 835 265 L S
839 273 M 839 274 L S
843 283 M 843 284 L S
847 293 M 847 294 L S
851 302 M 851 303 L S
856 309 M 856 310 L S
860 313 M 860 314 L S
864 317 M 864 318 L S
868 320 M 868 321 L S
873 323 M 873 324 L S
877 326 M 877 327 L S
881 329 M 881 330 L S
885 331 M 885 332 L S
890 333 M 890 334 L S
894 334 M 894 335 L S
898 336 M 898 337 L S
902 337 M 902 338 L S
907 337 M 907 338 L S
911 337 M 911 338 L S
915 337 M 915 338 L S
919 338 M 919 339 L S
924 338 M 924 339 L S
928 339 M 928 340 L S
932 339 M 932 340 L S
937 340 M 937 341 L S
941 340 M 941 341 L S
945 340 M 945 341 L S
949 341 M 949 342 L S
954 341 M 954 342 L S
958 341 M 958 342 L S
962 341 M 962 342 L S
966 341 M 966 342 L S
971 341 M 971 342 L S
102 341 M 102 342 L S
102 341 M 102 342 L S
106 341 M 106 342 L S
110 341 M 110 342 L S
115 341 M 115 342 L S
119 341 M 119 342 L S
123 341 M 123 342 L S
127 341 M 127 342 L S
131 340 M 131 341 L S
136 340 M 136 341 L S
140 340 M 140 341 L S
144 339 M 144 340 L S
148 339 M 148 340 L S
152 338 M 152 339 L S
156 338 M 156 339 L S
161 337 M 161 338 L S
165 338 M 165 339 L S
169 337 M 169 338 L S
173 337 M 173 338 L S
177 336 M 177 337 L S
182 335 M 182 336 L S
186 333 M 186 334 L S
190 331 M 190 332 L S
194 329 M 194 330 L S
198 326 M 198 327 L S
202 323 M 202 324 L S
207 319 M 207 320 L S
211 315 M 211 316 L S
215 311 M 215 312 L S
219 306 M 219 307 L S
223 298 M 223 299 L S
227 287 M 227 288 L S
231 273 M 231 274 L S
236 260 M 236 261 L S
240 247 M 240 248 L S
244 240 M 244 241 L S
248 234 M 248 235 L S
252 230 M 252 231 L S
256 227 M 256 228 L S
260 225 M 260 226 L S
265 224 M 265 225 L S
269 224 M 269 225 L S
273 226 M 273 227 L S
277 225 M 277 226 L S
281 224 M 281 225 L S
285 223 M 285 224 L S
289 223 M 289 224 L S
293 222 M 293 223 L S
297 222 M 297 223 L S
301 222 M 301 223 L S
305 221 M 305 222 L S
309 219 M 309 220 L S
313 217 M 313 218 L S
317 216 M 317 217 L S
321 216 M 321 217 L S
325 218 M 325 219 L S
329 221 M 329 222 L S
333 225 M 333 226 L S
337 230 M 337 231 L S
341 242 M 341 243 L S
345 266 M 345 267 L S
349 288 M 349 289 L S
353 310 M 353 311 L S
357 330 M 357 331 L S
361 350 M 361 351 L S
364 369 M 364 370 L S
368 390 M 368 391 L S
372 416 M 372 417 L S
376 445 M 376 446 L S
380 478 M 380 479 L S
384 516 M 384 517 L S
388 557 M 388 558 L S
391 584 M 391 585 L S
395 598 M 395 599 L S
399 606 M 399 607 L S
403 608 M 403 609 L S
407 608 M 407 609 L S
411 610 M 411 611 L S
415 612 M 415 613 L S
419 614 M 419 615 L S
423 615 M 423 616 L S
427 616 M 427 617 L S
431 617 M 431 618 L S
434 618 M 434 619 L S
438 620 M 438 621 L S
442 621 M 442 622 L S
446 622 M 446 623 L S
450 623 M 450 624 L S
454 624 M 454 625 L S
458 625 M 458 626 L S
462 625 M 462 626 L S
466 626 M 466 627 L S
470 627 M 470 628 L S
474 628 M 474 629 L S
478 628 M 478 629 L S
482 629 M 482 630 L S
486 630 M 486 631 L S
490 630 M 490 631 L S
494 631 M 494 632 L S
498 631 M 498 632 L S
502 632 M 502 633 L S
506 632 M 506 633 L S
510 632 M 510 633 L S
514 633 M 514 634 L S
518 633 M 518 634 L S
522 633 M 522 634 L S
526 633 M 526 634 L S
530 633 M 530 634 L S
534 634 M 534 635 L S
538 634 M 538 635 L S
542 634 M 542 635 L S
546 633 M 546 634 L S
550 633 M 550 634 L S
554 633 M 554 634 L S
558 633 M 558 634 L S
562 633 M 562 634 L S
566 632 M 566 633 L S
570 632 M 570 633 L S
574 632 M 574 633 L S
578 631 M 578 632 L S
582 631 M 582 632 L S
586 630 M 586 631 L S
590 629 M 590 630 L S
594 629 M 594 630 L S
598 628 M 598 629 L S
602 627 M 602 628 L S
606 627 M 606 628 L S
610 626 M 610 627 L S
614 625 M 614 626 L S
618 624 M 618 625 L S
622 623 M 622 624 L S
626 622 M 626 623 L S
630 621 M 630 622 L S
634 620 M 634 621 L S
638 619 M 638 620 L S
642 618 M 642 619 L S
646 617 M 646 618 L S
650 615 M 650 616 L S
654 614 M 654 615 L S
658 613 M 658 614 L S
662 611 M 662 612 L S
666 609 M 666 610 L S
669 608 M 669 609 L S
673 608 M 673 609 L S
677 603 M 677 604 L S
681 591 M 681 592 L S
685 574 M 685 575 L S
689 534 M 689 535 L S
693 494 M 693 495 L S
697 459 M 697 460 L S
700 428 M 700 429 L S
704 401 M 704 402 L S
708 378 M 708 379 L S
712 358 M 712 359 L S
716 339 M 716 340 L S
720 319 M 720 320 L S
724 298 M 724 299 L S
728 276 M 728 277 L S
732 253 M 732 254 L S
735 233 M 735 234 L S
739 227 M 739 228 L S
743 222 M 743 223 L S
747 219 M 747 220 L S
751 217 M 751 218 L S
755 216 M 755 217 L S
759 216 M 759 217 L S
763 218 M 763 219 L S
767 220 M 767 221 L S
771 221 M 771 222 L S
775 222 M 775 223 L S
779 222 M 779 223 L S
783 222 M 783 223 L S
787 223 M 787 224 L S
792 224 M 792 225 L S
796 224 M 796 225 L S
800 226 M 800 227 L S
804 225 M 804 226 L S
808 224 M 808 225 L S
812 224 M 812 225 L S
816 226 M 816 227 L S
820 229 M 820 230 L S
824 232 M 824 233 L S
829 237 M 829 238 L S
833 243 M 833 244 L S
837 253 M 837 254 L S
841 267 M 841 268 L S
845 281 M 845 282 L S
849 294 M 849 295 L S
853 303 M 853 304 L S
858 310 M 858 311 L S
862 314 M 862 315 L S
866 318 M 866 319 L S
870 321 M 870 322 L S
874 324 M 874 325 L S
878 327 M 878 328 L S
883 330 M 883 331 L S
887 332 M 887 333 L S
891 334 M 891 335 L S
895 335 M 895 336 L S
899 336 M 899 337 L S
903 337 M 903 338 L S
908 337 M 908 338 L S
912 337 M 912 338 L S
916 338 M 916 339 L S
920 338 M 920 339 L S
924 339 M 924 340 L S
929 339 M 929 340 L S
933 340 M 933 341 L S
937 340 M 937 341 L S
941 340 M 941 341 L S
945 341 M 945 342 L S
949 341 M 949 342 L S
954 341 M 954 342 L S
958 341 M 958 342 L S
962 341 M 962 342 L S
966 341 M 966 342 L S
970 341 M 970 342 L S
102 342 M 102 343 L S
102 342 M 102 343 L S
106 342 M 106 343 L S
110 342 M 110 343 L S
114 342 M 114 343 L S
118 341 M 118 342 L S
123 341 M 123 342 L S
127 341 M 127 342 L S
131 341 M 131 342 L S
135 340 M 135 341 L S
139 340 M 139 341 L S
143 340 M 143 341 L S
147 339 M 147 340 L S
151 339 M 151 340 L S
156 338 M 156 339 L S
160 337 M 160 338 L S
164 338 M 164 339 L S
168 338 M 168 339 L S
172 337 M 172 338 L S
176 337 M 176 338 L S
180 335 M 180 336 L S
184 334 M 184 335 L S
188 332 M 188 333 L S
193 330 M 193 331 L S
197 327 M 197 328 L S
201 324 M 201 325 L S
205 321 M 205 322 L S
209 317 M 209 318 L S
213 313 M 213 314 L S
217 308 M 217 309 L S
221 301 M 221 302 L S
225 290 M 225 291 L S
229 275 M 229 276 L S
233 257 M 233 258 L S
238 238 M 238 239 L S
242 225 M 242 226 L S
246 219 M 246 220 L S
250 213 M 250 214 L S
254 209 M 254 210 L S
258 206 M 258 207 L S
262 205 M 262 206 L S
266 205 M 266 206 L S
270 206 M 270 207 L S
274 207 M 274 208 L S
278 206 M 278 207 L S
282 204 M 282 205 L S
286 204 M 286 205 L S
290 203 M 290 204 L S
294 202 M 294 203 L S
298 202 M 298 203 L S
302 202 M 302 203 L S
306 202 M 306 203 L S
310 199 M 310 200 L S
314 197 M 314 198 L S
318 196 M 318 197 L S
322 196 M 322 197 L S
326 198 M 326 199 L S
330 200 M 330 201 L S
333 204 M 333 205 L S
337 209 M 337 210 L S
341 225 M 341 226 L S
345 255 M 345 256 L S
349 282 M 349 283 L S
353 306 M 353 307 L S
357 329 M 357 330 L S
360 349 M 360 350 L S
364 367 M 364 368 L S
368 388 M 368 389 L S
372 414 M 372 415 L S
376 446 M 376 447 L S
379 484 M 379 485 L S
383 528 M 383 529 L S
387 578 M 387 579 L S
391 614 M 391 615 L S
395 630 M 395 631 L S
399 639 M 399 640 L S
402 642 M 402 643 L S
406 642 M 406 643 L S
410 644 M 410 645 L S
414 646 M 414 647 L S
418 648 M 418 649 L S
422 649 M 422 650 L S
425 651 M 425 652 L S
429 652 M 429 653 L S
433 653 M 433 654 L S
437 655 M 437 656 L S
441 656 M 441 657 L S
445 657 M 445 658 L S
449 658 M 449 659 L S
453 659 M 453 660 L S
457 660 M 457 661 L S
460 661 M 460 662 L S
464 662 M 464 663 L S
468 663 M 468 664 L S
472 664 M 472 665 L S
476 665 M 476 666 L S
480 666 M 480 667 L S
484 667 M 484 668 L S
488 667 M 488 668 L S
492 668 M 492 669 L S
496 668 M 496 669 L S
500 669 M 500 670 L S
504 669 M 504 670 L S
508 670 M 508 671 L S
512 670 M 512 671 L S
515 670 M 515 671 L S
519 671 M 519 672 L S
523 671 M 523 672 L S
527 671 M 527 672 L S
531 671 M 531 672 L S
535 671 M 535 672 L S
539 671 M 539 672 L S
543 671 M 543 672 L S
547 671 M 547 672 L S
551 671 M 551 672 L S
555 671 M 555 672 L S
559 670 M 559 671 L S
563 670 M 563 671 L S
567 670 M 567 671 L S
571 669 M 571 670 L S
575 669 M 575 670 L S
579 668 M 579 669 L S
583 668 M 583 669 L S
587 667 M 587 668 L S
590 666 M 590 667 L S
594 666 M 594 667 L S
598 665 M 598 666 L S
602 664 M 602 665 L S
606 663 M 606 664 L S
610 662 M 610 663 L S
614 661 M 614 662 L S
618 660 M 618 661 L S
622 659 M 622 660 L S
626 658 M 626 659 L S
630 657 M 630 658 L S
634 656 M 634 657 L S
637 655 M 637 656 L S
641 653 M 641 654 L S
645 652 M 645 653 L S
649 651 M 649 652 L S
653 649 M 653 650 L S
657 648 M 657 649 L S
661 646 M 661 647 L S
664 644 M 664 645 L S
668 642 M 668 643 L S
672 642 M 672 643 L S
676 639 M 676 640 L S
680 629 M 680 630 L S
684 613 M 684 614 L S
687 576 M 687 577 L S
691 527 M 691 528 L S
695 483 M 695 484 L S
699 445 M 699 446 L S
703 413 M 703 414 L S
706 387 M 706 388 L S
710 367 M 710 368 L S
714 348 M 714 349 L S
718 328 M 718 329 L S
722 305 M 722 306 L S
726 281 M 726 282 L S
729 254 M 729 255 L S
733 224 M 733 225 L S
737 209 M 737 210 L S
741 204 M 741 205 L S
745 200 M 745 201 L S
749 198 M 749 199 L S
753 196 M 753 197 L S
757 196 M 757 197 L S
761 197 M 761 198 L S
764 199 M 764 200 L S
768 202 M 768 203 L S
772 202 M 772 203 L S
776 202 M 776 203 L S
780 202 M 780 203 L S
784 203 M 784 204 L S
788 204 M 788 205 L S
792 204 M 792 205 L S
796 206 M 796 207 L S
800 207 M 800 208 L S
804 206 M 804 207 L S
808 205 M 808 206 L S
812 205 M 812 206 L S
817 206 M 817 207 L S
821 209 M 821 210 L S
825 213 M 825 214 L S
829 219 M 829 220 L S
833 225 M 833 226 L S
837 239 M 837 240 L S
841 258 M 841 259 L S
845 276 M 845 277 L S
849 291 M 849 292 L S
853 301 M 853 302 L S
857 309 M 857 310 L S
861 313 M 861 314 L S
865 317 M 865 318 L S
870 321 M 870 322 L S
874 324 M 874 325 L S
878 327 M 878 328 L S
882 330 M 882 331 L S
886 332 M 886 333 L S
890 334 M 890 335 L S
894 336 M 894 337 L S
898 337 M 898 338 L S
902 337 M 902 338 L S
907 338 M 907 339 L S
911 338 M 911 339 L S
915 337 M 915 338 L S
919 338 M 919 339 L S
923 339 M 923 340 L S
927 339 M 927 340 L S
931 340 M 931 341 L S
935 340 M 935 341 L S
939 341 M 939 342 L S
944 341 M 944 342 L S
948 341 M 948 342 L S
952 341 M 952 342 L S
956 341 M 956 342 L S
960 342 M 960 343 L S
964 342 M 964 343 L S
968 342 M 968 343 L S
102 342 M 102 343 L S
102 342 M 102 343 L S
106 342 M 106 343 L S
110 342 M 110 343 L S
114 342 M 114 343 L S
118 342 M 118 343 L S
122 342 M 122 343 L S
126 341 M 126 342 L S
130 341 M 130 342 L S
134 341 M 134 342 L S
139 340 M 139 341 L S
143 340 M 143 341 L S
147 340 M 147 341 L S
151 339 M 151 340 L S
155 338 M 155 339 L S
159 338 M 159 339 L S
163 338 M 163 339 L S
167 338 M 167 339 L S
171 338 M 171 339 L S
175 337 M 175 338 L S
179 336 M 179 337 L S
183 335 M 183 336 L S
187 333 M 187 334 L S
191 331 M 191 332 L S
195 328 M 195 329 L S
199 326 M 199 327 L S
203 322 M 203 323 L S
207 319 M 207 320 L S
211 314 M 211 315 L S
216 310 M 216 311 L S
220 304 M 220 305 L S
224 294 M 224 295 L S
228 280 M 228 281 L S
232 259 M 232 260 L S
236 236 M 236 237 L S
240 214 M 240 215 L S
244 204 M 244 205 L S
248 198 M 248 199 L S
252 193 M 252 194 L S
256 189 M 256 190 L S
260 187 M 260 188 L S
264 186 M 264 187 L S
268 187 M 268 188 L S
272 188 M 272 189 L S
276 188 M 276 189 L S
280 187 M 280 188 L S
284 186 M 284 187 L S
288 185 M 288 186 L S
291 184 M 291 185 L S
295 184 M 295 185 L S
299 184 M 299 185 L S
303 184 M 303 185 L S
307 183 M 307 184 L S
311 180 M 311 181 L S
315 178 M 315 179 L S
319 177 M 319 178 L S
323 177 M 323 178 L S
327 179 M 327 180 L S
330 182 M 330 183 L S
334 185 M 334 186 L S
338 191 M 338 192 L S
342 216 M 342 217 L S
346 249 M 346 250 L S
349 280 M 349 281 L S
353 307 M 353 308 L S
357 331 M 357 332 L S
361 351 M 361 352 L S
365 368 M 365 369 L S
368 388 M 368 389 L S
372 415 M 372 416 L S
376 450 M 376 451 L S
380 493 M 380 494 L S
383 544 M 383 545 L S
387 603 M 387 604 L S
391 644 M 391 645 L S
395 661 M 395 662 L S
398 671 M 398 672 L S
402 674 M 402 675 L S
406 674 M 406 675 L S
410 677 M 410 678 L S
413 679 M 413 680 L S
417 681 M 417 682 L S
421 683 M 421 684 L S
425 684 M 425 685 L S
429 686 M 429 687 L S
432 688 M 432 689 L S
436 689 M 436 690 L S
440 690 M 440 691 L S
444 692 M 444 693 L S
448 693 M 448 694 L S
452 694 M 452 695 L S
456 696 M 456 697 L S
459 697 M 459 698 L S
463 698 M 463 699 L S
467 699 M 467 700 L S
471 700 M 471 701 L S
475 701 M 475 702 L S
479 702 M 479 703 L S
483 703 M 483 704 L S
486 703 M 486 704 L S
490 704 M 490 705 L S
494 705 M 494 706 L S
498 705 M 498 706 L S
502 706 M 502 707 L S
506 706 M 506 707 L S
510 707 M 510 708 L S
514 707 M 514 708 L S
518 707 M 518 708 L S
521 708 M 521 709 L S
525 708 M 525 709 L S
529 708 M 529 709 L S
533 708 M 533 709 L S
537 708 M 537 709 L S
541 708 M 541 709 L S
545 708 M 545 709 L S
549 708 M 549 709 L S
553 708 M 553 709 L S
556 707 M 556 708 L S
560 707 M 560 708 L S
564 707 M 564 708 L S
568 706 M 568 707 L S
572 706 M 572 707 L S
576 705 M 576 706 L S
580 705 M 580 706 L S
584 704 M 584 705 L S
588 703 M 588 704 L S
591 703 M 591 704 L S
595 702 M 595 703 L S
599 701 M 599 702 L S
603 700 M 603 701 L S
607 699 M 607 700 L S
611 698 M 611 699 L S
615 697 M 615 698 L S
619 696 M 619 697 L S
622 695 M 622 696 L S
626 693 M 626 694 L S
630 692 M 630 693 L S
634 691 M 634 692 L S
638 689 M 638 690 L S
642 688 M 642 689 L S
645 686 M 645 687 L S
649 684 M 649 685 L S
653 683 M 653 684 L S
657 681 M 657 682 L S
661 679 M 661 680 L S
664 677 M 664 678 L S
668 674 M 668 675 L S
672 674 M 672 675 L S
676 671 M 676 672 L S
679 662 M 679 663 L S
683 646 M 683 647 L S
687 607 M 687 608 L S
691 548 M 691 549 L S
694 496 M 694 497 L S
698 453 M 698 454 L S
702 418 M 702 419 L S
706 390 M 706 391 L S
709 369 M 709 370 L S
713 352 M 713 353 L S
717 332 M 717 333 L S
721 309 M 721 310 L S
725 282 M 725 283 L S
728 252 M 728 253 L S
732 218 M 732 219 L S
736 192 M 736 193 L S
740 186 M 740 187 L S
744 182 M 744 183 L S
747 179 M 747 180 L S
751 177 M 751 178 L S
755 177 M 755 178 L S
759 178 M 759 179 L S
763 180 M 763 181 L S
767 182 M 767 183 L S
771 184 M 771 185 L S
775 184 M 775 185 L S
779 184 M 779 185 L S
783 184 M 783 185 L S
786 185 M 786 186 L S
790 186 M 790 187 L S
794 187 M 794 188 L S
798 188 M 798 189 L S
802 189 M 802 190 L S
806 187 M 806 188 L S
810 186 M 810 187 L S
814 187 M 814 188 L S
818 189 M 818 190 L S
822 192 M 822 193 L S
826 197 M 826 198 L S
830 204 M 830 205 L S
834 213 M 834 214 L S
838 234 M 838 235 L S
842 257 M 842 258 L S
846 278 M 846 279 L S
850 293 M 850 294 L S
854 304 M 854 305 L S
859 310 M 859 311 L S
863 314 M 863 315 L S
867 318 M 867 319 L S
871 322 M 871 323 L S
875 325 M 875 326 L S
879 328 M 879 329 L S
883 331 M 883 332 L S
887 333 M 887 334 L S
891 335 M 891 336 L S
895 336 M 895 337 L S
899 337 M 899 338 L S
903 338 M 903 339 L S
907 338 M 907 339 L S
911 338 M 911 339 L S
915 338 M 915 339 L S
919 338 M 919 339 L S
923 339 M 923 340 L S
927 340 M 927 341 L S
931 340 M 931 341 L S
935 340 M 935 341 L S
940 341 M 940 342 L S
944 341 M 944 342 L S
948 341 M 948 342 L S
952 342 M 952 343 L S
956 342 M 956 343 L S
960 342 M 960 343 L S
964 342 M 964 343 L S
968 342 M 968 343 L S
972 342 M 972 343 L S
102 342 M 102 343 L S
102 342 M 102 343 L S
106 342 M 106 343 L S
110 342 M 110 343 L S
114 342 M 114 343 L S
118 342 M 118 343 L S
122 342 M 122 343 L S
126 342 M 126 343 L S
130 342 M 130 343 L S
134 341 M 134 342 L S
138 341 M 138 342 L S
142 340 M 142 341 L S
146 340 M 146 341 L S
150 339 M 150 340 L S
154 339 M 154 340 L S
158 338 M 158 339 L S
162 338 M 162 339 L S
166 339 M 166 340 L S
170 339 M 170 340 L S
174 338 M 174 339 L S
178 337 M 178 338 L S
182 336 M 182 337 L S
186 334 M 186 335 L S
190 332 M 190 333 L S
194 330 M 194 331 L S
198 327 M 198 328 L S
202 324 M 202 325 L S
206 320 M 206 321 L S
210 316 M 210 317 L S
214 312 M 214 313 L S
218 307 M 218 308 L S
222 299 M 222 300 L S
226 285 M 226 286 L S
230 266 M 230 267 L S
234 238 M 234 239 L S
238 208 M 238 209 L S
242 189 M 242 190 L S
246 182 M 246 183 L S
250 176 M 250 177 L S
254 172 M 254 173 L S
258 169 M 258 170 L S
261 167 M 261 168 L S
265 167 M 265 168 L S
269 168 M 269 169 L S
273 170 M 273 171 L S
277 169 M 277 170 L S
281 167 M 281 168 L S
285 166 M 285 167 L S
289 165 M 289 166 L S
293 165 M 293 166 L S
297 164 M 297 165 L S
301 164 M 301 165 L S
304 165 M 304 166 L S
308 163 M 308 164 L S
312 160 M 312 161 L S
316 158 M 316 159 L S
320 157 M 320 158 L S
324 158 M 324 159 L S
327 159 M 327 160 L S
331 162 M 331 163 L S
335 166 M 335 167 L S
339 171 M 339 172 L S
342 207 M 342 208 L S
346 245 M 346 246 L S
350 279 M 350 280 L S
354 308 M 354 309 L S
357 333 M 357 334 L S
361 353 M 361 354 L S
365 368 M 365 369 L S
368 387 M 368 388 L S
372 415 M 372 416 L S
376 453 M 376 454 L S
380 500 M 380 501 L S
383 558 M 383 559 L S
387 626 M 387 627 L S
391 679 M 391 680 L S
394 692 M 394 693 L S
398 703 M 398 704 L S
402 708 M 402 709 L S
406 708 M 406 709 L S
409 711 M 409 712 L S
413 715 M 413 716 L S
417 717 M 417 718 L S
420 720 M 420 721 L S
424 722 M 424 723 L S
428 724 M 428 725 L S
432 725 M 432 726 L S
435 727 M 435 728 L S
439 729 M 439 730 L S
443 730 M 443 731 L S
447 731 M 447 732 L S
451 732 M 451 733 L S
454 733 M 454 734 L S
458 734 M 458 735 L S
462 735 M 462 736 L S
466 736 M 466 737 L S
470 736 M 470 737 L S
473 737 M 473 738 L S
477 737 M 477 738 L S
481 740 M 481 741 L S
485 740 M 485 741 L S
489 739 M 489 740 L S
493 738 M 493 739 L S
496 737 M 496 738 L S
500 736 M 500 737 L S
504 735 M 504 736 L S
508 733 M 508 734 L S
512 736 M 512 737 L S
516 735 M 516 736 L S
519 734 M 519 735 L S
523 732 M 523 733 L S
527 731 M 527 732 L S
531 731 M 531 732 L S
535 730 M 535 731 L S
539 730 M 539 731 L S
542 730 M 542 731 L S
546 730 M 546 731 L S
550 731 M 550 732 L S
554 732 M 554 733 L S
558 733 M 558 734 L S
562 735 M 562 736 L S
565 736 M 565 737 L S
569 733 M 569 734 L S
573 735 M 573 736 L S
577 736 M 577 737 L S
581 737 M 581 738 L S
585 738 M 585 739 L S
588 739 M 588 740 L S
592 740 M 592 741 L S
596 740 M 596 741 L S
600 737 M 600 738 L S
604 737 M 604 738 L S
608 736 M 608 737 L S
611 736 M 611 737 L S
615 735 M 615 736 L S
619 734 M 619 735 L S
623 733 M 623 734 L S
627 732 M 627 733 L S
630 731 M 630 732 L S
634 730 M 634 731 L S
638 728 M 638 729 L S
642 727 M 642 728 L S
645 725 M 645 726 L S
649 723 M 649 724 L S
653 721 M 653 722 L S
657 720 M 657 721 L S
660 717 M 660 718 L S
664 714 M 664 715 L S
668 710 M 668 711 L S
672 709 M 672 710 L S
675 706 M 675 707 L S
679 697 M 679 698 L S
683 680 M 683 681 L S
687 646 M 687 647 L S
690 573 M 690 574 L S
694 512 M 694 513 L S
698 462 M 698 463 L S
701 422 M 701 423 L S
705 392 M 705 393 L S
709 371 M 709 372 L S
712 357 M 712 358 L S
716 338 M 716 339 L S
720 314 M 720 315 L S
724 285 M 724 286 L S
727 252 M 727 253 L S
731 214 M 731 215 L S
735 174 M 735 175 L S
739 165 M 739 166 L S
742 161 M 742 162 L S
746 159 M 746 160 L S
750 157 M 750 158 L S
754 156 M 754 157 L S
758 156 M 758 157 L S
761 158 M 761 159 L S
765 161 M 765 162 L S
769 163 M 769 164 L S
773 163 M 773 164 L S
777 163 M 777 164 L S
781 163 M 781 164 L S
785 164 M 785 165 L S
789 164 M 789 165 L S
792 166 M 792 167 L S
796 167 M 796 168 L S
800 169 M 800 170 L S
804 167 M 804 168 L S
808 165 M 808 166 L S
812 165 M 812 166 L S
816 167 M 816 168 L S
820 169 M 820 170 L S
824 173 M 824 174 L S
828 179 M 828 180 L S
832 185 M 832 186 L S
836 202 M 836 203 L S
840 232 M 840 233 L S
844 261 M 844 262 L S
848 282 M 848 283 L S
852 296 M 852 297 L S
856 306 M 856 307 L S
860 311 M 860 312 L S
864 315 M 864 316 L S
868 320 M 868 321 L S
872 323 M 872 324 L S
875 327 M 875 328 L S
879 329 M 879 330 L S
883 332 M 883 333 L S
887 334 M 887 335 L S
891 336 M 891 337 L S
895 337 M 895 338 L S
899 338 M 899 339 L S
903 339 M 903 340 L S
907 339 M 907 340 L S
911 338 M 911 339 L S
915 338 M 915 339 L S
919 339 M 919 340 L S
923 339 M 923 340 L S
927 340 M 927 341 L S
931 340 M 931 341 L S
935 341 M 935 342 L S
939 341 M 939 342 L S
943 342 M 943 343 L S
947 342 M 947 343 L S
951 342 M 951 343 L S
955 342 M 955 343 L S
959 342 M 959 343 L S
963 342 M 963 343 L S
967 342 M 967 343 L S
971 342 M 971 343 L S
971 342 M 971 343 L S
/Courier-Bold findfont 27 scalefont setfont
101 764 M (Zgoubi|Zpop                                                                     ) H
101 743 M (28-09-2018                                                                      ) H
/Courier-Bold findfont 26 scalefont setfont
160 85 M (* # TRAJECTORIES - STORAGE FILE, 28-09-2018 10:00:43 *                                                                            ) H
293 755 M (  BZ     (T)  vs.    X     (m)                                                                                                    ) H
26 42 M (Mi-ma H/V:  -0.576     -5.254E-02/ -0.801       1.59                                                                              ) H
26 21 M (Part#  1- 10000 (*); Lmnt#     1; pass#       1-      1, [    1];   1890 pnts                                                     ) H
showpage
