 ***  SPES2  600MEV/C                                                           
  'OBJET'                                                                 1          1
  2037.                                                                         
  1                                                                             
  1     5    1    1  1   5                                                      
  0.   20.  .0    0. 0.  .09                                                    
  0. 0. 0. 0. 0. 1.                                                             
  'ESL'                                                                   2          2
  60.                                                                           
  'QUADRUPO'                                                              3          3
   0                                                                            
  40.  10. -5.61                                                                
  0.  0.                                                                        
  6  .1122 6.2671 -1.4982 3.5882 -2.1209 1.723                                  
  0.   0.                                                                       
  6  .1122 6.2671 -1.4982 3.5882 -2.1209 1.723                                  
  3.                                                                            
  1 0. 0. 0.                                                                    
  'ESL'                                                                   4          4
  27.893                                                                        
  'AIMANT'                                                                5          5
  2 0 0                                                                         
  350  200                                                                      
  15.273   0. 0. 0.                                                             
  107.  50.   131.  70.  180.                                                   
  46. -1.                                                                       
  4   .14552 5.21405 -3.38307 14.0629 0. 0. 0.                                  
   31.  17.5    -57.24  0.    0.  -57.24                                        
  46. -1.                                                                       
  4   .14552 5.21405 -3.38307 14.0629 0. 0. 0.                                  
  -32. -10.    -158.    0.    0. -126.                                          
  0                                                                             
  2                                                                             
  3.                                                                            
  2                                                                             
   138.548   -.33161256  144.648 .43827                                         
  'ESL'                                                                   6          6
  24.21                                                                         
  'AIMANT'                                                                7          7
  2 0 0                                                                         
  350  200                                                                      
  15.2730  0. 0. 0.                                                             
  78.   39.   131.  60.  210.                                                   
  46. -1.                                                                       
  4 .14552 5.21405 -3.38307 14.0629 0. 0. 0.                                    
   20.  20.     1.E6   -1.E6    1.E6   1.E6                                     
  46. -1.                                                                       
  4 .14552 5.21405 -3.38307 14.0629 0. 0. 0.                                    
  -20.  20.    -350.  -26.5  20.5  800.                                         
  0                                                                             
  2                                                                             
  3.                                                                            
  2                                                                             
   138.548   -.331612558   138.716 .33451                                       
  'ESL'                                                                   8          8
  123.39                                                                        
  'FAISCEAU'                                                              9          9
  'IMAGES'                                                               10         10
  'FIN'                                                                  11         11

********************************************************************************************************************************
      1  OBJET       1                 
                          MAGNETIC  RIGIDITY =       2037.000 kG*cm

                                         CALCUL  DES  TRAJECTOIRES

                              OBJET  (1)  FORME  DE     25 POINTS 



                                          D       Y(cm)     T(mrd)    Z(cm)     P(mrd)    X(cm)

                              NOMBRE       5         1         5         1         1

       6

                    ECHANTILLONNAGE     0.0900      0.00     20.00      0.00      0.00      0.00


********************************************************************************************************************************
      2  ESL         2                 

                              Drift,  length =    60.00000  cm

 TRAJ 1 IEX,D,Y,T,Z,P,S,time :  1   1.000       0.000       0.000       0.000       0.000           60.000           0.0000    

 Cumulative length of optical axis =   0.600000     m ;   corresponding Time  (for ref. rigidity & particle) =   1.9193E+10 s 

********************************************************************************************************************************
      3  QUADRUPO    3                 

      -----  QUADRUPOLE  : 
                Length  of  element  =    40.00      cm
                Bore  radius      RO =    10.00      cm
               B-QUADRUPOLE  =  -5.61000     kG 

               Lens field model is sharp edge

                    Integration step :   3.000     cm


 Cumulative length of optical axis =    1.00000     m ;   corresponding Time  (for ref. rigidity & particle) =   3.1988E+10 s 

********************************************************************************************************************************
      4  ESL         4                 

                              Drift,  length =    27.89300  cm

 TRAJ 1 IEX,D,Y,T,Z,P,S,time :  1   1.000       0.000       0.000       0.000       0.000           127.89           0.0000    

 Cumulative length of optical axis =    1.27893     m ;   corresponding Time  (for ref. rigidity & particle) =   4.0910E+10 s 

********************************************************************************************************************************
      5  AIMANT      5                 
                    AIMANT  PRINCIPAL


           ANGLES : A.TOTAL =107.00 degrees     A.CENTRAL = 50.00 degrees

           RM = 131.00 cm     RMIN =  70.00 cm     RMAX = 180.00 cm

           HNORM = 15.2730 kGauss     COEF.N =  0.00000     COEF.B =  0.00000     COEF.G=  0.00000
                    Number  of  steps,  in  angle :  350  in  radius :  200
                    Angular  step =  0.3066 deg.,  i.e.,    0.7010 cm  at  mean  radius
                    Radial  step  =  0.5528 cm

   Exponential  entrance  fringe  field


     Entrance  EFB
          Fringe  field :  LAMBDA =  46.00 CM
           COEFFICIENTS :   0.14552   5.21405  -3.38307  14.06290   0.00000   0.00000
           COEFFICIENTS 1 A 4 PRIS EN COMPTE
           DECALAGE  FACE  MAGNETIQUE =    0.000     CM

          OMEGA =  31.00 deg.     Wedge  angle  =  17.50 deg.
           Radius 1 =  -57.     cm

           Straight  segment 1 =   0.0     cm

           Straight  segment 2 =   0.0     cm

           Radius 2 =  -57.     cm

   Exponential  exit  fringe  field


     Exit  EFB
          Fringe  field :  Lambda =  46.00 CM
           COEFFICIENTS :   0.14552   5.21405  -3.38307  14.06290   0.00000   0.00000
           COEFFICIENTS 1 A 4 PRIS EN COMPTE
           DECALAGE  FACE  MAGNETIQUE =    0.000     CM

          OMEGA = -32.00 deg.     Wedge  angle  = -10.00 deg.
           Radius 1 = -1.58E+02 cm

           Straight  segment 1 =   0.0     cm

           Straight  segment 2 =   0.0     cm

           Radius 2 = -1.26E+02 cm


      Min / max  fields  drawn  from  map  data :         NaN                   /         NaN
       @  A(rad),  R(cm), Z(cm) :                0.00      0.00      0.00       /   0.00      0.00      0.00    
     Normalisation  coeff.  BNORM   :   0.000    
     Field  min/max  normalised  :                0.00          /    0.00    
     Nbre of  steps  in  angle/radius/Z : 350/ 200/   0
     Steps  in  angle/radius/Z :    5.3510E-03/  0.5528    /   0.000      (rad/cm/cm)

                     Option  for  interpolation : 2
                     Smoothing  using  9  points 

                    Integration step :   3.000     cm   (i.e.,   2.2901E-02 rad  at mean radius)

                               Position of reference orbit on mechanical  faces
                                         at entrance    RE =   138.548     cm  TE = -0.331613     rad
                                         at exit        RS =   144.648     cm  TS =  0.438270     rad

  O   1  1.0000     0.000     0.000     0.000     0.000            1.868   147.233     0.456     0.000     0.000           1
  A   1  1.0000     0.000    20.000     0.000     0.000            1.868   156.647     0.456     0.000     0.000           2
  B   1  1.0000     0.000   -20.000     0.000     0.000            1.868   137.482     0.455     0.000     0.000           3
  C   1  1.0000     0.000    40.000     0.000     0.000            1.868   165.718     0.457     0.000     0.000           4
  D   1  1.0000     0.000   -40.000     0.000     0.000            1.868   127.383     0.453     0.000     0.000           5
  O   1  1.0900     0.000     0.000     0.000     0.000            1.868   159.956     0.536     0.000     0.000           6
  A   1  1.0900     0.000    20.000     0.000     0.000            1.868   170.387     0.541     0.000     0.000           7
  B   1  1.0900     0.000   -20.000     0.000     0.000            1.868   149.352     0.531     0.000     0.000           8
  C   1  1.0900     0.000    40.000     0.000     0.000            1.868   180.626     0.547     0.000     0.000           9
  D   1  1.0900     0.000   -40.000     0.000     0.000            1.868   138.535     0.526     0.000     0.000          10
  O   1  0.9100     0.000     0.000     0.000     0.000            1.868   133.698     0.361     0.000     0.000          11
  A   1  0.9100     0.000    20.000     0.000     0.000            1.868   142.054     0.356     0.000     0.000          12
  B   1  0.9100     0.000   -20.000     0.000     0.000            1.868   124.824     0.365     0.000     0.000          13
  C   1  0.9100     0.000    40.000     0.000     0.000            1.868   149.884     0.350     0.000     0.000          14
  D   1  0.9100     0.000   -40.000     0.000     0.000            1.868   115.469     0.368     0.000     0.000          15
  O   1  1.1800     0.000     0.000     0.000     0.000            1.868   172.062     0.605     0.000     0.000          16

    Y =  181.57 X =    1.85 T = 0.598 TRAJECTOIRE  17 HORS LIMITES Champ 
  A   1  1.1800     0.000    20.000     0.000     0.000            1.868   183.477     0.613     0.000     0.000          17
  B   1  1.1800     0.000   -20.000     0.000     0.000            1.868   160.603     0.597     0.000     0.000          18

    Y =  180.47 X =    1.75 T = 0.501 TRAJECTOIRE  19 HORS LIMITES Champ 
  C   1  1.1800     0.000    40.000     0.000     0.000            1.868   194.845     0.622     0.000     0.000          19
  D   1  1.1800     0.000   -40.000     0.000     0.000            1.868   149.079     0.589     0.000     0.000          20
  O   1  0.8200     0.000     0.000     0.000     0.000            1.868   119.047     0.246     0.000     0.000          21
  A   1  0.8200     0.000    20.000     0.000     0.000            1.868   126.261     0.233     0.000     0.000          22
  B   1  0.8200     0.000   -20.000     0.000     0.000            1.868   111.133     0.257     0.000     0.000          23
  C   1  0.8200     0.000    40.000     0.000     0.000            1.868   132.718     0.218     0.000     0.000          24
  D   1  0.8200     0.000   -40.000     0.000     0.000            1.868   102.575     0.266     0.000     0.000          25

 Cumulative length of optical axis =    1.27893     m ;   corresponding Time  (for ref. rigidity & particle) =   4.0910E+10 s 

********************************************************************************************************************************
      6  ESL         6                 

                              Drift,  length =    24.21000  cm

 TRAJ 1 IEX,D,Y,T,Z,P,S,time :  1   1.000       2.742       17.36       0.000       0.000           402.26           0.0000    

 Cumulative length of optical axis =    1.52103     m ;   corresponding Time  (for ref. rigidity & particle) =   4.8655E+10 s 

********************************************************************************************************************************
      7  AIMANT      7                 
                    AIMANT  PRINCIPAL


           ANGLES : A.TOTAL = 78.00 degrees     A.CENTRAL = 39.00 degrees

           RM = 131.00 cm     RMIN =  60.00 cm     RMAX = 210.00 cm

           HNORM = 15.2730 kGauss     COEF.N =  0.00000     COEF.B =  0.00000     COEF.G=  0.00000
                    Number  of  steps,  in  angle :  350  in  radius :  200
                    Angular  step =  0.2235 deg.,  i.e.,    0.5110 cm  at  mean  radius
                    Radial  step  =  0.7538 cm

   Exponential  entrance  fringe  field


     Entrance  EFB
          Fringe  field :  LAMBDA =  46.00 CM
           COEFFICIENTS :   0.14552   5.21405  -3.38307  14.06290   0.00000   0.00000
           COEFFICIENTS 1 A 4 PRIS EN COMPTE
           DECALAGE  FACE  MAGNETIQUE =    0.000     CM

          OMEGA =  20.00 deg.     Wedge  angle  =  20.00 deg.
           Radius 1 =  1.00E+06 cm

           Straight  segment 1 = -1.00E+06 cm

           Straight  segment 2 =  1.00E+06 cm

           Radius 2 =  1.00E+06 cm

   Exponential  exit  fringe  field


     Exit  EFB
          Fringe  field :  Lambda =  46.00 CM
           COEFFICIENTS :   0.14552   5.21405  -3.38307  14.06290   0.00000   0.00000
           COEFFICIENTS 1 A 4 PRIS EN COMPTE
           DECALAGE  FACE  MAGNETIQUE =    0.000     CM

          OMEGA = -20.00 deg.     Wedge  angle  =  20.00 deg.
           Radius 1 = -3.50E+02 cm

           Straight  segment 1 =  -27.     cm

           Straight  segment 2 =   21.     cm

           Radius 2 =  8.00E+02 cm


      Min / max  fields  drawn  from  map  data :         NaN                   /         NaN
       @  A(rad),  R(cm), Z(cm) :                0.00      0.00      0.00       /   0.00      0.00      0.00    
     Normalisation  coeff.  BNORM   :   0.000    
     Field  min/max  normalised  :                0.00          /    0.00    
     Nbre of  steps  in  angle/radius/Z : 350/ 200/   0
     Steps  in  angle/radius/Z :    3.9007E-03/  0.7538    /   0.000      (rad/cm/cm)

                     Option  for  interpolation : 2
                     Smoothing  using  9  points 

                    Integration step :   3.000     cm   (i.e.,   2.2901E-02 rad  at mean radius)

                               Position of reference orbit on mechanical  faces
                                         at entrance    RE =   138.548     cm  TE = -0.331613     rad
                                         at exit        RS =   138.716     cm  TS =  0.334510     rad

  O   1  1.0000     0.000     0.000     0.000     0.000            1.361   144.607     0.334     0.000     0.000           1
  A   1  1.0000     0.000    20.000     0.000     0.000            1.361   151.416     0.288     0.000     0.000           2
  B   1  1.0000     0.000   -20.000     0.000     0.000            1.361   137.336     0.383     0.000     0.000           3
  C   1  1.0000     0.000    40.000     0.000     0.000            1.361   157.822     0.244     0.000     0.000           4
  D   1  1.0000     0.000   -40.000     0.000     0.000            1.361   129.514     0.434     0.000     0.000           5
  O   1  1.0900     0.000     0.000     0.000     0.000            1.361   174.215     0.332     0.000     0.000           6
  A   1  1.0900     0.000    20.000     0.000     0.000            1.361   182.686     0.284     0.000     0.000           7
  B   1  1.0900     0.000   -20.000     0.000     0.000            1.361   165.433     0.380     0.000     0.000           8
  C   1  1.0900     0.000    40.000     0.000     0.000            1.361   190.832     0.236     0.000     0.000           9
  D   1  1.0900     0.000   -40.000     0.000     0.000            1.361   156.203     0.430     0.000     0.000          10
  O   1  0.9100     0.000     0.000     0.000     0.000            1.361   114.338     0.338     0.000     0.000          11
  A   1  0.9100     0.000    20.000     0.000     0.000            1.361   119.317     0.291     0.000     0.000          12
  B   1  0.9100     0.000   -20.000     0.000     0.000            1.361   108.745     0.389     0.000     0.000          13
  C   1  0.9100     0.000    40.000     0.000     0.000            1.361   123.713     0.248     0.000     0.000          14
  D   1  0.9100     0.000   -40.000     0.000     0.000            1.361   102.708     0.446     0.000     0.000          15
  O   1  1.1800     0.000     0.000     0.000     0.000            1.361   203.064     0.324     0.000     0.000          16

    Y =  210.43 X =    1.31 T = 0.224 TRAJECTOIRE  17 HORS LIMITES Champ 
  A   1  1.1800     0.000    20.000     0.000     0.000            1.361   213.049     0.273     0.000     0.000          17
  B   1  1.1800     0.000   -20.000     0.000     0.000            1.361   192.870     0.376     0.000     0.000          18

    Y =  210.63 X =    0.89 T = 0.156 TRAJECTOIRE  19 HORS LIMITES Champ 
  C   1  1.1800     0.000    40.000     0.000     0.000            1.361   222.821     0.221     0.000     0.000          19
  D   1  1.1800     0.000   -40.000     0.000     0.000            1.361   182.410     0.427     0.000     0.000          20
  O   1  0.8200     0.000     0.000     0.000     0.000            1.361    84.153     0.362     0.000     0.000          21
  A   1  0.8200     0.000    20.000     0.000     0.000            1.361    86.804     0.309     0.000     0.000          22
  B   1  0.8200     0.000   -20.000     0.000     0.000            1.361    81.110     0.424     0.000     0.000          23
  C   1  0.8200     0.000    40.000     0.000     0.000            1.361    88.792     0.263     0.000     0.000          24
  D   1  0.8200     0.000   -40.000     0.000     0.000            1.361    78.094     0.498     0.000     0.000          25

 Cumulative length of optical axis =    1.52103     m ;   corresponding Time  (for ref. rigidity & particle) =   4.8655E+10 s 

********************************************************************************************************************************
      8  ESL         8                 

                              Drift,  length =   123.39000  cm

 TRAJ 1 IEX,D,Y,T,Z,P,S,time :  1   1.000       5.510     -0.4469       0.000       0.000           710.24           0.0000    

 Cumulative length of optical axis =    2.75493     m ;   corresponding Time  (for ref. rigidity & particle) =   8.8124E+10 s 

********************************************************************************************************************************
      9  FAISCEAU    9                 
0                                             TRACE DU FAISCEAU

                                               25 TRAJECTOIRES

                                   OBJET                                                  FAISCEAU

          D       Y(CM)     T(MR)     Z(CM)     P(MR)    S(CM)          D       Y(CM)     T(MR)     Z(CM)     P(MR)    S(CM)

O   1   1.0000     0.000     0.000     0.000     0.000     0.000       1.0000    5.510   -0.447    0.000    0.000     710.240      1
A   1   1.0000     0.000    20.000     0.000     0.000     0.000       1.0000    6.454  -46.453    0.000    0.000     725.066      2
B   1   1.0000     0.000   -20.000     0.000     0.000     0.000       1.0000    4.646   48.009    0.000    0.000     695.727      3
C   1   1.0000     0.000    40.000     0.000     0.000     0.000       1.0000    7.452  -90.217    0.000    0.000     740.144      4
D   1   1.0000     0.000   -40.000     0.000     0.000     0.000       1.0000    3.889   99.201    0.000    0.000     681.579      5
O   1   1.0900     0.000     0.000     0.000     0.000     0.000       1.0900   33.228   -2.719    0.000    0.000     729.714      6
A   1   1.0900     0.000    20.000     0.000     0.000     0.000       1.0900   36.004  -50.703    0.000    0.000     745.666      7
B   1   1.0900     0.000   -20.000     0.000     0.000     0.000       1.0900   30.500   45.893    0.000    0.000     714.236      8
C   1   1.0900     0.000    40.000     0.000     0.000     0.000       1.0900   38.777  -98.015    0.000    0.000     762.030      9
D   1   1.0900     0.000   -40.000     0.000     0.000     0.000       1.0900   27.814   95.722    0.000    0.000     699.196     10
O   1   0.9100     0.000     0.000     0.000     0.000     0.000       0.9100  -22.578    3.410    0.000    0.000     691.290     11
A   1   0.9100     0.000    20.000     0.000     0.000     0.000       0.9100  -23.936  -43.230    0.000    0.000     705.175     12
B   1   0.9100     0.000   -20.000     0.000     0.000     0.000       0.9100  -21.056   54.387    0.000    0.000     677.628     13
C   1   0.9100     0.000    40.000     0.000     0.000     0.000       0.9100  -25.295  -86.470    0.000    0.000     719.185     14
D   1   0.9100     0.000   -40.000     0.000     0.000     0.000       0.9100  -18.886  111.406    0.000    0.000     664.425     15
O   1   1.1800     0.000     0.000     0.000     0.000     0.000       1.1800   59.746  -10.119    0.000    0.000     749.602     16
A   1   1.1800     0.000    20.000     0.000     0.000     0.000       1.1800   64.097  -61.714    0.000    0.000     766.833     17
B   1   1.1800     0.000   -20.000     0.000     0.000     0.000       1.1800   55.522   41.358    0.000    0.000     732.997     18
C   1   1.1800     0.000    40.000     0.000     0.000     0.000       1.1800   68.532 -113.442    0.000    0.000     784.656     19
D   1   1.1800     0.000   -40.000     0.000     0.000     0.000       1.1800   51.425   92.845    0.000    0.000     717.011     20
O   1   0.8200     0.000     0.000     0.000     0.000     0.000       0.8200  -47.601   27.861    0.000    0.000     673.158     21
A   1   0.8200     0.000    20.000     0.000     0.000     0.000       0.8200  -52.588  -25.297    0.000    0.000     686.160     22
B   1   0.8200     0.000   -20.000     0.000     0.000     0.000       0.8200  -41.627   89.612    0.000    0.000     660.621     23
C   1   0.8200     0.000    40.000     0.000     0.000     0.000       0.8200  -57.204  -71.756    0.000    0.000     699.292     24
D   1   0.8200     0.000   -40.000     0.000     0.000     0.000       0.8200  -33.690  163.038    0.000    0.000     649.098     25


  Beam  characteristics   (EMIT,ALP,BET,XM,XPM,NLIV,NINL,RATIN) : 

   1   0.3507       0.1939        5.257       5.9654E-02   6.8864E-03      25      25    1.000    B-Dim     1 
   1    0.000       0.1939        5.257        0.000        0.000          25      25    1.000    B-Dim     2 
   1    0.000       0.1939        5.257        0.000        0.000          25      25    1.000    B-Dim     3 

********************************************************************************************************************************
     10  IMAGES      10                

     RECHERCHE DU POINT DE FOCALISATION HORIZONTAL DE      5 TRAJECTOIRES (SUR      5)

     POINT DE FOCALISATION HORIZONTAL SUR L ORBITE MOYENNE    X =   18.7782     CM    Y =   5.50161     CM

     DECALAGE DU CENTRE DE GRAVITE EN Y =   0.127117     CM

     LARGEUR IMAGE,  A MI-HAUTEUR =  0.251543     CM,  TOTALE =  0.256801     CM
                                      .........                 .........

0                                             TRACE DU FAISCEAU

                                                5 TRAJECTOIRES

                                   OBJET                                                  FAISCEAU

          D       Y(CM)     T(MR)     Z(CM)     P(MR)    S(CM)          D       Y(CM)     T(MR)     Z(CM)     P(MR)    S(CM)

O   1   1.0000     0.000     0.000     0.000     0.000     0.000       1.0000    5.510   -0.447    0.000    0.000     710.240      1
A   1   1.0000     0.000    20.000     0.000     0.000     0.000       1.0000    6.454  -46.453    0.000    0.000     725.066      2
B   1   1.0000     0.000   -20.000     0.000     0.000     0.000       1.0000    4.646   48.009    0.000    0.000     695.727      3
C   1   1.0000     0.000    40.000     0.000     0.000     0.000       1.0000    7.452  -90.217    0.000    0.000     740.144      4
D   1   1.0000     0.000   -40.000     0.000     0.000     0.000       1.0000    3.889   99.201    0.000    0.000     681.579      5


  Beam  characteristics   (EMIT,ALP,BET,XM,XPM,NLIV,NINL,RATIN) : 

   1   0.3507       0.1939        5.257       5.9654E-02   6.8864E-03      25      25    1.000    B-Dim     1 
   1    0.000       0.1939        5.257        0.000        0.000          25      25    1.000    B-Dim     2 
   1    0.000       0.1939        5.257        0.000        0.000          25      25    1.000    B-Dim     3 

     RECHERCHE DU POINT DE FOCALISATION HORIZONTAL DE      5 TRAJECTOIRES (SUR      5)

     POINT DE FOCALISATION HORIZONTAL SUR L ORBITE MOYENNE    X =   56.5050     CM    Y =   33.0742     CM

     DECALAGE DU CENTRE DE GRAVITE EN Y =   7.900724E-02 CM

     LARGEUR IMAGE,  A MI-HAUTEUR =  0.155604     CM,  TOTALE =  0.165229     CM
                                      .........                 .........

0                                             TRACE DU FAISCEAU

                                                5 TRAJECTOIRES

                                   OBJET                                                  FAISCEAU

          D       Y(CM)     T(MR)     Z(CM)     P(MR)    S(CM)          D       Y(CM)     T(MR)     Z(CM)     P(MR)    S(CM)

O   1   1.0900     0.000     0.000     0.000     0.000     0.000       1.0900   33.228   -2.719    0.000    0.000     729.714      6
A   1   1.0900     0.000    20.000     0.000     0.000     0.000       1.0900   36.004  -50.703    0.000    0.000     745.666      7
B   1   1.0900     0.000   -20.000     0.000     0.000     0.000       1.0900   30.500   45.893    0.000    0.000     714.236      8
C   1   1.0900     0.000    40.000     0.000     0.000     0.000       1.0900   38.777  -98.015    0.000    0.000     762.030      9
D   1   1.0900     0.000   -40.000     0.000     0.000     0.000       1.0900   27.814   95.722    0.000    0.000     699.196     10


  Beam  characteristics   (EMIT,ALP,BET,XM,XPM,NLIV,NINL,RATIN) : 

   1   0.3507       0.1939        5.257       5.9654E-02   6.8864E-03      25      25    1.000    B-Dim     1 
   1    0.000       0.1939        5.257        0.000        0.000          25      25    1.000    B-Dim     2 
   1    0.000       0.1939        5.257        0.000        0.000          25      25    1.000    B-Dim     3 

     RECHERCHE DU POINT DE FOCALISATION HORIZONTAL DE      5 TRAJECTOIRES (SUR      5)

     POINT DE FOCALISATION HORIZONTAL SUR L ORBITE MOYENNE    X =  -31.8043     CM    Y =  -22.6868     CM

     DECALAGE DU CENTRE DE GRAVITE EN Y =   8.349790E-02 CM

     LARGEUR IMAGE,  A MI-HAUTEUR =  0.283228     CM,  TOTALE =  0.344153     CM
                                      .........                 .........

0                                             TRACE DU FAISCEAU

                                                5 TRAJECTOIRES

                                   OBJET                                                  FAISCEAU

          D       Y(CM)     T(MR)     Z(CM)     P(MR)    S(CM)          D       Y(CM)     T(MR)     Z(CM)     P(MR)    S(CM)

O   1   0.9100     0.000     0.000     0.000     0.000     0.000       0.9100  -22.578    3.410    0.000    0.000     691.290     11
A   1   0.9100     0.000    20.000     0.000     0.000     0.000       0.9100  -23.936  -43.230    0.000    0.000     705.175     12
B   1   0.9100     0.000   -20.000     0.000     0.000     0.000       0.9100  -21.056   54.387    0.000    0.000     677.628     13
C   1   0.9100     0.000    40.000     0.000     0.000     0.000       0.9100  -25.295  -86.470    0.000    0.000     719.185     14
D   1   0.9100     0.000   -40.000     0.000     0.000     0.000       0.9100  -18.886  111.406    0.000    0.000     664.425     15


  Beam  characteristics   (EMIT,ALP,BET,XM,XPM,NLIV,NINL,RATIN) : 

   1   0.3507       0.1939        5.257       5.9654E-02   6.8864E-03      25      25    1.000    B-Dim     1 
   1    0.000       0.1939        5.257        0.000        0.000          25      25    1.000    B-Dim     2 
   1    0.000       0.1939        5.257        0.000        0.000          25      25    1.000    B-Dim     3 

     RECHERCHE DU POINT DE FOCALISATION HORIZONTAL DE      5 TRAJECTOIRES (SUR      5)

     POINT DE FOCALISATION HORIZONTAL SUR L ORBITE MOYENNE    X =   82.7192     CM    Y =   58.9090     CM

     DECALAGE DU CENTRE DE GRAVITE EN Y =   0.105920     CM

     LARGEUR IMAGE,  A MI-HAUTEUR =  0.205377     CM,  TOTALE =  0.218707     CM
                                      .........                 .........

0                                             TRACE DU FAISCEAU

                                                5 TRAJECTOIRES

                                   OBJET                                                  FAISCEAU

          D       Y(CM)     T(MR)     Z(CM)     P(MR)    S(CM)          D       Y(CM)     T(MR)     Z(CM)     P(MR)    S(CM)

O   1   1.1800     0.000     0.000     0.000     0.000     0.000       1.1800   59.746  -10.119    0.000    0.000     749.602     16
A   1   1.1800     0.000    20.000     0.000     0.000     0.000       1.1800   64.097  -61.714    0.000    0.000     766.833     17
B   1   1.1800     0.000   -20.000     0.000     0.000     0.000       1.1800   55.522   41.358    0.000    0.000     732.997     18
C   1   1.1800     0.000    40.000     0.000     0.000     0.000       1.1800   68.532 -113.442    0.000    0.000     784.656     19
D   1   1.1800     0.000   -40.000     0.000     0.000     0.000       1.1800   51.425   92.845    0.000    0.000     717.011     20


  Beam  characteristics   (EMIT,ALP,BET,XM,XPM,NLIV,NINL,RATIN) : 

   1   0.3507       0.1939        5.257       5.9654E-02   6.8864E-03      25      25    1.000    B-Dim     1 
   1    0.000       0.1939        5.257        0.000        0.000          25      25    1.000    B-Dim     2 
   1    0.000       0.1939        5.257        0.000        0.000          25      25    1.000    B-Dim     3 

     RECHERCHE DU POINT DE FOCALISATION HORIZONTAL DE      5 TRAJECTOIRES (SUR      5)

     POINT DE FOCALISATION HORIZONTAL SUR L ORBITE MOYENNE    X =  -98.8171     CM    Y =  -50.3548     CM

     DECALAGE DU CENTRE DE GRAVITE EN Y =   0.155833     CM

     LARGEUR IMAGE,  A MI-HAUTEUR =  0.475387     CM,  TOTALE =  0.560404     CM
                                      .........                 .........

0                                             TRACE DU FAISCEAU

                                                5 TRAJECTOIRES

                                   OBJET                                                  FAISCEAU

          D       Y(CM)     T(MR)     Z(CM)     P(MR)    S(CM)          D       Y(CM)     T(MR)     Z(CM)     P(MR)    S(CM)

O   1   0.8200     0.000     0.000     0.000     0.000     0.000       0.8200  -47.601   27.861    0.000    0.000     673.158     21
A   1   0.8200     0.000    20.000     0.000     0.000     0.000       0.8200  -52.588  -25.297    0.000    0.000     686.160     22
B   1   0.8200     0.000   -20.000     0.000     0.000     0.000       0.8200  -41.627   89.612    0.000    0.000     660.621     23
C   1   0.8200     0.000    40.000     0.000     0.000     0.000       0.8200  -57.204  -71.756    0.000    0.000     699.292     24
D   1   0.8200     0.000   -40.000     0.000     0.000     0.000       0.8200  -33.690  163.038    0.000    0.000     649.098     25


  Beam  characteristics   (EMIT,ALP,BET,XM,XPM,NLIV,NINL,RATIN) : 

   1   0.3507       0.1939        5.257       5.9654E-02   6.8864E-03      25      25    1.000    B-Dim     1 
   1    0.000       0.1939        5.257        0.000        0.000          25      25    1.000    B-Dim     2 
   1    0.000       0.1939        5.257        0.000        0.000          25      25    1.000    B-Dim     3 

********************************************************************************************************************************

           MAIN PROGRAM : Execution ended upon key  FIN       

********************************************************************************************************************************
  Job  ended  on  05-Nov-08,  at  19:27:51 

   CPU time, total :    0.192012000000000     
