 ***  SPES2  600MEV/C                                                           
 'OBJET'                                                                                1 
 2037.                                                                                    
 1                                                                                        
 1     5    1    1  1   5                                                                 
 0.   20.  .0    0. 0.  .09                                                               
 0. 0. 0. 0. 0. 1.                                                                        
 'ESL'                                                                                  2 
 60.                                                                                      
 'QUADRUPO'                                                                             3 
  0                                                                                       
 40.  10. -5.61                                                                           
 0.  0.                                                                                   
 6  .1122 6.2671 -1.4982 3.5882 -2.1209 1.723                                             
 0.   0.                                                                                  
 6  .1122 6.2671 -1.4982 3.5882 -2.1209 1.723                                             
 3.                                                                                       
 1 0. 0. 0.                                                                               
 'ESL'                                                                                  4 
 27.893                                                                                   
 'AIMANT'                                                                               5 
 2 0 0                                                                                    
 350  200                                                                                 
 15.273   0. 0. 0.                                                                        
 107.  50.   131.  70.  180.                                                              
 46. -1.                                                                                  
 4   .14552 5.21405 -3.38307 14.0629 0. 0. 0.                                             
  31.  17.5    -57.24  0.    0.  -57.24                                                   
 46. -1.                                                                                  
 4   .14552 5.21405 -3.38307 14.0629 0. 0. 0.                                             
 -32. -10.    -158.    0.    0. -126.                                                     
 0                                                                                        
 2                                                                                        
 3.                                                                                       
 2                                                                                        
  138.548   -.33161256  144.648 .43827                                                    
 'ESL'                                                                                  6 
 24.21                                                                                    
 'AIMANT'                                                                               7 
 2 0 0                                                                                    
 350  200                                                                                 
 15.2730  0. 0. 0.                                                                        
 78.   39.   131.  60.  210.                                                              
 46. -1.                                                                                  
 4 .14552 5.21405 -3.38307 14.0629 0. 0. 0.                                               
  20.  20.     1.E6   -1.E6    1.E6   1.E6                                                
 46. -1.                                                                                  
 4 .14552 5.21405 -3.38307 14.0629 0. 0. 0.                                               
 -20.  20.    -350.  -26.5  20.5  800.                                                    
 0                                                                                        
 2                                                                                        
 3.                                                                                       
 2                                                                                        
  138.548   -.331612558   138.716 .33451                                                  
 'ESL'                                                                                  8 
 123.39                                                                                   
 'FAISCEAU'                                                                             9 
 'IMAGES'                                                                      1       10 
 'FIN'                                                                         1       11 

********************************************************************************************************************************
      1  OBJET                       
                RIGIDITE  MAGNETIQUE =       2037.000 KG*CM

                                         CALCUL  DES  TRAJECTOIRES

                              OBJET  (1)  FORME  DE     25 POINTS 



                                          D       Y(cm)     T(mrd)    Z(cm)     P(mrd)    X(cm)

                              NOMBRE       5         1         5         1         1

       6

                    ECHANTILLONNAGE     0.0900      0.00     20.00      0.00      0.00      0.00


********************************************************************************************************************************
      2  ESL                         

                              ESPACE  LIBRE =    60.00000  CM

 TRAJ 1 IEX,D,Y,T,Z,P,S,time :  1   1.000       0.000       0.000       0.000       0.000           60.000              nan    

********************************************************************************************************************************
      3  QUADRUPO                    

      -----  QUADRUPOLE  : 
                LONGUEUR  DE  L'ELEMENT  :   40.000  CM
                RAYON DE GORGE  RO =   10.00  CM
               B-QUADRUPOLE  =  -5.61000     kG 

               Lens field model is sharp edge

                    Integration step :   3.000     cm


********************************************************************************************************************************
      4  ESL                         

                              ESPACE  LIBRE =    27.89300  CM

 TRAJ 1 IEX,D,Y,T,Z,P,S,time :  1   1.000       0.000       0.000       0.000       0.000           127.89              nan    

********************************************************************************************************************************
      5  AIMANT                      
                    AIMANT  PRINCIPAL


           ANGLES * A.TOTAL =107.00 DEGRES     A.CENTRAL = 50.00 DEGRES

           RM = 131.00 CM     RMIN =  70.00 CM     RMAX = 180.00 CM

           HNORM = 15.2730 KGAUSS     COEF.N =  0.00000     COEF.B =  0.00000     COEF.G=  0.00000
                    NBRE PAS ANGULAIRE=  350  NBRE PAS RAYON=  200
                    PAS ANGULAIRE =  0.3066 DEG. OU   0.7010 CM AU RAYON MOYEN
                    PAS EN RAYON  =  0.5528 CM

   CHAMP DE FUITE ENTREE EXPONENTIEL


     FACE  D'ENTREE
          CHAMP FUITE : LAMBDA =  46.00 CM
           COEFFICIENTS :   0.14552   5.21405  -3.38307  14.06290   0.00000   0.00000
           COEFFICIENTS 1 A 4 PRIS EN COMPTE
           DECALAGE  FACE  MAGNETIQUE =    0.000     CM

          OMEGA =  31.00     ANGLE  DE  FACE =  17.50

           RAYON 1 =  -57.     CM

           PARTIE  DROITE 1 =   0.0     CM

           PARTIE  DROITE 2 =   0.0     CM

           RAYON 2 =  -57.     CM

   CHAMP DE FUITE SORTIE EXPONENTIEL


     FACE  DE  SORTIE
          CHAMP FUITE : LAMBDA =  46.00 CM
           COEFFICIENTS :   0.14552   5.21405  -3.38307  14.06290   0.00000   0.00000
           COEFFICIENTS 1 A 4 PRIS EN COMPTE
           DECALAGE  FACE  MAGNETIQUE =    0.000     CM

          OMEGA = -32.00     ANGLE  DE  FACE = -10.00

           RAYON 1 = -1.58E+02 CM

           PARTIE  DROITE 1 =   0.0     CM

           PARTIE  DROITE 2 =   0.0     CM

           RAYON 2 = -1.26E+02 CM

                     OPTION  DE  CALCUL  : 2
                     LISSAGE  A   9  POINTS 

                    Integration step :   3.000     cm   (i.e., 

                               Position de l'orbite moyenne sur les faces mecaniques
                                         d'ENTREE  RE = 138.548 cm  TE =-0.331613 rad
                                        de SORTIE  RS = 144.648 cm  TS = 0.438270 rad

  O   1 10.0000     0.000     0.000     0.000     0.000           18.675  1472.334     4.556     0.000     0.000           1
  A   1 10.0000     0.000   200.000     0.000     0.000           18.675  1566.471     4.564     0.000     0.000           2
  B   1 10.0000     0.000  -200.000     0.000     0.000           18.675  1374.816     4.546     0.000     0.000           3
  C   1 10.0000     0.000   400.000     0.000     0.000           18.675  1657.185     4.572     0.000     0.000           4
  D   1 10.0000     0.000  -400.000     0.000     0.000           18.675  1273.834     4.529     0.000     0.000           5
  O   1 10.9000     0.000     0.000     0.000     0.000           18.675  1599.562     5.359     0.000     0.000           6
  A   1 10.9000     0.000   200.000     0.000     0.000           18.675  1703.868     5.411     0.000     0.000           7
  B   1 10.9000     0.000  -200.000     0.000     0.000           18.675  1493.515     5.310     0.000     0.000           8
  C   1 10.9000     0.000   400.000     0.000     0.000           18.675  1806.261     5.467     0.000     0.000           9
  D   1 10.9000     0.000  -400.000     0.000     0.000           18.675  1385.346     5.258     0.000     0.000          10
  O   1  9.1000     0.000     0.000     0.000     0.000           18.675  1336.984     3.607     0.000     0.000          11
  A   1  9.1000     0.000   200.000     0.000     0.000           18.675  1420.537     3.556     0.000     0.000          12
  B   1  9.1000     0.000  -200.000     0.000     0.000           18.675  1248.236     3.647     0.000     0.000          13
  C   1  9.1000     0.000   400.000     0.000     0.000           18.675  1498.836     3.500     0.000     0.000          14
  D   1  9.1000     0.000  -400.000     0.000     0.000           18.675  1154.691     3.675     0.000     0.000          15
  O   1 11.8000     0.000     0.000     0.000     0.000           18.675  1720.622     6.049     0.000     0.000          16

    Y =  181.57 X =    1.85 T = 0.598 TRAJECTOIRE  17 HORS LIMITES CHAMP 
  A   1 11.8000     0.000   200.000     0.000     0.000           18.675  1834.772     6.135     0.000     0.000          17
  B   1 11.8000     0.000  -200.000     0.000     0.000           18.675  1606.029     5.968     0.000     0.000          18

    Y =  180.47 X =    1.75 T = 0.501 TRAJECTOIRE  19 HORS LIMITES CHAMP 
  C   1 11.8000     0.000   400.000     0.000     0.000           18.675  1948.448     6.224     0.000     0.000          19
  D   1 11.8000     0.000  -400.000     0.000     0.000           18.675  1490.791     5.890     0.000     0.000          20
  O   1  8.2000     0.000     0.000     0.000     0.000           18.675  1190.467     2.458     0.000     0.000          21
  A   1  8.2000     0.000   200.000     0.000     0.000           18.675  1262.606     2.330     0.000     0.000          22
  B   1  8.2000     0.000  -200.000     0.000     0.000           18.675  1111.332     2.568     0.000     0.000          23
  C   1  8.2000     0.000   400.000     0.000     0.000           18.675  1327.177     2.183     0.000     0.000          24
  D   1  8.2000     0.000  -400.000     0.000     0.000           18.675  1025.754     2.660     0.000     0.000          25

********************************************************************************************************************************
      6  ESL                         

                              ESPACE  LIBRE =    24.21000  CM

 TRAJ 1 IEX,D,Y,T,Z,P,S,time :  1   1.000       2.742       17.36       0.000       0.000           402.26              nan    

********************************************************************************************************************************
      7  AIMANT                      
                    AIMANT  PRINCIPAL


           ANGLES * A.TOTAL = 78.00 DEGRES     A.CENTRAL = 39.00 DEGRES

           RM = 131.00 CM     RMIN =  60.00 CM     RMAX = 210.00 CM

           HNORM = 15.2730 KGAUSS     COEF.N =  0.00000     COEF.B =  0.00000     COEF.G=  0.00000
                    NBRE PAS ANGULAIRE=  350  NBRE PAS RAYON=  200
                    PAS ANGULAIRE =  0.2235 DEG. OU   0.5110 CM AU RAYON MOYEN
                    PAS EN RAYON  =  0.7538 CM

   CHAMP DE FUITE ENTREE EXPONENTIEL


     FACE  D'ENTREE
          CHAMP FUITE : LAMBDA =  46.00 CM
           COEFFICIENTS :   0.14552   5.21405  -3.38307  14.06290   0.00000   0.00000
           COEFFICIENTS 1 A 4 PRIS EN COMPTE
           DECALAGE  FACE  MAGNETIQUE =    0.000     CM

          OMEGA =  20.00     ANGLE  DE  FACE =  20.00

           RAYON 1 =  1.00E+06 CM

           PARTIE  DROITE 1 = -1.00E+06 CM

           PARTIE  DROITE 2 =  1.00E+06 CM

           RAYON 2 =  1.00E+06 CM

   CHAMP DE FUITE SORTIE EXPONENTIEL


     FACE  DE  SORTIE
          CHAMP FUITE : LAMBDA =  46.00 CM
           COEFFICIENTS :   0.14552   5.21405  -3.38307  14.06290   0.00000   0.00000
           COEFFICIENTS 1 A 4 PRIS EN COMPTE
           DECALAGE  FACE  MAGNETIQUE =    0.000     CM

          OMEGA = -20.00     ANGLE  DE  FACE =  20.00

           RAYON 1 = -3.50E+02 CM

           PARTIE  DROITE 1 =  -26.     CM

           PARTIE  DROITE 2 =   20.     CM

           RAYON 2 =  8.00E+02 CM

                     OPTION  DE  CALCUL  : 2
                     LISSAGE  A   9  POINTS 

                    Integration step :   3.000     cm   (i.e., 

                               Position de l'orbite moyenne sur les faces mecaniques
                                         d'ENTREE  RE = 138.548 cm  TE =-0.331613 rad
                                        de SORTIE  RS = 138.716 cm  TS = 0.334510 rad

  O   1 10.0000     0.000     0.000     0.000     0.000           13.614  1446.068     3.341     0.000     0.000           1
  A   1 10.0000     0.000   200.000     0.000     0.000           13.614  1514.164     2.881     0.000     0.000           2
  B   1 10.0000     0.000  -200.000     0.000     0.000           13.614  1373.355     3.825     0.000     0.000           3
  C   1 10.0000     0.000   400.000     0.000     0.000           13.614  1578.222     2.443     0.000     0.000           4
  D   1 10.0000     0.000  -400.000     0.000     0.000           13.614  1295.140     4.337     0.000     0.000           5
  O   1 10.9000     0.000     0.000     0.000     0.000           13.614  1742.152     3.318     0.000     0.000           6
  A   1 10.9000     0.000   200.000     0.000     0.000           13.614  1826.864     2.838     0.000     0.000           7
  B   1 10.9000     0.000  -200.000     0.000     0.000           13.614  1654.328     3.804     0.000     0.000           8
  C   1 10.9000     0.000   400.000     0.000     0.000           13.614  1908.321     2.365     0.000     0.000           9
  D   1 10.9000     0.000  -400.000     0.000     0.000           13.614  1562.033     4.302     0.000     0.000          10
  O   1  9.1000     0.000     0.000     0.000     0.000           13.614  1143.384     3.379     0.000     0.000          11
  A   1  9.1000     0.000   200.000     0.000     0.000           13.614  1193.173     2.913     0.000     0.000          12
  B   1  9.1000     0.000  -200.000     0.000     0.000           13.614  1087.453     3.889     0.000     0.000          13
  C   1  9.1000     0.000   400.000     0.000     0.000           13.614  1237.129     2.480     0.000     0.000          14
  D   1  9.1000     0.000  -400.000     0.000     0.000           13.614  1027.082     4.459     0.000     0.000          15
  O   1 11.8000     0.000     0.000     0.000     0.000           13.614  2030.636     3.244     0.000     0.000          16

    Y =  210.43 X =    1.31 T = 0.224 TRAJECTOIRE  17 HORS LIMITES CHAMP 
  A   1 11.8000     0.000   200.000     0.000     0.000           13.614  2130.495     2.728     0.000     0.000          17
  B   1 11.8000     0.000  -200.000     0.000     0.000           13.614  1928.695     3.759     0.000     0.000          18

    Y =  210.63 X =    0.89 T = 0.156 TRAJECTOIRE  19 HORS LIMITES CHAMP 
  C   1 11.8000     0.000   400.000     0.000     0.000           13.614  2228.214     2.211     0.000     0.000          19
  D   1 11.8000     0.000  -400.000     0.000     0.000           13.614  1824.099     4.274     0.000     0.000          20
  O   1  8.2000     0.000     0.000     0.000     0.000           13.614   841.528     3.624     0.000     0.000          21
  A   1  8.2000     0.000   200.000     0.000     0.000           13.614   868.037     3.092     0.000     0.000          22
  B   1  8.2000     0.000  -200.000     0.000     0.000           13.614   811.097     4.241     0.000     0.000          23
  C   1  8.2000     0.000   400.000     0.000     0.000           13.614   887.919     2.628     0.000     0.000          24
  D   1  8.2000     0.000  -400.000     0.000     0.000           13.614   780.942     4.975     0.000     0.000          25

********************************************************************************************************************************
      8  ESL                         

                              ESPACE  LIBRE =   123.39000  CM

 TRAJ 1 IEX,D,Y,T,Z,P,S,time :  1   1.000       5.510     -0.4469       0.000       0.000           710.24              nan    

********************************************************************************************************************************
      9  FAISCEAU                    
0                                             TRACE DU FAISCEAU

                                               25 TRAJECTOIRES

                                   OBJET                                                  FAISCEAU

          D       Y(CM)     T(MR)     Z(CM)     P(MR)    S(CM)          D       Y(CM)     T(MR)     Z(CM)     P(MR)    S(CM)

 O  1   1.0000     0.000     0.000     0.000     0.000     0.000           1.0000    5.510   -0.447    0.000    0.000    710.240    1
 A  1   1.0000     0.000    20.000     0.000     0.000     0.000           1.0000    6.454  -46.453    0.000    0.000    725.066    2
 B  1   1.0000     0.000   -20.000     0.000     0.000     0.000           1.0000    4.646   48.009    0.000    0.000    695.727    3
 C  1   1.0000     0.000    40.000     0.000     0.000     0.000           1.0000    7.452  -90.217    0.000    0.000    740.144    4
 D  1   1.0000     0.000   -40.000     0.000     0.000     0.000           1.0000    3.889   99.201    0.000    0.000    681.579    5
 O  1   1.0900     0.000     0.000     0.000     0.000     0.000           1.0900   33.228   -2.719    0.000    0.000    729.714    6
 A  1   1.0900     0.000    20.000     0.000     0.000     0.000           1.0900   36.004  -50.703    0.000    0.000    745.666    7
 B  1   1.0900     0.000   -20.000     0.000     0.000     0.000           1.0900   30.500   45.893    0.000    0.000    714.236    8
 C  1   1.0900     0.000    40.000     0.000     0.000     0.000           1.0900   38.777  -98.015    0.000    0.000    762.030    9
 D  1   1.0900     0.000   -40.000     0.000     0.000     0.000           1.0900   27.814   95.722    0.000    0.000    699.196   10
 O  1   0.9100     0.000     0.000     0.000     0.000     0.000           0.9100  -22.578    3.410    0.000    0.000    691.290   11
 A  1   0.9100     0.000    20.000     0.000     0.000     0.000           0.9100  -23.937  -43.232    0.000    0.000    705.175   12
 B  1   0.9100     0.000   -20.000     0.000     0.000     0.000           0.9100  -21.056   54.387    0.000    0.000    677.628   13
 C  1   0.9100     0.000    40.000     0.000     0.000     0.000           0.9100  -25.295  -86.471    0.000    0.000    719.185   14
 D  1   0.9100     0.000   -40.000     0.000     0.000     0.000           0.9100  -18.886  111.402    0.000    0.000    664.425   15
 O  1   1.1800     0.000     0.000     0.000     0.000     0.000           1.1800   59.746  -10.119    0.000    0.000    749.602   16
 A  1   1.1800     0.000    20.000     0.000     0.000     0.000           1.1800   64.097  -61.714    0.000    0.000    766.833   17
 B  1   1.1800     0.000   -20.000     0.000     0.000     0.000           1.1800   55.522   41.358    0.000    0.000    732.997   18
 C  1   1.1800     0.000    40.000     0.000     0.000     0.000           1.1800   68.532 -113.442    0.000    0.000    784.656   19
 D  1   1.1800     0.000   -40.000     0.000     0.000     0.000           1.1800   51.425   92.845    0.000    0.000    717.011   20
 O  1   0.8200     0.000     0.000     0.000     0.000     0.000           0.8200  -47.601   27.861    0.000    0.000    673.158   21
 A  1   0.8200     0.000    20.000     0.000     0.000     0.000           0.8200  -52.588  -25.299    0.000    0.000    686.160   22
 B  1   0.8200     0.000   -20.000     0.000     0.000     0.000           0.8200  -41.628   89.607    0.000    0.000    660.620   23
 C  1   0.8200     0.000    40.000     0.000     0.000     0.000           0.8200  -57.204  -71.756    0.000    0.000    699.292   24
 D  1   0.8200     0.000   -40.000     0.000     0.000     0.000           0.8200  -33.691  163.032    0.000    0.000    649.097   25

********************************************************************************************************************************
     10  IMAGES    1                 

     RECHERCHE DU POINT DE FOCALISATION HORIZONTAL DE  5 TRAJECTOIRES (SUR  5)

     POINT DE FOCALISATION HORIZONTAL SUR L ORBITE MOYENNE    X =    18.78 CM    Y =     5.50 CM

     DECALAGE DU CENTRE DE GRAVITE EN Y =      0.13 CM

     LARGEUR IMAGE,  A MI-HAUTEUR =    0.251542 CM,  TOTALE =    0.256801 CM
                                      .........                 .........

0                                             TRACE DU FAISCEAU

                                                5 TRAJECTOIRES

                                   OBJET                                                  FAISCEAU

          D       Y(CM)     T(MR)     Z(CM)     P(MR)    S(CM)          D       Y(CM)     T(MR)     Z(CM)     P(MR)    S(CM)

 O  1   1.0000     0.000     0.000     0.000     0.000     0.000           1.0000    5.510   -0.447    0.000    0.000    710.240    1
 A  1   1.0000     0.000    20.000     0.000     0.000     0.000           1.0000    6.454  -46.453    0.000    0.000    725.066    2
 B  1   1.0000     0.000   -20.000     0.000     0.000     0.000           1.0000    4.646   48.009    0.000    0.000    695.727    3
 C  1   1.0000     0.000    40.000     0.000     0.000     0.000           1.0000    7.452  -90.217    0.000    0.000    740.144    4
 D  1   1.0000     0.000   -40.000     0.000     0.000     0.000           1.0000    3.889   99.201    0.000    0.000    681.579    5

     RECHERCHE DU POINT DE FOCALISATION HORIZONTAL DE  5 TRAJECTOIRES (SUR  5)

     POINT DE FOCALISATION HORIZONTAL SUR L ORBITE MOYENNE    X =    56.51 CM    Y =    33.07 CM

     DECALAGE DU CENTRE DE GRAVITE EN Y =      0.08 CM

     LARGEUR IMAGE,  A MI-HAUTEUR =    0.155604 CM,  TOTALE =    0.165229 CM
                                      .........                 .........

0                                             TRACE DU FAISCEAU

                                                5 TRAJECTOIRES

                                   OBJET                                                  FAISCEAU

          D       Y(CM)     T(MR)     Z(CM)     P(MR)    S(CM)          D       Y(CM)     T(MR)     Z(CM)     P(MR)    S(CM)

 O  1   1.0900     0.000     0.000     0.000     0.000     0.000           1.0900   33.228   -2.719    0.000    0.000    729.714    6
 A  1   1.0900     0.000    20.000     0.000     0.000     0.000           1.0900   36.004  -50.703    0.000    0.000    745.666    7
 B  1   1.0900     0.000   -20.000     0.000     0.000     0.000           1.0900   30.500   45.893    0.000    0.000    714.236    8
 C  1   1.0900     0.000    40.000     0.000     0.000     0.000           1.0900   38.777  -98.015    0.000    0.000    762.030    9
 D  1   1.0900     0.000   -40.000     0.000     0.000     0.000           1.0900   27.814   95.722    0.000    0.000    699.196   10

     RECHERCHE DU POINT DE FOCALISATION HORIZONTAL DE  5 TRAJECTOIRES (SUR  5)

     POINT DE FOCALISATION HORIZONTAL SUR L ORBITE MOYENNE    X =   -31.80 CM    Y =   -22.69 CM

     DECALAGE DU CENTRE DE GRAVITE EN Y =      0.08 CM

     LARGEUR IMAGE,  A MI-HAUTEUR =    0.282795 CM,  TOTALE =    0.343651 CM
                                      .........                 .........

0                                             TRACE DU FAISCEAU

                                                5 TRAJECTOIRES

                                   OBJET                                                  FAISCEAU

          D       Y(CM)     T(MR)     Z(CM)     P(MR)    S(CM)          D       Y(CM)     T(MR)     Z(CM)     P(MR)    S(CM)

 O  1   0.9100     0.000     0.000     0.000     0.000     0.000           0.9100  -22.578    3.410    0.000    0.000    691.290   11
 A  1   0.9100     0.000    20.000     0.000     0.000     0.000           0.9100  -23.937  -43.232    0.000    0.000    705.175   12
 B  1   0.9100     0.000   -20.000     0.000     0.000     0.000           0.9100  -21.056   54.387    0.000    0.000    677.628   13
 C  1   0.9100     0.000    40.000     0.000     0.000     0.000           0.9100  -25.295  -86.471    0.000    0.000    719.185   14
 D  1   0.9100     0.000   -40.000     0.000     0.000     0.000           0.9100  -18.886  111.402    0.000    0.000    664.425   15

     RECHERCHE DU POINT DE FOCALISATION HORIZONTAL DE  5 TRAJECTOIRES (SUR  5)

     POINT DE FOCALISATION HORIZONTAL SUR L ORBITE MOYENNE    X =    82.72 CM    Y =    58.91 CM

     DECALAGE DU CENTRE DE GRAVITE EN Y =      0.11 CM

     LARGEUR IMAGE,  A MI-HAUTEUR =    0.205377 CM,  TOTALE =    0.218707 CM
                                      .........                 .........

0                                             TRACE DU FAISCEAU

                                                5 TRAJECTOIRES

                                   OBJET                                                  FAISCEAU

          D       Y(CM)     T(MR)     Z(CM)     P(MR)    S(CM)          D       Y(CM)     T(MR)     Z(CM)     P(MR)    S(CM)

 O  1   1.1800     0.000     0.000     0.000     0.000     0.000           1.1800   59.746  -10.119    0.000    0.000    749.602   16
 A  1   1.1800     0.000    20.000     0.000     0.000     0.000           1.1800   64.097  -61.714    0.000    0.000    766.833   17
 B  1   1.1800     0.000   -20.000     0.000     0.000     0.000           1.1800   55.522   41.358    0.000    0.000    732.997   18
 C  1   1.1800     0.000    40.000     0.000     0.000     0.000           1.1800   68.532 -113.442    0.000    0.000    784.656   19
 D  1   1.1800     0.000   -40.000     0.000     0.000     0.000           1.1800   51.425   92.845    0.000    0.000    717.011   20

     RECHERCHE DU POINT DE FOCALISATION HORIZONTAL DE  5 TRAJECTOIRES (SUR  5)

     POINT DE FOCALISATION HORIZONTAL SUR L ORBITE MOYENNE    X =   -98.81 CM    Y =   -50.35 CM

     DECALAGE DU CENTRE DE GRAVITE EN Y =      0.16 CM

     LARGEUR IMAGE,  A MI-HAUTEUR =    0.475459 CM,  TOTALE =    0.560647 CM
                                      .........                 .........

0                                             TRACE DU FAISCEAU

                                                5 TRAJECTOIRES

                                   OBJET                                                  FAISCEAU

          D       Y(CM)     T(MR)     Z(CM)     P(MR)    S(CM)          D       Y(CM)     T(MR)     Z(CM)     P(MR)    S(CM)

 O  1   0.8200     0.000     0.000     0.000     0.000     0.000           0.8200  -47.601   27.861    0.000    0.000    673.158   21
 A  1   0.8200     0.000    20.000     0.000     0.000     0.000           0.8200  -52.588  -25.299    0.000    0.000    686.160   22
 B  1   0.8200     0.000   -20.000     0.000     0.000     0.000           0.8200  -41.628   89.607    0.000    0.000    660.620   23
 C  1   0.8200     0.000    40.000     0.000     0.000     0.000           0.8200  -57.204  -71.756    0.000    0.000    699.292   24
 D  1   0.8200     0.000   -40.000     0.000     0.000     0.000           0.8200  -33.691  163.032    0.000    0.000    649.097   25

********************************************************************************************************************************

           MAIN PROGRAM : STOPPED UPON KEY  FIN     

********************************************************************************************************************************

  Zgoubi, version V4.99.
  Job  started  on  NoDate...,  at  NoTime.. 
  Job  ended  on  NoDate...,  at  NoTime.. 

