%!PS-Adobe-2.0 EPSF-2.0
%%Title: toto
%%Titre: toto
%%Creator: Fminigraf Library
%%BoundingBox: 20 40 567 457
%%EndComments
/offx 20 def
/offy 40 def
/lx 595 def
/ly 842 def
/maxx 1023 def
/maxy 779 def
/reduc 0.92 def
/coeff lx maxx div reduc mul def
offx offy translate
coeff coeff scale
1 setlinewidth newpath 0 0 moveto
/Courier-Bold findfont 32 scalefont setfont
/M {moveto} def
/L {lineto} def
/S {stroke} def
/H {show} def
/D {setdash} def
0 0 0 setrgbcolor
[] 0 D
[] 0 D
133 156 M 133 161 L S
133 735 M 133 740 L S
165 156 M 165 161 L S
165 735 M 165 740 L S
198 156 M 198 161 L S
198 735 M 198 740 L S
[2 3] 0 D
231 156 M 231 740 L S
[] 0 D
/Courier-Bold findfont 30 scalefont setfont
207 128 M (0.33) H
231 156 M 231 166 L S
231 730 M 231 740 L S
264 156 M 264 161 L S
264 735 M 264 740 L S
296 156 M 296 161 L S
296 735 M 296 740 L S
329 156 M 329 161 L S
329 735 M 329 740 L S
362 156 M 362 161 L S
362 735 M 362 740 L S
[2 3] 0 D
394 156 M 394 740 L S
[] 0 D
370 128 M (0.34) H
394 156 M 394 166 L S
394 730 M 394 740 L S
427 156 M 427 161 L S
427 735 M 427 740 L S
460 156 M 460 161 L S
460 735 M 460 740 L S
492 156 M 492 161 L S
492 735 M 492 740 L S
525 156 M 525 161 L S
525 735 M 525 740 L S
[2 3] 0 D
558 156 M 558 740 L S
[] 0 D
534 128 M (0.35) H
558 156 M 558 166 L S
558 730 M 558 740 L S
591 156 M 591 161 L S
591 735 M 591 740 L S
623 156 M 623 161 L S
623 735 M 623 740 L S
656 156 M 656 161 L S
656 735 M 656 740 L S
689 156 M 689 161 L S
689 735 M 689 740 L S
[2 3] 0 D
721 156 M 721 740 L S
[] 0 D
697 128 M (0.36) H
721 156 M 721 166 L S
721 730 M 721 740 L S
754 156 M 754 161 L S
754 735 M 754 740 L S
787 156 M 787 161 L S
787 735 M 787 740 L S
820 156 M 820 161 L S
820 735 M 820 740 L S
852 156 M 852 161 L S
852 735 M 852 740 L S
[2 3] 0 D
885 156 M 885 740 L S
[] 0 D
861 128 M (0.37) H
885 156 M 885 166 L S
885 730 M 885 740 L S
918 156 M 918 161 L S
918 735 M 918 740 L S
950 156 M 950 161 L S
950 735 M 950 740 L S
102 167 M 107 167 L S
967 167 M 972 167 L S
102 180 M 107 180 L S
967 180 M 972 180 L S
102 192 M 107 192 L S
967 192 M 972 192 L S
102 204 M 107 204 L S
967 204 M 972 204 L S
[2 3] 0 D
102 216 M 972 216 L S
[] 0 D
39 206 M (13) H
102 216 M 112 216 L S
962 216 M 972 216 L S
102 229 M 107 229 L S
967 229 M 972 229 L S
102 241 M 107 241 L S
967 241 M 972 241 L S
102 253 M 107 253 L S
967 253 M 972 253 L S
102 265 M 107 265 L S
967 265 M 972 265 L S
[2 3] 0 D
102 277 M 972 277 L S
[] 0 D
39 267 M (14) H
102 277 M 112 277 L S
962 277 M 972 277 L S
102 290 M 107 290 L S
967 290 M 972 290 L S
102 302 M 107 302 L S
967 302 M 972 302 L S
102 314 M 107 314 L S
967 314 M 972 314 L S
102 326 M 107 326 L S
967 326 M 972 326 L S
[2 3] 0 D
102 339 M 972 339 L S
[] 0 D
39 329 M (15) H
102 339 M 112 339 L S
962 339 M 972 339 L S
102 351 M 107 351 L S
967 351 M 972 351 L S
102 363 M 107 363 L S
967 363 M 972 363 L S
102 375 M 107 375 L S
967 375 M 972 375 L S
102 388 M 107 388 L S
967 388 M 972 388 L S
[2 3] 0 D
102 400 M 972 400 L S
[] 0 D
39 390 M (16) H
102 400 M 112 400 L S
962 400 M 972 400 L S
102 412 M 107 412 L S
967 412 M 972 412 L S
102 424 M 107 424 L S
967 424 M 972 424 L S
102 436 M 107 436 L S
967 436 M 972 436 L S
102 449 M 107 449 L S
967 449 M 972 449 L S
[2 3] 0 D
102 461 M 972 461 L S
[] 0 D
39 451 M (17) H
102 461 M 112 461 L S
962 461 M 972 461 L S
102 473 M 107 473 L S
967 473 M 972 473 L S
102 485 M 107 485 L S
967 485 M 972 485 L S
102 498 M 107 498 L S
967 498 M 972 498 L S
102 510 M 107 510 L S
967 510 M 972 510 L S
[2 3] 0 D
102 522 M 972 522 L S
[] 0 D
39 512 M (18) H
102 522 M 112 522 L S
962 522 M 972 522 L S
102 534 M 107 534 L S
967 534 M 972 534 L S
102 547 M 107 547 L S
967 547 M 972 547 L S
102 559 M 107 559 L S
967 559 M 972 559 L S
102 571 M 107 571 L S
967 571 M 972 571 L S
[2 3] 0 D
102 583 M 972 583 L S
[] 0 D
39 573 M (19) H
102 583 M 112 583 L S
962 583 M 972 583 L S
102 595 M 107 595 L S
967 595 M 972 595 L S
102 608 M 107 608 L S
967 608 M 972 608 L S
102 620 M 107 620 L S
967 620 M 972 620 L S
102 632 M 107 632 L S
967 632 M 972 632 L S
[2 3] 0 D
102 644 M 972 644 L S
[] 0 D
39 634 M (20) H
102 644 M 112 644 L S
962 644 M 972 644 L S
102 657 M 107 657 L S
967 657 M 972 657 L S
102 669 M 107 669 L S
967 669 M 972 669 L S
102 681 M 107 681 L S
967 681 M 972 681 L S
102 693 M 107 693 L S
967 693 M 972 693 L S
[2 3] 0 D
102 706 M 972 706 L S
[] 0 D
39 696 M (21) H
102 706 M 112 706 L S
962 706 M 972 706 L S
102 718 M 107 718 L S
967 718 M 972 718 L S
102 730 M 107 730 L S
967 730 M 972 730 L S
[] 0 D
102 156 M 972 156 L S
972 156 M 972 740 L S
972 740 M 102 740 L S
102 740 M 102 156 L S
[] 0 D
543 156 M 543 156 L S
543 156 M 543 156 L S
540 157 M 540 157 L S
540 157 M 540 157 L S
535 158 M 535 158 L S
535 158 M 535 158 L S
526 159 M 526 159 L S
526 159 M 526 159 L S
515 159 M 515 159 L S
515 159 M 515 159 L S
503 160 M 503 160 L S
503 160 M 503 160 L S
488 161 M 488 161 L S
488 161 M 488 161 L S
470 162 M 470 162 L S
470 162 M 470 162 L S
451 163 M 451 163 L S
451 163 M 451 163 L S
431 163 M 431 163 L S
431 163 M 431 163 L S
411 164 M 411 164 L S
411 164 M 411 164 L S
388 165 M 388 165 L S
388 165 M 388 165 L S
364 166 M 364 166 L S
364 166 M 364 166 L S
341 167 M 341 167 L S
341 167 M 341 167 L S
318 168 M 318 168 L S
318 168 M 318 168 L S
294 168 M 294 168 L S
294 168 M 294 168 L S
270 169 M 270 169 L S
270 169 M 270 169 L S
247 170 M 247 170 L S
247 170 M 247 170 L S
226 171 M 226 171 L S
226 171 M 226 171 L S
206 172 M 206 172 L S
206 172 M 206 172 L S
186 172 M 186 172 L S
186 172 M 186 172 L S
167 173 M 167 173 L S
167 173 M 167 173 L S
152 174 M 152 174 L S
152 174 M 152 174 L S
138 175 M 138 175 L S
138 175 M 138 175 L S
126 175 M 126 175 L S
126 175 M 126 175 L S
116 176 M 116 176 L S
116 176 M 116 176 L S
108 177 M 108 177 L S
108 177 M 108 177 L S
104 178 M 104 178 L S
104 178 M 104 178 L S
102 179 M 102 179 L S
102 179 M 102 179 L S
102 179 M 102 179 L S
102 179 M 102 179 L S
102 179 M 102 179 L S
102 179 M 105 180 L S
105 180 M 105 180 L S
105 180 M 111 181 L S
111 181 M 111 181 L S
111 181 M 120 182 L S
120 182 M 120 182 L S
120 182 M 132 182 L S
132 182 M 132 182 L S
132 182 M 145 183 L S
145 183 M 145 183 L S
145 183 M 162 184 L S
162 184 M 162 184 L S
162 184 M 182 185 L S
182 185 M 182 185 L S
182 185 M 204 186 L S
204 186 M 204 186 L S
204 186 M 227 186 L S
227 186 M 227 186 L S
227 186 M 253 187 L S
253 187 M 253 187 L S
253 187 M 281 188 L S
281 188 M 281 188 L S
281 188 M 312 189 L S
312 189 M 312 189 L S
312 189 M 342 190 L S
342 190 M 342 190 L S
342 190 M 374 190 L S
374 190 M 374 190 L S
374 190 M 409 191 L S
409 191 M 409 191 L S
409 191 M 444 192 L S
444 192 M 444 192 L S
444 192 M 479 193 L S
479 193 M 479 193 L S
479 193 M 514 194 L S
514 194 M 514 194 L S
514 194 M 550 194 L S
550 194 M 550 194 L S
550 194 M 586 195 L S
586 195 M 586 195 L S
586 195 M 622 196 L S
622 196 M 622 196 L S
622 196 M 656 197 L S
656 197 M 656 197 L S
656 197 M 690 198 L S
690 198 M 690 198 L S
690 198 M 723 199 L S
723 199 M 723 199 L S
723 199 M 756 200 L S
756 200 M 756 200 L S
756 200 M 785 200 L S
785 200 M 785 200 L S
785 200 M 813 201 L S
813 201 M 813 201 L S
813 201 M 840 202 L S
840 202 M 840 202 L S
840 202 M 865 203 L S
865 203 M 865 203 L S
865 203 M 887 204 L S
887 204 M 887 204 L S
887 204 M 906 205 L S
906 205 M 906 205 L S
906 205 M 924 206 L S
924 206 M 924 206 L S
924 206 M 939 207 L S
939 207 M 939 207 L S
939 207 M 951 208 L S
951 208 M 951 208 L S
951 208 M 960 208 L S
960 208 M 960 208 L S
960 208 M 966 209 L S
966 209 M 966 209 L S
966 209 M 970 210 L S
970 210 M 970 210 L S
970 210 M 972 211 L S
970 212 M 970 212 L S
970 212 M 970 212 L S
964 213 M 964 213 L S
964 213 M 964 213 L S
957 214 M 957 214 L S
957 214 M 957 214 L S
948 215 M 948 215 L S
948 215 M 948 215 L S
936 216 M 936 216 L S
936 216 M 936 216 L S
920 217 M 920 217 L S
920 217 M 920 217 L S
903 217 M 903 217 L S
903 217 M 903 217 L S
885 218 M 885 218 L S
885 218 M 885 218 L S
864 219 M 864 219 L S
864 219 M 864 219 L S
841 220 M 841 220 L S
841 220 M 841 220 L S
816 221 M 816 221 L S
816 221 M 816 221 L S
791 222 M 791 222 L S
791 222 M 791 222 L S
765 223 M 765 223 L S
765 223 M 765 223 L S
737 224 M 737 224 L S
737 224 M 737 224 L S
708 224 M 708 224 L S
708 224 M 708 224 L S
680 225 M 680 225 L S
680 225 M 680 225 L S
651 226 M 651 226 L S
651 226 M 651 226 L S
623 227 M 623 227 L S
623 227 M 623 227 L S
593 228 M 593 228 L S
593 228 M 593 228 L S
565 229 M 565 229 L S
565 229 M 565 229 L S
538 229 M 538 229 L S
538 229 M 538 229 L S
512 230 M 512 230 L S
512 230 M 512 230 L S
486 231 M 486 231 L S
486 231 M 486 231 L S
461 232 M 461 232 L S
461 232 M 461 232 L S
439 233 M 439 233 L S
439 233 M 439 233 L S
419 234 M 419 234 L S
419 234 M 419 234 L S
400 234 M 400 234 L S
400 234 M 400 234 L S
382 235 M 382 235 L S
382 235 M 382 235 L S
367 236 M 367 236 L S
367 236 M 367 236 L S
355 237 M 355 237 L S
355 237 M 355 237 L S
345 238 M 345 238 L S
345 238 M 345 238 L S
336 238 M 336 238 L S
336 238 M 336 238 L S
330 239 M 330 239 L S
330 239 M 330 239 L S
327 240 M 327 240 L S
327 240 M 327 240 L S
327 241 M 327 241 L S
327 241 M 327 241 L S
327 241 M 327 241 L S
327 241 M 329 242 L S
329 242 M 329 242 L S
329 242 M 332 242 L S
332 242 M 332 242 L S
332 242 M 339 243 L S
339 243 M 339 243 L S
339 243 M 349 244 L S
349 244 M 349 244 L S
349 244 M 360 245 L S
360 245 M 360 245 L S
360 245 M 373 246 L S
373 246 M 373 246 L S
373 246 M 388 247 L S
388 247 M 388 247 L S
388 247 M 406 247 L S
406 247 M 406 247 L S
406 247 M 426 248 L S
426 248 M 426 248 L S
426 248 M 446 249 L S
446 249 M 446 249 L S
446 249 M 467 250 L S
467 250 M 467 250 L S
467 250 M 491 251 L S
491 251 M 491 251 L S
491 251 M 516 251 L S
516 251 M 516 251 L S
516 251 M 541 252 L S
541 252 M 541 252 L S
541 252 M 566 253 L S
566 253 M 566 253 L S
566 253 M 593 254 L S
593 254 M 593 254 L S
593 254 M 620 255 L S
620 255 M 620 255 L S
620 255 M 647 256 L S
647 256 M 647 256 L S
647 256 M 672 257 L S
672 257 M 672 257 L S
672 257 M 698 257 L S
698 257 M 698 257 L S
698 257 M 724 258 L S
724 258 M 724 258 L S
724 258 M 749 259 L S
749 259 M 749 259 L S
749 259 M 772 260 L S
772 260 M 772 260 L S
772 260 M 794 261 L S
794 261 M 794 261 L S
794 261 M 815 262 L S
815 262 M 815 262 L S
815 262 M 835 263 L S
835 263 M 835 263 L S
835 263 M 852 264 L S
852 264 M 852 264 L S
852 264 M 867 264 L S
867 264 M 867 264 L S
867 264 M 881 265 L S
881 265 M 881 265 L S
881 265 M 894 266 L S
894 266 M 894 266 L S
894 266 M 903 267 L S
903 267 M 903 267 L S
903 267 M 910 268 L S
910 268 M 910 268 L S
910 268 M 914 269 L S
914 269 M 914 269 L S
914 269 M 917 270 L S
917 270 M 917 270 L S
917 270 M 918 271 L S
915 272 M 915 272 L S
915 272 M 915 272 L S
910 272 M 910 272 L S
910 272 M 910 272 L S
903 273 M 903 273 L S
903 273 M 903 273 L S
894 274 M 894 274 L S
894 274 M 894 274 L S
883 275 M 883 275 L S
883 275 M 883 275 L S
868 276 M 868 276 L S
868 276 M 868 276 L S
852 277 M 852 277 L S
852 277 M 852 277 L S
835 278 M 835 278 L S
835 278 M 835 278 L S
815 279 M 815 279 L S
815 279 M 815 279 L S
793 279 M 793 279 L S
793 279 M 793 279 L S
769 280 M 769 280 L S
769 280 M 769 280 L S
745 281 M 745 281 L S
745 281 M 745 281 L S
719 282 M 719 282 L S
719 282 M 719 282 L S
692 283 M 692 283 L S
692 283 M 692 283 L S
663 284 M 663 284 L S
663 284 M 663 284 L S
635 285 M 635 285 L S
635 285 M 635 285 L S
606 285 M 606 285 L S
606 285 M 606 285 L S
577 286 M 577 286 L S
577 286 M 577 286 L S
547 287 M 547 287 L S
547 287 M 547 287 L S
517 288 M 517 288 L S
517 288 M 517 288 L S
488 289 M 488 289 L S
488 289 M 488 289 L S
460 290 M 460 290 L S
460 290 M 460 290 L S
431 290 M 431 290 L S
431 290 M 431 290 L S
403 291 M 403 291 L S
403 291 M 403 291 L S
378 292 M 378 292 L S
378 292 M 378 292 L S
354 293 M 354 293 L S
354 293 M 354 293 L S
330 294 M 330 294 L S
330 294 M 330 294 L S
307 294 M 307 294 L S
307 294 M 307 294 L S
287 295 M 287 295 L S
287 295 M 287 295 L S
269 296 M 269 296 L S
269 296 M 269 296 L S
253 297 M 253 297 L S
253 297 M 253 297 L S
238 298 M 238 298 L S
238 298 M 238 298 L S
225 298 M 225 298 L S
225 298 M 225 298 L S
216 299 M 216 299 L S
216 299 M 216 299 L S
209 300 M 209 300 L S
209 300 M 209 300 L S
203 301 M 203 301 L S
203 301 M 203 301 L S
200 302 M 200 302 L S
200 302 M 200 302 L S
199 302 M 199 302 L S
199 302 M 199 302 L S
199 302 M 199 302 L S
199 302 M 202 303 L S
202 303 M 202 303 L S
202 303 M 206 304 L S
206 304 M 206 304 L S
206 304 M 212 305 L S
212 305 M 212 305 L S
212 305 M 221 306 L S
221 306 M 221 306 L S
221 306 M 232 306 L S
232 306 M 232 306 L S
232 306 M 246 307 L S
246 307 M 246 307 L S
246 307 M 260 308 L S
260 308 M 260 308 L S
260 308 M 277 309 L S
277 309 M 277 309 L S
277 309 M 296 310 L S
296 310 M 296 310 L S
296 310 M 317 310 L S
317 310 M 317 310 L S
317 310 M 338 311 L S
338 311 M 338 311 L S
338 311 M 361 312 L S
361 312 M 361 312 L S
361 312 M 386 313 L S
386 313 M 386 313 L S
386 313 M 412 314 L S
412 314 M 412 314 L S
412 314 M 438 314 L S
438 314 M 438 314 L S
438 314 M 464 315 L S
464 315 M 464 315 L S
464 315 M 491 316 L S
491 316 M 491 316 L S
491 316 M 519 317 L S
519 317 M 519 317 L S
519 317 M 547 318 L S
547 318 M 547 318 L S
547 318 M 574 319 L S
574 319 M 574 319 L S
574 319 M 601 319 L S
601 319 M 601 319 L S
601 319 M 628 320 L S
628 320 M 628 320 L S
628 320 M 654 321 L S
654 321 M 654 321 L S
654 321 M 679 322 L S
679 322 M 679 322 L S
679 322 M 702 323 L S
702 323 M 702 323 L S
702 323 M 725 324 L S
725 324 M 725 324 L S
725 324 M 747 325 L S
747 325 M 747 325 L S
747 325 M 766 325 L S
766 325 M 766 325 L S
766 325 M 784 326 L S
784 326 M 784 326 L S
784 326 M 800 327 L S
800 327 M 800 327 L S
800 327 M 815 328 L S
815 328 M 815 328 L S
815 328 M 828 329 L S
828 329 M 828 329 L S
828 329 M 838 330 L S
838 330 M 838 330 L S
838 330 M 846 331 L S
846 331 M 846 331 L S
846 331 M 853 332 L S
853 332 M 853 332 L S
853 332 M 857 332 L S
857 332 M 857 332 L S
857 332 M 859 333 L S
858 334 M 858 334 L S
858 334 M 858 334 L S
855 335 M 855 335 L S
855 335 M 855 335 L S
851 336 M 851 336 L S
851 336 M 851 336 L S
844 337 M 844 337 L S
844 337 M 844 337 L S
835 338 M 835 338 L S
835 338 M 835 338 L S
823 339 M 823 339 L S
823 339 M 823 339 L S
811 339 M 811 339 L S
811 339 M 811 339 L S
797 340 M 797 340 L S
797 340 M 797 340 L S
780 341 M 780 341 L S
780 341 M 780 341 L S
761 342 M 761 342 L S
761 342 M 761 342 L S
742 343 M 742 343 L S
742 343 M 742 343 L S
721 344 M 721 344 L S
721 344 M 721 344 L S
699 345 M 699 345 L S
699 345 M 699 345 L S
675 346 M 675 346 L S
675 346 M 675 346 L S
651 346 M 651 346 L S
651 346 M 651 346 L S
627 347 M 627 347 L S
627 347 M 627 347 L S
602 348 M 602 348 L S
602 348 M 602 348 L S
576 349 M 576 349 L S
576 349 M 576 349 L S
549 350 M 549 350 L S
549 350 M 549 350 L S
523 351 M 523 351 L S
523 351 M 523 351 L S
497 351 M 497 351 L S
497 351 M 497 351 L S
470 352 M 470 352 L S
470 352 M 470 352 L S
443 353 M 443 353 L S
443 353 M 443 353 L S
417 354 M 417 354 L S
417 354 M 417 354 L S
393 355 M 393 355 L S
393 355 M 393 355 L S
368 356 M 368 356 L S
368 356 M 368 356 L S
344 356 M 344 356 L S
344 356 M 344 356 L S
321 357 M 321 357 L S
321 357 M 321 357 L S
300 358 M 300 358 L S
300 358 M 300 358 L S
281 359 M 281 359 L S
281 359 M 281 359 L S
262 360 M 262 360 L S
262 360 M 262 360 L S
245 360 M 245 360 L S
245 360 M 245 360 L S
231 361 M 231 361 L S
231 361 M 231 361 L S
219 362 M 219 362 L S
219 362 M 219 362 L S
208 363 M 208 363 L S
208 363 M 208 363 L S
198 363 M 198 363 L S
198 363 M 198 363 L S
192 364 M 192 364 L S
192 364 M 192 364 L S
188 365 M 188 365 L S
188 365 M 188 365 L S
186 366 M 186 366 L S
186 366 M 186 366 L S
185 367 M 185 367 L S
185 367 M 185 367 L S
185 367 M 185 367 L S
185 367 M 187 367 L S
187 367 M 187 367 L S
187 367 M 192 368 L S
192 368 M 192 368 L S
192 368 M 199 369 L S
199 369 M 199 369 L S
199 369 M 207 370 L S
207 370 M 207 370 L S
207 370 M 218 371 L S
218 371 M 218 371 L S
218 371 M 231 371 L S
231 371 M 231 371 L S
231 371 M 247 372 L S
247 372 M 247 372 L S
247 372 M 263 373 L S
263 373 M 263 373 L S
263 373 M 281 374 L S
281 374 M 281 374 L S
281 374 M 301 375 L S
301 375 M 301 375 L S
301 375 M 324 375 L S
324 375 M 324 375 L S
324 375 M 347 376 L S
347 376 M 347 376 L S
347 376 M 370 377 L S
370 377 M 370 377 L S
370 377 M 395 378 L S
395 378 M 395 378 L S
395 378 M 422 379 L S
422 379 M 422 379 L S
422 379 M 450 379 L S
450 379 M 450 379 L S
450 379 M 477 380 L S
477 380 M 477 380 L S
477 380 M 504 381 L S
504 381 M 504 381 L S
504 381 M 533 382 L S
533 382 M 533 382 L S
533 382 M 561 383 L S
561 383 M 561 383 L S
561 383 M 589 384 L S
589 384 M 589 384 L S
589 384 M 616 384 L S
616 384 M 616 384 L S
616 384 M 644 385 L S
644 385 M 644 385 L S
644 385 M 671 386 L S
671 386 M 671 386 L S
671 386 M 697 387 L S
697 387 M 697 387 L S
697 387 M 722 388 L S
722 388 M 722 388 L S
722 388 M 745 389 L S
745 389 M 745 389 L S
745 389 M 768 390 L S
768 390 M 768 390 L S
768 390 M 790 391 L S
790 391 M 790 391 L S
790 391 M 809 391 L S
809 391 M 809 391 L S
809 391 M 826 392 L S
826 392 M 826 392 L S
826 392 M 843 393 L S
843 393 M 843 393 L S
843 393 M 858 394 L S
858 394 M 858 394 L S
858 394 M 870 395 L S
870 395 M 870 395 L S
870 395 M 880 396 L S
880 396 M 880 396 L S
880 396 M 888 397 L S
888 397 M 888 397 L S
888 397 M 895 398 L S
895 398 M 895 398 L S
895 398 M 899 398 L S
899 398 M 899 398 L S
899 398 M 901 399 L S
900 400 M 900 400 L S
900 400 M 900 400 L S
898 401 M 898 401 L S
898 401 M 898 401 L S
894 402 M 894 402 L S
894 402 M 894 402 L S
887 403 M 887 403 L S
887 403 M 887 403 L S
878 404 M 878 404 L S
878 404 M 878 404 L S
868 405 M 868 405 L S
868 405 M 868 405 L S
855 406 M 855 406 L S
855 406 M 855 406 L S
841 406 M 841 406 L S
841 406 M 841 406 L S
824 407 M 824 407 L S
824 407 M 824 407 L S
807 408 M 807 408 L S
807 408 M 807 408 L S
788 409 M 788 409 L S
788 409 M 788 409 L S
768 410 M 768 410 L S
768 410 M 768 410 L S
745 411 M 745 411 L S
745 411 M 745 411 L S
722 412 M 722 412 L S
722 412 M 722 412 L S
698 412 M 698 412 L S
698 412 M 698 412 L S
674 413 M 674 413 L S
674 413 M 674 413 L S
649 414 M 649 414 L S
649 414 M 649 414 L S
622 415 M 622 415 L S
622 415 M 622 415 L S
596 416 M 596 416 L S
596 416 M 596 416 L S
570 417 M 570 417 L S
570 417 M 570 417 L S
545 418 M 545 418 L S
545 418 M 545 418 L S
518 418 M 518 418 L S
518 418 M 518 418 L S
492 419 M 492 419 L S
492 419 M 492 419 L S
467 420 M 467 420 L S
467 420 M 467 420 L S
443 421 M 443 421 L S
443 421 M 443 421 L S
419 422 M 419 422 L S
419 422 M 419 422 L S
395 422 M 395 422 L S
395 422 M 395 422 L S
374 423 M 374 423 L S
374 423 M 374 423 L S
354 424 M 354 424 L S
354 424 M 354 424 L S
335 425 M 335 425 L S
335 425 M 335 425 L S
317 426 M 317 426 L S
317 426 M 317 426 L S
301 427 M 301 427 L S
301 427 M 301 427 L S
287 427 M 287 427 L S
287 427 M 287 427 L S
275 428 M 275 428 L S
275 428 M 275 428 L S
264 429 M 264 429 L S
264 429 M 264 429 L S
255 430 M 255 430 L S
255 430 M 255 430 L S
249 431 M 249 431 L S
249 431 M 249 431 L S
245 431 M 245 431 L S
245 431 M 245 431 L S
242 432 M 242 432 L S
242 432 M 242 432 L S
241 433 M 241 433 L S
241 433 M 241 433 L S
241 433 M 241 433 L S
241 433 M 242 434 L S
242 434 M 242 434 L S
242 434 M 247 434 L S
247 434 M 247 434 L S
247 434 M 252 435 L S
252 435 M 252 435 L S
252 435 M 260 436 L S
260 436 M 260 436 L S
260 436 M 269 437 L S
269 437 M 269 437 L S
269 437 M 281 438 L S
281 438 M 281 438 L S
281 438 M 295 438 L S
295 438 M 295 438 L S
295 438 M 309 439 L S
309 439 M 309 439 L S
309 439 M 326 440 L S
326 440 M 326 440 L S
326 440 M 345 441 L S
345 441 M 345 441 L S
345 441 M 365 442 L S
365 442 M 365 442 L S
365 442 M 386 443 L S
386 443 M 386 443 L S
386 443 M 407 443 L S
407 443 M 407 443 L S
407 443 M 431 444 L S
431 444 M 431 444 L S
431 444 M 456 445 L S
456 445 M 456 445 L S
456 445 M 481 446 L S
481 446 M 481 446 L S
481 446 M 506 447 L S
506 447 M 506 447 L S
506 447 M 531 447 L S
531 447 M 531 447 L S
531 447 M 558 448 L S
558 448 M 558 448 L S
558 448 M 585 449 L S
585 449 M 585 449 L S
585 449 M 611 450 L S
611 450 M 611 450 L S
611 450 M 637 451 L S
637 451 M 637 451 L S
637 451 M 663 452 L S
663 452 M 663 452 L S
663 452 M 689 453 L S
689 453 M 689 453 L S
689 453 M 713 453 L S
713 453 M 713 453 L S
713 453 M 736 454 L S
736 454 M 736 454 L S
736 454 M 758 455 L S
758 455 M 758 455 L S
758 455 M 779 456 L S
779 456 M 779 456 L S
779 456 M 799 457 L S
799 457 M 799 457 L S
799 457 M 816 458 L S
816 458 M 816 458 L S
816 458 M 831 459 L S
831 459 M 831 459 L S
831 459 M 846 460 L S
846 460 M 846 460 L S
846 460 M 859 460 L S
859 460 M 859 460 L S
859 460 M 870 461 L S
870 461 M 870 461 L S
870 461 M 878 462 L S
878 462 M 878 462 L S
878 462 M 885 463 L S
885 463 M 885 463 L S
885 463 M 890 464 L S
890 464 M 890 464 L S
890 464 M 892 465 L S
892 466 M 892 466 L S
892 466 M 892 466 L S
890 467 M 890 467 L S
890 467 M 890 467 L S
887 467 M 887 467 L S
887 467 M 887 467 L S
882 468 M 882 468 L S
882 468 M 882 468 L S
874 469 M 874 469 L S
874 469 M 874 469 L S
864 470 M 864 470 L S
864 470 M 864 470 L S
852 471 M 852 471 L S
852 471 M 852 471 L S
840 472 M 840 472 L S
840 472 M 840 472 L S
824 473 M 824 473 L S
824 473 M 824 473 L S
807 474 M 807 474 L S
807 474 M 807 474 L S
789 475 M 789 475 L S
789 475 M 789 475 L S
769 475 M 769 475 L S
769 475 M 769 475 L S
748 476 M 748 476 L S
748 476 M 748 476 L S
725 477 M 725 477 L S
725 477 M 725 477 L S
702 478 M 702 478 L S
702 478 M 702 478 L S
678 479 M 678 479 L S
678 479 M 678 479 L S
653 480 M 653 480 L S
653 480 M 653 480 L S
627 481 M 627 481 L S
627 481 M 627 481 L S
601 481 M 601 481 L S
601 481 M 601 481 L S
574 482 M 574 482 L S
574 482 M 574 482 L S
548 483 M 548 483 L S
548 483 M 548 483 L S
521 484 M 521 484 L S
521 484 M 521 484 L S
494 485 M 494 485 L S
494 485 M 494 485 L S
468 486 M 468 486 L S
468 486 M 468 486 L S
442 486 M 442 486 L S
442 486 M 442 486 L S
417 487 M 417 487 L S
417 487 M 417 487 L S
392 488 M 392 488 L S
392 488 M 392 488 L S
368 489 M 368 489 L S
368 489 M 368 489 L S
346 490 M 346 490 L S
346 490 M 346 490 L S
325 490 M 325 490 L S
325 490 M 325 490 L S
304 491 M 304 491 L S
304 491 M 304 491 L S
285 492 M 285 492 L S
285 492 M 285 492 L S
267 493 M 267 493 L S
267 493 M 267 493 L S
252 494 M 252 494 L S
252 494 M 252 494 L S
238 494 M 238 494 L S
238 494 M 238 494 L S
225 495 M 225 495 L S
225 495 M 225 495 L S
215 496 M 215 496 L S
215 496 M 215 496 L S
207 497 M 207 497 L S
207 497 M 207 497 L S
200 498 M 200 498 L S
200 498 M 200 498 L S
195 498 M 195 498 L S
195 498 M 195 498 L S
192 499 M 192 499 L S
192 499 M 192 499 L S
192 500 M 192 500 L S
192 500 M 192 500 L S
192 500 M 192 500 L S
192 500 M 194 501 L S
194 501 M 194 501 L S
194 501 M 197 502 L S
197 502 M 197 502 L S
197 502 M 202 502 L S
202 502 M 202 502 L S
202 502 M 209 503 L S
209 503 M 209 503 L S
209 503 M 219 504 L S
219 504 M 219 504 L S
219 504 M 230 505 L S
230 505 M 230 505 L S
230 505 M 242 505 L S
242 505 M 242 505 L S
242 505 M 257 506 L S
257 506 M 257 506 L S
257 506 M 274 507 L S
274 507 M 274 507 L S
274 507 M 292 508 L S
292 508 M 292 508 L S
292 508 M 310 509 L S
310 509 M 310 509 L S
310 509 M 330 509 L S
330 509 M 330 509 L S
330 509 M 352 510 L S
352 510 M 352 510 L S
352 510 M 376 511 L S
376 511 M 376 511 L S
376 511 M 400 512 L S
400 512 M 400 512 L S
400 512 M 424 513 L S
424 513 M 424 513 L S
424 513 M 449 514 L S
449 514 M 449 514 L S
449 514 M 475 514 L S
475 514 M 475 514 L S
475 514 M 502 515 L S
502 515 M 502 515 L S
502 515 M 528 516 L S
528 516 M 528 516 L S
528 516 M 554 517 L S
554 517 M 554 517 L S
554 517 M 581 518 L S
581 518 M 581 518 L S
581 518 M 607 519 L S
607 519 M 607 519 L S
607 519 M 633 519 L S
633 519 M 633 519 L S
633 519 M 658 520 L S
658 520 M 658 520 L S
658 520 M 683 521 L S
683 521 M 683 521 L S
683 521 M 707 522 L S
707 522 M 707 522 L S
707 522 M 730 523 L S
730 523 M 730 523 L S
730 523 M 752 524 L S
752 524 M 752 524 L S
752 524 M 773 525 L S
773 525 M 773 525 L S
773 525 M 793 525 L S
793 525 M 793 525 L S
793 525 M 812 526 L S
812 526 M 812 526 L S
812 526 M 828 527 L S
828 527 M 828 527 L S
828 527 M 843 528 L S
843 528 M 843 528 L S
843 528 M 857 529 L S
857 529 M 857 529 L S
857 529 M 869 530 L S
869 530 M 869 530 L S
869 530 M 879 531 L S
879 531 M 879 531 L S
879 531 M 887 532 L S
887 532 M 887 532 L S
887 532 M 893 533 L S
893 533 M 893 533 L S
893 533 M 898 533 L S
898 533 M 898 533 L S
898 533 M 901 534 L S
901 535 M 901 535 L S
901 535 M 901 535 L S
900 536 M 900 536 L S
900 536 M 900 536 L S
897 537 M 897 537 L S
897 537 M 897 537 L S
892 538 M 892 538 L S
892 538 M 892 538 L S
885 539 M 885 539 L S
885 539 M 885 539 L S
876 540 M 876 540 L S
876 540 M 876 540 L S
866 540 M 866 540 L S
866 540 M 866 540 L S
854 541 M 854 541 L S
854 541 M 854 541 L S
840 542 M 840 542 L S
840 542 M 840 542 L S
823 543 M 823 543 L S
823 543 M 823 543 L S
807 544 M 807 544 L S
807 544 M 807 544 L S
789 545 M 789 545 L S
789 545 M 789 545 L S
769 546 M 769 546 L S
769 546 M 769 546 L S
748 547 M 748 547 L S
748 547 M 748 547 L S
726 547 M 726 547 L S
726 547 M 726 547 L S
704 548 M 704 548 L S
704 548 M 704 548 L S
681 549 M 681 549 L S
681 549 M 681 549 L S
656 550 M 656 550 L S
656 550 M 656 550 L S
631 551 M 631 551 L S
631 551 M 631 551 L S
606 552 M 606 552 L S
606 552 M 606 552 L S
581 553 M 581 553 L S
581 553 M 581 553 L S
556 553 M 556 553 L S
556 553 M 556 553 L S
529 554 M 529 554 L S
529 554 M 529 554 L S
504 555 M 504 555 L S
504 555 M 504 555 L S
480 556 M 480 556 L S
480 556 M 480 556 L S
455 557 M 455 557 L S
455 557 M 455 557 L S
431 558 M 431 558 L S
431 558 M 431 558 L S
407 558 M 407 558 L S
407 558 M 407 558 L S
385 559 M 385 559 L S
385 559 M 385 559 L S
364 560 M 364 560 L S
364 560 M 364 560 L S
343 561 M 343 561 L S
343 561 M 343 561 L S
324 562 M 324 562 L S
324 562 M 324 562 L S
306 562 M 306 562 L S
306 562 M 306 562 L S
290 563 M 290 563 L S
290 563 M 290 563 L S
274 564 M 274 564 L S
274 564 M 274 564 L S
259 565 M 259 565 L S
259 565 M 259 565 L S
246 566 M 246 566 L S
246 566 M 246 566 L S
236 566 M 236 566 L S
236 566 M 236 566 L S
226 567 M 226 567 L S
226 567 M 226 567 L S
218 568 M 218 568 L S
218 568 M 218 568 L S
211 569 M 211 569 L S
211 569 M 211 569 L S
206 570 M 206 570 L S
206 570 M 206 570 L S
204 570 M 204 570 L S
204 570 M 204 570 L S
202 571 M 202 571 L S
202 571 M 202 571 L S
202 572 M 202 572 L S
202 572 M 202 572 L S
202 572 M 202 572 L S
202 572 M 204 573 L S
204 573 M 204 573 L S
204 573 M 209 573 L S
209 573 M 209 573 L S
209 573 M 215 574 L S
215 574 M 215 574 L S
215 574 M 221 575 L S
221 575 M 221 575 L S
221 575 M 230 576 L S
230 576 M 230 576 L S
230 576 M 241 577 L S
241 577 M 241 577 L S
241 577 M 253 577 L S
253 577 M 253 577 L S
253 577 M 266 578 L S
266 578 M 266 578 L S
266 578 M 281 579 L S
281 579 M 281 579 L S
281 579 M 297 580 L S
297 580 M 297 580 L S
297 580 M 316 581 L S
316 581 M 316 581 L S
316 581 M 334 581 L S
334 581 M 334 581 L S
334 581 M 353 582 L S
353 582 M 353 582 L S
353 582 M 373 583 L S
373 583 M 373 583 L S
373 583 M 395 584 L S
395 584 M 395 584 L S
395 584 M 417 585 L S
417 585 M 417 585 L S
417 585 M 440 586 L S
440 586 M 440 586 L S
440 586 M 462 586 L S
462 586 M 462 586 L S
462 586 M 486 587 L S
486 587 M 486 587 L S
486 587 M 510 588 L S
510 588 M 510 588 L S
510 588 M 534 589 L S
534 589 M 534 589 L S
534 589 M 557 590 L S
557 590 M 557 590 L S
557 590 M 581 591 L S
581 591 M 581 591 L S
581 591 M 605 591 L S
605 591 M 605 591 L S
605 591 M 628 592 L S
628 592 M 628 592 L S
628 592 M 650 593 L S
650 593 M 650 593 L S
650 593 M 671 594 L S
671 594 M 671 594 L S
671 594 M 693 595 L S
693 595 M 693 595 L S
693 595 M 714 596 L S
714 596 M 714 596 L S
714 596 M 732 597 L S
732 597 M 732 597 L S
732 597 M 750 597 L S
750 597 M 750 597 L S
750 597 M 768 598 L S
768 598 M 768 598 L S
768 598 M 784 599 L S
784 599 M 784 599 L S
784 599 M 799 600 L S
799 600 M 799 600 L S
799 600 M 811 601 L S
811 601 M 811 601 L S
811 601 M 823 602 L S
823 602 M 823 602 L S
823 602 M 834 603 L S
834 603 M 834 603 L S
834 603 M 843 604 L S
843 604 M 843 604 L S
843 604 M 849 604 L S
849 604 M 849 604 L S
849 604 M 855 605 L S
855 605 M 855 605 L S
855 605 M 859 606 L S
859 606 M 859 606 L S
859 606 M 862 607 L S
862 608 M 862 608 L S
862 608 M 862 608 L S
860 609 M 860 609 L S
860 609 M 860 609 L S
858 610 M 858 610 L S
858 610 M 858 610 L S
854 611 M 854 611 L S
854 611 M 854 611 L S
847 611 M 847 611 L S
847 611 M 847 611 L S
839 612 M 839 612 L S
839 612 M 839 612 L S
830 613 M 830 613 L S
830 613 M 830 613 L S
820 614 M 820 614 L S
820 614 M 820 614 L S
808 615 M 808 615 L S
808 615 M 808 615 L S
793 616 M 793 616 L S
793 616 M 793 616 L S
778 617 M 778 617 L S
778 617 M 778 617 L S
763 618 M 763 618 L S
763 618 M 763 618 L S
746 618 M 746 618 L S
746 618 M 746 618 L S
727 619 M 727 619 L S
727 619 M 727 619 L S
708 620 M 708 620 L S
708 620 M 708 620 L S
688 621 M 688 621 L S
688 621 M 688 621 L S
668 622 M 668 622 L S
668 622 M 668 622 L S
646 623 M 646 623 L S
646 623 M 646 623 L S
623 624 M 623 624 L S
623 624 M 623 624 L S
601 624 M 601 624 L S
601 624 M 601 624 L S
579 625 M 579 625 L S
579 625 M 579 625 L S
556 626 M 556 626 L S
556 626 M 556 626 L S
533 627 M 533 627 L S
533 627 M 533 627 L S
510 628 M 510 628 L S
510 628 M 510 628 L S
487 629 M 487 629 L S
487 629 M 487 629 L S
465 629 M 465 629 L S
465 629 M 465 629 L S
443 630 M 443 630 L S
443 630 M 443 630 L S
421 631 M 421 631 L S
421 631 M 421 631 L S
400 632 M 400 632 L S
400 632 M 400 632 L S
381 633 M 381 633 L S
381 633 M 381 633 L S
362 633 M 362 633 L S
362 633 M 362 633 L S
343 634 M 343 634 L S
343 634 M 343 634 L S
325 635 M 325 635 L S
325 635 M 325 635 L S
310 636 M 310 636 L S
310 636 M 310 636 L S
295 637 M 295 637 L S
295 637 M 295 637 L S
281 638 M 281 638 L S
281 638 M 281 638 L S
268 638 M 268 638 L S
268 638 M 268 638 L S
257 639 M 257 639 L S
257 639 M 257 639 L S
248 640 M 248 640 L S
248 640 M 248 640 L S
240 641 M 240 641 L S
240 641 M 240 641 L S
233 641 M 233 641 L S
233 641 M 233 641 L S
228 642 M 228 642 L S
228 642 M 228 642 L S
226 643 M 226 643 L S
226 643 M 226 643 L S
224 644 M 224 644 L S
224 644 M 224 644 L S
223 645 M 223 645 L S
223 645 M 223 645 L S
223 645 M 223 645 L S
223 645 M 225 645 L S
225 645 M 225 645 L S
225 645 M 229 646 L S
229 646 M 229 646 L S
229 646 M 234 647 L S
234 647 M 234 647 L S
234 647 M 240 648 L S
240 648 M 240 648 L S
240 648 M 247 649 L S
247 649 M 247 649 L S
247 649 M 257 649 L S
257 649 M 257 649 L S
257 649 M 268 650 L S
268 650 M 268 650 L S
268 650 M 281 651 L S
281 651 M 281 651 L S
281 651 M 294 652 L S
294 652 M 294 652 L S
294 652 M 308 653 L S
308 653 M 308 653 L S
308 653 M 325 653 L S
325 653 M 325 653 L S
325 653 M 342 654 L S
342 654 M 342 654 L S
342 654 M 360 655 L S
360 655 M 360 655 L S
360 655 M 379 656 L S
379 656 M 379 656 L S
379 656 M 399 657 L S
399 657 M 399 657 L S
399 657 M 420 657 L S
420 657 M 420 657 L S
420 657 M 442 658 L S
442 658 M 442 658 L S
442 658 M 463 659 L S
463 659 M 463 659 L S
463 659 M 485 660 L S
485 660 M 485 660 L S
485 660 M 509 661 L S
509 661 M 509 661 L S
509 661 M 531 662 L S
531 662 M 531 662 L S
531 662 M 554 662 L S
554 662 M 554 662 L S
554 662 M 576 663 L S
576 663 M 576 663 L S
576 663 M 600 664 L S
600 664 M 600 664 L S
600 664 M 622 665 L S
622 665 M 622 665 L S
622 665 M 644 666 L S
644 666 M 644 666 L S
644 666 M 665 667 L S
665 667 M 665 667 L S
665 667 M 687 668 L S
687 668 M 687 668 L S
687 668 M 707 668 L S
707 668 M 707 668 L S
707 668 M 727 669 L S
727 669 M 727 669 L S
727 669 M 745 670 L S
745 670 M 745 670 L S
745 670 M 763 671 L S
763 671 M 763 671 L S
763 671 M 780 672 L S
780 672 M 780 672 L S
780 672 M 796 673 L S
796 673 M 796 673 L S
796 673 M 810 674 L S
810 674 M 810 674 L S
810 674 M 822 675 L S
822 675 M 822 675 L S
822 675 M 835 675 L S
835 675 M 835 675 L S
835 675 M 845 676 L S
845 676 M 845 676 L S
845 676 M 854 677 L S
854 677 M 854 677 L S
854 677 M 861 678 L S
861 678 M 861 678 L S
861 678 M 866 679 L S
866 679 M 866 679 L S
866 679 M 871 680 L S
871 680 M 871 680 L S
871 680 M 873 681 L S
872 682 M 872 682 L S
872 682 M 872 682 L S
871 682 M 871 682 L S
871 682 M 871 682 L S
868 683 M 868 683 L S
868 683 M 868 683 L S
864 684 M 864 684 L S
864 684 M 864 684 L S
857 685 M 857 685 L S
857 685 M 857 685 L S
848 686 M 848 686 L S
848 686 M 848 686 L S
839 687 M 839 687 L S
839 687 M 839 687 L S
828 688 M 828 688 L S
828 688 M 828 688 L S
815 689 M 815 689 L S
815 689 M 815 689 L S
800 689 M 800 689 L S
800 689 M 800 689 L S
785 690 M 785 690 L S
785 690 M 785 690 L S
769 691 M 769 691 L S
769 691 M 769 691 L S
751 692 M 751 692 L S
751 692 M 751 692 L S
731 693 M 731 693 L S
731 693 M 731 693 L S
711 694 M 711 694 L S
711 694 M 711 694 L S
690 695 M 690 695 L S
690 695 M 690 695 L S
669 696 M 669 696 L S
669 696 M 669 696 L S
646 696 M 646 696 L S
646 696 M 646 696 L S
622 697 M 622 697 L S
622 697 M 622 697 L S
599 698 M 599 698 L S
599 698 M 599 698 L S
575 699 M 575 699 L S
575 699 M 575 699 L S
551 700 M 551 700 L S
551 700 M 551 700 L S
526 701 M 526 701 L S
526 701 M 526 701 L S
501 701 M 501 701 L S
501 701 M 501 701 L S
477 702 M 477 702 L S
477 702 M 477 702 L S
453 703 M 453 703 L S
453 703 M 453 703 L S
429 704 M 429 704 L S
429 704 M 429 704 L S
405 705 M 405 705 L S
405 705 M 405 705 L S
383 705 M 383 705 L S
383 705 M 383 705 L S
361 706 M 361 706 L S
361 706 M 361 706 L S
340 707 M 340 707 L S
340 707 M 340 707 L S
318 708 M 318 708 L S
318 708 M 318 708 L S
299 709 M 299 709 L S
299 709 M 299 709 L S
281 710 M 281 710 L S
281 710 M 281 710 L S
264 710 M 264 710 L S
264 710 M 264 710 L S
247 711 M 247 711 L S
247 711 M 247 711 L S
233 712 M 233 712 L S
233 712 M 233 712 L S
220 713 M 220 713 L S
220 713 M 220 713 L S
208 713 M 208 713 L S
208 713 M 208 713 L S
197 714 M 197 714 L S
197 714 M 197 714 L S
188 715 M 188 715 L S
188 715 M 188 715 L S
181 716 M 181 716 L S
181 716 M 181 716 L S
176 717 M 176 717 L S
176 717 M 176 717 L S
172 717 M 172 717 L S
172 717 M 172 717 L S
169 718 M 169 718 L S
169 718 M 169 718 L S
169 719 M 169 719 L S
169 719 M 169 719 L S
169 719 M 169 719 L S
169 719 M 170 720 L S
170 720 M 170 720 L S
170 720 M 173 721 L S
173 721 M 173 721 L S
173 721 M 177 721 L S
177 721 M 177 721 L S
177 721 M 183 722 L S
183 722 M 183 722 L S
183 722 M 191 723 L S
191 723 M 191 723 L S
191 723 M 200 724 L S
200 724 M 200 724 L S
200 724 M 211 724 L S
211 724 M 211 724 L S
211 724 M 223 725 L S
223 725 M 223 725 L S
223 725 M 237 726 L S
237 726 M 237 726 L S
237 726 M 252 727 L S
252 727 M 252 727 L S
252 727 M 268 728 L S
268 728 M 268 728 L S
268 728 M 285 728 L S
285 728 M 285 728 L S
285 728 M 304 729 L S
304 729 M 304 729 L S
304 729 M 324 730 L S
324 730 M 324 730 L S
324 730 M 345 731 L S
345 731 M 345 731 L S
345 731 M 366 732 L S
366 732 M 366 732 L S
366 732 M 388 733 L S
388 733 M 388 733 L S
388 733 M 411 733 L S
411 733 M 411 733 L S
411 733 M 435 734 L S
435 734 M 435 734 L S
435 734 M 459 735 L S
459 735 M 459 735 L S
459 735 M 482 736 L S
482 736 M 482 736 L S
482 736 M 507 737 L S
507 737 M 507 737 L S
507 737 M 532 737 L S
532 737 M 532 737 L S
532 737 M 556 738 L S
556 738 M 556 738 L S
556 738 M 580 739 L S
580 739 M 580 739 L S
580 739 M 604 740 L S
604 740 M 604 740 L S
/Courier-Bold findfont 27 scalefont setfont
101 764 M (Zgoubi|Zpop                                                                     ) H
101 743 M (22-11-2019                                                                      ) H
/Courier-Bold findfont 26 scalefont setfont
160 85 M (* # COORDINATES  - STORAGE FILE, 22-11-2019 03:34:12 *                                                                            ) H
293 755 M (KinEnr  (MeV) vs. Phase   (rad)                                                                                                   ) H
26 42 M (Mi-ma H/V:   3.22123E-01  3.75324E-01/  1.20137E+01  2.15634E+01                                                                  ) H
26 21 M (Part#  1- 10000 (*); Lmnt#     1; pass#       1-    700, [    1];    700 pnts                                                     ) H
showpage
