%!PS-Adobe-2.0 EPSF-2.0
%%Title: gnuplot_Zfai_s-SXYZ.eps
%%Creator: gnuplot 5.2 patchlevel 2
%%CreationDate: Thu May 12 08:31:54 2022
%%DocumentFonts: (atend)
%%BoundingBox: 50 50 410 302
%%EndComments
%%BeginProlog
/gnudict 256 dict def
gnudict begin
%
% The following true/false flags may be edited by hand if desired.
% The unit line width and grayscale image gamma correction may also be changed.
%
/Color true def
/Blacktext true def
/Solid false def
/Dashlength 1 def
/Landscape false def
/Level1 false def
/Level3 false def
/Rounded false def
/ClipToBoundingBox false def
/SuppressPDFMark false def
/TransparentPatterns false def
/gnulinewidth 5.000 def
/userlinewidth gnulinewidth def
/Gamma 1.0 def
/BackgroundColor {-1.000 -1.000 -1.000} def
%
/vshift -46 def
/dl1 {
  10.0 Dashlength userlinewidth gnulinewidth div mul mul mul
  Rounded { currentlinewidth 0.75 mul sub dup 0 le { pop 0.01 } if } if
} def
/dl2 {
  10.0 Dashlength userlinewidth gnulinewidth div mul mul mul
  Rounded { currentlinewidth 0.75 mul add } if
} def
/hpt_ 31.5 def
/vpt_ 31.5 def
/hpt hpt_ def
/vpt vpt_ def
/doclip {
  ClipToBoundingBox {
    newpath 50 50 moveto 410 50 lineto 410 302 lineto 50 302 lineto closepath
    clip
  } if
} def
%
% Gnuplot Prolog Version 5.1 (Oct 2015)
%
%/SuppressPDFMark true def
%
/M {moveto} bind def
/L {lineto} bind def
/R {rmoveto} bind def
/V {rlineto} bind def
/N {newpath moveto} bind def
/Z {closepath} bind def
/C {setrgbcolor} bind def
/f {rlineto fill} bind def
/g {setgray} bind def
/Gshow {show} def   % May be redefined later in the file to support UTF-8
/vpt2 vpt 2 mul def
/hpt2 hpt 2 mul def
/Lshow {currentpoint stroke M 0 vshift R 
	Blacktext {gsave 0 setgray textshow grestore} {textshow} ifelse} def
/Rshow {currentpoint stroke M dup stringwidth pop neg vshift R
	Blacktext {gsave 0 setgray textshow grestore} {textshow} ifelse} def
/Cshow {currentpoint stroke M dup stringwidth pop -2 div vshift R 
	Blacktext {gsave 0 setgray textshow grestore} {textshow} ifelse} def
/UP {dup vpt_ mul /vpt exch def hpt_ mul /hpt exch def
  /hpt2 hpt 2 mul def /vpt2 vpt 2 mul def} def
/DL {Color {setrgbcolor Solid {pop []} if 0 setdash}
 {pop pop pop 0 setgray Solid {pop []} if 0 setdash} ifelse} def
/BL {stroke userlinewidth 2 mul setlinewidth
	Rounded {1 setlinejoin 1 setlinecap} if} def
/AL {stroke userlinewidth 2 div setlinewidth
	Rounded {1 setlinejoin 1 setlinecap} if} def
/UL {dup gnulinewidth mul /userlinewidth exch def
	dup 1 lt {pop 1} if 10 mul /udl exch def} def
/PL {stroke userlinewidth setlinewidth
	Rounded {1 setlinejoin 1 setlinecap} if} def
3.8 setmiterlimit
% Classic Line colors (version 5.0)
/LCw {1 1 1} def
/LCb {0 0 0} def
/LCa {0 0 0} def
/LC0 {1 0 0} def
/LC1 {0 1 0} def
/LC2 {0 0 1} def
/LC3 {1 0 1} def
/LC4 {0 1 1} def
/LC5 {1 1 0} def
/LC6 {0 0 0} def
/LC7 {1 0.3 0} def
/LC8 {0.5 0.5 0.5} def
% Default dash patterns (version 5.0)
/LTB {BL [] LCb DL} def
/LTw {PL [] 1 setgray} def
/LTb {PL [] LCb DL} def
/LTa {AL [1 udl mul 2 udl mul] 0 setdash LCa setrgbcolor} def
/LT0 {PL [] LC0 DL} def
/LT1 {PL [2 dl1 3 dl2] LC1 DL} def
/LT2 {PL [1 dl1 1.5 dl2] LC2 DL} def
/LT3 {PL [6 dl1 2 dl2 1 dl1 2 dl2] LC3 DL} def
/LT4 {PL [1 dl1 2 dl2 6 dl1 2 dl2 1 dl1 2 dl2] LC4 DL} def
/LT5 {PL [4 dl1 2 dl2] LC5 DL} def
/LT6 {PL [1.5 dl1 1.5 dl2 1.5 dl1 1.5 dl2 1.5 dl1 6 dl2] LC6 DL} def
/LT7 {PL [3 dl1 3 dl2 1 dl1 3 dl2] LC7 DL} def
/LT8 {PL [2 dl1 2 dl2 2 dl1 6 dl2] LC8 DL} def
/SL {[] 0 setdash} def
/Pnt {stroke [] 0 setdash gsave 1 setlinecap M 0 0 V stroke grestore} def
/Dia {stroke [] 0 setdash 2 copy vpt add M
  hpt neg vpt neg V hpt vpt neg V
  hpt vpt V hpt neg vpt V closepath stroke
  Pnt} def
/Pls {stroke [] 0 setdash vpt sub M 0 vpt2 V
  currentpoint stroke M
  hpt neg vpt neg R hpt2 0 V stroke
 } def
/Box {stroke [] 0 setdash 2 copy exch hpt sub exch vpt add M
  0 vpt2 neg V hpt2 0 V 0 vpt2 V
  hpt2 neg 0 V closepath stroke
  Pnt} def
/Crs {stroke [] 0 setdash exch hpt sub exch vpt add M
  hpt2 vpt2 neg V currentpoint stroke M
  hpt2 neg 0 R hpt2 vpt2 V stroke} def
/TriU {stroke [] 0 setdash 2 copy vpt 1.12 mul add M
  hpt neg vpt -1.62 mul V
  hpt 2 mul 0 V
  hpt neg vpt 1.62 mul V closepath stroke
  Pnt} def
/Star {2 copy Pls Crs} def
/BoxF {stroke [] 0 setdash exch hpt sub exch vpt add M
  0 vpt2 neg V hpt2 0 V 0 vpt2 V
  hpt2 neg 0 V closepath fill} def
/TriUF {stroke [] 0 setdash vpt 1.12 mul add M
  hpt neg vpt -1.62 mul V
  hpt 2 mul 0 V
  hpt neg vpt 1.62 mul V closepath fill} def
/TriD {stroke [] 0 setdash 2 copy vpt 1.12 mul sub M
  hpt neg vpt 1.62 mul V
  hpt 2 mul 0 V
  hpt neg vpt -1.62 mul V closepath stroke
  Pnt} def
/TriDF {stroke [] 0 setdash vpt 1.12 mul sub M
  hpt neg vpt 1.62 mul V
  hpt 2 mul 0 V
  hpt neg vpt -1.62 mul V closepath fill} def
/DiaF {stroke [] 0 setdash vpt add M
  hpt neg vpt neg V hpt vpt neg V
  hpt vpt V hpt neg vpt V closepath fill} def
/Pent {stroke [] 0 setdash 2 copy gsave
  translate 0 hpt M 4 {72 rotate 0 hpt L} repeat
  closepath stroke grestore Pnt} def
/PentF {stroke [] 0 setdash gsave
  translate 0 hpt M 4 {72 rotate 0 hpt L} repeat
  closepath fill grestore} def
/Circle {stroke [] 0 setdash 2 copy
  hpt 0 360 arc stroke Pnt} def
/CircleF {stroke [] 0 setdash hpt 0 360 arc fill} def
/C0 {BL [] 0 setdash 2 copy moveto vpt 90 450 arc} bind def
/C1 {BL [] 0 setdash 2 copy moveto
	2 copy vpt 0 90 arc closepath fill
	vpt 0 360 arc closepath} bind def
/C2 {BL [] 0 setdash 2 copy moveto
	2 copy vpt 90 180 arc closepath fill
	vpt 0 360 arc closepath} bind def
/C3 {BL [] 0 setdash 2 copy moveto
	2 copy vpt 0 180 arc closepath fill
	vpt 0 360 arc closepath} bind def
/C4 {BL [] 0 setdash 2 copy moveto
	2 copy vpt 180 270 arc closepath fill
	vpt 0 360 arc closepath} bind def
/C5 {BL [] 0 setdash 2 copy moveto
	2 copy vpt 0 90 arc
	2 copy moveto
	2 copy vpt 180 270 arc closepath fill
	vpt 0 360 arc} bind def
/C6 {BL [] 0 setdash 2 copy moveto
	2 copy vpt 90 270 arc closepath fill
	vpt 0 360 arc closepath} bind def
/C7 {BL [] 0 setdash 2 copy moveto
	2 copy vpt 0 270 arc closepath fill
	vpt 0 360 arc closepath} bind def
/C8 {BL [] 0 setdash 2 copy moveto
	2 copy vpt 270 360 arc closepath fill
	vpt 0 360 arc closepath} bind def
/C9 {BL [] 0 setdash 2 copy moveto
	2 copy vpt 270 450 arc closepath fill
	vpt 0 360 arc closepath} bind def
/C10 {BL [] 0 setdash 2 copy 2 copy moveto vpt 270 360 arc closepath fill
	2 copy moveto
	2 copy vpt 90 180 arc closepath fill
	vpt 0 360 arc closepath} bind def
/C11 {BL [] 0 setdash 2 copy moveto
	2 copy vpt 0 180 arc closepath fill
	2 copy moveto
	2 copy vpt 270 360 arc closepath fill
	vpt 0 360 arc closepath} bind def
/C12 {BL [] 0 setdash 2 copy moveto
	2 copy vpt 180 360 arc closepath fill
	vpt 0 360 arc closepath} bind def
/C13 {BL [] 0 setdash 2 copy moveto
	2 copy vpt 0 90 arc closepath fill
	2 copy moveto
	2 copy vpt 180 360 arc closepath fill
	vpt 0 360 arc closepath} bind def
/C14 {BL [] 0 setdash 2 copy moveto
	2 copy vpt 90 360 arc closepath fill
	vpt 0 360 arc} bind def
/C15 {BL [] 0 setdash 2 copy vpt 0 360 arc closepath fill
	vpt 0 360 arc closepath} bind def
/Rec {newpath 4 2 roll moveto 1 index 0 rlineto 0 exch rlineto
	neg 0 rlineto closepath} bind def
/Square {dup Rec} bind def
/Bsquare {vpt sub exch vpt sub exch vpt2 Square} bind def
/S0 {BL [] 0 setdash 2 copy moveto 0 vpt rlineto BL Bsquare} bind def
/S1 {BL [] 0 setdash 2 copy vpt Square fill Bsquare} bind def
/S2 {BL [] 0 setdash 2 copy exch vpt sub exch vpt Square fill Bsquare} bind def
/S3 {BL [] 0 setdash 2 copy exch vpt sub exch vpt2 vpt Rec fill Bsquare} bind def
/S4 {BL [] 0 setdash 2 copy exch vpt sub exch vpt sub vpt Square fill Bsquare} bind def
/S5 {BL [] 0 setdash 2 copy 2 copy vpt Square fill
	exch vpt sub exch vpt sub vpt Square fill Bsquare} bind def
/S6 {BL [] 0 setdash 2 copy exch vpt sub exch vpt sub vpt vpt2 Rec fill Bsquare} bind def
/S7 {BL [] 0 setdash 2 copy exch vpt sub exch vpt sub vpt vpt2 Rec fill
	2 copy vpt Square fill Bsquare} bind def
/S8 {BL [] 0 setdash 2 copy vpt sub vpt Square fill Bsquare} bind def
/S9 {BL [] 0 setdash 2 copy vpt sub vpt vpt2 Rec fill Bsquare} bind def
/S10 {BL [] 0 setdash 2 copy vpt sub vpt Square fill 2 copy exch vpt sub exch vpt Square fill
	Bsquare} bind def
/S11 {BL [] 0 setdash 2 copy vpt sub vpt Square fill 2 copy exch vpt sub exch vpt2 vpt Rec fill
	Bsquare} bind def
/S12 {BL [] 0 setdash 2 copy exch vpt sub exch vpt sub vpt2 vpt Rec fill Bsquare} bind def
/S13 {BL [] 0 setdash 2 copy exch vpt sub exch vpt sub vpt2 vpt Rec fill
	2 copy vpt Square fill Bsquare} bind def
/S14 {BL [] 0 setdash 2 copy exch vpt sub exch vpt sub vpt2 vpt Rec fill
	2 copy exch vpt sub exch vpt Square fill Bsquare} bind def
/S15 {BL [] 0 setdash 2 copy Bsquare fill Bsquare} bind def
/D0 {gsave translate 45 rotate 0 0 S0 stroke grestore} bind def
/D1 {gsave translate 45 rotate 0 0 S1 stroke grestore} bind def
/D2 {gsave translate 45 rotate 0 0 S2 stroke grestore} bind def
/D3 {gsave translate 45 rotate 0 0 S3 stroke grestore} bind def
/D4 {gsave translate 45 rotate 0 0 S4 stroke grestore} bind def
/D5 {gsave translate 45 rotate 0 0 S5 stroke grestore} bind def
/D6 {gsave translate 45 rotate 0 0 S6 stroke grestore} bind def
/D7 {gsave translate 45 rotate 0 0 S7 stroke grestore} bind def
/D8 {gsave translate 45 rotate 0 0 S8 stroke grestore} bind def
/D9 {gsave translate 45 rotate 0 0 S9 stroke grestore} bind def
/D10 {gsave translate 45 rotate 0 0 S10 stroke grestore} bind def
/D11 {gsave translate 45 rotate 0 0 S11 stroke grestore} bind def
/D12 {gsave translate 45 rotate 0 0 S12 stroke grestore} bind def
/D13 {gsave translate 45 rotate 0 0 S13 stroke grestore} bind def
/D14 {gsave translate 45 rotate 0 0 S14 stroke grestore} bind def
/D15 {gsave translate 45 rotate 0 0 S15 stroke grestore} bind def
/DiaE {stroke [] 0 setdash vpt add M
  hpt neg vpt neg V hpt vpt neg V
  hpt vpt V hpt neg vpt V closepath stroke} def
/BoxE {stroke [] 0 setdash exch hpt sub exch vpt add M
  0 vpt2 neg V hpt2 0 V 0 vpt2 V
  hpt2 neg 0 V closepath stroke} def
/TriUE {stroke [] 0 setdash vpt 1.12 mul add M
  hpt neg vpt -1.62 mul V
  hpt 2 mul 0 V
  hpt neg vpt 1.62 mul V closepath stroke} def
/TriDE {stroke [] 0 setdash vpt 1.12 mul sub M
  hpt neg vpt 1.62 mul V
  hpt 2 mul 0 V
  hpt neg vpt -1.62 mul V closepath stroke} def
/PentE {stroke [] 0 setdash gsave
  translate 0 hpt M 4 {72 rotate 0 hpt L} repeat
  closepath stroke grestore} def
/CircE {stroke [] 0 setdash 
  hpt 0 360 arc stroke} def
/Opaque {gsave closepath 1 setgray fill grestore 0 setgray closepath} def
/DiaW {stroke [] 0 setdash vpt add M
  hpt neg vpt neg V hpt vpt neg V
  hpt vpt V hpt neg vpt V Opaque stroke} def
/BoxW {stroke [] 0 setdash exch hpt sub exch vpt add M
  0 vpt2 neg V hpt2 0 V 0 vpt2 V
  hpt2 neg 0 V Opaque stroke} def
/TriUW {stroke [] 0 setdash vpt 1.12 mul add M
  hpt neg vpt -1.62 mul V
  hpt 2 mul 0 V
  hpt neg vpt 1.62 mul V Opaque stroke} def
/TriDW {stroke [] 0 setdash vpt 1.12 mul sub M
  hpt neg vpt 1.62 mul V
  hpt 2 mul 0 V
  hpt neg vpt -1.62 mul V Opaque stroke} def
/PentW {stroke [] 0 setdash gsave
  translate 0 hpt M 4 {72 rotate 0 hpt L} repeat
  Opaque stroke grestore} def
/CircW {stroke [] 0 setdash 
  hpt 0 360 arc Opaque stroke} def
/BoxFill {gsave Rec 1 setgray fill grestore} def
/Density {
  /Fillden exch def
  currentrgbcolor
  /ColB exch def /ColG exch def /ColR exch def
  /ColR ColR Fillden mul Fillden sub 1 add def
  /ColG ColG Fillden mul Fillden sub 1 add def
  /ColB ColB Fillden mul Fillden sub 1 add def
  ColR ColG ColB setrgbcolor} def
/BoxColFill {gsave Rec PolyFill} def
/PolyFill {gsave Density fill grestore grestore} def
/h {rlineto rlineto rlineto gsave closepath fill grestore} bind def
%
% PostScript Level 1 Pattern Fill routine for rectangles
% Usage: x y w h s a XX PatternFill
%	x,y = lower left corner of box to be filled
%	w,h = width and height of box
%	  a = angle in degrees between lines and x-axis
%	 XX = 0/1 for no/yes cross-hatch
%
/PatternFill {gsave /PFa [ 9 2 roll ] def
  PFa 0 get PFa 2 get 2 div add PFa 1 get PFa 3 get 2 div add translate
  PFa 2 get -2 div PFa 3 get -2 div PFa 2 get PFa 3 get Rec
  TransparentPatterns {} {gsave 1 setgray fill grestore} ifelse
  clip
  currentlinewidth 0.5 mul setlinewidth
  /PFs PFa 2 get dup mul PFa 3 get dup mul add sqrt def
  0 0 M PFa 5 get rotate PFs -2 div dup translate
  0 1 PFs PFa 4 get div 1 add floor cvi
	{PFa 4 get mul 0 M 0 PFs V} for
  0 PFa 6 get ne {
	0 1 PFs PFa 4 get div 1 add floor cvi
	{PFa 4 get mul 0 2 1 roll M PFs 0 V} for
 } if
  stroke grestore} def
%
/languagelevel where
 {pop languagelevel} {1} ifelse
dup 2 lt
	{/InterpretLevel1 true def
	 /InterpretLevel3 false def}
	{/InterpretLevel1 Level1 def
	 2 gt
	    {/InterpretLevel3 Level3 def}
	    {/InterpretLevel3 false def}
	 ifelse }
 ifelse
%
% PostScript level 2 pattern fill definitions
%
/Level2PatternFill {
/Tile8x8 {/PaintType 2 /PatternType 1 /TilingType 1 /BBox [0 0 8 8] /XStep 8 /YStep 8}
	bind def
/KeepColor {currentrgbcolor [/Pattern /DeviceRGB] setcolorspace} bind def
<< Tile8x8
 /PaintProc {0.5 setlinewidth pop 0 0 M 8 8 L 0 8 M 8 0 L stroke} 
>> matrix makepattern
/Pat1 exch def
<< Tile8x8
 /PaintProc {0.5 setlinewidth pop 0 0 M 8 8 L 0 8 M 8 0 L stroke
	0 4 M 4 8 L 8 4 L 4 0 L 0 4 L stroke}
>> matrix makepattern
/Pat2 exch def
<< Tile8x8
 /PaintProc {0.5 setlinewidth pop 0 0 M 0 8 L
	8 8 L 8 0 L 0 0 L fill}
>> matrix makepattern
/Pat3 exch def
<< Tile8x8
 /PaintProc {0.5 setlinewidth pop -4 8 M 8 -4 L
	0 12 M 12 0 L stroke}
>> matrix makepattern
/Pat4 exch def
<< Tile8x8
 /PaintProc {0.5 setlinewidth pop -4 0 M 8 12 L
	0 -4 M 12 8 L stroke}
>> matrix makepattern
/Pat5 exch def
<< Tile8x8
 /PaintProc {0.5 setlinewidth pop -2 8 M 4 -4 L
	0 12 M 8 -4 L 4 12 M 10 0 L stroke}
>> matrix makepattern
/Pat6 exch def
<< Tile8x8
 /PaintProc {0.5 setlinewidth pop -2 0 M 4 12 L
	0 -4 M 8 12 L 4 -4 M 10 8 L stroke}
>> matrix makepattern
/Pat7 exch def
<< Tile8x8
 /PaintProc {0.5 setlinewidth pop 8 -2 M -4 4 L
	12 0 M -4 8 L 12 4 M 0 10 L stroke}
>> matrix makepattern
/Pat8 exch def
<< Tile8x8
 /PaintProc {0.5 setlinewidth pop 0 -2 M 12 4 L
	-4 0 M 12 8 L -4 4 M 8 10 L stroke}
>> matrix makepattern
/Pat9 exch def
/Pattern1 {PatternBgnd KeepColor Pat1 setpattern} bind def
/Pattern2 {PatternBgnd KeepColor Pat2 setpattern} bind def
/Pattern3 {PatternBgnd KeepColor Pat3 setpattern} bind def
/Pattern4 {PatternBgnd KeepColor Landscape {Pat5} {Pat4} ifelse setpattern} bind def
/Pattern5 {PatternBgnd KeepColor Landscape {Pat4} {Pat5} ifelse setpattern} bind def
/Pattern6 {PatternBgnd KeepColor Landscape {Pat9} {Pat6} ifelse setpattern} bind def
/Pattern7 {PatternBgnd KeepColor Landscape {Pat8} {Pat7} ifelse setpattern} bind def
} def
%
%
%End of PostScript Level 2 code
%
/PatternBgnd {
  TransparentPatterns {} {gsave 1 setgray fill grestore} ifelse
} def
%
% Substitute for Level 2 pattern fill codes with
% grayscale if Level 2 support is not selected.
%
/Level1PatternFill {
/Pattern1 {0.250 Density} bind def
/Pattern2 {0.500 Density} bind def
/Pattern3 {0.750 Density} bind def
/Pattern4 {0.125 Density} bind def
/Pattern5 {0.375 Density} bind def
/Pattern6 {0.625 Density} bind def
/Pattern7 {0.875 Density} bind def
} def
%
% Now test for support of Level 2 code
%
Level1 {Level1PatternFill} {Level2PatternFill} ifelse
%
/Symbol-Oblique /Symbol findfont [1 0 .167 1 0 0] makefont
dup length dict begin {1 index /FID eq {pop pop} {def} ifelse} forall
currentdict end definefont pop
%
/Metrics {ExtendTextBox Gswidth} def
/Lwidth {currentpoint stroke M 0 vshift R Metrics} def
/Rwidth {currentpoint stroke M dup stringwidth pop neg vshift R Metrics} def
/Cwidth {currentpoint stroke M dup stringwidth pop -2 div vshift R Metrics} def
/GLwidth {currentpoint stroke M 0 vshift R {ExtendTextBox} forall} def
/GRwidth {currentpoint stroke M dup Gwidth vshift R {ExtendTextBox} forall} def
/GCwidth {currentpoint stroke M dup Gwidth 2 div vshift R {ExtendTextBox} forall} def
/GLwidth2 {0 Gwidth AddGlyphWidth} def
/GRwidth2 {Gwidth -1 mul 0 AddGlyphWidth} def
/GCwidth2 {Gwidth 2 div dup -1 mul AddGlyphWidth} def
/AddGlyphWidth { dup TBx2 gt {userdict /TBx2 3 -1 roll put} {pop} ifelse
                 dup TBx1 lt {userdict /TBx1 3 -1 roll put} {pop} ifelse } def
/MFshow {
   { dup 5 get 3 ge
     { 5 get 3 eq {gsave} {grestore} ifelse }
     {dup dup 0 get findfont exch 1 get scalefont setfont
     [ currentpoint ] exch dup 2 get 0 exch R dup 5 get 2 ne {dup dup 6
     get exch 4 get {textshow} {Metrics pop 0 R} ifelse }if dup 5 get 0 eq
     {dup 3 get {2 get neg 0 exch R pop} {pop aload pop M} ifelse} {dup 5
     get 1 eq {dup 2 get exch dup 3 get exch 6 get Gswidth pop -2 div
     dup 0 R} {dup 6 get Gswidth pop -2 div 0 R 6 get
     textshow 2 index {aload pop M neg 3 -1 roll neg R pop pop} {pop pop pop
     pop aload pop M} ifelse }ifelse }ifelse }
     ifelse }
   forall} def
/Gswidth {dup type /stringtype eq {stringwidth} {pop (n) stringwidth} ifelse} def
/MFwidth {0 exch { dup 5 get 3 ge { 5 get 3 eq { 0 } { pop } ifelse }
 {dup 3 get{dup dup 0 get findfont exch 1 get scalefont setfont
     6 get Gswidth pop add} {pop} ifelse} ifelse} forall} def
/MLshow { currentpoint stroke M
  0 exch R
  Blacktext {gsave 0 setgray MFshow grestore} {MFshow} ifelse } bind def
/MRshow { currentpoint stroke M
  exch dup MFwidth neg 3 -1 roll R
  Blacktext {gsave 0 setgray MFshow grestore} {MFshow} ifelse } bind def
/MCshow { currentpoint stroke M
  exch dup MFwidth -2 div 3 -1 roll R
  Blacktext {gsave 0 setgray MFshow grestore} {MFshow} ifelse } bind def
/XYsave    { [( ) 1 2 true false 3 ()] } bind def
/XYrestore { [( ) 1 2 true false 4 ()] } bind def
Level1 SuppressPDFMark or 
{} {
/SDict 10 dict def
systemdict /pdfmark known not {
  userdict /pdfmark systemdict /cleartomark get put
} if
SDict begin [
  /Title (gnuplot_Zfai_s-SXYZ.eps)
  /Subject (gnuplot plot)
  /Creator (gnuplot 5.2 patchlevel 2)
%  /Producer (gnuplot)
%  /Keywords ()
  /CreationDate (Thu May 12 08:31:54 2022)
  /DOCINFO pdfmark
end
} ifelse
%
% Support for boxed text - Ethan A Merritt Sep 2016
%
/InitTextBox { userdict /TBy2 3 -1 roll put userdict /TBx2 3 -1 roll put
           userdict /TBy1 3 -1 roll put userdict /TBx1 3 -1 roll put
	   /Boxing true def } def
/ExtendTextBox { dup type /stringtype eq
    { Boxing { gsave dup false charpath pathbbox
      dup TBy2 gt {userdict /TBy2 3 -1 roll put} {pop} ifelse
      dup TBx2 gt {userdict /TBx2 3 -1 roll put} {pop} ifelse
      dup TBy1 lt {userdict /TBy1 3 -1 roll put} {pop} ifelse
      dup TBx1 lt {userdict /TBx1 3 -1 roll put} {pop} ifelse
      grestore } if }
    {} ifelse} def
/PopTextBox { newpath TBx1 TBxmargin sub TBy1 TBymargin sub M
               TBx1 TBxmargin sub TBy2 TBymargin add L
	       TBx2 TBxmargin add TBy2 TBymargin add L
	       TBx2 TBxmargin add TBy1 TBymargin sub L closepath } def
/DrawTextBox { PopTextBox stroke /Boxing false def} def
/FillTextBox { gsave PopTextBox fill grestore /Boxing false def} def
0 0 0 0 InitTextBox
/TBxmargin 20 def
/TBymargin 20 def
/Boxing false def
/textshow { ExtendTextBox Gshow } def
%
end
%%EndProlog
%%Page: 1 1
gnudict begin
gsave
doclip
50 50 translate
0.050 0.050 scale
0 setgray
newpath
(Helvetica) findfont 140 scalefont setfont
BackgroundColor 0 lt 3 1 roll 0 lt exch 0 lt or or not {BackgroundColor C 1.000 0 0 7200.00 5040.00 BoxColFill} if
1.000 UL
LTb
LCb setrgbcolor
686 711 M
63 0 V
6198 0 R
-63 0 V
stroke
602 711 M
[ [(Helvetica) 140.0 0.0 true true 0 (-1)]
] -46.7 MRshow
1.000 UL
LTb
LCb setrgbcolor
686 1587 M
63 0 V
6198 0 R
-63 0 V
stroke
602 1587 M
[ [(Helvetica) 140.0 0.0 true true 0 (-0.5)]
] -46.7 MRshow
1.000 UL
LTb
LCb setrgbcolor
686 2464 M
63 0 V
6198 0 R
-63 0 V
stroke
602 2464 M
[ [(Helvetica) 140.0 0.0 true true 0 ( 0)]
] -46.7 MRshow
1.000 UL
LTb
LCb setrgbcolor
686 3340 M
63 0 V
6198 0 R
-63 0 V
stroke
602 3340 M
[ [(Helvetica) 140.0 0.0 true true 0 ( 0.5)]
] -46.7 MRshow
1.000 UL
LTb
LCb setrgbcolor
686 4216 M
63 0 V
6198 0 R
-63 0 V
stroke
602 4216 M
[ [(Helvetica) 140.0 0.0 true true 0 ( 1)]
] -46.7 MRshow
1.000 UL
LTb
LCb setrgbcolor
686 448 M
0 63 V
0 3968 R
0 -63 V
stroke
686 308 M
[ [(Helvetica) 140.0 0.0 true true 0 ( 0)]
] -46.7 MCshow
1.000 UL
LTb
LCb setrgbcolor
1611 448 M
0 63 V
0 3968 R
0 -63 V
stroke
1611 308 M
[ [(Helvetica) 140.0 0.0 true true 0 ( 500)]
] -46.7 MCshow
1.000 UL
LTb
LCb setrgbcolor
2536 448 M
0 63 V
0 3968 R
0 -63 V
stroke
2536 308 M
[ [(Helvetica) 140.0 0.0 true true 0 ( 1000)]
] -46.7 MCshow
1.000 UL
LTb
LCb setrgbcolor
3461 448 M
0 63 V
0 3968 R
0 -63 V
stroke
3461 308 M
[ [(Helvetica) 140.0 0.0 true true 0 ( 1500)]
] -46.7 MCshow
1.000 UL
LTb
LCb setrgbcolor
4386 448 M
0 63 V
0 3968 R
0 -63 V
stroke
4386 308 M
[ [(Helvetica) 140.0 0.0 true true 0 ( 2000)]
] -46.7 MCshow
1.000 UL
LTb
LCb setrgbcolor
5311 448 M
0 63 V
0 3968 R
0 -63 V
stroke
5311 308 M
[ [(Helvetica) 140.0 0.0 true true 0 ( 2500)]
] -46.7 MCshow
1.000 UL
LTb
LCb setrgbcolor
6237 448 M
0 63 V
0 3968 R
0 -63 V
stroke
6237 308 M
[ [(Helvetica) 140.0 0.0 true true 0 ( 3000)]
] -46.7 MCshow
1.000 UL
LTb
LCb setrgbcolor
1.000 UL
LTB
LCb setrgbcolor
686 4479 N
686 448 L
6261 0 V
0 4031 V
-6261 0 V
Z stroke
1.000 UP
1.000 UL
LTb
LCb setrgbcolor
LCb setrgbcolor
126 2463 M
currentpoint gsave translate -270 rotate 0 0 moveto
[ [(Helvetica) 140.0 0.0 true true 0 (n)]
[(Helvetica) 112.0 -42.0 true true 0 (0,X)]
[(Helvetica) 140.0 0.0 true true 0 (,   n)]
[(Helvetica) 112.0 -42.0 true true 0 (0,Y)]
[(Helvetica) 140.0 0.0 true true 0 (,   n)]
[(Helvetica) 112.0 -42.0 true true 0 (0,Z)]
] -32.7 MCshow
grestore
LTb
LCb setrgbcolor
3816 98 M
[ [(Helvetica) 140.0 0.0 true true 0 (s  [m])]
] -46.7 MCshow
LTb
LCb setrgbcolor
3816 4829 M
[ [(Helvetica) 140.0 0.0 true true 0 (Spin component\(s\) vs. s  )]
] -46.7 MCshow
3816 4689 M
[ [(Helvetica) 140.0 0.0 true true 0 ( from zgoubi.fai)]
] -46.7 MCshow
% Begin plot #1
0.400 UP
1.000 UL
LTb
1.00 0.00 0.00 C LCb setrgbcolor
1022 4346 M
[ [(Helvetica) 140.0 0.0 true true 0 (n)]
[(Helvetica) 112.0 -42.0 true true 0 (0,X)]
] -32.7 MRshow
0.400 UP
1.000 UL
LTb
1.00 0.00 0.00 C 1106 4346 M
399 0 V
686 4213 M
18 0 R
711 770 M
13 0 R
7 1356 R
2 0 R
5 -11 R
9 33 R
5 -19 R
2 0 R
4 0 R
41 0 R
11 -970 R
-1 0 R
11 1239 R
1 0 R
2 1 R
5 102 R
8 0 R
2 2 R
3 -20 R
5 0 R
17 60 R
2 -2 R
3 23 R
15 0 R
6 -5 R
3 0 R
3 4 R
24 0 R
4 -36 R
3 0 R
17 3 R
3 0 R
5 18 R
14 0 R
8 -11 R
1 0 R
4 -25 R
3 0 R
17 5 R
2 0 R
4 -3 R
4 0 R
17 5 R
3 0 R
3 34 R
4 0 R
18 4 R
2 0 R
4 -18 R
4 0 R
17 3 R
2 0 R
4 25 R
4 0 R
18 1 R
2 0 R
3 3 R
4 0 R
18 0 R
2 0 R
4 -34 R
4 0 R
17 -1 R
3 0 R
3 18 R
4 0 R
18 -3 R
2 0 R
4 -26 R
4 0 R
17 -3 R
2 0 R
4 -2 R
4 0 R
17 -3 R
3 0 R
3 33 R
4 0 R
18 -4 R
2 0 R
4 -18 R
4 0 R
17 -6 R
2 0 R
4 27 R
4 0 R
17 -5 R
3 0 R
3 1 R
4 0 R
18 -8 R
2 0 R
4 -32 R
1 0 R
20 -7 R
2 0 R
2 0 R
3 18 R
3 0 R
19 -8 R
2 0 R
4 -28 R
2 0 R
18 -8 R
2 0 R
4 -1 R
1 0 R
20 -9 R
2 0 R
2 0 R
3 32 R
3 0 R
20 -8 R
1 0 R
4 -18 R
3 0 R
17 -9 R
2 0 R
4 29 R
1 0 R
20 -9 R
2 0 R
2 0 R
3 1 R
3 0 R
20 -8 R
1 0 R
4 -31 R
3 0 R
5 27 R
14 0 R
4 18 R
1 0 R
21 -9 R
2 0 R
4 -30 R
24 0 R
3 1 R
1 0 R
8 29 R
15 0 R
3 29 R
2 -2 R
4 0 R
18 -119 R
1 0 R
4 -18 R
9 0 R
1 -69 R
5 67 R
12 0 R
16 0 R
12 0 R
19 0 R
8 0 R
1 0 R
6 -121 R
9 275 R
3 -92 R
3 -99 R
8 57 R
13 0 R
7 -17 R
3 0 R
31 0 R
2 0 R
7 16 R
13 0 R
9 -57 R
3 312 R
3 0 R
9 -598 R
6 496 R
1 -64 R
33 0 R
22 0 R
12 0 R
5 -98 R
1 0 R
9 0 R
3 49 R
1 -23 R
20 110 R
3 0 R
2 1 R
3 -19 R
15 0 R
8 21 R
1 0 R
2 10 R
25 0 R
3 8 R
3 0 R
21 -6 R
1 0 R
3 -40 R
15 0 R
5 19 R
3 0 R
3 16 R
2 0 R
20 -6 R
3 0 R
3 -14 R
2 0 R
19 -7 R
3 0 R
3 -7 R
2 0 R
19 -8 R
3 0 R
4 40 R
1 0 R
20 -7 R
3 0 R
3 -16 R
2 0 R
19 -8 R
3 0 R
4 15 R
1 0 R
20 -9 R
3 0 R
3 7 R
2 0 R
19 -8 R
3 0 R
3 -40 R
2 0 R
20 -9 R
3 0 R
3 16 R
2 0 R
19 -8 R
3 0 R
3 -15 R
2 0 R
19 -9 R
3 0 R
4 -7 R
2 0 R
19 -8 R
3 0 R
3 39 R
2 0 R
19 -7 R
3 0 R
4 -17 R
1 0 R
20 -7 R
3 0 R
3 15 R
2 0 R
19 -7 R
3 0 R
3 7 R
2 0 R
2 0 R
21 -6 R
1 0 R
3 -39 R
3 0 R
17 -6 R
3 0 R
3 16 R
2 0 R
20 -5 R
2 0 R
4 -17 R
2 0 R
1 0 R
21 -4 R
1 0 R
4 -7 R
2 0 R
17 -3 R
3 0 R
4 39 R
1 0 R
20 -3 R
3 0 R
3 -16 R
2 0 R
2 0 R
20 -2 R
4 18 R
1 0 R
20 -1 R
3 0 R
3 6 R
2 0 R
2 0 R
19 4 R
4 -38 R
1 0 R
21 -2 R
3 0 R
3 17 R
3 0 R
-2 0 R
5 15 R
6 -1469 R
11 1489 R
-1 0 R
3 0 R
3 17 R
3 0 R
20 -6 R
1 0 R
4 1 R
3 0 R
16 8 R
3 -41 R
4 -19 R
2 -2 R
8 0 R
4 -26 R
2 -1 R
40 0 R
11 0 R
5 0 R
2 0 R
5 0 R
5 0 R
5 272 R
3 0 R
8 -520 R
5 300 R
2 0 R
19 -5 R
7 73 R
3 0 R
8 0 R
3 0 R
4 0 R
7 0 R
1 0 R
11 0 R
6 -72 R
13 0 R
7 4 R
2 0 R
5 -512 R
10 1109 R
5 -477 R
2 0 R
18 0 R
49 0 R
5 19 R
1 -109 R
9 0 R
3 9 R
1 0 R
19 -10 R
4 0 R
2 -4 R
3 -32 R
15 0 R
8 -1 R
1 0 R
2 6 R
25 0 R
3 11 R
3 0 R
21 -1 R
1 0 R
4 -13 R
19 4 R
2 0 R
2 0 R
3 36 R
3 0 R
19 -3 R
2 0 R
3 -7 R
3 0 R
20 -2 R
2 0 R
3 -11 R
3 0 R
19 -2 R
2 0 R
3 14 R
3 0 R
19 -1 R
2 0 R
4 -36 R
2 0 R
20 0 R
2 0 R
3 7 R
3 0 R
19 1 R
2 0 R
3 10 R
3 0 R
20 1 R
1 0 R
4 -13 R
3 0 R
19 1 R
2 0 R
3 37 R
3 0 R
19 2 R
2 0 R
3 -8 R
3 0 R
20 3 R
1 0 R
4 -10 R
3 0 R
19 4 R
2 0 R
3 14 R
3 0 R
19 3 R
2 0 R
4 -37 R
2 0 R
20 4 R
2 0 R
3 8 R
3 0 R
19 4 R
2 0 R
3 9 R
3 0 R
18 5 R
2 0 R
4 -13 R
1 0 R
20 4 R
2 0 R
2 0 R
3 37 R
3 0 R
19 6 R
2 0 R
3 -9 R
3 0 R
18 5 R
2 0 R
4 -7 R
1 0 R
20 5 R
2 0 R
2 0 R
3 13 R
3 0 R
19 6 R
2 0 R
3 -37 R
3 0 R
18 6 R
2 0 R
4 9 R
1 0 R
20 4 R
2 0 R
2 0 R
3 7 R
3 0 R
20 -16 R
1 0 R
4 -12 R
3 0 R
17 5 R
3 0 R
4 35 R
24 0 R
3 -10 R
3 0 R
5 -16 R
15 0 R
4 0 R
1 0 R
18 54 R
5 0 R
3 12 R
2 2 R
8 -109 R
4 -18 R
2 -1 R
5 0 R
5 0 R
54 0 R
4 0 R
5 -487 R
4 0 R
7 1006 R
5 -393 R
2 0 R
20 -49 R
7 -11 R
2 0 R
16 0 R
3 0 R
15 0 R
7 12 R
13 1 R
6 48 R
3 0 R
5 297 R
9 -525 R
5 382 R
2 -95 R
4 0 R
11 0 R
9 0 R
39 0 R
1 0 R
3 0 R
2 0 R
5 -9 R
8 0 R
2 -6 R
3 -44 R
3 -44 R
17 -27 R
3 0 R
3 21 R
1 0 R
21 -7 R
3 0 R
2 -14 R
25 0 R
3 -4 R
1 0 R
20 3 R
3 0 R
3 28 R
2 0 R
14 0 R
9 -8 R
1 0 R
3 -16 R
3 0 R
17 3 R
4 0 R
4 24 R
2 0 R
17 3 R
4 0 R
4 1 R
2 0 R
18 3 R
4 0 R
4 -30 R
2 0 R
17 3 R
4 0 R
4 16 R
2 0 R
18 2 R
4 0 R
3 -24 R
3 0 R
17 3 R
4 0 R
4 -2 R
2 0 R
18 3 R
4 0 R
3 29 R
3 0 R
17 2 R
4 0 R
4 -15 R
2 0 R
17 2 R
4 0 R
4 24 R
2 0 R
18 2 R
4 0 R
4 1 R
2 0 R
17 2 R
4 0 R
4 -29 R
2 0 R
18 1 R
4 0 R
3 15 R
3 0 R
17 1 R
4 0 R
4 -25 R
2 0 R
18 0 R
3 0 R
3 -1 R
2 0 R
19 0 R
3 0 R
3 29 R
2 0 R
2 0 R
20 0 R
1 0 R
4 -16 R
2 0 R
18 0 R
3 0 R
3 25 R
2 0 R
19 -1 R
3 0 R
3 1 R
2 0 R
2 0 R
21 -1 R
1 0 R
3 -28 R
3 0 R
17 -2 R
3 0 R
4 16 R
1 0 R
20 -2 R
3 0 R
3 -26 R
2 0 R
2 0 R
20 -2 R
1 0 R
4 0 R
2 0 R
6 6 R
16 0 R
3 26 R
3 0 R
20 -2 R
1 0 R
3 -17 R
24 0 R
3 26 R
3 0 R
20 5 R
1 0 R
4 -9 R
3 0 R
16 -21 R
4 -42 R
3 2 R
2 0 R
8 0 R
5 -44 R
1 -1 R
12 0 R
4 0 R
4 0 R
5 0 R
11 0 R
6 0 R
11 0 R
1 0 R
5 0 R
9 0 R
2 -99 R
4 393 R
10 -529 R
5 298 R
2 0 R
7 20 R
13 0 R
7 -48 R
3 0 R
15 0 R
18 0 R
7 48 R
13 0 R
6 -20 R
3 0 R
5 -520 R
9 1087 R
5 -462 R
2 0 R
4 0 R
4 0 R
2 0 R
10 0 R
4 0 R
8 0 R
14 0 R
3 0 R
1 0 R
6 0 R
1 0 R
3 0 R
7 0 R
2 -1 R
5 -74 R
8 0 R
2 1 R
3 4 R
5 0 R
17 13 R
2 -2 R
3 -33 R
15 0 R
6 5 R
3 0 R
3 11 R
24 0 R
4 -7 R
3 0 R
17 -2 R
3 0 R
5 -8 R
14 0 R
7 5 R
2 0 R
4 34 R
2 0 R
18 -2 R
2 0 R
4 -12 R
4 0 R
17 -3 R
3 0 R
3 8 R
4 0 R
18 -3 R
2 0 R
4 8 R
4 0 R
17 -3 R
2 0 R
4 -34 R
4 0 R
17 -3 R
3 0 R
3 12 R
4 0 R
18 -3 R
2 0 R
4 -9 R
4 0 R
17 -3 R
2 0 R
4 -7 R
4 0 R
17 -4 R
3 0 R
3 33 R
4 0 R
18 -3 R
2 0 R
4 -13 R
4 0 R
17 -4 R
3 0 R
3 10 R
4 0 R
18 -4 R
2 0 R
4 7 R
3 0 R
18 -4 R
2 0 R
4 -33 R
4 0 R
17 -3 R
3 0 R
3 13 R
4 0 R
18 -4 R
2 0 R
4 -11 R
1 0 R
20 -3 R
2 0 R
2 0 R
3 -6 R
3 0 R
19 -3 R
2 0 R
3 33 R
3 0 R
18 -3 R
2 0 R
4 -13 R
1 0 R
20 -2 R
2 0 R
2 0 R
3 11 R
3 0 R
19 -2 R
2 0 R
4 6 R
2 0 R
18 -2 R
2 0 R
4 -32 R
1 0 R
20 -2 R
2 0 R
2 0 R
3 14 R
3 0 R
18 -1 R
2 0 R
4 -13 R
1 0 R
8 4 R
14 0 R
2 0 R
3 -5 R
3 0 R
20 -2 R
1 0 R
3 30 R
1 0 R
7 17 R
4 -1516 R
4 1467 R
6 -14 R
2 0 R
3 14 R
3 0 R
6 -8 R
15 0 R
3 -17 R
2 -2 R
17 73 R
5 0 R
3 -8 R
2 -1 R
8 108 R
1 0 R
5 20 R
6 0 R
5 0 R
53 0 R
4 0 R
2 0 R
5 465 R
9 -1106 R
5 529 R
3 0 R
6 -46 R
13 0 R
7 125 R
12 0 R
5 0 R
1 0 R
18 0 R
7 -126 R
20 46 R
2 0 R
5 -321 R
7 571 R
4 0 R
5 -326 R
4 0 R
3 0 R
61 0 R
5 21 R
1 0 R
9 0 R
3 40 R
1 43 R
20 -104 R
3 0 R
2 -3 R
3 -19 R
15 0 R
8 -8 R
1 0 R
2 22 R
25 0 R
3 -4 R
3 0 R
21 2 R
1 0 R
3 -13 R
15 0 R
5 0 R
3 0 R
3 12 R
2 0 R
19 -1 R
3 0 R
4 -30 R
1 0 R
20 0 R
3 0 R
3 6 R
2 0 R
686 4213 BoxF
686 4213 BoxF
686 4213 BoxF
686 4213 BoxF
704 4213 BoxF
711 770 BoxF
724 770 BoxF
731 2126 BoxF
733 2126 BoxF
738 2115 BoxF
747 2148 BoxF
752 2129 BoxF
754 2129 BoxF
758 2129 BoxF
799 2129 BoxF
810 1159 BoxF
809 1159 BoxF
820 2398 BoxF
821 2398 BoxF
823 2399 BoxF
828 2501 BoxF
836 2501 BoxF
838 2503 BoxF
841 2483 BoxF
846 2483 BoxF
863 2543 BoxF
865 2541 BoxF
868 2564 BoxF
883 2564 BoxF
889 2559 BoxF
892 2559 BoxF
895 2563 BoxF
919 2563 BoxF
923 2527 BoxF
926 2527 BoxF
943 2530 BoxF
946 2530 BoxF
951 2548 BoxF
965 2548 BoxF
973 2537 BoxF
974 2537 BoxF
978 2512 BoxF
981 2512 BoxF
998 2517 BoxF
1000 2517 BoxF
1004 2514 BoxF
1008 2514 BoxF
1025 2519 BoxF
1028 2519 BoxF
1031 2553 BoxF
1035 2553 BoxF
1053 2557 BoxF
1055 2557 BoxF
1059 2539 BoxF
1063 2539 BoxF
1080 2542 BoxF
1082 2542 BoxF
1086 2567 BoxF
1090 2567 BoxF
1108 2568 BoxF
1110 2568 BoxF
1113 2571 BoxF
1117 2571 BoxF
1135 2571 BoxF
1137 2571 BoxF
1141 2537 BoxF
1145 2537 BoxF
1162 2536 BoxF
1165 2536 BoxF
1168 2554 BoxF
1172 2554 BoxF
1190 2551 BoxF
1192 2551 BoxF
1196 2525 BoxF
1200 2525 BoxF
1217 2522 BoxF
1219 2522 BoxF
1223 2520 BoxF
1227 2520 BoxF
1244 2517 BoxF
1247 2517 BoxF
1250 2550 BoxF
1254 2550 BoxF
1272 2546 BoxF
1274 2546 BoxF
1278 2528 BoxF
1282 2528 BoxF
1299 2522 BoxF
1301 2522 BoxF
1305 2549 BoxF
1309 2549 BoxF
1326 2544 BoxF
1329 2544 BoxF
1332 2545 BoxF
1336 2545 BoxF
1354 2537 BoxF
1356 2537 BoxF
1360 2505 BoxF
1361 2505 BoxF
1381 2498 BoxF
1383 2498 BoxF
1385 2498 BoxF
1388 2516 BoxF
1391 2516 BoxF
1410 2508 BoxF
1412 2508 BoxF
1416 2480 BoxF
1418 2480 BoxF
1436 2472 BoxF
1438 2472 BoxF
1442 2471 BoxF
1443 2471 BoxF
1463 2462 BoxF
1465 2462 BoxF
1467 2462 BoxF
1470 2494 BoxF
1473 2494 BoxF
1493 2486 BoxF
1494 2486 BoxF
1498 2468 BoxF
1501 2468 BoxF
1518 2459 BoxF
1520 2459 BoxF
1524 2488 BoxF
1525 2488 BoxF
1545 2479 BoxF
1547 2479 BoxF
1549 2479 BoxF
1552 2480 BoxF
1555 2480 BoxF
1575 2472 BoxF
1576 2472 BoxF
1580 2441 BoxF
1583 2441 BoxF
1588 2468 BoxF
1602 2468 BoxF
1606 2486 BoxF
1607 2486 BoxF
1628 2477 BoxF
1630 2477 BoxF
1634 2447 BoxF
1658 2447 BoxF
1661 2448 BoxF
1662 2448 BoxF
1670 2477 BoxF
1685 2477 BoxF
1688 2506 BoxF
1690 2504 BoxF
1694 2504 BoxF
1712 2385 BoxF
1713 2385 BoxF
1717 2367 BoxF
1726 2367 BoxF
1727 2298 BoxF
1732 2365 BoxF
1744 2365 BoxF
1760 2365 BoxF
1772 2365 BoxF
1791 2365 BoxF
1799 2365 BoxF
1800 2365 BoxF
1806 2244 BoxF
1815 2519 BoxF
1818 2427 BoxF
1821 2328 BoxF
1829 2385 BoxF
1842 2385 BoxF
1849 2368 BoxF
1852 2368 BoxF
1883 2368 BoxF
1885 2368 BoxF
1892 2384 BoxF
1905 2384 BoxF
1914 2327 BoxF
1917 2639 BoxF
1920 2639 BoxF
1929 2041 BoxF
1935 2537 BoxF
1936 2473 BoxF
1969 2473 BoxF
1991 2473 BoxF
2003 2473 BoxF
2008 2375 BoxF
2009 2375 BoxF
2018 2375 BoxF
2021 2424 BoxF
2022 2401 BoxF
2042 2511 BoxF
2045 2511 BoxF
2047 2512 BoxF
2050 2493 BoxF
2065 2493 BoxF
2073 2514 BoxF
2074 2514 BoxF
2076 2524 BoxF
2101 2524 BoxF
2104 2532 BoxF
2107 2532 BoxF
2128 2526 BoxF
2129 2526 BoxF
2132 2486 BoxF
2147 2486 BoxF
2152 2505 BoxF
2155 2505 BoxF
2158 2521 BoxF
2160 2521 BoxF
2180 2515 BoxF
2183 2515 BoxF
2186 2501 BoxF
2188 2501 BoxF
2207 2494 BoxF
2210 2494 BoxF
2213 2487 BoxF
2215 2487 BoxF
2234 2479 BoxF
2237 2479 BoxF
2241 2519 BoxF
2242 2519 BoxF
2262 2512 BoxF
2265 2512 BoxF
2268 2496 BoxF
2270 2496 BoxF
2289 2488 BoxF
2292 2488 BoxF
2296 2503 BoxF
2297 2503 BoxF
2317 2494 BoxF
2320 2494 BoxF
2323 2501 BoxF
2325 2501 BoxF
2344 2493 BoxF
2347 2493 BoxF
2350 2453 BoxF
2352 2453 BoxF
2372 2444 BoxF
2375 2444 BoxF
2378 2460 BoxF
2380 2460 BoxF
2399 2452 BoxF
2402 2452 BoxF
2405 2437 BoxF
2407 2437 BoxF
2426 2428 BoxF
2429 2428 BoxF
2433 2421 BoxF
2435 2421 BoxF
2454 2413 BoxF
2457 2413 BoxF
2460 2452 BoxF
2462 2452 BoxF
2481 2445 BoxF
2484 2445 BoxF
2488 2428 BoxF
2489 2428 BoxF
2509 2421 BoxF
2512 2421 BoxF
2515 2436 BoxF
2517 2436 BoxF
2536 2429 BoxF
2539 2429 BoxF
2542 2436 BoxF
2544 2436 BoxF
2546 2436 BoxF
2567 2430 BoxF
2568 2430 BoxF
2571 2391 BoxF
2574 2391 BoxF
2591 2385 BoxF
2594 2385 BoxF
2597 2401 BoxF
2599 2401 BoxF
2619 2396 BoxF
2621 2396 BoxF
2625 2379 BoxF
2627 2379 BoxF
2628 2379 BoxF
2649 2375 BoxF
2650 2375 BoxF
2654 2368 BoxF
2656 2368 BoxF
2673 2365 BoxF
2676 2365 BoxF
2680 2404 BoxF
2681 2404 BoxF
2701 2401 BoxF
2704 2401 BoxF
2707 2385 BoxF
2709 2385 BoxF
2711 2385 BoxF
2731 2383 BoxF
2731 2383 BoxF
2735 2401 BoxF
2736 2401 BoxF
2756 2400 BoxF
2759 2400 BoxF
2762 2406 BoxF
2764 2406 BoxF
2766 2406 BoxF
2785 2410 BoxF
2789 2372 BoxF
2790 2372 BoxF
2811 2370 BoxF
2814 2370 BoxF
2817 2387 BoxF
2820 2387 BoxF
2818 2387 BoxF
2823 2402 BoxF
2829 933 BoxF
2840 2422 BoxF
2839 2422 BoxF
2842 2422 BoxF
2845 2439 BoxF
2848 2439 BoxF
2868 2433 BoxF
2869 2433 BoxF
2873 2434 BoxF
2876 2434 BoxF
2892 2442 BoxF
2895 2401 BoxF
2899 2382 BoxF
2901 2380 BoxF
2909 2380 BoxF
2913 2354 BoxF
2915 2353 BoxF
2955 2353 BoxF
2966 2353 BoxF
2971 2353 BoxF
2973 2353 BoxF
2978 2353 BoxF
2983 2353 BoxF
2988 2625 BoxF
2991 2625 BoxF
2999 2105 BoxF
3004 2405 BoxF
3006 2405 BoxF
3025 2400 BoxF
3032 2473 BoxF
3035 2473 BoxF
3043 2473 BoxF
3046 2473 BoxF
3050 2473 BoxF
3057 2473 BoxF
3058 2473 BoxF
3069 2473 BoxF
3075 2401 BoxF
3088 2401 BoxF
3095 2405 BoxF
3097 2405 BoxF
3102 1893 BoxF
3112 3002 BoxF
3117 2525 BoxF
3119 2525 BoxF
3137 2525 BoxF
3186 2525 BoxF
3191 2544 BoxF
3192 2435 BoxF
3201 2435 BoxF
3204 2444 BoxF
3205 2444 BoxF
3224 2434 BoxF
3228 2434 BoxF
3230 2430 BoxF
3233 2398 BoxF
3248 2398 BoxF
3256 2397 BoxF
3257 2397 BoxF
3259 2403 BoxF
3284 2403 BoxF
3287 2414 BoxF
3290 2414 BoxF
3311 2413 BoxF
3312 2413 BoxF
3316 2400 BoxF
3335 2404 BoxF
3337 2404 BoxF
3339 2404 BoxF
3342 2440 BoxF
3345 2440 BoxF
3364 2437 BoxF
3366 2437 BoxF
3369 2430 BoxF
3372 2430 BoxF
3392 2428 BoxF
3394 2428 BoxF
3397 2417 BoxF
3400 2417 BoxF
3419 2415 BoxF
3421 2415 BoxF
3424 2429 BoxF
3427 2429 BoxF
3446 2428 BoxF
3448 2428 BoxF
3452 2392 BoxF
3454 2392 BoxF
3474 2392 BoxF
3476 2392 BoxF
3479 2399 BoxF
3482 2399 BoxF
3501 2400 BoxF
3503 2400 BoxF
3506 2410 BoxF
3509 2410 BoxF
3529 2411 BoxF
3530 2411 BoxF
3534 2398 BoxF
3537 2398 BoxF
3556 2399 BoxF
3558 2399 BoxF
3561 2436 BoxF
3564 2436 BoxF
3583 2438 BoxF
3585 2438 BoxF
3588 2430 BoxF
3591 2430 BoxF
3611 2433 BoxF
3612 2433 BoxF
3616 2423 BoxF
3619 2423 BoxF
3638 2427 BoxF
3640 2427 BoxF
3643 2441 BoxF
3646 2441 BoxF
3665 2444 BoxF
3667 2444 BoxF
3671 2407 BoxF
3673 2407 BoxF
3693 2411 BoxF
3695 2411 BoxF
3698 2419 BoxF
3701 2419 BoxF
3720 2423 BoxF
3722 2423 BoxF
3725 2432 BoxF
3728 2432 BoxF
3746 2437 BoxF
3748 2437 BoxF
3752 2424 BoxF
3753 2424 BoxF
3773 2428 BoxF
3775 2428 BoxF
3777 2428 BoxF
3780 2465 BoxF
3783 2465 BoxF
3802 2471 BoxF
3804 2471 BoxF
3807 2462 BoxF
3810 2462 BoxF
3828 2467 BoxF
3830 2467 BoxF
3834 2460 BoxF
3835 2460 BoxF
3855 2465 BoxF
3857 2465 BoxF
3859 2465 BoxF
3862 2478 BoxF
3865 2478 BoxF
3884 2484 BoxF
3886 2484 BoxF
3889 2447 BoxF
3892 2447 BoxF
3910 2453 BoxF
3912 2453 BoxF
3916 2462 BoxF
3917 2462 BoxF
3937 2466 BoxF
3939 2466 BoxF
3941 2466 BoxF
3944 2473 BoxF
3947 2473 BoxF
3967 2457 BoxF
3968 2457 BoxF
3972 2445 BoxF
3975 2445 BoxF
3992 2450 BoxF
3995 2450 BoxF
3999 2485 BoxF
4023 2485 BoxF
4026 2475 BoxF
4029 2475 BoxF
4034 2459 BoxF
4049 2459 BoxF
4053 2459 BoxF
4054 2459 BoxF
4072 2513 BoxF
4077 2513 BoxF
4080 2525 BoxF
4082 2527 BoxF
4090 2418 BoxF
4094 2400 BoxF
4096 2399 BoxF
4101 2399 BoxF
4106 2399 BoxF
4160 2399 BoxF
4164 2399 BoxF
4169 1912 BoxF
4173 1912 BoxF
4180 2918 BoxF
4185 2525 BoxF
4187 2525 BoxF
4207 2476 BoxF
4214 2465 BoxF
4216 2465 BoxF
4232 2465 BoxF
4235 2465 BoxF
4235 2465 BoxF
4250 2465 BoxF
4257 2477 BoxF
4270 2478 BoxF
4276 2526 BoxF
4279 2526 BoxF
4284 2823 BoxF
4293 2298 BoxF
4298 2680 BoxF
4300 2585 BoxF
4304 2585 BoxF
4315 2585 BoxF
4324 2585 BoxF
4363 2585 BoxF
4364 2585 BoxF
4367 2585 BoxF
4369 2585 BoxF
4374 2576 BoxF
4382 2576 BoxF
4384 2570 BoxF
4387 2526 BoxF
4390 2482 BoxF
4407 2455 BoxF
4410 2455 BoxF
4413 2476 BoxF
4414 2476 BoxF
4435 2469 BoxF
4438 2469 BoxF
4440 2455 BoxF
4465 2455 BoxF
4468 2451 BoxF
4469 2451 BoxF
4489 2454 BoxF
4492 2454 BoxF
4495 2482 BoxF
4497 2482 BoxF
4511 2482 BoxF
4520 2474 BoxF
4521 2474 BoxF
4524 2458 BoxF
4527 2458 BoxF
4544 2461 BoxF
4548 2461 BoxF
4552 2485 BoxF
4554 2485 BoxF
4571 2488 BoxF
4575 2488 BoxF
4579 2489 BoxF
4581 2489 BoxF
4599 2492 BoxF
4603 2492 BoxF
4607 2462 BoxF
4609 2462 BoxF
4626 2465 BoxF
4630 2465 BoxF
4634 2481 BoxF
4636 2481 BoxF
4654 2483 BoxF
4658 2483 BoxF
4661 2459 BoxF
4664 2459 BoxF
4681 2462 BoxF
4685 2462 BoxF
4689 2460 BoxF
4691 2460 BoxF
4709 2463 BoxF
4713 2463 BoxF
4716 2492 BoxF
4719 2492 BoxF
4736 2494 BoxF
4740 2494 BoxF
4744 2479 BoxF
4746 2479 BoxF
4763 2481 BoxF
4767 2481 BoxF
4771 2505 BoxF
4773 2505 BoxF
4791 2507 BoxF
4795 2507 BoxF
4799 2508 BoxF
4801 2508 BoxF
4818 2510 BoxF
4822 2510 BoxF
4826 2481 BoxF
4828 2481 BoxF
4846 2482 BoxF
4850 2482 BoxF
4853 2497 BoxF
4856 2497 BoxF
4873 2498 BoxF
4877 2498 BoxF
4881 2473 BoxF
4883 2473 BoxF
4901 2473 BoxF
4904 2473 BoxF
4907 2472 BoxF
4909 2472 BoxF
4928 2472 BoxF
4931 2472 BoxF
4934 2501 BoxF
4936 2501 BoxF
4938 2501 BoxF
4958 2501 BoxF
4959 2501 BoxF
4963 2485 BoxF
4965 2485 BoxF
4983 2485 BoxF
4986 2485 BoxF
4989 2510 BoxF
4991 2510 BoxF
5010 2509 BoxF
5013 2509 BoxF
5016 2510 BoxF
5018 2510 BoxF
5020 2510 BoxF
5041 2509 BoxF
5042 2509 BoxF
5045 2481 BoxF
5048 2481 BoxF
5065 2479 BoxF
5068 2479 BoxF
5072 2495 BoxF
5073 2495 BoxF
5093 2493 BoxF
5096 2493 BoxF
5099 2467 BoxF
5101 2467 BoxF
5103 2467 BoxF
5123 2465 BoxF
5124 2465 BoxF
5128 2465 BoxF
5130 2465 BoxF
5136 2471 BoxF
5152 2471 BoxF
5155 2497 BoxF
5158 2497 BoxF
5178 2495 BoxF
5179 2495 BoxF
5182 2478 BoxF
5206 2478 BoxF
5209 2504 BoxF
5212 2504 BoxF
5232 2509 BoxF
5233 2509 BoxF
5237 2500 BoxF
5240 2500 BoxF
5256 2479 BoxF
5260 2437 BoxF
5263 2439 BoxF
5265 2439 BoxF
5273 2439 BoxF
5278 2395 BoxF
5279 2394 BoxF
5291 2394 BoxF
5295 2394 BoxF
5299 2394 BoxF
5304 2394 BoxF
5315 2394 BoxF
5321 2394 BoxF
5332 2394 BoxF
5333 2394 BoxF
5338 2394 BoxF
5347 2394 BoxF
5349 2295 BoxF
5353 2688 BoxF
5363 2159 BoxF
5368 2457 BoxF
5370 2457 BoxF
5377 2477 BoxF
5390 2477 BoxF
5397 2429 BoxF
5400 2429 BoxF
5415 2429 BoxF
5433 2429 BoxF
5440 2477 BoxF
5453 2477 BoxF
5459 2457 BoxF
5462 2457 BoxF
5467 1937 BoxF
5476 3024 BoxF
5481 2562 BoxF
5483 2562 BoxF
5487 2562 BoxF
5491 2562 BoxF
5493 2562 BoxF
5503 2562 BoxF
5507 2562 BoxF
5515 2562 BoxF
5529 2562 BoxF
5532 2562 BoxF
5533 2562 BoxF
5539 2562 BoxF
5540 2562 BoxF
5543 2562 BoxF
5550 2562 BoxF
5552 2561 BoxF
5557 2487 BoxF
5565 2487 BoxF
5567 2488 BoxF
5570 2492 BoxF
5575 2492 BoxF
5592 2505 BoxF
5594 2503 BoxF
5597 2470 BoxF
5612 2470 BoxF
5618 2475 BoxF
5621 2475 BoxF
5624 2486 BoxF
5648 2486 BoxF
5652 2479 BoxF
5655 2479 BoxF
5672 2477 BoxF
5675 2477 BoxF
5680 2469 BoxF
5694 2469 BoxF
5701 2474 BoxF
5703 2474 BoxF
5707 2508 BoxF
5709 2508 BoxF
5727 2506 BoxF
5729 2506 BoxF
5733 2494 BoxF
5737 2494 BoxF
5754 2491 BoxF
5757 2491 BoxF
5760 2499 BoxF
5764 2499 BoxF
5782 2496 BoxF
5784 2496 BoxF
5788 2504 BoxF
5792 2504 BoxF
5809 2501 BoxF
5811 2501 BoxF
5815 2467 BoxF
5819 2467 BoxF
5836 2464 BoxF
5839 2464 BoxF
5842 2476 BoxF
5846 2476 BoxF
5864 2473 BoxF
5866 2473 BoxF
5870 2464 BoxF
5874 2464 BoxF
5891 2461 BoxF
5893 2461 BoxF
5897 2454 BoxF
5901 2454 BoxF
5918 2450 BoxF
5921 2450 BoxF
5924 2483 BoxF
5928 2483 BoxF
5946 2480 BoxF
5948 2480 BoxF
5952 2467 BoxF
5956 2467 BoxF
5973 2463 BoxF
5976 2463 BoxF
5979 2473 BoxF
5983 2473 BoxF
6001 2469 BoxF
6003 2469 BoxF
6007 2476 BoxF
6010 2476 BoxF
6028 2472 BoxF
6030 2472 BoxF
6034 2439 BoxF
6038 2439 BoxF
6055 2436 BoxF
6058 2436 BoxF
6061 2449 BoxF
6065 2449 BoxF
6083 2445 BoxF
6085 2445 BoxF
6089 2434 BoxF
6090 2434 BoxF
6110 2431 BoxF
6112 2431 BoxF
6114 2431 BoxF
6117 2425 BoxF
6120 2425 BoxF
6139 2422 BoxF
6141 2422 BoxF
6144 2455 BoxF
6147 2455 BoxF
6165 2452 BoxF
6167 2452 BoxF
6171 2439 BoxF
6172 2439 BoxF
6192 2437 BoxF
6194 2437 BoxF
6196 2437 BoxF
6199 2448 BoxF
6202 2448 BoxF
6221 2446 BoxF
6223 2446 BoxF
6227 2452 BoxF
6229 2452 BoxF
6247 2450 BoxF
6249 2450 BoxF
6253 2418 BoxF
6254 2418 BoxF
6274 2416 BoxF
6276 2416 BoxF
6278 2416 BoxF
6281 2430 BoxF
6284 2430 BoxF
6302 2429 BoxF
6304 2429 BoxF
6308 2416 BoxF
6309 2416 BoxF
6317 2420 BoxF
6331 2420 BoxF
6333 2420 BoxF
6336 2415 BoxF
6339 2415 BoxF
6359 2413 BoxF
6360 2413 BoxF
6363 2443 BoxF
6364 2443 BoxF
6371 2460 BoxF
6375 944 BoxF
6379 2411 BoxF
6385 2397 BoxF
6387 2397 BoxF
6390 2411 BoxF
6393 2411 BoxF
6399 2403 BoxF
6414 2403 BoxF
6417 2386 BoxF
6419 2384 BoxF
6436 2457 BoxF
6441 2457 BoxF
6444 2449 BoxF
6446 2448 BoxF
6454 2556 BoxF
6455 2556 BoxF
6460 2576 BoxF
6466 2576 BoxF
6471 2576 BoxF
6524 2576 BoxF
6528 2576 BoxF
6530 2576 BoxF
6535 3041 BoxF
6544 1935 BoxF
6549 2464 BoxF
6552 2464 BoxF
6558 2418 BoxF
6571 2418 BoxF
6578 2543 BoxF
6590 2543 BoxF
6595 2543 BoxF
6596 2543 BoxF
6614 2543 BoxF
6621 2417 BoxF
6641 2463 BoxF
6643 2463 BoxF
6648 2142 BoxF
6655 2713 BoxF
6659 2713 BoxF
6664 2387 BoxF
6668 2387 BoxF
6671 2387 BoxF
6732 2387 BoxF
6737 2408 BoxF
6738 2408 BoxF
6747 2408 BoxF
6750 2448 BoxF
6751 2491 BoxF
6771 2387 BoxF
6774 2387 BoxF
6776 2384 BoxF
6779 2365 BoxF
6794 2365 BoxF
6802 2357 BoxF
6803 2357 BoxF
6805 2379 BoxF
6830 2379 BoxF
6833 2375 BoxF
6836 2375 BoxF
6857 2377 BoxF
6858 2377 BoxF
6861 2364 BoxF
6876 2364 BoxF
6881 2364 BoxF
6884 2364 BoxF
6887 2376 BoxF
6889 2376 BoxF
6908 2375 BoxF
6911 2375 BoxF
6915 2345 BoxF
6916 2345 BoxF
6936 2345 BoxF
6939 2345 BoxF
6942 2351 BoxF
6944 2351 BoxF
1305 4346 BoxF
% End plot #1
% Begin plot #2
0.400 UP
1.000 UL
LTb
0.00 1.00 0.00 C LCb setrgbcolor
1841 4346 M
[ [(Helvetica) 140.0 0.0 true true 0 (n)]
[(Helvetica) 112.0 -42.0 true true 0 (0,Y)]
] -32.7 MRshow
0.400 UP
1.000 UL
LTb
0.00 1.00 0.00 C 1925 4346 M
399 0 V
686 2508 M
18 0 R
7 -485 R
13 0 R
731 746 M
2 0 R
5 0 R
9 0 R
5 0 R
2 0 R
4 0 R
41 0 R
11 662 R
-1 0 R
11 1132 R
1 0 R
2 0 R
5 0 R
8 0 R
2 0 R
3 0 R
5 0 R
17 -77 R
2 0 R
3 0 R
15 0 R
6 31 R
3 0 R
3 0 R
24 0 R
4 0 R
3 0 R
17 -8 R
3 0 R
5 0 R
14 0 R
8 25 R
1 0 R
4 0 R
3 0 R
17 -5 R
2 0 R
4 0 R
4 0 R
17 -6 R
3 0 R
3 0 R
4 0 R
18 -10 R
2 0 R
4 0 R
4 0 R
17 -9 R
2 0 R
4 0 R
4 0 R
18 -11 R
2 0 R
3 0 R
4 0 R
18 -12 R
2 0 R
4 0 R
4 0 R
17 -7 R
3 0 R
3 0 R
4 0 R
18 -11 R
2 0 R
4 0 R
4 0 R
17 -7 R
2 0 R
4 0 R
4 0 R
17 -6 R
3 0 R
3 0 R
4 0 R
18 -8 R
2 0 R
4 0 R
4 0 R
17 -8 R
2 0 R
4 0 R
4 0 R
17 -8 R
3 0 R
3 0 R
4 0 R
18 -9 R
2 0 R
4 0 R
1 0 R
20 -4 R
2 0 R
2 0 R
3 0 R
3 0 R
19 -5 R
2 0 R
4 0 R
2 0 R
18 -1 R
2 0 R
4 0 R
1 0 R
20 -1 R
2 0 R
2 0 R
3 0 R
3 0 R
20 -2 R
1 0 R
4 0 R
3 0 R
17 0 R
2 0 R
4 0 R
1 0 R
20 -2 R
2 0 R
2 0 R
3 0 R
3 0 R
20 -1 R
1 0 R
4 0 R
3 0 R
5 -3 R
14 0 R
4 0 R
1 0 R
21 -2 R
2 0 R
4 0 R
24 0 R
3 0 R
1 0 R
8 0 R
15 0 R
3 0 R
2 0 R
4 0 R
18 29 R
1 0 R
4 0 R
9 0 R
1 0 R
5 0 R
12 0 R
16 0 R
12 0 R
19 0 R
8 0 R
1 0 R
6 0 R
9 0 R
3 0 R
3 0 R
8 -65 R
13 0 R
7 241 R
3 0 R
31 0 R
2 0 R
7 -241 R
13 0 R
9 66 R
3 0 R
3 0 R
9 0 R
6 0 R
1 0 R
33 0 R
22 0 R
12 0 R
5 0 R
1 0 R
9 0 R
3 0 R
1 0 R
20 -12 R
3 0 R
2 0 R
3 0 R
15 0 R
8 13 R
1 0 R
2 0 R
25 0 R
3 0 R
3 0 R
21 -7 R
1 0 R
3 0 R
15 0 R
5 10 R
3 0 R
3 0 R
2 0 R
20 -6 R
3 0 R
3 0 R
2 0 R
19 -3 R
3 0 R
3 0 R
2 0 R
19 -3 R
3 0 R
4 0 R
1 0 R
20 -5 R
3 0 R
3 0 R
2 0 R
19 -3 R
3 0 R
4 0 R
1 0 R
20 -4 R
3 0 R
3 0 R
2 0 R
19 -3 R
3 0 R
3 0 R
2 0 R
20 1 R
3 0 R
3 0 R
2 0 R
19 1 R
3 0 R
3 0 R
2 0 R
19 4 R
3 0 R
4 0 R
2 0 R
19 5 R
3 0 R
3 0 R
2 0 R
19 1 R
3 0 R
4 0 R
1 0 R
20 5 R
3 0 R
3 0 R
2 0 R
19 3 R
3 0 R
3 0 R
2 0 R
2 0 R
21 3 R
1 0 R
3 0 R
3 0 R
17 8 R
3 0 R
3 0 R
2 0 R
20 7 R
2 0 R
4 0 R
2 0 R
1 0 R
21 9 R
1 0 R
4 0 R
2 0 R
17 11 R
3 0 R
4 0 R
1 0 R
20 7 R
3 0 R
3 0 R
2 0 R
2 0 R
20 8 R
4 0 R
1 0 R
20 7 R
3 0 R
3 -1 R
2 0 R
2 0 R
19 -17 R
4 0 R
1 0 R
21 10 R
3 0 R
3 0 R
3 0 R
-2 0 R
5 440 R
6 425 R
11 -829 R
-1 0 R
3 0 R
3 0 R
3 0 R
20 -9 R
1 0 R
4 0 R
3 0 R
16 -42 R
3 0 R
4 0 R
2 0 R
8 0 R
4 1 R
2 0 R
40 0 R
11 0 R
5 0 R
2 0 R
5 0 R
5 0 R
5 0 R
3 0 R
8 -2 R
5 2 R
2 0 R
19 37 R
7 -75 R
3 0 R
8 0 R
3 0 R
4 0 R
7 0 R
1 0 R
11 0 R
6 75 R
13 0 R
7 -37 R
2 0 R
5 1 R
10 0 R
5 -2 R
2 0 R
18 0 R
49 0 R
5 1 R
1 0 R
9 0 R
3 0 R
1 0 R
19 38 R
4 0 R
2 0 R
3 0 R
15 0 R
8 -21 R
1 0 R
2 0 R
25 0 R
3 0 R
3 0 R
21 6 R
1 0 R
4 0 R
19 -20 R
2 0 R
2 0 R
3 0 R
3 0 R
19 3 R
2 0 R
3 0 R
3 0 R
20 4 R
2 0 R
3 0 R
3 0 R
19 5 R
2 0 R
3 0 R
3 0 R
19 3 R
2 0 R
4 0 R
2 0 R
20 9 R
2 0 R
3 0 R
3 0 R
19 7 R
2 0 R
3 -1 R
3 0 R
20 6 R
1 0 R
4 0 R
3 0 R
19 7 R
2 0 R
3 0 R
3 0 R
19 3 R
2 0 R
3 0 R
3 0 R
20 3 R
1 0 R
4 0 R
3 0 R
19 5 R
2 0 R
3 0 R
3 0 R
19 2 R
2 0 R
4 0 R
2 0 R
20 5 R
2 0 R
3 0 R
3 0 R
19 5 R
2 0 R
3 0 R
3 0 R
18 3 R
2 0 R
4 0 R
1 0 R
20 4 R
2 0 R
2 0 R
3 0 R
3 0 R
19 -1 R
2 0 R
3 0 R
3 0 R
18 0 R
2 0 R
4 0 R
1 0 R
20 0 R
2 0 R
2 0 R
3 0 R
3 0 R
19 -2 R
2 0 R
3 0 R
3 0 R
18 2 R
2 0 R
4 0 R
1 0 R
20 0 R
2 0 R
2 0 R
3 0 R
3 0 R
20 0 R
1 0 R
4 0 R
3 0 R
17 2 R
3 0 R
4 0 R
24 0 R
3 0 R
3 0 R
5 1 R
15 0 R
4 0 R
1 0 R
18 -35 R
5 0 R
3 0 R
2 0 R
8 0 R
4 1 R
2 0 R
5 0 R
5 0 R
54 0 R
4 0 R
5 -5 R
4 0 R
7 0 R
5 2 R
2 0 R
20 47 R
7 -126 R
2 0 R
16 0 R
3 0 R
15 0 R
7 126 R
13 0 R
6 -50 R
3 0 R
5 2 R
9 -2 R
5 0 R
2 0 R
4 0 R
11 0 R
9 0 R
39 0 R
1 0 R
3 0 R
2 0 R
5 0 R
8 0 R
2 0 R
3 0 R
3 0 R
17 9 R
3 0 R
3 0 R
1 0 R
21 2 R
3 0 R
2 0 R
25 0 R
3 1 R
1 0 R
20 1 R
3 0 R
3 0 R
2 0 R
14 0 R
9 4 R
1 0 R
3 0 R
3 0 R
17 1 R
4 0 R
4 0 R
2 0 R
17 -3 R
4 0 R
4 1 R
2 0 R
18 -4 R
4 0 R
4 0 R
2 0 R
17 0 R
4 0 R
4 0 R
2 0 R
18 -2 R
4 0 R
3 0 R
3 0 R
17 1 R
4 0 R
4 0 R
2 0 R
18 0 R
4 0 R
3 0 R
3 0 R
17 -3 R
4 0 R
4 0 R
2 0 R
17 -2 R
4 0 R
4 0 R
2 0 R
18 -4 R
4 0 R
4 0 R
2 0 R
17 -5 R
4 0 R
4 0 R
2 0 R
18 -2 R
4 0 R
3 0 R
3 0 R
17 -4 R
4 0 R
4 0 R
2 0 R
18 -1 R
3 0 R
3 0 R
2 0 R
19 -1 R
3 0 R
3 0 R
2 0 R
2 0 R
20 -3 R
1 0 R
4 0 R
2 0 R
18 -3 R
3 0 R
3 0 R
2 0 R
19 -6 R
3 0 R
3 0 R
2 0 R
2 0 R
21 -4 R
1 0 R
3 0 R
3 0 R
17 -2 R
3 0 R
4 0 R
1 0 R
20 -3 R
3 0 R
3 0 R
2 0 R
2 0 R
20 0 R
1 0 R
4 0 R
2 0 R
6 1 R
16 0 R
3 0 R
3 0 R
20 -3 R
1 0 R
3 0 R
24 0 R
3 0 R
3 0 R
20 13 R
1 0 R
4 0 R
3 0 R
16 43 R
4 0 R
3 0 R
2 0 R
8 0 R
5 -1 R
1 0 R
12 0 R
4 0 R
4 0 R
5 0 R
11 0 R
6 0 R
11 0 R
1 0 R
5 0 R
9 0 R
2 0 R
4 1 R
10 0 R
5 -1 R
2 0 R
7 -1 R
13 0 R
7 -30 R
3 0 R
15 0 R
18 0 R
7 30 R
13 0 R
6 2 R
3 0 R
5 -1 R
9 0 R
5 2 R
2 0 R
4 0 R
4 0 R
2 0 R
10 0 R
4 0 R
8 0 R
14 0 R
3 0 R
1 0 R
6 0 R
1 0 R
3 0 R
7 0 R
2 0 R
5 0 R
8 0 R
2 0 R
3 0 R
5 0 R
17 -54 R
2 0 R
3 0 R
15 0 R
6 3 R
3 0 R
3 0 R
24 0 R
4 0 R
3 0 R
17 -2 R
3 0 R
5 0 R
14 0 R
7 3 R
2 0 R
4 0 R
2 0 R
18 -5 R
2 0 R
4 0 R
4 0 R
17 -4 R
3 0 R
3 0 R
4 0 R
18 -4 R
2 0 R
4 0 R
4 0 R
17 -4 R
2 0 R
4 0 R
4 0 R
17 0 R
3 0 R
3 0 R
4 0 R
18 -1 R
2 0 R
4 0 R
4 0 R
17 0 R
2 0 R
4 0 R
4 0 R
17 1 R
3 0 R
3 0 R
4 0 R
18 -2 R
2 0 R
4 0 R
4 0 R
17 0 R
3 0 R
3 0 R
4 0 R
18 -1 R
2 0 R
4 0 R
3 0 R
18 -1 R
2 0 R
4 0 R
4 0 R
17 3 R
3 0 R
3 0 R
4 0 R
18 1 R
2 0 R
4 1 R
1 0 R
20 3 R
2 0 R
2 0 R
3 0 R
3 0 R
19 4 R
2 0 R
3 0 R
3 0 R
18 1 R
2 0 R
4 0 R
1 0 R
20 3 R
2 0 R
2 0 R
3 0 R
3 0 R
19 2 R
2 0 R
4 0 R
2 0 R
18 2 R
2 0 R
4 0 R
1 0 R
20 5 R
2 0 R
2 0 R
3 0 R
3 0 R
18 3 R
2 0 R
4 0 R
1 0 R
8 -13 R
14 0 R
2 0 R
3 -1 R
3 0 R
20 6 R
1 0 R
3 0 R
1 0 R
7 -435 R
4 -422 R
4 465 R
6 440 R
2 0 R
3 0 R
3 0 R
6 -19 R
15 0 R
3 0 R
2 0 R
17 67 R
5 0 R
3 0 R
2 0 R
8 0 R
1 0 R
5 1 R
6 0 R
5 0 R
53 0 R
4 0 R
2 0 R
5 1 R
9 -1 R
5 0 R
3 0 R
6 -13 R
13 0 R
7 -47 R
12 0 R
5 0 R
1 0 R
18 0 R
7 47 R
20 14 R
2 0 R
5 0 R
7 0 R
4 0 R
5 0 R
4 0 R
3 0 R
61 0 R
5 0 R
1 0 R
9 0 R
3 0 R
1 0 R
20 -40 R
3 0 R
2 0 R
3 -1 R
15 0 R
8 -32 R
1 0 R
2 0 R
25 0 R
3 0 R
3 0 R
21 9 R
1 0 R
3 0 R
15 0 R
5 -32 R
3 0 R
3 0 R
2 0 R
19 11 R
3 0 R
4 -1 R
1 0 R
20 13 R
3 0 R
3 1 R
2 0 R
686 2508 CircleF
686 2508 CircleF
686 2508 CircleF
686 2508 CircleF
704 2508 CircleF
711 2023 CircleF
724 2023 CircleF
731 746 CircleF
733 746 CircleF
738 746 CircleF
747 746 CircleF
752 746 CircleF
754 746 CircleF
758 746 CircleF
799 746 CircleF
810 1408 CircleF
809 1408 CircleF
820 2540 CircleF
821 2540 CircleF
823 2540 CircleF
828 2540 CircleF
836 2540 CircleF
838 2540 CircleF
841 2540 CircleF
846 2540 CircleF
863 2463 CircleF
865 2463 CircleF
868 2463 CircleF
883 2463 CircleF
889 2494 CircleF
892 2494 CircleF
895 2494 CircleF
919 2494 CircleF
923 2494 CircleF
926 2494 CircleF
943 2486 CircleF
946 2486 CircleF
951 2486 CircleF
965 2486 CircleF
973 2511 CircleF
974 2511 CircleF
978 2511 CircleF
981 2511 CircleF
998 2506 CircleF
1000 2506 CircleF
1004 2506 CircleF
1008 2506 CircleF
1025 2500 CircleF
1028 2500 CircleF
1031 2500 CircleF
1035 2500 CircleF
1053 2490 CircleF
1055 2490 CircleF
1059 2490 CircleF
1063 2490 CircleF
1080 2481 CircleF
1082 2481 CircleF
1086 2481 CircleF
1090 2481 CircleF
1108 2470 CircleF
1110 2470 CircleF
1113 2470 CircleF
1117 2470 CircleF
1135 2458 CircleF
1137 2458 CircleF
1141 2458 CircleF
1145 2458 CircleF
1162 2451 CircleF
1165 2451 CircleF
1168 2451 CircleF
1172 2451 CircleF
1190 2440 CircleF
1192 2440 CircleF
1196 2440 CircleF
1200 2440 CircleF
1217 2433 CircleF
1219 2433 CircleF
1223 2433 CircleF
1227 2433 CircleF
1244 2427 CircleF
1247 2427 CircleF
1250 2427 CircleF
1254 2427 CircleF
1272 2419 CircleF
1274 2419 CircleF
1278 2419 CircleF
1282 2419 CircleF
1299 2411 CircleF
1301 2411 CircleF
1305 2411 CircleF
1309 2411 CircleF
1326 2403 CircleF
1329 2403 CircleF
1332 2403 CircleF
1336 2403 CircleF
1354 2394 CircleF
1356 2394 CircleF
1360 2394 CircleF
1361 2394 CircleF
1381 2390 CircleF
1383 2390 CircleF
1385 2390 CircleF
1388 2390 CircleF
1391 2390 CircleF
1410 2385 CircleF
1412 2385 CircleF
1416 2385 CircleF
1418 2385 CircleF
1436 2384 CircleF
1438 2384 CircleF
1442 2384 CircleF
1443 2384 CircleF
1463 2383 CircleF
1465 2383 CircleF
1467 2383 CircleF
1470 2383 CircleF
1473 2383 CircleF
1493 2381 CircleF
1494 2381 CircleF
1498 2381 CircleF
1501 2381 CircleF
1518 2381 CircleF
1520 2381 CircleF
1524 2381 CircleF
1525 2381 CircleF
1545 2379 CircleF
1547 2379 CircleF
1549 2379 CircleF
1552 2379 CircleF
1555 2379 CircleF
1575 2378 CircleF
1576 2378 CircleF
1580 2378 CircleF
1583 2378 CircleF
1588 2375 CircleF
1602 2375 CircleF
1606 2375 CircleF
1607 2375 CircleF
1628 2373 CircleF
1630 2373 CircleF
1634 2373 CircleF
1658 2373 CircleF
1661 2373 CircleF
1662 2373 CircleF
1670 2373 CircleF
1685 2373 CircleF
1688 2373 CircleF
1690 2373 CircleF
1694 2373 CircleF
1712 2402 CircleF
1713 2402 CircleF
1717 2402 CircleF
1726 2402 CircleF
1727 2402 CircleF
1732 2402 CircleF
1744 2402 CircleF
1760 2402 CircleF
1772 2402 CircleF
1791 2402 CircleF
1799 2402 CircleF
1800 2402 CircleF
1806 2402 CircleF
1815 2402 CircleF
1818 2402 CircleF
1821 2402 CircleF
1829 2337 CircleF
1842 2337 CircleF
1849 2578 CircleF
1852 2578 CircleF
1883 2578 CircleF
1885 2578 CircleF
1892 2337 CircleF
1905 2337 CircleF
1914 2403 CircleF
1917 2403 CircleF
1920 2403 CircleF
1929 2403 CircleF
1935 2403 CircleF
1936 2403 CircleF
1969 2403 CircleF
1991 2403 CircleF
2003 2403 CircleF
2008 2403 CircleF
2009 2403 CircleF
2018 2403 CircleF
2021 2403 CircleF
2022 2403 CircleF
2042 2391 CircleF
2045 2391 CircleF
2047 2391 CircleF
2050 2391 CircleF
2065 2391 CircleF
2073 2404 CircleF
2074 2404 CircleF
2076 2404 CircleF
2101 2404 CircleF
2104 2404 CircleF
2107 2404 CircleF
2128 2397 CircleF
2129 2397 CircleF
2132 2397 CircleF
2147 2397 CircleF
2152 2407 CircleF
2155 2407 CircleF
2158 2407 CircleF
2160 2407 CircleF
2180 2401 CircleF
2183 2401 CircleF
2186 2401 CircleF
2188 2401 CircleF
2207 2398 CircleF
2210 2398 CircleF
2213 2398 CircleF
2215 2398 CircleF
2234 2395 CircleF
2237 2395 CircleF
2241 2395 CircleF
2242 2395 CircleF
2262 2390 CircleF
2265 2390 CircleF
2268 2390 CircleF
2270 2390 CircleF
2289 2387 CircleF
2292 2387 CircleF
2296 2387 CircleF
2297 2387 CircleF
2317 2383 CircleF
2320 2383 CircleF
2323 2383 CircleF
2325 2383 CircleF
2344 2380 CircleF
2347 2380 CircleF
2350 2380 CircleF
2352 2380 CircleF
2372 2381 CircleF
2375 2381 CircleF
2378 2381 CircleF
2380 2381 CircleF
2399 2382 CircleF
2402 2382 CircleF
2405 2382 CircleF
2407 2382 CircleF
2426 2386 CircleF
2429 2386 CircleF
2433 2386 CircleF
2435 2386 CircleF
2454 2391 CircleF
2457 2391 CircleF
2460 2391 CircleF
2462 2391 CircleF
2481 2392 CircleF
2484 2392 CircleF
2488 2392 CircleF
2489 2392 CircleF
2509 2397 CircleF
2512 2397 CircleF
2515 2397 CircleF
2517 2397 CircleF
2536 2400 CircleF
2539 2400 CircleF
2542 2400 CircleF
2544 2400 CircleF
2546 2400 CircleF
2567 2403 CircleF
2568 2403 CircleF
2571 2403 CircleF
2574 2403 CircleF
2591 2411 CircleF
2594 2411 CircleF
2597 2411 CircleF
2599 2411 CircleF
2619 2418 CircleF
2621 2418 CircleF
2625 2418 CircleF
2627 2418 CircleF
2628 2418 CircleF
2649 2427 CircleF
2650 2427 CircleF
2654 2427 CircleF
2656 2427 CircleF
2673 2438 CircleF
2676 2438 CircleF
2680 2438 CircleF
2681 2438 CircleF
2701 2445 CircleF
2704 2445 CircleF
2707 2445 CircleF
2709 2445 CircleF
2711 2445 CircleF
2731 2453 CircleF
2731 2453 CircleF
2735 2453 CircleF
2736 2453 CircleF
2756 2460 CircleF
2759 2460 CircleF
2762 2459 CircleF
2764 2459 CircleF
2766 2459 CircleF
2785 2442 CircleF
2789 2442 CircleF
2790 2442 CircleF
2811 2452 CircleF
2814 2452 CircleF
2817 2452 CircleF
2820 2452 CircleF
2818 2452 CircleF
2823 2892 CircleF
2829 3317 CircleF
2840 2488 CircleF
2839 2488 CircleF
2842 2488 CircleF
2845 2488 CircleF
2848 2488 CircleF
2868 2479 CircleF
2869 2479 CircleF
2873 2479 CircleF
2876 2479 CircleF
2892 2437 CircleF
2895 2437 CircleF
2899 2437 CircleF
2901 2437 CircleF
2909 2437 CircleF
2913 2438 CircleF
2915 2438 CircleF
2955 2438 CircleF
2966 2438 CircleF
2971 2438 CircleF
2973 2438 CircleF
2978 2438 CircleF
2983 2438 CircleF
2988 2438 CircleF
2991 2438 CircleF
2999 2436 CircleF
3004 2438 CircleF
3006 2438 CircleF
3025 2475 CircleF
3032 2400 CircleF
3035 2400 CircleF
3043 2400 CircleF
3046 2400 CircleF
3050 2400 CircleF
3057 2400 CircleF
3058 2400 CircleF
3069 2400 CircleF
3075 2475 CircleF
3088 2475 CircleF
3095 2438 CircleF
3097 2438 CircleF
3102 2439 CircleF
3112 2439 CircleF
3117 2437 CircleF
3119 2437 CircleF
3137 2437 CircleF
3186 2437 CircleF
3191 2438 CircleF
3192 2438 CircleF
3201 2438 CircleF
3204 2438 CircleF
3205 2438 CircleF
3224 2476 CircleF
3228 2476 CircleF
3230 2476 CircleF
3233 2476 CircleF
3248 2476 CircleF
3256 2455 CircleF
3257 2455 CircleF
3259 2455 CircleF
3284 2455 CircleF
3287 2455 CircleF
3290 2455 CircleF
3311 2461 CircleF
3312 2461 CircleF
3316 2461 CircleF
3335 2441 CircleF
3337 2441 CircleF
3339 2441 CircleF
3342 2441 CircleF
3345 2441 CircleF
3364 2444 CircleF
3366 2444 CircleF
3369 2444 CircleF
3372 2444 CircleF
3392 2448 CircleF
3394 2448 CircleF
3397 2448 CircleF
3400 2448 CircleF
3419 2453 CircleF
3421 2453 CircleF
3424 2453 CircleF
3427 2453 CircleF
3446 2456 CircleF
3448 2456 CircleF
3452 2456 CircleF
3454 2456 CircleF
3474 2465 CircleF
3476 2465 CircleF
3479 2465 CircleF
3482 2465 CircleF
3501 2472 CircleF
3503 2472 CircleF
3506 2471 CircleF
3509 2471 CircleF
3529 2477 CircleF
3530 2477 CircleF
3534 2477 CircleF
3537 2477 CircleF
3556 2484 CircleF
3558 2484 CircleF
3561 2484 CircleF
3564 2484 CircleF
3583 2487 CircleF
3585 2487 CircleF
3588 2487 CircleF
3591 2487 CircleF
3611 2490 CircleF
3612 2490 CircleF
3616 2490 CircleF
3619 2490 CircleF
3638 2495 CircleF
3640 2495 CircleF
3643 2495 CircleF
3646 2495 CircleF
3665 2497 CircleF
3667 2497 CircleF
3671 2497 CircleF
3673 2497 CircleF
3693 2502 CircleF
3695 2502 CircleF
3698 2502 CircleF
3701 2502 CircleF
3720 2507 CircleF
3722 2507 CircleF
3725 2507 CircleF
3728 2507 CircleF
3746 2510 CircleF
3748 2510 CircleF
3752 2510 CircleF
3753 2510 CircleF
3773 2514 CircleF
3775 2514 CircleF
3777 2514 CircleF
3780 2514 CircleF
3783 2514 CircleF
3802 2513 CircleF
3804 2513 CircleF
3807 2513 CircleF
3810 2513 CircleF
3828 2513 CircleF
3830 2513 CircleF
3834 2513 CircleF
3835 2513 CircleF
3855 2513 CircleF
3857 2513 CircleF
3859 2513 CircleF
3862 2513 CircleF
3865 2513 CircleF
3884 2511 CircleF
3886 2511 CircleF
3889 2511 CircleF
3892 2511 CircleF
3910 2513 CircleF
3912 2513 CircleF
3916 2513 CircleF
3917 2513 CircleF
3937 2513 CircleF
3939 2513 CircleF
3941 2513 CircleF
3944 2513 CircleF
3947 2513 CircleF
3967 2513 CircleF
3968 2513 CircleF
3972 2513 CircleF
3975 2513 CircleF
3992 2515 CircleF
3995 2515 CircleF
3999 2515 CircleF
4023 2515 CircleF
4026 2515 CircleF
4029 2515 CircleF
4034 2516 CircleF
4049 2516 CircleF
4053 2516 CircleF
4054 2516 CircleF
4072 2481 CircleF
4077 2481 CircleF
4080 2481 CircleF
4082 2481 CircleF
4090 2481 CircleF
4094 2482 CircleF
4096 2482 CircleF
4101 2482 CircleF
4106 2482 CircleF
4160 2482 CircleF
4164 2482 CircleF
4169 2477 CircleF
4173 2477 CircleF
4180 2477 CircleF
4185 2479 CircleF
4187 2479 CircleF
4207 2526 CircleF
4214 2400 CircleF
4216 2400 CircleF
4232 2400 CircleF
4235 2400 CircleF
4235 2400 CircleF
4250 2400 CircleF
4257 2526 CircleF
4270 2526 CircleF
4276 2476 CircleF
4279 2476 CircleF
4284 2478 CircleF
4293 2476 CircleF
4298 2476 CircleF
4300 2476 CircleF
4304 2476 CircleF
4315 2476 CircleF
4324 2476 CircleF
4363 2476 CircleF
4364 2476 CircleF
4367 2476 CircleF
4369 2476 CircleF
4374 2476 CircleF
4382 2476 CircleF
4384 2476 CircleF
4387 2476 CircleF
4390 2476 CircleF
4407 2485 CircleF
4410 2485 CircleF
4413 2485 CircleF
4414 2485 CircleF
4435 2487 CircleF
4438 2487 CircleF
4440 2487 CircleF
4465 2487 CircleF
4468 2488 CircleF
4469 2488 CircleF
4489 2489 CircleF
4492 2489 CircleF
4495 2489 CircleF
4497 2489 CircleF
4511 2489 CircleF
4520 2493 CircleF
4521 2493 CircleF
4524 2493 CircleF
4527 2493 CircleF
4544 2494 CircleF
4548 2494 CircleF
4552 2494 CircleF
4554 2494 CircleF
4571 2491 CircleF
4575 2491 CircleF
4579 2492 CircleF
4581 2492 CircleF
4599 2488 CircleF
4603 2488 CircleF
4607 2488 CircleF
4609 2488 CircleF
4626 2488 CircleF
4630 2488 CircleF
4634 2488 CircleF
4636 2488 CircleF
4654 2486 CircleF
4658 2486 CircleF
4661 2486 CircleF
4664 2486 CircleF
4681 2487 CircleF
4685 2487 CircleF
4689 2487 CircleF
4691 2487 CircleF
4709 2487 CircleF
4713 2487 CircleF
4716 2487 CircleF
4719 2487 CircleF
4736 2484 CircleF
4740 2484 CircleF
4744 2484 CircleF
4746 2484 CircleF
4763 2482 CircleF
4767 2482 CircleF
4771 2482 CircleF
4773 2482 CircleF
4791 2478 CircleF
4795 2478 CircleF
4799 2478 CircleF
4801 2478 CircleF
4818 2473 CircleF
4822 2473 CircleF
4826 2473 CircleF
4828 2473 CircleF
4846 2471 CircleF
4850 2471 CircleF
4853 2471 CircleF
4856 2471 CircleF
4873 2467 CircleF
4877 2467 CircleF
4881 2467 CircleF
4883 2467 CircleF
4901 2466 CircleF
4904 2466 CircleF
4907 2466 CircleF
4909 2466 CircleF
4928 2465 CircleF
4931 2465 CircleF
4934 2465 CircleF
4936 2465 CircleF
4938 2465 CircleF
4958 2462 CircleF
4959 2462 CircleF
4963 2462 CircleF
4965 2462 CircleF
4983 2459 CircleF
4986 2459 CircleF
4989 2459 CircleF
4991 2459 CircleF
5010 2453 CircleF
5013 2453 CircleF
5016 2453 CircleF
5018 2453 CircleF
5020 2453 CircleF
5041 2449 CircleF
5042 2449 CircleF
5045 2449 CircleF
5048 2449 CircleF
5065 2447 CircleF
5068 2447 CircleF
5072 2447 CircleF
5073 2447 CircleF
5093 2444 CircleF
5096 2444 CircleF
5099 2444 CircleF
5101 2444 CircleF
5103 2444 CircleF
5123 2444 CircleF
5124 2444 CircleF
5128 2444 CircleF
5130 2444 CircleF
5136 2445 CircleF
5152 2445 CircleF
5155 2445 CircleF
5158 2445 CircleF
5178 2442 CircleF
5179 2442 CircleF
5182 2442 CircleF
5206 2442 CircleF
5209 2442 CircleF
5212 2442 CircleF
5232 2455 CircleF
5233 2455 CircleF
5237 2455 CircleF
5240 2455 CircleF
5256 2498 CircleF
5260 2498 CircleF
5263 2498 CircleF
5265 2498 CircleF
5273 2498 CircleF
5278 2497 CircleF
5279 2497 CircleF
5291 2497 CircleF
5295 2497 CircleF
5299 2497 CircleF
5304 2497 CircleF
5315 2497 CircleF
5321 2497 CircleF
5332 2497 CircleF
5333 2497 CircleF
5338 2497 CircleF
5347 2497 CircleF
5349 2497 CircleF
5353 2498 CircleF
5363 2498 CircleF
5368 2497 CircleF
5370 2497 CircleF
5377 2496 CircleF
5390 2496 CircleF
5397 2466 CircleF
5400 2466 CircleF
5415 2466 CircleF
5433 2466 CircleF
5440 2496 CircleF
5453 2496 CircleF
5459 2498 CircleF
5462 2498 CircleF
5467 2497 CircleF
5476 2497 CircleF
5481 2499 CircleF
5483 2499 CircleF
5487 2499 CircleF
5491 2499 CircleF
5493 2499 CircleF
5503 2499 CircleF
5507 2499 CircleF
5515 2499 CircleF
5529 2499 CircleF
5532 2499 CircleF
5533 2499 CircleF
5539 2499 CircleF
5540 2499 CircleF
5543 2499 CircleF
5550 2499 CircleF
5552 2499 CircleF
5557 2499 CircleF
5565 2499 CircleF
5567 2499 CircleF
5570 2499 CircleF
5575 2499 CircleF
5592 2445 CircleF
5594 2445 CircleF
5597 2445 CircleF
5612 2445 CircleF
5618 2448 CircleF
5621 2448 CircleF
5624 2448 CircleF
5648 2448 CircleF
5652 2448 CircleF
5655 2448 CircleF
5672 2446 CircleF
5675 2446 CircleF
5680 2446 CircleF
5694 2446 CircleF
5701 2449 CircleF
5703 2449 CircleF
5707 2449 CircleF
5709 2449 CircleF
5727 2444 CircleF
5729 2444 CircleF
5733 2444 CircleF
5737 2444 CircleF
5754 2440 CircleF
5757 2440 CircleF
5760 2440 CircleF
5764 2440 CircleF
5782 2436 CircleF
5784 2436 CircleF
5788 2436 CircleF
5792 2436 CircleF
5809 2432 CircleF
5811 2432 CircleF
5815 2432 CircleF
5819 2432 CircleF
5836 2432 CircleF
5839 2432 CircleF
5842 2432 CircleF
5846 2432 CircleF
5864 2431 CircleF
5866 2431 CircleF
5870 2431 CircleF
5874 2431 CircleF
5891 2431 CircleF
5893 2431 CircleF
5897 2431 CircleF
5901 2431 CircleF
5918 2432 CircleF
5921 2432 CircleF
5924 2432 CircleF
5928 2432 CircleF
5946 2430 CircleF
5948 2430 CircleF
5952 2430 CircleF
5956 2430 CircleF
5973 2430 CircleF
5976 2430 CircleF
5979 2430 CircleF
5983 2430 CircleF
6001 2429 CircleF
6003 2429 CircleF
6007 2429 CircleF
6010 2429 CircleF
6028 2428 CircleF
6030 2428 CircleF
6034 2428 CircleF
6038 2428 CircleF
6055 2431 CircleF
6058 2431 CircleF
6061 2431 CircleF
6065 2431 CircleF
6083 2432 CircleF
6085 2432 CircleF
6089 2433 CircleF
6090 2433 CircleF
6110 2436 CircleF
6112 2436 CircleF
6114 2436 CircleF
6117 2436 CircleF
6120 2436 CircleF
6139 2440 CircleF
6141 2440 CircleF
6144 2440 CircleF
6147 2440 CircleF
6165 2441 CircleF
6167 2441 CircleF
6171 2441 CircleF
6172 2441 CircleF
6192 2444 CircleF
6194 2444 CircleF
6196 2444 CircleF
6199 2444 CircleF
6202 2444 CircleF
6221 2446 CircleF
6223 2446 CircleF
6227 2446 CircleF
6229 2446 CircleF
6247 2448 CircleF
6249 2448 CircleF
6253 2448 CircleF
6254 2448 CircleF
6274 2453 CircleF
6276 2453 CircleF
6278 2453 CircleF
6281 2453 CircleF
6284 2453 CircleF
6302 2456 CircleF
6304 2456 CircleF
6308 2456 CircleF
6309 2456 CircleF
6317 2443 CircleF
6331 2443 CircleF
6333 2443 CircleF
6336 2442 CircleF
6339 2442 CircleF
6359 2448 CircleF
6360 2448 CircleF
6363 2448 CircleF
6364 2448 CircleF
6371 2013 CircleF
6375 1591 CircleF
6379 2056 CircleF
6385 2496 CircleF
6387 2496 CircleF
6390 2496 CircleF
6393 2496 CircleF
6399 2477 CircleF
6414 2477 CircleF
6417 2477 CircleF
6419 2477 CircleF
6436 2544 CircleF
6441 2544 CircleF
6444 2544 CircleF
6446 2544 CircleF
6454 2544 CircleF
6455 2544 CircleF
6460 2545 CircleF
6466 2545 CircleF
6471 2545 CircleF
6524 2545 CircleF
6528 2545 CircleF
6530 2545 CircleF
6535 2546 CircleF
6544 2545 CircleF
6549 2545 CircleF
6552 2545 CircleF
6558 2532 CircleF
6571 2532 CircleF
6578 2485 CircleF
6590 2485 CircleF
6595 2485 CircleF
6596 2485 CircleF
6614 2485 CircleF
6621 2532 CircleF
6641 2546 CircleF
6643 2546 CircleF
6648 2546 CircleF
6655 2546 CircleF
6659 2546 CircleF
6664 2546 CircleF
6668 2546 CircleF
6671 2546 CircleF
6732 2546 CircleF
6737 2546 CircleF
6738 2546 CircleF
6747 2546 CircleF
6750 2546 CircleF
6751 2546 CircleF
6771 2506 CircleF
6774 2506 CircleF
6776 2506 CircleF
6779 2505 CircleF
6794 2505 CircleF
6802 2473 CircleF
6803 2473 CircleF
6805 2473 CircleF
6830 2473 CircleF
6833 2473 CircleF
6836 2473 CircleF
6857 2482 CircleF
6858 2482 CircleF
6861 2482 CircleF
6876 2482 CircleF
6881 2450 CircleF
6884 2450 CircleF
6887 2450 CircleF
6889 2450 CircleF
6908 2461 CircleF
6911 2461 CircleF
6915 2460 CircleF
6916 2460 CircleF
6936 2473 CircleF
6939 2473 CircleF
6942 2474 CircleF
6944 2474 CircleF
2124 4346 CircleF
% End plot #2
% Begin plot #3
0.400 UP
1.000 UL
LTb
0.00 0.00 1.00 C LCb setrgbcolor
2660 4346 M
[ [(Helvetica) 140.0 0.0 true true 0 (n)]
[(Helvetica) 112.0 -42.0 true true 0 (0,Z)]
] -32.7 MRshow
0.400 UP
1.000 UL
LTb
0.00 0.00 1.00 C 2744 4346 M
399 0 V
686 2373 M
18 0 R
7 0 R
13 0 R
7 0 R
2 0 R
5 59 R
9 -119 R
5 50 R
2 0 R
4 0 R
41 0 R
11 606 R
-1 0 R
11 1244 R
1 0 R
2 0 R
5 1 R
8 0 R
2 0 R
3 0 R
5 0 R
17 0 R
2 0 R
3 -1 R
15 0 R
6 0 R
3 0 R
3 0 R
24 0 R
4 2 R
3 0 R
17 0 R
3 0 R
5 -1 R
14 0 R
8 0 R
1 0 R
4 1 R
3 0 R
17 0 R
2 0 R
4 0 R
4 0 R
17 0 R
3 0 R
3 -2 R
4 0 R
18 0 R
2 0 R
4 1 R
4 0 R
17 0 R
2 0 R
4 -1 R
4 0 R
18 0 R
2 0 R
3 0 R
4 0 R
18 0 R
2 0 R
4 2 R
4 0 R
17 0 R
3 0 R
3 -1 R
4 0 R
18 0 R
2 0 R
4 1 R
4 0 R
17 0 R
2 0 R
4 0 R
4 0 R
17 0 R
3 0 R
3 -1 R
4 0 R
18 0 R
2 0 R
4 0 R
4 0 R
17 0 R
2 0 R
4 -1 R
4 0 R
17 0 R
3 0 R
3 0 R
4 0 R
18 0 R
2 0 R
4 1 R
1 0 R
20 0 R
2 0 R
2 0 R
3 0 R
3 0 R
19 0 R
2 0 R
4 0 R
2 0 R
18 0 R
2 0 R
4 0 R
1 0 R
20 0 R
2 0 R
2 0 R
3 0 R
3 0 R
20 0 R
1 0 R
4 0 R
3 0 R
17 0 R
2 0 R
4 0 R
1 0 R
20 0 R
2 0 R
2 0 R
3 0 R
3 0 R
20 0 R
1 0 R
4 0 R
3 0 R
5 0 R
14 0 R
4 0 R
1 0 R
21 0 R
2 0 R
4 0 R
24 0 R
3 0 R
1 0 R
8 0 R
15 0 R
3 -1 R
2 0 R
4 0 R
18 0 R
1 0 R
4 -1 R
9 0 R
1 -5 R
5 5 R
12 0 R
16 0 R
12 0 R
19 0 R
8 0 R
1 0 R
6 -11 R
9 13 R
3 1 R
3 -5 R
8 0 R
13 0 R
7 0 R
3 0 R
31 0 R
2 0 R
7 0 R
13 0 R
9 0 R
3 -4 R
3 0 R
9 -43 R
6 51 R
1 1 R
33 0 R
22 0 R
12 0 R
5 -2 R
1 0 R
9 0 R
3 2 R
1 -1 R
20 0 R
3 0 R
2 0 R
3 0 R
15 0 R
8 0 R
1 0 R
2 0 R
25 0 R
3 0 R
3 0 R
21 0 R
1 0 R
3 1 R
15 0 R
5 0 R
3 0 R
3 -1 R
2 0 R
20 0 R
3 0 R
3 1 R
2 0 R
19 0 R
3 0 R
3 0 R
2 0 R
19 0 R
3 0 R
4 -1 R
1 0 R
20 0 R
3 0 R
3 0 R
2 0 R
19 0 R
3 0 R
4 0 R
1 0 R
20 0 R
3 0 R
3 0 R
2 0 R
19 0 R
3 0 R
3 0 R
2 0 R
20 0 R
3 0 R
3 0 R
2 0 R
19 0 R
3 0 R
3 0 R
2 0 R
19 0 R
3 0 R
4 0 R
2 0 R
19 0 R
3 0 R
3 1 R
2 0 R
19 0 R
3 0 R
4 -1 R
1 0 R
20 0 R
3 0 R
3 1 R
2 0 R
19 0 R
3 0 R
3 0 R
2 0 R
2 0 R
21 0 R
1 0 R
3 -1 R
3 0 R
17 0 R
3 0 R
3 0 R
2 0 R
20 0 R
2 0 R
4 -1 R
2 0 R
1 0 R
21 0 R
1 0 R
4 0 R
2 0 R
17 0 R
3 0 R
4 2 R
1 0 R
20 0 R
3 0 R
3 -1 R
2 0 R
2 0 R
20 0 R
4 1 R
1 0 R
20 0 R
3 0 R
3 0 R
2 0 R
2 0 R
19 0 R
4 -1 R
1 0 R
21 0 R
3 0 R
3 0 R
3 0 R
-2 0 R
5 -52 R
6 -1673 R
2840 712 M
-1 0 R
3 0 R
3 -1 R
3 0 R
20 0 R
1 0 R
4 0 R
3 0 R
16 0 R
3 1 R
4 1 R
2 0 R
8 0 R
4 2 R
2 0 R
40 0 R
11 0 R
5 0 R
2 0 R
5 0 R
5 0 R
5 4 R
3 0 R
8 29 R
5 -36 R
2 0 R
19 0 R
7 0 R
3 0 R
8 0 R
3 0 R
4 0 R
7 0 R
1 0 R
11 0 R
6 0 R
13 0 R
7 0 R
2 0 R
5 95 R
10 -11 R
5 -84 R
2 0 R
18 0 R
49 0 R
5 1 R
1 -2 R
9 0 R
3 0 R
1 0 R
19 0 R
4 0 R
2 0 R
3 1 R
15 0 R
8 0 R
1 0 R
2 0 R
25 0 R
3 0 R
3 0 R
21 0 R
1 0 R
4 0 R
19 0 R
2 0 R
2 0 R
3 -1 R
3 0 R
19 0 R
2 0 R
3 0 R
3 0 R
20 0 R
2 0 R
3 1 R
3 0 R
19 0 R
2 0 R
3 -1 R
3 0 R
19 0 R
2 0 R
4 1 R
2 0 R
20 0 R
2 0 R
3 0 R
3 0 R
19 0 R
2 0 R
3 0 R
3 0 R
20 0 R
1 0 R
4 0 R
3 0 R
19 0 R
2 0 R
3 -1 R
3 0 R
19 0 R
2 0 R
3 0 R
3 0 R
20 0 R
1 0 R
4 1 R
3 0 R
19 0 R
2 0 R
3 -1 R
3 0 R
19 0 R
2 0 R
4 1 R
2 0 R
20 0 R
2 0 R
3 0 R
3 0 R
19 0 R
2 0 R
3 0 R
3 0 R
18 0 R
2 0 R
4 0 R
1 0 R
20 0 R
2 0 R
2 0 R
3 0 R
3 0 R
19 0 R
2 0 R
3 0 R
3 0 R
18 0 R
2 0 R
4 0 R
1 0 R
20 0 R
2 0 R
2 0 R
3 0 R
3 0 R
19 0 R
2 0 R
3 0 R
3 0 R
18 0 R
2 0 R
4 0 R
1 0 R
20 0 R
2 0 R
2 0 R
3 0 R
3 0 R
20 0 R
1 0 R
4 0 R
3 0 R
17 0 R
3 0 R
4 0 R
24 0 R
3 0 R
3 0 R
5 0 R
15 0 R
4 0 R
1 0 R
18 0 R
5 0 R
3 0 R
2 0 R
8 0 R
4 0 R
2 0 R
5 0 R
5 0 R
54 0 R
4 0 R
5 88 R
4 0 R
7 -29 R
5 -59 R
2 0 R
20 0 R
7 0 R
2 0 R
16 0 R
3 0 R
15 0 R
7 0 R
13 0 R
6 0 R
3 0 R
5 36 R
9 -29 R
5 5 R
2 -9 R
4 0 R
11 0 R
9 0 R
39 0 R
1 0 R
3 0 R
2 0 R
5 0 R
8 0 R
2 -1 R
3 -2 R
3 -1 R
17 0 R
3 0 R
3 0 R
1 0 R
21 0 R
3 0 R
2 0 R
25 0 R
3 0 R
1 0 R
20 0 R
3 0 R
3 0 R
2 0 R
14 0 R
9 0 R
1 0 R
3 0 R
3 0 R
17 0 R
4 0 R
4 0 R
2 0 R
17 0 R
4 0 R
4 0 R
2 0 R
18 0 R
4 0 R
4 0 R
2 0 R
17 0 R
4 0 R
4 0 R
2 0 R
18 0 R
4 0 R
3 0 R
3 0 R
17 0 R
4 0 R
4 0 R
2 0 R
18 0 R
4 0 R
3 0 R
3 0 R
17 0 R
4 0 R
4 0 R
2 0 R
17 0 R
4 0 R
4 0 R
2 0 R
18 0 R
4 0 R
4 1 R
2 0 R
17 0 R
4 0 R
4 -1 R
2 0 R
18 0 R
4 0 R
3 0 R
3 0 R
17 0 R
4 0 R
4 0 R
2 0 R
18 0 R
3 0 R
3 0 R
2 0 R
19 0 R
3 0 R
3 0 R
2 0 R
2 0 R
20 0 R
1 0 R
4 0 R
2 0 R
18 0 R
3 0 R
3 1 R
2 0 R
19 0 R
3 0 R
3 0 R
2 0 R
2 0 R
21 0 R
1 0 R
3 -1 R
3 0 R
17 0 R
3 0 R
4 0 R
1 0 R
20 0 R
3 0 R
3 0 R
2 0 R
2 0 R
20 0 R
1 0 R
4 0 R
2 0 R
6 0 R
16 0 R
3 0 R
3 0 R
20 0 R
1 0 R
3 0 R
24 0 R
3 1 R
3 0 R
20 0 R
1 0 R
4 -1 R
3 0 R
16 0 R
4 0 R
3 0 R
2 0 R
8 0 R
5 2 R
1 0 R
12 0 R
4 0 R
4 0 R
5 0 R
11 0 R
6 0 R
11 0 R
1 0 R
5 0 R
9 0 R
2 6 R
4 7 R
10 12 R
5 -27 R
2 0 R
7 0 R
13 0 R
7 0 R
3 0 R
15 0 R
18 0 R
7 0 R
13 0 R
6 0 R
3 0 R
5 81 R
9 11 R
5 -89 R
2 0 R
4 0 R
4 0 R
2 0 R
10 0 R
4 0 R
8 0 R
14 0 R
3 0 R
1 0 R
6 0 R
1 0 R
3 0 R
7 0 R
2 0 R
5 -3 R
8 0 R
2 0 R
3 0 R
5 0 R
17 0 R
2 0 R
3 0 R
15 0 R
6 0 R
3 0 R
3 0 R
24 0 R
4 0 R
3 0 R
17 0 R
3 0 R
5 0 R
14 0 R
7 0 R
2 0 R
4 1 R
2 0 R
18 0 R
2 0 R
4 -1 R
4 0 R
17 0 R
3 0 R
3 0 R
4 0 R
18 0 R
2 0 R
4 1 R
4 0 R
17 0 R
2 0 R
4 -1 R
4 0 R
17 0 R
3 0 R
3 0 R
4 0 R
18 0 R
2 0 R
4 0 R
4 0 R
17 0 R
2 0 R
4 0 R
4 0 R
17 0 R
3 0 R
3 0 R
4 0 R
18 0 R
2 0 R
4 0 R
4 0 R
17 0 R
3 0 R
3 0 R
4 0 R
18 0 R
2 0 R
4 0 R
3 0 R
18 0 R
2 0 R
4 0 R
4 0 R
17 0 R
3 0 R
3 0 R
4 0 R
18 0 R
2 0 R
4 0 R
1 0 R
20 0 R
2 0 R
2 0 R
3 1 R
3 0 R
19 0 R
2 0 R
3 -1 R
3 0 R
18 0 R
2 0 R
4 0 R
1 0 R
20 0 R
2 0 R
2 0 R
3 0 R
3 0 R
19 0 R
2 0 R
4 0 R
2 0 R
18 0 R
2 0 R
4 1 R
1 0 R
20 0 R
2 0 R
2 0 R
3 -1 R
3 0 R
18 0 R
2 0 R
4 1 R
1 0 R
8 0 R
14 0 R
2 0 R
3 0 R
3 0 R
20 0 R
1 0 R
3 -1 R
1 0 R
7 59 R
4 1727 R
4 1670 R
6 48 R
2 0 R
3 0 R
3 0 R
6 0 R
15 0 R
3 -1 R
2 0 R
17 0 R
5 0 R
3 0 R
2 0 R
8 -2 R
1 0 R
5 -1 R
6 0 R
5 0 R
53 0 R
4 0 R
2 0 R
5 -95 R
9 17 R
5 81 R
3 0 R
6 0 R
13 0 R
7 0 R
12 0 R
5 0 R
1 0 R
18 0 R
7 0 R
20 0 R
2 0 R
5 -30 R
7 12 R
4 0 R
5 17 R
4 0 R
3 0 R
61 0 R
5 0 R
1 0 R
9 0 R
3 1 R
1 0 R
20 0 R
3 0 R
2 0 R
3 -1 R
15 0 R
8 0 R
1 0 R
2 1 R
25 0 R
3 0 R
3 0 R
21 0 R
1 0 R
3 -1 R
15 0 R
5 0 R
3 0 R
3 1 R
2 0 R
19 0 R
3 0 R
4 -2 R
1 0 R
20 0 R
3 0 R
3 0 R
2 0 R
686 2373 TriUF
686 2373 TriUF
686 2373 TriUF
686 2373 TriUF
704 2373 TriUF
711 2373 TriUF
724 2373 TriUF
731 2373 TriUF
733 2373 TriUF
738 2432 TriUF
747 2313 TriUF
752 2363 TriUF
754 2363 TriUF
758 2363 TriUF
799 2363 TriUF
810 2969 TriUF
809 2969 TriUF
820 4213 TriUF
821 4213 TriUF
823 4213 TriUF
828 4214 TriUF
836 4214 TriUF
838 4214 TriUF
841 4214 TriUF
846 4214 TriUF
863 4214 TriUF
865 4214 TriUF
868 4213 TriUF
883 4213 TriUF
889 4213 TriUF
892 4213 TriUF
895 4213 TriUF
919 4213 TriUF
923 4215 TriUF
926 4215 TriUF
943 4215 TriUF
946 4215 TriUF
951 4214 TriUF
965 4214 TriUF
973 4214 TriUF
974 4214 TriUF
978 4215 TriUF
981 4215 TriUF
998 4215 TriUF
1000 4215 TriUF
1004 4215 TriUF
1008 4215 TriUF
1025 4215 TriUF
1028 4215 TriUF
1031 4213 TriUF
1035 4213 TriUF
1053 4213 TriUF
1055 4213 TriUF
1059 4214 TriUF
1063 4214 TriUF
1080 4214 TriUF
1082 4214 TriUF
1086 4213 TriUF
1090 4213 TriUF
1108 4213 TriUF
1110 4213 TriUF
1113 4213 TriUF
1117 4213 TriUF
1135 4213 TriUF
1137 4213 TriUF
1141 4215 TriUF
1145 4215 TriUF
1162 4215 TriUF
1165 4215 TriUF
1168 4214 TriUF
1172 4214 TriUF
1190 4214 TriUF
1192 4214 TriUF
1196 4215 TriUF
1200 4215 TriUF
1217 4215 TriUF
1219 4215 TriUF
1223 4215 TriUF
1227 4215 TriUF
1244 4215 TriUF
1247 4215 TriUF
1250 4214 TriUF
1254 4214 TriUF
1272 4214 TriUF
1274 4214 TriUF
1278 4214 TriUF
1282 4214 TriUF
1299 4214 TriUF
1301 4214 TriUF
1305 4213 TriUF
1309 4213 TriUF
1326 4213 TriUF
1329 4213 TriUF
1332 4213 TriUF
1336 4213 TriUF
1354 4213 TriUF
1356 4213 TriUF
1360 4214 TriUF
1361 4214 TriUF
1381 4214 TriUF
1383 4214 TriUF
1385 4214 TriUF
1388 4214 TriUF
1391 4214 TriUF
1410 4214 TriUF
1412 4214 TriUF
1416 4214 TriUF
1418 4214 TriUF
1436 4214 TriUF
1438 4214 TriUF
1442 4214 TriUF
1443 4214 TriUF
1463 4214 TriUF
1465 4214 TriUF
1467 4214 TriUF
1470 4214 TriUF
1473 4214 TriUF
1493 4214 TriUF
1494 4214 TriUF
1498 4214 TriUF
1501 4214 TriUF
1518 4214 TriUF
1520 4214 TriUF
1524 4214 TriUF
1525 4214 TriUF
1545 4214 TriUF
1547 4214 TriUF
1549 4214 TriUF
1552 4214 TriUF
1555 4214 TriUF
1575 4214 TriUF
1576 4214 TriUF
1580 4214 TriUF
1583 4214 TriUF
1588 4214 TriUF
1602 4214 TriUF
1606 4214 TriUF
1607 4214 TriUF
1628 4214 TriUF
1630 4214 TriUF
1634 4214 TriUF
1658 4214 TriUF
1661 4214 TriUF
1662 4214 TriUF
1670 4214 TriUF
1685 4214 TriUF
1688 4213 TriUF
1690 4213 TriUF
1694 4213 TriUF
1712 4213 TriUF
1713 4213 TriUF
1717 4212 TriUF
1726 4212 TriUF
1727 4207 TriUF
1732 4212 TriUF
1744 4212 TriUF
1760 4212 TriUF
1772 4212 TriUF
1791 4212 TriUF
1799 4212 TriUF
1800 4212 TriUF
1806 4201 TriUF
1815 4214 TriUF
1818 4215 TriUF
1821 4210 TriUF
1829 4210 TriUF
1842 4210 TriUF
1849 4210 TriUF
1852 4210 TriUF
1883 4210 TriUF
1885 4210 TriUF
1892 4210 TriUF
1905 4210 TriUF
1914 4210 TriUF
1917 4206 TriUF
1920 4206 TriUF
1929 4163 TriUF
1935 4214 TriUF
1936 4215 TriUF
1969 4215 TriUF
1991 4215 TriUF
2003 4215 TriUF
2008 4213 TriUF
2009 4213 TriUF
2018 4213 TriUF
2021 4215 TriUF
2022 4214 TriUF
2042 4214 TriUF
2045 4214 TriUF
2047 4214 TriUF
2050 4214 TriUF
2065 4214 TriUF
2073 4214 TriUF
2074 4214 TriUF
2076 4214 TriUF
2101 4214 TriUF
2104 4214 TriUF
2107 4214 TriUF
2128 4214 TriUF
2129 4214 TriUF
2132 4215 TriUF
2147 4215 TriUF
2152 4215 TriUF
2155 4215 TriUF
2158 4214 TriUF
2160 4214 TriUF
2180 4214 TriUF
2183 4214 TriUF
2186 4215 TriUF
2188 4215 TriUF
2207 4215 TriUF
2210 4215 TriUF
2213 4215 TriUF
2215 4215 TriUF
2234 4215 TriUF
2237 4215 TriUF
2241 4214 TriUF
2242 4214 TriUF
2262 4214 TriUF
2265 4214 TriUF
2268 4214 TriUF
2270 4214 TriUF
2289 4214 TriUF
2292 4214 TriUF
2296 4214 TriUF
2297 4214 TriUF
2317 4214 TriUF
2320 4214 TriUF
2323 4214 TriUF
2325 4214 TriUF
2344 4214 TriUF
2347 4214 TriUF
2350 4214 TriUF
2352 4214 TriUF
2372 4214 TriUF
2375 4214 TriUF
2378 4214 TriUF
2380 4214 TriUF
2399 4214 TriUF
2402 4214 TriUF
2405 4214 TriUF
2407 4214 TriUF
2426 4214 TriUF
2429 4214 TriUF
2433 4214 TriUF
2435 4214 TriUF
2454 4214 TriUF
2457 4214 TriUF
2460 4215 TriUF
2462 4215 TriUF
2481 4215 TriUF
2484 4215 TriUF
2488 4214 TriUF
2489 4214 TriUF
2509 4214 TriUF
2512 4214 TriUF
2515 4215 TriUF
2517 4215 TriUF
2536 4215 TriUF
2539 4215 TriUF
2542 4215 TriUF
2544 4215 TriUF
2546 4215 TriUF
2567 4215 TriUF
2568 4215 TriUF
2571 4214 TriUF
2574 4214 TriUF
2591 4214 TriUF
2594 4214 TriUF
2597 4214 TriUF
2599 4214 TriUF
2619 4214 TriUF
2621 4214 TriUF
2625 4213 TriUF
2627 4213 TriUF
2628 4213 TriUF
2649 4213 TriUF
2650 4213 TriUF
2654 4213 TriUF
2656 4213 TriUF
2673 4213 TriUF
2676 4213 TriUF
2680 4215 TriUF
2681 4215 TriUF
2701 4215 TriUF
2704 4215 TriUF
2707 4214 TriUF
2709 4214 TriUF
2711 4214 TriUF
2731 4214 TriUF
2731 4214 TriUF
2735 4215 TriUF
2736 4215 TriUF
2756 4215 TriUF
2759 4215 TriUF
2762 4215 TriUF
2764 4215 TriUF
2766 4215 TriUF
2785 4215 TriUF
2789 4214 TriUF
2790 4214 TriUF
2811 4214 TriUF
2814 4214 TriUF
2817 4214 TriUF
2820 4214 TriUF
2818 4214 TriUF
2823 4162 TriUF
2829 2489 TriUF
2840 712 TriUF
2839 712 TriUF
2842 712 TriUF
2845 711 TriUF
2848 711 TriUF
2868 711 TriUF
2869 711 TriUF
2873 711 TriUF
2876 711 TriUF
2892 711 TriUF
2895 712 TriUF
2899 713 TriUF
2901 713 TriUF
2909 713 TriUF
2913 715 TriUF
2915 715 TriUF
2955 715 TriUF
2966 715 TriUF
2971 715 TriUF
2973 715 TriUF
2978 715 TriUF
2983 715 TriUF
2988 719 TriUF
2991 719 TriUF
2999 748 TriUF
3004 712 TriUF
3006 712 TriUF
3025 712 TriUF
3032 712 TriUF
3035 712 TriUF
3043 712 TriUF
3046 712 TriUF
3050 712 TriUF
3057 712 TriUF
3058 712 TriUF
3069 712 TriUF
3075 712 TriUF
3088 712 TriUF
3095 712 TriUF
3097 712 TriUF
3102 807 TriUF
3112 796 TriUF
3117 712 TriUF
3119 712 TriUF
3137 712 TriUF
3186 712 TriUF
3191 713 TriUF
3192 711 TriUF
3201 711 TriUF
3204 711 TriUF
3205 711 TriUF
3224 711 TriUF
3228 711 TriUF
3230 711 TriUF
3233 712 TriUF
3248 712 TriUF
3256 712 TriUF
3257 712 TriUF
3259 712 TriUF
3284 712 TriUF
3287 712 TriUF
3290 712 TriUF
3311 712 TriUF
3312 712 TriUF
3316 712 TriUF
3335 712 TriUF
3337 712 TriUF
3339 712 TriUF
3342 711 TriUF
3345 711 TriUF
3364 711 TriUF
3366 711 TriUF
3369 711 TriUF
3372 711 TriUF
3392 711 TriUF
3394 711 TriUF
3397 712 TriUF
3400 712 TriUF
3419 712 TriUF
3421 712 TriUF
3424 711 TriUF
3427 711 TriUF
3446 711 TriUF
3448 711 TriUF
3452 712 TriUF
3454 712 TriUF
3474 712 TriUF
3476 712 TriUF
3479 712 TriUF
3482 712 TriUF
3501 712 TriUF
3503 712 TriUF
3506 712 TriUF
3509 712 TriUF
3529 712 TriUF
3530 712 TriUF
3534 712 TriUF
3537 712 TriUF
3556 712 TriUF
3558 712 TriUF
3561 711 TriUF
3564 711 TriUF
3583 711 TriUF
3585 711 TriUF
3588 711 TriUF
3591 711 TriUF
3611 711 TriUF
3612 711 TriUF
3616 712 TriUF
3619 712 TriUF
3638 712 TriUF
3640 712 TriUF
3643 711 TriUF
3646 711 TriUF
3665 711 TriUF
3667 711 TriUF
3671 712 TriUF
3673 712 TriUF
3693 712 TriUF
3695 712 TriUF
3698 712 TriUF
3701 712 TriUF
3720 712 TriUF
3722 712 TriUF
3725 712 TriUF
3728 712 TriUF
3746 712 TriUF
3748 712 TriUF
3752 712 TriUF
3753 712 TriUF
3773 712 TriUF
3775 712 TriUF
3777 712 TriUF
3780 712 TriUF
3783 712 TriUF
3802 712 TriUF
3804 712 TriUF
3807 712 TriUF
3810 712 TriUF
3828 712 TriUF
3830 712 TriUF
3834 712 TriUF
3835 712 TriUF
3855 712 TriUF
3857 712 TriUF
3859 712 TriUF
3862 712 TriUF
3865 712 TriUF
3884 712 TriUF
3886 712 TriUF
3889 712 TriUF
3892 712 TriUF
3910 712 TriUF
3912 712 TriUF
3916 712 TriUF
3917 712 TriUF
3937 712 TriUF
3939 712 TriUF
3941 712 TriUF
3944 712 TriUF
3947 712 TriUF
3967 712 TriUF
3968 712 TriUF
3972 712 TriUF
3975 712 TriUF
3992 712 TriUF
3995 712 TriUF
3999 712 TriUF
4023 712 TriUF
4026 712 TriUF
4029 712 TriUF
4034 712 TriUF
4049 712 TriUF
4053 712 TriUF
4054 712 TriUF
4072 712 TriUF
4077 712 TriUF
4080 712 TriUF
4082 712 TriUF
4090 712 TriUF
4094 712 TriUF
4096 712 TriUF
4101 712 TriUF
4106 712 TriUF
4160 712 TriUF
4164 712 TriUF
4169 800 TriUF
4173 800 TriUF
4180 771 TriUF
4185 712 TriUF
4187 712 TriUF
4207 712 TriUF
4214 712 TriUF
4216 712 TriUF
4232 712 TriUF
4235 712 TriUF
4235 712 TriUF
4250 712 TriUF
4257 712 TriUF
4270 712 TriUF
4276 712 TriUF
4279 712 TriUF
4284 748 TriUF
4293 719 TriUF
4298 724 TriUF
4300 715 TriUF
4304 715 TriUF
4315 715 TriUF
4324 715 TriUF
4363 715 TriUF
4364 715 TriUF
4367 715 TriUF
4369 715 TriUF
4374 715 TriUF
4382 715 TriUF
4384 714 TriUF
4387 712 TriUF
4390 711 TriUF
4407 711 TriUF
4410 711 TriUF
4413 711 TriUF
4414 711 TriUF
4435 711 TriUF
4438 711 TriUF
4440 711 TriUF
4465 711 TriUF
4468 711 TriUF
4469 711 TriUF
4489 711 TriUF
4492 711 TriUF
4495 711 TriUF
4497 711 TriUF
4511 711 TriUF
4520 711 TriUF
4521 711 TriUF
4524 711 TriUF
4527 711 TriUF
4544 711 TriUF
4548 711 TriUF
4552 711 TriUF
4554 711 TriUF
4571 711 TriUF
4575 711 TriUF
4579 711 TriUF
4581 711 TriUF
4599 711 TriUF
4603 711 TriUF
4607 711 TriUF
4609 711 TriUF
4626 711 TriUF
4630 711 TriUF
4634 711 TriUF
4636 711 TriUF
4654 711 TriUF
4658 711 TriUF
4661 711 TriUF
4664 711 TriUF
4681 711 TriUF
4685 711 TriUF
4689 711 TriUF
4691 711 TriUF
4709 711 TriUF
4713 711 TriUF
4716 711 TriUF
4719 711 TriUF
4736 711 TriUF
4740 711 TriUF
4744 711 TriUF
4746 711 TriUF
4763 711 TriUF
4767 711 TriUF
4771 711 TriUF
4773 711 TriUF
4791 711 TriUF
4795 711 TriUF
4799 712 TriUF
4801 712 TriUF
4818 712 TriUF
4822 712 TriUF
4826 711 TriUF
4828 711 TriUF
4846 711 TriUF
4850 711 TriUF
4853 711 TriUF
4856 711 TriUF
4873 711 TriUF
4877 711 TriUF
4881 711 TriUF
4883 711 TriUF
4901 711 TriUF
4904 711 TriUF
4907 711 TriUF
4909 711 TriUF
4928 711 TriUF
4931 711 TriUF
4934 711 TriUF
4936 711 TriUF
4938 711 TriUF
4958 711 TriUF
4959 711 TriUF
4963 711 TriUF
4965 711 TriUF
4983 711 TriUF
4986 711 TriUF
4989 712 TriUF
4991 712 TriUF
5010 712 TriUF
5013 712 TriUF
5016 712 TriUF
5018 712 TriUF
5020 712 TriUF
5041 712 TriUF
5042 712 TriUF
5045 711 TriUF
5048 711 TriUF
5065 711 TriUF
5068 711 TriUF
5072 711 TriUF
5073 711 TriUF
5093 711 TriUF
5096 711 TriUF
5099 711 TriUF
5101 711 TriUF
5103 711 TriUF
5123 711 TriUF
5124 711 TriUF
5128 711 TriUF
5130 711 TriUF
5136 711 TriUF
5152 711 TriUF
5155 711 TriUF
5158 711 TriUF
5178 711 TriUF
5179 711 TriUF
5182 711 TriUF
5206 711 TriUF
5209 712 TriUF
5212 712 TriUF
5232 712 TriUF
5233 712 TriUF
5237 711 TriUF
5240 711 TriUF
5256 711 TriUF
5260 711 TriUF
5263 711 TriUF
5265 711 TriUF
5273 711 TriUF
5278 713 TriUF
5279 713 TriUF
5291 713 TriUF
5295 713 TriUF
5299 713 TriUF
5304 713 TriUF
5315 713 TriUF
5321 713 TriUF
5332 713 TriUF
5333 713 TriUF
5338 713 TriUF
5347 713 TriUF
5349 719 TriUF
5353 726 TriUF
5363 738 TriUF
5368 711 TriUF
5370 711 TriUF
5377 711 TriUF
5390 711 TriUF
5397 711 TriUF
5400 711 TriUF
5415 711 TriUF
5433 711 TriUF
5440 711 TriUF
5453 711 TriUF
5459 711 TriUF
5462 711 TriUF
5467 792 TriUF
5476 803 TriUF
5481 714 TriUF
5483 714 TriUF
5487 714 TriUF
5491 714 TriUF
5493 714 TriUF
5503 714 TriUF
5507 714 TriUF
5515 714 TriUF
5529 714 TriUF
5532 714 TriUF
5533 714 TriUF
5539 714 TriUF
5540 714 TriUF
5543 714 TriUF
5550 714 TriUF
5552 714 TriUF
5557 711 TriUF
5565 711 TriUF
5567 711 TriUF
5570 711 TriUF
5575 711 TriUF
5592 711 TriUF
5594 711 TriUF
5597 711 TriUF
5612 711 TriUF
5618 711 TriUF
5621 711 TriUF
5624 711 TriUF
5648 711 TriUF
5652 711 TriUF
5655 711 TriUF
5672 711 TriUF
5675 711 TriUF
5680 711 TriUF
5694 711 TriUF
5701 711 TriUF
5703 711 TriUF
5707 712 TriUF
5709 712 TriUF
5727 712 TriUF
5729 712 TriUF
5733 711 TriUF
5737 711 TriUF
5754 711 TriUF
5757 711 TriUF
5760 711 TriUF
5764 711 TriUF
5782 711 TriUF
5784 711 TriUF
5788 712 TriUF
5792 712 TriUF
5809 712 TriUF
5811 712 TriUF
5815 711 TriUF
5819 711 TriUF
5836 711 TriUF
5839 711 TriUF
5842 711 TriUF
5846 711 TriUF
5864 711 TriUF
5866 711 TriUF
5870 711 TriUF
5874 711 TriUF
5891 711 TriUF
5893 711 TriUF
5897 711 TriUF
5901 711 TriUF
5918 711 TriUF
5921 711 TriUF
5924 711 TriUF
5928 711 TriUF
5946 711 TriUF
5948 711 TriUF
5952 711 TriUF
5956 711 TriUF
5973 711 TriUF
5976 711 TriUF
5979 711 TriUF
5983 711 TriUF
6001 711 TriUF
6003 711 TriUF
6007 711 TriUF
6010 711 TriUF
6028 711 TriUF
6030 711 TriUF
6034 711 TriUF
6038 711 TriUF
6055 711 TriUF
6058 711 TriUF
6061 711 TriUF
6065 711 TriUF
6083 711 TriUF
6085 711 TriUF
6089 711 TriUF
6090 711 TriUF
6110 711 TriUF
6112 711 TriUF
6114 711 TriUF
6117 712 TriUF
6120 712 TriUF
6139 712 TriUF
6141 712 TriUF
6144 711 TriUF
6147 711 TriUF
6165 711 TriUF
6167 711 TriUF
6171 711 TriUF
6172 711 TriUF
6192 711 TriUF
6194 711 TriUF
6196 711 TriUF
6199 711 TriUF
6202 711 TriUF
6221 711 TriUF
6223 711 TriUF
6227 711 TriUF
6229 711 TriUF
6247 711 TriUF
6249 711 TriUF
6253 712 TriUF
6254 712 TriUF
6274 712 TriUF
6276 712 TriUF
6278 712 TriUF
6281 711 TriUF
6284 711 TriUF
6302 711 TriUF
6304 711 TriUF
6308 712 TriUF
6309 712 TriUF
6317 712 TriUF
6331 712 TriUF
6333 712 TriUF
6336 712 TriUF
6339 712 TriUF
6359 712 TriUF
6360 712 TriUF
6363 711 TriUF
6364 711 TriUF
6371 770 TriUF
6375 2497 TriUF
6379 4167 TriUF
6385 4215 TriUF
6387 4215 TriUF
6390 4215 TriUF
6393 4215 TriUF
6399 4215 TriUF
6414 4215 TriUF
6417 4214 TriUF
6419 4214 TriUF
6436 4214 TriUF
6441 4214 TriUF
6444 4214 TriUF
6446 4214 TriUF
6454 4212 TriUF
6455 4212 TriUF
6460 4211 TriUF
6466 4211 TriUF
6471 4211 TriUF
6524 4211 TriUF
6528 4211 TriUF
6530 4211 TriUF
6535 4116 TriUF
6544 4133 TriUF
6549 4214 TriUF
6552 4214 TriUF
6558 4214 TriUF
6571 4214 TriUF
6578 4214 TriUF
6590 4214 TriUF
6595 4214 TriUF
6596 4214 TriUF
6614 4214 TriUF
6621 4214 TriUF
6641 4214 TriUF
6643 4214 TriUF
6648 4184 TriUF
6655 4196 TriUF
6659 4196 TriUF
6664 4213 TriUF
6668 4213 TriUF
6671 4213 TriUF
6732 4213 TriUF
6737 4213 TriUF
6738 4213 TriUF
6747 4213 TriUF
6750 4214 TriUF
6751 4214 TriUF
6771 4214 TriUF
6774 4214 TriUF
6776 4214 TriUF
6779 4213 TriUF
6794 4213 TriUF
6802 4213 TriUF
6803 4213 TriUF
6805 4214 TriUF
6830 4214 TriUF
6833 4214 TriUF
6836 4214 TriUF
6857 4214 TriUF
6858 4214 TriUF
6861 4213 TriUF
6876 4213 TriUF
6881 4213 TriUF
6884 4213 TriUF
6887 4214 TriUF
6889 4214 TriUF
6908 4214 TriUF
6911 4214 TriUF
6915 4212 TriUF
6916 4212 TriUF
6936 4212 TriUF
6939 4212 TriUF
6942 4212 TriUF
6944 4212 TriUF
2943 4346 TriUF
% End plot #3
% Begin plot #4
0.200 UL
LTb
0.00 0.00 0.00 C 686 711 M
63 0 V
63 0 V
64 0 V
63 0 V
63 0 V
63 0 V
64 0 V
63 0 V
63 0 V
63 0 V
64 0 V
63 0 V
63 0 V
63 0 V
64 0 V
63 0 V
63 0 V
63 0 V
64 0 V
63 0 V
63 0 V
63 0 V
64 0 V
63 0 V
63 0 V
63 0 V
64 0 V
63 0 V
63 0 V
63 0 V
64 0 V
63 0 V
63 0 V
63 0 V
63 0 V
64 0 V
63 0 V
63 0 V
63 0 V
64 0 V
63 0 V
63 0 V
63 0 V
64 0 V
63 0 V
63 0 V
63 0 V
64 0 V
63 0 V
63 0 V
63 0 V
64 0 V
63 0 V
63 0 V
63 0 V
64 0 V
63 0 V
63 0 V
63 0 V
64 0 V
63 0 V
63 0 V
63 0 V
64 0 V
63 0 V
63 0 V
63 0 V
63 0 V
64 0 V
63 0 V
63 0 V
63 0 V
64 0 V
63 0 V
63 0 V
63 0 V
64 0 V
63 0 V
63 0 V
63 0 V
64 0 V
63 0 V
63 0 V
63 0 V
64 0 V
63 0 V
63 0 V
63 0 V
64 0 V
63 0 V
63 0 V
63 0 V
64 0 V
63 0 V
63 0 V
63 0 V
64 0 V
63 0 V
63 0 V
% End plot #4
% Begin plot #5
stroke
LTb
0.00 0.00 0.00 C 686 4216 M
63 0 V
63 0 V
64 0 V
63 0 V
63 0 V
63 0 V
64 0 V
63 0 V
63 0 V
63 0 V
64 0 V
63 0 V
63 0 V
63 0 V
64 0 V
63 0 V
63 0 V
63 0 V
64 0 V
63 0 V
63 0 V
63 0 V
64 0 V
63 0 V
63 0 V
63 0 V
64 0 V
63 0 V
63 0 V
63 0 V
64 0 V
63 0 V
63 0 V
63 0 V
63 0 V
64 0 V
63 0 V
63 0 V
63 0 V
64 0 V
63 0 V
63 0 V
63 0 V
64 0 V
63 0 V
63 0 V
63 0 V
64 0 V
63 0 V
63 0 V
63 0 V
64 0 V
63 0 V
63 0 V
63 0 V
64 0 V
63 0 V
63 0 V
63 0 V
64 0 V
63 0 V
63 0 V
63 0 V
64 0 V
63 0 V
63 0 V
63 0 V
63 0 V
64 0 V
63 0 V
63 0 V
63 0 V
64 0 V
63 0 V
63 0 V
63 0 V
64 0 V
63 0 V
63 0 V
63 0 V
64 0 V
63 0 V
63 0 V
63 0 V
64 0 V
63 0 V
63 0 V
63 0 V
64 0 V
63 0 V
63 0 V
63 0 V
64 0 V
63 0 V
63 0 V
63 0 V
64 0 V
63 0 V
63 0 V
% End plot #5
stroke
2.000 UL
LTb
LCb setrgbcolor
1.000 UL
LTB
LCb setrgbcolor
686 4479 N
686 448 L
6261 0 V
0 4031 V
-6261 0 V
Z stroke
1.000 UP
1.000 UL
LTb
LCb setrgbcolor
stroke
grestore
end
showpage
%%Trailer
%%DocumentFonts: Helvetica
