Data generated by searchCO
'OBJET'                                                                                                      1
853.71244451829796e3  ! E_tot=255   Gg=489.   ! 79.366774592048841e3       ! 45.5
2
9      3
0. 0. 0. 0. 0.   1.000000E+00 'o'  1
0. 0. 0. 0. 0.   1.000000E+00 'o'  1
0. 0. 0. 0. 0.   1.000000E+00 'o'  1
0. 0. 0. 0. 0.   3.943708E-01 'o'  1
0. 0. 0. 0. 0.   3.943708E-01 'o'  1
0. 0. 0. 0. 0.   3.943708E-01 'o'  1
0. 0. 0. 0. 0.   9.296660E-02 'o'  1
0. 0. 0. 0. 0.   9.296660E-02 'o'  1
0. 0. 0. 0. 0.   9.296660E-02 'o'  1
1 1 1 1 1 1 1 1 1
 
'FAISCEAU'                                                                                                   2
 
'PARTICUL'                                                                                                   3
9.3827203E+02 1.602176487E-19 1.7928474 0 0
'SPNTRK'                                                                                                     4
4
1. 0.  0.
0. 1.  0.
0. 0.  1.
1. 0.  0.
0. 1.  0.
0. 0.  1.
1. 0.  0.
0. 1.  0.
0. 0.  1.
 
 
'DRIFT'                                                                                                      5
3.6
'DRIFT'                                                                                                      6
16.4
 
'TOSCA'                                                                                                      7
0  20
9.36419245E-04 1. 1. 1.
HEADER_8
361 81 81  15.1  1.
./fieldMaps/model3a2a-x-4_4_y-4_4_z-180_180-integral.table
0 0 0 0
2
.1
2  0.  .00  0.  0.
 
'DRIFT'    2.162m_C1toC2                                                                                     8
-98.8
 
'TOSCA'                                                                                                      9
0  20
-1.00275365E-03 1. 1. 1.
HEADER_8
361 81 81  15.1  1.
./fieldMaps/model3a2a322a-x-4_4_y-4_4_z-180_180-integral.table
0 0 0 0
2
.1
2  0.  .00  0.  0.
 
'DRIFT'    2.162m_C2toC3                                                                                    10
-75.2
 
'TOSCA'                                                                                                     11
0  20
1.00275365E-03 1. 1. 1.
HEADER_8
361 81 81  15.1  1.
./fieldMaps/model3a2a322a-x-4_4_y-4_4_z-180_180-integral.table
0 0 0 0
2
.1
2  0.  .00  0.  0.
 
'DRIFT'    2.162m_C3toC4                                                                                    12
-98.8
 
'TOSCA'                                                                                                     13
0  20
-9.36419245E-04 1. 1. 1.
HEADER_8
361 81 81  15.1  1.
./fieldMaps/model3a2a-x-4_4_y-4_4_z-180_180-integral.table
0 0 0 0
2
.1
2  0.  .00  0.  0.
 
'DRIFT'                                                                                                     14
16.4
 
'FAISCEAU'                                                                                                  15
'SPNPRT'   MATRIX                                                                                           16
 
'END'                                                                                                       17

************************************************************************************************************************************
      1  Keyword, label(s) :  OBJET                                                                                    IPASS= 1

                          MAGNETIC  RIGIDITY =     853712.445 kG*cm

                                         TRAJECTOIRY SETTING UP

                              OBJET  (2)  BUILT  UP  FROM       9 POINTS 



************************************************************************************************************************************
      2  Keyword, label(s) :  FAISCEAU                                                                                 IPASS= 1

0                                             TRACE DU FAISCEAU
                                           (follows element #      1)
                                                  9 TRAJECTOIRES

                                   OBJET                                                  FAISCEAU

          D       Y(cm)     T(mr)     Z(cm)     P(mr)       S(cm)      D-1     Y(cm)    T(mr)    Z(cm)    P(mr)      S(cm)

o   1   1.0000     0.000     0.000     0.000     0.000      0.0000   0.0000    0.000    0.000    0.000    0.000   0.000000E+00     1
o   1   1.0000     0.000     0.000     0.000     0.000      0.0000   0.0000    0.000    0.000    0.000    0.000   0.000000E+00     2
o   1   1.0000     0.000     0.000     0.000     0.000      0.0000   0.0000    0.000    0.000    0.000    0.000   0.000000E+00     3
o   1   0.3944     0.000     0.000     0.000     0.000      0.0000  -0.6056    0.000    0.000    0.000    0.000   0.000000E+00     4
o   1   0.3944     0.000     0.000     0.000     0.000      0.0000  -0.6056    0.000    0.000    0.000    0.000   0.000000E+00     5
o   1   0.3944     0.000     0.000     0.000     0.000      0.0000  -0.6056    0.000    0.000    0.000    0.000   0.000000E+00     6
o   1   0.0930     0.000     0.000     0.000     0.000      0.0000  -0.9070    0.000    0.000    0.000    0.000   0.000000E+00     7
o   1   0.0930     0.000     0.000     0.000     0.000      0.0000  -0.9070    0.000    0.000    0.000    0.000   0.000000E+00     8
o   1   0.0930     0.000     0.000     0.000     0.000      0.0000  -0.9070    0.000    0.000    0.000    0.000   0.000000E+00     9


---------------  Concentration ellipses : 
   surface/pi              alpha        beta         <X>            <XP>           numb. of prtcls   ratio      space      pass# 
                                                                                   in ellips,  out 
   0.0000E+00 [m.rad]      0.0000E+00   1.0000E+00   0.000000E+00   0.000000E+00        9        9    1.000      (Y,T)         1
   0.0000E+00 [m.rad]      0.0000E+00   1.0000E+00   0.000000E+00   0.000000E+00        9        9    1.000      (Z,P)         1
   0.0000E+00 [mu_s.MeV]   0.0000E+00   1.0000E+00   0.000000E+00   1.268880E+05        9        0    0.000      (t,K)         1

(Y,T)  space (units : m, rad   ) :  
      sigma_Y = sqrt(surface/pi * beta) =   0.000000E+00
      sigma_T = sqrt(surface/pi * (1+alpha^2)/beta) =   0.000000E+00

(Z,P)  space (units : m, rad   ) :  
      sigma_Z = sqrt(surface/pi * beta) =   0.000000E+00
      sigma_P = sqrt(surface/pi * (1+alpha^2)/beta) =   0.000000E+00

(t,K)  space (units : mu_s, MeV) :  
      sigma_t = sqrt(surface/pi * beta) =   0.000000E+00
      sigma_K = sqrt(surface/pi * (1+alpha^2)/beta) =   0.000000E+00


  Beam  sigma  matrix  and  determinants : 

   0.000000E+00   0.000000E+00   0.000000E+00   0.000000E+00
   0.000000E+00   0.000000E+00   0.000000E+00   0.000000E+00
   0.000000E+00   0.000000E+00   0.000000E+00   0.000000E+00
   0.000000E+00   0.000000E+00   0.000000E+00   0.000000E+00

      sqrt(det_Y), sqrt(det_Z) :     0.000000E+00    0.000000E+00    (Note :  sqrt(determinant) = ellipse surface / pi)

************************************************************************************************************************************
      3  Keyword, label(s) :  PARTICUL                                                                                 IPASS= 1

     Particle  properties :
     Particle name unknown.
                     Mass          =    938.272        MeV/c2
                     Charge        =   1.602176E-19    C     
                     G  factor     =    1.79285              

              Reference  data :
                    mag. rigidity (kG.cm)   :   853712.44      =p/q, such that dev.=B*L/rigidity
                    mass (MeV/c2)           :   938.27203    
                    momentum (MeV/c)        :   255936.55    
                    energy, total (MeV)     :   255938.27    
                    energy, kinetic (MeV)   :   255000.00    
                    beta = v/c              :  0.9999932802    
                    gamma                   :   272.7761927    
                    beta*gamma              :   272.7743597    
                    G*gamma                 :   489.0460878    
                    electric rigidity (MeV) :   255934.8323    =T[eV]*(gamma+1)/gamma, such that dev.=E*L/rigidity
  
 I, AMQ(1,I), AMQ(2,I)/QE, P/Pref, v/c, time, s :
  
     1   9.38272030E+02  1.00000000E+00  1.00000000E+00  9.99993280E-01  0.00000000E+00  0.00000000E+00
     2   9.38272030E+02  1.00000000E+00  1.00000000E+00  9.99993280E-01  0.00000000E+00  0.00000000E+00
     3   9.38272030E+02  1.00000000E+00  1.00000000E+00  9.99993280E-01  0.00000000E+00  0.00000000E+00
     4   9.38272030E+02  1.00000000E+00  3.94370800E-01  9.99956796E-01  0.00000000E+00  0.00000000E+00
     5   9.38272030E+02  1.00000000E+00  3.94370800E-01  9.99956796E-01  0.00000000E+00  0.00000000E+00
     6   9.38272030E+02  1.00000000E+00  3.94370800E-01  9.99956796E-01  0.00000000E+00  0.00000000E+00
     7   9.38272030E+02  1.00000000E+00  9.29666000E-02  9.99223390E-01  0.00000000E+00  0.00000000E+00
     8   9.38272030E+02  1.00000000E+00  9.29666000E-02  9.99223390E-01  0.00000000E+00  0.00000000E+00
     9   9.38272030E+02  1.00000000E+00  9.29666000E-02  9.99223390E-01  0.00000000E+00  0.00000000E+00

************************************************************************************************************************************
      4  Keyword, label(s) :  SPNTRK                                                                                   IPASS= 1


                Spin  tracking  requested.


                          Particle  mass          =    938.2720     MeV/c2
                          Gyromagnetic  factor  G =    1.792847    

                          Initial spin conditions type  4 :
                              All spins entered particle by particle
                              Particles # 1 to 9 may be subjected to spin matching using FIT procedure

                          PARAMETRES  DYNAMIQUES  DE  REFERENCE :
                               BORO    =    853712.445 kG*cm
                               beta    =    0.99999328
                               gamma   = 272.77619267
                               gamma*G = 489.0460878073


                          POLARISATION  INITIALE  MOYENNE  DU  FAISCEAU  DE        9  PARTICULES :
                               <SX> =     0.577350
                               <SY> =     0.577350
                               <SZ> =     0.577350
                               <S>  =     1.000000

************************************************************************************************************************************
      5  Keyword, label(s) :  DRIFT                                                                                    IPASS= 1


                              Drift,  length =     3.60000  cm

TRAJ #1 IEX,D,Y,T,Z,P,S,time :  1  0.000000E+00  0.000000E+00  0.000000E+00  0.000000E+00  0.000000E+00  3.6000000E+00  1.20084E-04
TRAJ #1 SX, SY, SZ, |S| :  1    1.000000E+00   0.000000E+00   0.000000E+00   1.000000E+00

 Cumulative length of optical axis =   3.600000000E-02 m   ;  Time  (for reference rigidity & particle) =   1.200839E-10 s 

************************************************************************************************************************************
      6  Keyword, label(s) :  DRIFT                                                                                    IPASS= 1


                              Drift,  length =    16.40000  cm

TRAJ #1 IEX,D,Y,T,Z,P,S,time :  1  0.000000E+00  0.000000E+00  0.000000E+00  0.000000E+00  0.000000E+00  2.0000000E+01  6.67133E-04
TRAJ #1 SX, SY, SZ, |S| :  1    1.000000E+00   0.000000E+00   0.000000E+00   1.000000E+00

 Cumulative length of optical axis =   0.200000000     m   ;  Time  (for reference rigidity & particle) =   6.671327E-10 s 

************************************************************************************************************************************
      7  Keyword, label(s) :  TOSCA                                                                                    IPASS= 1


                OPEN FILE zgoubi.plt                                                                      
                FOR PRINTING TRAJECTORIES


     Status of MOD.MOD2 is 15.1 ; NDIM = 3 ; number of field data files used is   1.
     Field map set stored in field array HC(IMAP = 1)
     2-D map. MOD=15.  Single field map, with field coefficient value : 
                 1.000000E+00

     ZroBXY OPTION :  absent from map title. BX and BY values in Z=0 plane left as read.

           New field map(s) opened, cartesian mesh (MOD.le.19) ; 
           name(s) of map data file(s) : 

          './fieldMaps/model3a2a-x-4_4_y-4_4_z-180_180-integral.table'

   ----
   Map file number    1 ( of 1 ) (unit # 25 ) :
     ./fieldMaps/model3a2a-x-4_4_y-4_4_z-180_180-integral.table field map,
     FORMAT type : regular,
     field multiplication factor :  1.00000000E+00.

 HEADER  (8 lines) : 
               81          81         361           1                                                                        
      1 X [LENGU]                                                                                                            
      2 Y [LENGU]                                                                                                            
      3 Z [LENGU]                                                                                                            
      4 BX [FLUXU]                                                                                                           
      5 BY [FLUXU]                                                                                                           
      6 BZ [FLUXU]                                                                                                           
      0                                                                                                                      
R_min (cm), DR (cm), DTTA (deg), DZ (cm) :    8.10000000E+01   8.10000000E+01   3.61000000E+02   1.00000000E+00

  Sbr fmapw/fmapr3 : completed job of reading map.
     Field map scaled by factor  a(1) =   1.000000E+00

     Min/max fields found in map (series) read   :  -1.531816E+07  /   1.531908E+07
       @  X,  Y, Z :  -52.0      -4.00      -2.90                  /   52.0      -4.00       2.90    
     Given normalisation coeffs on field, x, y, z :   9.364192E-04   1.000000E+00   1.000000E+00   1.000000E+00
     this yields min/max normalised fields (kG) : -1.434422E+04                      1.434508E+04
       @  X (cm),  Y (cm), Z (cm) :  -52.0      -4.00      -2.90   /   52.0      -4.00       2.90    

     Length of element,  XL =  3.600000E+02 cm 
                                               from  XI =  -1.800000E+02 cm 
                                               to    XF =   1.800000E+02 cm 

     Nbr of nodes in X = 361;  nbr of nodes in Y =   81
     X-size of mesh =  1.000000E+00 cm ; Y-size =  1.000000E-01 cm
     nber of mesh nodes in Z =   81 ; Step in Z =  0.100000E+00 cm

                     OPTION  DE  CALCUL  :  GRILLE  3-D  A  3*3*3  POINTS , INTERPOLATION  A  L'ORDRE  2

                    Integration step :  0.1000     cm

  A    1  1.0000     0.000     0.000     0.000     0.000          180.000     0.001     0.000    -0.134     0.000            1
  A    1  1.0000     0.000     0.000     0.000     0.000          180.000     0.001     0.000    -0.134     0.000            2
  A    1  1.0000     0.000     0.000     0.000     0.000          180.000     0.001     0.000    -0.134     0.000            3
  A    1  0.3944     0.000     0.000     0.000     0.000          180.000     0.002     0.000    -0.340     0.000            4
  A    1  0.3944     0.000     0.000     0.000     0.000          180.000     0.002     0.000    -0.340     0.000            5
  A    1  0.3944     0.000     0.000     0.000     0.000          180.000     0.002     0.000    -0.340     0.000            6
  A    1  0.0930     0.000     0.000     0.000     0.000          180.000     0.009     0.000    -1.441     0.000            7
  A    1  0.0930     0.000     0.000     0.000     0.000          180.000     0.009     0.000    -1.441     0.000            8
  A    1  0.0930     0.000     0.000     0.000     0.000          180.000     0.009     0.000    -1.441     0.000            9


                CONDITIONS  DE  MAXWELL  (    32409.  PAS )  :
                       DIV(B)        LAPLACIEN(B)     ROTATIONNEL(B)
                     9.7170E-20      -1.9223E-20        8.2450E-19
                                      5.3849E-19        4.2112E-18
                                     -7.8861E-20        4.9596E-18
                       LAPLACIEN SCALAIRE =   0.000    



     QUASEX - KPOS =  2 :  Element  is  mis-aligned  wrt.  the  optical  axis.
          X =   0.000     CM   Y =   0.000     cm,  tilt  angle =   0.0000000     RAD


 Cumulative length of optical axis =    3.80000000     m ;  Time  (for ref. rigidity & particle) =   1.267552E-08 s 

************************************************************************************************************************************
      8  Keyword, label(s) :  DRIFT       2.162m_C1toC2                                                                IPASS= 1


                              Drift,  length =   -98.80000  cm

TRAJ #1 IEX,D,Y,T,Z,P,S,time :  1  0.000000E+00  3.353307E-04  4.231451E-03 -1.340354E-01  2.910306E-05  2.8120007E+02  9.37989E-03
TRAJ #1 SX, SY, SZ, |S| :  1    9.982905E-01  -5.808846E-02   6.472439E-03   1.000000E+00

 Cumulative length of optical axis =    2.81200000     m   ;  Time  (for reference rigidity & particle) =   9.379885E-09 s 

************************************************************************************************************************************
      9  Keyword, label(s) :  TOSCA                                                                                    IPASS= 1


     zgoubi.plt                                                                      
      already open...

     Status of MOD.MOD2 is 15.1 ; NDIM = 3 ; number of field data files used is   1.
     Field map set stored in field array HC(IMAP = 2)
     2-D map. MOD=15.  Single field map, with field coefficient value : 
                 1.000000E+00

     ZroBXY OPTION :  absent from map title. BX and BY values in Z=0 plane left as read.

           New field map(s) opened, cartesian mesh (MOD.le.19) ; 
           name(s) of map data file(s) : 

          './fieldMaps/model3a2a322a-x-4_4_y-4_4_z-180_180-integral.table'

   ----
   Map file number    1 ( of 1 ) (unit # 26 ) :
     ./fieldMaps/model3a2a322a-x-4_4_y-4_4_z-180_180-integral.table field map,
     FORMAT type : regular,
     field multiplication factor :  1.00000000E+00.

 HEADER  (8 lines) : 
               81          81         361           1                                                                        
      1 X [LENGU]                                                                                                            
      2 Y [LENGU]                                                                                                            
      3 Z [LENGU]                                                                                                            
      4 BX [FLUXU]                                                                                                           
      5 BY [FLUXU]                                                                                                           
      6 BZ [FLUXU]                                                                                                           
      0                                                                                                                      
R_min (cm), DR (cm), DTTA (deg), DZ (cm) :    8.10000000E+01   8.10000000E+01   3.61000000E+02   1.00000000E+00

  Sbr fmapw/fmapr3 : completed job of reading map.
     Field map scaled by factor  a(1) =   1.000000E+00

     Min/max fields found in map (series) read   :   4.393234E+07  /  -4.394105E+07
       @  X,  Y, Z :  -52.0      -4.00      -2.90                  /   52.0      -4.00       2.90    
     Given normalisation coeffs on field, x, y, z :  -1.002754E-03   1.000000E+00   1.000000E+00   1.000000E+00
     this yields min/max normalised fields (kG) : -4.405332E+04                      4.406205E+04
       @  X (cm),  Y (cm), Z (cm) :  -52.0      -4.00      -2.90   /   52.0      -4.00       2.90    

     Length of element,  XL =  3.600000E+02 cm 
                                               from  XI =  -1.800000E+02 cm 
                                               to    XF =   1.800000E+02 cm 

     Nbr of nodes in X = 361;  nbr of nodes in Y =   81
     X-size of mesh =  1.000000E+00 cm ; Y-size =  1.000000E-01 cm
     nber of mesh nodes in Z =   81 ; Step in Z =  0.100000E+00 cm

                     OPTION  DE  CALCUL  :  GRILLE  3-D  A  3*3*3  POINTS , INTERPOLATION  A  L'ORDRE  2

                    Integration step :  0.1000     cm

  A    1  1.0000     0.000     0.000     0.000     0.000          180.000    -0.005    -0.000     0.299    -0.000            1
  A    1  1.0000     0.000     0.000     0.000     0.000          180.000    -0.005    -0.000     0.299    -0.000            2
  A    1  1.0000     0.000     0.000     0.000     0.000          180.000    -0.005    -0.000     0.299    -0.000            3
  A    1  0.3944     0.000     0.000     0.000     0.000          180.000    -0.013    -0.000     0.758    -0.000            4
  A    1  0.3944     0.000     0.000     0.000     0.000          180.000    -0.013    -0.000     0.758    -0.000            5
  A    1  0.3944     0.000     0.000     0.000     0.000          180.000    -0.013    -0.000     0.758    -0.000            6
  A    1  0.0930     0.000     0.000     0.000     0.000          180.000    -0.068    -0.000     3.219    -0.000            7
  A    1  0.0930     0.000     0.000     0.000     0.000          180.000    -0.068    -0.000     3.219    -0.000            8
  A    1  0.0930     0.000     0.000     0.000     0.000          180.000    -0.068    -0.000     3.219    -0.000            9


                CONDITIONS  DE  MAXWELL  (    32409.  PAS )  :
                       DIV(B)        LAPLACIEN(B)     ROTATIONNEL(B)
                    -8.1920E-17       4.4474E-18        6.3767E-18
                                     -9.7334E-18       -2.9046E-16
                                     -2.5805E-17        7.4091E-17
                       LAPLACIEN SCALAIRE =   0.000    



     QUASEX - KPOS =  2 :  Element  is  mis-aligned  wrt.  the  optical  axis.
          X =   0.000     CM   Y =   0.000     cm,  tilt  angle =   0.0000000     RAD


 Cumulative length of optical axis =    6.41200000     m ;  Time  (for ref. rigidity & particle) =   2.138827E-08 s 

************************************************************************************************************************************
     10  Keyword, label(s) :  DRIFT       2.162m_C2toC3                                                                IPASS= 1


                              Drift,  length =   -75.20000  cm

TRAJ #1 IEX,D,Y,T,Z,P,S,time :  1  0.000000E+00 -2.489477E-03 -3.431589E-02  2.989674E-01 -2.577632E-04  5.6600086E+02  1.88799E-02
TRAJ #1 SX, SY, SZ, |S| :  1    3.708662E-01   6.019457E-01  -7.071914E-01   1.000000E+00

 Cumulative length of optical axis =    5.66000000     m   ;  Time  (for reference rigidity & particle) =   1.887985E-08 s 

************************************************************************************************************************************
     11  Keyword, label(s) :  TOSCA                                                                                    IPASS= 1


     zgoubi.plt                                                                      
      already open...

     Status of MOD.MOD2 is 15.1 ; NDIM = 3 ; number of field data files used is   1.
     Field map set stored in field array HC(IMAP = 2)
     2-D map. MOD=15.  Single field map, with field coefficient value : 
                 1.000000E+00

     ZroBXY OPTION :  absent from map title. BX and BY values in Z=0 plane left as read.

     No  map  file  opened :  was  already  stored.
     Skip  reading  field  map  file :           ./fieldMaps/model3a2a322a-x-4_4_y-4_4_z-180_180-integral.table
     Restored mesh coordinates for field map #IMAP=   2,  name : ./fieldMaps/model3a2a322a-x-4_4_y-4_4_z-180_180-integral.table
     Field map scaled by factor  a(1) =   1.000000E+00

     Min/max fields found in map (series) read   :  -4.393234E+07  /   4.394105E+07
       @  X,  Y, Z :  -52.0      -4.00      -2.90                  /   52.0      -4.00       2.90    
     Given normalisation coeffs on field, x, y, z :   1.002754E-03   1.000000E+00   1.000000E+00   1.000000E+00
     this yields min/max normalised fields (kG) : -4.405332E+04                      4.406205E+04
       @  X (cm),  Y (cm), Z (cm) :  -52.0      -4.00      -2.90   /   52.0      -4.00       2.90    

     Length of element,  XL =  3.600000E+02 cm 
                                               from  XI =  -1.800000E+02 cm 
                                               to    XF =   1.800000E+02 cm 

     Nbr of nodes in X = 361;  nbr of nodes in Y =   81
     X-size of mesh =  1.000000E+00 cm ; Y-size =  1.000000E-01 cm
     nber of mesh nodes in Z =   81 ; Step in Z =  0.100000E+00 cm

                     OPTION  DE  CALCUL  :  GRILLE  3-D  A  3*3*3  POINTS , INTERPOLATION  A  L'ORDRE  2

                    Integration step :  0.1000     cm

  A    1  1.0000     0.000     0.000     0.000     0.000          180.000    -0.008     0.000    -0.134    -0.000            1
  A    1  1.0000     0.000     0.000     0.000     0.000          180.000    -0.008     0.000    -0.134    -0.000            2
  A    1  1.0000     0.000     0.000     0.000     0.000          180.000    -0.008     0.000    -0.134    -0.000            3
  A    1  0.3944     0.000     0.000     0.000     0.000          180.000    -0.020     0.000    -0.340    -0.000            4
  A    1  0.3944     0.000     0.000     0.000     0.000          180.000    -0.020     0.000    -0.340    -0.000            5
  A    1  0.3944     0.000     0.000     0.000     0.000          180.000    -0.020     0.000    -0.340    -0.000            6
  A    1  0.0930     0.000     0.000     0.000     0.000          180.000    -0.104     0.000    -1.480    -0.000            7
  A    1  0.0930     0.000     0.000     0.000     0.000          180.000    -0.104     0.000    -1.480    -0.000            8
  A    1  0.0930     0.000     0.000     0.000     0.000          180.000    -0.104     0.000    -1.480    -0.000            9


                CONDITIONS  DE  MAXWELL  (    32409.  PAS )  :
                       DIV(B)        LAPLACIEN(B)     ROTATIONNEL(B)
                    -3.8458E-17       2.1298E-18        3.0254E-18
                                      9.8360E-18        2.9866E-16
                                      2.6770E-17       -7.4543E-17
                       LAPLACIEN SCALAIRE =   0.000    



     QUASEX - KPOS =  2 :  Element  is  mis-aligned  wrt.  the  optical  axis.
          X =   0.000     CM   Y =   0.000     cm,  tilt  angle =   0.0000000     RAD


 Cumulative length of optical axis =    9.26000000     m ;  Time  (for ref. rigidity & particle) =   3.088824E-08 s 

************************************************************************************************************************************
     12  Keyword, label(s) :  DRIFT       2.162m_C3toC4                                                                IPASS= 1


                              Drift,  length =   -98.80000  cm

TRAJ #1 IEX,D,Y,T,Z,P,S,time :  1  0.000000E+00 -8.324024E-03  4.287463E-03 -1.341102E-01 -6.481482E-05  8.2720165E+02  2.75927E-02
TRAJ #1 SX, SY, SZ, |S| :  1   -5.816805E-02  -9.739483E-01  -2.191829E-01   1.000000E+00

 Cumulative length of optical axis =    8.27200000     m   ;  Time  (for reference rigidity & particle) =   2.759261E-08 s 

************************************************************************************************************************************
     13  Keyword, label(s) :  TOSCA                                                                                    IPASS= 1


     zgoubi.plt                                                                      
      already open...

     Status of MOD.MOD2 is 15.1 ; NDIM = 3 ; number of field data files used is   1.
     Field map set stored in field array HC(IMAP = 1)
     2-D map. MOD=15.  Single field map, with field coefficient value : 
                 1.000000E+00

     ZroBXY OPTION :  absent from map title. BX and BY values in Z=0 plane left as read.

     No  map  file  opened :  was  already  stored.
     Skip  reading  field  map  file :           ./fieldMaps/model3a2a-x-4_4_y-4_4_z-180_180-integral.table
     Restored mesh coordinates for field map #IMAP=   1,  name : ./fieldMaps/model3a2a-x-4_4_y-4_4_z-180_180-integral.table
     Field map scaled by factor  a(1) =   1.000000E+00

     Min/max fields found in map (series) read   :   1.531816E+07  /  -1.531908E+07
       @  X,  Y, Z :  -52.0      -4.00      -2.90                  /   52.0      -4.00       2.90    
     Given normalisation coeffs on field, x, y, z :  -9.364192E-04   1.000000E+00   1.000000E+00   1.000000E+00
     this yields min/max normalised fields (kG) : -1.434422E+04                      1.434508E+04
       @  X (cm),  Y (cm), Z (cm) :  -52.0      -4.00      -2.90   /   52.0      -4.00       2.90    

     Length of element,  XL =  3.600000E+02 cm 
                                               from  XI =  -1.800000E+02 cm 
                                               to    XF =   1.800000E+02 cm 

     Nbr of nodes in X = 361;  nbr of nodes in Y =   81
     X-size of mesh =  1.000000E+00 cm ; Y-size =  1.000000E-01 cm
     nber of mesh nodes in Z =   81 ; Step in Z =  0.100000E+00 cm

                     OPTION  DE  CALCUL  :  GRILLE  3-D  A  3*3*3  POINTS , INTERPOLATION  A  L'ORDRE  2

                    Integration step :  0.1000     cm

  A    1  1.0000     0.000     0.000     0.000     0.000          180.000    -0.008     0.000    -0.000    -0.000            1
  A    1  1.0000     0.000     0.000     0.000     0.000          180.000    -0.008     0.000    -0.000    -0.000            2
  A    1  1.0000     0.000     0.000     0.000     0.000          180.000    -0.008     0.000    -0.000    -0.000            3
  A    1  0.3944     0.000     0.000     0.000     0.000          180.000    -0.019     0.000    -0.001    -0.000            4
  A    1  0.3944     0.000     0.000     0.000     0.000          180.000    -0.019     0.000    -0.001    -0.000            5
  A    1  0.3944     0.000     0.000     0.000     0.000          180.000    -0.019     0.000    -0.001    -0.000            6
  A    1  0.0930     0.000     0.000     0.000     0.000          180.000    -0.099     0.000    -0.067    -0.000            7
  A    1  0.0930     0.000     0.000     0.000     0.000          180.000    -0.099     0.000    -0.067    -0.000            8
  A    1  0.0930     0.000     0.000     0.000     0.000          180.000    -0.099     0.000    -0.067    -0.000            9


                CONDITIONS  DE  MAXWELL  (    32409.  PAS )  :
                       DIV(B)        LAPLACIEN(B)     ROTATIONNEL(B)
                     5.3706E-20      -7.0240E-22       -5.3823E-20
                                     -5.4026E-19       -4.1983E-18
                                      8.3150E-20       -4.9745E-18
                       LAPLACIEN SCALAIRE =   0.000    



     QUASEX - KPOS =  2 :  Element  is  mis-aligned  wrt.  the  optical  axis.
          X =   0.000     CM   Y =   0.000     cm,  tilt  angle =   0.0000000     RAD


 Cumulative length of optical axis =    11.8720000     m ;  Time  (for ref. rigidity & particle) =   3.960100E-08 s 

************************************************************************************************************************************
     14  Keyword, label(s) :  DRIFT                                                                                    IPASS= 1


                              Drift,  length =    16.40000  cm

TRAJ #1 IEX,D,Y,T,Z,P,S,time :  1  0.000000E+00 -7.532613E-03  5.843283E-05 -1.013716E-04 -8.772381E-05  1.2036017E+03  4.01481E-02
TRAJ #1 SX, SY, SZ, |S| :  1   -7.689934E-05  -1.000000E+00   8.543716E-05   1.000000E+00

 Cumulative length of optical axis =    12.0360000     m   ;  Time  (for reference rigidity & particle) =   4.014804E-08 s 

************************************************************************************************************************************
     15  Keyword, label(s) :  FAISCEAU                                                                                 IPASS= 1

0                                             TRACE DU FAISCEAU
                                           (follows element #     14)
                                                  9 TRAJECTOIRES

                                   OBJET                                                  FAISCEAU

          D       Y(cm)     T(mr)     Z(cm)     P(mr)       S(cm)      D-1     Y(cm)    T(mr)    Z(cm)    P(mr)      S(cm)

o   1   1.0000     0.000     0.000     0.000     0.000      0.0000   0.0000   -0.008    0.000   -0.000   -0.000   1.203602E+03     1
               Time of flight (mus) :  4.01481017E-02 mass (MeV/c2) :   938.272    
o   1   1.0000     0.000     0.000     0.000     0.000      0.0000   0.0000   -0.008    0.000   -0.000   -0.000   1.203602E+03     2
               Time of flight (mus) :  4.01481017E-02 mass (MeV/c2) :   938.272    
o   1   1.0000     0.000     0.000     0.000     0.000      0.0000   0.0000   -0.008    0.000   -0.000   -0.000   1.203602E+03     3
               Time of flight (mus) :  4.01481017E-02 mass (MeV/c2) :   938.272    
o   1   0.3944     0.000     0.000     0.000     0.000      0.0000  -0.6056   -0.019    0.000   -0.001   -0.001   1.203611E+03     4
               Time of flight (mus) :  4.01498782E-02 mass (MeV/c2) :   938.272    
o   1   0.3944     0.000     0.000     0.000     0.000      0.0000  -0.6056   -0.019    0.000   -0.001   -0.001   1.203611E+03     5
               Time of flight (mus) :  4.01498782E-02 mass (MeV/c2) :   938.272    
o   1   0.3944     0.000     0.000     0.000     0.000      0.0000  -0.6056   -0.019    0.000   -0.001   -0.001   1.203611E+03     6
               Time of flight (mus) :  4.01498782E-02 mass (MeV/c2) :   938.272    
o   1   0.0930     0.000     0.000     0.000     0.000      0.0000  -0.9070   -0.099    0.006   -0.069   -0.113   1.203800E+03     7
               Time of flight (mus) :  4.01856568E-02 mass (MeV/c2) :   938.272    
o   1   0.0930     0.000     0.000     0.000     0.000      0.0000  -0.9070   -0.099    0.006   -0.069   -0.113   1.203800E+03     8
               Time of flight (mus) :  4.01856568E-02 mass (MeV/c2) :   938.272    
o   1   0.0930     0.000     0.000     0.000     0.000      0.0000  -0.9070   -0.099    0.006   -0.069   -0.113   1.203800E+03     9
               Time of flight (mus) :  4.01856568E-02 mass (MeV/c2) :   938.272    


---------------  Concentration ellipses : 
   surface/pi              alpha        beta         <X>            <XP>           numb. of prtcls   ratio      space      pass# 
                                                                                   in ellips,  out 
   8.8727E-11 [m.rad]      1.3352E+01   1.8476E+03  -4.180056E-04   2.286502E-06        9        9    1.000      (Y,T)         1
   1.5281E-11 [m.rad]     -1.1192E+03   6.8525E+03  -2.344491E-04  -3.815603E-05        9        9    1.000      (Z,P)         1
   1.0409E+00 [mu_s.MeV]   1.2545E+00   2.8754E-10   4.016121E-02   1.259579E+05        9        9    1.000      (t,K)         1

(Y,T)  space (units : m, rad   ) :  
      sigma_Y = sqrt(surface/pi * beta) =   4.048886E-04
      sigma_T = sqrt(surface/pi * (1+alpha^2)/beta) =   2.934100E-06

(Z,P)  space (units : m, rad   ) :  
      sigma_Z = sqrt(surface/pi * beta) =   3.235917E-04
      sigma_P = sqrt(surface/pi * (1+alpha^2)/beta) =   5.285052E-05

(t,K)  space (units : mu_s, MeV) :  
      sigma_t = sqrt(surface/pi * beta) =   1.730015E-05
      sigma_K = sqrt(surface/pi * (1+alpha^2)/beta) =   9.652636E+04


  Beam  sigma  matrix  and  determinants : 

   1.639348E-07  -1.184666E-09   1.302793E-07   2.127579E-08
  -1.184666E-09   8.608942E-12  -9.489785E-10  -1.549872E-10
   1.302793E-07  -9.489785E-10   1.047116E-07   1.710198E-08
   2.127579E-08  -1.549872E-10   1.710198E-08   2.793178E-09

      sqrt(det_Y), sqrt(det_Z) :     8.872724E-11    1.528072E-11    (Note :  sqrt(determinant) = ellipse surface / pi)
      normalized (*beta*gamma) :     2.420252E-08    4.168188E-09

************************************************************************************************************************************
     16  Keyword, label(s) :  SPNPRT      MATRIX                                                                       IPASS= 1


                          -- 3  GROUPS  OF  MOMENTA  FOLLOW   --


                         --------------------------------------------------------------
                         Momentum  group  #1 ; average  over 3 particles at this pass : 

                   INITIAL                                           FINAL

      <SX>       <SY>       <SZ>       <|S|>            <SX>       <SY>       <SZ>      <|S|>    <G.gma>    <(SI,SF)>  sigma_(SI,SF)
                                                                                                               (deg)       (deg)
   0.333333   0.333333   0.333333   0.577350        -0.333330  -0.333336  -0.333334   0.577350 489.046088 119.997657  42.423093


                Spin  components  of  each  of  the      3  particles,  and  rotation  angle :

                   INITIAL                                           FINAL

           SX        SY        SZ        |S|         SX        SY        SZ        |S|       GAMMA   |Si,Sf|   (Z,Sf_yz) (Z,Sf)
                                                                                                      (deg.)    (deg.)    (deg.)
                                                                                           (Sf_yz : projection of Sf on YZ plane)

 o  1  1.000000  0.000000  0.000000  1.000000    -0.000077 -1.000000  0.000085  1.000000    272.7762  -90.004   89.995   89.995    1
 o  1  0.000000  1.000000  0.000000  1.000000    -1.000000  0.000077 -0.000088  1.000000    272.7762   89.996  126.988   90.005    2
 o  1  0.000000  0.000000  1.000000  1.000000     0.000088 -0.000085 -1.000000  1.000000    272.7762 -179.993  135.000  179.993    3



                Min/Max  components  of  each  of  the      3  particles :

  SX_mi       SX_ma       SY_mi       SY_ma       SZ_mi       SZ_ma       |S|_mi      |S|_ma      p/p_0        GAMMA          I  IEX

 -7.6899E-05 -7.6899E-05 -1.0000E+00 -1.0000E+00  8.5437E-05  8.5437E-05  1.0000E+00  1.0000E+00  1.00000E+00  2.72776E+02     1   1
 -1.0000E+00 -1.0000E+00  7.6892E-05  7.6892E-05 -8.8048E-05 -8.8048E-05  1.0000E+00  1.0000E+00  1.00000E+00  2.72776E+02     2   1
  8.8041E-05  8.8041E-05 -8.5444E-05 -8.5444E-05 -1.0000E+00 -1.0000E+00  1.0000E+00  1.0000E+00  1.00000E+00  2.72776E+02     3   1


                  Spin transfer matrix, momentum group # 1 :

         -7.689934E-05    -1.00000        8.804122E-05
          -1.00000        7.689182E-05   -8.544393E-05
          8.543716E-05   -8.804779E-05    -1.00000    

     Trace =      -1.0000000000,    ;   spin precession acos((trace-1)/2) =     179.9998927775 deg
     Precession axis :  (-0.7071,  0.7071, -0.0001)  ->  angle to (X,Y) plane,  angle to X axis :    -0.0035,  -179.9950  degree
     Spin  tune  Qs =     5.0000E-01


                         --------------------------------------------------------------
                         Momentum  group  #2 ; average  over 3 particles at this pass : 

                   INITIAL                                           FINAL

      <SX>       <SY>       <SZ>       <|S|>            <SX>       <SY>       <SZ>      <|S|>    <G.gma>    <(SI,SF)>  sigma_(SI,SF)
                                                                                                               (deg)       (deg)
   0.333333   0.333333   0.333333   0.577350        -0.333609  -0.333119  -0.333271   0.577350 192.872534 119.996530  42.421517


                Spin  components  of  each  of  the      3  particles,  and  rotation  angle :

                   INITIAL                                           FINAL

           SX        SY        SZ        |S|         SX        SY        SZ        |S|       GAMMA   |Si,Sf|   (Z,Sf_yz) (Z,Sf)
                                                                                                      (deg.)    (deg.)    (deg.)
                                                                                           (Sf_yz : projection of Sf on YZ plane)

 o  1  1.000000  0.000000  0.000000  1.000000    -0.000823 -1.000000  0.000182  1.000000    107.5789  -90.047   89.990   89.990    4
 o  1  0.000000  1.000000  0.000000  1.000000    -1.000000  0.000823  0.000006  1.000000    107.5789   89.953   89.612   90.000    5
 o  1  0.000000  0.000000  1.000000  1.000000    -0.000006 -0.000182 -1.000000  1.000000    107.5789 -179.990  135.000  179.990    6



                Min/Max  components  of  each  of  the      3  particles :

  SX_mi       SX_ma       SY_mi       SY_ma       SZ_mi       SZ_ma       |S|_mi      |S|_ma      p/p_0        GAMMA          I  IEX

 -8.2306E-04 -8.2306E-04 -1.0000E+00 -1.0000E+00  1.8160E-04  1.8160E-04  1.0000E+00  1.0000E+00  3.94371E-01  1.07579E+02     4   1
 -1.0000E+00 -1.0000E+00  8.2306E-04  8.2306E-04  5.5692E-06  5.5692E-06  1.0000E+00  1.0000E+00  3.94371E-01  1.07579E+02     5   1
 -5.7186E-06 -5.7186E-06 -1.8160E-04 -1.8160E-04 -1.0000E+00 -1.0000E+00  1.0000E+00  1.0000E+00  3.94371E-01  1.07579E+02     6   1


                  Spin transfer matrix, momentum group # 2 :

         -8.230580E-04    -1.00000       -5.718645E-06
          -1.00000        8.230591E-04   -1.815993E-04
          1.816040E-04    5.569176E-06    -1.00000    

     Trace =      -0.9999999825,    ;   spin precession acos((trace-1)/2) =     179.9924138649 deg
     Precession axis :  ( 0.7068, -0.7074,  0.0001)  ->  angle to (X,Y) plane,  angle to X axis :     0.0036,     0.0050  degree
     Spin  tune  Qs =     4.9998E-01


                         --------------------------------------------------------------
                         Momentum  group  #3 ; average  over 3 particles at this pass : 

                   INITIAL                                           FINAL

      <SX>       <SY>       <SZ>       <|S|>            <SX>       <SY>       <SZ>      <|S|>    <G.gma>    <(SI,SF)>  sigma_(SI,SF)
                                                                                                               (deg)       (deg)
   0.333333   0.333333   0.333333   0.577350        -0.339313  -0.328753  -0.331846   0.577350  45.499982 119.939425  42.347580


                Spin  components  of  each  of  the      3  particles,  and  rotation  angle :

                   INITIAL                                           FINAL

           SX        SY        SZ        |S|         SX        SY        SZ        |S|       GAMMA   |Si,Sf|   (Z,Sf_yz) (Z,Sf)
                                                                                                      (deg.)    (deg.)    (deg.)
                                                                                           (Sf_yz : projection of Sf on YZ plane)

 o  1  1.000000  0.000000  0.000000  1.000000    -0.016025 -0.999869  0.002452  1.000000     25.3786  -90.918   89.859   89.859    7
 o  1  0.000000  1.000000  0.000000  1.000000    -0.999869  0.016030  0.002004  1.000000     25.3786   89.081   82.929   89.885    8
 o  1  0.000000  0.000000  1.000000  1.000000    -0.002043 -0.002420 -0.999995  1.000000     25.3786 -179.819  135.000  179.819    9



                Min/Max  components  of  each  of  the      3  particles :

  SX_mi       SX_ma       SY_mi       SY_ma       SZ_mi       SZ_ma       |S|_mi      |S|_ma      p/p_0        GAMMA          I  IEX

 -1.6025E-02 -1.6025E-02 -9.9987E-01 -9.9987E-01  2.4522E-03  2.4522E-03  1.0000E+00  1.0000E+00  9.29666E-02  2.53786E+01     7   1
 -9.9987E-01 -9.9987E-01  1.6030E-02  1.6030E-02  2.0038E-03  2.0038E-03  1.0000E+00  1.0000E+00  9.29666E-02  2.53786E+01     8   1
 -2.0428E-03 -2.0428E-03 -2.4198E-03 -2.4198E-03 -9.9999E-01 -9.9999E-01  1.0000E+00  1.0000E+00  9.29666E-02  2.53786E+01     9   1


                  Spin transfer matrix, momentum group # 3 :

         -1.602537E-02   -0.999869       -2.042824E-03
         -0.999869        1.603030E-02   -2.419762E-03
          2.452193E-03    2.003778E-03   -0.999995    

     Trace =      -0.9999900568,    ;   spin precession acos((trace-1)/2) =     179.8193296615 deg
     Precession axis :  ( 0.7014, -0.7128,  0.0001)  ->  angle to (X,Y) plane,  angle to X axis :     0.0084,     0.0119  degree
     Spin  tune  Qs =     4.9950E-01

************************************************************************************************************************************
     17  Keyword, label(s) :  END                                                                                      IPASS= 1


                             9 particles have been launched
                     Made  it  to  the  end :      9

************************************************************************************************************************************
 Pgm zgoubi : Execution ended normally, upon keyword END or FIN
   
 File in:   spinMatrix_210504.res
 File out:  zgoubi.res

  Zgoubi, author's dvlpmnt version.
  Job  started  on  03-05-2021,  at  17:24:47 
  JOB  ENDED  ON    03-05-2021,  AT  17:24:57 

   CPU time, total :     10.321139000000001     
