%!PS-Adobe-2.0 EPSF-2.0
%%Title: gnuplot_scanTraj.eps
%%Creator: gnuplot 5.2 patchlevel 2
%%CreationDate: Wed Sep 11 07:11:07 2019
%%DocumentFonts: (atend)
%%BoundingBox: 50 50 410 302
%%EndComments
%%BeginProlog
/gnudict 256 dict def
gnudict begin
%
% The following true/false flags may be edited by hand if desired.
% The unit line width and grayscale image gamma correction may also be changed.
%
/Color true def
/Blacktext true def
/Solid false def
/Dashlength 1 def
/Landscape false def
/Level1 false def
/Level3 false def
/Rounded false def
/ClipToBoundingBox false def
/SuppressPDFMark false def
/TransparentPatterns false def
/gnulinewidth 5.000 def
/userlinewidth gnulinewidth def
/Gamma 1.0 def
/BackgroundColor {-1.000 -1.000 -1.000} def
%
/vshift -46 def
/dl1 {
  10.0 Dashlength userlinewidth gnulinewidth div mul mul mul
  Rounded { currentlinewidth 0.75 mul sub dup 0 le { pop 0.01 } if } if
} def
/dl2 {
  10.0 Dashlength userlinewidth gnulinewidth div mul mul mul
  Rounded { currentlinewidth 0.75 mul add } if
} def
/hpt_ 31.5 def
/vpt_ 31.5 def
/hpt hpt_ def
/vpt vpt_ def
/doclip {
  ClipToBoundingBox {
    newpath 50 50 moveto 410 50 lineto 410 302 lineto 50 302 lineto closepath
    clip
  } if
} def
%
% Gnuplot Prolog Version 5.1 (Oct 2015)
%
%/SuppressPDFMark true def
%
/M {moveto} bind def
/L {lineto} bind def
/R {rmoveto} bind def
/V {rlineto} bind def
/N {newpath moveto} bind def
/Z {closepath} bind def
/C {setrgbcolor} bind def
/f {rlineto fill} bind def
/g {setgray} bind def
/Gshow {show} def   % May be redefined later in the file to support UTF-8
/vpt2 vpt 2 mul def
/hpt2 hpt 2 mul def
/Lshow {currentpoint stroke M 0 vshift R 
	Blacktext {gsave 0 setgray textshow grestore} {textshow} ifelse} def
/Rshow {currentpoint stroke M dup stringwidth pop neg vshift R
	Blacktext {gsave 0 setgray textshow grestore} {textshow} ifelse} def
/Cshow {currentpoint stroke M dup stringwidth pop -2 div vshift R 
	Blacktext {gsave 0 setgray textshow grestore} {textshow} ifelse} def
/UP {dup vpt_ mul /vpt exch def hpt_ mul /hpt exch def
  /hpt2 hpt 2 mul def /vpt2 vpt 2 mul def} def
/DL {Color {setrgbcolor Solid {pop []} if 0 setdash}
 {pop pop pop 0 setgray Solid {pop []} if 0 setdash} ifelse} def
/BL {stroke userlinewidth 2 mul setlinewidth
	Rounded {1 setlinejoin 1 setlinecap} if} def
/AL {stroke userlinewidth 2 div setlinewidth
	Rounded {1 setlinejoin 1 setlinecap} if} def
/UL {dup gnulinewidth mul /userlinewidth exch def
	dup 1 lt {pop 1} if 10 mul /udl exch def} def
/PL {stroke userlinewidth setlinewidth
	Rounded {1 setlinejoin 1 setlinecap} if} def
3.8 setmiterlimit
% Classic Line colors (version 5.0)
/LCw {1 1 1} def
/LCb {0 0 0} def
/LCa {0 0 0} def
/LC0 {1 0 0} def
/LC1 {0 1 0} def
/LC2 {0 0 1} def
/LC3 {1 0 1} def
/LC4 {0 1 1} def
/LC5 {1 1 0} def
/LC6 {0 0 0} def
/LC7 {1 0.3 0} def
/LC8 {0.5 0.5 0.5} def
% Default dash patterns (version 5.0)
/LTB {BL [] LCb DL} def
/LTw {PL [] 1 setgray} def
/LTb {PL [] LCb DL} def
/LTa {AL [1 udl mul 2 udl mul] 0 setdash LCa setrgbcolor} def
/LT0 {PL [] LC0 DL} def
/LT1 {PL [2 dl1 3 dl2] LC1 DL} def
/LT2 {PL [1 dl1 1.5 dl2] LC2 DL} def
/LT3 {PL [6 dl1 2 dl2 1 dl1 2 dl2] LC3 DL} def
/LT4 {PL [1 dl1 2 dl2 6 dl1 2 dl2 1 dl1 2 dl2] LC4 DL} def
/LT5 {PL [4 dl1 2 dl2] LC5 DL} def
/LT6 {PL [1.5 dl1 1.5 dl2 1.5 dl1 1.5 dl2 1.5 dl1 6 dl2] LC6 DL} def
/LT7 {PL [3 dl1 3 dl2 1 dl1 3 dl2] LC7 DL} def
/LT8 {PL [2 dl1 2 dl2 2 dl1 6 dl2] LC8 DL} def
/SL {[] 0 setdash} def
/Pnt {stroke [] 0 setdash gsave 1 setlinecap M 0 0 V stroke grestore} def
/Dia {stroke [] 0 setdash 2 copy vpt add M
  hpt neg vpt neg V hpt vpt neg V
  hpt vpt V hpt neg vpt V closepath stroke
  Pnt} def
/Pls {stroke [] 0 setdash vpt sub M 0 vpt2 V
  currentpoint stroke M
  hpt neg vpt neg R hpt2 0 V stroke
 } def
/Box {stroke [] 0 setdash 2 copy exch hpt sub exch vpt add M
  0 vpt2 neg V hpt2 0 V 0 vpt2 V
  hpt2 neg 0 V closepath stroke
  Pnt} def
/Crs {stroke [] 0 setdash exch hpt sub exch vpt add M
  hpt2 vpt2 neg V currentpoint stroke M
  hpt2 neg 0 R hpt2 vpt2 V stroke} def
/TriU {stroke [] 0 setdash 2 copy vpt 1.12 mul add M
  hpt neg vpt -1.62 mul V
  hpt 2 mul 0 V
  hpt neg vpt 1.62 mul V closepath stroke
  Pnt} def
/Star {2 copy Pls Crs} def
/BoxF {stroke [] 0 setdash exch hpt sub exch vpt add M
  0 vpt2 neg V hpt2 0 V 0 vpt2 V
  hpt2 neg 0 V closepath fill} def
/TriUF {stroke [] 0 setdash vpt 1.12 mul add M
  hpt neg vpt -1.62 mul V
  hpt 2 mul 0 V
  hpt neg vpt 1.62 mul V closepath fill} def
/TriD {stroke [] 0 setdash 2 copy vpt 1.12 mul sub M
  hpt neg vpt 1.62 mul V
  hpt 2 mul 0 V
  hpt neg vpt -1.62 mul V closepath stroke
  Pnt} def
/TriDF {stroke [] 0 setdash vpt 1.12 mul sub M
  hpt neg vpt 1.62 mul V
  hpt 2 mul 0 V
  hpt neg vpt -1.62 mul V closepath fill} def
/DiaF {stroke [] 0 setdash vpt add M
  hpt neg vpt neg V hpt vpt neg V
  hpt vpt V hpt neg vpt V closepath fill} def
/Pent {stroke [] 0 setdash 2 copy gsave
  translate 0 hpt M 4 {72 rotate 0 hpt L} repeat
  closepath stroke grestore Pnt} def
/PentF {stroke [] 0 setdash gsave
  translate 0 hpt M 4 {72 rotate 0 hpt L} repeat
  closepath fill grestore} def
/Circle {stroke [] 0 setdash 2 copy
  hpt 0 360 arc stroke Pnt} def
/CircleF {stroke [] 0 setdash hpt 0 360 arc fill} def
/C0 {BL [] 0 setdash 2 copy moveto vpt 90 450 arc} bind def
/C1 {BL [] 0 setdash 2 copy moveto
	2 copy vpt 0 90 arc closepath fill
	vpt 0 360 arc closepath} bind def
/C2 {BL [] 0 setdash 2 copy moveto
	2 copy vpt 90 180 arc closepath fill
	vpt 0 360 arc closepath} bind def
/C3 {BL [] 0 setdash 2 copy moveto
	2 copy vpt 0 180 arc closepath fill
	vpt 0 360 arc closepath} bind def
/C4 {BL [] 0 setdash 2 copy moveto
	2 copy vpt 180 270 arc closepath fill
	vpt 0 360 arc closepath} bind def
/C5 {BL [] 0 setdash 2 copy moveto
	2 copy vpt 0 90 arc
	2 copy moveto
	2 copy vpt 180 270 arc closepath fill
	vpt 0 360 arc} bind def
/C6 {BL [] 0 setdash 2 copy moveto
	2 copy vpt 90 270 arc closepath fill
	vpt 0 360 arc closepath} bind def
/C7 {BL [] 0 setdash 2 copy moveto
	2 copy vpt 0 270 arc closepath fill
	vpt 0 360 arc closepath} bind def
/C8 {BL [] 0 setdash 2 copy moveto
	2 copy vpt 270 360 arc closepath fill
	vpt 0 360 arc closepath} bind def
/C9 {BL [] 0 setdash 2 copy moveto
	2 copy vpt 270 450 arc closepath fill
	vpt 0 360 arc closepath} bind def
/C10 {BL [] 0 setdash 2 copy 2 copy moveto vpt 270 360 arc closepath fill
	2 copy moveto
	2 copy vpt 90 180 arc closepath fill
	vpt 0 360 arc closepath} bind def
/C11 {BL [] 0 setdash 2 copy moveto
	2 copy vpt 0 180 arc closepath fill
	2 copy moveto
	2 copy vpt 270 360 arc closepath fill
	vpt 0 360 arc closepath} bind def
/C12 {BL [] 0 setdash 2 copy moveto
	2 copy vpt 180 360 arc closepath fill
	vpt 0 360 arc closepath} bind def
/C13 {BL [] 0 setdash 2 copy moveto
	2 copy vpt 0 90 arc closepath fill
	2 copy moveto
	2 copy vpt 180 360 arc closepath fill
	vpt 0 360 arc closepath} bind def
/C14 {BL [] 0 setdash 2 copy moveto
	2 copy vpt 90 360 arc closepath fill
	vpt 0 360 arc} bind def
/C15 {BL [] 0 setdash 2 copy vpt 0 360 arc closepath fill
	vpt 0 360 arc closepath} bind def
/Rec {newpath 4 2 roll moveto 1 index 0 rlineto 0 exch rlineto
	neg 0 rlineto closepath} bind def
/Square {dup Rec} bind def
/Bsquare {vpt sub exch vpt sub exch vpt2 Square} bind def
/S0 {BL [] 0 setdash 2 copy moveto 0 vpt rlineto BL Bsquare} bind def
/S1 {BL [] 0 setdash 2 copy vpt Square fill Bsquare} bind def
/S2 {BL [] 0 setdash 2 copy exch vpt sub exch vpt Square fill Bsquare} bind def
/S3 {BL [] 0 setdash 2 copy exch vpt sub exch vpt2 vpt Rec fill Bsquare} bind def
/S4 {BL [] 0 setdash 2 copy exch vpt sub exch vpt sub vpt Square fill Bsquare} bind def
/S5 {BL [] 0 setdash 2 copy 2 copy vpt Square fill
	exch vpt sub exch vpt sub vpt Square fill Bsquare} bind def
/S6 {BL [] 0 setdash 2 copy exch vpt sub exch vpt sub vpt vpt2 Rec fill Bsquare} bind def
/S7 {BL [] 0 setdash 2 copy exch vpt sub exch vpt sub vpt vpt2 Rec fill
	2 copy vpt Square fill Bsquare} bind def
/S8 {BL [] 0 setdash 2 copy vpt sub vpt Square fill Bsquare} bind def
/S9 {BL [] 0 setdash 2 copy vpt sub vpt vpt2 Rec fill Bsquare} bind def
/S10 {BL [] 0 setdash 2 copy vpt sub vpt Square fill 2 copy exch vpt sub exch vpt Square fill
	Bsquare} bind def
/S11 {BL [] 0 setdash 2 copy vpt sub vpt Square fill 2 copy exch vpt sub exch vpt2 vpt Rec fill
	Bsquare} bind def
/S12 {BL [] 0 setdash 2 copy exch vpt sub exch vpt sub vpt2 vpt Rec fill Bsquare} bind def
/S13 {BL [] 0 setdash 2 copy exch vpt sub exch vpt sub vpt2 vpt Rec fill
	2 copy vpt Square fill Bsquare} bind def
/S14 {BL [] 0 setdash 2 copy exch vpt sub exch vpt sub vpt2 vpt Rec fill
	2 copy exch vpt sub exch vpt Square fill Bsquare} bind def
/S15 {BL [] 0 setdash 2 copy Bsquare fill Bsquare} bind def
/D0 {gsave translate 45 rotate 0 0 S0 stroke grestore} bind def
/D1 {gsave translate 45 rotate 0 0 S1 stroke grestore} bind def
/D2 {gsave translate 45 rotate 0 0 S2 stroke grestore} bind def
/D3 {gsave translate 45 rotate 0 0 S3 stroke grestore} bind def
/D4 {gsave translate 45 rotate 0 0 S4 stroke grestore} bind def
/D5 {gsave translate 45 rotate 0 0 S5 stroke grestore} bind def
/D6 {gsave translate 45 rotate 0 0 S6 stroke grestore} bind def
/D7 {gsave translate 45 rotate 0 0 S7 stroke grestore} bind def
/D8 {gsave translate 45 rotate 0 0 S8 stroke grestore} bind def
/D9 {gsave translate 45 rotate 0 0 S9 stroke grestore} bind def
/D10 {gsave translate 45 rotate 0 0 S10 stroke grestore} bind def
/D11 {gsave translate 45 rotate 0 0 S11 stroke grestore} bind def
/D12 {gsave translate 45 rotate 0 0 S12 stroke grestore} bind def
/D13 {gsave translate 45 rotate 0 0 S13 stroke grestore} bind def
/D14 {gsave translate 45 rotate 0 0 S14 stroke grestore} bind def
/D15 {gsave translate 45 rotate 0 0 S15 stroke grestore} bind def
/DiaE {stroke [] 0 setdash vpt add M
  hpt neg vpt neg V hpt vpt neg V
  hpt vpt V hpt neg vpt V closepath stroke} def
/BoxE {stroke [] 0 setdash exch hpt sub exch vpt add M
  0 vpt2 neg V hpt2 0 V 0 vpt2 V
  hpt2 neg 0 V closepath stroke} def
/TriUE {stroke [] 0 setdash vpt 1.12 mul add M
  hpt neg vpt -1.62 mul V
  hpt 2 mul 0 V
  hpt neg vpt 1.62 mul V closepath stroke} def
/TriDE {stroke [] 0 setdash vpt 1.12 mul sub M
  hpt neg vpt 1.62 mul V
  hpt 2 mul 0 V
  hpt neg vpt -1.62 mul V closepath stroke} def
/PentE {stroke [] 0 setdash gsave
  translate 0 hpt M 4 {72 rotate 0 hpt L} repeat
  closepath stroke grestore} def
/CircE {stroke [] 0 setdash 
  hpt 0 360 arc stroke} def
/Opaque {gsave closepath 1 setgray fill grestore 0 setgray closepath} def
/DiaW {stroke [] 0 setdash vpt add M
  hpt neg vpt neg V hpt vpt neg V
  hpt vpt V hpt neg vpt V Opaque stroke} def
/BoxW {stroke [] 0 setdash exch hpt sub exch vpt add M
  0 vpt2 neg V hpt2 0 V 0 vpt2 V
  hpt2 neg 0 V Opaque stroke} def
/TriUW {stroke [] 0 setdash vpt 1.12 mul add M
  hpt neg vpt -1.62 mul V
  hpt 2 mul 0 V
  hpt neg vpt 1.62 mul V Opaque stroke} def
/TriDW {stroke [] 0 setdash vpt 1.12 mul sub M
  hpt neg vpt 1.62 mul V
  hpt 2 mul 0 V
  hpt neg vpt -1.62 mul V Opaque stroke} def
/PentW {stroke [] 0 setdash gsave
  translate 0 hpt M 4 {72 rotate 0 hpt L} repeat
  Opaque stroke grestore} def
/CircW {stroke [] 0 setdash 
  hpt 0 360 arc Opaque stroke} def
/BoxFill {gsave Rec 1 setgray fill grestore} def
/Density {
  /Fillden exch def
  currentrgbcolor
  /ColB exch def /ColG exch def /ColR exch def
  /ColR ColR Fillden mul Fillden sub 1 add def
  /ColG ColG Fillden mul Fillden sub 1 add def
  /ColB ColB Fillden mul Fillden sub 1 add def
  ColR ColG ColB setrgbcolor} def
/BoxColFill {gsave Rec PolyFill} def
/PolyFill {gsave Density fill grestore grestore} def
/h {rlineto rlineto rlineto gsave closepath fill grestore} bind def
%
% PostScript Level 1 Pattern Fill routine for rectangles
% Usage: x y w h s a XX PatternFill
%	x,y = lower left corner of box to be filled
%	w,h = width and height of box
%	  a = angle in degrees between lines and x-axis
%	 XX = 0/1 for no/yes cross-hatch
%
/PatternFill {gsave /PFa [ 9 2 roll ] def
  PFa 0 get PFa 2 get 2 div add PFa 1 get PFa 3 get 2 div add translate
  PFa 2 get -2 div PFa 3 get -2 div PFa 2 get PFa 3 get Rec
  TransparentPatterns {} {gsave 1 setgray fill grestore} ifelse
  clip
  currentlinewidth 0.5 mul setlinewidth
  /PFs PFa 2 get dup mul PFa 3 get dup mul add sqrt def
  0 0 M PFa 5 get rotate PFs -2 div dup translate
  0 1 PFs PFa 4 get div 1 add floor cvi
	{PFa 4 get mul 0 M 0 PFs V} for
  0 PFa 6 get ne {
	0 1 PFs PFa 4 get div 1 add floor cvi
	{PFa 4 get mul 0 2 1 roll M PFs 0 V} for
 } if
  stroke grestore} def
%
/languagelevel where
 {pop languagelevel} {1} ifelse
dup 2 lt
	{/InterpretLevel1 true def
	 /InterpretLevel3 false def}
	{/InterpretLevel1 Level1 def
	 2 gt
	    {/InterpretLevel3 Level3 def}
	    {/InterpretLevel3 false def}
	 ifelse }
 ifelse
%
% PostScript level 2 pattern fill definitions
%
/Level2PatternFill {
/Tile8x8 {/PaintType 2 /PatternType 1 /TilingType 1 /BBox [0 0 8 8] /XStep 8 /YStep 8}
	bind def
/KeepColor {currentrgbcolor [/Pattern /DeviceRGB] setcolorspace} bind def
<< Tile8x8
 /PaintProc {0.5 setlinewidth pop 0 0 M 8 8 L 0 8 M 8 0 L stroke} 
>> matrix makepattern
/Pat1 exch def
<< Tile8x8
 /PaintProc {0.5 setlinewidth pop 0 0 M 8 8 L 0 8 M 8 0 L stroke
	0 4 M 4 8 L 8 4 L 4 0 L 0 4 L stroke}
>> matrix makepattern
/Pat2 exch def
<< Tile8x8
 /PaintProc {0.5 setlinewidth pop 0 0 M 0 8 L
	8 8 L 8 0 L 0 0 L fill}
>> matrix makepattern
/Pat3 exch def
<< Tile8x8
 /PaintProc {0.5 setlinewidth pop -4 8 M 8 -4 L
	0 12 M 12 0 L stroke}
>> matrix makepattern
/Pat4 exch def
<< Tile8x8
 /PaintProc {0.5 setlinewidth pop -4 0 M 8 12 L
	0 -4 M 12 8 L stroke}
>> matrix makepattern
/Pat5 exch def
<< Tile8x8
 /PaintProc {0.5 setlinewidth pop -2 8 M 4 -4 L
	0 12 M 8 -4 L 4 12 M 10 0 L stroke}
>> matrix makepattern
/Pat6 exch def
<< Tile8x8
 /PaintProc {0.5 setlinewidth pop -2 0 M 4 12 L
	0 -4 M 8 12 L 4 -4 M 10 8 L stroke}
>> matrix makepattern
/Pat7 exch def
<< Tile8x8
 /PaintProc {0.5 setlinewidth pop 8 -2 M -4 4 L
	12 0 M -4 8 L 12 4 M 0 10 L stroke}
>> matrix makepattern
/Pat8 exch def
<< Tile8x8
 /PaintProc {0.5 setlinewidth pop 0 -2 M 12 4 L
	-4 0 M 12 8 L -4 4 M 8 10 L stroke}
>> matrix makepattern
/Pat9 exch def
/Pattern1 {PatternBgnd KeepColor Pat1 setpattern} bind def
/Pattern2 {PatternBgnd KeepColor Pat2 setpattern} bind def
/Pattern3 {PatternBgnd KeepColor Pat3 setpattern} bind def
/Pattern4 {PatternBgnd KeepColor Landscape {Pat5} {Pat4} ifelse setpattern} bind def
/Pattern5 {PatternBgnd KeepColor Landscape {Pat4} {Pat5} ifelse setpattern} bind def
/Pattern6 {PatternBgnd KeepColor Landscape {Pat9} {Pat6} ifelse setpattern} bind def
/Pattern7 {PatternBgnd KeepColor Landscape {Pat8} {Pat7} ifelse setpattern} bind def
} def
%
%
%End of PostScript Level 2 code
%
/PatternBgnd {
  TransparentPatterns {} {gsave 1 setgray fill grestore} ifelse
} def
%
% Substitute for Level 2 pattern fill codes with
% grayscale if Level 2 support is not selected.
%
/Level1PatternFill {
/Pattern1 {0.250 Density} bind def
/Pattern2 {0.500 Density} bind def
/Pattern3 {0.750 Density} bind def
/Pattern4 {0.125 Density} bind def
/Pattern5 {0.375 Density} bind def
/Pattern6 {0.625 Density} bind def
/Pattern7 {0.875 Density} bind def
} def
%
% Now test for support of Level 2 code
%
Level1 {Level1PatternFill} {Level2PatternFill} ifelse
%
/Symbol-Oblique /Symbol findfont [1 0 .167 1 0 0] makefont
dup length dict begin {1 index /FID eq {pop pop} {def} ifelse} forall
currentdict end definefont pop
%
/Metrics {ExtendTextBox Gswidth} def
/Lwidth {currentpoint stroke M 0 vshift R Metrics} def
/Rwidth {currentpoint stroke M dup stringwidth pop neg vshift R Metrics} def
/Cwidth {currentpoint stroke M dup stringwidth pop -2 div vshift R Metrics} def
/GLwidth {currentpoint stroke M 0 vshift R {ExtendTextBox} forall} def
/GRwidth {currentpoint stroke M dup Gwidth vshift R {ExtendTextBox} forall} def
/GCwidth {currentpoint stroke M dup Gwidth 2 div vshift R {ExtendTextBox} forall} def
/GLwidth2 {0 Gwidth AddGlyphWidth} def
/GRwidth2 {Gwidth -1 mul 0 AddGlyphWidth} def
/GCwidth2 {Gwidth 2 div dup -1 mul AddGlyphWidth} def
/AddGlyphWidth { dup TBx2 gt {userdict /TBx2 3 -1 roll put} {pop} ifelse
                 dup TBx1 lt {userdict /TBx1 3 -1 roll put} {pop} ifelse } def
/MFshow {
   { dup 5 get 3 ge
     { 5 get 3 eq {gsave} {grestore} ifelse }
     {dup dup 0 get findfont exch 1 get scalefont setfont
     [ currentpoint ] exch dup 2 get 0 exch R dup 5 get 2 ne {dup dup 6
     get exch 4 get {textshow} {Metrics pop 0 R} ifelse }if dup 5 get 0 eq
     {dup 3 get {2 get neg 0 exch R pop} {pop aload pop M} ifelse} {dup 5
     get 1 eq {dup 2 get exch dup 3 get exch 6 get Gswidth pop -2 div
     dup 0 R} {dup 6 get Gswidth pop -2 div 0 R 6 get
     textshow 2 index {aload pop M neg 3 -1 roll neg R pop pop} {pop pop pop
     pop aload pop M} ifelse }ifelse }ifelse }
     ifelse }
   forall} def
/Gswidth {dup type /stringtype eq {stringwidth} {pop (n) stringwidth} ifelse} def
/MFwidth {0 exch { dup 5 get 3 ge { 5 get 3 eq { 0 } { pop } ifelse }
 {dup 3 get{dup dup 0 get findfont exch 1 get scalefont setfont
     6 get Gswidth pop add} {pop} ifelse} ifelse} forall} def
/MLshow { currentpoint stroke M
  0 exch R
  Blacktext {gsave 0 setgray MFshow grestore} {MFshow} ifelse } bind def
/MRshow { currentpoint stroke M
  exch dup MFwidth neg 3 -1 roll R
  Blacktext {gsave 0 setgray MFshow grestore} {MFshow} ifelse } bind def
/MCshow { currentpoint stroke M
  exch dup MFwidth -2 div 3 -1 roll R
  Blacktext {gsave 0 setgray MFshow grestore} {MFshow} ifelse } bind def
/XYsave    { [( ) 1 2 true false 3 ()] } bind def
/XYrestore { [( ) 1 2 true false 4 ()] } bind def
Level1 SuppressPDFMark or 
{} {
/SDict 10 dict def
systemdict /pdfmark known not {
  userdict /pdfmark systemdict /cleartomark get put
} if
SDict begin [
  /Title (gnuplot_scanTraj.eps)
  /Subject (gnuplot plot)
  /Creator (gnuplot 5.2 patchlevel 2)
%  /Producer (gnuplot)
%  /Keywords ()
  /CreationDate (Wed Sep 11 07:11:07 2019)
  /DOCINFO pdfmark
end
} ifelse
%
% Support for boxed text - Ethan A Merritt Sep 2016
%
/InitTextBox { userdict /TBy2 3 -1 roll put userdict /TBx2 3 -1 roll put
           userdict /TBy1 3 -1 roll put userdict /TBx1 3 -1 roll put
	   /Boxing true def } def
/ExtendTextBox { dup type /stringtype eq
    { Boxing { gsave dup false charpath pathbbox
      dup TBy2 gt {userdict /TBy2 3 -1 roll put} {pop} ifelse
      dup TBx2 gt {userdict /TBx2 3 -1 roll put} {pop} ifelse
      dup TBy1 lt {userdict /TBy1 3 -1 roll put} {pop} ifelse
      dup TBx1 lt {userdict /TBx1 3 -1 roll put} {pop} ifelse
      grestore } if }
    {} ifelse} def
/PopTextBox { newpath TBx1 TBxmargin sub TBy1 TBymargin sub M
               TBx1 TBxmargin sub TBy2 TBymargin add L
	       TBx2 TBxmargin add TBy2 TBymargin add L
	       TBx2 TBxmargin add TBy1 TBymargin sub L closepath } def
/DrawTextBox { PopTextBox stroke /Boxing false def} def
/FillTextBox { gsave PopTextBox fill grestore /Boxing false def} def
0 0 0 0 InitTextBox
/TBxmargin 20 def
/TBymargin 20 def
/Boxing false def
/textshow { ExtendTextBox Gshow } def
%
end
%%EndProlog
%%Page: 1 1
gnudict begin
gsave
doclip
50 50 translate
0.050 0.050 scale
0 setgray
newpath
(Helvetica) findfont 140 scalefont setfont
BackgroundColor 0 lt 3 1 roll 0 lt exch 0 lt or or not {BackgroundColor C 1.000 0 0 7200.00 5040.00 BoxColFill} if
1.000 UL
LTb
LCb setrgbcolor
686 766 M
63 0 V
stroke
602 766 M
[ [(Helvetica) 140.0 0.0 true true 0 ( 0.4)]
] -46.7 MRshow
1.000 UL
LTb
LCb setrgbcolor
686 1402 M
63 0 V
stroke
602 1402 M
[ [(Helvetica) 140.0 0.0 true true 0 ( 0.6)]
] -46.7 MRshow
1.000 UL
LTb
LCb setrgbcolor
686 2038 M
63 0 V
stroke
602 2038 M
[ [(Helvetica) 140.0 0.0 true true 0 ( 0.8)]
] -46.7 MRshow
1.000 UL
LTb
LCb setrgbcolor
686 2674 M
63 0 V
stroke
602 2674 M
[ [(Helvetica) 140.0 0.0 true true 0 ( 1)]
] -46.7 MRshow
1.000 UL
LTb
LCb setrgbcolor
686 3309 M
63 0 V
stroke
602 3309 M
[ [(Helvetica) 140.0 0.0 true true 0 ( 1.2)]
] -46.7 MRshow
1.000 UL
LTb
LCb setrgbcolor
686 3945 M
63 0 V
stroke
602 3945 M
[ [(Helvetica) 140.0 0.0 true true 0 ( 1.4)]
] -46.7 MRshow
1.000 UL
LTb
LCb setrgbcolor
686 4581 M
63 0 V
stroke
602 4581 M
[ [(Helvetica) 140.0 0.0 true true 0 ( 1.6)]
] -46.7 MRshow
1.000 UL
LTb
LCb setrgbcolor
794 448 M
0 31 V
0 4420 R
0 -31 V
1053 448 M
0 31 V
0 4420 R
0 -31 V
1254 448 M
0 31 V
0 4420 R
0 -31 V
1419 448 M
0 31 V
0 4420 R
0 -31 V
1557 448 M
0 31 V
0 4420 R
0 -31 V
1678 448 M
0 31 V
0 4420 R
0 -31 V
1784 448 M
0 31 V
0 4420 R
0 -31 V
1879 448 M
0 63 V
0 4388 R
0 -63 V
stroke
1879 308 M
[ [(Helvetica) 140.0 0.0 true true 0 ( 1)]
] -46.7 MCshow
1.000 UL
LTb
LCb setrgbcolor
2504 448 M
0 31 V
0 4420 R
0 -31 V
2869 448 M
0 31 V
0 4420 R
0 -31 V
3128 448 M
0 31 V
0 4420 R
0 -31 V
3329 448 M
0 31 V
0 4420 R
0 -31 V
3494 448 M
0 31 V
0 4420 R
0 -31 V
3633 448 M
0 31 V
0 4420 R
0 -31 V
3753 448 M
0 31 V
0 4420 R
0 -31 V
3859 448 M
0 31 V
0 4420 R
0 -31 V
3954 448 M
0 63 V
0 4388 R
0 -63 V
stroke
3954 308 M
[ [(Helvetica) 140.0 0.0 true true 0 ( 10)]
] -46.7 MCshow
1.000 UL
LTb
LCb setrgbcolor
4579 448 M
0 31 V
0 4420 R
0 -31 V
4944 448 M
0 31 V
0 4420 R
0 -31 V
5203 448 M
0 31 V
0 4420 R
0 -31 V
5404 448 M
0 31 V
0 4420 R
0 -31 V
5569 448 M
0 31 V
0 4420 R
0 -31 V
5708 448 M
0 31 V
0 4420 R
0 -31 V
5828 448 M
0 31 V
0 4420 R
0 -31 V
5934 448 M
0 31 V
0 4420 R
0 -31 V
6029 448 M
0 63 V
0 4388 R
0 -63 V
stroke
6029 308 M
[ [(Helvetica) 140.0 0.0 true true 0 ( 100)]
] -46.7 MCshow
1.000 UL
LTb
LCb setrgbcolor
6051 448 M
-63 0 V
stroke
6135 448 M
[ [(Helvetica) 140.0 0.0 true true 0 (-0.0016)]
] -46.7 MLshow
1.000 UL
LTb
LCb setrgbcolor
6051 943 M
-63 0 V
stroke
6135 943 M
[ [(Helvetica) 140.0 0.0 true true 0 (-0.0014)]
] -46.7 MLshow
1.000 UL
LTb
LCb setrgbcolor
6051 1437 M
-63 0 V
stroke
6135 1437 M
[ [(Helvetica) 140.0 0.0 true true 0 (-0.0012)]
] -46.7 MLshow
1.000 UL
LTb
LCb setrgbcolor
6051 1932 M
-63 0 V
stroke
6135 1932 M
[ [(Helvetica) 140.0 0.0 true true 0 (-0.001)]
] -46.7 MLshow
1.000 UL
LTb
LCb setrgbcolor
6051 2426 M
-63 0 V
stroke
6135 2426 M
[ [(Helvetica) 140.0 0.0 true true 0 (-0.0008)]
] -46.7 MLshow
1.000 UL
LTb
LCb setrgbcolor
6051 2921 M
-63 0 V
stroke
6135 2921 M
[ [(Helvetica) 140.0 0.0 true true 0 (-0.0006)]
] -46.7 MLshow
1.000 UL
LTb
LCb setrgbcolor
6051 3415 M
-63 0 V
stroke
6135 3415 M
[ [(Helvetica) 140.0 0.0 true true 0 (-0.0004)]
] -46.7 MLshow
1.000 UL
LTb
LCb setrgbcolor
6051 3910 M
-63 0 V
stroke
6135 3910 M
[ [(Helvetica) 140.0 0.0 true true 0 (-0.0002)]
] -46.7 MLshow
1.000 UL
LTb
LCb setrgbcolor
6051 4404 M
-63 0 V
stroke
6135 4404 M
[ [(Helvetica) 140.0 0.0 true true 0 ( 0)]
] -46.7 MLshow
1.000 UL
LTb
LCb setrgbcolor
6051 4899 M
-63 0 V
stroke
6135 4899 M
[ [(Helvetica) 140.0 0.0 true true 0 ( 0.0002)]
] -46.7 MLshow
1.000 UL
LTb
LCb setrgbcolor
1.000 UL
LTB
LCb setrgbcolor
686 4899 N
686 448 L
5365 0 V
0 4451 V
-5365 0 V
Z stroke
1.000 UP
1.000 UL
LTb
LCb setrgbcolor
LCb setrgbcolor
126 2673 M
currentpoint gsave translate -270 rotate 0 0 moveto
[ [(roman) 200.0 0.0 true true 0 ( x [10)]
[(roman) 160.0 100.0 true true 0 (-9)]
[(roman) 200.0 0.0 true true 0 (m],  x' [10)]
[(roman) 160.0 100.0 true true 0 (-6)]
[(roman) 200.0 0.0 true true 0 ( rad])]
] -86.7 MCshow
grestore
LTb
LCb setrgbcolor
6975 2673 M
currentpoint gsave translate -270 rotate 0 0 moveto
[ [(Symbol) 240.0 0.0 true true 0 (D q)]
[(roman) 192.0 -72.0 true true 0 (s)]
[(roman) 240.0 0.0 true true 0 (/)]
[(Symbol) 240.0 0.0 true true 0 (q)]
[(roman) 192.0 -72.0 true true 0 (s)]
] -56.0 MCshow
grestore
LTb
LCb setrgbcolor
3368 98 M
[ [(roman) 200.0 0.0 true true 0 (step size [cm])]
] -66.7 MCshow
LTb
% Begin plot #1
0.700 UP
1.000 UL
LTb
1.00 0.00 0.00 C LCb setrgbcolor
2822 2853 M
[ [(roman) 180.0 0.0 true true 0 (x \(left axis\))]
] -60.0 MRshow
0.700 UP
1.000 UL
LTb
1.00 0.00 0.00 C 686 807 BoxF
1294 807 BoxF
1653 807 BoxF
1910 807 BoxF
2109 807 BoxF
2272 807 BoxF
2410 807 BoxF
2530 807 BoxF
2635 807 BoxF
2730 806 BoxF
2816 806 BoxF
2894 806 BoxF
2966 806 BoxF
3032 806 BoxF
3094 806 BoxF
3152 806 BoxF
3207 806 BoxF
3258 806 BoxF
3307 806 BoxF
3353 806 BoxF
3397 806 BoxF
3439 806 BoxF
3479 806 BoxF
3517 806 BoxF
3554 806 BoxF
3589 806 BoxF
3623 806 BoxF
3656 806 BoxF
3687 806 BoxF
3718 806 BoxF
3747 806 BoxF
3776 806 BoxF
3804 806 BoxF
3830 806 BoxF
3857 806 BoxF
3882 806 BoxF
3907 806 BoxF
3931 806 BoxF
3954 806 BoxF
3977 806 BoxF
3999 806 BoxF
4021 806 BoxF
4042 805 BoxF
4063 805 BoxF
4083 805 BoxF
4103 805 BoxF
4122 805 BoxF
4141 805 BoxF
4159 805 BoxF
4178 805 BoxF
4195 805 BoxF
4213 805 BoxF
4230 805 BoxF
4247 805 BoxF
4263 805 BoxF
4280 805 BoxF
4296 805 BoxF
4311 805 BoxF
4327 805 BoxF
4342 805 BoxF
4357 805 BoxF
4371 805 BoxF
4386 805 BoxF
4400 805 BoxF
4414 805 BoxF
4428 805 BoxF
4441 805 BoxF
4455 805 BoxF
4468 805 BoxF
4481 805 BoxF
4493 805 BoxF
4506 805 BoxF
4518 805 BoxF
4531 805 BoxF
4543 805 BoxF
4555 805 BoxF
4567 804 BoxF
4578 804 BoxF
4590 804 BoxF
4601 804 BoxF
4612 804 BoxF
4623 804 BoxF
4634 804 BoxF
4645 804 BoxF
4656 804 BoxF
4666 804 BoxF
4677 804 BoxF
4687 804 BoxF
4697 804 BoxF
4707 804 BoxF
4717 804 BoxF
4727 804 BoxF
4737 804 BoxF
4746 804 BoxF
4756 804 BoxF
4765 804 BoxF
4775 804 BoxF
4784 804 BoxF
4793 804 BoxF
4802 804 BoxF
4811 804 BoxF
4820 804 BoxF
4829 804 BoxF
4837 804 BoxF
4846 804 BoxF
4854 804 BoxF
4863 804 BoxF
4871 804 BoxF
4880 804 BoxF
4888 804 BoxF
4896 804 BoxF
4904 803 BoxF
4912 803 BoxF
4920 803 BoxF
4928 803 BoxF
4936 803 BoxF
4943 803 BoxF
4951 803 BoxF
4959 803 BoxF
4966 803 BoxF
4974 803 BoxF
4981 803 BoxF
4988 803 BoxF
4996 803 BoxF
5003 803 BoxF
5010 803 BoxF
5017 803 BoxF
5024 803 BoxF
5031 803 BoxF
5038 803 BoxF
5045 803 BoxF
5052 803 BoxF
5059 803 BoxF
5066 803 BoxF
5072 803 BoxF
5079 803 BoxF
5086 803 BoxF
5092 803 BoxF
5099 803 BoxF
5105 803 BoxF
5111 803 BoxF
5118 803 BoxF
5124 803 BoxF
5130 803 BoxF
5137 803 BoxF
5143 803 BoxF
5149 803 BoxF
5155 803 BoxF
5161 802 BoxF
5167 802 BoxF
5173 802 BoxF
5179 802 BoxF
5185 802 BoxF
5191 802 BoxF
5197 802 BoxF
5203 802 BoxF
5208 802 BoxF
5214 802 BoxF
5220 802 BoxF
5225 802 BoxF
5231 802 BoxF
5237 802 BoxF
5242 802 BoxF
5248 802 BoxF
5253 802 BoxF
5259 802 BoxF
5264 802 BoxF
5269 802 BoxF
5275 802 BoxF
5280 802 BoxF
5285 802 BoxF
5291 802 BoxF
5296 802 BoxF
5301 802 BoxF
5306 802 BoxF
5311 802 BoxF
5316 802 BoxF
5321 802 BoxF
5326 802 BoxF
5332 802 BoxF
5336 802 BoxF
5341 802 BoxF
5346 802 BoxF
5351 802 BoxF
5356 802 BoxF
5361 802 BoxF
5366 801 BoxF
5371 801 BoxF
5375 801 BoxF
5380 801 BoxF
5385 801 BoxF
5390 801 BoxF
5394 801 BoxF
5399 801 BoxF
5404 801 BoxF
5408 801 BoxF
5413 801 BoxF
5417 801 BoxF
5422 801 BoxF
5426 801 BoxF
5431 801 BoxF
5435 801 BoxF
5440 801 BoxF
5444 801 BoxF
5449 801 BoxF
5453 801 BoxF
5457 801 BoxF
5462 801 BoxF
5466 801 BoxF
5470 801 BoxF
5475 801 BoxF
5479 801 BoxF
5483 801 BoxF
5487 801 BoxF
5492 801 BoxF
5496 801 BoxF
5500 801 BoxF
5504 801 BoxF
5508 801 BoxF
5512 801 BoxF
5516 801 BoxF
5520 801 BoxF
5525 801 BoxF
5529 801 BoxF
5533 801 BoxF
5537 801 BoxF
5541 800 BoxF
5544 800 BoxF
5548 800 BoxF
5552 800 BoxF
5556 800 BoxF
5560 800 BoxF
5564 800 BoxF
5568 800 BoxF
5572 800 BoxF
5576 800 BoxF
5579 800 BoxF
5583 800 BoxF
5587 800 BoxF
5591 800 BoxF
5594 800 BoxF
5598 800 BoxF
5602 800 BoxF
5606 800 BoxF
5609 800 BoxF
5613 800 BoxF
5617 800 BoxF
5620 800 BoxF
5624 800 BoxF
5627 800 BoxF
5631 800 BoxF
5635 800 BoxF
5638 800 BoxF
5642 800 BoxF
5645 800 BoxF
5649 800 BoxF
5652 800 BoxF
5656 800 BoxF
5659 800 BoxF
5663 800 BoxF
5666 800 BoxF
5670 800 BoxF
5673 800 BoxF
5677 800 BoxF
5680 800 BoxF
5683 800 BoxF
5687 800 BoxF
5690 799 BoxF
5693 799 BoxF
5697 799 BoxF
5700 799 BoxF
5703 799 BoxF
5707 799 BoxF
5710 799 BoxF
5713 799 BoxF
5717 799 BoxF
5720 799 BoxF
5723 799 BoxF
5726 799 BoxF
5730 799 BoxF
5733 799 BoxF
5736 799 BoxF
5739 799 BoxF
5742 799 BoxF
5746 799 BoxF
5749 799 BoxF
5752 799 BoxF
5755 799 BoxF
5758 799 BoxF
5761 799 BoxF
5764 799 BoxF
5767 799 BoxF
5771 799 BoxF
5774 799 BoxF
5777 799 BoxF
5780 799 BoxF
5783 799 BoxF
5786 799 BoxF
5789 799 BoxF
5792 799 BoxF
5795 799 BoxF
5798 799 BoxF
5801 799 BoxF
5804 799 BoxF
5807 799 BoxF
5810 799 BoxF
5813 799 BoxF
5815 799 BoxF
5818 799 BoxF
5821 799 BoxF
5824 798 BoxF
5827 798 BoxF
5830 798 BoxF
5833 798 BoxF
5836 798 BoxF
5839 798 BoxF
5841 798 BoxF
5844 798 BoxF
5847 798 BoxF
5850 798 BoxF
5853 798 BoxF
5856 798 BoxF
5858 798 BoxF
5861 798 BoxF
5864 798 BoxF
5867 798 BoxF
5869 798 BoxF
5872 798 BoxF
5875 798 BoxF
5878 798 BoxF
5880 798 BoxF
5883 798 BoxF
5886 798 BoxF
5889 798 BoxF
5891 798 BoxF
5894 798 BoxF
5897 798 BoxF
5899 798 BoxF
5902 798 BoxF
5905 798 BoxF
5907 798 BoxF
5910 798 BoxF
5912 798 BoxF
5915 798 BoxF
5918 798 BoxF
5920 798 BoxF
5923 798 BoxF
5926 798 BoxF
5928 798 BoxF
5931 798 BoxF
5933 798 BoxF
5936 798 BoxF
5938 798 BoxF
5941 798 BoxF
5943 798 BoxF
5946 798 BoxF
5949 797 BoxF
5951 797 BoxF
5954 797 BoxF
5956 797 BoxF
5959 797 BoxF
5961 797 BoxF
5964 797 BoxF
5966 797 BoxF
5968 797 BoxF
5971 797 BoxF
5973 797 BoxF
5976 797 BoxF
5978 797 BoxF
5981 797 BoxF
5983 797 BoxF
5986 797 BoxF
5988 797 BoxF
5990 797 BoxF
5993 797 BoxF
5995 797 BoxF
5998 797 BoxF
6000 797 BoxF
6002 797 BoxF
6005 797 BoxF
6007 797 BoxF
6010 797 BoxF
6012 797 BoxF
6014 797 BoxF
6017 797 BoxF
6019 797 BoxF
6021 797 BoxF
6024 797 BoxF
6026 797 BoxF
6028 797 BoxF
6030 797 BoxF
6033 797 BoxF
6035 797 BoxF
6037 797 BoxF
6040 797 BoxF
6042 797 BoxF
6044 797 BoxF
6046 797 BoxF
6049 797 BoxF
6051 797 BoxF
3177 2853 BoxF
% End plot #1
% Begin plot #2
0.700 UP
1.000 UL
LTb
0.00 0.00 1.00 C LCb setrgbcolor
2822 2673 M
[ [(roman) 180.0 0.0 true true 0 (x' \(left axis\))]
] -60.0 MRshow
0.700 UP
1.000 UL
LTb
0.00 0.00 1.00 C 2930 2673 M
495 0 V
686 4624 M
608 0 R
359 0 R
257 0 R
199 -1 R
163 0 R
138 0 R
120 0 R
105 0 R
95 -1 R
86 0 R
78 0 R
72 0 R
66 0 R
62 0 R
58 -1 R
55 0 R
51 0 R
49 0 R
46 0 R
44 -1 R
42 0 R
40 0 R
38 0 R
37 0 R
35 0 R
34 -1 R
33 0 R
31 0 R
31 0 R
29 0 R
29 0 R
28 -1 R
26 0 R
27 0 R
25 0 R
25 0 R
24 -1 R
23 0 R
23 0 R
22 0 R
22 0 R
21 0 R
21 -1 R
20 0 R
20 0 R
19 0 R
19 0 R
18 -1 R
19 0 R
17 0 R
18 0 R
17 0 R
17 0 R
16 -1 R
17 0 R
16 0 R
15 0 R
16 0 R
15 0 R
15 -1 R
14 0 R
15 0 R
14 0 R
14 0 R
14 0 R
13 -1 R
14 0 R
13 0 R
13 0 R
12 0 R
13 -1 R
12 0 R
13 0 R
12 0 R
12 0 R
12 0 R
11 -1 R
12 0 R
11 0 R
11 0 R
11 0 R
11 0 R
11 -1 R
11 0 R
10 0 R
11 0 R
10 0 R
10 0 R
10 -1 R
10 0 R
10 0 R
10 0 R
9 0 R
10 -1 R
9 0 R
10 0 R
9 0 R
9 0 R
9 -1 R
9 0 R
9 0 R
9 0 R
8 0 R
9 0 R
8 -1 R
9 0 R
8 0 R
9 0 R
8 0 R
8 0 R
8 -1 R
8 0 R
8 0 R
8 0 R
8 0 R
7 0 R
8 -1 R
8 0 R
7 0 R
8 0 R
7 0 R
7 0 R
8 -1 R
7 0 R
7 0 R
7 0 R
7 0 R
7 0 R
7 0 R
7 -1 R
7 0 R
7 0 R
7 -1 R
6 1 R
7 0 R
7 0 R
6 -1 R
7 0 R
6 0 R
6 0 R
7 -1 R
6 0 R
6 0 R
7 0 R
6 0 R
6 0 R
6 0 R
6 0 R
6 -1 R
6 0 R
6 0 R
6 -1 R
6 0 R
6 0 R
6 0 R
5 0 R
6 0 R
6 0 R
5 0 R
6 0 R
6 0 R
5 -1 R
6 0 R
5 0 R
6 -1 R
5 0 R
5 0 R
6 0 R
5 0 R
5 0 R
6 0 R
5 0 R
5 0 R
5 0 R
5 -1 R
5 0 R
5 0 R
5 -1 R
6 0 R
4 0 R
5 -1 R
5 0 R
5 0 R
5 0 R
5 0 R
5 0 R
5 0 R
4 0 R
5 0 R
5 0 R
5 0 R
4 0 R
5 -1 R
5 0 R
4 0 R
5 -1 R
4 0 R
5 -1 R
4 0 R
5 0 R
4 0 R
5 0 R
4 0 R
5 0 R
4 0 R
4 0 R
5 0 R
4 0 R
4 0 R
5 0 R
4 0 R
4 0 R
4 -1 R
5 0 R
4 0 R
4 -1 R
4 0 R
4 0 R
4 -1 R
4 0 R
4 -1 R
5 0 R
4 0 R
4 0 R
4 0 R
4 1 R
3 0 R
4 0 R
4 0 R
4 0 R
4 0 R
4 -1 R
4 0 R
4 0 R
4 0 R
3 0 R
4 0 R
4 0 R
4 -1 R
3 0 R
4 0 R
4 -1 R
4 0 R
3 0 R
4 -1 R
4 0 R
3 -1 R
4 0 R
3 -1 R
4 0 R
4 1 R
3 0 R
4 0 R
3 0 R
4 0 R
3 0 R
4 0 R
3 0 R
4 0 R
3 0 R
4 0 R
3 0 R
4 0 R
3 0 R
3 0 R
4 0 R
3 -1 R
3 0 R
4 0 R
3 0 R
3 0 R
4 -1 R
3 0 R
3 0 R
4 0 R
3 -1 R
3 0 R
3 -1 R
4 0 R
3 0 R
3 -1 R
3 0 R
3 -1 R
4 0 R
3 -1 R
3 1 R
3 0 R
3 0 R
3 0 R
3 0 R
3 0 R
4 0 R
3 0 R
3 0 R
3 0 R
3 0 R
3 0 R
3 0 R
3 0 R
3 0 R
3 0 R
3 0 R
3 0 R
3 0 R
3 0 R
3 0 R
2 0 R
3 0 R
3 -1 R
3 0 R
3 0 R
3 0 R
3 0 R
3 -1 R
3 0 R
2 0 R
3 0 R
3 -1 R
3 0 R
3 0 R
3 -1 R
2 0 R
3 0 R
3 -1 R
3 0 R
2 0 R
3 -1 R
3 0 R
3 -1 R
2 0 R
3 -1 R
3 0 R
3 0 R
2 0 R
3 0 R
3 0 R
2 0 R
3 0 R
3 0 R
2 0 R
3 1 R
2 0 R
3 0 R
3 0 R
2 0 R
3 0 R
3 0 R
2 0 R
3 0 R
2 0 R
3 0 R
2 0 R
3 0 R
2 0 R
3 0 R
3 0 R
2 0 R
3 0 R
2 -1 R
3 0 R
2 0 R
3 0 R
2 0 R
2 0 R
3 0 R
2 0 R
3 -1 R
2 0 R
3 0 R
2 0 R
3 0 R
2 -1 R
2 0 R
3 0 R
2 0 R
3 0 R
2 -1 R
2 0 R
3 0 R
2 -1 R
3 0 R
2 0 R
2 -1 R
3 0 R
2 0 R
2 -1 R
3 0 R
2 0 R
2 -1 R
2 0 R
3 -1 R
2 0 R
2 0 R
3 -1 R
2 0 R
2 -1 R
2 0 R
3 -1 R
2 0 R
686 4624 Circle
1294 4624 Circle
1653 4624 Circle
1910 4624 Circle
2109 4623 Circle
2272 4623 Circle
2410 4623 Circle
2530 4623 Circle
2635 4623 Circle
2730 4622 Circle
2816 4622 Circle
2894 4622 Circle
2966 4622 Circle
3032 4622 Circle
3094 4622 Circle
3152 4621 Circle
3207 4621 Circle
3258 4621 Circle
3307 4621 Circle
3353 4621 Circle
3397 4620 Circle
3439 4620 Circle
3479 4620 Circle
3517 4620 Circle
3554 4620 Circle
3589 4620 Circle
3623 4619 Circle
3656 4619 Circle
3687 4619 Circle
3718 4619 Circle
3747 4619 Circle
3776 4619 Circle
3804 4618 Circle
3830 4618 Circle
3857 4618 Circle
3882 4618 Circle
3907 4618 Circle
3931 4617 Circle
3954 4617 Circle
3977 4617 Circle
3999 4617 Circle
4021 4617 Circle
4042 4617 Circle
4063 4616 Circle
4083 4616 Circle
4103 4616 Circle
4122 4616 Circle
4141 4616 Circle
4159 4615 Circle
4178 4615 Circle
4195 4615 Circle
4213 4615 Circle
4230 4615 Circle
4247 4615 Circle
4263 4614 Circle
4280 4614 Circle
4296 4614 Circle
4311 4614 Circle
4327 4614 Circle
4342 4614 Circle
4357 4613 Circle
4371 4613 Circle
4386 4613 Circle
4400 4613 Circle
4414 4613 Circle
4428 4613 Circle
4441 4612 Circle
4455 4612 Circle
4468 4612 Circle
4481 4612 Circle
4493 4612 Circle
4506 4611 Circle
4518 4611 Circle
4531 4611 Circle
4543 4611 Circle
4555 4611 Circle
4567 4611 Circle
4578 4610 Circle
4590 4610 Circle
4601 4610 Circle
4612 4610 Circle
4623 4610 Circle
4634 4610 Circle
4645 4609 Circle
4656 4609 Circle
4666 4609 Circle
4677 4609 Circle
4687 4609 Circle
4697 4609 Circle
4707 4608 Circle
4717 4608 Circle
4727 4608 Circle
4737 4608 Circle
4746 4608 Circle
4756 4607 Circle
4765 4607 Circle
4775 4607 Circle
4784 4607 Circle
4793 4607 Circle
4802 4606 Circle
4811 4606 Circle
4820 4606 Circle
4829 4606 Circle
4837 4606 Circle
4846 4606 Circle
4854 4605 Circle
4863 4605 Circle
4871 4605 Circle
4880 4605 Circle
4888 4605 Circle
4896 4605 Circle
4904 4604 Circle
4912 4604 Circle
4920 4604 Circle
4928 4604 Circle
4936 4604 Circle
4943 4604 Circle
4951 4603 Circle
4959 4603 Circle
4966 4603 Circle
4974 4603 Circle
4981 4603 Circle
4988 4603 Circle
4996 4602 Circle
5003 4602 Circle
5010 4602 Circle
5017 4602 Circle
5024 4602 Circle
5031 4602 Circle
5038 4602 Circle
5045 4601 Circle
5052 4601 Circle
5059 4601 Circle
5066 4600 Circle
5072 4601 Circle
5079 4601 Circle
5086 4601 Circle
5092 4600 Circle
5099 4600 Circle
5105 4600 Circle
5111 4600 Circle
5118 4599 Circle
5124 4599 Circle
5130 4599 Circle
5137 4599 Circle
5143 4599 Circle
5149 4599 Circle
5155 4599 Circle
5161 4599 Circle
5167 4598 Circle
5173 4598 Circle
5179 4598 Circle
5185 4597 Circle
5191 4597 Circle
5197 4597 Circle
5203 4597 Circle
5208 4597 Circle
5214 4597 Circle
5220 4597 Circle
5225 4597 Circle
5231 4597 Circle
5237 4597 Circle
5242 4596 Circle
5248 4596 Circle
5253 4596 Circle
5259 4595 Circle
5264 4595 Circle
5269 4595 Circle
5275 4595 Circle
5280 4595 Circle
5285 4595 Circle
5291 4595 Circle
5296 4595 Circle
5301 4595 Circle
5306 4595 Circle
5311 4594 Circle
5316 4594 Circle
5321 4594 Circle
5326 4593 Circle
5332 4593 Circle
5336 4593 Circle
5341 4592 Circle
5346 4592 Circle
5351 4592 Circle
5356 4592 Circle
5361 4592 Circle
5366 4592 Circle
5371 4592 Circle
5375 4592 Circle
5380 4592 Circle
5385 4592 Circle
5390 4592 Circle
5394 4592 Circle
5399 4591 Circle
5404 4591 Circle
5408 4591 Circle
5413 4590 Circle
5417 4590 Circle
5422 4589 Circle
5426 4589 Circle
5431 4589 Circle
5435 4589 Circle
5440 4589 Circle
5444 4589 Circle
5449 4589 Circle
5453 4589 Circle
5457 4589 Circle
5462 4589 Circle
5466 4589 Circle
5470 4589 Circle
5475 4589 Circle
5479 4589 Circle
5483 4589 Circle
5487 4588 Circle
5492 4588 Circle
5496 4588 Circle
5500 4587 Circle
5504 4587 Circle
5508 4587 Circle
5512 4586 Circle
5516 4586 Circle
5520 4585 Circle
5525 4585 Circle
5529 4585 Circle
5533 4585 Circle
5537 4585 Circle
5541 4586 Circle
5544 4586 Circle
5548 4586 Circle
5552 4586 Circle
5556 4586 Circle
5560 4586 Circle
5564 4585 Circle
5568 4585 Circle
5572 4585 Circle
5576 4585 Circle
5579 4585 Circle
5583 4585 Circle
5587 4585 Circle
5591 4584 Circle
5594 4584 Circle
5598 4584 Circle
5602 4583 Circle
5606 4583 Circle
5609 4583 Circle
5613 4582 Circle
5617 4582 Circle
5620 4581 Circle
5624 4581 Circle
5627 4580 Circle
5631 4580 Circle
5635 4581 Circle
5638 4581 Circle
5642 4581 Circle
5645 4581 Circle
5649 4581 Circle
5652 4581 Circle
5656 4581 Circle
5659 4581 Circle
5663 4581 Circle
5666 4581 Circle
5670 4581 Circle
5673 4581 Circle
5677 4581 Circle
5680 4581 Circle
5683 4581 Circle
5687 4581 Circle
5690 4580 Circle
5693 4580 Circle
5697 4580 Circle
5700 4580 Circle
5703 4580 Circle
5707 4579 Circle
5710 4579 Circle
5713 4579 Circle
5717 4579 Circle
5720 4578 Circle
5723 4578 Circle
5726 4577 Circle
5730 4577 Circle
5733 4577 Circle
5736 4576 Circle
5739 4576 Circle
5742 4575 Circle
5746 4575 Circle
5749 4574 Circle
5752 4575 Circle
5755 4575 Circle
5758 4575 Circle
5761 4575 Circle
5764 4575 Circle
5767 4575 Circle
5771 4575 Circle
5774 4575 Circle
5777 4575 Circle
5780 4575 Circle
5783 4575 Circle
5786 4575 Circle
5789 4575 Circle
5792 4575 Circle
5795 4575 Circle
5798 4575 Circle
5801 4575 Circle
5804 4575 Circle
5807 4575 Circle
5810 4575 Circle
5813 4575 Circle
5815 4575 Circle
5818 4575 Circle
5821 4574 Circle
5824 4574 Circle
5827 4574 Circle
5830 4574 Circle
5833 4574 Circle
5836 4573 Circle
5839 4573 Circle
5841 4573 Circle
5844 4573 Circle
5847 4572 Circle
5850 4572 Circle
5853 4572 Circle
5856 4571 Circle
5858 4571 Circle
5861 4571 Circle
5864 4570 Circle
5867 4570 Circle
5869 4570 Circle
5872 4569 Circle
5875 4569 Circle
5878 4568 Circle
5880 4568 Circle
5883 4567 Circle
5886 4567 Circle
5889 4567 Circle
5891 4567 Circle
5894 4567 Circle
5897 4567 Circle
5899 4567 Circle
5902 4567 Circle
5905 4567 Circle
5907 4567 Circle
5910 4568 Circle
5912 4568 Circle
5915 4568 Circle
5918 4568 Circle
5920 4568 Circle
5923 4568 Circle
5926 4568 Circle
5928 4568 Circle
5931 4568 Circle
5933 4568 Circle
5936 4568 Circle
5938 4568 Circle
5941 4568 Circle
5943 4568 Circle
5946 4568 Circle
5949 4568 Circle
5951 4568 Circle
5954 4568 Circle
5956 4567 Circle
5959 4567 Circle
5961 4567 Circle
5964 4567 Circle
5966 4567 Circle
5968 4567 Circle
5971 4567 Circle
5973 4567 Circle
5976 4566 Circle
5978 4566 Circle
5981 4566 Circle
5983 4566 Circle
5986 4566 Circle
5988 4565 Circle
5990 4565 Circle
5993 4565 Circle
5995 4565 Circle
5998 4565 Circle
6000 4564 Circle
6002 4564 Circle
6005 4564 Circle
6007 4563 Circle
6010 4563 Circle
6012 4563 Circle
6014 4562 Circle
6017 4562 Circle
6019 4562 Circle
6021 4561 Circle
6024 4561 Circle
6026 4561 Circle
6028 4560 Circle
6030 4560 Circle
6033 4559 Circle
6035 4559 Circle
6037 4559 Circle
6040 4558 Circle
6042 4558 Circle
6044 4557 Circle
6046 4557 Circle
6049 4556 Circle
6051 4556 Circle
3177 2673 Circle
% End plot #2
% Begin plot #3
0.700 UP
1.000 UL
LTb
0.00 1.00 0.00 C LCb setrgbcolor
2822 2493 M
[ [(roman) 180.0 0.0 true true 0 (spin-R \(right axis\))]
] -60.0 MRshow
0.700 UP
1.000 UL
LTb
0.00 1.00 0.00 C 2930 2493 M
495 0 V
686 4405 M
608 0 R
359 0 R
257 0 R
199 -1 R
163 0 R
138 0 R
120 -1 R
105 0 R
95 0 R
86 -1 R
78 0 R
72 -1 R
66 0 R
62 -1 R
58 -1 R
55 -1 R
51 0 R
49 -1 R
46 -1 R
44 -1 R
42 -1 R
40 -1 R
38 -1 R
37 -1 R
35 -1 R
34 -2 R
33 -1 R
31 -1 R
31 -2 R
29 -1 R
29 -1 R
28 -2 R
26 -1 R
27 -2 R
25 -2 R
25 -1 R
24 -2 R
23 -2 R
23 -2 R
22 -2 R
22 -2 R
21 -2 R
21 -2 R
20 -2 R
20 -2 R
19 -2 R
19 -2 R
18 -2 R
19 -2 R
17 -3 R
18 -2 R
17 -3 R
17 -2 R
16 -2 R
17 -4 R
16 -2 R
15 -2 R
16 -3 R
15 -3 R
15 -3 R
14 -2 R
15 -4 R
14 -2 R
14 -4 R
14 -2 R
13 -4 R
14 -2 R
13 -4 R
13 -3 R
12 -3 R
13 -4 R
12 -2 R
13 -5 R
12 -3 R
12 -3 R
12 -4 R
11 -3 R
12 -3 R
11 -5 R
11 -3 R
11 -3 R
11 -5 R
11 -5 R
11 -2 R
10 -4 R
11 -6 R
10 -3 R
10 -3 R
10 -5 R
10 -6 R
10 -3 R
10 -2 R
9 -5 R
10 -6 R
9 -5 R
10 -2 R
9 -4 R
9 -6 R
9 -7 R
9 -3 R
9 -3 R
9 -4 R
8 -6 R
9 -7 R
8 -5 R
9 -2 R
8 -4 R
9 -6 R
8 -6 R
8 -8 R
8 -4 R
8 -3 R
8 -4 R
8 -5 R
8 -7 R
7 -8 R
8 -8 R
8 -1 R
7 -3 R
8 -5 R
7 -6 R
7 -7 R
8 -8 R
7 -9 R
7 -4 R
7 -2 R
7 -4 R
7 -5 R
7 -7 R
7 -8 R
7 -8 R
7 -9 R
7 -7 R
6 -2 R
7 -3 R
7 -5 R
6 -6 R
7 -7 R
6 -8 R
6 -9 R
7 -10 R
6 -10 R
6 -3 R
7 -2 R
6 -4 R
6 -5 R
6 -6 R
6 -8 R
6 -8 R
6 -10 R
6 -10 R
6 -10 R
6 -11 R
6 -3 R
6 -2 R
5 -3 R
6 -5 R
6 -7 R
5 -7 R
6 -8 R
6 -9 R
5 -10 R
6 -11 R
5 -11 R
6 -11 R
5 -12 R
5 -1 R
6 -2 R
5 -4 R
5 -5 R
6 -6 R
5 -7 R
5 -8 R
5 -9 R
5 -10 R
5 -11 R
5 -11 R
5 -11 R
6 -13 R
4 -12 R
5 -13 R
5 -2 R
5 -2 R
5 -3 R
5 -5 R
5 -5 R
5 -7 R
4 -7 R
5 -9 R
5 -9 R
5 -11 R
4 -11 R
5 -11 R
5 -12 R
4 -13 R
5 -13 R
4 -14 R
5 -14 R
4 -14 R
5 -4 R
4 -2 R
5 -2 R
4 -4 R
5 -5 R
4 -6 R
4 -7 R
5 -8 R
4 -9 R
4 -9 R
5 -11 R
4 -11 R
4 -12 R
4 -12 R
5 -13 R
4 -14 R
4 -14 R
4 -14 R
4 -15 R
4 -15 R
4 -15 R
4 -16 R
5 -8 R
4 -1 R
4 -2 R
4 -3 R
4 -5 R
3 -5 R
4 -6 R
4 -7 R
4 -8 R
4 -9 R
4 -10 R
4 -10 R
4 -11 R
4 -12 R
3 -12 R
4 -13 R
4 -14 R
4 -14 R
3 -15 R
4 -15 R
4 -15 R
4 -16 R
3 -17 R
4 -16 R
4 -17 R
3 -18 R
4 -17 R
3 -18 R
4 -4 R
4 -1 R
3 -2 R
4 -4 R
3 -4 R
4 -5 R
3 -5 R
4 -7 R
3 -7 R
4 -9 R
3 -9 R
4 -9 R
3 -11 R
4 -11 R
3 -12 R
3 -12 R
4 -13 R
3 -14 R
3 -14 R
4 -15 R
3 -15 R
3 -16 R
4 -16 R
3 -17 R
3 -17 R
4 -18 R
3 -18 R
3 -18 R
3 -18 R
4 -19 R
3 -20 R
3 -19 R
3 -20 R
3 -20 R
4 -20 R
3 -18 R
3 0 R
3 -2 R
3 -2 R
3 -3 R
3 -4 R
3 -4 R
4 -5 R
3 -7 R
3 -6 R
3 -8 R
3 -8 R
3 -9 R
3 -10 R
3 -10 R
3 -11 R
3 -11 R
3 -13 R
3 -12 R
3 -14 R
3 -14 R
3 -14 R
2 -15 R
3 -16 R
3 -16 R
3 -16 R
3 -17 R
3 -18 R
3 -18 R
3 -18 R
3 -19 R
2 -19 R
3 -19 R
3 -20 R
3 -21 R
3 -20 R
3 -21 R
2 -22 R
3 -21 R
3 -22 R
3 -22 R
2 -22 R
3 -23 R
3 -23 R
3 -23 R
2 -23 R
3 -24 R
3 -23 R
3 -11 R
2 0 R
3 -2 R
3 -2 R
2 -3 R
3 -3 R
3 -5 R
2 -4 R
3 -6 R
2 -6 R
3 -7 R
3 -7 R
2 -8 R
3 -9 R
3 -9 R
2 -10 R
3 -10 R
2 -11 R
3 -12 R
2 -12 R
3 -13 R
2 -13 R
3 -13 R
3 -15 R
2 -14 R
3 -16 R
2 -15 R
3 -17 R
2 -16 R
3 -18 R
2 -17 R
2 -18 R
3 -19 R
2 -19 R
3 -19 R
2 -20 R
3 -20 R
2 -21 R
3 -21 R
2 -21 R
2 -22 R
3 -22 R
2 -22 R
3 -23 R
2 -23 R
2 -24 R
3 -24 R
2 -24 R
3 -24 R
2 -25 R
2 -25 R
3 -25 R
2 -26 R
2 -26 R
3 -26 R
2 -26 R
2 -27 R
2 -27 R
3 -27 R
2 -27 R
2 -27 R
3 -28 R
2 -28 R
2 -28 R
2 -28 R
3 -28 R
2 -29 R
686 4405 CircleF
1294 4405 CircleF
1653 4405 CircleF
1910 4405 CircleF
2109 4404 CircleF
2272 4404 CircleF
2410 4404 CircleF
2530 4403 CircleF
2635 4403 CircleF
2730 4403 CircleF
2816 4402 CircleF
2894 4402 CircleF
2966 4401 CircleF
3032 4401 CircleF
3094 4400 CircleF
3152 4399 CircleF
3207 4398 CircleF
3258 4398 CircleF
3307 4397 CircleF
3353 4396 CircleF
3397 4395 CircleF
3439 4394 CircleF
3479 4393 CircleF
3517 4392 CircleF
3554 4391 CircleF
3589 4390 CircleF
3623 4388 CircleF
3656 4387 CircleF
3687 4386 CircleF
3718 4384 CircleF
3747 4383 CircleF
3776 4382 CircleF
3804 4380 CircleF
3830 4379 CircleF
3857 4377 CircleF
3882 4375 CircleF
3907 4374 CircleF
3931 4372 CircleF
3954 4370 CircleF
3977 4368 CircleF
3999 4366 CircleF
4021 4364 CircleF
4042 4362 CircleF
4063 4360 CircleF
4083 4358 CircleF
4103 4356 CircleF
4122 4354 CircleF
4141 4352 CircleF
4159 4350 CircleF
4178 4348 CircleF
4195 4345 CircleF
4213 4343 CircleF
4230 4340 CircleF
4247 4338 CircleF
4263 4336 CircleF
4280 4332 CircleF
4296 4330 CircleF
4311 4328 CircleF
4327 4325 CircleF
4342 4322 CircleF
4357 4319 CircleF
4371 4317 CircleF
4386 4313 CircleF
4400 4311 CircleF
4414 4307 CircleF
4428 4305 CircleF
4441 4301 CircleF
4455 4299 CircleF
4468 4295 CircleF
4481 4292 CircleF
4493 4289 CircleF
4506 4285 CircleF
4518 4283 CircleF
4531 4278 CircleF
4543 4275 CircleF
4555 4272 CircleF
4567 4268 CircleF
4578 4265 CircleF
4590 4262 CircleF
4601 4257 CircleF
4612 4254 CircleF
4623 4251 CircleF
4634 4246 CircleF
4645 4241 CircleF
4656 4239 CircleF
4666 4235 CircleF
4677 4229 CircleF
4687 4226 CircleF
4697 4223 CircleF
4707 4218 CircleF
4717 4212 CircleF
4727 4209 CircleF
4737 4207 CircleF
4746 4202 CircleF
4756 4196 CircleF
4765 4191 CircleF
4775 4189 CircleF
4784 4185 CircleF
4793 4179 CircleF
4802 4172 CircleF
4811 4169 CircleF
4820 4166 CircleF
4829 4162 CircleF
4837 4156 CircleF
4846 4149 CircleF
4854 4144 CircleF
4863 4142 CircleF
4871 4138 CircleF
4880 4132 CircleF
4888 4126 CircleF
4896 4118 CircleF
4904 4114 CircleF
4912 4111 CircleF
4920 4107 CircleF
4928 4102 CircleF
4936 4095 CircleF
4943 4087 CircleF
4951 4079 CircleF
4959 4078 CircleF
4966 4075 CircleF
4974 4070 CircleF
4981 4064 CircleF
4988 4057 CircleF
4996 4049 CircleF
5003 4040 CircleF
5010 4036 CircleF
5017 4034 CircleF
5024 4030 CircleF
5031 4025 CircleF
5038 4018 CircleF
5045 4010 CircleF
5052 4002 CircleF
5059 3993 CircleF
5066 3986 CircleF
5072 3984 CircleF
5079 3981 CircleF
5086 3976 CircleF
5092 3970 CircleF
5099 3963 CircleF
5105 3955 CircleF
5111 3946 CircleF
5118 3936 CircleF
5124 3926 CircleF
5130 3923 CircleF
5137 3921 CircleF
5143 3917 CircleF
5149 3912 CircleF
5155 3906 CircleF
5161 3898 CircleF
5167 3890 CircleF
5173 3880 CircleF
5179 3870 CircleF
5185 3860 CircleF
5191 3849 CircleF
5197 3846 CircleF
5203 3844 CircleF
5208 3841 CircleF
5214 3836 CircleF
5220 3829 CircleF
5225 3822 CircleF
5231 3814 CircleF
5237 3805 CircleF
5242 3795 CircleF
5248 3784 CircleF
5253 3773 CircleF
5259 3762 CircleF
5264 3750 CircleF
5269 3749 CircleF
5275 3747 CircleF
5280 3743 CircleF
5285 3738 CircleF
5291 3732 CircleF
5296 3725 CircleF
5301 3717 CircleF
5306 3708 CircleF
5311 3698 CircleF
5316 3687 CircleF
5321 3676 CircleF
5326 3665 CircleF
5332 3652 CircleF
5336 3640 CircleF
5341 3627 CircleF
5346 3625 CircleF
5351 3623 CircleF
5356 3620 CircleF
5361 3615 CircleF
5366 3610 CircleF
5371 3603 CircleF
5375 3596 CircleF
5380 3587 CircleF
5385 3578 CircleF
5390 3567 CircleF
5394 3556 CircleF
5399 3545 CircleF
5404 3533 CircleF
5408 3520 CircleF
5413 3507 CircleF
5417 3493 CircleF
5422 3479 CircleF
5426 3465 CircleF
5431 3461 CircleF
5435 3459 CircleF
5440 3457 CircleF
5444 3453 CircleF
5449 3448 CircleF
5453 3442 CircleF
5457 3435 CircleF
5462 3427 CircleF
5466 3418 CircleF
5470 3409 CircleF
5475 3398 CircleF
5479 3387 CircleF
5483 3375 CircleF
5487 3363 CircleF
5492 3350 CircleF
5496 3336 CircleF
5500 3322 CircleF
5504 3308 CircleF
5508 3293 CircleF
5512 3278 CircleF
5516 3263 CircleF
5520 3247 CircleF
5525 3239 CircleF
5529 3238 CircleF
5533 3236 CircleF
5537 3233 CircleF
5541 3228 CircleF
5544 3223 CircleF
5548 3217 CircleF
5552 3210 CircleF
5556 3202 CircleF
5560 3193 CircleF
5564 3183 CircleF
5568 3173 CircleF
5572 3162 CircleF
5576 3150 CircleF
5579 3138 CircleF
5583 3125 CircleF
5587 3111 CircleF
5591 3097 CircleF
5594 3082 CircleF
5598 3067 CircleF
5602 3052 CircleF
5606 3036 CircleF
5609 3019 CircleF
5613 3003 CircleF
5617 2986 CircleF
5620 2968 CircleF
5624 2951 CircleF
5627 2933 CircleF
5631 2929 CircleF
5635 2928 CircleF
5638 2926 CircleF
5642 2922 CircleF
5645 2918 CircleF
5649 2913 CircleF
5652 2908 CircleF
5656 2901 CircleF
5659 2894 CircleF
5663 2885 CircleF
5666 2876 CircleF
5670 2867 CircleF
5673 2856 CircleF
5677 2845 CircleF
5680 2833 CircleF
5683 2821 CircleF
5687 2808 CircleF
5690 2794 CircleF
5693 2780 CircleF
5697 2765 CircleF
5700 2750 CircleF
5703 2734 CircleF
5707 2718 CircleF
5710 2701 CircleF
5713 2684 CircleF
5717 2666 CircleF
5720 2648 CircleF
5723 2630 CircleF
5726 2612 CircleF
5730 2593 CircleF
5733 2573 CircleF
5736 2554 CircleF
5739 2534 CircleF
5742 2514 CircleF
5746 2494 CircleF
5749 2476 CircleF
5752 2476 CircleF
5755 2474 CircleF
5758 2472 CircleF
5761 2469 CircleF
5764 2465 CircleF
5767 2461 CircleF
5771 2456 CircleF
5774 2449 CircleF
5777 2443 CircleF
5780 2435 CircleF
5783 2427 CircleF
5786 2418 CircleF
5789 2408 CircleF
5792 2398 CircleF
5795 2387 CircleF
5798 2376 CircleF
5801 2363 CircleF
5804 2351 CircleF
5807 2337 CircleF
5810 2323 CircleF
5813 2309 CircleF
5815 2294 CircleF
5818 2278 CircleF
5821 2262 CircleF
5824 2246 CircleF
5827 2229 CircleF
5830 2211 CircleF
5833 2193 CircleF
5836 2175 CircleF
5839 2156 CircleF
5841 2137 CircleF
5844 2118 CircleF
5847 2098 CircleF
5850 2077 CircleF
5853 2057 CircleF
5856 2036 CircleF
5858 2014 CircleF
5861 1993 CircleF
5864 1971 CircleF
5867 1949 CircleF
5869 1927 CircleF
5872 1904 CircleF
5875 1881 CircleF
5878 1858 CircleF
5880 1835 CircleF
5883 1811 CircleF
5886 1788 CircleF
5889 1777 CircleF
5891 1777 CircleF
5894 1775 CircleF
5897 1773 CircleF
5899 1770 CircleF
5902 1767 CircleF
5905 1762 CircleF
5907 1758 CircleF
5910 1752 CircleF
5912 1746 CircleF
5915 1739 CircleF
5918 1732 CircleF
5920 1724 CircleF
5923 1715 CircleF
5926 1706 CircleF
5928 1696 CircleF
5931 1686 CircleF
5933 1675 CircleF
5936 1663 CircleF
5938 1651 CircleF
5941 1638 CircleF
5943 1625 CircleF
5946 1612 CircleF
5949 1597 CircleF
5951 1583 CircleF
5954 1567 CircleF
5956 1552 CircleF
5959 1535 CircleF
5961 1519 CircleF
5964 1501 CircleF
5966 1484 CircleF
5968 1466 CircleF
5971 1447 CircleF
5973 1428 CircleF
5976 1409 CircleF
5978 1389 CircleF
5981 1369 CircleF
5983 1348 CircleF
5986 1327 CircleF
5988 1306 CircleF
5990 1284 CircleF
5993 1262 CircleF
5995 1240 CircleF
5998 1217 CircleF
6000 1194 CircleF
6002 1170 CircleF
6005 1146 CircleF
6007 1122 CircleF
6010 1098 CircleF
6012 1073 CircleF
6014 1048 CircleF
6017 1023 CircleF
6019 997 CircleF
6021 971 CircleF
6024 945 CircleF
6026 919 CircleF
6028 892 CircleF
6030 865 CircleF
6033 838 CircleF
6035 811 CircleF
6037 784 CircleF
6040 756 CircleF
6042 728 CircleF
6044 700 CircleF
6046 672 CircleF
6049 644 CircleF
6051 615 CircleF
3177 2493 CircleF
% End plot #3
2.000 UL
LTb
LCb setrgbcolor
1.000 UL
LTB
LCb setrgbcolor
686 4899 N
686 448 L
5365 0 V
0 4451 V
-5365 0 V
Z stroke
1.000 UP
1.000 UL
LTb
LCb setrgbcolor
stroke
grestore
end
showpage
%%Trailer
%%DocumentFonts: Symbol roman Helvetica
