%!PS-Adobe-2.0 EPSF-2.0
%%Title: gnuplot_spin.eps
%%Creator: gnuplot 5.2 patchlevel 2
%%CreationDate: Fri Jul 17 10:32:30 2020
%%DocumentFonts: (atend)
%%BoundingBox: 50 50 410 302
%%EndComments
%%BeginProlog
/gnudict 256 dict def
gnudict begin
%
% The following true/false flags may be edited by hand if desired.
% The unit line width and grayscale image gamma correction may also be changed.
%
/Color true def
/Blacktext true def
/Solid false def
/Dashlength 1 def
/Landscape false def
/Level1 false def
/Level3 false def
/Rounded false def
/ClipToBoundingBox false def
/SuppressPDFMark false def
/TransparentPatterns false def
/gnulinewidth 5.000 def
/userlinewidth gnulinewidth def
/Gamma 1.0 def
/BackgroundColor {-1.000 -1.000 -1.000} def
%
/vshift -46 def
/dl1 {
  10.0 Dashlength userlinewidth gnulinewidth div mul mul mul
  Rounded { currentlinewidth 0.75 mul sub dup 0 le { pop 0.01 } if } if
} def
/dl2 {
  10.0 Dashlength userlinewidth gnulinewidth div mul mul mul
  Rounded { currentlinewidth 0.75 mul add } if
} def
/hpt_ 31.5 def
/vpt_ 31.5 def
/hpt hpt_ def
/vpt vpt_ def
/doclip {
  ClipToBoundingBox {
    newpath 50 50 moveto 410 50 lineto 410 302 lineto 50 302 lineto closepath
    clip
  } if
} def
%
% Gnuplot Prolog Version 5.1 (Oct 2015)
%
%/SuppressPDFMark true def
%
/M {moveto} bind def
/L {lineto} bind def
/R {rmoveto} bind def
/V {rlineto} bind def
/N {newpath moveto} bind def
/Z {closepath} bind def
/C {setrgbcolor} bind def
/f {rlineto fill} bind def
/g {setgray} bind def
/Gshow {show} def   % May be redefined later in the file to support UTF-8
/vpt2 vpt 2 mul def
/hpt2 hpt 2 mul def
/Lshow {currentpoint stroke M 0 vshift R 
	Blacktext {gsave 0 setgray textshow grestore} {textshow} ifelse} def
/Rshow {currentpoint stroke M dup stringwidth pop neg vshift R
	Blacktext {gsave 0 setgray textshow grestore} {textshow} ifelse} def
/Cshow {currentpoint stroke M dup stringwidth pop -2 div vshift R 
	Blacktext {gsave 0 setgray textshow grestore} {textshow} ifelse} def
/UP {dup vpt_ mul /vpt exch def hpt_ mul /hpt exch def
  /hpt2 hpt 2 mul def /vpt2 vpt 2 mul def} def
/DL {Color {setrgbcolor Solid {pop []} if 0 setdash}
 {pop pop pop 0 setgray Solid {pop []} if 0 setdash} ifelse} def
/BL {stroke userlinewidth 2 mul setlinewidth
	Rounded {1 setlinejoin 1 setlinecap} if} def
/AL {stroke userlinewidth 2 div setlinewidth
	Rounded {1 setlinejoin 1 setlinecap} if} def
/UL {dup gnulinewidth mul /userlinewidth exch def
	dup 1 lt {pop 1} if 10 mul /udl exch def} def
/PL {stroke userlinewidth setlinewidth
	Rounded {1 setlinejoin 1 setlinecap} if} def
3.8 setmiterlimit
% Classic Line colors (version 5.0)
/LCw {1 1 1} def
/LCb {0 0 0} def
/LCa {0 0 0} def
/LC0 {1 0 0} def
/LC1 {0 1 0} def
/LC2 {0 0 1} def
/LC3 {1 0 1} def
/LC4 {0 1 1} def
/LC5 {1 1 0} def
/LC6 {0 0 0} def
/LC7 {1 0.3 0} def
/LC8 {0.5 0.5 0.5} def
% Default dash patterns (version 5.0)
/LTB {BL [] LCb DL} def
/LTw {PL [] 1 setgray} def
/LTb {PL [] LCb DL} def
/LTa {AL [1 udl mul 2 udl mul] 0 setdash LCa setrgbcolor} def
/LT0 {PL [] LC0 DL} def
/LT1 {PL [2 dl1 3 dl2] LC1 DL} def
/LT2 {PL [1 dl1 1.5 dl2] LC2 DL} def
/LT3 {PL [6 dl1 2 dl2 1 dl1 2 dl2] LC3 DL} def
/LT4 {PL [1 dl1 2 dl2 6 dl1 2 dl2 1 dl1 2 dl2] LC4 DL} def
/LT5 {PL [4 dl1 2 dl2] LC5 DL} def
/LT6 {PL [1.5 dl1 1.5 dl2 1.5 dl1 1.5 dl2 1.5 dl1 6 dl2] LC6 DL} def
/LT7 {PL [3 dl1 3 dl2 1 dl1 3 dl2] LC7 DL} def
/LT8 {PL [2 dl1 2 dl2 2 dl1 6 dl2] LC8 DL} def
/SL {[] 0 setdash} def
/Pnt {stroke [] 0 setdash gsave 1 setlinecap M 0 0 V stroke grestore} def
/Dia {stroke [] 0 setdash 2 copy vpt add M
  hpt neg vpt neg V hpt vpt neg V
  hpt vpt V hpt neg vpt V closepath stroke
  Pnt} def
/Pls {stroke [] 0 setdash vpt sub M 0 vpt2 V
  currentpoint stroke M
  hpt neg vpt neg R hpt2 0 V stroke
 } def
/Box {stroke [] 0 setdash 2 copy exch hpt sub exch vpt add M
  0 vpt2 neg V hpt2 0 V 0 vpt2 V
  hpt2 neg 0 V closepath stroke
  Pnt} def
/Crs {stroke [] 0 setdash exch hpt sub exch vpt add M
  hpt2 vpt2 neg V currentpoint stroke M
  hpt2 neg 0 R hpt2 vpt2 V stroke} def
/TriU {stroke [] 0 setdash 2 copy vpt 1.12 mul add M
  hpt neg vpt -1.62 mul V
  hpt 2 mul 0 V
  hpt neg vpt 1.62 mul V closepath stroke
  Pnt} def
/Star {2 copy Pls Crs} def
/BoxF {stroke [] 0 setdash exch hpt sub exch vpt add M
  0 vpt2 neg V hpt2 0 V 0 vpt2 V
  hpt2 neg 0 V closepath fill} def
/TriUF {stroke [] 0 setdash vpt 1.12 mul add M
  hpt neg vpt -1.62 mul V
  hpt 2 mul 0 V
  hpt neg vpt 1.62 mul V closepath fill} def
/TriD {stroke [] 0 setdash 2 copy vpt 1.12 mul sub M
  hpt neg vpt 1.62 mul V
  hpt 2 mul 0 V
  hpt neg vpt -1.62 mul V closepath stroke
  Pnt} def
/TriDF {stroke [] 0 setdash vpt 1.12 mul sub M
  hpt neg vpt 1.62 mul V
  hpt 2 mul 0 V
  hpt neg vpt -1.62 mul V closepath fill} def
/DiaF {stroke [] 0 setdash vpt add M
  hpt neg vpt neg V hpt vpt neg V
  hpt vpt V hpt neg vpt V closepath fill} def
/Pent {stroke [] 0 setdash 2 copy gsave
  translate 0 hpt M 4 {72 rotate 0 hpt L} repeat
  closepath stroke grestore Pnt} def
/PentF {stroke [] 0 setdash gsave
  translate 0 hpt M 4 {72 rotate 0 hpt L} repeat
  closepath fill grestore} def
/Circle {stroke [] 0 setdash 2 copy
  hpt 0 360 arc stroke Pnt} def
/CircleF {stroke [] 0 setdash hpt 0 360 arc fill} def
/C0 {BL [] 0 setdash 2 copy moveto vpt 90 450 arc} bind def
/C1 {BL [] 0 setdash 2 copy moveto
	2 copy vpt 0 90 arc closepath fill
	vpt 0 360 arc closepath} bind def
/C2 {BL [] 0 setdash 2 copy moveto
	2 copy vpt 90 180 arc closepath fill
	vpt 0 360 arc closepath} bind def
/C3 {BL [] 0 setdash 2 copy moveto
	2 copy vpt 0 180 arc closepath fill
	vpt 0 360 arc closepath} bind def
/C4 {BL [] 0 setdash 2 copy moveto
	2 copy vpt 180 270 arc closepath fill
	vpt 0 360 arc closepath} bind def
/C5 {BL [] 0 setdash 2 copy moveto
	2 copy vpt 0 90 arc
	2 copy moveto
	2 copy vpt 180 270 arc closepath fill
	vpt 0 360 arc} bind def
/C6 {BL [] 0 setdash 2 copy moveto
	2 copy vpt 90 270 arc closepath fill
	vpt 0 360 arc closepath} bind def
/C7 {BL [] 0 setdash 2 copy moveto
	2 copy vpt 0 270 arc closepath fill
	vpt 0 360 arc closepath} bind def
/C8 {BL [] 0 setdash 2 copy moveto
	2 copy vpt 270 360 arc closepath fill
	vpt 0 360 arc closepath} bind def
/C9 {BL [] 0 setdash 2 copy moveto
	2 copy vpt 270 450 arc closepath fill
	vpt 0 360 arc closepath} bind def
/C10 {BL [] 0 setdash 2 copy 2 copy moveto vpt 270 360 arc closepath fill
	2 copy moveto
	2 copy vpt 90 180 arc closepath fill
	vpt 0 360 arc closepath} bind def
/C11 {BL [] 0 setdash 2 copy moveto
	2 copy vpt 0 180 arc closepath fill
	2 copy moveto
	2 copy vpt 270 360 arc closepath fill
	vpt 0 360 arc closepath} bind def
/C12 {BL [] 0 setdash 2 copy moveto
	2 copy vpt 180 360 arc closepath fill
	vpt 0 360 arc closepath} bind def
/C13 {BL [] 0 setdash 2 copy moveto
	2 copy vpt 0 90 arc closepath fill
	2 copy moveto
	2 copy vpt 180 360 arc closepath fill
	vpt 0 360 arc closepath} bind def
/C14 {BL [] 0 setdash 2 copy moveto
	2 copy vpt 90 360 arc closepath fill
	vpt 0 360 arc} bind def
/C15 {BL [] 0 setdash 2 copy vpt 0 360 arc closepath fill
	vpt 0 360 arc closepath} bind def
/Rec {newpath 4 2 roll moveto 1 index 0 rlineto 0 exch rlineto
	neg 0 rlineto closepath} bind def
/Square {dup Rec} bind def
/Bsquare {vpt sub exch vpt sub exch vpt2 Square} bind def
/S0 {BL [] 0 setdash 2 copy moveto 0 vpt rlineto BL Bsquare} bind def
/S1 {BL [] 0 setdash 2 copy vpt Square fill Bsquare} bind def
/S2 {BL [] 0 setdash 2 copy exch vpt sub exch vpt Square fill Bsquare} bind def
/S3 {BL [] 0 setdash 2 copy exch vpt sub exch vpt2 vpt Rec fill Bsquare} bind def
/S4 {BL [] 0 setdash 2 copy exch vpt sub exch vpt sub vpt Square fill Bsquare} bind def
/S5 {BL [] 0 setdash 2 copy 2 copy vpt Square fill
	exch vpt sub exch vpt sub vpt Square fill Bsquare} bind def
/S6 {BL [] 0 setdash 2 copy exch vpt sub exch vpt sub vpt vpt2 Rec fill Bsquare} bind def
/S7 {BL [] 0 setdash 2 copy exch vpt sub exch vpt sub vpt vpt2 Rec fill
	2 copy vpt Square fill Bsquare} bind def
/S8 {BL [] 0 setdash 2 copy vpt sub vpt Square fill Bsquare} bind def
/S9 {BL [] 0 setdash 2 copy vpt sub vpt vpt2 Rec fill Bsquare} bind def
/S10 {BL [] 0 setdash 2 copy vpt sub vpt Square fill 2 copy exch vpt sub exch vpt Square fill
	Bsquare} bind def
/S11 {BL [] 0 setdash 2 copy vpt sub vpt Square fill 2 copy exch vpt sub exch vpt2 vpt Rec fill
	Bsquare} bind def
/S12 {BL [] 0 setdash 2 copy exch vpt sub exch vpt sub vpt2 vpt Rec fill Bsquare} bind def
/S13 {BL [] 0 setdash 2 copy exch vpt sub exch vpt sub vpt2 vpt Rec fill
	2 copy vpt Square fill Bsquare} bind def
/S14 {BL [] 0 setdash 2 copy exch vpt sub exch vpt sub vpt2 vpt Rec fill
	2 copy exch vpt sub exch vpt Square fill Bsquare} bind def
/S15 {BL [] 0 setdash 2 copy Bsquare fill Bsquare} bind def
/D0 {gsave translate 45 rotate 0 0 S0 stroke grestore} bind def
/D1 {gsave translate 45 rotate 0 0 S1 stroke grestore} bind def
/D2 {gsave translate 45 rotate 0 0 S2 stroke grestore} bind def
/D3 {gsave translate 45 rotate 0 0 S3 stroke grestore} bind def
/D4 {gsave translate 45 rotate 0 0 S4 stroke grestore} bind def
/D5 {gsave translate 45 rotate 0 0 S5 stroke grestore} bind def
/D6 {gsave translate 45 rotate 0 0 S6 stroke grestore} bind def
/D7 {gsave translate 45 rotate 0 0 S7 stroke grestore} bind def
/D8 {gsave translate 45 rotate 0 0 S8 stroke grestore} bind def
/D9 {gsave translate 45 rotate 0 0 S9 stroke grestore} bind def
/D10 {gsave translate 45 rotate 0 0 S10 stroke grestore} bind def
/D11 {gsave translate 45 rotate 0 0 S11 stroke grestore} bind def
/D12 {gsave translate 45 rotate 0 0 S12 stroke grestore} bind def
/D13 {gsave translate 45 rotate 0 0 S13 stroke grestore} bind def
/D14 {gsave translate 45 rotate 0 0 S14 stroke grestore} bind def
/D15 {gsave translate 45 rotate 0 0 S15 stroke grestore} bind def
/DiaE {stroke [] 0 setdash vpt add M
  hpt neg vpt neg V hpt vpt neg V
  hpt vpt V hpt neg vpt V closepath stroke} def
/BoxE {stroke [] 0 setdash exch hpt sub exch vpt add M
  0 vpt2 neg V hpt2 0 V 0 vpt2 V
  hpt2 neg 0 V closepath stroke} def
/TriUE {stroke [] 0 setdash vpt 1.12 mul add M
  hpt neg vpt -1.62 mul V
  hpt 2 mul 0 V
  hpt neg vpt 1.62 mul V closepath stroke} def
/TriDE {stroke [] 0 setdash vpt 1.12 mul sub M
  hpt neg vpt 1.62 mul V
  hpt 2 mul 0 V
  hpt neg vpt -1.62 mul V closepath stroke} def
/PentE {stroke [] 0 setdash gsave
  translate 0 hpt M 4 {72 rotate 0 hpt L} repeat
  closepath stroke grestore} def
/CircE {stroke [] 0 setdash 
  hpt 0 360 arc stroke} def
/Opaque {gsave closepath 1 setgray fill grestore 0 setgray closepath} def
/DiaW {stroke [] 0 setdash vpt add M
  hpt neg vpt neg V hpt vpt neg V
  hpt vpt V hpt neg vpt V Opaque stroke} def
/BoxW {stroke [] 0 setdash exch hpt sub exch vpt add M
  0 vpt2 neg V hpt2 0 V 0 vpt2 V
  hpt2 neg 0 V Opaque stroke} def
/TriUW {stroke [] 0 setdash vpt 1.12 mul add M
  hpt neg vpt -1.62 mul V
  hpt 2 mul 0 V
  hpt neg vpt 1.62 mul V Opaque stroke} def
/TriDW {stroke [] 0 setdash vpt 1.12 mul sub M
  hpt neg vpt 1.62 mul V
  hpt 2 mul 0 V
  hpt neg vpt -1.62 mul V Opaque stroke} def
/PentW {stroke [] 0 setdash gsave
  translate 0 hpt M 4 {72 rotate 0 hpt L} repeat
  Opaque stroke grestore} def
/CircW {stroke [] 0 setdash 
  hpt 0 360 arc Opaque stroke} def
/BoxFill {gsave Rec 1 setgray fill grestore} def
/Density {
  /Fillden exch def
  currentrgbcolor
  /ColB exch def /ColG exch def /ColR exch def
  /ColR ColR Fillden mul Fillden sub 1 add def
  /ColG ColG Fillden mul Fillden sub 1 add def
  /ColB ColB Fillden mul Fillden sub 1 add def
  ColR ColG ColB setrgbcolor} def
/BoxColFill {gsave Rec PolyFill} def
/PolyFill {gsave Density fill grestore grestore} def
/h {rlineto rlineto rlineto gsave closepath fill grestore} bind def
%
% PostScript Level 1 Pattern Fill routine for rectangles
% Usage: x y w h s a XX PatternFill
%	x,y = lower left corner of box to be filled
%	w,h = width and height of box
%	  a = angle in degrees between lines and x-axis
%	 XX = 0/1 for no/yes cross-hatch
%
/PatternFill {gsave /PFa [ 9 2 roll ] def
  PFa 0 get PFa 2 get 2 div add PFa 1 get PFa 3 get 2 div add translate
  PFa 2 get -2 div PFa 3 get -2 div PFa 2 get PFa 3 get Rec
  TransparentPatterns {} {gsave 1 setgray fill grestore} ifelse
  clip
  currentlinewidth 0.5 mul setlinewidth
  /PFs PFa 2 get dup mul PFa 3 get dup mul add sqrt def
  0 0 M PFa 5 get rotate PFs -2 div dup translate
  0 1 PFs PFa 4 get div 1 add floor cvi
	{PFa 4 get mul 0 M 0 PFs V} for
  0 PFa 6 get ne {
	0 1 PFs PFa 4 get div 1 add floor cvi
	{PFa 4 get mul 0 2 1 roll M PFs 0 V} for
 } if
  stroke grestore} def
%
/languagelevel where
 {pop languagelevel} {1} ifelse
dup 2 lt
	{/InterpretLevel1 true def
	 /InterpretLevel3 false def}
	{/InterpretLevel1 Level1 def
	 2 gt
	    {/InterpretLevel3 Level3 def}
	    {/InterpretLevel3 false def}
	 ifelse }
 ifelse
%
% PostScript level 2 pattern fill definitions
%
/Level2PatternFill {
/Tile8x8 {/PaintType 2 /PatternType 1 /TilingType 1 /BBox [0 0 8 8] /XStep 8 /YStep 8}
	bind def
/KeepColor {currentrgbcolor [/Pattern /DeviceRGB] setcolorspace} bind def
<< Tile8x8
 /PaintProc {0.5 setlinewidth pop 0 0 M 8 8 L 0 8 M 8 0 L stroke} 
>> matrix makepattern
/Pat1 exch def
<< Tile8x8
 /PaintProc {0.5 setlinewidth pop 0 0 M 8 8 L 0 8 M 8 0 L stroke
	0 4 M 4 8 L 8 4 L 4 0 L 0 4 L stroke}
>> matrix makepattern
/Pat2 exch def
<< Tile8x8
 /PaintProc {0.5 setlinewidth pop 0 0 M 0 8 L
	8 8 L 8 0 L 0 0 L fill}
>> matrix makepattern
/Pat3 exch def
<< Tile8x8
 /PaintProc {0.5 setlinewidth pop -4 8 M 8 -4 L
	0 12 M 12 0 L stroke}
>> matrix makepattern
/Pat4 exch def
<< Tile8x8
 /PaintProc {0.5 setlinewidth pop -4 0 M 8 12 L
	0 -4 M 12 8 L stroke}
>> matrix makepattern
/Pat5 exch def
<< Tile8x8
 /PaintProc {0.5 setlinewidth pop -2 8 M 4 -4 L
	0 12 M 8 -4 L 4 12 M 10 0 L stroke}
>> matrix makepattern
/Pat6 exch def
<< Tile8x8
 /PaintProc {0.5 setlinewidth pop -2 0 M 4 12 L
	0 -4 M 8 12 L 4 -4 M 10 8 L stroke}
>> matrix makepattern
/Pat7 exch def
<< Tile8x8
 /PaintProc {0.5 setlinewidth pop 8 -2 M -4 4 L
	12 0 M -4 8 L 12 4 M 0 10 L stroke}
>> matrix makepattern
/Pat8 exch def
<< Tile8x8
 /PaintProc {0.5 setlinewidth pop 0 -2 M 12 4 L
	-4 0 M 12 8 L -4 4 M 8 10 L stroke}
>> matrix makepattern
/Pat9 exch def
/Pattern1 {PatternBgnd KeepColor Pat1 setpattern} bind def
/Pattern2 {PatternBgnd KeepColor Pat2 setpattern} bind def
/Pattern3 {PatternBgnd KeepColor Pat3 setpattern} bind def
/Pattern4 {PatternBgnd KeepColor Landscape {Pat5} {Pat4} ifelse setpattern} bind def
/Pattern5 {PatternBgnd KeepColor Landscape {Pat4} {Pat5} ifelse setpattern} bind def
/Pattern6 {PatternBgnd KeepColor Landscape {Pat9} {Pat6} ifelse setpattern} bind def
/Pattern7 {PatternBgnd KeepColor Landscape {Pat8} {Pat7} ifelse setpattern} bind def
} def
%
%
%End of PostScript Level 2 code
%
/PatternBgnd {
  TransparentPatterns {} {gsave 1 setgray fill grestore} ifelse
} def
%
% Substitute for Level 2 pattern fill codes with
% grayscale if Level 2 support is not selected.
%
/Level1PatternFill {
/Pattern1 {0.250 Density} bind def
/Pattern2 {0.500 Density} bind def
/Pattern3 {0.750 Density} bind def
/Pattern4 {0.125 Density} bind def
/Pattern5 {0.375 Density} bind def
/Pattern6 {0.625 Density} bind def
/Pattern7 {0.875 Density} bind def
} def
%
% Now test for support of Level 2 code
%
Level1 {Level1PatternFill} {Level2PatternFill} ifelse
%
/Symbol-Oblique /Symbol findfont [1 0 .167 1 0 0] makefont
dup length dict begin {1 index /FID eq {pop pop} {def} ifelse} forall
currentdict end definefont pop
%
/Metrics {ExtendTextBox Gswidth} def
/Lwidth {currentpoint stroke M 0 vshift R Metrics} def
/Rwidth {currentpoint stroke M dup stringwidth pop neg vshift R Metrics} def
/Cwidth {currentpoint stroke M dup stringwidth pop -2 div vshift R Metrics} def
/GLwidth {currentpoint stroke M 0 vshift R {ExtendTextBox} forall} def
/GRwidth {currentpoint stroke M dup Gwidth vshift R {ExtendTextBox} forall} def
/GCwidth {currentpoint stroke M dup Gwidth 2 div vshift R {ExtendTextBox} forall} def
/GLwidth2 {0 Gwidth AddGlyphWidth} def
/GRwidth2 {Gwidth -1 mul 0 AddGlyphWidth} def
/GCwidth2 {Gwidth 2 div dup -1 mul AddGlyphWidth} def
/AddGlyphWidth { dup TBx2 gt {userdict /TBx2 3 -1 roll put} {pop} ifelse
                 dup TBx1 lt {userdict /TBx1 3 -1 roll put} {pop} ifelse } def
/MFshow {
   { dup 5 get 3 ge
     { 5 get 3 eq {gsave} {grestore} ifelse }
     {dup dup 0 get findfont exch 1 get scalefont setfont
     [ currentpoint ] exch dup 2 get 0 exch R dup 5 get 2 ne {dup dup 6
     get exch 4 get {textshow} {Metrics pop 0 R} ifelse }if dup 5 get 0 eq
     {dup 3 get {2 get neg 0 exch R pop} {pop aload pop M} ifelse} {dup 5
     get 1 eq {dup 2 get exch dup 3 get exch 6 get Gswidth pop -2 div
     dup 0 R} {dup 6 get Gswidth pop -2 div 0 R 6 get
     textshow 2 index {aload pop M neg 3 -1 roll neg R pop pop} {pop pop pop
     pop aload pop M} ifelse }ifelse }ifelse }
     ifelse }
   forall} def
/Gswidth {dup type /stringtype eq {stringwidth} {pop (n) stringwidth} ifelse} def
/MFwidth {0 exch { dup 5 get 3 ge { 5 get 3 eq { 0 } { pop } ifelse }
 {dup 3 get{dup dup 0 get findfont exch 1 get scalefont setfont
     6 get Gswidth pop add} {pop} ifelse} ifelse} forall} def
/MLshow { currentpoint stroke M
  0 exch R
  Blacktext {gsave 0 setgray MFshow grestore} {MFshow} ifelse } bind def
/MRshow { currentpoint stroke M
  exch dup MFwidth neg 3 -1 roll R
  Blacktext {gsave 0 setgray MFshow grestore} {MFshow} ifelse } bind def
/MCshow { currentpoint stroke M
  exch dup MFwidth -2 div 3 -1 roll R
  Blacktext {gsave 0 setgray MFshow grestore} {MFshow} ifelse } bind def
/XYsave    { [( ) 1 2 true false 3 ()] } bind def
/XYrestore { [( ) 1 2 true false 4 ()] } bind def
Level1 SuppressPDFMark or 
{} {
/SDict 10 dict def
systemdict /pdfmark known not {
  userdict /pdfmark systemdict /cleartomark get put
} if
SDict begin [
  /Title (gnuplot_spin.eps)
  /Subject (gnuplot plot)
  /Creator (gnuplot 5.2 patchlevel 2)
%  /Producer (gnuplot)
%  /Keywords ()
  /CreationDate (Fri Jul 17 10:32:30 2020)
  /DOCINFO pdfmark
end
} ifelse
%
% Support for boxed text - Ethan A Merritt Sep 2016
%
/InitTextBox { userdict /TBy2 3 -1 roll put userdict /TBx2 3 -1 roll put
           userdict /TBy1 3 -1 roll put userdict /TBx1 3 -1 roll put
	   /Boxing true def } def
/ExtendTextBox { dup type /stringtype eq
    { Boxing { gsave dup false charpath pathbbox
      dup TBy2 gt {userdict /TBy2 3 -1 roll put} {pop} ifelse
      dup TBx2 gt {userdict /TBx2 3 -1 roll put} {pop} ifelse
      dup TBy1 lt {userdict /TBy1 3 -1 roll put} {pop} ifelse
      dup TBx1 lt {userdict /TBx1 3 -1 roll put} {pop} ifelse
      grestore } if }
    {} ifelse} def
/PopTextBox { newpath TBx1 TBxmargin sub TBy1 TBymargin sub M
               TBx1 TBxmargin sub TBy2 TBymargin add L
	       TBx2 TBxmargin add TBy2 TBymargin add L
	       TBx2 TBxmargin add TBy1 TBymargin sub L closepath } def
/DrawTextBox { PopTextBox stroke /Boxing false def} def
/FillTextBox { gsave PopTextBox fill grestore /Boxing false def} def
0 0 0 0 InitTextBox
/TBxmargin 20 def
/TBymargin 20 def
/Boxing false def
/textshow { ExtendTextBox Gshow } def
%
end
%%EndProlog
%%Page: 1 1
gnudict begin
gsave
doclip
50 50 translate
0.050 0.050 scale
0 setgray
newpath
(Helvetica) findfont 140 scalefont setfont
BackgroundColor 0 lt 3 1 roll 0 lt exch 0 lt or or not {BackgroundColor C 1.000 0 0 7200.00 5040.00 BoxColFill} if
1.000 UL
LTb
LCb setrgbcolor
1353 448 M
0 63 V
0 4388 R
0 -63 V
stroke
1353 308 M
[ [(Helvetica) 140.0 0.0 true true 0 ( 0)]
] -46.7 MCshow
1.000 UL
LTb
LCb setrgbcolor
1810 448 M
0 63 V
0 4388 R
0 -63 V
stroke
1810 308 M
[ [(Helvetica) 140.0 0.0 true true 0 ( 20)]
] -46.7 MCshow
1.000 UL
LTb
LCb setrgbcolor
2266 448 M
0 63 V
0 4388 R
0 -63 V
stroke
2266 308 M
[ [(Helvetica) 140.0 0.0 true true 0 ( 40)]
] -46.7 MCshow
1.000 UL
LTb
LCb setrgbcolor
2723 448 M
0 63 V
0 4388 R
0 -63 V
stroke
2723 308 M
[ [(Helvetica) 140.0 0.0 true true 0 ( 60)]
] -46.7 MCshow
1.000 UL
LTb
LCb setrgbcolor
3179 448 M
0 63 V
0 4388 R
0 -63 V
stroke
3179 308 M
[ [(Helvetica) 140.0 0.0 true true 0 ( 80)]
] -46.7 MCshow
1.000 UL
LTb
LCb setrgbcolor
3636 448 M
0 63 V
0 4388 R
0 -63 V
stroke
3636 308 M
[ [(Helvetica) 140.0 0.0 true true 0 ( 100)]
] -46.7 MCshow
1.000 UL
LTb
LCb setrgbcolor
4092 448 M
0 63 V
0 4388 R
0 -63 V
stroke
4092 308 M
[ [(Helvetica) 140.0 0.0 true true 0 ( 120)]
] -46.7 MCshow
1.000 UL
LTb
LCb setrgbcolor
4549 448 M
0 63 V
0 4388 R
0 -63 V
stroke
4549 308 M
[ [(Helvetica) 140.0 0.0 true true 0 ( 140)]
] -46.7 MCshow
1.000 UL
LTb
LCb setrgbcolor
5005 448 M
0 63 V
0 4388 R
0 -63 V
stroke
5005 308 M
[ [(Helvetica) 140.0 0.0 true true 0 ( 160)]
] -46.7 MCshow
1.000 UL
LTb
LCb setrgbcolor
5462 448 M
0 63 V
0 4388 R
0 -63 V
stroke
5462 308 M
[ [(Helvetica) 140.0 0.0 true true 0 ( 180)]
] -46.7 MCshow
1.000 UL
LTb
LCb setrgbcolor
1.000 UL
LTB
LCb setrgbcolor
1353 4899 N
0 -4451 V
4451 0 V
0 4451 V
-4451 0 V
Z stroke
1.000 UP
1.000 UL
LTb
LCb setrgbcolor
LCb setrgbcolor
3578 98 M
[ [(Helvetica) 140.0 0.0 true true 0 (s [m])]
] -46.7 MCshow
LTb
% Begin plot #1
1.000 UL
LTb
0.58 0.00 0.83 C LCb setrgbcolor
4093 4766 M
[ [(Helvetica) 140.0 0.0 true true 0 (polarization vector)]
] -46.7 MRshow
1.000 UL
LTb
0.58 0.00 0.83 C 4461 4736 M
115 30 V
-115 30 V
-284 -30 R
399 0 V
stroke
gsave [] 0 setdash
4461 4736 M
115 30 V
-115 30 V
stroke
grestore
1.000 UL
LTb
0.58 0.00 0.83 C 4656 416 M
121 32 V
-121 32 V
1353 448 M
3424 0 V
stroke
gsave [] 0 setdash
4656 416 M
121 32 V
-121 32 V
stroke
grestore
4678 451 M
121 33 V
-122 31 V
1376 448 M
3423 36 V
stroke
gsave [] 0 setdash
4678 451 M
121 33 V
-122 31 V
stroke
grestore
4702 485 M
120 35 V
-122 30 V
1399 448 M
3423 72 V
stroke
gsave [] 0 setdash
4702 485 M
120 35 V
-122 30 V
stroke
grestore
4724 520 M
120 36 V
-122 28 V
1421 448 M
4844 556 L
stroke
gsave [] 0 setdash
4724 520 M
120 36 V
-122 28 V
stroke
grestore
4745 555 M
120 37 V
-122 27 V
1444 448 M
4865 592 L
stroke
gsave [] 0 setdash
4745 555 M
120 37 V
-122 27 V
stroke
grestore
4767 589 M
119 38 V
-123 26 V
1467 448 M
4886 627 L
stroke
gsave [] 0 setdash
4767 589 M
119 38 V
-123 26 V
stroke
grestore
4788 623 M
119 40 V
-123 24 V
1490 448 M
4907 663 L
stroke
gsave [] 0 setdash
4788 623 M
119 40 V
-123 24 V
stroke
grestore
4809 658 M
118 41 V
-123 23 V
1513 448 M
4927 699 L
stroke
gsave [] 0 setdash
4809 658 M
118 41 V
-123 23 V
stroke
grestore
4829 693 M
118 42 V
-124 22 V
1536 448 M
4947 735 L
stroke
gsave [] 0 setdash
4829 693 M
118 42 V
-124 22 V
stroke
grestore
4849 728 M
118 43 V
-124 20 V
1558 448 M
4967 771 L
stroke
gsave [] 0 setdash
4849 728 M
118 43 V
-124 20 V
stroke
grestore
4869 761 M
117 45 V
-124 19 V
1581 448 M
4986 806 L
stroke
gsave [] 0 setdash
4869 761 M
117 45 V
-124 19 V
stroke
grestore
4888 796 M
117 46 V
-124 18 V
1604 448 M
5005 842 L
stroke
gsave [] 0 setdash
4888 796 M
117 46 V
-124 18 V
stroke
grestore
4908 831 M
116 47 V
-124 17 V
1627 448 M
5024 878 L
stroke
gsave [] 0 setdash
4908 831 M
116 47 V
-124 17 V
stroke
grestore
4926 865 M
116 48 V
-125 15 V
1650 448 M
5042 913 L
stroke
gsave [] 0 setdash
4926 865 M
116 48 V
-125 15 V
stroke
grestore
4945 899 M
115 50 V
-125 14 V
1673 448 M
5060 949 L
stroke
gsave [] 0 setdash
4945 899 M
115 50 V
-125 14 V
stroke
grestore
4962 933 M
115 51 V
-125 13 V
1695 448 M
5077 984 L
stroke
gsave [] 0 setdash
4962 933 M
115 51 V
-125 13 V
stroke
grestore
4980 968 M
114 52 V
-125 11 V
1718 448 M
3376 572 V
stroke
gsave [] 0 setdash
4980 968 M
114 52 V
-125 11 V
stroke
grestore
4998 1002 M
113 53 V
-125 10 V
1741 448 M
3370 607 V
stroke
gsave [] 0 setdash
4998 1002 M
113 53 V
-125 10 V
stroke
grestore
5014 1036 M
113 54 V
-125 9 V
1764 448 M
3363 642 V
stroke
gsave [] 0 setdash
5014 1036 M
113 54 V
-125 9 V
stroke
grestore
5031 1070 M
112 56 V
-125 7 V
1787 448 M
3356 678 V
stroke
gsave [] 0 setdash
5031 1070 M
112 56 V
-125 7 V
stroke
grestore
5046 1104 M
112 57 V
-125 6 V
1810 448 M
3348 713 V
stroke
gsave [] 0 setdash
5046 1104 M
112 57 V
-125 6 V
stroke
grestore
5063 1138 M
111 58 V
-125 5 V
1832 448 M
3342 748 V
stroke
gsave [] 0 setdash
5063 1138 M
111 58 V
-125 5 V
stroke
grestore
5077 1172 M
111 59 V
-125 3 V
1855 448 M
3333 783 V
stroke
gsave [] 0 setdash
5077 1172 M
111 59 V
-125 3 V
stroke
grestore
5093 1206 M
110 60 V
-125 2 V
1878 448 M
3325 818 V
stroke
gsave [] 0 setdash
5093 1206 M
110 60 V
-125 2 V
stroke
grestore
5108 1239 M
109 61 V
-125 1 V
1901 448 M
3316 852 V
stroke
gsave [] 0 setdash
5108 1239 M
109 61 V
-125 1 V
stroke
grestore
5122 1272 M
109 63 V
-126 0 V
1924 448 M
3307 887 V
stroke
gsave [] 0 setdash
5122 1272 M
109 63 V
-126 0 V
stroke
grestore
5136 1306 M
108 64 V
-125 -1 V
1946 448 M
3298 922 V
stroke
gsave [] 0 setdash
5136 1306 M
108 64 V
-125 -1 V
stroke
grestore
5150 1339 M
107 65 V
-125 -2 V
1969 448 M
3288 956 V
stroke
gsave [] 0 setdash
5150 1339 M
107 65 V
-125 -2 V
stroke
grestore
5162 1373 M
107 66 V
-125 -4 V
1992 448 M
3277 991 V
stroke
gsave [] 0 setdash
5162 1373 M
107 66 V
-125 -4 V
stroke
grestore
5176 1406 M
106 67 V
-125 -5 V
2015 448 M
5282 1473 L
stroke
gsave [] 0 setdash
5176 1406 M
106 67 V
-125 -5 V
stroke
grestore
5189 1439 M
105 68 V
-125 -6 V
2038 448 M
5294 1507 L
stroke
gsave [] 0 setdash
5189 1439 M
105 68 V
-125 -6 V
stroke
grestore
5201 1472 M
104 69 V
-125 -7 V
2061 448 M
5305 1541 L
stroke
gsave [] 0 setdash
5201 1472 M
104 69 V
-125 -7 V
stroke
grestore
5212 1505 M
104 70 V
-125 -9 V
2083 448 M
5316 1575 L
stroke
gsave [] 0 setdash
5212 1505 M
104 70 V
-125 -9 V
stroke
grestore
5224 1538 M
103 71 V
-125 -10 V
2106 448 M
5327 1609 L
stroke
gsave [] 0 setdash
5224 1538 M
103 71 V
-125 -10 V
stroke
grestore
5236 1570 M
102 73 V
-125 -11 V
2129 448 M
5338 1643 L
stroke
gsave [] 0 setdash
5236 1570 M
102 73 V
-125 -11 V
stroke
grestore
5247 1602 M
101 74 V
-125 -13 V
2152 448 M
5348 1676 L
stroke
gsave [] 0 setdash
5247 1602 M
101 74 V
-125 -13 V
stroke
grestore
5257 1635 M
101 75 V
-125 -14 V
2175 448 M
5358 1710 L
stroke
gsave [] 0 setdash
5257 1635 M
101 75 V
-125 -14 V
stroke
grestore
5267 1667 M
100 76 V
-124 -15 V
2198 448 M
5367 1743 L
stroke
gsave [] 0 setdash
5267 1667 M
100 76 V
-124 -15 V
stroke
grestore
5277 1699 M
99 77 V
-124 -17 V
2220 448 M
5376 1776 L
stroke
gsave [] 0 setdash
5277 1699 M
99 77 V
-124 -17 V
stroke
grestore
5287 1731 M
98 78 V
-124 -18 V
2243 448 M
5385 1809 L
stroke
gsave [] 0 setdash
5287 1731 M
98 78 V
-124 -18 V
stroke
grestore
5296 1763 M
97 79 V
-124 -19 V
2266 448 M
5393 1842 L
stroke
gsave [] 0 setdash
5296 1763 M
97 79 V
-124 -19 V
stroke
grestore
5304 1795 M
97 80 V
-124 -21 V
2289 448 M
5401 1875 L
stroke
gsave [] 0 setdash
5304 1795 M
97 80 V
-124 -21 V
stroke
grestore
5313 1826 M
96 81 V
-123 -22 V
2312 448 M
5409 1907 L
stroke
gsave [] 0 setdash
5313 1826 M
96 81 V
-123 -22 V
stroke
grestore
5321 1858 M
95 82 V
-123 -23 V
2335 448 M
5416 1940 L
stroke
gsave [] 0 setdash
5321 1858 M
95 82 V
-123 -23 V
stroke
grestore
5329 1889 M
94 83 V
-123 -24 V
2357 448 M
5423 1972 L
stroke
gsave [] 0 setdash
5329 1889 M
94 83 V
-123 -24 V
stroke
grestore
5337 1920 M
93 84 V
-123 -26 V
2380 448 M
5430 2004 L
stroke
gsave [] 0 setdash
5337 1920 M
93 84 V
-123 -26 V
stroke
grestore
5344 1951 M
92 85 V
-122 -27 V
2403 448 M
5436 2036 L
stroke
gsave [] 0 setdash
5344 1951 M
92 85 V
-122 -27 V
stroke
grestore
5351 1982 M
91 86 V
-122 -28 V
2426 448 M
5442 2068 L
stroke
gsave [] 0 setdash
5351 1982 M
91 86 V
-122 -28 V
stroke
grestore
5358 2012 M
90 87 V
-122 -30 V
2449 448 M
5448 2099 L
stroke
gsave [] 0 setdash
5358 2012 M
90 87 V
-122 -30 V
stroke
grestore
5364 2043 M
89 88 V
-122 -31 V
2471 448 M
5453 2131 L
stroke
gsave [] 0 setdash
5364 2043 M
89 88 V
-122 -31 V
stroke
grestore
5369 2073 M
89 89 V
-121 -32 V
2494 448 M
5458 2162 L
stroke
gsave [] 0 setdash
5369 2073 M
89 89 V
-121 -32 V
stroke
grestore
5369 2073 M
89 89 V
-121 -32 V
2494 448 M
5458 2162 L
stroke
gsave [] 0 setdash
5369 2073 M
89 89 V
-121 -32 V
stroke
grestore
5381 2073 M
89 89 V
-121 -32 V
2506 448 M
5470 2162 L
stroke
gsave [] 0 setdash
5381 2073 M
89 89 V
-121 -32 V
stroke
grestore
5386 2103 M
88 90 V
-121 -33 V
2529 448 M
5474 2193 L
stroke
gsave [] 0 setdash
5386 2103 M
88 90 V
-121 -33 V
stroke
grestore
5392 2133 M
87 90 V
-120 -35 V
2551 448 M
5479 2223 L
stroke
gsave [] 0 setdash
5392 2133 M
87 90 V
-120 -35 V
stroke
grestore
5397 2163 M
86 91 V
-120 -36 V
2574 448 M
5483 2254 L
stroke
gsave [] 0 setdash
5397 2163 M
86 91 V
-120 -36 V
stroke
grestore
5402 2192 M
85 92 V
-120 -37 V
2597 448 M
5487 2284 L
stroke
gsave [] 0 setdash
5402 2192 M
85 92 V
-120 -37 V
stroke
grestore
5406 2222 M
84 93 V
-119 -39 V
2620 448 M
5490 2315 L
stroke
gsave [] 0 setdash
5406 2222 M
84 93 V
-119 -39 V
stroke
grestore
5410 2251 M
83 94 V
-119 -40 V
2643 448 M
5493 2345 L
stroke
gsave [] 0 setdash
5410 2251 M
83 94 V
-119 -40 V
stroke
grestore
5414 2279 M
82 95 V
-118 -41 V
2665 448 M
5496 2374 L
stroke
gsave [] 0 setdash
5414 2279 M
82 95 V
-118 -41 V
stroke
grestore
5417 2308 M
81 96 V
-118 -42 V
2688 448 M
5498 2404 L
stroke
gsave [] 0 setdash
5417 2308 M
81 96 V
-118 -42 V
stroke
grestore
5421 2336 M
80 97 V
-118 -43 V
2711 448 M
5501 2433 L
stroke
gsave [] 0 setdash
5421 2336 M
80 97 V
-118 -43 V
stroke
grestore
5423 2366 M
79 97 V
-117 -45 V
2734 448 M
5502 2463 L
stroke
gsave [] 0 setdash
5423 2366 M
79 97 V
-117 -45 V
stroke
grestore
5426 2393 M
78 98 V
-117 -46 V
2757 448 M
5504 2491 L
stroke
gsave [] 0 setdash
5426 2393 M
78 98 V
-117 -46 V
stroke
grestore
5428 2421 M
77 99 V
-116 -47 V
2780 448 M
5505 2520 L
stroke
gsave [] 0 setdash
5428 2421 M
77 99 V
-116 -47 V
stroke
grestore
5430 2449 M
76 100 V
-116 -48 V
2802 448 M
5506 2549 L
stroke
gsave [] 0 setdash
5430 2449 M
76 100 V
-116 -48 V
stroke
grestore
5432 2476 M
75 101 V
-115 -50 V
2825 448 M
5507 2577 L
stroke
gsave [] 0 setdash
5432 2476 M
75 101 V
-115 -50 V
stroke
grestore
5434 2503 M
73 102 V
-115 -51 V
2848 448 M
5507 2605 L
stroke
gsave [] 0 setdash
5434 2503 M
73 102 V
-115 -51 V
stroke
grestore
5435 2531 M
72 102 V
-114 -52 V
2871 448 M
5507 2633 L
stroke
gsave [] 0 setdash
5435 2531 M
72 102 V
-114 -52 V
stroke
grestore
5436 2557 M
71 103 V
-113 -53 V
2894 448 M
5507 2660 L
stroke
gsave [] 0 setdash
5436 2557 M
71 103 V
-113 -53 V
stroke
grestore
5437 2583 M
70 104 V
-113 -54 V
2917 448 M
5507 2687 L
stroke
gsave [] 0 setdash
5437 2583 M
70 104 V
-113 -54 V
stroke
grestore
5437 2610 M
69 104 V
-112 -56 V
2939 448 M
5506 2714 L
stroke
gsave [] 0 setdash
5437 2610 M
69 104 V
-112 -56 V
stroke
grestore
5437 2636 M
68 105 V
-112 -57 V
2962 448 M
5505 2741 L
stroke
gsave [] 0 setdash
5437 2636 M
68 105 V
-112 -57 V
stroke
grestore
5436 2662 M
67 106 V
-111 -58 V
2985 448 M
5503 2768 L
stroke
gsave [] 0 setdash
5436 2662 M
67 106 V
-111 -58 V
stroke
grestore
5436 2687 M
66 107 V
-110 -59 V
3008 448 M
5502 2794 L
stroke
gsave [] 0 setdash
5436 2687 M
66 107 V
-110 -59 V
stroke
grestore
5435 2713 M
65 107 V
-110 -60 V
3031 448 M
5500 2820 L
stroke
gsave [] 0 setdash
5435 2713 M
65 107 V
-110 -60 V
stroke
grestore
5434 2738 M
64 108 V
-109 -61 V
3054 448 M
5498 2846 L
stroke
gsave [] 0 setdash
5434 2738 M
64 108 V
-109 -61 V
stroke
grestore
5433 2762 M
62 109 V
-109 -63 V
3076 448 M
5495 2871 L
stroke
gsave [] 0 setdash
5433 2762 M
62 109 V
-109 -63 V
stroke
grestore
5431 2787 M
61 109 V
-108 -64 V
3099 448 M
5492 2896 L
stroke
gsave [] 0 setdash
5431 2787 M
61 109 V
-108 -64 V
stroke
grestore
5429 2811 M
60 110 V
-107 -65 V
3122 448 M
5489 2921 L
stroke
gsave [] 0 setdash
5429 2811 M
60 110 V
-107 -65 V
stroke
grestore
5427 2835 M
59 111 V
-107 -66 V
3145 448 M
5486 2946 L
stroke
gsave [] 0 setdash
5427 2835 M
59 111 V
-107 -66 V
stroke
grestore
5425 2860 M
58 111 V
-106 -67 V
3168 448 M
5483 2971 L
stroke
gsave [] 0 setdash
5425 2860 M
58 111 V
-106 -67 V
stroke
grestore
5422 2883 M
57 112 V
-105 -68 V
3190 448 M
5479 2995 L
stroke
gsave [] 0 setdash
5422 2883 M
57 112 V
-105 -68 V
stroke
grestore
5420 2906 M
55 112 V
-104 -69 V
3213 448 M
5475 3018 L
stroke
gsave [] 0 setdash
5420 2906 M
55 112 V
-104 -69 V
stroke
grestore
5417 2929 M
54 113 V
-104 -70 V
3236 448 M
5471 3042 L
stroke
gsave [] 0 setdash
5417 2929 M
54 113 V
-104 -70 V
stroke
grestore
5413 2951 M
53 114 V
-103 -72 V
3259 448 M
5466 3065 L
stroke
gsave [] 0 setdash
5413 2951 M
53 114 V
-103 -72 V
stroke
grestore
5410 2974 M
52 114 V
-102 -73 V
3282 448 M
5462 3088 L
stroke
gsave [] 0 setdash
5410 2974 M
52 114 V
-102 -73 V
stroke
grestore
5406 2996 M
51 115 V
-101 -74 V
3305 448 M
5457 3111 L
stroke
gsave [] 0 setdash
5406 2996 M
51 115 V
-101 -74 V
stroke
grestore
5402 3018 M
49 115 V
-101 -75 V
3327 448 M
5451 3133 L
stroke
gsave [] 0 setdash
5402 3018 M
49 115 V
-101 -75 V
stroke
grestore
5398 3040 M
48 116 V
-100 -76 V
3350 448 M
5446 3156 L
stroke
gsave [] 0 setdash
5398 3040 M
48 116 V
-100 -76 V
stroke
grestore
5393 3061 M
47 116 V
-99 -77 V
3373 448 M
5440 3177 L
stroke
gsave [] 0 setdash
5393 3061 M
47 116 V
-99 -77 V
stroke
grestore
5388 3082 M
46 117 V
-98 -78 V
3396 448 M
5434 3199 L
stroke
gsave [] 0 setdash
5388 3082 M
46 117 V
-98 -78 V
stroke
grestore
5383 3103 M
45 117 V
-97 -79 V
3419 448 M
5428 3220 L
stroke
gsave [] 0 setdash
5383 3103 M
45 117 V
-97 -79 V
stroke
grestore
5379 3123 M
43 118 V
-96 -80 V
3442 448 M
5422 3241 L
stroke
gsave [] 0 setdash
5379 3123 M
43 118 V
-96 -80 V
stroke
grestore
5373 3144 M
42 118 V
-96 -81 V
3464 448 M
5415 3262 L
stroke
gsave [] 0 setdash
5373 3144 M
42 118 V
-96 -81 V
stroke
grestore
5367 3163 M
41 119 V
-95 -82 V
3487 448 M
5408 3282 L
stroke
gsave [] 0 setdash
5367 3163 M
41 119 V
-95 -82 V
stroke
grestore
5361 3183 M
40 119 V
-94 -83 V
3510 448 M
5401 3302 L
stroke
gsave [] 0 setdash
5361 3183 M
40 119 V
-94 -83 V
stroke
grestore
5356 3203 M
38 119 V
-93 -84 V
3533 448 M
5394 3322 L
stroke
gsave [] 0 setdash
5356 3203 M
38 119 V
-93 -84 V
stroke
grestore
5350 3221 M
37 120 V
-92 -85 V
3556 448 M
5387 3341 L
stroke
gsave [] 0 setdash
5350 3221 M
37 120 V
-92 -85 V
stroke
grestore
5343 3240 M
36 120 V
-91 -86 V
3578 448 M
5379 3360 L
stroke
gsave [] 0 setdash
5343 3240 M
36 120 V
-91 -86 V
stroke
grestore
5337 3258 M
34 121 V
-90 -87 V
3601 448 M
5371 3379 L
stroke
gsave [] 0 setdash
5337 3258 M
34 121 V
-90 -87 V
stroke
grestore
5330 3276 M
33 121 V
-89 -88 V
3624 448 M
5363 3397 L
stroke
gsave [] 0 setdash
5330 3276 M
33 121 V
-89 -88 V
stroke
grestore
5323 3294 M
32 121 V
-88 -89 V
3647 448 M
5355 3415 L
stroke
gsave [] 0 setdash
5323 3294 M
32 121 V
-88 -89 V
stroke
grestore
5323 3294 M
32 121 V
-88 -89 V
3647 448 M
5355 3415 L
stroke
gsave [] 0 setdash
5323 3294 M
32 121 V
-88 -89 V
stroke
grestore
5335 3294 M
32 121 V
-89 -89 V
3658 448 M
5367 3415 L
stroke
gsave [] 0 setdash
5335 3294 M
32 121 V
-89 -89 V
stroke
grestore
5327 3311 M
31 122 V
-88 -90 V
3681 448 M
5358 3433 L
stroke
gsave [] 0 setdash
5327 3311 M
31 122 V
-88 -90 V
stroke
grestore
5321 3328 M
29 122 V
-87 -91 V
3704 448 M
5350 3450 L
stroke
gsave [] 0 setdash
5321 3328 M
29 122 V
-87 -91 V
stroke
grestore
5313 3345 M
28 122 V
-86 -91 V
3727 448 M
5341 3467 L
stroke
gsave [] 0 setdash
5313 3345 M
28 122 V
-86 -91 V
stroke
grestore
5305 3361 M
27 123 V
-85 -92 V
3750 448 M
5332 3484 L
stroke
gsave [] 0 setdash
5305 3361 M
27 123 V
-85 -92 V
stroke
grestore
5297 3378 M
26 123 V
-84 -93 V
3773 448 M
5323 3501 L
stroke
gsave [] 0 setdash
5297 3378 M
26 123 V
-84 -93 V
stroke
grestore
5290 3394 M
24 123 V
-83 -94 V
3795 448 M
5314 3517 L
stroke
gsave [] 0 setdash
5290 3394 M
24 123 V
-83 -94 V
stroke
grestore
5281 3409 M
23 123 V
-82 -95 V
3818 448 M
5304 3532 L
stroke
gsave [] 0 setdash
5281 3409 M
23 123 V
-82 -95 V
stroke
grestore
5273 3424 M
22 124 V
-81 -96 V
3841 448 M
5295 3548 L
stroke
gsave [] 0 setdash
5273 3424 M
22 124 V
-81 -96 V
stroke
grestore
5265 3439 M
20 124 V
-80 -97 V
3864 448 M
5285 3563 L
stroke
gsave [] 0 setdash
5265 3439 M
20 124 V
-80 -97 V
stroke
grestore
5256 3454 M
19 124 V
-79 -98 V
3887 448 M
5275 3578 L
stroke
gsave [] 0 setdash
5256 3454 M
19 124 V
-79 -98 V
stroke
grestore
5247 3468 M
18 124 V
-78 -98 V
3909 448 M
5265 3592 L
stroke
gsave [] 0 setdash
5247 3468 M
18 124 V
-78 -98 V
stroke
grestore
5239 3482 M
16 124 V
-77 -99 V
3932 448 M
5255 3606 L
stroke
gsave [] 0 setdash
5239 3482 M
16 124 V
-77 -99 V
stroke
grestore
5229 3495 M
15 125 V
-76 -100 V
3955 448 M
5244 3620 L
stroke
gsave [] 0 setdash
5229 3495 M
15 125 V
-76 -100 V
stroke
grestore
5220 3508 M
14 125 V
-74 -101 V
3978 448 M
5234 3633 L
stroke
gsave [] 0 setdash
5220 3508 M
14 125 V
-74 -101 V
stroke
grestore
5211 3521 M
12 125 V
-73 -102 V
4001 448 M
5223 3646 L
stroke
gsave [] 0 setdash
5211 3521 M
12 125 V
-73 -102 V
stroke
grestore
5202 3534 M
11 125 V
-72 -102 V
4024 448 M
5213 3659 L
stroke
gsave [] 0 setdash
5202 3534 M
11 125 V
-72 -102 V
stroke
grestore
5192 3546 M
10 125 V
-71 -103 V
4046 448 M
5202 3671 L
stroke
gsave [] 0 setdash
5192 3546 M
10 125 V
-71 -103 V
stroke
grestore
5182 3558 M
9 125 V
-70 -104 V
4069 448 M
5191 3683 L
stroke
gsave [] 0 setdash
5182 3558 M
9 125 V
-70 -104 V
stroke
grestore
5172 3570 M
7 125 V
-69 -105 V
4092 448 M
5179 3695 L
stroke
gsave [] 0 setdash
5172 3570 M
7 125 V
-69 -105 V
stroke
grestore
5162 3581 M
6 125 V
-68 -105 V
4115 448 M
5168 3706 L
stroke
gsave [] 0 setdash
5162 3581 M
6 125 V
-68 -105 V
stroke
grestore
5152 3592 M
5 125 V
-67 -106 V
4138 448 M
5157 3717 L
stroke
gsave [] 0 setdash
5152 3592 M
5 125 V
-67 -106 V
stroke
grestore
5142 3602 M
3 125 V
-66 -107 V
4161 448 M
984 3279 V
stroke
gsave [] 0 setdash
5142 3602 M
3 125 V
-66 -107 V
stroke
grestore
5132 3612 M
2 125 V
-65 -107 V
4183 448 M
951 3289 V
stroke
gsave [] 0 setdash
5132 3612 M
2 125 V
-65 -107 V
stroke
grestore
5121 3622 M
1 125 V
-63 -108 V
4206 448 M
916 3299 V
stroke
gsave [] 0 setdash
5121 3622 M
1 125 V
-63 -108 V
stroke
grestore
5110 3631 M
0 126 V
-62 -109 V
4229 448 M
881 3309 V
stroke
gsave [] 0 setdash
5110 3631 M
0 126 V
-62 -109 V
stroke
grestore
5099 3641 M
-1 125 V
-61 -109 V
4252 448 M
846 3318 V
stroke
gsave [] 0 setdash
5099 3641 M
-1 125 V
-61 -109 V
stroke
grestore
5088 3649 M
-2 125 V
-60 -110 V
4275 448 M
811 3326 V
stroke
gsave [] 0 setdash
5088 3649 M
-2 125 V
-60 -110 V
stroke
grestore
5078 3658 M
-4 125 V
-59 -111 V
4298 448 M
776 3335 V
stroke
gsave [] 0 setdash
5078 3658 M
-4 125 V
-59 -111 V
stroke
grestore
5067 3666 M
-5 125 V
-58 -111 V
4320 448 M
742 3343 V
stroke
gsave [] 0 setdash
5067 3666 M
-5 125 V
-58 -111 V
stroke
grestore
5056 3673 M
-6 125 V
-57 -112 V
4343 448 M
707 3350 V
stroke
gsave [] 0 setdash
5056 3673 M
-6 125 V
-57 -112 V
stroke
grestore
5045 3680 M
-8 125 V
-55 -112 V
4366 448 M
671 3357 V
stroke
gsave [] 0 setdash
5045 3680 M
-8 125 V
-55 -112 V
stroke
grestore
5034 3687 M
-9 125 V
-54 -113 V
4389 448 M
636 3364 V
stroke
gsave [] 0 setdash
5034 3687 M
-9 125 V
-54 -113 V
stroke
grestore
5023 3694 M
-10 125 V
-53 -114 V
4412 448 M
601 3371 V
stroke
gsave [] 0 setdash
5023 3694 M
-10 125 V
-53 -114 V
stroke
grestore
5012 3700 M
-12 125 V
-52 -114 V
4434 448 M
566 3377 V
stroke
gsave [] 0 setdash
5012 3700 M
-12 125 V
-52 -114 V
stroke
grestore
5000 3706 M
-13 125 V
-51 -115 V
4457 448 M
530 3383 V
stroke
gsave [] 0 setdash
5000 3706 M
-13 125 V
-51 -115 V
stroke
grestore
4989 3711 M
-14 125 V
-49 -115 V
4480 448 M
495 3388 V
stroke
gsave [] 0 setdash
4989 3711 M
-14 125 V
-49 -115 V
stroke
grestore
4978 3717 M
-16 124 V
-48 -116 V
4503 448 M
459 3393 V
stroke
gsave [] 0 setdash
4978 3717 M
-16 124 V
-48 -116 V
stroke
grestore
4966 3722 M
-17 124 V
-47 -116 V
4526 448 M
423 3398 V
stroke
gsave [] 0 setdash
4966 3722 M
-17 124 V
-47 -116 V
stroke
grestore
4954 3726 M
-18 124 V
-46 -117 V
4549 448 M
387 3402 V
stroke
gsave [] 0 setdash
4954 3726 M
-18 124 V
-46 -117 V
stroke
grestore
4943 3730 M
-19 124 V
-44 -117 V
4571 448 M
353 3406 V
stroke
gsave [] 0 setdash
4943 3730 M
-19 124 V
-44 -117 V
stroke
grestore
4932 3733 M
-21 124 V
-43 -118 V
4594 448 M
317 3409 V
stroke
gsave [] 0 setdash
4932 3733 M
-21 124 V
-43 -118 V
stroke
grestore
4920 3737 M
-22 123 V
-42 -118 V
4617 448 M
281 3412 V
stroke
gsave [] 0 setdash
4920 3737 M
-22 123 V
-42 -118 V
stroke
grestore
4908 3740 M
-23 123 V
-41 -119 V
4640 448 M
245 3415 V
stroke
gsave [] 0 setdash
4908 3740 M
-23 123 V
-41 -119 V
stroke
grestore
4897 3742 M
-25 123 V
-39 -119 V
4663 448 M
209 3417 V
stroke
gsave [] 0 setdash
4897 3742 M
-25 123 V
-39 -119 V
stroke
grestore
4885 3744 M
-26 123 V
-38 -119 V
4686 448 M
173 3419 V
stroke
gsave [] 0 setdash
4885 3744 M
-26 123 V
-38 -119 V
stroke
grestore
4873 3747 M
-27 122 V
-37 -120 V
4708 448 M
138 3421 V
stroke
gsave [] 0 setdash
4873 3747 M
-27 122 V
-37 -120 V
stroke
grestore
4861 3748 M
-28 122 V
-36 -120 V
4731 448 M
102 3422 V
stroke
gsave [] 0 setdash
4861 3748 M
-28 122 V
-36 -120 V
stroke
grestore
4850 3749 M
-30 122 V
-34 -121 V
4754 448 M
66 3423 V
stroke
gsave [] 0 setdash
4850 3749 M
-30 122 V
-34 -121 V
stroke
grestore
4838 3751 M
-31 121 V
-33 -121 V
3 -3303 R
30 3424 V
stroke
gsave [] 0 setdash
4838 3751 M
-31 121 V
-33 -121 V
stroke
grestore
4825 3751 M
-32 121 V
-32 -121 V
4800 448 M
-7 3424 V
stroke
gsave [] 0 setdash
4825 3751 M
-32 121 V
-32 -121 V
stroke
grestore
4825 3751 M
-32 121 V
-32 -121 V
4800 448 M
-7 3424 V
stroke
gsave [] 0 setdash
4825 3751 M
-32 121 V
-32 -121 V
stroke
grestore
% End plot #1
2.000 UL
LTb
LCb setrgbcolor
1.000 UL
LTB
LCb setrgbcolor
1353 4899 N
0 -4451 V
4451 0 V
0 4451 V
-4451 0 V
Z stroke
1.000 UP
1.000 UL
LTb
LCb setrgbcolor
stroke
grestore
end
showpage
%%Trailer
%%DocumentFonts: Helvetica
