%!PS-Adobe-2.0 EPSF-2.0
%%Title: toto
%%Titre: toto
%%Creator: Fminigraf Library
%%BoundingBox: 20 40 567 457
%%EndComments
/offx 20 def
/offy 40 def
/lx 595 def
/ly 842 def
/maxx 1023 def
/maxy 779 def
/reduc 0.92 def
/coeff lx maxx div reduc mul def
offx offy translate
coeff coeff scale
1 setlinewidth newpath 0 0 moveto
/Courier-Bold findfont 32 scalefont setfont
/M {moveto} def
/L {lineto} def
/S {stroke} def
/H {show} def
/D {setdash} def
0 0 0 setrgbcolor
[] 0 D
[] 0 D
127 156 M 127 161 L S
127 244 M 127 254 L S
127 735 M 127 740 L S
152 156 M 152 161 L S
152 244 M 152 254 L S
152 735 M 152 740 L S
[2 3] 0 D
178 156 M 178 740 L S
[] 0 D
/Courier-Bold findfont 30 scalefont setfont
172 128 M (1) H
178 156 M 178 166 L S
178 239 M 178 259 L S
178 730 M 178 740 L S
204 156 M 204 161 L S
204 244 M 204 254 L S
204 735 M 204 740 L S
230 156 M 230 161 L S
230 244 M 230 254 L S
230 735 M 230 740 L S
255 156 M 255 161 L S
255 244 M 255 254 L S
255 735 M 255 740 L S
281 156 M 281 161 L S
281 244 M 281 254 L S
281 735 M 281 740 L S
[2 3] 0 D
307 156 M 307 740 L S
[] 0 D
301 128 M (2) H
307 156 M 307 166 L S
307 239 M 307 259 L S
307 730 M 307 740 L S
333 156 M 333 161 L S
333 244 M 333 254 L S
333 735 M 333 740 L S
359 156 M 359 161 L S
359 244 M 359 254 L S
359 735 M 359 740 L S
384 156 M 384 161 L S
384 244 M 384 254 L S
384 735 M 384 740 L S
410 156 M 410 161 L S
410 244 M 410 254 L S
410 735 M 410 740 L S
[2 3] 0 D
436 156 M 436 740 L S
[] 0 D
430 128 M (3) H
436 156 M 436 166 L S
436 239 M 436 259 L S
436 730 M 436 740 L S
462 156 M 462 161 L S
462 244 M 462 254 L S
462 735 M 462 740 L S
487 156 M 487 161 L S
487 244 M 487 254 L S
487 735 M 487 740 L S
513 156 M 513 161 L S
513 244 M 513 254 L S
513 735 M 513 740 L S
539 156 M 539 161 L S
539 244 M 539 254 L S
539 735 M 539 740 L S
[2 3] 0 D
565 156 M 565 740 L S
[] 0 D
559 128 M (4) H
565 156 M 565 166 L S
565 239 M 565 259 L S
565 730 M 565 740 L S
591 156 M 591 161 L S
591 244 M 591 254 L S
591 735 M 591 740 L S
616 156 M 616 161 L S
616 244 M 616 254 L S
616 735 M 616 740 L S
642 156 M 642 161 L S
642 244 M 642 254 L S
642 735 M 642 740 L S
668 156 M 668 161 L S
668 244 M 668 254 L S
668 735 M 668 740 L S
[2 3] 0 D
694 156 M 694 740 L S
[] 0 D
688 128 M (5) H
694 156 M 694 166 L S
694 239 M 694 259 L S
694 730 M 694 740 L S
719 156 M 719 161 L S
719 244 M 719 254 L S
719 735 M 719 740 L S
745 156 M 745 161 L S
745 244 M 745 254 L S
745 735 M 745 740 L S
771 156 M 771 161 L S
771 244 M 771 254 L S
771 735 M 771 740 L S
797 156 M 797 161 L S
797 244 M 797 254 L S
797 735 M 797 740 L S
[2 3] 0 D
822 156 M 822 740 L S
[] 0 D
816 128 M (6) H
822 156 M 822 166 L S
822 239 M 822 259 L S
822 730 M 822 740 L S
848 156 M 848 161 L S
848 244 M 848 254 L S
848 735 M 848 740 L S
874 156 M 874 161 L S
874 244 M 874 254 L S
874 735 M 874 740 L S
900 156 M 900 161 L S
900 244 M 900 254 L S
900 735 M 900 740 L S
926 156 M 926 161 L S
926 244 M 926 254 L S
926 735 M 926 740 L S
[2 3] 0 D
951 156 M 951 740 L S
[] 0 D
945 128 M (7) H
951 156 M 951 166 L S
951 239 M 951 259 L S
951 730 M 951 740 L S
102 168 M 107 168 L S
967 168 M 972 168 L S
102 195 M 107 195 L S
967 195 M 972 195 L S
102 222 M 107 222 L S
967 222 M 972 222 L S
[2 3] 0 D
102 250 M 972 250 L S
[] 0 D
33 240 M (0.0) H
102 250 M 112 250 L S
962 250 M 972 250 L S
102 277 M 107 277 L S
967 277 M 972 277 L S
102 304 M 107 304 L S
967 304 M 972 304 L S
102 331 M 107 331 L S
967 331 M 972 331 L S
102 358 M 107 358 L S
967 358 M 972 358 L S
[2 3] 0 D
102 385 M 972 385 L S
[] 0 D
33 375 M (0.5) H
102 385 M 112 385 L S
962 385 M 972 385 L S
102 413 M 107 413 L S
967 413 M 972 413 L S
102 440 M 107 440 L S
967 440 M 972 440 L S
102 467 M 107 467 L S
967 467 M 972 467 L S
102 494 M 107 494 L S
967 494 M 972 494 L S
[2 3] 0 D
102 521 M 972 521 L S
[] 0 D
39 511 M (1.) H
102 521 M 112 521 L S
962 521 M 972 521 L S
102 548 M 107 548 L S
967 548 M 972 548 L S
102 576 M 107 576 L S
967 576 M 972 576 L S
102 603 M 107 603 L S
967 603 M 972 603 L S
102 630 M 107 630 L S
967 630 M 972 630 L S
[2 3] 0 D
102 657 M 972 657 L S
[] 0 D
33 647 M (1.5) H
102 657 M 112 657 L S
962 657 M 972 657 L S
102 684 M 107 684 L S
967 684 M 972 684 L S
102 712 M 107 712 L S
967 712 M 972 712 L S
102 739 M 107 739 L S
967 739 M 972 739 L S
[] 0 D
102 156 M 972 156 L S
972 156 M 972 740 L S
972 740 M 102 740 L S
102 740 M 102 156 L S
102 249 M 972 249 L S
[] 0 D
103 250 M 103 250 L S
103 250 M 103 250 L S
103 250 M 105 250 L S
105 250 M 107 250 L S
107 250 M 109 250 L S
109 250 M 111 250 L S
111 250 M 112 250 L S
112 250 M 114 250 L S
114 250 M 116 249 L S
116 249 M 118 249 L S
118 249 M 120 249 L S
120 249 M 122 249 L S
122 249 M 124 249 L S
124 249 M 126 249 L S
126 249 M 128 249 L S
128 249 M 130 249 L S
130 249 M 132 249 L S
132 249 M 134 249 L S
134 249 M 136 249 L S
136 249 M 138 249 L S
138 249 M 140 249 L S
140 249 M 141 249 L S
141 249 M 143 249 L S
143 249 M 145 249 L S
145 249 M 147 249 L S
147 249 M 149 249 L S
149 249 M 151 249 L S
151 249 M 153 249 L S
153 249 M 155 249 L S
155 249 M 157 249 L S
157 249 M 159 250 L S
159 250 M 161 250 L S
161 250 M 163 250 L S
163 250 M 165 250 L S
165 250 M 167 250 L S
167 250 M 169 250 L S
169 250 M 170 250 L S
170 250 M 172 250 L S
172 250 M 174 250 L S
174 250 M 176 250 L S
176 250 M 178 250 L S
178 250 M 180 250 L S
180 250 M 182 250 L S
182 250 M 184 250 L S
184 250 M 186 250 L S
186 250 M 188 250 L S
188 250 M 190 250 L S
190 250 M 192 250 L S
192 250 M 194 250 L S
194 250 M 196 250 L S
196 250 M 197 250 L S
197 250 M 199 250 L S
199 250 M 201 250 L S
103 249 M 103 249 L S
103 249 M 103 249 L S
103 249 M 105 249 L S
105 249 M 107 249 L S
107 249 M 109 248 L S
109 248 M 111 248 L S
111 248 M 113 247 L S
113 247 M 114 245 L S
114 245 M 116 243 L S
116 243 M 118 240 L S
118 240 M 120 237 L S
120 237 M 122 232 L S
122 232 M 124 227 L S
124 227 M 126 222 L S
126 222 M 128 215 L S
128 215 M 130 209 L S
130 209 M 132 202 L S
132 202 M 134 196 L S
134 196 M 136 191 L S
136 191 M 138 186 L S
138 186 M 140 182 L S
140 182 M 142 179 L S
142 179 M 143 177 L S
143 177 M 145 174 L S
145 174 M 147 172 L S
147 172 M 149 170 L S
149 170 M 151 168 L S
151 168 M 153 166 L S
153 166 M 155 164 L S
155 164 M 157 162 L S
157 162 M 159 160 L S
159 160 M 161 158 L S
161 158 M 163 157 L S
163 157 M 165 156 L S
165 156 M 167 156 L S
167 156 M 169 159 L S
169 159 M 171 163 L S
171 163 M 172 170 L S
172 170 M 174 178 L S
174 178 M 176 187 L S
176 187 M 178 196 L S
178 196 M 180 205 L S
180 205 M 182 213 L S
182 213 M 184 220 L S
184 220 M 186 226 L S
186 226 M 188 232 L S
188 232 M 190 237 L S
190 237 M 192 240 L S
192 240 M 194 243 L S
194 243 M 196 246 L S
196 246 M 198 247 L S
198 247 M 199 248 L S
199 248 M 201 248 L S
103 250 M 103 250 L S
103 250 M 103 250 L S
103 250 M 105 250 L S
105 250 M 107 250 L S
107 250 M 109 251 L S
109 251 M 111 251 L S
111 251 M 113 253 L S
113 253 M 114 254 L S
114 254 M 116 256 L S
116 256 M 118 259 L S
118 259 M 120 262 L S
120 262 M 122 266 L S
122 266 M 124 271 L S
124 271 M 126 277 L S
126 277 M 128 283 L S
128 283 M 130 290 L S
130 290 M 132 296 L S
132 296 M 134 303 L S
134 303 M 136 308 L S
136 308 M 138 313 L S
138 313 M 140 317 L S
140 317 M 142 320 L S
142 320 M 143 322 L S
143 322 M 145 325 L S
145 325 M 147 327 L S
147 327 M 149 329 L S
149 329 M 151 331 L S
151 331 M 153 333 L S
153 333 M 155 335 L S
155 335 M 157 337 L S
157 337 M 159 339 L S
159 339 M 161 341 L S
161 341 M 163 343 L S
163 343 M 165 344 L S
165 344 M 167 343 L S
167 343 M 169 341 L S
169 341 M 171 336 L S
171 336 M 172 330 L S
172 330 M 174 322 L S
174 322 M 176 313 L S
176 313 M 178 304 L S
178 304 M 180 295 L S
180 295 M 182 287 L S
182 287 M 184 279 L S
184 279 M 186 273 L S
186 273 M 188 267 L S
188 267 M 190 263 L S
190 263 M 192 259 L S
192 259 M 194 256 L S
194 256 M 196 254 L S
196 254 M 198 252 L S
198 252 M 199 251 L S
199 251 M 201 251 L S
102 250 M 102 250 L S
102 250 M 102 250 L S
102 250 M 104 250 L S
104 250 M 106 250 L S
106 250 M 108 250 L S
108 250 M 110 250 L S
110 250 M 112 250 L S
112 250 M 114 250 L S
114 250 M 116 249 L S
116 249 M 117 249 L S
117 249 M 119 249 L S
119 249 M 121 249 L S
121 249 M 123 249 L S
123 249 M 125 249 L S
125 249 M 127 249 L S
127 249 M 129 249 L S
129 249 M 131 249 L S
131 249 M 133 249 L S
133 249 M 135 249 L S
135 249 M 137 249 L S
137 249 M 139 249 L S
139 249 M 141 249 L S
141 249 M 143 249 L S
143 249 M 145 249 L S
145 249 M 146 249 L S
146 249 M 148 249 L S
148 249 M 150 249 L S
150 249 M 152 249 L S
152 249 M 154 249 L S
154 249 M 156 249 L S
156 249 M 158 250 L S
158 250 M 160 250 L S
160 250 M 162 250 L S
162 250 M 164 250 L S
164 250 M 166 250 L S
166 250 M 168 250 L S
168 250 M 170 250 L S
170 250 M 172 250 L S
172 250 M 174 250 L S
174 250 M 175 250 L S
175 250 M 177 250 L S
177 250 M 179 250 L S
179 250 M 181 250 L S
181 250 M 183 250 L S
183 250 M 185 250 L S
185 250 M 187 250 L S
187 250 M 189 250 L S
189 250 M 191 250 L S
191 250 M 193 250 L S
193 250 M 195 250 L S
195 250 M 197 250 L S
197 250 M 199 250 L S
199 250 M 200 250 L S
102 249 M 102 249 L S
102 249 M 102 249 L S
102 249 M 104 249 L S
104 249 M 106 249 L S
106 249 M 108 248 L S
108 248 M 110 248 L S
110 248 M 112 247 L S
112 247 M 114 245 L S
114 245 M 116 243 L S
116 243 M 118 240 L S
118 240 M 119 237 L S
119 237 M 121 232 L S
121 232 M 123 227 L S
123 227 M 125 222 L S
125 222 M 127 215 L S
127 215 M 129 209 L S
129 209 M 131 202 L S
131 202 M 133 196 L S
133 196 M 135 191 L S
135 191 M 137 186 L S
137 186 M 139 182 L S
139 182 M 141 179 L S
141 179 M 143 177 L S
143 177 M 145 175 L S
145 175 M 147 173 L S
147 173 M 148 171 L S
148 171 M 150 168 L S
150 168 M 152 166 L S
152 166 M 154 164 L S
154 164 M 156 162 L S
156 162 M 158 160 L S
158 160 M 160 159 L S
160 159 M 162 157 L S
162 157 M 164 157 L S
164 157 M 166 157 L S
166 157 M 168 160 L S
168 160 M 170 164 L S
170 164 M 172 171 L S
172 171 M 174 179 L S
174 179 M 176 188 L S
176 188 M 177 196 L S
177 196 M 179 205 L S
179 205 M 181 213 L S
181 213 M 183 220 L S
183 220 M 185 227 L S
185 227 M 187 232 L S
187 232 M 189 237 L S
189 237 M 191 241 L S
191 241 M 193 243 L S
193 243 M 195 246 L S
195 246 M 197 247 L S
197 247 M 199 248 L S
199 248 M 200 248 L S
102 250 M 102 250 L S
102 250 M 102 250 L S
102 250 M 104 250 L S
104 250 M 106 250 L S
106 250 M 108 251 L S
108 251 M 110 251 L S
110 251 M 112 253 L S
112 253 M 114 254 L S
114 254 M 116 256 L S
116 256 M 118 259 L S
118 259 M 119 262 L S
119 262 M 121 266 L S
121 266 M 123 271 L S
123 271 M 125 277 L S
125 277 M 127 283 L S
127 283 M 129 290 L S
129 290 M 131 296 L S
131 296 M 133 303 L S
133 303 M 135 308 L S
135 308 M 137 313 L S
137 313 M 139 317 L S
139 317 M 141 320 L S
141 320 M 143 322 L S
143 322 M 145 324 L S
145 324 M 147 326 L S
147 326 M 148 328 L S
148 328 M 150 330 L S
150 330 M 152 333 L S
152 333 M 154 335 L S
154 335 M 156 337 L S
156 337 M 158 339 L S
158 339 M 160 341 L S
160 341 M 162 342 L S
162 342 M 164 343 L S
164 343 M 166 342 L S
166 342 M 168 340 L S
168 340 M 170 335 L S
170 335 M 172 329 L S
172 329 M 174 321 L S
174 321 M 176 312 L S
176 312 M 177 303 L S
177 303 M 179 294 L S
179 294 M 181 286 L S
181 286 M 183 279 L S
183 279 M 185 273 L S
185 273 M 187 267 L S
187 267 M 189 262 L S
189 262 M 191 259 L S
191 259 M 193 256 L S
193 256 M 195 254 L S
195 254 M 197 252 L S
197 252 M 199 251 L S
199 251 M 200 251 L S
199 248 M 199 248 L S
199 248 M 199 248 L S
199 248 M 201 248 L S
201 248 M 203 248 L S
203 248 M 205 248 L S
205 248 M 207 249 L S
207 249 M 208 249 L S
208 249 M 210 250 L S
210 250 M 212 250 L S
212 250 M 214 252 L S
214 252 M 216 253 L S
216 253 M 218 255 L S
218 255 M 220 258 L S
220 258 M 222 261 L S
222 261 M 224 265 L S
224 265 M 226 269 L S
226 269 M 228 274 L S
228 274 M 230 280 L S
230 280 M 232 286 L S
232 286 M 234 293 L S
234 293 M 236 301 L S
236 301 M 237 310 L S
237 310 M 239 319 L S
239 319 M 241 329 L S
241 329 M 243 340 L S
243 340 M 245 352 L S
245 352 M 247 363 L S
247 363 M 249 375 L S
249 375 M 251 386 L S
251 386 M 253 397 L S
253 397 M 255 408 L S
255 408 M 257 418 L S
257 418 M 259 428 L S
259 428 M 261 438 L S
261 438 M 263 448 L S
263 448 M 265 458 L S
265 458 M 266 468 L S
266 468 M 268 480 L S
268 480 M 270 492 L S
270 492 M 272 505 L S
272 505 M 274 520 L S
274 520 M 276 535 L S
276 535 M 278 553 L S
278 553 M 280 572 L S
280 572 M 282 593 L S
282 593 M 284 615 L S
284 615 M 286 637 L S
286 637 M 288 658 L S
288 658 M 290 677 L S
290 677 M 292 694 L S
292 694 M 294 707 L S
294 707 M 295 716 L S
295 716 M 297 722 L S
297 722 M 299 726 L S
299 726 M 301 729 L S
301 729 M 303 730 L S
303 730 M 305 731 L S
305 731 M 307 732 L S
307 732 M 309 732 L S
309 732 M 311 732 L S
311 732 M 313 732 L S
313 732 M 315 733 L S
315 733 M 317 733 L S
317 733 M 319 733 L S
319 733 M 321 733 L S
321 733 M 323 733 L S
323 733 M 324 733 L S
324 733 M 326 734 L S
326 734 M 328 734 L S
328 734 M 330 734 L S
330 734 M 332 734 L S
332 734 M 334 734 L S
334 734 M 336 735 L S
336 735 M 338 735 L S
338 735 M 340 736 L S
340 736 M 342 737 L S
342 737 M 344 737 L S
344 737 M 346 738 L S
346 738 M 348 738 L S
348 738 M 350 738 L S
350 738 M 352 737 L S
352 737 M 353 736 L S
353 736 M 355 736 L S
355 736 M 357 735 L S
357 735 M 359 735 L S
359 735 M 361 735 L S
361 735 M 363 734 L S
363 734 M 365 734 L S
365 734 M 367 734 L S
367 734 M 369 734 L S
369 734 M 371 734 L S
371 734 M 373 734 L S
373 734 M 375 734 L S
375 734 M 377 734 L S
377 734 M 379 734 L S
379 734 M 381 734 L S
381 734 M 382 734 L S
382 734 M 384 734 L S
384 734 M 386 734 L S
386 734 M 388 734 L S
388 734 M 390 734 L S
390 734 M 392 734 L S
392 734 M 394 734 L S
394 734 M 396 734 L S
396 734 M 398 734 L S
398 734 M 400 734 L S
400 734 M 402 734 L S
402 734 M 404 733 L S
404 733 M 406 733 L S
406 733 M 408 733 L S
408 733 M 410 733 L S
410 733 M 411 733 L S
411 733 M 413 732 L S
413 732 M 415 732 L S
415 732 M 417 731 L S
417 731 M 419 730 L S
419 730 M 421 728 L S
421 728 M 423 725 L S
423 725 M 425 720 L S
425 720 M 427 714 L S
427 714 M 429 705 L S
429 705 M 431 694 L S
431 694 M 433 679 L S
433 679 M 435 662 L S
435 662 M 437 642 L S
437 642 M 439 621 L S
439 621 M 440 598 L S
440 598 M 442 574 L S
442 574 M 444 551 L S
444 551 M 446 527 L S
446 527 M 448 504 L S
448 504 M 450 481 L S
450 481 M 452 459 L S
452 459 M 454 438 L S
454 438 M 456 418 L S
456 418 M 458 399 L S
458 399 M 460 381 L S
460 381 M 462 363 L S
462 363 M 464 346 L S
464 346 M 466 331 L S
466 331 M 468 316 L S
468 316 M 469 304 L S
469 304 M 471 292 L S
471 292 M 473 282 L S
473 282 M 475 274 L S
475 274 M 477 268 L S
477 268 M 479 263 L S
479 263 M 481 259 L S
481 259 M 483 256 L S
483 256 M 485 254 L S
485 254 M 487 252 L S
487 252 M 489 251 L S
489 251 M 491 251 L S
491 251 M 493 250 L S
493 250 M 495 250 L S
495 250 M 497 250 L S
497 250 M 498 249 L S
498 249 M 500 249 L S
500 249 M 502 249 L S
502 249 M 504 249 L S
504 249 M 506 249 L S
506 249 M 508 249 L S
508 249 M 510 249 L S
510 249 M 512 249 L S
512 249 M 514 249 L S
514 249 M 516 249 L S
516 249 M 518 249 L S
518 249 M 520 249 L S
520 249 M 522 249 L S
522 249 M 524 249 L S
524 249 M 525 249 L S
525 249 M 527 249 L S
201 248 M 201 248 L S
201 248 M 207 248 L S
207 248 M 209 249 L S
209 249 M 211 249 L S
211 249 M 213 249 L S
213 249 M 215 250 L S
215 250 M 216 251 L S
216 251 M 218 252 L S
218 252 M 220 253 L S
220 253 M 222 255 L S
222 255 M 224 257 L S
224 257 M 226 260 L S
226 260 M 228 264 L S
228 264 M 230 268 L S
230 268 M 232 272 L S
232 272 M 234 278 L S
234 278 M 236 284 L S
236 284 M 238 291 L S
238 291 M 240 300 L S
240 300 M 242 309 L S
242 309 M 244 319 L S
244 319 M 245 330 L S
245 330 M 247 341 L S
247 341 M 249 353 L S
249 353 M 251 365 L S
251 365 M 253 376 L S
253 376 M 255 388 L S
255 388 M 257 399 L S
257 399 M 259 409 L S
259 409 M 261 420 L S
261 420 M 263 430 L S
263 430 M 265 441 L S
265 441 M 267 452 L S
267 452 M 269 463 L S
269 463 M 271 475 L S
271 475 M 273 488 L S
273 488 M 274 502 L S
274 502 M 276 517 L S
276 517 M 278 534 L S
278 534 M 280 552 L S
280 552 M 282 572 L S
282 572 M 284 593 L S
284 593 M 286 615 L S
286 615 M 288 637 L S
288 637 M 290 658 L S
290 658 M 292 677 L S
292 677 M 294 693 L S
294 693 M 296 706 L S
296 706 M 298 715 L S
298 715 M 300 722 L S
300 722 M 302 727 L S
302 727 M 303 730 L S
303 730 M 305 731 L S
305 731 M 307 732 L S
307 732 M 309 732 L S
309 732 M 311 732 L S
311 732 M 313 732 L S
313 732 M 315 732 L S
315 732 M 317 732 L S
317 732 M 319 732 L S
319 732 M 321 732 L S
321 732 M 323 732 L S
323 732 M 325 732 L S
325 732 M 327 732 L S
327 732 M 329 732 L S
329 732 M 331 732 L S
331 732 M 332 732 L S
332 732 M 334 732 L S
334 732 M 336 732 L S
336 732 M 338 732 L S
338 732 M 340 732 L S
340 732 M 342 733 L S
342 733 M 344 733 L S
344 733 M 346 733 L S
346 733 M 348 734 L S
348 734 M 350 735 L S
350 735 M 352 736 L S
352 736 M 354 736 L S
354 736 M 356 737 L S
356 737 M 358 738 L S
358 738 M 360 739 L S
360 739 M 361 739 L S
361 739 M 363 739 L S
363 739 M 365 739 L S
365 739 M 367 738 L S
367 738 M 369 737 L S
369 737 M 371 736 L S
371 736 M 373 735 L S
373 735 M 375 734 L S
375 734 M 377 734 L S
377 734 M 379 733 L S
379 733 M 381 733 L S
381 733 M 383 733 L S
383 733 M 385 733 L S
385 733 M 387 733 L S
387 733 M 389 733 L S
389 733 M 390 733 L S
390 733 M 392 733 L S
392 733 M 394 733 L S
394 733 M 396 733 L S
396 733 M 398 733 L S
398 733 M 400 733 L S
400 733 M 402 732 L S
402 732 M 404 732 L S
404 732 M 406 732 L S
406 732 M 408 732 L S
408 732 M 410 732 L S
410 732 M 412 732 L S
412 732 M 414 732 L S
414 732 M 416 732 L S
416 732 M 418 732 L S
418 732 M 419 732 L S
419 732 M 421 732 L S
421 732 M 423 732 L S
423 732 M 425 732 L S
425 732 M 427 732 L S
427 732 M 429 731 L S
429 731 M 431 731 L S
431 731 M 433 731 L S
433 731 M 435 730 L S
435 730 M 437 729 L S
437 729 M 439 728 L S
439 728 M 441 726 L S
441 726 M 443 723 L S
443 723 M 445 719 L S
445 719 M 446 713 L S
446 713 M 448 705 L S
448 705 M 450 695 L S
450 695 M 452 681 L S
452 681 M 454 665 L S
454 665 M 456 647 L S
456 647 M 458 627 L S
458 627 M 460 605 L S
460 605 M 462 583 L S
462 583 M 464 560 L S
464 560 M 466 536 L S
466 536 M 468 514 L S
468 514 M 470 492 L S
470 492 M 472 471 L S
472 471 M 474 450 L S
474 450 M 475 430 L S
475 430 M 477 411 L S
477 411 M 479 393 L S
479 393 M 481 375 L S
481 375 M 483 358 L S
483 358 M 485 343 L S
485 343 M 487 328 L S
487 328 M 489 314 L S
489 314 M 491 302 L S
491 302 M 493 291 L S
493 291 M 495 282 L S
495 282 M 497 274 L S
497 274 M 499 267 L S
499 267 M 501 263 L S
501 263 M 503 259 L S
503 259 M 504 256 L S
504 256 M 506 254 L S
506 254 M 508 252 L S
508 252 M 510 251 L S
510 251 M 512 251 L S
512 251 M 514 250 L S
514 250 M 516 250 L S
516 250 M 518 249 L S
518 249 M 520 249 L S
520 249 M 522 249 L S
522 249 M 524 249 L S
524 249 M 526 249 L S
526 249 M 528 249 L S
528 249 M 530 249 L S
530 249 M 532 249 L S
532 249 M 533 249 L S
533 249 M 535 249 L S
535 249 M 537 249 L S
537 249 M 539 249 L S
539 249 M 541 249 L S
193 248 M 193 248 L S
193 248 M 193 248 L S
193 248 M 195 248 L S
195 248 M 196 248 L S
196 248 M 198 248 L S
198 248 M 200 248 L S
200 248 M 202 248 L S
202 248 M 204 249 L S
204 249 M 206 249 L S
206 249 M 208 250 L S
208 250 M 210 251 L S
210 251 M 212 252 L S
212 252 M 214 254 L S
214 254 M 216 256 L S
216 256 M 218 259 L S
218 259 M 220 263 L S
220 263 M 222 267 L S
222 267 M 224 273 L S
224 273 M 225 279 L S
225 279 M 227 286 L S
227 286 M 229 294 L S
229 294 M 231 303 L S
231 303 M 233 312 L S
233 312 M 235 323 L S
235 323 M 237 334 L S
237 334 M 239 346 L S
239 346 M 241 358 L S
241 358 M 243 370 L S
243 370 M 245 382 L S
245 382 M 247 394 L S
247 394 M 249 406 L S
249 406 M 251 417 L S
251 417 M 253 428 L S
253 428 M 254 439 L S
254 439 M 256 450 L S
256 450 M 258 461 L S
258 461 M 260 473 L S
260 473 M 262 485 L S
262 485 M 264 498 L S
264 498 M 266 511 L S
266 511 M 268 526 L S
268 526 M 270 542 L S
270 542 M 272 559 L S
272 559 M 274 578 L S
274 578 M 276 598 L S
276 598 M 278 618 L S
278 618 M 280 640 L S
280 640 M 282 659 L S
282 659 M 283 678 L S
283 678 M 285 693 L S
285 693 M 287 706 L S
287 706 M 289 716 L S
289 716 M 291 723 L S
291 723 M 293 727 L S
293 727 M 295 730 L S
295 730 M 297 732 L S
297 732 M 299 732 L S
299 732 M 301 733 L S
301 733 M 303 733 L S
303 733 M 305 733 L S
305 733 M 307 733 L S
307 733 M 309 733 L S
309 733 M 311 733 L S
311 733 M 312 734 L S
312 734 M 314 734 L S
314 734 M 316 734 L S
316 734 M 318 734 L S
318 734 M 320 735 L S
320 735 M 322 736 L S
322 736 M 324 736 L S
324 736 M 326 737 L S
326 737 M 328 738 L S
328 738 M 330 739 L S
330 739 M 332 740 L S
332 740 M 334 740 L S
334 740 M 336 740 L S
336 740 M 338 739 L S
338 739 M 340 739 L S
340 739 M 341 738 L S
341 738 M 343 737 L S
343 737 M 345 736 L S
345 736 M 347 736 L S
347 736 M 349 735 L S
349 735 M 351 735 L S
351 735 M 353 735 L S
353 735 M 355 734 L S
355 734 M 357 734 L S
357 734 M 359 734 L S
359 734 M 361 734 L S
361 734 M 363 734 L S
363 734 M 365 734 L S
365 734 M 367 734 L S
367 734 M 369 734 L S
369 734 M 370 734 L S
370 734 M 372 734 L S
372 734 M 374 734 L S
374 734 M 376 734 L S
376 734 M 378 734 L S
378 734 M 380 734 L S
380 734 M 382 734 L S
382 734 M 384 733 L S
384 733 M 386 733 L S
386 733 M 388 733 L S
388 733 M 390 733 L S
390 733 M 392 732 L S
392 732 M 394 731 L S
394 731 M 396 730 L S
396 730 M 398 729 L S
398 729 M 399 726 L S
399 726 M 401 722 L S
401 722 M 403 717 L S
403 717 M 405 709 L S
405 709 M 407 699 L S
407 699 M 409 686 L S
409 686 M 411 670 L S
411 670 M 413 651 L S
413 651 M 415 631 L S
415 631 M 417 608 L S
417 608 M 419 585 L S
419 585 M 421 561 L S
421 561 M 423 537 L S
423 537 M 425 513 L S
425 513 M 426 490 L S
426 490 M 428 468 L S
428 468 M 430 446 L S
430 446 M 432 426 L S
432 426 M 434 406 L S
434 406 M 436 387 L S
436 387 M 438 369 L S
438 369 M 440 351 L S
440 351 M 442 335 L S
442 335 M 444 321 L S
444 321 M 446 307 L S
446 307 M 448 295 L S
448 295 M 450 285 L S
450 285 M 452 276 L S
452 276 M 454 269 L S
454 269 M 455 264 L S
455 264 M 457 260 L S
457 260 M 459 257 L S
459 257 M 461 254 L S
461 254 M 463 253 L S
463 253 M 465 252 L S
465 252 M 467 251 L S
467 251 M 469 250 L S
469 250 M 471 250 L S
471 250 M 473 250 L S
473 250 M 475 249 L S
475 249 M 477 249 L S
477 249 M 479 249 L S
479 249 M 481 249 L S
481 249 M 483 249 L S
483 249 M 484 249 L S
484 249 M 486 249 L S
486 249 M 488 249 L S
488 249 M 490 249 L S
490 249 M 492 249 L S
492 249 M 494 249 L S
494 249 M 496 249 L S
496 249 M 498 249 L S
498 249 M 500 249 L S
500 249 M 502 249 L S
502 249 M 504 249 L S
504 249 M 506 249 L S
506 249 M 508 249 L S
508 249 M 510 249 L S
510 249 M 512 249 L S
512 249 M 513 249 L S
513 249 M 515 249 L S
515 249 M 516 249 L S
198 248 M 198 248 L S
198 248 M 198 248 L S
198 248 M 200 248 L S
200 248 M 202 248 L S
202 248 M 204 248 L S
204 248 M 206 249 L S
206 249 M 208 249 L S
208 249 M 210 250 L S
210 250 M 212 250 L S
212 250 M 214 252 L S
214 252 M 215 253 L S
215 253 M 217 255 L S
217 255 M 219 258 L S
219 258 M 221 261 L S
221 261 M 223 265 L S
223 265 M 225 269 L S
225 269 M 227 274 L S
227 274 M 229 280 L S
229 280 M 231 286 L S
231 286 M 233 293 L S
233 293 M 235 301 L S
235 301 M 237 310 L S
237 310 M 239 319 L S
239 319 M 241 329 L S
241 329 M 243 340 L S
243 340 M 244 352 L S
244 352 M 246 363 L S
246 363 M 248 375 L S
248 375 M 250 386 L S
250 386 M 252 397 L S
252 397 M 254 408 L S
254 408 M 256 418 L S
256 418 M 258 428 L S
258 428 M 260 438 L S
260 438 M 262 448 L S
262 448 M 264 458 L S
264 458 M 266 468 L S
266 468 M 268 480 L S
268 480 M 270 492 L S
270 492 M 271 505 L S
271 505 M 273 519 L S
273 519 M 275 535 L S
275 535 M 277 553 L S
277 553 M 279 572 L S
279 572 M 281 593 L S
281 593 M 283 614 L S
283 614 M 285 636 L S
285 636 M 287 658 L S
287 658 M 289 677 L S
289 677 M 291 694 L S
291 694 M 293 706 L S
293 706 M 295 716 L S
295 716 M 297 722 L S
297 722 M 299 726 L S
299 726 M 300 729 L S
300 729 M 302 730 L S
302 730 M 304 731 L S
304 731 M 306 732 L S
306 732 M 308 732 L S
308 732 M 310 732 L S
310 732 M 312 732 L S
312 732 M 314 733 L S
314 733 M 316 733 L S
316 733 M 318 733 L S
318 733 M 320 733 L S
320 733 M 322 733 L S
322 733 M 324 733 L S
324 733 M 326 733 L S
326 733 M 328 734 L S
328 734 M 329 734 L S
329 734 M 331 734 L S
331 734 M 333 734 L S
333 734 M 335 735 L S
335 735 M 337 735 L S
337 735 M 339 736 L S
339 736 M 341 737 L S
341 737 M 343 737 L S
343 737 M 345 738 L S
345 738 M 347 738 L S
347 738 M 349 738 L S
349 738 M 351 737 L S
351 737 M 353 736 L S
353 736 M 355 736 L S
355 736 M 357 735 L S
357 735 M 358 735 L S
358 735 M 360 735 L S
360 735 M 362 734 L S
362 734 M 364 734 L S
364 734 M 366 734 L S
366 734 M 368 734 L S
368 734 M 370 734 L S
370 734 M 372 734 L S
372 734 M 374 734 L S
374 734 M 376 734 L S
376 734 M 378 734 L S
378 734 M 380 734 L S
380 734 M 382 734 L S
382 734 M 384 734 L S
384 734 M 386 734 L S
386 734 M 387 734 L S
387 734 M 389 734 L S
389 734 M 391 734 L S
391 734 M 393 734 L S
393 734 M 395 734 L S
395 734 M 397 734 L S
397 734 M 399 734 L S
399 734 M 401 733 L S
401 733 M 403 733 L S
403 733 M 405 733 L S
405 733 M 407 733 L S
407 733 M 409 733 L S
409 733 M 411 733 L S
411 733 M 413 733 L S
413 733 M 415 732 L S
415 732 M 416 731 L S
416 731 M 418 731 L S
418 731 M 420 729 L S
420 729 M 422 727 L S
422 727 M 424 724 L S
424 724 M 426 720 L S
426 720 M 428 713 L S
428 713 M 430 704 L S
430 704 M 432 692 L S
432 692 M 434 677 L S
434 677 M 436 660 L S
436 660 M 438 640 L S
438 640 M 440 618 L S
440 618 M 442 595 L S
442 595 M 444 572 L S
444 572 M 445 548 L S
445 548 M 447 524 L S
447 524 M 449 501 L S
449 501 M 451 478 L S
451 478 M 453 456 L S
453 456 M 455 435 L S
455 435 M 457 415 L S
457 415 M 459 396 L S
459 396 M 461 378 L S
461 378 M 463 360 L S
463 360 M 465 344 L S
465 344 M 467 328 L S
467 328 M 469 314 L S
469 314 M 471 301 L S
471 301 M 473 290 L S
473 290 M 474 281 L S
474 281 M 476 273 L S
476 273 M 478 267 L S
478 267 M 480 262 L S
480 262 M 482 258 L S
482 258 M 484 255 L S
484 255 M 486 253 L S
486 253 M 488 252 L S
488 252 M 490 251 L S
490 251 M 492 250 L S
492 250 M 494 250 L S
494 250 M 496 250 L S
496 250 M 498 249 L S
498 249 M 500 249 L S
500 249 M 502 249 L S
502 249 M 503 249 L S
503 249 M 505 249 L S
505 249 M 507 249 L S
507 249 M 509 249 L S
509 249 M 511 249 L S
511 249 M 513 249 L S
513 249 M 515 249 L S
515 249 M 517 249 L S
517 249 M 519 249 L S
519 249 M 521 249 L S
521 249 M 523 249 L S
523 249 M 523 249 L S
200 248 M 200 248 L S
200 248 M 206 248 L S
206 248 M 208 249 L S
208 249 M 210 249 L S
210 249 M 212 249 L S
212 249 M 214 250 L S
214 250 M 215 250 L S
215 250 M 217 252 L S
217 252 M 219 253 L S
219 253 M 221 255 L S
221 255 M 223 257 L S
223 257 M 225 260 L S
225 260 M 227 263 L S
227 263 M 229 268 L S
229 268 M 231 272 L S
231 272 M 233 278 L S
233 278 M 235 284 L S
235 284 M 237 291 L S
237 291 M 239 299 L S
239 299 M 241 308 L S
241 308 M 243 318 L S
243 318 M 244 329 L S
244 329 M 246 341 L S
246 341 M 248 352 L S
248 352 M 250 364 L S
250 364 M 252 376 L S
252 376 M 254 387 L S
254 387 M 256 398 L S
256 398 M 258 409 L S
258 409 M 260 419 L S
260 419 M 262 430 L S
262 430 M 264 440 L S
264 440 M 266 451 L S
266 451 M 268 462 L S
268 462 M 270 474 L S
270 474 M 272 487 L S
272 487 M 273 501 L S
273 501 M 275 516 L S
275 516 M 277 532 L S
277 532 M 279 550 L S
279 550 M 281 570 L S
281 570 M 283 591 L S
283 591 M 285 613 L S
285 613 M 287 635 L S
287 635 M 289 656 L S
289 656 M 291 675 L S
291 675 M 293 692 L S
293 692 M 295 705 L S
295 705 M 297 715 L S
297 715 M 299 722 L S
299 722 M 301 726 L S
301 726 M 302 730 L S
302 730 M 304 731 L S
304 731 M 306 732 L S
306 732 M 308 732 L S
308 732 M 310 732 L S
310 732 M 312 732 L S
312 732 M 314 732 L S
314 732 M 316 732 L S
316 732 M 318 732 L S
318 732 M 320 732 L S
320 732 M 322 732 L S
322 732 M 324 732 L S
324 732 M 326 732 L S
326 732 M 328 732 L S
328 732 M 330 732 L S
330 732 M 331 732 L S
331 732 M 333 732 L S
333 732 M 335 732 L S
335 732 M 337 732 L S
337 732 M 339 732 L S
339 732 M 341 733 L S
341 733 M 343 733 L S
343 733 M 345 733 L S
345 733 M 347 734 L S
347 734 M 349 734 L S
349 734 M 351 735 L S
351 735 M 353 736 L S
353 736 M 355 737 L S
355 737 M 357 738 L S
357 738 M 359 739 L S
359 739 M 360 739 L S
360 739 M 362 739 L S
362 739 M 364 739 L S
364 739 M 366 738 L S
366 738 M 368 737 L S
368 737 M 370 736 L S
370 736 M 372 735 L S
372 735 M 374 735 L S
374 735 M 376 734 L S
376 734 M 378 733 L S
378 733 M 380 733 L S
380 733 M 382 733 L S
382 733 M 384 733 L S
384 733 M 386 732 L S
386 732 M 388 732 L S
388 732 M 389 732 L S
389 732 M 391 732 L S
391 732 M 393 732 L S
393 732 M 395 732 L S
395 732 M 397 732 L S
397 732 M 399 732 L S
399 732 M 401 732 L S
401 732 M 403 732 L S
403 732 M 405 732 L S
405 732 M 407 732 L S
407 732 M 409 732 L S
409 732 M 411 732 L S
411 732 M 413 732 L S
413 732 M 415 732 L S
415 732 M 417 732 L S
417 732 M 418 732 L S
418 732 M 420 731 L S
420 731 M 422 731 L S
422 731 M 424 731 L S
424 731 M 426 731 L S
426 731 M 428 731 L S
428 731 M 430 730 L S
430 730 M 432 730 L S
432 730 M 434 730 L S
434 730 M 436 729 L S
436 729 M 438 728 L S
438 728 M 440 726 L S
440 726 M 442 723 L S
442 723 M 444 720 L S
444 720 M 446 714 L S
446 714 M 447 707 L S
447 707 M 449 697 L S
449 697 M 451 684 L S
451 684 M 453 669 L S
453 669 M 455 651 L S
455 651 M 457 631 L S
457 631 M 459 609 L S
459 609 M 461 586 L S
461 586 M 463 563 L S
463 563 M 465 540 L S
465 540 M 467 517 L S
467 517 M 469 495 L S
469 495 M 471 474 L S
471 474 M 473 453 L S
473 453 M 475 432 L S
475 432 M 476 413 L S
476 413 M 478 394 L S
478 394 M 480 377 L S
480 377 M 482 360 L S
482 360 M 484 344 L S
484 344 M 486 329 L S
486 329 M 488 315 L S
488 315 M 490 302 L S
490 302 M 492 291 L S
492 291 M 494 282 L S
494 282 M 496 274 L S
496 274 M 498 267 L S
498 267 M 500 262 L S
500 262 M 502 259 L S
502 259 M 503 256 L S
503 256 M 505 254 L S
505 254 M 507 252 L S
507 252 M 509 251 L S
509 251 M 511 250 L S
511 250 M 513 250 L S
513 250 M 515 250 L S
515 250 M 517 249 L S
517 249 M 519 249 L S
519 249 M 521 249 L S
521 249 M 523 249 L S
523 249 M 525 249 L S
525 249 M 527 249 L S
527 249 M 529 249 L S
529 249 M 531 249 L S
531 249 M 532 249 L S
532 249 M 534 249 L S
534 249 M 536 249 L S
536 249 M 537 249 L S
192 248 M 192 248 L S
192 248 M 192 248 L S
192 248 M 194 248 L S
194 248 M 196 248 L S
196 248 M 198 248 L S
198 248 M 200 248 L S
200 248 M 202 248 L S
202 248 M 204 249 L S
204 249 M 205 249 L S
205 249 M 207 250 L S
207 250 M 209 251 L S
209 251 M 211 252 L S
211 252 M 213 254 L S
213 254 M 215 256 L S
215 256 M 217 259 L S
217 259 M 219 263 L S
219 263 M 221 267 L S
221 267 M 223 273 L S
223 273 M 225 279 L S
225 279 M 227 286 L S
227 286 M 229 294 L S
229 294 M 231 303 L S
231 303 M 233 312 L S
233 312 M 234 323 L S
234 323 M 236 334 L S
236 334 M 238 346 L S
238 346 M 240 357 L S
240 357 M 242 370 L S
242 370 M 244 382 L S
244 382 M 246 394 L S
246 394 M 248 405 L S
248 405 M 250 417 L S
250 417 M 252 428 L S
252 428 M 254 439 L S
254 439 M 256 449 L S
256 449 M 258 460 L S
258 460 M 260 472 L S
260 472 M 262 484 L S
262 484 M 263 496 L S
263 496 M 265 510 L S
265 510 M 267 524 L S
267 524 M 269 540 L S
269 540 M 271 557 L S
271 557 M 273 576 L S
273 576 M 275 595 L S
275 595 M 277 616 L S
277 616 M 279 637 L S
279 637 M 281 657 L S
281 657 M 283 676 L S
283 676 M 285 692 L S
285 692 M 287 705 L S
287 705 M 289 715 L S
289 715 M 291 722 L S
291 722 M 292 727 L S
292 727 M 294 730 L S
294 730 M 296 731 L S
296 731 M 298 732 L S
298 732 M 300 733 L S
300 733 M 302 733 L S
302 733 M 304 733 L S
304 733 M 306 733 L S
306 733 M 308 733 L S
308 733 M 310 733 L S
310 733 M 312 734 L S
312 734 M 314 734 L S
314 734 M 316 734 L S
316 734 M 318 734 L S
318 734 M 320 735 L S
320 735 M 321 735 L S
321 735 M 323 736 L S
323 736 M 325 737 L S
325 737 M 327 738 L S
327 738 M 329 738 L S
329 738 M 331 739 L S
331 739 M 333 740 L S
333 740 M 335 740 L S
335 740 M 337 739 L S
337 739 M 339 739 L S
339 739 M 341 738 L S
341 738 M 343 737 L S
343 737 M 345 736 L S
345 736 M 347 736 L S
347 736 M 348 735 L S
348 735 M 350 735 L S
350 735 M 352 735 L S
352 735 M 354 734 L S
354 734 M 356 734 L S
356 734 M 358 734 L S
358 734 M 360 734 L S
360 734 M 362 734 L S
362 734 M 364 734 L S
364 734 M 366 734 L S
366 734 M 368 734 L S
368 734 M 370 734 L S
370 734 M 372 734 L S
372 734 M 374 734 L S
374 734 M 376 734 L S
376 734 M 377 734 L S
377 734 M 379 734 L S
379 734 M 381 734 L S
381 734 M 383 734 L S
383 734 M 385 734 L S
385 734 M 387 733 L S
387 733 M 389 733 L S
389 733 M 391 733 L S
391 733 M 393 732 L S
393 732 M 395 732 L S
395 732 M 397 731 L S
397 731 M 399 730 L S
399 730 M 401 728 L S
401 728 M 403 725 L S
403 725 M 405 720 L S
405 720 M 406 713 L S
406 713 M 408 705 L S
408 705 M 410 693 L S
410 693 M 412 678 L S
412 678 M 414 661 L S
414 661 M 416 641 L S
416 641 M 418 619 L S
418 619 M 420 596 L S
420 596 M 422 572 L S
422 572 M 424 548 L S
424 548 M 426 525 L S
426 525 M 428 501 L S
428 501 M 430 479 L S
430 479 M 432 457 L S
432 457 M 434 436 L S
434 436 M 435 415 L S
435 415 M 437 396 L S
437 396 M 439 377 L S
439 377 M 441 360 L S
441 360 M 443 343 L S
443 343 M 445 328 L S
445 328 M 447 313 L S
447 313 M 449 301 L S
449 301 M 451 290 L S
451 290 M 453 280 L S
453 280 M 455 272 L S
455 272 M 457 266 L S
457 266 M 459 262 L S
459 262 M 461 258 L S
461 258 M 463 255 L S
463 255 M 464 253 L S
464 253 M 466 252 L S
466 252 M 468 251 L S
468 251 M 470 250 L S
470 250 M 472 250 L S
472 250 M 474 250 L S
474 250 M 476 250 L S
476 250 M 478 249 L S
478 249 M 480 249 L S
480 249 M 482 249 L S
482 249 M 484 249 L S
484 249 M 486 249 L S
486 249 M 488 249 L S
488 249 M 490 249 L S
490 249 M 492 249 L S
492 249 M 493 249 L S
493 249 M 495 249 L S
495 249 M 497 249 L S
497 249 M 499 249 L S
499 249 M 501 249 L S
501 249 M 503 249 L S
503 249 M 505 249 L S
505 249 M 507 249 L S
507 249 M 509 249 L S
509 249 M 511 249 L S
511 249 M 512 249 L S
527 249 M 527 249 L S
527 249 M 559 250 L S
559 250 M 561 250 L S
561 250 M 563 250 L S
563 250 M 565 250 L S
565 250 M 567 251 L S
567 251 M 569 252 L S
569 252 M 570 253 L S
570 253 M 572 255 L S
572 255 M 574 257 L S
574 257 M 576 259 L S
576 259 M 578 262 L S
578 262 M 580 266 L S
580 266 M 582 270 L S
582 270 M 584 275 L S
584 275 M 586 281 L S
586 281 M 588 287 L S
588 287 M 590 295 L S
590 295 M 592 303 L S
592 303 M 594 312 L S
594 312 M 596 322 L S
596 322 M 598 333 L S
598 333 M 599 344 L S
599 344 M 601 357 L S
601 357 M 603 370 L S
603 370 M 605 385 L S
605 385 M 607 400 L S
607 400 M 609 416 L S
609 416 M 611 433 L S
611 433 M 613 450 L S
613 450 M 615 469 L S
615 469 M 617 488 L S
617 488 M 619 508 L S
619 508 M 621 528 L S
621 528 M 623 549 L S
623 549 M 625 571 L S
625 571 M 627 593 L S
627 593 M 628 614 L S
628 614 M 630 635 L S
630 635 M 632 654 L S
632 654 M 634 672 L S
634 672 M 636 687 L S
636 687 M 638 700 L S
638 700 M 640 710 L S
640 710 M 642 717 L S
642 717 M 644 723 L S
644 723 M 646 727 L S
646 727 M 648 729 L S
648 729 M 650 731 L S
650 731 M 652 732 L S
652 732 M 654 733 L S
654 733 M 656 733 L S
656 733 M 657 733 L S
657 733 M 659 734 L S
659 734 M 661 734 L S
661 734 M 663 733 L S
663 733 M 665 733 L S
665 733 M 667 733 L S
667 733 M 669 733 L S
669 733 M 671 733 L S
671 733 M 673 733 L S
673 733 M 675 733 L S
675 733 M 677 733 L S
677 733 M 679 733 L S
679 733 M 681 733 L S
681 733 M 683 733 L S
683 733 M 685 733 L S
685 733 M 686 733 L S
686 733 M 688 733 L S
688 733 M 690 733 L S
690 733 M 692 733 L S
692 733 M 694 733 L S
694 733 M 696 732 L S
696 732 M 698 732 L S
698 732 M 700 731 L S
700 731 M 702 730 L S
702 730 M 704 728 L S
704 728 M 706 726 L S
706 726 M 708 723 L S
708 723 M 710 718 L S
710 718 M 712 712 L S
712 712 M 713 704 L S
713 704 M 715 693 L S
715 693 M 717 681 L S
717 681 M 719 666 L S
719 666 M 721 649 L S
721 649 M 723 631 L S
723 631 M 725 613 L S
725 613 M 727 594 L S
727 594 M 729 574 L S
729 574 M 731 555 L S
731 555 M 733 536 L S
733 536 M 735 518 L S
735 518 M 737 501 L S
737 501 M 739 484 L S
739 484 M 741 468 L S
741 468 M 742 453 L S
742 453 M 744 439 L S
744 439 M 746 424 L S
746 424 M 748 411 L S
748 411 M 750 397 L S
750 397 M 752 384 L S
752 384 M 754 371 L S
754 371 M 756 359 L S
756 359 M 758 348 L S
758 348 M 760 337 L S
760 337 M 762 326 L S
762 326 M 764 316 L S
764 316 M 766 308 L S
766 308 M 768 299 L S
768 299 M 770 292 L S
770 292 M 771 285 L S
771 285 M 773 279 L S
773 279 M 775 274 L S
775 274 M 777 270 L S
777 270 M 779 266 L S
779 266 M 781 262 L S
781 262 M 783 259 L S
783 259 M 785 257 L S
785 257 M 787 255 L S
787 255 M 789 253 L S
789 253 M 791 252 L S
791 252 M 793 251 L S
793 251 M 795 250 L S
795 250 M 797 249 L S
797 249 M 799 249 L S
799 249 M 800 248 L S
800 248 M 802 248 L S
802 248 M 804 248 L S
804 248 M 806 248 L S
806 248 M 808 248 L S
808 248 M 810 248 L S
810 248 M 812 248 L S
812 248 M 814 248 L S
814 248 M 816 248 L S
816 248 M 818 248 L S
818 248 M 820 248 L S
820 248 M 822 248 L S
822 248 M 824 248 L S
824 248 M 826 248 L S
826 248 M 828 248 L S
828 248 M 829 248 L S
829 248 M 831 248 L S
831 248 M 833 249 L S
833 249 M 835 249 L S
835 249 M 837 249 L S
837 249 M 839 249 L S
839 249 M 841 249 L S
841 249 M 843 249 L S
843 249 M 845 249 L S
845 249 M 847 249 L S
847 249 M 849 249 L S
849 249 M 851 249 L S
851 249 M 853 249 L S
853 249 M 855 249 L S
855 249 M 857 249 L S
857 249 M 858 249 L S
858 249 M 860 249 L S
860 249 M 862 249 L S
862 249 M 864 249 L S
864 249 M 866 249 L S
866 249 M 868 249 L S
868 249 M 870 249 L S
870 249 M 872 249 L S
872 249 M 874 249 L S
874 249 M 876 249 L S
876 249 M 878 249 L S
878 249 M 880 249 L S
880 249 M 882 249 L S
882 249 M 884 250 L S
884 250 M 886 249 L S
886 249 M 887 249 L S
887 249 M 889 250 L S
889 250 M 891 250 L S
891 250 M 893 250 L S
893 250 M 895 250 L S
895 250 M 897 250 L S
897 250 M 899 250 L S
899 250 M 901 250 L S
901 250 M 903 250 L S
903 250 M 905 250 L S
905 250 M 907 250 L S
907 250 M 909 250 L S
909 250 M 911 250 L S
911 250 M 913 250 L S
913 250 M 915 250 L S
915 250 M 915 250 L S
541 249 M 541 249 L S
541 249 M 596 250 L S
596 250 M 598 250 L S
598 250 M 600 250 L S
600 250 M 602 250 L S
602 250 M 604 251 L S
604 251 M 606 252 L S
606 252 M 608 253 L S
608 253 M 610 255 L S
610 255 M 612 257 L S
612 257 M 614 259 L S
614 259 M 616 262 L S
616 262 M 617 266 L S
617 266 M 619 270 L S
619 270 M 621 275 L S
621 275 M 623 281 L S
623 281 M 625 287 L S
625 287 M 627 295 L S
627 295 M 629 303 L S
629 303 M 631 312 L S
631 312 M 633 322 L S
633 322 M 635 332 L S
635 332 M 637 344 L S
637 344 M 639 357 L S
639 357 M 641 370 L S
641 370 M 643 385 L S
643 385 M 645 400 L S
645 400 M 646 415 L S
646 415 M 648 432 L S
648 432 M 650 450 L S
650 450 M 652 468 L S
652 468 M 654 487 L S
654 487 M 656 507 L S
656 507 M 658 528 L S
658 528 M 660 549 L S
660 549 M 662 570 L S
662 570 M 664 592 L S
664 592 M 666 613 L S
666 613 M 668 634 L S
668 634 M 670 653 L S
670 653 M 672 671 L S
672 671 M 674 686 L S
674 686 M 675 699 L S
675 699 M 677 709 L S
677 709 M 679 717 L S
679 717 M 681 723 L S
681 723 M 683 726 L S
683 726 M 685 729 L S
685 729 M 687 730 L S
687 730 M 689 732 L S
689 732 M 691 732 L S
691 732 M 693 733 L S
693 733 M 695 733 L S
695 733 M 697 733 L S
697 733 M 699 733 L S
699 733 M 701 733 L S
701 733 M 703 733 L S
703 733 M 704 733 L S
704 733 M 706 733 L S
706 733 M 708 733 L S
708 733 M 710 733 L S
710 733 M 712 733 L S
712 733 M 714 733 L S
714 733 M 716 733 L S
716 733 M 718 733 L S
718 733 M 720 733 L S
720 733 M 722 733 L S
722 733 M 724 733 L S
724 733 M 726 733 L S
726 733 M 728 733 L S
728 733 M 730 733 L S
730 733 M 732 733 L S
732 733 M 733 733 L S
733 733 M 735 733 L S
735 733 M 737 733 L S
737 733 M 739 733 L S
739 733 M 741 733 L S
741 733 M 743 733 L S
743 733 M 745 733 L S
745 733 M 747 733 L S
747 733 M 749 733 L S
749 733 M 751 733 L S
751 733 M 753 732 L S
753 732 M 755 732 L S
755 732 M 757 731 L S
757 731 M 759 730 L S
759 730 M 761 729 L S
761 729 M 762 727 L S
762 727 M 764 724 L S
764 724 M 766 721 L S
766 721 M 768 715 L S
768 715 M 770 707 L S
770 707 M 772 697 L S
772 697 M 774 685 L S
774 685 M 776 670 L S
776 670 M 778 653 L S
778 653 M 780 635 L S
780 635 M 782 615 L S
782 615 M 784 596 L S
784 596 M 786 575 L S
786 575 M 788 555 L S
788 555 M 790 536 L S
790 536 M 791 517 L S
791 517 M 793 499 L S
793 499 M 795 482 L S
795 482 M 797 466 L S
797 466 M 799 450 L S
799 450 M 801 435 L S
801 435 M 803 421 L S
803 421 M 805 407 L S
805 407 M 807 393 L S
807 393 M 809 380 L S
809 380 M 811 367 L S
811 367 M 813 354 L S
813 354 M 815 343 L S
815 343 M 817 332 L S
817 332 M 819 321 L S
819 321 M 820 312 L S
820 312 M 822 303 L S
822 303 M 824 295 L S
824 295 M 826 288 L S
826 288 M 828 281 L S
828 281 M 830 276 L S
830 276 M 832 271 L S
832 271 M 834 267 L S
834 267 M 836 263 L S
836 263 M 838 260 L S
838 260 M 840 257 L S
840 257 M 842 255 L S
842 255 M 844 253 L S
844 253 M 846 252 L S
846 252 M 847 251 L S
847 251 M 849 250 L S
849 250 M 851 249 L S
851 249 M 853 249 L S
853 249 M 855 248 L S
855 248 M 857 248 L S
857 248 M 859 248 L S
859 248 M 861 248 L S
861 248 M 863 248 L S
863 248 M 865 248 L S
865 248 M 867 248 L S
867 248 M 869 248 L S
869 248 M 871 248 L S
871 248 M 873 248 L S
873 248 M 875 248 L S
875 248 M 876 248 L S
876 248 M 878 248 L S
878 248 M 880 248 L S
880 248 M 882 248 L S
882 248 M 884 249 L S
884 249 M 886 249 L S
886 249 M 888 249 L S
888 249 M 890 249 L S
890 249 M 892 249 L S
892 249 M 894 249 L S
894 249 M 896 249 L S
896 249 M 898 249 L S
898 249 M 900 249 L S
900 249 M 902 249 L S
902 249 M 904 249 L S
904 249 M 905 249 L S
905 249 M 907 249 L S
907 249 M 909 249 L S
909 249 M 911 249 L S
911 249 M 913 249 L S
913 249 M 915 249 L S
915 249 M 917 249 L S
917 249 M 919 249 L S
919 249 M 921 249 L S
921 249 M 923 249 L S
923 249 M 925 249 L S
925 249 M 927 249 L S
927 249 M 929 249 L S
929 249 M 931 249 L S
931 249 M 933 249 L S
933 249 M 934 250 L S
934 250 M 936 250 L S
936 250 M 938 250 L S
938 250 M 940 250 L S
940 250 M 942 250 L S
942 250 M 944 250 L S
944 250 M 946 250 L S
946 250 M 948 250 L S
948 250 M 950 250 L S
950 250 M 952 250 L S
952 250 M 954 250 L S
954 250 M 956 250 L S
956 250 M 958 250 L S
958 250 M 960 250 L S
960 250 M 961 250 L S
516 249 M 516 249 L S
516 249 M 522 250 L S
522 250 M 524 250 L S
524 250 M 526 250 L S
526 250 M 528 250 L S
528 250 M 530 251 L S
530 251 M 532 252 L S
532 252 M 534 253 L S
534 253 M 536 255 L S
536 255 M 538 257 L S
538 257 M 540 259 L S
540 259 M 542 262 L S
542 262 M 543 266 L S
543 266 M 545 270 L S
545 270 M 547 275 L S
547 275 M 549 281 L S
549 281 M 551 287 L S
551 287 M 553 295 L S
553 295 M 555 303 L S
555 303 M 557 312 L S
557 312 M 559 322 L S
559 322 M 561 333 L S
561 333 M 563 345 L S
563 345 M 565 358 L S
565 358 M 567 371 L S
567 371 M 569 386 L S
569 386 M 571 401 L S
571 401 M 572 417 L S
572 417 M 574 434 L S
574 434 M 576 451 L S
576 451 M 578 470 L S
578 470 M 580 489 L S
580 489 M 582 509 L S
582 509 M 584 530 L S
584 530 M 586 551 L S
586 551 M 588 572 L S
588 572 M 590 594 L S
590 594 M 592 615 L S
592 615 M 594 636 L S
594 636 M 596 656 L S
596 656 M 598 673 L S
598 673 M 600 688 L S
600 688 M 601 701 L S
601 701 M 603 710 L S
603 710 M 605 718 L S
605 718 M 607 723 L S
607 723 M 609 727 L S
609 727 M 611 729 L S
611 729 M 613 731 L S
613 731 M 615 732 L S
615 732 M 617 732 L S
617 732 M 619 733 L S
619 733 M 621 733 L S
621 733 M 623 733 L S
623 733 M 625 733 L S
625 733 M 627 733 L S
627 733 M 629 733 L S
629 733 M 630 732 L S
630 732 M 632 732 L S
632 732 M 634 732 L S
634 732 M 636 731 L S
636 731 M 638 730 L S
638 730 M 640 729 L S
640 729 M 642 728 L S
642 728 M 644 726 L S
644 726 M 646 723 L S
646 723 M 648 719 L S
648 719 M 650 714 L S
650 714 M 652 707 L S
652 707 M 654 698 L S
654 698 M 656 688 L S
656 688 M 658 676 L S
658 676 M 659 662 L S
659 662 M 661 646 L S
661 646 M 663 630 L S
663 630 M 665 612 L S
665 612 M 667 594 L S
667 594 M 669 576 L S
669 576 M 671 558 L S
671 558 M 673 541 L S
673 541 M 675 524 L S
675 524 M 677 507 L S
677 507 M 679 492 L S
679 492 M 681 476 L S
681 476 M 683 461 L S
683 461 M 685 447 L S
685 447 M 686 434 L S
686 434 M 688 421 L S
688 421 M 690 408 L S
690 408 M 692 395 L S
692 395 M 694 383 L S
694 383 M 696 371 L S
696 371 M 698 360 L S
698 360 M 700 349 L S
700 349 M 702 338 L S
702 338 M 704 328 L S
704 328 M 706 319 L S
706 319 M 708 310 L S
708 310 M 710 302 L S
710 302 M 712 295 L S
712 295 M 714 288 L S
714 288 M 715 282 L S
715 282 M 717 277 L S
717 277 M 719 272 L S
719 272 M 721 268 L S
721 268 M 723 264 L S
723 264 M 725 261 L S
725 261 M 727 259 L S
727 259 M 729 256 L S
729 256 M 731 254 L S
731 254 M 733 253 L S
733 253 M 735 252 L S
735 252 M 737 251 L S
737 251 M 739 250 L S
739 250 M 741 249 L S
741 249 M 743 249 L S
743 249 M 744 248 L S
744 248 M 746 248 L S
746 248 M 748 248 L S
748 248 M 750 248 L S
750 248 M 752 248 L S
752 248 M 754 248 L S
754 248 M 756 248 L S
756 248 M 758 248 L S
758 248 M 760 248 L S
760 248 M 762 248 L S
762 248 M 764 248 L S
764 248 M 766 248 L S
766 248 M 768 248 L S
768 248 M 770 248 L S
770 248 M 772 248 L S
772 248 M 773 248 L S
773 248 M 775 248 L S
775 248 M 777 248 L S
777 248 M 779 248 L S
779 248 M 781 248 L S
781 248 M 783 249 L S
783 249 M 785 249 L S
785 249 M 787 249 L S
787 249 M 789 249 L S
789 249 M 791 249 L S
791 249 M 793 249 L S
793 249 M 795 249 L S
795 249 M 797 249 L S
797 249 M 799 249 L S
799 249 M 801 249 L S
801 249 M 802 249 L S
802 249 M 804 249 L S
804 249 M 806 249 L S
806 249 M 808 249 L S
808 249 M 810 249 L S
810 249 M 812 249 L S
812 249 M 814 249 L S
814 249 M 816 249 L S
816 249 M 818 249 L S
818 249 M 820 249 L S
820 249 M 822 249 L S
822 249 M 824 249 L S
824 249 M 826 249 L S
826 249 M 828 249 L S
828 249 M 830 249 L S
830 249 M 831 249 L S
831 249 M 833 249 L S
833 249 M 835 249 L S
835 249 M 837 249 L S
837 249 M 839 250 L S
839 250 M 841 250 L S
841 250 M 843 250 L S
843 250 M 845 250 L S
845 250 M 847 250 L S
847 250 M 849 250 L S
849 250 M 851 250 L S
851 250 M 853 250 L S
853 250 M 855 250 L S
855 250 M 857 250 L S
857 250 M 859 250 L S
859 250 M 860 250 L S
860 250 M 862 250 L S
862 250 M 864 250 L S
864 250 M 866 250 L S
866 250 M 868 250 L S
868 250 M 870 250 L S
870 250 M 871 250 L S
523 249 M 523 249 L S
523 249 M 568 250 L S
568 250 M 570 250 L S
570 250 M 572 250 L S
572 250 M 574 250 L S
574 250 M 576 251 L S
576 251 M 578 252 L S
578 252 M 580 253 L S
580 253 M 582 254 L S
582 254 M 584 256 L S
584 256 M 586 258 L S
586 258 M 587 261 L S
587 261 M 589 264 L S
589 264 M 591 268 L S
591 268 M 593 273 L S
593 273 M 595 278 L S
595 278 M 597 284 L S
597 284 M 599 291 L S
599 291 M 601 298 L S
601 298 M 603 306 L S
603 306 M 605 315 L S
605 315 M 607 325 L S
607 325 M 609 336 L S
609 336 M 611 348 L S
611 348 M 613 360 L S
613 360 M 615 373 L S
615 373 M 616 387 L S
616 387 M 618 402 L S
618 402 M 620 417 L S
620 417 M 622 434 L S
622 434 M 624 451 L S
624 451 M 626 469 L S
626 469 M 628 487 L S
628 487 M 630 507 L S
630 507 M 632 526 L S
632 526 M 634 547 L S
634 547 M 636 568 L S
636 568 M 638 589 L S
638 589 M 640 609 L S
640 609 M 642 630 L S
642 630 M 644 649 L S
644 649 M 645 667 L S
645 667 M 647 683 L S
647 683 M 649 696 L S
649 696 M 651 706 L S
651 706 M 653 715 L S
653 715 M 655 721 L S
655 721 M 657 725 L S
657 725 M 659 728 L S
659 728 M 661 730 L S
661 730 M 663 731 L S
663 731 M 665 732 L S
665 732 M 667 733 L S
667 733 M 669 733 L S
669 733 M 671 733 L S
671 733 M 672 733 L S
672 733 M 674 733 L S
674 733 M 676 733 L S
676 733 M 678 733 L S
678 733 M 680 733 L S
680 733 M 682 733 L S
682 733 M 684 733 L S
684 733 M 686 733 L S
686 733 M 688 733 L S
688 733 M 690 733 L S
690 733 M 692 733 L S
692 733 M 694 733 L S
694 733 M 696 733 L S
696 733 M 698 733 L S
698 733 M 700 733 L S
700 733 M 701 733 L S
701 733 M 703 733 L S
703 733 M 705 733 L S
705 733 M 707 733 L S
707 733 M 709 733 L S
709 733 M 711 733 L S
711 733 M 713 733 L S
713 733 M 715 733 L S
715 733 M 717 733 L S
717 733 M 719 733 L S
719 733 M 721 733 L S
721 733 M 723 733 L S
723 733 M 725 733 L S
725 733 M 727 733 L S
727 733 M 729 733 L S
729 733 M 730 732 L S
730 732 M 732 732 L S
732 732 M 734 732 L S
734 732 M 736 731 L S
736 731 M 738 730 L S
738 730 M 740 729 L S
740 729 M 742 727 L S
742 727 M 744 724 L S
744 724 M 746 720 L S
746 720 M 748 714 L S
748 714 M 750 707 L S
750 707 M 752 697 L S
752 697 M 754 686 L S
754 686 M 756 672 L S
756 672 M 758 657 L S
758 657 M 759 639 L S
759 639 M 761 621 L S
761 621 M 763 602 L S
763 602 M 765 583 L S
765 583 M 767 563 L S
767 563 M 769 544 L S
769 544 M 771 526 L S
771 526 M 773 509 L S
773 509 M 775 492 L S
775 492 M 777 476 L S
777 476 M 779 460 L S
779 460 M 781 445 L S
781 445 M 783 431 L S
783 431 M 785 417 L S
785 417 M 787 404 L S
787 404 M 788 390 L S
788 390 M 790 377 L S
790 377 M 792 365 L S
792 365 M 794 353 L S
794 353 M 796 342 L S
796 342 M 798 331 L S
798 331 M 800 321 L S
800 321 M 802 312 L S
802 312 M 804 303 L S
804 303 M 806 296 L S
806 296 M 808 289 L S
808 289 M 810 282 L S
810 282 M 812 277 L S
812 277 M 814 272 L S
814 272 M 816 268 L S
816 268 M 817 264 L S
817 264 M 819 261 L S
819 261 M 821 258 L S
821 258 M 823 256 L S
823 256 M 825 254 L S
825 254 M 827 252 L S
827 252 M 829 251 L S
829 251 M 831 250 L S
831 250 M 833 250 L S
833 250 M 835 249 L S
835 249 M 837 249 L S
837 249 M 839 248 L S
839 248 M 841 248 L S
841 248 M 843 248 L S
843 248 M 845 248 L S
845 248 M 846 248 L S
846 248 M 848 248 L S
848 248 M 850 248 L S
850 248 M 852 248 L S
852 248 M 854 248 L S
854 248 M 856 248 L S
856 248 M 858 248 L S
858 248 M 860 248 L S
860 248 M 862 248 L S
862 248 M 864 249 L S
864 249 M 866 249 L S
866 249 M 868 249 L S
868 249 M 870 249 L S
870 249 M 872 249 L S
872 249 M 874 249 L S
874 249 M 875 249 L S
875 249 M 877 249 L S
877 249 M 879 249 L S
879 249 M 881 249 L S
881 249 M 883 249 L S
883 249 M 885 249 L S
885 249 M 887 249 L S
887 249 M 889 249 L S
889 249 M 891 249 L S
891 249 M 893 249 L S
893 249 M 895 249 L S
895 249 M 897 249 L S
897 249 M 899 249 L S
899 249 M 901 249 L S
901 249 M 903 249 L S
903 249 M 904 249 L S
904 249 M 906 249 L S
906 249 M 908 250 L S
908 250 M 910 250 L S
910 250 M 912 250 L S
912 250 M 914 250 L S
914 250 M 916 250 L S
916 250 M 918 249 L S
918 249 M 920 249 L S
920 249 M 922 249 L S
922 249 M 924 250 L S
924 250 M 925 250 L S
537 249 M 537 249 L S
537 249 M 607 250 L S
607 250 M 609 250 L S
609 250 M 611 250 L S
611 250 M 613 250 L S
613 250 M 615 251 L S
615 251 M 616 252 L S
616 252 M 618 253 L S
618 253 M 620 254 L S
620 254 M 622 256 L S
622 256 M 624 258 L S
624 258 M 626 261 L S
626 261 M 628 264 L S
628 264 M 630 268 L S
630 268 M 632 272 L S
632 272 M 634 278 L S
634 278 M 636 283 L S
636 283 M 638 290 L S
638 290 M 640 297 L S
640 297 M 642 305 L S
642 305 M 644 314 L S
644 314 M 645 324 L S
645 324 M 647 334 L S
647 334 M 649 346 L S
649 346 M 651 358 L S
651 358 M 653 371 L S
653 371 M 655 385 L S
655 385 M 657 399 L S
657 399 M 659 414 L S
659 414 M 661 430 L S
661 430 M 663 447 L S
663 447 M 665 465 L S
665 465 M 667 483 L S
667 483 M 669 502 L S
669 502 M 671 521 L S
671 521 M 673 541 L S
673 541 M 674 562 L S
674 562 M 676 583 L S
676 583 M 678 603 L S
678 603 M 680 624 L S
680 624 M 682 643 L S
682 643 M 684 661 L S
684 661 M 686 677 L S
686 677 M 688 691 L S
688 691 M 690 702 L S
690 702 M 692 711 L S
692 711 M 694 718 L S
694 718 M 696 723 L S
696 723 M 698 726 L S
698 726 M 700 728 L S
700 728 M 702 729 L S
702 729 M 703 731 L S
703 731 M 705 731 L S
705 731 M 707 732 L S
707 732 M 709 732 L S
709 732 M 711 732 L S
711 732 M 713 732 L S
713 732 M 715 732 L S
715 732 M 717 732 L S
717 732 M 719 732 L S
719 732 M 721 732 L S
721 732 M 723 732 L S
723 732 M 725 732 L S
725 732 M 727 732 L S
727 732 M 729 732 L S
729 732 M 731 732 L S
731 732 M 732 732 L S
732 732 M 734 732 L S
734 732 M 736 732 L S
736 732 M 738 732 L S
738 732 M 740 732 L S
740 732 M 742 732 L S
742 732 M 744 732 L S
744 732 M 746 732 L S
746 732 M 748 732 L S
748 732 M 750 732 L S
750 732 M 752 732 L S
752 732 M 754 732 L S
754 732 M 756 732 L S
756 732 M 758 732 L S
758 732 M 760 732 L S
760 732 M 761 732 L S
761 732 M 763 732 L S
763 732 M 765 732 L S
765 732 M 767 732 L S
767 732 M 769 732 L S
769 732 M 771 732 L S
771 732 M 773 732 L S
773 732 M 775 732 L S
775 732 M 777 732 L S
777 732 M 779 732 L S
779 732 M 781 732 L S
781 732 M 783 732 L S
783 732 M 785 732 L S
785 732 M 787 732 L S
787 732 M 788 732 L S
788 732 M 790 732 L S
790 732 M 792 731 L S
792 731 M 794 731 L S
794 731 M 796 731 L S
796 731 M 798 731 L S
798 731 M 800 730 L S
800 730 M 802 729 L S
802 729 M 804 728 L S
804 728 M 806 727 L S
806 727 M 808 724 L S
808 724 M 810 721 L S
810 721 M 812 716 L S
812 716 M 814 710 L S
814 710 M 816 701 L S
816 701 M 817 690 L S
817 690 M 819 677 L S
819 677 M 821 661 L S
821 661 M 823 644 L S
823 644 M 825 626 L S
825 626 M 827 606 L S
827 606 M 829 586 L S
829 586 M 831 566 L S
831 566 M 833 546 L S
833 546 M 835 527 L S
835 527 M 837 508 L S
837 508 M 839 491 L S
839 491 M 841 474 L S
841 474 M 843 457 L S
843 457 M 845 441 L S
845 441 M 846 426 L S
846 426 M 848 411 L S
848 411 M 850 396 L S
850 396 M 852 383 L S
852 383 M 854 369 L S
854 369 M 856 356 L S
856 356 M 858 344 L S
858 344 M 860 333 L S
860 333 M 862 322 L S
862 322 M 864 312 L S
864 312 M 866 304 L S
866 304 M 868 295 L S
868 295 M 870 288 L S
870 288 M 872 282 L S
872 282 M 874 276 L S
874 276 M 875 271 L S
875 271 M 877 267 L S
877 267 M 879 263 L S
879 263 M 881 260 L S
881 260 M 883 258 L S
883 258 M 885 255 L S
885 255 M 887 253 L S
887 253 M 889 252 L S
889 252 M 891 251 L S
891 251 M 893 250 L S
893 250 M 895 249 L S
895 249 M 897 249 L S
897 249 M 899 249 L S
899 249 M 901 248 L S
901 248 M 903 248 L S
903 248 M 904 248 L S
904 248 M 906 248 L S
906 248 M 908 248 L S
908 248 M 910 248 L S
910 248 M 912 248 L S
912 248 M 914 248 L S
914 248 M 916 248 L S
916 248 M 918 249 L S
918 249 M 920 249 L S
920 249 M 922 249 L S
922 249 M 924 249 L S
924 249 M 926 249 L S
926 249 M 928 249 L S
928 249 M 930 249 L S
930 249 M 932 249 L S
932 249 M 933 249 L S
933 249 M 935 249 L S
935 249 M 937 249 L S
937 249 M 939 249 L S
939 249 M 941 249 L S
941 249 M 943 249 L S
943 249 M 945 249 L S
945 249 M 947 249 L S
947 249 M 949 249 L S
949 249 M 951 249 L S
951 249 M 953 249 L S
953 249 M 955 249 L S
955 249 M 957 249 L S
957 249 M 959 249 L S
959 249 M 961 249 L S
961 249 M 962 249 L S
962 249 M 964 249 L S
964 249 M 966 249 L S
966 249 M 968 249 L S
968 249 M 970 250 L S
512 249 M 512 249 L S
512 249 M 531 250 L S
531 250 M 532 250 L S
532 250 M 534 250 L S
534 250 M 536 250 L S
536 250 M 538 251 L S
538 251 M 540 252 L S
540 252 M 542 253 L S
542 253 M 544 254 L S
544 254 M 546 256 L S
546 256 M 548 258 L S
548 258 M 550 261 L S
550 261 M 552 265 L S
552 265 M 554 269 L S
554 269 M 556 273 L S
556 273 M 558 279 L S
558 279 M 560 285 L S
560 285 M 561 291 L S
561 291 M 563 299 L S
563 299 M 565 307 L S
565 307 M 567 317 L S
567 317 M 569 327 L S
569 327 M 571 338 L S
571 338 M 573 349 L S
573 349 M 575 362 L S
575 362 M 577 375 L S
577 375 M 579 390 L S
579 390 M 581 405 L S
581 405 M 583 420 L S
583 420 M 585 437 L S
585 437 M 587 454 L S
587 454 M 589 472 L S
589 472 M 590 491 L S
590 491 M 592 511 L S
592 511 M 594 531 L S
594 531 M 596 552 L S
596 552 M 598 573 L S
598 573 M 600 594 L S
600 594 M 602 615 L S
602 615 M 604 635 L S
604 635 M 606 654 L S
606 654 M 608 671 L S
608 671 M 610 686 L S
610 686 M 612 699 L S
612 699 M 614 709 L S
614 709 M 616 717 L S
616 717 M 618 722 L S
618 722 M 619 726 L S
619 726 M 621 729 L S
621 729 M 623 731 L S
623 731 M 625 732 L S
625 732 M 627 732 L S
627 732 M 629 733 L S
629 733 M 631 733 L S
631 733 M 633 734 L S
633 734 M 635 734 L S
635 734 M 637 733 L S
637 733 M 639 733 L S
639 733 M 641 733 L S
641 733 M 643 733 L S
643 733 M 645 733 L S
645 733 M 647 733 L S
647 733 M 648 733 L S
648 733 M 650 733 L S
650 733 M 652 733 L S
652 733 M 654 733 L S
654 733 M 656 733 L S
656 733 M 658 733 L S
658 733 M 660 733 L S
660 733 M 662 733 L S
662 733 M 664 733 L S
664 733 M 666 732 L S
666 732 M 668 732 L S
668 732 M 670 732 L S
670 732 M 672 731 L S
672 731 M 674 730 L S
674 730 M 676 728 L S
676 728 M 677 726 L S
677 726 M 679 723 L S
679 723 M 681 719 L S
681 719 M 683 713 L S
683 713 M 685 706 L S
685 706 M 687 697 L S
687 697 M 689 686 L S
689 686 M 691 673 L S
691 673 M 693 658 L S
693 658 M 695 642 L S
695 642 M 697 625 L S
697 625 M 699 607 L S
699 607 M 701 589 L S
701 589 M 703 571 L S
703 571 M 705 553 L S
705 553 M 706 535 L S
706 535 M 708 518 L S
708 518 M 710 502 L S
710 502 M 712 486 L S
712 486 M 714 471 L S
714 471 M 716 457 L S
716 457 M 718 443 L S
718 443 M 720 429 L S
720 429 M 722 416 L S
722 416 M 724 403 L S
724 403 M 726 390 L S
726 390 M 728 378 L S
728 378 M 730 367 L S
730 367 M 732 355 L S
732 355 M 734 344 L S
734 344 M 735 334 L S
735 334 M 737 324 L S
737 324 M 739 315 L S
739 315 M 741 307 L S
741 307 M 743 299 L S
743 299 M 745 292 L S
745 292 M 747 286 L S
747 286 M 749 280 L S
749 280 M 751 275 L S
751 275 M 753 270 L S
753 270 M 755 267 L S
755 267 M 757 263 L S
757 263 M 759 260 L S
759 260 M 761 258 L S
761 258 M 763 256 L S
763 256 M 764 254 L S
764 254 M 766 252 L S
766 252 M 768 251 L S
768 251 M 770 250 L S
770 250 M 772 250 L S
772 250 M 774 249 L S
774 249 M 776 249 L S
776 249 M 778 248 L S
778 248 M 780 248 L S
780 248 M 782 248 L S
782 248 M 784 248 L S
784 248 M 786 248 L S
786 248 M 788 248 L S
788 248 M 790 248 L S
790 248 M 792 248 L S
792 248 M 793 248 L S
793 248 M 795 248 L S
795 248 M 797 248 L S
797 248 M 799 248 L S
799 248 M 801 248 L S
801 248 M 803 248 L S
803 248 M 805 248 L S
805 248 M 807 248 L S
807 248 M 809 248 L S
809 248 M 811 249 L S
811 249 M 813 249 L S
813 249 M 815 249 L S
815 249 M 817 249 L S
817 249 M 819 249 L S
819 249 M 821 249 L S
821 249 M 822 249 L S
822 249 M 824 249 L S
824 249 M 826 249 L S
826 249 M 828 249 L S
828 249 M 830 249 L S
830 249 M 832 249 L S
832 249 M 834 249 L S
834 249 M 836 249 L S
836 249 M 838 249 L S
838 249 M 840 249 L S
840 249 M 842 249 L S
842 249 M 844 249 L S
844 249 M 846 249 L S
846 249 M 848 249 L S
848 249 M 850 249 L S
850 249 M 851 249 L S
851 249 M 853 249 L S
853 249 M 855 249 L S
855 249 M 857 249 L S
857 249 M 859 249 L S
859 249 M 861 250 L S
861 250 M 863 250 L S
863 250 M 865 250 L S
865 250 M 867 250 L S
867 250 M 869 250 L S
869 250 M 871 250 L S
871 250 M 873 250 L S
873 250 M 875 250 L S
875 250 M 877 250 L S
877 250 M 878 250 L S
878 250 M 880 250 L S
880 250 M 881 250 L S
881 250 M 881 250 L S
/Courier-Bold findfont 27 scalefont setfont
101 764 M (Zgoubi|Zpop                                                                     ) H
101 743 M (03-11-2017                                                                      ) H
/Courier-Bold findfont 26 scalefont setfont
160 85 M (* # TRAJECTORIES - STORAGE FILE, 03-11-2017 12:10:13 *                                                                            ) H
293 755 M (  BZ     (T)  vs.    s     (m)                                                                                                    ) H
26 42 M (Mi-ma H/V:   0.409       7.16    / -0.344       1.80                                                                              ) H
26 21 M (Part#  1- 10000 (*); Lmnt#     1; pass#       1-      1, [    1];   2452 pnts                                                     ) H
showpage
