***SPES2 AVEC CARTES ,D'APRES LISTING H.KATZ DU 01/07/76                        
'OBJET'                                                                              1
2335.                                                                           
5                                                                               
.15  1.5  .075  2.25  0. .001                                                   
0. 0. 0. 0. 0. 1.                                                               
'ESL     '                                                                           2
41.5                                                                            
'CARTEMES'                                                                           3
 0  0                                                                           
 -.96136E-3 1. 1.                                                               
++++  CONCORDE ++++                                                             
 39  23                              IX  IY                                     
 concord.map                                                                    
 0  0. 0. 0.                            PAS DE DROITE COUPURE                   
25                                                                              
.5                                                                              
2 0 0 0                                                                         
'ESL'                                                                                4
21.8                                                                            
'FAISCEAU'                                                                           5
'CHANGREF'                                                                           6
0. 32.5 -35.6                                                                   
'CARTEMES'                                                                           7
 0  0 0                                                                         
 1.04279E-3 1. 1.                                                               
++++  A1 ++++                                                                   
 117  52                             IX  IY                                     
 a1.map                                                                         
 0  0 0 0                            PAS DE DROITE COUPURE                      
25                                                                              
.5                                                                              
2 0 0 0                                                                         
'CHANGREF'                                                                           8
0. -28.65  -27.6137                                                             
'FAISCEAU'                                                                           9
'ESL'                                                                               10
33.15                                                                           
'CHANGREF'                                                                          11
0. 27.5  -19.88                                                                 
'CARTEMES'                                                                          12
 0  0 0                                                                         
 1.05778E-3 1. 1.                                                               
++++  A2 ++++                                                                   
 132  80                             IX  IY                                     
 a2.map                                                                         
 0  0 0 0                            PAS DE DROITE COUPURE                      
25                                                                              
.5                                                                              
2 0 0 0                                                                         
'CHANGREF'                                                                          13
41.  -81.  -21.945                                                              
'FAISCEAU'                                                                          14
'IMAGES'                                                                            15
'MATRIX'                                                                            16
 1 1                                                                            
 'FIN'                                                                              17

********************************************************************************************************************************
      1  OBJET                         
                          MAGNETIC  RIGIDITY =       2335.000 kG*cm

                                         CALCUL  DES  TRAJECTOIRES

                              OBJET  (5)  FORME  DE     11 POINTS 



                                Y (cm)         T (mrd)       Z (cm)        P (mrd)       S (cm)        dp/p 
               Sampling :       0.15           1.5          0.75E-01       2.2           0.0          0.1000E-02
   Reference trajectory :        0.0           0.0           0.0           0.0           0.0           1.000    


********************************************************************************************************************************
      2  ESL                           

                              Drift,  length =    41.50000  cm

 TRAJ 1 IEX,D,Y,T,Z,P,S,time :  1   1.000       0.000       0.000       0.000       0.000           41.500           0.0000    

 Cumulative length of optical axis =   0.415000     m ;   corresponding Time  (for ref. rigidity & particle) =   1.1581E+10 s 

********************************************************************************************************************************
      3  CARTEMES                      

          ++++  CONCORDE ++++                                                             
          concord.map                                                                     


     Champ MIN/MAX CARTE       :  -8.225E+03                   /   8.245E+03
       @  X(CM),  Y(CM), Z(CM) :   48.     -11.      0.0       /   48.      11.      0.0    
     COEFF. DE NORMALISATION   : -9.6136E-04
     Champ MIN/MAX NORMALISE   :   7.91                          -7.93    

     NBRE DE PAS EN X =  39  NBRE DE PAS EN Y =   23
     PAS EN X =   2.000     CM,  PAS EN Y =   1.000     CM

                     OPTION  DE  CALCUL  :25
                     LISSAGE  A  25  POINTS 

                    Integration step :  0.5000     cm


     Element  is  mis-aligned  wrt.  the  optical  axis
          Center  of  entrance  EFB  is  at    X =   0.000     CM   Y =   0.000     cm,  tilt  angle =   0.00000     RAD


 Cumulative length of optical axis =   0.415000     m ;   corresponding Time  (for ref. rigidity & particle) =   1.1581E+10 s 

********************************************************************************************************************************
      4  ESL                           

                              Drift,  length =    21.80000  cm

 TRAJ 1 IEX,D,Y,T,Z,P,S,time :  1   1.000      3.9609E-03  3.5922E-02   0.000       0.000           139.30           0.0000    

 Cumulative length of optical axis =   0.633000     m ;   corresponding Time  (for ref. rigidity & particle) =   1.7664E+10 s 

********************************************************************************************************************************
      5  FAISCEAU                      
0                                             TRACE DU FAISCEAU

                                               11 TRAJECTOIRES

                                   OBJET                                                  FAISCEAU

          D       Y(CM)     T(MR)     Z(CM)     P(MR)    S(CM)          D       Y(CM)     T(MR)     Z(CM)     P(MR)    S(CM)

O   1   1.0000     0.000     0.000     0.000     0.000     0.000        1.0000    0.004    0.036    0.000    0.000    139.300      1
A   1   1.0000     0.150     0.000     0.000     0.000     0.000        1.0000    0.274    2.090    0.000    0.000    139.300      2
B   1   1.0000    -0.150     0.000     0.000     0.000     0.000        1.0000   -0.266   -2.018    0.000    0.000    139.300      3
C   1   1.0000     0.000     1.500     0.000     0.000     0.000        1.0000    0.304    3.152    0.000    0.000    139.300      4
D   1   1.0000     0.000    -1.500     0.000     0.000     0.000        1.0000   -0.296   -3.080    0.000    0.000    139.300      5
E   1   1.0000     0.000     0.000     0.075     0.000     0.000        1.0000    0.004    0.036    0.024   -0.845    139.300      6
F   1   1.0000     0.000     0.000    -0.075     0.000     0.000        1.0000    0.004    0.036   -0.024    0.845    139.300      7
G   1   1.0000     0.000     0.000     0.000     2.250     0.000        1.0000    0.004    0.036    0.194    0.197    139.300      8
H   1   1.0000     0.000     0.000     0.000    -2.250     0.000        1.0000    0.004    0.036   -0.194   -0.197    139.300      9
I   1   1.0010     0.000     0.000     0.000     0.000     0.000        1.0010    0.004    0.036    0.000    0.000    139.300     10
J   1   0.9990     0.000     0.000     0.000     0.000     0.000        0.9990    0.004    0.036    0.000    0.000    139.300     11

********************************************************************************************************************************
      6  CHANGREF                      

 CHANGEMENT  DE  REFERENCE  XC =     0.000 CM , YC =    32.500  CM ,   A =   -35.60000 DEG  (i.e., -0.621337 rad)

 TRAJ 1 IEX,D,Y,T,Z,P,S,time :  1   1.000      -39.97       621.4       0.000       0.000           116.03           0.0000    

********************************************************************************************************************************
      7  CARTEMES                      

          ++++  A1 ++++                                                                   
          a1.map                                                                          


     Champ MIN/MAX CARTE       :   -49.0                       /   1.733E+04
       @  X(CM),  Y(CM), Z(CM) :   24.     -45.      0.0       /  1.24E+02 -15.      0.0    
     COEFF. DE NORMALISATION   :  1.0428E-03
     Champ MIN/MAX NORMALISE   : -5.110E-02                       18.1    

     NBRE DE PAS EN X = 117  NBRE DE PAS EN Y =   52
     PAS EN X =   2.000     CM,  PAS EN Y =   2.000     CM

                     OPTION  DE  CALCUL  :25
                     LISSAGE  A  25  POINTS 

                    Integration step :  0.5000     cm


     Element  is  mis-aligned  wrt.  the  optical  axis
          Center  of  entrance  EFB  is  at    X =   0.000     CM   Y =   0.000     cm,  tilt  angle =   0.00000     RAD


 Cumulative length of optical axis =   0.633000     m ;   corresponding Time  (for ref. rigidity & particle) =   1.7664E+10 s 

********************************************************************************************************************************
      8  CHANGREF                      

 CHANGEMENT  DE  REFERENCE  XC =     0.000 CM , YC =   -28.650  CM ,   A =   -27.61370 DEG  (i.e., -0.481950 rad)

 TRAJ 1 IEX,D,Y,T,Z,P,S,time :  1   1.000       1.423       10.76       0.000       0.000           371.61           0.0000    

********************************************************************************************************************************
      9  FAISCEAU                      
0                                             TRACE DU FAISCEAU

                                               11 TRAJECTOIRES

                                   OBJET                                                  FAISCEAU

          D       Y(CM)     T(MR)     Z(CM)     P(MR)    S(CM)          D       Y(CM)     T(MR)     Z(CM)     P(MR)    S(CM)

O   1   1.0000     0.000     0.000     0.000     0.000     0.000        1.0000    1.423   10.762    0.000    0.000    371.614      1
A   1   1.0000     0.150     0.000     0.000     0.000     0.000        1.0000    1.879   10.467    0.000    0.000    372.104      2
B   1   1.0000    -0.150     0.000     0.000     0.000     0.000        1.0000    0.966   11.051    0.000    0.000    371.124      3
C   1   1.0000     0.000     1.500     0.000     0.000     0.000        1.0000    2.069   10.841    0.000    0.000    372.244      4
D   1   1.0000     0.000    -1.500     0.000     0.000     0.000        1.0000    0.779   10.687    0.000    0.000    370.986      5
E   1   1.0000     0.000     0.000     0.075     0.000     0.000        1.0000    1.423   10.762   -0.167   -0.727    371.614      6
F   1   1.0000     0.000     0.000    -0.075     0.000     0.000        1.0000    1.423   10.762    0.167    0.727    371.614      7
G   1   1.0000     0.000     0.000     0.000     2.250     0.000        1.0000    1.423   10.763    0.162   -0.302    371.614      8
H   1   1.0000     0.000     0.000     0.000    -2.250     0.000        1.0000    1.423   10.763   -0.162    0.302    371.614      9
I   1   1.0010     0.000     0.000     0.000     0.000     0.000        1.0010    1.553   11.740    0.000    0.000    371.643     10
J   1   0.9990     0.000     0.000     0.000     0.000     0.000        0.9990    1.293    9.780    0.000    0.000    371.584     11

********************************************************************************************************************************
     10  ESL                           

                              Drift,  length =    33.15000  cm

 TRAJ 1 IEX,D,Y,T,Z,P,S,time :  1   1.000       1.780       10.76       0.000       0.000           404.77           0.0000    

 Cumulative length of optical axis =   0.964500     m ;   corresponding Time  (for ref. rigidity & particle) =   2.6915E+10 s 

********************************************************************************************************************************
     11  CHANGREF                      

 CHANGEMENT  DE  REFERENCE  XC =     0.000 CM , YC =    27.500  CM ,   A =   -19.88000 DEG  (i.e., -0.346971 rad)

 TRAJ 1 IEX,D,Y,T,Z,P,S,time :  1   1.000      -27.46       357.7       0.000       0.000           395.43           0.0000    

********************************************************************************************************************************
     12  CARTEMES                      

          ++++  A2 ++++                                                                   
          a2.map                                                                          


     Champ MIN/MAX CARTE       :   -66.2                       /   1.684E+04
       @  X(CM),  Y(CM), Z(CM) :  1.70E+02 -58.      0.0       /   76.     -8.0      0.0    
     COEFF. DE NORMALISATION   :  1.0578E-03
     Champ MIN/MAX NORMALISE   : -7.003E-02                       17.8    

     NBRE DE PAS EN X = 132  NBRE DE PAS EN Y =   80
     PAS EN X =   2.000     CM,  PAS EN Y =   2.000     CM

                     OPTION  DE  CALCUL  :25
                     LISSAGE  A  25  POINTS 

                    Integration step :  0.5000     cm


     Element  is  mis-aligned  wrt.  the  optical  axis
          Center  of  entrance  EFB  is  at    X =   0.000     CM   Y =   0.000     cm,  tilt  angle =   0.00000     RAD


 Cumulative length of optical axis =   0.964500     m ;   corresponding Time  (for ref. rigidity & particle) =   2.6915E+10 s 

********************************************************************************************************************************
     13  CHANGREF                      

 CHANGEMENT  DE  REFERENCE  XC =    41.000 CM , YC =   -81.000  CM ,   A =   -21.94500 DEG  (i.e., -0.383013 rad)

 TRAJ 1 IEX,D,Y,T,Z,P,S,time :  1   1.000      0.7124       1.086       0.000       0.000           716.14           0.0000    

********************************************************************************************************************************
     14  FAISCEAU                      
0                                             TRACE DU FAISCEAU

                                               11 TRAJECTOIRES

                                   OBJET                                                  FAISCEAU

          D       Y(CM)     T(MR)     Z(CM)     P(MR)    S(CM)          D       Y(CM)     T(MR)     Z(CM)     P(MR)    S(CM)

O   1   1.0000     0.000     0.000     0.000     0.000     0.000        1.0000    0.712    1.086    0.000    0.000    716.140      1
A   1   1.0000     0.150     0.000     0.000     0.000     0.000        1.0000    0.656   -1.470    0.000    0.000    716.950      2
B   1   1.0000    -0.150     0.000     0.000     0.000     0.000        1.0000    0.765    3.642    0.000    0.000    715.329      3
C   1   1.0000     0.000     1.500     0.000     0.000     0.000        1.0000    0.724   -2.458    0.000    0.000    717.266      4
D   1   1.0000     0.000    -1.500     0.000     0.000     0.000        1.0000    0.699    4.617    0.000    0.000    715.020      5
E   1   1.0000     0.000     0.000     0.075     0.000     0.000        1.0000    0.712    1.086   -0.415   -0.977    716.140      6
F   1   1.0000     0.000     0.000    -0.075     0.000     0.000        1.0000    0.712    1.086    0.415    0.977    716.140      7
G   1   1.0000     0.000     0.000     0.000     2.250     0.000        1.0000    0.712    1.084    0.013   -0.377    716.141      8
H   1   1.0000     0.000     0.000     0.000    -2.250     0.000        1.0000    0.712    1.084   -0.013    0.377    716.141      9
I   1   1.0010     0.000     0.000     0.000     0.000     0.000        1.0010    1.028    1.090    0.000    0.000    716.362     10
J   1   0.9990     0.000     0.000     0.000     0.000     0.000        0.9990    0.392    1.063    0.000    0.000    715.918     11

********************************************************************************************************************************
     15  IMAGES                        

     RECHERCHE DU POINT DE FOCALISATION HORIZONTAL DE 11 TRAJECTOIRES (SUR 11)

     POINT DE FOCALISATION HORIZONTAL SUR L ORBITE MOYENNE    X =    -5.27 CM    Y =     0.71 CM

     DECALAGE DU CENTRE DE GRAVITE EN Y =      0.00 CM

     LARGEUR IMAGE,  A MI-HAUTEUR =    0.322282 CM,  TOTALE =    0.634917 CM
                                      .........                 .........

0                                             TRACE DU FAISCEAU

                                               11 TRAJECTOIRES

                                   OBJET                                                  FAISCEAU

          D       Y(CM)     T(MR)     Z(CM)     P(MR)    S(CM)          D       Y(CM)     T(MR)     Z(CM)     P(MR)    S(CM)

O   1   1.0000     0.000     0.000     0.000     0.000     0.000        1.0000    0.712    1.086    0.000    0.000    716.140      1
A   1   1.0000     0.150     0.000     0.000     0.000     0.000        1.0000    0.656   -1.470    0.000    0.000    716.950      2
B   1   1.0000    -0.150     0.000     0.000     0.000     0.000        1.0000    0.765    3.642    0.000    0.000    715.329      3
C   1   1.0000     0.000     1.500     0.000     0.000     0.000        1.0000    0.724   -2.458    0.000    0.000    717.266      4
D   1   1.0000     0.000    -1.500     0.000     0.000     0.000        1.0000    0.699    4.617    0.000    0.000    715.020      5
E   1   1.0000     0.000     0.000     0.075     0.000     0.000        1.0000    0.712    1.086   -0.415   -0.977    716.140      6
F   1   1.0000     0.000     0.000    -0.075     0.000     0.000        1.0000    0.712    1.086    0.415    0.977    716.140      7
G   1   1.0000     0.000     0.000     0.000     2.250     0.000        1.0000    0.712    1.084    0.013   -0.377    716.141      8
H   1   1.0000     0.000     0.000     0.000    -2.250     0.000        1.0000    0.712    1.084   -0.013    0.377    716.141      9
I   1   1.0010     0.000     0.000     0.000     0.000     0.000        1.0010    1.028    1.090    0.000    0.000    716.362     10
J   1   0.9990     0.000     0.000     0.000     0.000     0.000        0.9990    0.392    1.063    0.000    0.000    715.918     11

********************************************************************************************************************************
     16  MATRIX                        

           Frame for MATRIX calculation moved by :
            XC =    3.487 cm , YC =    0.716 cm ,   A =  0.06222 deg  ( = 0.001086 rad )

  Path length of particle #1 :   719.627     cm


                  TRANSFER  MATRIX  ORDRE  1  (MKSA units)

         -0.423986        3.331297E-06     0.00000         0.00000         0.00000         3.17576    
          -1.70415        -2.35845         0.00000         0.00000         0.00000        1.349580E-02
           0.00000         0.00000        -5.57672        5.119536E-02     0.00000         0.00000    
           0.00000         0.00000        -1.30283       -0.167356         0.00000         0.00000    
           5.40340         7.48868         0.00000         0.00000         1.00000         2.21469    
           0.00000         0.00000         0.00000         0.00000         0.00000         1.00000    

          DetY-1 =      -0.0000439425,    DetZ-1 =      -0.0000012731

          R12=0 at   0.1412E-05 m,        R34=0 at   0.3059     m

      First order sympletic conditions (expected values = 0) :
        -4.3942E-05   -1.2731E-06     0.000         0.000         0.000         0.000    

********************************************************************************************************************************

           MAIN PROGRAM : Execution ended upon key  FIN       

********************************************************************************************************************************

  Zgoubi, version V4.99.
  Job  started  on  NoDate...,  at  NoTime.. 
  Job  ended  on  NoDate...,  at  NoTime.. 

