%!PS-Adobe-2.0 EPSF-2.0
%%Title: toto
%%Titre: toto
%%Creator: Fminigraf Library
%%BoundingBox: 20 40 567 457
%%EndComments
/offx 20 def
/offy 40 def
/lx 595 def
/ly 842 def
/maxx 1023 def
/maxy 779 def
/reduc 0.92 def
/coeff lx maxx div reduc mul def
offx offy translate
coeff coeff scale
1 setlinewidth newpath 0 0 moveto
/Courier-Bold findfont 32 scalefont setfont
/M {moveto} def
/L {lineto} def
/S {stroke} def
/H {show} def
/D {setdash} def
0 0 0 setrgbcolor
[] 0 D
[] 0 D
109 156 M 109 161 L S
109 156 M 109 163 L S
109 735 M 109 740 L S
139 156 M 139 161 L S
139 156 M 139 163 L S
139 735 M 139 740 L S
169 156 M 169 161 L S
169 156 M 169 163 L S
169 735 M 169 740 L S
199 156 M 199 161 L S
199 156 M 199 163 L S
199 735 M 199 740 L S
[2 3] 0 D
230 156 M 230 740 L S
[] 0 D
/Courier-Bold findfont 30 scalefont setfont
224 128 M (2) H
230 156 M 230 166 L S
230 156 M 230 168 L S
230 730 M 230 740 L S
260 156 M 260 161 L S
260 156 M 260 163 L S
260 735 M 260 740 L S
290 156 M 290 161 L S
290 156 M 290 163 L S
290 735 M 290 740 L S
320 156 M 320 161 L S
320 156 M 320 163 L S
320 735 M 320 740 L S
350 156 M 350 161 L S
350 156 M 350 163 L S
350 735 M 350 740 L S
[2 3] 0 D
381 156 M 381 740 L S
[] 0 D
375 128 M (3) H
381 156 M 381 166 L S
381 156 M 381 168 L S
381 730 M 381 740 L S
411 156 M 411 161 L S
411 156 M 411 163 L S
411 735 M 411 740 L S
441 156 M 441 161 L S
441 156 M 441 163 L S
441 735 M 441 740 L S
471 156 M 471 161 L S
471 156 M 471 163 L S
471 735 M 471 740 L S
501 156 M 501 161 L S
501 156 M 501 163 L S
501 735 M 501 740 L S
[2 3] 0 D
532 156 M 532 740 L S
[] 0 D
526 128 M (4) H
532 156 M 532 166 L S
532 156 M 532 168 L S
532 730 M 532 740 L S
562 156 M 562 161 L S
562 156 M 562 163 L S
562 735 M 562 740 L S
592 156 M 592 161 L S
592 156 M 592 163 L S
592 735 M 592 740 L S
622 156 M 622 161 L S
622 156 M 622 163 L S
622 735 M 622 740 L S
652 156 M 652 161 L S
652 156 M 652 163 L S
652 735 M 652 740 L S
[2 3] 0 D
682 156 M 682 740 L S
[] 0 D
676 128 M (5) H
682 156 M 682 166 L S
682 156 M 682 168 L S
682 730 M 682 740 L S
713 156 M 713 161 L S
713 156 M 713 163 L S
713 735 M 713 740 L S
743 156 M 743 161 L S
743 156 M 743 163 L S
743 735 M 743 740 L S
773 156 M 773 161 L S
773 156 M 773 163 L S
773 735 M 773 740 L S
803 156 M 803 161 L S
803 156 M 803 163 L S
803 735 M 803 740 L S
[2 3] 0 D
833 156 M 833 740 L S
[] 0 D
827 128 M (6) H
833 156 M 833 166 L S
833 156 M 833 168 L S
833 730 M 833 740 L S
864 156 M 864 161 L S
864 156 M 864 163 L S
864 735 M 864 740 L S
894 156 M 894 161 L S
894 156 M 894 163 L S
894 735 M 894 740 L S
924 156 M 924 161 L S
924 156 M 924 163 L S
924 735 M 924 740 L S
954 156 M 954 161 L S
954 156 M 954 163 L S
954 735 M 954 740 L S
[2 3] 0 D
102 158 M 972 158 L S
[] 0 D
33 148 M (0.0) H
102 158 M 112 158 L S
962 158 M 972 158 L S
102 174 M 107 174 L S
967 174 M 972 174 L S
102 191 M 107 191 L S
967 191 M 972 191 L S
102 207 M 107 207 L S
967 207 M 972 207 L S
[2 3] 0 D
102 223 M 972 223 L S
[] 0 D
33 213 M (0.2) H
102 223 M 112 223 L S
962 223 M 972 223 L S
102 239 M 107 239 L S
967 239 M 972 239 L S
102 255 M 107 255 L S
967 255 M 972 255 L S
102 271 M 107 271 L S
967 271 M 972 271 L S
[2 3] 0 D
102 288 M 972 288 L S
[] 0 D
33 278 M (0.4) H
102 288 M 112 288 L S
962 288 M 972 288 L S
102 304 M 107 304 L S
967 304 M 972 304 L S
102 320 M 107 320 L S
967 320 M 972 320 L S
102 336 M 107 336 L S
967 336 M 972 336 L S
[2 3] 0 D
102 352 M 972 352 L S
[] 0 D
33 342 M (0.6) H
102 352 M 112 352 L S
962 352 M 972 352 L S
102 369 M 107 369 L S
967 369 M 972 369 L S
102 385 M 107 385 L S
967 385 M 972 385 L S
102 401 M 107 401 L S
967 401 M 972 401 L S
[2 3] 0 D
102 417 M 972 417 L S
[] 0 D
33 407 M (0.8) H
102 417 M 112 417 L S
962 417 M 972 417 L S
102 433 M 107 433 L S
967 433 M 972 433 L S
102 449 M 107 449 L S
967 449 M 972 449 L S
102 466 M 107 466 L S
967 466 M 972 466 L S
[2 3] 0 D
102 482 M 972 482 L S
[] 0 D
39 472 M (1.) H
102 482 M 112 482 L S
962 482 M 972 482 L S
102 498 M 107 498 L S
967 498 M 972 498 L S
102 514 M 107 514 L S
967 514 M 972 514 L S
102 530 M 107 530 L S
967 530 M 972 530 L S
[2 3] 0 D
102 547 M 972 547 L S
[] 0 D
33 537 M (1.2) H
102 547 M 112 547 L S
962 547 M 972 547 L S
102 563 M 107 563 L S
967 563 M 972 563 L S
102 579 M 107 579 L S
967 579 M 972 579 L S
102 595 M 107 595 L S
967 595 M 972 595 L S
[2 3] 0 D
102 611 M 972 611 L S
[] 0 D
33 601 M (1.4) H
102 611 M 112 611 L S
962 611 M 972 611 L S
102 627 M 107 627 L S
967 627 M 972 627 L S
102 644 M 107 644 L S
967 644 M 972 644 L S
102 660 M 107 660 L S
967 660 M 972 660 L S
[2 3] 0 D
102 676 M 972 676 L S
[] 0 D
33 666 M (1.6) H
102 676 M 112 676 L S
962 676 M 972 676 L S
102 692 M 107 692 L S
967 692 M 972 692 L S
102 708 M 107 708 L S
967 708 M 972 708 L S
102 725 M 107 725 L S
967 725 M 972 725 L S
[] 0 D
102 156 M 972 156 L S
972 156 M 972 740 L S
972 740 M 102 740 L S
102 740 M 102 156 L S
102 158 M 972 158 L S
[] 0 D
103 157 M 103 157 L S
103 157 M 103 157 L S
103 157 M 105 157 L S
105 157 M 107 157 L S
107 157 M 110 157 L S
110 157 M 112 157 L S
112 157 M 114 158 L S
114 158 M 116 158 L S
116 158 M 119 159 L S
119 159 M 121 161 L S
121 161 M 123 162 L S
123 162 M 125 165 L S
125 165 M 128 168 L S
128 168 M 130 172 L S
130 172 M 132 176 L S
132 176 M 135 181 L S
135 181 M 137 187 L S
137 187 M 139 194 L S
139 194 M 141 202 L S
141 202 M 144 210 L S
144 210 M 146 219 L S
146 219 M 148 230 L S
148 230 M 150 241 L S
150 241 M 153 253 L S
153 253 M 155 266 L S
155 266 M 157 280 L S
157 280 M 159 294 L S
159 294 M 162 307 L S
162 307 M 164 321 L S
164 321 M 166 334 L S
166 334 M 168 347 L S
168 347 M 171 359 L S
171 359 M 173 371 L S
173 371 M 175 382 L S
175 382 M 178 394 L S
178 394 M 180 406 L S
180 406 M 182 419 L S
182 419 M 184 432 L S
184 432 M 187 447 L S
187 447 M 189 462 L S
189 462 M 191 480 L S
191 480 M 193 499 L S
193 499 M 196 520 L S
196 520 M 198 543 L S
198 543 M 200 568 L S
200 568 M 202 593 L S
202 593 M 205 619 L S
205 619 M 207 645 L S
207 645 M 209 668 L S
209 668 M 212 687 L S
212 687 M 214 702 L S
214 702 M 216 714 L S
216 714 M 218 721 L S
218 721 M 221 726 L S
221 726 M 223 729 L S
223 729 M 225 730 L S
225 730 M 227 731 L S
227 731 M 230 732 L S
230 732 M 232 733 L S
232 733 M 234 733 L S
234 733 M 236 733 L S
236 733 M 239 734 L S
239 734 M 241 734 L S
241 734 M 243 734 L S
243 734 M 245 734 L S
245 734 M 248 734 L S
248 734 M 250 734 L S
250 734 M 252 735 L S
252 735 M 255 735 L S
255 735 M 257 735 L S
257 735 M 259 735 L S
259 735 M 261 736 L S
261 736 M 264 736 L S
264 736 M 266 737 L S
266 737 M 268 738 L S
268 738 M 270 739 L S
270 739 M 273 739 L S
273 739 M 275 740 L S
275 740 M 277 740 L S
277 740 M 279 739 L S
279 739 M 282 739 L S
282 739 M 284 738 L S
284 738 M 286 737 L S
286 737 M 289 737 L S
289 737 M 291 736 L S
291 736 M 293 736 L S
293 736 M 295 736 L S
295 736 M 298 735 L S
298 735 M 300 735 L S
300 735 M 302 735 L S
302 735 M 304 735 L S
304 735 M 307 735 L S
307 735 M 309 735 L S
309 735 M 311 735 L S
311 735 M 313 735 L S
313 735 M 316 735 L S
316 735 M 318 735 L S
318 735 M 320 735 L S
320 735 M 322 735 L S
322 735 M 325 735 L S
325 735 M 327 735 L S
327 735 M 329 735 L S
329 735 M 332 735 L S
332 735 M 334 735 L S
334 735 M 336 735 L S
336 735 M 338 735 L S
338 735 M 341 735 L S
341 735 M 343 734 L S
343 734 M 345 734 L S
345 734 M 347 734 L S
347 734 M 350 734 L S
350 734 M 352 734 L S
352 734 M 354 733 L S
354 733 M 356 732 L S
356 732 M 359 731 L S
359 731 M 361 730 L S
361 730 M 363 727 L S
363 727 M 366 724 L S
366 724 M 368 719 L S
368 719 M 370 711 L S
370 711 M 372 701 L S
372 701 M 375 687 L S
375 687 M 377 670 L S
377 670 M 379 649 L S
379 649 M 381 626 L S
381 626 M 384 600 L S
384 600 M 386 573 L S
386 573 M 388 545 L S
388 545 M 390 517 L S
390 517 M 393 489 L S
393 489 M 395 461 L S
395 461 M 397 434 L S
397 434 M 399 408 L S
399 408 M 402 383 L S
402 383 M 404 359 L S
404 359 M 406 336 L S
406 336 M 409 314 L S
409 314 M 411 293 L S
411 293 M 413 273 L S
413 273 M 415 255 L S
415 255 M 418 238 L S
418 238 M 420 222 L S
420 222 M 422 209 L S
422 209 M 424 197 L S
424 197 M 427 188 L S
427 188 M 429 180 L S
429 180 M 431 174 L S
431 174 M 433 169 L S
433 169 M 436 166 L S
436 166 M 438 163 L S
438 163 M 440 162 L S
440 162 M 443 160 L S
443 160 M 445 159 L S
445 159 M 447 159 L S
447 159 M 449 158 L S
449 158 M 452 158 L S
452 158 M 454 158 L S
454 158 M 456 158 L S
456 158 M 458 158 L S
458 158 M 461 158 L S
461 158 M 463 158 L S
463 158 M 465 158 L S
465 158 M 467 158 L S
467 158 M 470 158 L S
470 158 M 472 158 L S
472 158 M 474 158 L S
474 158 M 476 158 L S
476 158 M 479 158 L S
479 158 M 481 158 L S
481 158 M 483 158 L S
483 158 M 486 158 L S
486 158 M 488 158 L S
103 157 M 103 157 L S
103 157 M 103 157 L S
103 157 M 105 157 L S
105 157 M 107 157 L S
107 157 M 110 157 L S
110 157 M 112 157 L S
112 157 M 114 158 L S
114 158 M 116 158 L S
116 158 M 119 159 L S
119 159 M 121 161 L S
121 161 M 123 162 L S
123 162 M 125 165 L S
125 165 M 128 168 L S
128 168 M 130 172 L S
130 172 M 132 176 L S
132 176 M 135 181 L S
135 181 M 137 187 L S
137 187 M 139 194 L S
139 194 M 141 202 L S
141 202 M 144 210 L S
144 210 M 146 219 L S
146 219 M 148 230 L S
148 230 M 150 241 L S
150 241 M 153 253 L S
153 253 M 155 266 L S
155 266 M 157 280 L S
157 280 M 159 294 L S
159 294 M 162 307 L S
162 307 M 164 321 L S
164 321 M 166 334 L S
166 334 M 168 347 L S
168 347 M 171 359 L S
171 359 M 173 371 L S
173 371 M 175 382 L S
175 382 M 178 394 L S
178 394 M 180 406 L S
180 406 M 182 419 L S
182 419 M 184 432 L S
184 432 M 187 447 L S
187 447 M 189 462 L S
189 462 M 191 480 L S
191 480 M 193 499 L S
193 499 M 196 520 L S
196 520 M 198 543 L S
198 543 M 200 568 L S
200 568 M 202 593 L S
202 593 M 205 619 L S
205 619 M 207 645 L S
207 645 M 209 668 L S
209 668 M 212 687 L S
212 687 M 214 702 L S
214 702 M 216 714 L S
216 714 M 218 721 L S
218 721 M 221 726 L S
221 726 M 223 729 L S
223 729 M 225 730 L S
225 730 M 227 731 L S
227 731 M 230 732 L S
230 732 M 232 733 L S
232 733 M 234 733 L S
234 733 M 236 733 L S
236 733 M 239 734 L S
239 734 M 241 734 L S
241 734 M 243 734 L S
243 734 M 245 734 L S
245 734 M 248 734 L S
248 734 M 250 734 L S
250 734 M 252 735 L S
252 735 M 255 735 L S
255 735 M 257 735 L S
257 735 M 259 735 L S
259 735 M 261 736 L S
261 736 M 264 736 L S
264 736 M 266 737 L S
266 737 M 268 738 L S
268 738 M 270 739 L S
270 739 M 273 739 L S
273 739 M 275 740 L S
275 740 M 277 740 L S
277 740 M 279 739 L S
279 739 M 282 739 L S
282 739 M 284 738 L S
284 738 M 286 737 L S
286 737 M 289 737 L S
289 737 M 291 736 L S
291 736 M 293 736 L S
293 736 M 295 736 L S
295 736 M 298 735 L S
298 735 M 300 735 L S
300 735 M 302 735 L S
302 735 M 304 735 L S
304 735 M 307 735 L S
307 735 M 309 735 L S
309 735 M 311 735 L S
311 735 M 313 735 L S
313 735 M 316 735 L S
316 735 M 318 735 L S
318 735 M 320 735 L S
320 735 M 322 735 L S
322 735 M 325 735 L S
325 735 M 327 735 L S
327 735 M 329 735 L S
329 735 M 332 735 L S
332 735 M 334 735 L S
334 735 M 336 735 L S
336 735 M 338 735 L S
338 735 M 341 735 L S
341 735 M 343 734 L S
343 734 M 345 734 L S
345 734 M 347 734 L S
347 734 M 350 734 L S
350 734 M 352 734 L S
352 734 M 354 733 L S
354 733 M 356 732 L S
356 732 M 359 731 L S
359 731 M 361 730 L S
361 730 M 363 727 L S
363 727 M 366 724 L S
366 724 M 368 719 L S
368 719 M 370 711 L S
370 711 M 372 701 L S
372 701 M 375 687 L S
375 687 M 377 670 L S
377 670 M 379 649 L S
379 649 M 381 626 L S
381 626 M 384 600 L S
384 600 M 386 573 L S
386 573 M 388 545 L S
388 545 M 390 517 L S
390 517 M 393 489 L S
393 489 M 395 461 L S
395 461 M 397 434 L S
397 434 M 399 408 L S
399 408 M 402 383 L S
402 383 M 404 359 L S
404 359 M 406 336 L S
406 336 M 409 314 L S
409 314 M 411 293 L S
411 293 M 413 273 L S
413 273 M 415 255 L S
415 255 M 418 238 L S
418 238 M 420 222 L S
420 222 M 422 209 L S
422 209 M 424 197 L S
424 197 M 427 188 L S
427 188 M 429 180 L S
429 180 M 431 174 L S
431 174 M 433 169 L S
433 169 M 436 166 L S
436 166 M 438 163 L S
438 163 M 440 162 L S
440 162 M 443 160 L S
443 160 M 445 159 L S
445 159 M 447 159 L S
447 159 M 449 158 L S
449 158 M 452 158 L S
452 158 M 454 158 L S
454 158 M 456 158 L S
456 158 M 458 158 L S
458 158 M 461 158 L S
461 158 M 463 158 L S
463 158 M 465 158 L S
465 158 M 467 158 L S
467 158 M 470 158 L S
470 158 M 472 158 L S
472 158 M 474 158 L S
474 158 M 476 158 L S
476 158 M 479 158 L S
479 158 M 481 158 L S
481 158 M 483 158 L S
483 158 M 486 158 L S
486 158 M 488 158 L S
103 157 M 103 157 L S
103 157 M 103 157 L S
103 157 M 105 157 L S
105 157 M 107 157 L S
107 157 M 110 157 L S
110 157 M 112 157 L S
112 157 M 114 158 L S
114 158 M 116 158 L S
116 158 M 119 159 L S
119 159 M 121 161 L S
121 161 M 123 162 L S
123 162 M 125 165 L S
125 165 M 128 168 L S
128 168 M 130 172 L S
130 172 M 132 176 L S
132 176 M 135 181 L S
135 181 M 137 187 L S
137 187 M 139 194 L S
139 194 M 141 202 L S
141 202 M 144 210 L S
144 210 M 146 219 L S
146 219 M 148 230 L S
148 230 M 150 241 L S
150 241 M 153 253 L S
153 253 M 155 266 L S
155 266 M 157 280 L S
157 280 M 159 294 L S
159 294 M 162 307 L S
162 307 M 164 321 L S
164 321 M 166 334 L S
166 334 M 168 347 L S
168 347 M 171 359 L S
171 359 M 173 371 L S
173 371 M 175 382 L S
175 382 M 178 394 L S
178 394 M 180 406 L S
180 406 M 182 419 L S
182 419 M 184 432 L S
184 432 M 187 447 L S
187 447 M 189 462 L S
189 462 M 191 480 L S
191 480 M 193 499 L S
193 499 M 196 520 L S
196 520 M 198 543 L S
198 543 M 200 568 L S
200 568 M 202 593 L S
202 593 M 205 619 L S
205 619 M 207 645 L S
207 645 M 209 668 L S
209 668 M 212 687 L S
212 687 M 214 702 L S
214 702 M 216 714 L S
216 714 M 218 721 L S
218 721 M 221 726 L S
221 726 M 223 729 L S
223 729 M 225 730 L S
225 730 M 227 731 L S
227 731 M 230 732 L S
230 732 M 232 733 L S
232 733 M 234 733 L S
234 733 M 236 733 L S
236 733 M 239 734 L S
239 734 M 241 734 L S
241 734 M 243 734 L S
243 734 M 245 734 L S
245 734 M 248 734 L S
248 734 M 250 734 L S
250 734 M 252 735 L S
252 735 M 255 735 L S
255 735 M 257 735 L S
257 735 M 259 735 L S
259 735 M 261 736 L S
261 736 M 264 736 L S
264 736 M 266 737 L S
266 737 M 268 738 L S
268 738 M 270 739 L S
270 739 M 273 739 L S
273 739 M 275 740 L S
275 740 M 277 740 L S
277 740 M 279 739 L S
279 739 M 282 739 L S
282 739 M 284 738 L S
284 738 M 286 737 L S
286 737 M 289 737 L S
289 737 M 291 736 L S
291 736 M 293 736 L S
293 736 M 295 736 L S
295 736 M 298 735 L S
298 735 M 300 735 L S
300 735 M 302 735 L S
302 735 M 304 735 L S
304 735 M 307 735 L S
307 735 M 309 735 L S
309 735 M 311 735 L S
311 735 M 313 735 L S
313 735 M 316 735 L S
316 735 M 318 735 L S
318 735 M 320 735 L S
320 735 M 322 735 L S
322 735 M 325 735 L S
325 735 M 327 735 L S
327 735 M 329 735 L S
329 735 M 332 735 L S
332 735 M 334 735 L S
334 735 M 336 735 L S
336 735 M 338 735 L S
338 735 M 341 735 L S
341 735 M 343 734 L S
343 734 M 345 734 L S
345 734 M 347 734 L S
347 734 M 350 734 L S
350 734 M 352 734 L S
352 734 M 354 733 L S
354 733 M 356 732 L S
356 732 M 359 731 L S
359 731 M 361 730 L S
361 730 M 363 727 L S
363 727 M 366 724 L S
366 724 M 368 719 L S
368 719 M 370 711 L S
370 711 M 372 701 L S
372 701 M 375 687 L S
375 687 M 377 670 L S
377 670 M 379 649 L S
379 649 M 381 626 L S
381 626 M 384 600 L S
384 600 M 386 573 L S
386 573 M 388 545 L S
388 545 M 390 517 L S
390 517 M 393 489 L S
393 489 M 395 461 L S
395 461 M 397 434 L S
397 434 M 399 408 L S
399 408 M 402 383 L S
402 383 M 404 359 L S
404 359 M 406 336 L S
406 336 M 409 314 L S
409 314 M 411 293 L S
411 293 M 413 273 L S
413 273 M 415 255 L S
415 255 M 418 238 L S
418 238 M 420 222 L S
420 222 M 422 209 L S
422 209 M 424 197 L S
424 197 M 427 188 L S
427 188 M 429 180 L S
429 180 M 431 174 L S
431 174 M 433 169 L S
433 169 M 436 166 L S
436 166 M 438 163 L S
438 163 M 440 162 L S
440 162 M 443 160 L S
443 160 M 445 159 L S
445 159 M 447 159 L S
447 159 M 449 158 L S
449 158 M 452 158 L S
452 158 M 454 158 L S
454 158 M 456 158 L S
456 158 M 458 158 L S
458 158 M 461 158 L S
461 158 M 463 158 L S
463 158 M 465 158 L S
465 158 M 467 158 L S
467 158 M 470 158 L S
470 158 M 472 158 L S
472 158 M 474 158 L S
474 158 M 476 158 L S
476 158 M 479 158 L S
479 158 M 481 158 L S
481 158 M 483 158 L S
483 158 M 486 158 L S
486 158 M 488 158 L S
103 157 M 103 157 L S
103 157 M 103 157 L S
103 157 M 106 157 L S
106 157 M 108 157 L S
108 157 M 110 157 L S
110 157 M 112 158 L S
112 158 M 115 158 L S
115 158 M 117 159 L S
117 159 M 119 161 L S
119 161 M 121 162 L S
121 162 M 124 165 L S
124 165 M 126 168 L S
126 168 M 128 172 L S
128 172 M 131 176 L S
131 176 M 133 181 L S
133 181 M 135 187 L S
135 187 M 137 194 L S
137 194 M 140 202 L S
140 202 M 142 210 L S
142 210 M 144 219 L S
144 219 M 146 230 L S
146 230 M 149 241 L S
149 241 M 151 253 L S
151 253 M 153 266 L S
153 266 M 155 280 L S
155 280 M 158 294 L S
158 294 M 160 307 L S
160 307 M 162 321 L S
162 321 M 164 334 L S
164 334 M 167 346 L S
167 346 M 169 359 L S
169 359 M 171 371 L S
171 371 M 174 382 L S
174 382 M 176 394 L S
176 394 M 178 406 L S
178 406 M 180 419 L S
180 419 M 183 432 L S
183 432 M 185 446 L S
185 446 M 187 462 L S
187 462 M 189 479 L S
189 479 M 192 498 L S
192 498 M 194 519 L S
194 519 M 196 542 L S
196 542 M 198 567 L S
198 567 M 201 592 L S
201 592 M 203 618 L S
203 618 M 205 644 L S
205 644 M 208 667 L S
208 667 M 210 687 L S
210 687 M 212 702 L S
212 702 M 214 713 L S
214 713 M 217 720 L S
217 720 M 219 725 L S
219 725 M 221 729 L S
221 729 M 223 730 L S
223 730 M 226 731 L S
226 731 M 228 732 L S
228 732 M 230 733 L S
230 733 M 232 733 L S
232 733 M 235 733 L S
235 733 M 237 734 L S
237 734 M 239 734 L S
239 734 M 241 734 L S
241 734 M 244 734 L S
244 734 M 246 734 L S
246 734 M 248 734 L S
248 734 M 251 734 L S
251 734 M 253 735 L S
253 735 M 255 735 L S
255 735 M 257 735 L S
257 735 M 260 735 L S
260 735 M 262 736 L S
262 736 M 264 736 L S
264 736 M 266 737 L S
266 737 M 269 738 L S
269 738 M 271 739 L S
271 739 M 273 739 L S
273 739 M 275 740 L S
275 740 M 278 740 L S
278 740 M 280 739 L S
280 739 M 282 738 L S
282 738 M 285 738 L S
285 738 M 287 737 L S
287 737 M 289 736 L S
289 736 M 291 736 L S
291 736 M 294 736 L S
294 736 M 296 735 L S
296 735 M 298 735 L S
298 735 M 300 735 L S
300 735 M 303 735 L S
303 735 M 305 735 L S
305 735 M 307 735 L S
307 735 M 309 735 L S
309 735 M 312 735 L S
312 735 M 314 735 L S
314 735 M 316 735 L S
316 735 M 318 735 L S
318 735 M 321 735 L S
321 735 M 323 735 L S
323 735 M 325 735 L S
325 735 M 328 735 L S
328 735 M 330 735 L S
330 735 M 332 735 L S
332 735 M 334 734 L S
334 734 M 337 734 L S
337 734 M 339 734 L S
339 734 M 341 734 L S
341 734 M 343 734 L S
343 734 M 346 734 L S
346 734 M 348 734 L S
348 734 M 350 734 L S
350 734 M 352 733 L S
352 733 M 355 733 L S
355 733 M 357 733 L S
357 733 M 359 732 L S
359 732 M 362 731 L S
362 731 M 364 729 L S
364 729 M 366 727 L S
366 727 M 368 723 L S
368 723 M 371 717 L S
371 717 M 373 709 L S
373 709 M 375 699 L S
375 699 M 377 684 L S
377 684 M 380 666 L S
380 666 M 382 645 L S
382 645 M 384 621 L S
384 621 M 386 595 L S
386 595 M 389 568 L S
389 568 M 391 540 L S
391 540 M 393 511 L S
393 511 M 395 483 L S
395 483 M 398 455 L S
398 455 M 400 428 L S
400 428 M 402 403 L S
402 403 M 405 378 L S
405 378 M 407 354 L S
407 354 M 409 331 L S
409 331 M 411 309 L S
411 309 M 414 288 L S
414 288 M 416 268 L S
416 268 M 418 250 L S
418 250 M 420 233 L S
420 233 M 423 218 L S
423 218 M 425 205 L S
425 205 M 427 194 L S
427 194 M 429 185 L S
429 185 M 432 178 L S
432 178 M 434 172 L S
434 172 M 436 168 L S
436 168 M 438 165 L S
438 165 M 441 163 L S
441 163 M 443 161 L S
443 161 M 445 160 L S
445 160 M 448 159 L S
448 159 M 450 159 L S
450 159 M 452 158 L S
452 158 M 454 158 L S
454 158 M 457 158 L S
457 158 M 459 158 L S
459 158 M 461 158 L S
461 158 M 463 158 L S
463 158 M 466 158 L S
466 158 M 468 158 L S
468 158 M 470 158 L S
470 158 M 472 158 L S
472 158 M 475 158 L S
475 158 M 477 158 L S
477 158 M 479 158 L S
103 157 M 103 157 L S
103 157 M 103 157 L S
103 157 M 106 157 L S
106 157 M 108 157 L S
108 157 M 110 157 L S
110 157 M 112 158 L S
112 158 M 115 158 L S
115 158 M 117 159 L S
117 159 M 119 161 L S
119 161 M 121 162 L S
121 162 M 124 165 L S
124 165 M 126 168 L S
126 168 M 128 172 L S
128 172 M 131 176 L S
131 176 M 133 181 L S
133 181 M 135 187 L S
135 187 M 137 194 L S
137 194 M 140 202 L S
140 202 M 142 210 L S
142 210 M 144 219 L S
144 219 M 146 230 L S
146 230 M 149 241 L S
149 241 M 151 253 L S
151 253 M 153 266 L S
153 266 M 155 280 L S
155 280 M 158 294 L S
158 294 M 160 307 L S
160 307 M 162 321 L S
162 321 M 164 334 L S
164 334 M 167 346 L S
167 346 M 169 359 L S
169 359 M 171 371 L S
171 371 M 174 382 L S
174 382 M 176 394 L S
176 394 M 178 406 L S
178 406 M 180 419 L S
180 419 M 183 432 L S
183 432 M 185 446 L S
185 446 M 187 462 L S
187 462 M 189 479 L S
189 479 M 192 498 L S
192 498 M 194 519 L S
194 519 M 196 542 L S
196 542 M 198 567 L S
198 567 M 201 592 L S
201 592 M 203 618 L S
203 618 M 205 644 L S
205 644 M 208 667 L S
208 667 M 210 687 L S
210 687 M 212 702 L S
212 702 M 214 713 L S
214 713 M 217 720 L S
217 720 M 219 725 L S
219 725 M 221 729 L S
221 729 M 223 730 L S
223 730 M 226 731 L S
226 731 M 228 732 L S
228 732 M 230 733 L S
230 733 M 232 733 L S
232 733 M 235 733 L S
235 733 M 237 734 L S
237 734 M 239 734 L S
239 734 M 241 734 L S
241 734 M 244 734 L S
244 734 M 246 734 L S
246 734 M 248 734 L S
248 734 M 251 734 L S
251 734 M 253 735 L S
253 735 M 255 735 L S
255 735 M 257 735 L S
257 735 M 260 735 L S
260 735 M 262 736 L S
262 736 M 264 736 L S
264 736 M 266 737 L S
266 737 M 269 738 L S
269 738 M 271 739 L S
271 739 M 273 739 L S
273 739 M 275 740 L S
275 740 M 278 740 L S
278 740 M 280 739 L S
280 739 M 282 738 L S
282 738 M 285 738 L S
285 738 M 287 737 L S
287 737 M 289 736 L S
289 736 M 291 736 L S
291 736 M 294 736 L S
294 736 M 296 735 L S
296 735 M 298 735 L S
298 735 M 300 735 L S
300 735 M 303 735 L S
303 735 M 305 735 L S
305 735 M 307 735 L S
307 735 M 309 735 L S
309 735 M 312 735 L S
312 735 M 314 735 L S
314 735 M 316 735 L S
316 735 M 318 735 L S
318 735 M 321 735 L S
321 735 M 323 735 L S
323 735 M 325 735 L S
325 735 M 328 735 L S
328 735 M 330 735 L S
330 735 M 332 735 L S
332 735 M 334 734 L S
334 734 M 337 734 L S
337 734 M 339 734 L S
339 734 M 341 734 L S
341 734 M 343 734 L S
343 734 M 346 734 L S
346 734 M 348 734 L S
348 734 M 350 734 L S
350 734 M 352 733 L S
352 733 M 355 733 L S
355 733 M 357 733 L S
357 733 M 359 732 L S
359 732 M 362 731 L S
362 731 M 364 729 L S
364 729 M 366 727 L S
366 727 M 368 723 L S
368 723 M 371 717 L S
371 717 M 373 709 L S
373 709 M 375 699 L S
375 699 M 377 684 L S
377 684 M 380 666 L S
380 666 M 382 645 L S
382 645 M 384 621 L S
384 621 M 386 595 L S
386 595 M 389 568 L S
389 568 M 391 540 L S
391 540 M 393 511 L S
393 511 M 395 483 L S
395 483 M 398 455 L S
398 455 M 400 428 L S
400 428 M 402 403 L S
402 403 M 405 378 L S
405 378 M 407 354 L S
407 354 M 409 331 L S
409 331 M 411 309 L S
411 309 M 414 288 L S
414 288 M 416 268 L S
416 268 M 418 250 L S
418 250 M 420 233 L S
420 233 M 423 218 L S
423 218 M 425 205 L S
425 205 M 427 194 L S
427 194 M 429 185 L S
429 185 M 432 178 L S
432 178 M 434 172 L S
434 172 M 436 168 L S
436 168 M 438 165 L S
438 165 M 441 163 L S
441 163 M 443 161 L S
443 161 M 445 160 L S
445 160 M 448 159 L S
448 159 M 450 159 L S
450 159 M 452 158 L S
452 158 M 454 158 L S
454 158 M 457 158 L S
457 158 M 459 158 L S
459 158 M 461 158 L S
461 158 M 463 158 L S
463 158 M 466 158 L S
466 158 M 468 158 L S
468 158 M 470 158 L S
470 158 M 472 158 L S
472 158 M 475 158 L S
475 158 M 477 158 L S
477 158 M 479 158 L S
103 157 M 103 157 L S
103 157 M 103 157 L S
103 157 M 106 157 L S
106 157 M 108 157 L S
108 157 M 110 157 L S
110 157 M 112 158 L S
112 158 M 115 158 L S
115 158 M 117 159 L S
117 159 M 119 161 L S
119 161 M 121 162 L S
121 162 M 124 165 L S
124 165 M 126 168 L S
126 168 M 128 172 L S
128 172 M 131 176 L S
131 176 M 133 181 L S
133 181 M 135 187 L S
135 187 M 137 194 L S
137 194 M 140 202 L S
140 202 M 142 210 L S
142 210 M 144 219 L S
144 219 M 146 230 L S
146 230 M 149 241 L S
149 241 M 151 253 L S
151 253 M 153 266 L S
153 266 M 155 280 L S
155 280 M 158 294 L S
158 294 M 160 307 L S
160 307 M 162 321 L S
162 321 M 164 334 L S
164 334 M 167 346 L S
167 346 M 169 359 L S
169 359 M 171 371 L S
171 371 M 174 382 L S
174 382 M 176 394 L S
176 394 M 178 406 L S
178 406 M 180 419 L S
180 419 M 183 432 L S
183 432 M 185 446 L S
185 446 M 187 462 L S
187 462 M 189 479 L S
189 479 M 192 498 L S
192 498 M 194 519 L S
194 519 M 196 542 L S
196 542 M 198 567 L S
198 567 M 201 592 L S
201 592 M 203 618 L S
203 618 M 205 644 L S
205 644 M 208 667 L S
208 667 M 210 687 L S
210 687 M 212 702 L S
212 702 M 214 713 L S
214 713 M 217 720 L S
217 720 M 219 725 L S
219 725 M 221 729 L S
221 729 M 223 730 L S
223 730 M 226 731 L S
226 731 M 228 732 L S
228 732 M 230 733 L S
230 733 M 232 733 L S
232 733 M 235 733 L S
235 733 M 237 734 L S
237 734 M 239 734 L S
239 734 M 241 734 L S
241 734 M 244 734 L S
244 734 M 246 734 L S
246 734 M 248 734 L S
248 734 M 251 734 L S
251 734 M 253 735 L S
253 735 M 255 735 L S
255 735 M 257 735 L S
257 735 M 260 735 L S
260 735 M 262 736 L S
262 736 M 264 736 L S
264 736 M 266 737 L S
266 737 M 269 738 L S
269 738 M 271 739 L S
271 739 M 273 739 L S
273 739 M 275 740 L S
275 740 M 278 740 L S
278 740 M 280 739 L S
280 739 M 282 738 L S
282 738 M 285 738 L S
285 738 M 287 737 L S
287 737 M 289 736 L S
289 736 M 291 736 L S
291 736 M 294 736 L S
294 736 M 296 735 L S
296 735 M 298 735 L S
298 735 M 300 735 L S
300 735 M 303 735 L S
303 735 M 305 735 L S
305 735 M 307 735 L S
307 735 M 309 735 L S
309 735 M 312 735 L S
312 735 M 314 735 L S
314 735 M 316 735 L S
316 735 M 318 735 L S
318 735 M 321 735 L S
321 735 M 323 735 L S
323 735 M 325 735 L S
325 735 M 328 735 L S
328 735 M 330 735 L S
330 735 M 332 735 L S
332 735 M 334 734 L S
334 734 M 337 734 L S
337 734 M 339 734 L S
339 734 M 341 734 L S
341 734 M 343 734 L S
343 734 M 346 734 L S
346 734 M 348 734 L S
348 734 M 350 734 L S
350 734 M 352 733 L S
352 733 M 355 733 L S
355 733 M 357 733 L S
357 733 M 359 732 L S
359 732 M 362 731 L S
362 731 M 364 729 L S
364 729 M 366 727 L S
366 727 M 368 723 L S
368 723 M 371 717 L S
371 717 M 373 709 L S
373 709 M 375 699 L S
375 699 M 377 684 L S
377 684 M 380 666 L S
380 666 M 382 645 L S
382 645 M 384 621 L S
384 621 M 386 595 L S
386 595 M 389 568 L S
389 568 M 391 540 L S
391 540 M 393 511 L S
393 511 M 395 483 L S
395 483 M 398 455 L S
398 455 M 400 428 L S
400 428 M 402 403 L S
402 403 M 405 378 L S
405 378 M 407 354 L S
407 354 M 409 331 L S
409 331 M 411 309 L S
411 309 M 414 288 L S
414 288 M 416 268 L S
416 268 M 418 250 L S
418 250 M 420 233 L S
420 233 M 423 218 L S
423 218 M 425 205 L S
425 205 M 427 194 L S
427 194 M 429 185 L S
429 185 M 432 178 L S
432 178 M 434 172 L S
434 172 M 436 168 L S
436 168 M 438 165 L S
438 165 M 441 163 L S
441 163 M 443 161 L S
443 161 M 445 160 L S
445 160 M 448 159 L S
448 159 M 450 159 L S
450 159 M 452 158 L S
452 158 M 454 158 L S
454 158 M 457 158 L S
457 158 M 459 158 L S
459 158 M 461 158 L S
461 158 M 463 158 L S
463 158 M 466 158 L S
466 158 M 468 158 L S
468 158 M 470 158 L S
470 158 M 472 158 L S
472 158 M 475 158 L S
475 158 M 477 158 L S
477 158 M 479 158 L S
105 157 M 105 157 L S
105 157 M 105 157 L S
105 157 M 107 157 L S
107 157 M 109 157 L S
109 157 M 111 157 L S
111 157 M 114 157 L S
114 157 M 116 158 L S
116 158 M 118 158 L S
118 158 M 120 159 L S
120 159 M 123 161 L S
123 161 M 125 162 L S
125 162 M 127 165 L S
127 165 M 129 168 L S
129 168 M 132 172 L S
132 172 M 134 176 L S
134 176 M 136 181 L S
136 181 M 139 187 L S
139 187 M 141 194 L S
141 194 M 143 202 L S
143 202 M 145 210 L S
145 210 M 148 219 L S
148 219 M 150 230 L S
150 230 M 152 241 L S
152 241 M 154 253 L S
154 253 M 157 266 L S
157 266 M 159 280 L S
159 280 M 161 294 L S
161 294 M 163 307 L S
163 307 M 166 321 L S
166 321 M 168 334 L S
168 334 M 170 347 L S
170 347 M 172 359 L S
172 359 M 175 371 L S
175 371 M 177 383 L S
177 383 M 179 395 L S
179 395 M 182 407 L S
182 407 M 184 419 L S
184 419 M 186 433 L S
186 433 M 188 447 L S
188 447 M 191 463 L S
191 463 M 193 480 L S
193 480 M 195 499 L S
195 499 M 197 521 L S
197 521 M 200 544 L S
200 544 M 202 569 L S
202 569 M 204 594 L S
204 594 M 206 621 L S
206 621 M 209 646 L S
209 646 M 211 669 L S
211 669 M 213 688 L S
213 688 M 216 703 L S
216 703 M 218 714 L S
218 714 M 220 721 L S
220 721 M 222 726 L S
222 726 M 225 729 L S
225 729 M 227 731 L S
227 731 M 229 732 L S
229 732 M 231 732 L S
231 732 M 234 733 L S
234 733 M 236 733 L S
236 733 M 238 733 L S
238 733 M 240 734 L S
240 734 M 243 734 L S
243 734 M 245 734 L S
245 734 M 247 734 L S
247 734 M 249 734 L S
249 734 M 252 735 L S
252 735 M 254 735 L S
254 735 M 256 735 L S
256 735 M 259 735 L S
259 735 M 261 736 L S
261 736 M 263 736 L S
263 736 M 265 737 L S
265 737 M 268 738 L S
268 738 M 270 738 L S
270 738 M 272 739 L S
272 739 M 274 740 L S
274 740 M 277 740 L S
277 740 M 279 740 L S
279 740 M 281 739 L S
281 739 M 283 738 L S
283 738 M 286 738 L S
286 738 M 288 737 L S
288 737 M 290 736 L S
290 736 M 293 736 L S
293 736 M 295 736 L S
295 736 M 297 736 L S
297 736 M 299 736 L S
299 736 M 302 735 L S
302 735 M 304 735 L S
304 735 M 306 735 L S
306 735 M 308 735 L S
308 735 M 311 735 L S
311 735 M 313 735 L S
313 735 M 315 735 L S
315 735 M 317 735 L S
317 735 M 320 735 L S
320 735 M 322 735 L S
322 735 M 324 735 L S
324 735 M 326 735 L S
326 735 M 329 735 L S
329 735 M 331 735 L S
331 735 M 333 735 L S
333 735 M 336 735 L S
336 735 M 338 735 L S
338 735 M 340 735 L S
340 735 M 342 735 L S
342 735 M 345 734 L S
345 734 M 347 734 L S
347 734 M 349 734 L S
349 734 M 351 733 L S
351 733 M 354 732 L S
354 732 M 356 731 L S
356 731 M 358 729 L S
358 729 M 360 726 L S
360 726 M 363 722 L S
363 722 M 365 716 L S
365 716 M 367 707 L S
367 707 M 370 695 L S
370 695 M 372 680 L S
372 680 M 374 662 L S
374 662 M 376 640 L S
376 640 M 379 616 L S
379 616 M 381 590 L S
381 590 M 383 563 L S
383 563 M 385 536 L S
385 536 M 388 508 L S
388 508 M 390 481 L S
390 481 M 392 454 L S
392 454 M 394 428 L S
394 428 M 397 403 L S
397 403 M 399 379 L S
399 379 M 401 355 L S
401 355 M 403 333 L S
403 333 M 406 312 L S
406 312 M 408 291 L S
408 291 M 410 272 L S
410 272 M 413 254 L S
413 254 M 415 238 L S
415 238 M 417 223 L S
417 223 M 419 209 L S
419 209 M 422 198 L S
422 198 M 424 188 L S
424 188 M 426 181 L S
426 181 M 428 175 L S
428 175 M 431 170 L S
431 170 M 433 167 L S
433 167 M 435 164 L S
435 164 M 437 162 L S
437 162 M 440 161 L S
440 161 M 442 160 L S
442 160 M 444 159 L S
444 159 M 447 159 L S
447 159 M 449 158 L S
449 158 M 451 158 L S
451 158 M 453 158 L S
453 158 M 456 158 L S
456 158 M 458 158 L S
458 158 M 460 158 L S
460 158 M 462 158 L S
462 158 M 465 158 L S
465 158 M 467 158 L S
467 158 M 469 158 L S
469 158 M 471 158 L S
471 158 M 474 158 L S
474 158 M 476 158 L S
476 158 M 478 158 L S
478 158 M 480 158 L S
480 158 M 483 158 L S
483 158 M 485 158 L S
485 158 M 487 158 L S
487 158 M 490 158 L S
490 158 M 492 158 L S
492 158 M 494 158 L S
494 158 M 496 157 L S
496 157 M 499 157 L S
499 157 M 501 157 L S
501 157 M 503 158 L S
503 158 M 505 158 L S
505 158 M 508 158 L S
508 158 M 510 158 L S
510 158 M 512 158 L S
105 157 M 105 157 L S
105 157 M 105 157 L S
105 157 M 107 157 L S
107 157 M 109 157 L S
109 157 M 111 157 L S
111 157 M 114 157 L S
114 157 M 116 158 L S
116 158 M 118 158 L S
118 158 M 120 159 L S
120 159 M 123 161 L S
123 161 M 125 162 L S
125 162 M 127 165 L S
127 165 M 129 168 L S
129 168 M 132 172 L S
132 172 M 134 176 L S
134 176 M 136 181 L S
136 181 M 139 187 L S
139 187 M 141 194 L S
141 194 M 143 202 L S
143 202 M 145 210 L S
145 210 M 148 219 L S
148 219 M 150 230 L S
150 230 M 152 241 L S
152 241 M 154 253 L S
154 253 M 157 266 L S
157 266 M 159 280 L S
159 280 M 161 294 L S
161 294 M 163 307 L S
163 307 M 166 321 L S
166 321 M 168 334 L S
168 334 M 170 347 L S
170 347 M 172 359 L S
172 359 M 175 371 L S
175 371 M 177 383 L S
177 383 M 179 395 L S
179 395 M 182 407 L S
182 407 M 184 419 L S
184 419 M 186 433 L S
186 433 M 188 447 L S
188 447 M 191 463 L S
191 463 M 193 480 L S
193 480 M 195 499 L S
195 499 M 197 521 L S
197 521 M 200 544 L S
200 544 M 202 569 L S
202 569 M 204 594 L S
204 594 M 206 621 L S
206 621 M 209 646 L S
209 646 M 211 669 L S
211 669 M 213 688 L S
213 688 M 216 703 L S
216 703 M 218 714 L S
218 714 M 220 721 L S
220 721 M 222 726 L S
222 726 M 225 729 L S
225 729 M 227 731 L S
227 731 M 229 732 L S
229 732 M 231 732 L S
231 732 M 234 733 L S
234 733 M 236 733 L S
236 733 M 238 733 L S
238 733 M 240 734 L S
240 734 M 243 734 L S
243 734 M 245 734 L S
245 734 M 247 734 L S
247 734 M 249 734 L S
249 734 M 252 735 L S
252 735 M 254 735 L S
254 735 M 256 735 L S
256 735 M 259 735 L S
259 735 M 261 736 L S
261 736 M 263 736 L S
263 736 M 265 737 L S
265 737 M 268 738 L S
268 738 M 270 738 L S
270 738 M 272 739 L S
272 739 M 274 740 L S
274 740 M 277 740 L S
277 740 M 279 740 L S
279 740 M 281 739 L S
281 739 M 283 738 L S
283 738 M 286 738 L S
286 738 M 288 737 L S
288 737 M 290 736 L S
290 736 M 293 736 L S
293 736 M 295 736 L S
295 736 M 297 736 L S
297 736 M 299 736 L S
299 736 M 302 735 L S
302 735 M 304 735 L S
304 735 M 306 735 L S
306 735 M 308 735 L S
308 735 M 311 735 L S
311 735 M 313 735 L S
313 735 M 315 735 L S
315 735 M 317 735 L S
317 735 M 320 735 L S
320 735 M 322 735 L S
322 735 M 324 735 L S
324 735 M 326 735 L S
326 735 M 329 735 L S
329 735 M 331 735 L S
331 735 M 333 735 L S
333 735 M 336 735 L S
336 735 M 338 735 L S
338 735 M 340 735 L S
340 735 M 342 735 L S
342 735 M 345 734 L S
345 734 M 347 734 L S
347 734 M 349 734 L S
349 734 M 351 733 L S
351 733 M 354 732 L S
354 732 M 356 731 L S
356 731 M 358 729 L S
358 729 M 360 726 L S
360 726 M 363 722 L S
363 722 M 365 716 L S
365 716 M 367 707 L S
367 707 M 370 695 L S
370 695 M 372 680 L S
372 680 M 374 662 L S
374 662 M 376 640 L S
376 640 M 379 616 L S
379 616 M 381 590 L S
381 590 M 383 563 L S
383 563 M 385 536 L S
385 536 M 388 508 L S
388 508 M 390 481 L S
390 481 M 392 454 L S
392 454 M 394 428 L S
394 428 M 397 403 L S
397 403 M 399 379 L S
399 379 M 401 355 L S
401 355 M 403 333 L S
403 333 M 406 312 L S
406 312 M 408 291 L S
408 291 M 410 272 L S
410 272 M 413 254 L S
413 254 M 415 238 L S
415 238 M 417 223 L S
417 223 M 419 209 L S
419 209 M 422 198 L S
422 198 M 424 188 L S
424 188 M 426 181 L S
426 181 M 428 175 L S
428 175 M 431 170 L S
431 170 M 433 167 L S
433 167 M 435 164 L S
435 164 M 437 162 L S
437 162 M 440 161 L S
440 161 M 442 160 L S
442 160 M 444 159 L S
444 159 M 447 159 L S
447 159 M 449 158 L S
449 158 M 451 158 L S
451 158 M 453 158 L S
453 158 M 456 158 L S
456 158 M 458 158 L S
458 158 M 460 158 L S
460 158 M 462 158 L S
462 158 M 465 158 L S
465 158 M 467 158 L S
467 158 M 469 158 L S
469 158 M 471 158 L S
471 158 M 474 158 L S
474 158 M 476 158 L S
476 158 M 478 158 L S
478 158 M 480 158 L S
480 158 M 483 158 L S
483 158 M 485 158 L S
485 158 M 487 158 L S
487 158 M 490 158 L S
490 158 M 492 158 L S
492 158 M 494 158 L S
494 158 M 496 157 L S
496 157 M 499 157 L S
499 157 M 501 157 L S
501 157 M 503 158 L S
503 158 M 505 158 L S
505 158 M 508 158 L S
508 158 M 510 158 L S
510 158 M 512 158 L S
105 157 M 105 157 L S
105 157 M 105 157 L S
105 157 M 107 157 L S
107 157 M 109 157 L S
109 157 M 111 157 L S
111 157 M 114 157 L S
114 157 M 116 158 L S
116 158 M 118 158 L S
118 158 M 120 159 L S
120 159 M 123 161 L S
123 161 M 125 162 L S
125 162 M 127 165 L S
127 165 M 129 168 L S
129 168 M 132 172 L S
132 172 M 134 176 L S
134 176 M 136 181 L S
136 181 M 139 187 L S
139 187 M 141 194 L S
141 194 M 143 202 L S
143 202 M 145 210 L S
145 210 M 148 219 L S
148 219 M 150 230 L S
150 230 M 152 241 L S
152 241 M 154 253 L S
154 253 M 157 266 L S
157 266 M 159 280 L S
159 280 M 161 294 L S
161 294 M 163 307 L S
163 307 M 166 321 L S
166 321 M 168 334 L S
168 334 M 170 347 L S
170 347 M 172 359 L S
172 359 M 175 371 L S
175 371 M 177 383 L S
177 383 M 179 395 L S
179 395 M 182 407 L S
182 407 M 184 419 L S
184 419 M 186 433 L S
186 433 M 188 447 L S
188 447 M 191 463 L S
191 463 M 193 480 L S
193 480 M 195 499 L S
195 499 M 197 521 L S
197 521 M 200 544 L S
200 544 M 202 569 L S
202 569 M 204 594 L S
204 594 M 206 621 L S
206 621 M 209 646 L S
209 646 M 211 669 L S
211 669 M 213 688 L S
213 688 M 216 703 L S
216 703 M 218 714 L S
218 714 M 220 721 L S
220 721 M 222 726 L S
222 726 M 225 729 L S
225 729 M 227 731 L S
227 731 M 229 732 L S
229 732 M 231 732 L S
231 732 M 234 733 L S
234 733 M 236 733 L S
236 733 M 238 733 L S
238 733 M 240 734 L S
240 734 M 243 734 L S
243 734 M 245 734 L S
245 734 M 247 734 L S
247 734 M 249 734 L S
249 734 M 252 735 L S
252 735 M 254 735 L S
254 735 M 256 735 L S
256 735 M 259 735 L S
259 735 M 261 736 L S
261 736 M 263 736 L S
263 736 M 265 737 L S
265 737 M 268 738 L S
268 738 M 270 738 L S
270 738 M 272 739 L S
272 739 M 274 740 L S
274 740 M 277 740 L S
277 740 M 279 740 L S
279 740 M 281 739 L S
281 739 M 283 738 L S
283 738 M 286 738 L S
286 738 M 288 737 L S
288 737 M 290 736 L S
290 736 M 293 736 L S
293 736 M 295 736 L S
295 736 M 297 736 L S
297 736 M 299 736 L S
299 736 M 302 735 L S
302 735 M 304 735 L S
304 735 M 306 735 L S
306 735 M 308 735 L S
308 735 M 311 735 L S
311 735 M 313 735 L S
313 735 M 315 735 L S
315 735 M 317 735 L S
317 735 M 320 735 L S
320 735 M 322 735 L S
322 735 M 324 735 L S
324 735 M 326 735 L S
326 735 M 329 735 L S
329 735 M 331 735 L S
331 735 M 333 735 L S
333 735 M 336 735 L S
336 735 M 338 735 L S
338 735 M 340 735 L S
340 735 M 342 735 L S
342 735 M 345 734 L S
345 734 M 347 734 L S
347 734 M 349 734 L S
349 734 M 351 733 L S
351 733 M 354 732 L S
354 732 M 356 731 L S
356 731 M 358 729 L S
358 729 M 360 726 L S
360 726 M 363 722 L S
363 722 M 365 716 L S
365 716 M 367 707 L S
367 707 M 370 695 L S
370 695 M 372 680 L S
372 680 M 374 662 L S
374 662 M 376 640 L S
376 640 M 379 616 L S
379 616 M 381 590 L S
381 590 M 383 563 L S
383 563 M 385 536 L S
385 536 M 388 508 L S
388 508 M 390 481 L S
390 481 M 392 454 L S
392 454 M 394 428 L S
394 428 M 397 403 L S
397 403 M 399 379 L S
399 379 M 401 355 L S
401 355 M 403 333 L S
403 333 M 406 312 L S
406 312 M 408 291 L S
408 291 M 410 272 L S
410 272 M 413 254 L S
413 254 M 415 238 L S
415 238 M 417 223 L S
417 223 M 419 209 L S
419 209 M 422 198 L S
422 198 M 424 188 L S
424 188 M 426 181 L S
426 181 M 428 175 L S
428 175 M 431 170 L S
431 170 M 433 167 L S
433 167 M 435 164 L S
435 164 M 437 162 L S
437 162 M 440 161 L S
440 161 M 442 160 L S
442 160 M 444 159 L S
444 159 M 447 159 L S
447 159 M 449 158 L S
449 158 M 451 158 L S
451 158 M 453 158 L S
453 158 M 456 158 L S
456 158 M 458 158 L S
458 158 M 460 158 L S
460 158 M 462 158 L S
462 158 M 465 158 L S
465 158 M 467 158 L S
467 158 M 469 158 L S
469 158 M 471 158 L S
471 158 M 474 158 L S
474 158 M 476 158 L S
476 158 M 478 158 L S
478 158 M 480 158 L S
480 158 M 483 158 L S
483 158 M 485 158 L S
485 158 M 487 158 L S
487 158 M 490 158 L S
490 158 M 492 158 L S
492 158 M 494 158 L S
494 158 M 496 157 L S
496 157 M 499 157 L S
499 157 M 501 157 L S
501 157 M 503 158 L S
503 158 M 505 158 L S
505 158 M 508 158 L S
508 158 M 510 158 L S
510 158 M 512 158 L S
488 158 M 488 158 L S
488 158 M 525 158 L S
525 158 M 527 158 L S
527 158 M 529 159 L S
529 159 M 531 159 L S
531 159 M 534 160 L S
534 160 M 536 161 L S
536 161 M 538 162 L S
538 162 M 540 164 L S
540 164 M 543 167 L S
543 167 M 545 170 L S
545 170 M 547 173 L S
547 173 M 550 178 L S
550 178 M 552 183 L S
552 183 M 554 189 L S
554 189 M 556 195 L S
556 195 M 559 203 L S
559 203 M 561 212 L S
561 212 M 563 222 L S
563 222 M 565 232 L S
565 232 M 568 244 L S
568 244 M 570 257 L S
570 257 M 572 271 L S
572 271 M 574 286 L S
574 286 M 577 302 L S
577 302 M 579 319 L S
579 319 M 581 337 L S
581 337 M 583 356 L S
583 356 M 586 376 L S
586 376 M 588 397 L S
588 397 M 590 419 L S
590 419 M 593 442 L S
593 442 M 595 466 L S
595 466 M 597 490 L S
597 490 M 599 515 L S
599 515 M 602 541 L S
602 541 M 604 567 L S
604 567 M 606 592 L S
606 592 M 608 617 L S
608 617 M 611 640 L S
611 640 M 613 661 L S
613 661 M 615 679 L S
615 679 M 617 695 L S
617 695 M 620 706 L S
620 706 M 622 715 L S
622 715 M 624 722 L S
624 722 M 627 726 L S
627 726 M 629 729 L S
629 729 M 631 731 L S
631 731 M 633 733 L S
633 733 M 636 733 L S
636 733 M 638 734 L S
638 734 M 640 734 L S
640 734 M 642 735 L S
642 735 M 645 735 L S
645 735 M 647 734 L S
647 734 M 649 734 L S
649 734 M 651 734 L S
651 734 M 654 734 L S
654 734 M 656 734 L S
656 734 M 658 734 L S
658 734 M 660 734 L S
660 734 M 663 734 L S
663 734 M 665 734 L S
665 734 M 667 734 L S
667 734 M 670 734 L S
670 734 M 672 734 L S
672 734 M 674 734 L S
674 734 M 676 734 L S
676 734 M 679 734 L S
679 734 M 681 734 L S
681 734 M 683 734 L S
683 734 M 685 733 L S
685 733 M 688 732 L S
688 732 M 690 732 L S
690 732 M 692 730 L S
692 730 M 694 728 L S
694 728 M 697 725 L S
697 725 M 699 722 L S
699 722 M 701 716 L S
701 716 M 704 709 L S
704 709 M 706 699 L S
706 699 M 708 687 L S
708 687 M 710 672 L S
710 672 M 713 654 L S
713 654 M 715 634 L S
715 634 M 717 613 L S
717 613 M 719 591 L S
719 591 M 722 568 L S
722 568 M 724 545 L S
724 545 M 726 522 L S
726 522 M 728 499 L S
728 499 M 731 478 L S
731 478 M 733 458 L S
733 458 M 735 438 L S
735 438 M 737 419 L S
737 419 M 740 401 L S
740 401 M 742 383 L S
742 383 M 744 366 L S
744 366 M 747 350 L S
747 350 M 749 334 L S
749 334 M 751 318 L S
751 318 M 753 303 L S
753 303 M 756 289 L S
756 289 M 758 275 L S
758 275 M 760 262 L S
760 262 M 762 249 L S
762 249 M 765 238 L S
765 238 M 767 227 L S
767 227 M 769 218 L S
769 218 M 771 209 L S
771 209 M 774 201 L S
774 201 M 776 194 L S
776 194 M 778 188 L S
778 188 M 781 182 L S
781 182 M 783 177 L S
783 177 M 785 173 L S
785 173 M 787 170 L S
787 170 M 790 167 L S
790 167 M 792 164 L S
792 164 M 794 162 L S
794 162 M 796 161 L S
796 161 M 799 159 L S
799 159 M 801 158 L S
801 158 M 803 158 L S
803 158 M 805 157 L S
805 157 M 808 157 L S
808 157 M 810 156 L S
810 156 M 812 156 L S
812 156 M 814 156 L S
814 156 M 817 156 L S
817 156 M 819 156 L S
819 156 M 821 156 L S
821 156 M 824 156 L S
824 156 M 826 156 L S
826 156 M 828 156 L S
828 156 M 830 156 L S
830 156 M 833 156 L S
833 156 M 835 157 L S
835 157 M 837 157 L S
837 157 M 839 157 L S
839 157 M 842 157 L S
842 157 M 844 157 L S
844 157 M 846 157 L S
846 157 M 848 157 L S
848 157 M 851 157 L S
851 157 M 853 157 L S
853 157 M 855 157 L S
855 157 M 858 157 L S
858 157 M 860 157 L S
860 157 M 862 157 L S
862 157 M 864 157 L S
864 157 M 867 157 L S
867 157 M 869 157 L S
869 157 M 871 157 L S
871 157 M 873 157 L S
873 157 M 876 157 L S
876 157 M 878 157 L S
878 157 M 880 157 L S
880 157 M 882 157 L S
882 157 M 885 157 L S
885 157 M 887 158 L S
887 158 M 889 158 L S
889 158 M 891 158 L S
891 158 M 894 158 L S
894 158 M 896 158 L S
896 158 M 898 158 L S
898 158 M 901 158 L S
901 158 M 903 158 L S
903 158 M 905 158 L S
905 158 M 907 158 L S
907 158 M 910 158 L S
910 158 M 912 158 L S
912 158 M 914 158 L S
914 158 M 916 158 L S
916 158 M 919 158 L S
919 158 M 921 158 L S
921 158 M 923 158 L S
923 158 M 925 158 L S
925 158 M 928 158 L S
928 158 M 930 158 L S
930 158 M 932 158 L S
932 158 M 935 158 L S
935 158 M 937 158 L S
937 158 M 939 158 L S
939 158 M 941 158 L S
941 158 M 942 158 L S
488 158 M 488 158 L S
488 158 M 525 158 L S
525 158 M 527 158 L S
527 158 M 529 159 L S
529 159 M 531 159 L S
531 159 M 534 160 L S
534 160 M 536 161 L S
536 161 M 538 162 L S
538 162 M 540 164 L S
540 164 M 543 167 L S
543 167 M 545 170 L S
545 170 M 547 173 L S
547 173 M 550 178 L S
550 178 M 552 183 L S
552 183 M 554 189 L S
554 189 M 556 195 L S
556 195 M 559 203 L S
559 203 M 561 212 L S
561 212 M 563 222 L S
563 222 M 565 232 L S
565 232 M 568 244 L S
568 244 M 570 257 L S
570 257 M 572 271 L S
572 271 M 574 286 L S
574 286 M 577 302 L S
577 302 M 579 319 L S
579 319 M 581 337 L S
581 337 M 583 356 L S
583 356 M 586 376 L S
586 376 M 588 397 L S
588 397 M 590 419 L S
590 419 M 593 442 L S
593 442 M 595 466 L S
595 466 M 597 490 L S
597 490 M 599 515 L S
599 515 M 602 541 L S
602 541 M 604 567 L S
604 567 M 606 592 L S
606 592 M 608 617 L S
608 617 M 611 640 L S
611 640 M 613 661 L S
613 661 M 615 679 L S
615 679 M 617 695 L S
617 695 M 620 706 L S
620 706 M 622 715 L S
622 715 M 624 722 L S
624 722 M 627 726 L S
627 726 M 629 729 L S
629 729 M 631 731 L S
631 731 M 633 733 L S
633 733 M 636 733 L S
636 733 M 638 734 L S
638 734 M 640 734 L S
640 734 M 642 735 L S
642 735 M 645 735 L S
645 735 M 647 734 L S
647 734 M 649 734 L S
649 734 M 651 734 L S
651 734 M 654 734 L S
654 734 M 656 734 L S
656 734 M 658 734 L S
658 734 M 660 734 L S
660 734 M 663 734 L S
663 734 M 665 734 L S
665 734 M 667 734 L S
667 734 M 670 734 L S
670 734 M 672 734 L S
672 734 M 674 734 L S
674 734 M 676 734 L S
676 734 M 679 734 L S
679 734 M 681 734 L S
681 734 M 683 734 L S
683 734 M 685 733 L S
685 733 M 688 732 L S
688 732 M 690 732 L S
690 732 M 692 730 L S
692 730 M 694 728 L S
694 728 M 697 725 L S
697 725 M 699 722 L S
699 722 M 701 716 L S
701 716 M 704 709 L S
704 709 M 706 699 L S
706 699 M 708 687 L S
708 687 M 710 672 L S
710 672 M 713 654 L S
713 654 M 715 634 L S
715 634 M 717 613 L S
717 613 M 719 591 L S
719 591 M 722 568 L S
722 568 M 724 545 L S
724 545 M 726 522 L S
726 522 M 728 499 L S
728 499 M 731 478 L S
731 478 M 733 458 L S
733 458 M 735 438 L S
735 438 M 737 419 L S
737 419 M 740 401 L S
740 401 M 742 383 L S
742 383 M 744 366 L S
744 366 M 747 350 L S
747 350 M 749 334 L S
749 334 M 751 318 L S
751 318 M 753 303 L S
753 303 M 756 289 L S
756 289 M 758 275 L S
758 275 M 760 262 L S
760 262 M 762 249 L S
762 249 M 765 238 L S
765 238 M 767 227 L S
767 227 M 769 218 L S
769 218 M 771 209 L S
771 209 M 774 201 L S
774 201 M 776 194 L S
776 194 M 778 188 L S
778 188 M 781 182 L S
781 182 M 783 177 L S
783 177 M 785 173 L S
785 173 M 787 170 L S
787 170 M 790 167 L S
790 167 M 792 164 L S
792 164 M 794 162 L S
794 162 M 796 161 L S
796 161 M 799 159 L S
799 159 M 801 158 L S
801 158 M 803 158 L S
803 158 M 805 157 L S
805 157 M 808 157 L S
808 157 M 810 156 L S
810 156 M 812 156 L S
812 156 M 814 156 L S
814 156 M 817 156 L S
817 156 M 819 156 L S
819 156 M 821 156 L S
821 156 M 824 156 L S
824 156 M 826 156 L S
826 156 M 828 156 L S
828 156 M 830 156 L S
830 156 M 833 156 L S
833 156 M 835 157 L S
835 157 M 837 157 L S
837 157 M 839 157 L S
839 157 M 842 157 L S
842 157 M 844 157 L S
844 157 M 846 157 L S
846 157 M 848 157 L S
848 157 M 851 157 L S
851 157 M 853 157 L S
853 157 M 855 157 L S
855 157 M 858 157 L S
858 157 M 860 157 L S
860 157 M 862 157 L S
862 157 M 864 157 L S
864 157 M 867 157 L S
867 157 M 869 157 L S
869 157 M 871 157 L S
871 157 M 873 157 L S
873 157 M 876 157 L S
876 157 M 878 157 L S
878 157 M 880 157 L S
880 157 M 882 157 L S
882 157 M 885 157 L S
885 157 M 887 158 L S
887 158 M 889 158 L S
889 158 M 891 158 L S
891 158 M 894 158 L S
894 158 M 896 158 L S
896 158 M 898 158 L S
898 158 M 901 158 L S
901 158 M 903 158 L S
903 158 M 905 158 L S
905 158 M 907 158 L S
907 158 M 910 158 L S
910 158 M 912 158 L S
912 158 M 914 158 L S
914 158 M 916 158 L S
916 158 M 919 158 L S
919 158 M 921 158 L S
921 158 M 923 158 L S
923 158 M 925 158 L S
925 158 M 928 158 L S
928 158 M 930 158 L S
930 158 M 932 158 L S
932 158 M 935 158 L S
935 158 M 937 158 L S
937 158 M 939 158 L S
939 158 M 941 158 L S
941 158 M 942 158 L S
488 158 M 488 158 L S
488 158 M 525 158 L S
525 158 M 527 158 L S
527 158 M 529 159 L S
529 159 M 531 159 L S
531 159 M 534 160 L S
534 160 M 536 161 L S
536 161 M 538 162 L S
538 162 M 540 164 L S
540 164 M 543 167 L S
543 167 M 545 170 L S
545 170 M 547 173 L S
547 173 M 550 178 L S
550 178 M 552 183 L S
552 183 M 554 189 L S
554 189 M 556 195 L S
556 195 M 559 203 L S
559 203 M 561 212 L S
561 212 M 563 222 L S
563 222 M 565 232 L S
565 232 M 568 244 L S
568 244 M 570 257 L S
570 257 M 572 271 L S
572 271 M 574 286 L S
574 286 M 577 302 L S
577 302 M 579 319 L S
579 319 M 581 337 L S
581 337 M 583 356 L S
583 356 M 586 376 L S
586 376 M 588 397 L S
588 397 M 590 419 L S
590 419 M 593 442 L S
593 442 M 595 466 L S
595 466 M 597 490 L S
597 490 M 599 515 L S
599 515 M 602 541 L S
602 541 M 604 567 L S
604 567 M 606 592 L S
606 592 M 608 617 L S
608 617 M 611 640 L S
611 640 M 613 661 L S
613 661 M 615 679 L S
615 679 M 617 695 L S
617 695 M 620 706 L S
620 706 M 622 715 L S
622 715 M 624 722 L S
624 722 M 627 726 L S
627 726 M 629 729 L S
629 729 M 631 731 L S
631 731 M 633 733 L S
633 733 M 636 733 L S
636 733 M 638 734 L S
638 734 M 640 734 L S
640 734 M 642 735 L S
642 735 M 645 735 L S
645 735 M 647 734 L S
647 734 M 649 734 L S
649 734 M 651 734 L S
651 734 M 654 734 L S
654 734 M 656 734 L S
656 734 M 658 734 L S
658 734 M 660 734 L S
660 734 M 663 734 L S
663 734 M 665 734 L S
665 734 M 667 734 L S
667 734 M 670 734 L S
670 734 M 672 734 L S
672 734 M 674 734 L S
674 734 M 676 734 L S
676 734 M 679 734 L S
679 734 M 681 734 L S
681 734 M 683 734 L S
683 734 M 685 733 L S
685 733 M 688 732 L S
688 732 M 690 732 L S
690 732 M 692 730 L S
692 730 M 694 728 L S
694 728 M 697 725 L S
697 725 M 699 722 L S
699 722 M 701 716 L S
701 716 M 704 709 L S
704 709 M 706 699 L S
706 699 M 708 687 L S
708 687 M 710 672 L S
710 672 M 713 654 L S
713 654 M 715 634 L S
715 634 M 717 613 L S
717 613 M 719 591 L S
719 591 M 722 568 L S
722 568 M 724 545 L S
724 545 M 726 522 L S
726 522 M 728 499 L S
728 499 M 731 478 L S
731 478 M 733 458 L S
733 458 M 735 438 L S
735 438 M 737 419 L S
737 419 M 740 401 L S
740 401 M 742 383 L S
742 383 M 744 366 L S
744 366 M 747 350 L S
747 350 M 749 334 L S
749 334 M 751 318 L S
751 318 M 753 303 L S
753 303 M 756 289 L S
756 289 M 758 275 L S
758 275 M 760 262 L S
760 262 M 762 249 L S
762 249 M 765 238 L S
765 238 M 767 227 L S
767 227 M 769 218 L S
769 218 M 771 209 L S
771 209 M 774 201 L S
774 201 M 776 194 L S
776 194 M 778 188 L S
778 188 M 781 182 L S
781 182 M 783 177 L S
783 177 M 785 173 L S
785 173 M 787 170 L S
787 170 M 790 167 L S
790 167 M 792 164 L S
792 164 M 794 162 L S
794 162 M 796 161 L S
796 161 M 799 159 L S
799 159 M 801 158 L S
801 158 M 803 158 L S
803 158 M 805 157 L S
805 157 M 808 157 L S
808 157 M 810 156 L S
810 156 M 812 156 L S
812 156 M 814 156 L S
814 156 M 817 156 L S
817 156 M 819 156 L S
819 156 M 821 156 L S
821 156 M 824 156 L S
824 156 M 826 156 L S
826 156 M 828 156 L S
828 156 M 830 156 L S
830 156 M 833 156 L S
833 156 M 835 157 L S
835 157 M 837 157 L S
837 157 M 839 157 L S
839 157 M 842 157 L S
842 157 M 844 157 L S
844 157 M 846 157 L S
846 157 M 848 157 L S
848 157 M 851 157 L S
851 157 M 853 157 L S
853 157 M 855 157 L S
855 157 M 858 157 L S
858 157 M 860 157 L S
860 157 M 862 157 L S
862 157 M 864 157 L S
864 157 M 867 157 L S
867 157 M 869 157 L S
869 157 M 871 157 L S
871 157 M 873 157 L S
873 157 M 876 157 L S
876 157 M 878 157 L S
878 157 M 880 157 L S
880 157 M 882 157 L S
882 157 M 885 157 L S
885 157 M 887 158 L S
887 158 M 889 158 L S
889 158 M 891 158 L S
891 158 M 894 158 L S
894 158 M 896 158 L S
896 158 M 898 158 L S
898 158 M 901 158 L S
901 158 M 903 158 L S
903 158 M 905 158 L S
905 158 M 907 158 L S
907 158 M 910 158 L S
910 158 M 912 158 L S
912 158 M 914 158 L S
914 158 M 916 158 L S
916 158 M 919 158 L S
919 158 M 921 158 L S
921 158 M 923 158 L S
923 158 M 925 158 L S
925 158 M 928 158 L S
928 158 M 930 158 L S
930 158 M 932 158 L S
932 158 M 935 158 L S
935 158 M 937 158 L S
937 158 M 939 158 L S
939 158 M 941 158 L S
941 158 M 942 158 L S
479 158 M 479 158 L S
479 158 M 549 158 L S
549 158 M 551 158 L S
551 158 M 554 159 L S
554 159 M 556 159 L S
556 159 M 558 160 L S
558 160 M 561 160 L S
561 160 M 563 162 L S
563 162 M 565 163 L S
565 163 M 567 165 L S
567 165 M 570 167 L S
570 167 M 572 170 L S
572 170 M 574 174 L S
574 174 M 576 178 L S
576 178 M 579 183 L S
579 183 M 581 188 L S
581 188 M 583 195 L S
583 195 M 585 202 L S
585 202 M 588 209 L S
588 209 M 590 218 L S
590 218 M 592 228 L S
592 228 M 594 238 L S
594 238 M 597 249 L S
597 249 M 599 262 L S
599 262 M 601 275 L S
601 275 M 604 289 L S
604 289 M 606 304 L S
606 304 M 608 320 L S
608 320 M 610 337 L S
610 337 M 613 354 L S
613 354 M 615 373 L S
615 373 M 617 392 L S
617 392 M 619 412 L S
619 412 M 622 433 L S
622 433 M 624 455 L S
624 455 M 626 477 L S
626 477 M 628 500 L S
628 500 M 631 524 L S
631 524 M 633 547 L S
633 547 M 635 571 L S
635 571 M 638 595 L S
638 595 M 640 618 L S
640 618 M 642 640 L S
642 640 M 644 659 L S
644 659 M 647 677 L S
647 677 M 649 691 L S
649 691 M 651 703 L S
651 703 M 653 712 L S
653 712 M 656 719 L S
656 719 M 658 723 L S
658 723 M 660 727 L S
660 727 M 662 729 L S
662 729 M 665 730 L S
665 730 M 667 731 L S
667 731 M 669 732 L S
669 732 M 671 733 L S
671 733 M 674 733 L S
674 733 M 676 733 L S
676 733 M 678 733 L S
678 733 M 681 733 L S
681 733 M 683 733 L S
683 733 M 685 733 L S
685 733 M 687 733 L S
687 733 M 690 733 L S
690 733 M 692 733 L S
692 733 M 694 733 L S
694 733 M 696 733 L S
696 733 M 699 733 L S
699 733 M 701 733 L S
701 733 M 703 733 L S
703 733 M 705 733 L S
705 733 M 708 733 L S
708 733 M 710 733 L S
710 733 M 712 733 L S
712 733 M 715 733 L S
715 733 M 717 733 L S
717 733 M 719 733 L S
719 733 M 721 733 L S
721 733 M 724 733 L S
724 733 M 726 733 L S
726 733 M 728 733 L S
728 733 M 730 733 L S
730 733 M 733 733 L S
733 733 M 735 733 L S
735 733 M 737 733 L S
737 733 M 739 733 L S
739 733 M 742 733 L S
742 733 M 744 733 L S
744 733 M 746 733 L S
746 733 M 748 733 L S
748 733 M 751 733 L S
751 733 M 753 733 L S
753 733 M 755 733 L S
755 733 M 758 733 L S
758 733 M 760 733 L S
760 733 M 762 732 L S
762 732 M 764 732 L S
764 732 M 767 732 L S
767 732 M 769 732 L S
769 732 M 771 732 L S
771 732 M 773 732 L S
773 732 M 776 732 L S
776 732 M 778 732 L S
778 732 M 780 731 L S
780 731 M 782 731 L S
782 731 M 785 730 L S
785 730 M 787 730 L S
787 730 M 789 729 L S
789 729 M 791 728 L S
791 728 M 794 726 L S
794 726 M 796 723 L S
796 723 M 798 720 L S
798 720 M 801 715 L S
801 715 M 803 708 L S
803 708 M 805 699 L S
805 699 M 807 688 L S
807 688 M 810 674 L S
810 674 M 812 657 L S
812 657 M 814 639 L S
814 639 M 816 619 L S
816 619 M 819 597 L S
819 597 M 821 575 L S
821 575 M 823 552 L S
823 552 M 825 530 L S
825 530 M 828 507 L S
828 507 M 830 485 L S
830 485 M 832 464 L S
832 464 M 835 443 L S
835 443 M 837 423 L S
837 423 M 839 403 L S
839 403 M 841 385 L S
841 385 M 844 367 L S
844 367 M 846 349 L S
846 349 M 848 332 L S
848 332 M 850 316 L S
850 316 M 853 300 L S
853 300 M 855 285 L S
855 285 M 857 271 L S
857 271 M 859 257 L S
859 257 M 862 245 L S
862 245 M 864 234 L S
864 234 M 866 223 L S
866 223 M 868 214 L S
868 214 M 871 205 L S
871 205 M 873 198 L S
873 198 M 875 191 L S
875 191 M 878 185 L S
878 185 M 880 180 L S
880 180 M 882 176 L S
882 176 M 884 172 L S
884 172 M 887 169 L S
887 169 M 889 166 L S
889 166 M 891 164 L S
891 164 M 893 162 L S
893 162 M 896 160 L S
896 160 M 898 159 L S
898 159 M 900 159 L S
900 159 M 902 158 L S
902 158 M 905 157 L S
905 157 M 907 157 L S
907 157 M 909 157 L S
909 157 M 912 157 L S
912 157 M 914 157 L S
914 157 M 916 157 L S
916 157 M 918 157 L S
918 157 M 921 157 L S
921 157 M 923 157 L S
923 157 M 925 157 L S
925 157 M 927 157 L S
927 157 M 930 157 L S
930 157 M 932 157 L S
932 157 M 934 157 L S
934 157 M 936 157 L S
936 157 M 939 157 L S
939 157 M 941 157 L S
941 157 M 943 157 L S
943 157 M 945 157 L S
945 157 M 948 158 L S
948 158 M 950 158 L S
950 158 M 952 158 L S
952 158 M 955 158 L S
955 158 M 957 158 L S
957 158 M 959 158 L S
959 158 M 961 158 L S
961 158 M 964 158 L S
964 158 M 966 158 L S
966 158 M 968 158 L S
968 158 M 970 158 L S
970 158 M 971 158 L S
479 158 M 479 158 L S
479 158 M 549 158 L S
549 158 M 551 158 L S
551 158 M 554 159 L S
554 159 M 556 159 L S
556 159 M 558 160 L S
558 160 M 561 160 L S
561 160 M 563 162 L S
563 162 M 565 163 L S
565 163 M 567 165 L S
567 165 M 570 167 L S
570 167 M 572 170 L S
572 170 M 574 174 L S
574 174 M 576 178 L S
576 178 M 579 183 L S
579 183 M 581 188 L S
581 188 M 583 195 L S
583 195 M 585 202 L S
585 202 M 588 209 L S
588 209 M 590 218 L S
590 218 M 592 228 L S
592 228 M 594 238 L S
594 238 M 597 249 L S
597 249 M 599 262 L S
599 262 M 601 275 L S
601 275 M 604 289 L S
604 289 M 606 304 L S
606 304 M 608 320 L S
608 320 M 610 337 L S
610 337 M 613 354 L S
613 354 M 615 373 L S
615 373 M 617 392 L S
617 392 M 619 412 L S
619 412 M 622 433 L S
622 433 M 624 455 L S
624 455 M 626 477 L S
626 477 M 628 500 L S
628 500 M 631 524 L S
631 524 M 633 547 L S
633 547 M 635 571 L S
635 571 M 638 595 L S
638 595 M 640 618 L S
640 618 M 642 640 L S
642 640 M 644 659 L S
644 659 M 647 677 L S
647 677 M 649 691 L S
649 691 M 651 703 L S
651 703 M 653 712 L S
653 712 M 656 719 L S
656 719 M 658 723 L S
658 723 M 660 727 L S
660 727 M 662 729 L S
662 729 M 665 730 L S
665 730 M 667 731 L S
667 731 M 669 732 L S
669 732 M 671 733 L S
671 733 M 674 733 L S
674 733 M 676 733 L S
676 733 M 678 733 L S
678 733 M 681 733 L S
681 733 M 683 733 L S
683 733 M 685 733 L S
685 733 M 687 733 L S
687 733 M 690 733 L S
690 733 M 692 733 L S
692 733 M 694 733 L S
694 733 M 696 733 L S
696 733 M 699 733 L S
699 733 M 701 733 L S
701 733 M 703 733 L S
703 733 M 705 733 L S
705 733 M 708 733 L S
708 733 M 710 733 L S
710 733 M 712 733 L S
712 733 M 715 733 L S
715 733 M 717 733 L S
717 733 M 719 733 L S
719 733 M 721 733 L S
721 733 M 724 733 L S
724 733 M 726 733 L S
726 733 M 728 733 L S
728 733 M 730 733 L S
730 733 M 733 733 L S
733 733 M 735 733 L S
735 733 M 737 733 L S
737 733 M 739 733 L S
739 733 M 742 733 L S
742 733 M 744 733 L S
744 733 M 746 733 L S
746 733 M 748 733 L S
748 733 M 751 733 L S
751 733 M 753 733 L S
753 733 M 755 733 L S
755 733 M 758 733 L S
758 733 M 760 733 L S
760 733 M 762 732 L S
762 732 M 764 732 L S
764 732 M 767 732 L S
767 732 M 769 732 L S
769 732 M 771 732 L S
771 732 M 773 732 L S
773 732 M 776 732 L S
776 732 M 778 732 L S
778 732 M 780 731 L S
780 731 M 782 731 L S
782 731 M 785 730 L S
785 730 M 787 730 L S
787 730 M 789 729 L S
789 729 M 791 728 L S
791 728 M 794 726 L S
794 726 M 796 723 L S
796 723 M 798 720 L S
798 720 M 801 715 L S
801 715 M 803 708 L S
803 708 M 805 699 L S
805 699 M 807 688 L S
807 688 M 810 674 L S
810 674 M 812 657 L S
812 657 M 814 639 L S
814 639 M 816 619 L S
816 619 M 819 597 L S
819 597 M 821 575 L S
821 575 M 823 552 L S
823 552 M 825 530 L S
825 530 M 828 507 L S
828 507 M 830 485 L S
830 485 M 832 464 L S
832 464 M 835 443 L S
835 443 M 837 423 L S
837 423 M 839 403 L S
839 403 M 841 385 L S
841 385 M 844 367 L S
844 367 M 846 349 L S
846 349 M 848 332 L S
848 332 M 850 316 L S
850 316 M 853 300 L S
853 300 M 855 285 L S
855 285 M 857 271 L S
857 271 M 859 257 L S
859 257 M 862 245 L S
862 245 M 864 234 L S
864 234 M 866 223 L S
866 223 M 868 214 L S
868 214 M 871 205 L S
871 205 M 873 198 L S
873 198 M 875 191 L S
875 191 M 878 185 L S
878 185 M 880 180 L S
880 180 M 882 176 L S
882 176 M 884 172 L S
884 172 M 887 169 L S
887 169 M 889 166 L S
889 166 M 891 164 L S
891 164 M 893 162 L S
893 162 M 896 160 L S
896 160 M 898 159 L S
898 159 M 900 159 L S
900 159 M 902 158 L S
902 158 M 905 157 L S
905 157 M 907 157 L S
907 157 M 909 157 L S
909 157 M 912 157 L S
912 157 M 914 157 L S
914 157 M 916 157 L S
916 157 M 918 157 L S
918 157 M 921 157 L S
921 157 M 923 157 L S
923 157 M 925 157 L S
925 157 M 927 157 L S
927 157 M 930 157 L S
930 157 M 932 157 L S
932 157 M 934 157 L S
934 157 M 936 157 L S
936 157 M 939 157 L S
939 157 M 941 157 L S
941 157 M 943 157 L S
943 157 M 945 157 L S
945 157 M 948 158 L S
948 158 M 950 158 L S
950 158 M 952 158 L S
952 158 M 955 158 L S
955 158 M 957 158 L S
957 158 M 959 158 L S
959 158 M 961 158 L S
961 158 M 964 158 L S
964 158 M 966 158 L S
966 158 M 968 158 L S
968 158 M 970 158 L S
970 158 M 971 158 L S
479 158 M 479 158 L S
479 158 M 549 158 L S
549 158 M 551 158 L S
551 158 M 554 159 L S
554 159 M 556 159 L S
556 159 M 558 160 L S
558 160 M 561 160 L S
561 160 M 563 162 L S
563 162 M 565 163 L S
565 163 M 567 165 L S
567 165 M 570 167 L S
570 167 M 572 170 L S
572 170 M 574 174 L S
574 174 M 576 178 L S
576 178 M 579 183 L S
579 183 M 581 188 L S
581 188 M 583 195 L S
583 195 M 585 202 L S
585 202 M 588 209 L S
588 209 M 590 218 L S
590 218 M 592 228 L S
592 228 M 594 238 L S
594 238 M 597 249 L S
597 249 M 599 262 L S
599 262 M 601 275 L S
601 275 M 604 289 L S
604 289 M 606 304 L S
606 304 M 608 320 L S
608 320 M 610 337 L S
610 337 M 613 354 L S
613 354 M 615 373 L S
615 373 M 617 392 L S
617 392 M 619 412 L S
619 412 M 622 433 L S
622 433 M 624 455 L S
624 455 M 626 477 L S
626 477 M 628 500 L S
628 500 M 631 524 L S
631 524 M 633 547 L S
633 547 M 635 571 L S
635 571 M 638 595 L S
638 595 M 640 618 L S
640 618 M 642 640 L S
642 640 M 644 659 L S
644 659 M 647 677 L S
647 677 M 649 691 L S
649 691 M 651 703 L S
651 703 M 653 712 L S
653 712 M 656 719 L S
656 719 M 658 723 L S
658 723 M 660 727 L S
660 727 M 662 729 L S
662 729 M 665 730 L S
665 730 M 667 731 L S
667 731 M 669 732 L S
669 732 M 671 733 L S
671 733 M 674 733 L S
674 733 M 676 733 L S
676 733 M 678 733 L S
678 733 M 681 733 L S
681 733 M 683 733 L S
683 733 M 685 733 L S
685 733 M 687 733 L S
687 733 M 690 733 L S
690 733 M 692 733 L S
692 733 M 694 733 L S
694 733 M 696 733 L S
696 733 M 699 733 L S
699 733 M 701 733 L S
701 733 M 703 733 L S
703 733 M 705 733 L S
705 733 M 708 733 L S
708 733 M 710 733 L S
710 733 M 712 733 L S
712 733 M 715 733 L S
715 733 M 717 733 L S
717 733 M 719 733 L S
719 733 M 721 733 L S
721 733 M 724 733 L S
724 733 M 726 733 L S
726 733 M 728 733 L S
728 733 M 730 733 L S
730 733 M 733 733 L S
733 733 M 735 733 L S
735 733 M 737 733 L S
737 733 M 739 733 L S
739 733 M 742 733 L S
742 733 M 744 733 L S
744 733 M 746 733 L S
746 733 M 748 733 L S
748 733 M 751 733 L S
751 733 M 753 733 L S
753 733 M 755 733 L S
755 733 M 758 733 L S
758 733 M 760 733 L S
760 733 M 762 732 L S
762 732 M 764 732 L S
764 732 M 767 732 L S
767 732 M 769 732 L S
769 732 M 771 732 L S
771 732 M 773 732 L S
773 732 M 776 732 L S
776 732 M 778 732 L S
778 732 M 780 731 L S
780 731 M 782 731 L S
782 731 M 785 730 L S
785 730 M 787 730 L S
787 730 M 789 729 L S
789 729 M 791 728 L S
791 728 M 794 726 L S
794 726 M 796 723 L S
796 723 M 798 720 L S
798 720 M 801 715 L S
801 715 M 803 708 L S
803 708 M 805 699 L S
805 699 M 807 688 L S
807 688 M 810 674 L S
810 674 M 812 657 L S
812 657 M 814 639 L S
814 639 M 816 619 L S
816 619 M 819 597 L S
819 597 M 821 575 L S
821 575 M 823 552 L S
823 552 M 825 530 L S
825 530 M 828 507 L S
828 507 M 830 485 L S
830 485 M 832 464 L S
832 464 M 835 443 L S
835 443 M 837 423 L S
837 423 M 839 403 L S
839 403 M 841 385 L S
841 385 M 844 367 L S
844 367 M 846 349 L S
846 349 M 848 332 L S
848 332 M 850 316 L S
850 316 M 853 300 L S
853 300 M 855 285 L S
855 285 M 857 271 L S
857 271 M 859 257 L S
859 257 M 862 245 L S
862 245 M 864 234 L S
864 234 M 866 223 L S
866 223 M 868 214 L S
868 214 M 871 205 L S
871 205 M 873 198 L S
873 198 M 875 191 L S
875 191 M 878 185 L S
878 185 M 880 180 L S
880 180 M 882 176 L S
882 176 M 884 172 L S
884 172 M 887 169 L S
887 169 M 889 166 L S
889 166 M 891 164 L S
891 164 M 893 162 L S
893 162 M 896 160 L S
896 160 M 898 159 L S
898 159 M 900 159 L S
900 159 M 902 158 L S
902 158 M 905 157 L S
905 157 M 907 157 L S
907 157 M 909 157 L S
909 157 M 912 157 L S
912 157 M 914 157 L S
914 157 M 916 157 L S
916 157 M 918 157 L S
918 157 M 921 157 L S
921 157 M 923 157 L S
923 157 M 925 157 L S
925 157 M 927 157 L S
927 157 M 930 157 L S
930 157 M 932 157 L S
932 157 M 934 157 L S
934 157 M 936 157 L S
936 157 M 939 157 L S
939 157 M 941 157 L S
941 157 M 943 157 L S
943 157 M 945 157 L S
945 157 M 948 158 L S
948 158 M 950 158 L S
950 158 M 952 158 L S
952 158 M 955 158 L S
955 158 M 957 158 L S
957 158 M 959 158 L S
959 158 M 961 158 L S
961 158 M 964 158 L S
964 158 M 966 158 L S
966 158 M 968 158 L S
968 158 M 970 158 L S
970 158 M 971 158 L S
502 158 M 502 158 L S
502 158 M 502 158 L S
502 158 M 504 159 L S
504 159 M 506 159 L S
506 159 M 509 159 L S
509 159 M 511 160 L S
511 160 M 513 161 L S
513 161 M 515 163 L S
515 163 M 518 165 L S
518 165 M 520 168 L S
520 168 M 522 171 L S
522 171 M 524 175 L S
524 175 M 527 180 L S
527 180 M 529 186 L S
529 186 M 531 193 L S
531 193 M 534 201 L S
534 201 M 536 210 L S
536 210 M 538 220 L S
538 220 M 540 232 L S
540 232 M 543 244 L S
543 244 M 545 258 L S
545 258 M 547 272 L S
547 272 M 549 288 L S
549 288 M 552 306 L S
552 306 M 554 324 L S
554 324 M 556 343 L S
556 343 M 558 363 L S
558 363 M 561 384 L S
561 384 M 563 407 L S
563 407 M 565 430 L S
565 430 M 567 454 L S
567 454 M 570 479 L S
570 479 M 572 504 L S
572 504 M 574 531 L S
574 531 M 577 557 L S
577 557 M 579 582 L S
579 582 M 581 606 L S
581 606 M 583 629 L S
583 629 M 586 649 L S
586 649 M 588 665 L S
588 665 M 590 677 L S
590 677 M 592 685 L S
592 685 M 595 689 L S
595 689 M 597 689 L S
597 689 M 599 686 L S
599 686 M 601 679 L S
601 679 M 604 670 L S
604 670 M 606 659 L S
606 659 M 608 646 L S
608 646 M 611 631 L S
611 631 M 613 614 L S
613 614 M 615 597 L S
615 597 M 617 579 L S
617 579 M 620 560 L S
620 560 M 622 542 L S
622 542 M 624 524 L S
624 524 M 626 506 L S
626 506 M 629 489 L S
629 489 M 631 472 L S
631 472 M 633 455 L S
633 455 M 635 440 L S
635 440 M 638 424 L S
638 424 M 640 410 L S
640 410 M 642 396 L S
642 396 M 644 382 L S
644 382 M 647 368 L S
647 368 M 649 354 L S
649 354 M 651 341 L S
651 341 M 654 327 L S
654 327 M 656 314 L S
656 314 M 658 301 L S
658 301 M 660 288 L S
660 288 M 663 275 L S
663 275 M 665 263 L S
665 263 M 667 251 L S
667 251 M 669 240 L S
669 240 M 672 230 L S
672 230 M 674 220 L S
674 220 M 676 211 L S
676 211 M 678 204 L S
678 204 M 681 197 L S
681 197 M 683 190 L S
683 190 M 685 184 L S
685 184 M 688 180 L S
688 180 M 690 175 L S
690 175 M 692 172 L S
692 172 M 694 168 L S
694 168 M 697 166 L S
697 166 M 699 164 L S
699 164 M 701 162 L S
701 162 M 703 160 L S
703 160 M 706 159 L S
706 159 M 708 158 L S
708 158 M 710 158 L S
710 158 M 712 157 L S
712 157 M 715 157 L S
715 157 M 717 156 L S
717 156 M 719 156 L S
719 156 M 721 156 L S
721 156 M 724 156 L S
724 156 M 726 156 L S
726 156 M 728 156 L S
728 156 M 731 156 L S
731 156 M 733 156 L S
733 156 M 735 156 L S
735 156 M 737 156 L S
737 156 M 740 156 L S
740 156 M 742 156 L S
742 156 M 744 156 L S
744 156 M 746 156 L S
746 156 M 749 156 L S
749 156 M 751 156 L S
751 156 M 753 156 L S
753 156 M 755 157 L S
755 157 M 758 157 L S
758 157 M 760 157 L S
760 157 M 762 157 L S
762 157 M 764 157 L S
764 157 M 767 157 L S
767 157 M 769 157 L S
769 157 M 771 157 L S
771 157 M 774 157 L S
774 157 M 776 157 L S
776 157 M 778 157 L S
778 157 M 780 157 L S
780 157 M 783 157 L S
783 157 M 785 157 L S
785 157 M 787 157 L S
787 157 M 789 157 L S
789 157 M 792 157 L S
792 157 M 794 157 L S
794 157 M 796 158 L S
796 158 M 798 158 L S
798 158 M 801 158 L S
801 158 M 803 158 L S
803 158 M 805 158 L S
805 158 M 808 158 L S
808 158 M 810 158 L S
810 158 M 812 158 L S
812 158 M 814 158 L S
814 158 M 817 158 L S
817 158 M 819 158 L S
819 158 M 821 158 L S
821 158 M 823 158 L S
823 158 M 826 158 L S
826 158 M 828 158 L S
828 158 M 830 157 L S
830 157 M 832 157 L S
832 157 M 835 157 L S
835 157 M 837 157 L S
837 157 M 839 157 L S
839 157 M 841 157 L S
841 157 M 844 157 L S
844 157 M 846 158 L S
846 158 M 848 158 L S
848 158 M 851 158 L S
851 158 M 853 157 L S
853 157 M 855 157 L S
855 157 M 857 157 L S
857 157 M 860 157 L S
860 157 M 862 158 L S
862 158 M 864 158 L S
864 158 M 866 158 L S
866 158 M 869 158 L S
869 158 M 871 158 L S
871 158 M 873 158 L S
873 158 M 875 158 L S
875 158 M 878 158 L S
878 158 M 880 158 L S
880 158 M 882 158 L S
882 158 M 885 158 L S
885 158 M 887 158 L S
887 158 M 889 158 L S
889 158 M 891 158 L S
891 158 M 894 158 L S
894 158 M 896 158 L S
896 158 M 898 158 L S
898 158 M 900 158 L S
900 158 M 903 158 L S
903 158 M 905 158 L S
905 158 M 907 158 L S
907 158 M 909 158 L S
909 158 M 912 158 L S
912 158 M 914 158 L S
502 158 M 502 158 L S
502 158 M 502 158 L S
502 158 M 504 159 L S
504 159 M 506 159 L S
506 159 M 509 159 L S
509 159 M 511 160 L S
511 160 M 513 161 L S
513 161 M 515 163 L S
515 163 M 518 165 L S
518 165 M 520 168 L S
520 168 M 522 171 L S
522 171 M 524 175 L S
524 175 M 527 180 L S
527 180 M 529 186 L S
529 186 M 531 193 L S
531 193 M 534 201 L S
534 201 M 536 210 L S
536 210 M 538 220 L S
538 220 M 540 232 L S
540 232 M 543 244 L S
543 244 M 545 258 L S
545 258 M 547 272 L S
547 272 M 549 288 L S
549 288 M 552 306 L S
552 306 M 554 324 L S
554 324 M 556 343 L S
556 343 M 558 363 L S
558 363 M 561 384 L S
561 384 M 563 407 L S
563 407 M 565 430 L S
565 430 M 567 454 L S
567 454 M 570 479 L S
570 479 M 572 504 L S
572 504 M 574 531 L S
574 531 M 577 557 L S
577 557 M 579 582 L S
579 582 M 581 606 L S
581 606 M 583 629 L S
583 629 M 586 649 L S
586 649 M 588 665 L S
588 665 M 590 677 L S
590 677 M 592 685 L S
592 685 M 595 689 L S
595 689 M 597 689 L S
597 689 M 599 686 L S
599 686 M 601 679 L S
601 679 M 604 670 L S
604 670 M 606 659 L S
606 659 M 608 646 L S
608 646 M 611 631 L S
611 631 M 613 614 L S
613 614 M 615 597 L S
615 597 M 617 579 L S
617 579 M 620 560 L S
620 560 M 622 542 L S
622 542 M 624 524 L S
624 524 M 626 506 L S
626 506 M 629 489 L S
629 489 M 631 472 L S
631 472 M 633 455 L S
633 455 M 635 440 L S
635 440 M 638 424 L S
638 424 M 640 410 L S
640 410 M 642 396 L S
642 396 M 644 382 L S
644 382 M 647 368 L S
647 368 M 649 354 L S
649 354 M 651 341 L S
651 341 M 654 327 L S
654 327 M 656 314 L S
656 314 M 658 301 L S
658 301 M 660 288 L S
660 288 M 663 275 L S
663 275 M 665 263 L S
665 263 M 667 251 L S
667 251 M 669 240 L S
669 240 M 672 230 L S
672 230 M 674 220 L S
674 220 M 676 211 L S
676 211 M 678 204 L S
678 204 M 681 197 L S
681 197 M 683 190 L S
683 190 M 685 184 L S
685 184 M 688 180 L S
688 180 M 690 175 L S
690 175 M 692 172 L S
692 172 M 694 168 L S
694 168 M 697 166 L S
697 166 M 699 164 L S
699 164 M 701 162 L S
701 162 M 703 160 L S
703 160 M 706 159 L S
706 159 M 708 158 L S
708 158 M 710 158 L S
710 158 M 712 157 L S
712 157 M 715 157 L S
715 157 M 717 156 L S
717 156 M 719 156 L S
719 156 M 721 156 L S
721 156 M 724 156 L S
724 156 M 726 156 L S
726 156 M 728 156 L S
728 156 M 731 156 L S
731 156 M 733 156 L S
733 156 M 735 156 L S
735 156 M 737 156 L S
737 156 M 740 156 L S
740 156 M 742 156 L S
742 156 M 744 156 L S
744 156 M 746 156 L S
746 156 M 749 156 L S
749 156 M 751 156 L S
751 156 M 753 156 L S
753 156 M 755 157 L S
755 157 M 758 157 L S
758 157 M 760 157 L S
760 157 M 762 157 L S
762 157 M 764 157 L S
764 157 M 767 157 L S
767 157 M 769 157 L S
769 157 M 771 157 L S
771 157 M 774 157 L S
774 157 M 776 157 L S
776 157 M 778 157 L S
778 157 M 780 157 L S
780 157 M 783 157 L S
783 157 M 785 157 L S
785 157 M 787 157 L S
787 157 M 789 157 L S
789 157 M 792 157 L S
792 157 M 794 157 L S
794 157 M 796 158 L S
796 158 M 798 158 L S
798 158 M 801 158 L S
801 158 M 803 158 L S
803 158 M 805 158 L S
805 158 M 808 158 L S
808 158 M 810 158 L S
810 158 M 812 158 L S
812 158 M 814 158 L S
814 158 M 817 158 L S
817 158 M 819 158 L S
819 158 M 821 158 L S
821 158 M 823 158 L S
823 158 M 826 158 L S
826 158 M 828 158 L S
828 158 M 830 157 L S
830 157 M 832 157 L S
832 157 M 835 157 L S
835 157 M 837 157 L S
837 157 M 839 157 L S
839 157 M 841 157 L S
841 157 M 844 157 L S
844 157 M 846 158 L S
846 158 M 848 158 L S
848 158 M 851 158 L S
851 158 M 853 157 L S
853 157 M 855 157 L S
855 157 M 857 157 L S
857 157 M 860 157 L S
860 157 M 862 158 L S
862 158 M 864 158 L S
864 158 M 866 158 L S
866 158 M 869 158 L S
869 158 M 871 158 L S
871 158 M 873 158 L S
873 158 M 875 158 L S
875 158 M 878 158 L S
878 158 M 880 158 L S
880 158 M 882 158 L S
882 158 M 885 158 L S
885 158 M 887 158 L S
887 158 M 889 158 L S
889 158 M 891 158 L S
891 158 M 894 158 L S
894 158 M 896 158 L S
896 158 M 898 158 L S
898 158 M 900 158 L S
900 158 M 903 158 L S
903 158 M 905 158 L S
905 158 M 907 158 L S
907 158 M 909 158 L S
909 158 M 912 158 L S
912 158 M 914 158 L S
502 158 M 502 158 L S
502 158 M 502 158 L S
502 158 M 504 159 L S
504 159 M 506 159 L S
506 159 M 509 159 L S
509 159 M 511 160 L S
511 160 M 513 161 L S
513 161 M 515 163 L S
515 163 M 518 165 L S
518 165 M 520 168 L S
520 168 M 522 171 L S
522 171 M 524 175 L S
524 175 M 527 180 L S
527 180 M 529 186 L S
529 186 M 531 193 L S
531 193 M 534 201 L S
534 201 M 536 210 L S
536 210 M 538 220 L S
538 220 M 540 232 L S
540 232 M 543 244 L S
543 244 M 545 258 L S
545 258 M 547 272 L S
547 272 M 549 288 L S
549 288 M 552 306 L S
552 306 M 554 324 L S
554 324 M 556 343 L S
556 343 M 558 363 L S
558 363 M 561 384 L S
561 384 M 563 407 L S
563 407 M 565 430 L S
565 430 M 567 454 L S
567 454 M 570 479 L S
570 479 M 572 504 L S
572 504 M 574 531 L S
574 531 M 577 557 L S
577 557 M 579 582 L S
579 582 M 581 606 L S
581 606 M 583 629 L S
583 629 M 586 649 L S
586 649 M 588 665 L S
588 665 M 590 677 L S
590 677 M 592 685 L S
592 685 M 595 689 L S
595 689 M 597 689 L S
597 689 M 599 686 L S
599 686 M 601 679 L S
601 679 M 604 670 L S
604 670 M 606 659 L S
606 659 M 608 646 L S
608 646 M 611 631 L S
611 631 M 613 614 L S
613 614 M 615 597 L S
615 597 M 617 579 L S
617 579 M 620 560 L S
620 560 M 622 542 L S
622 542 M 624 524 L S
624 524 M 626 506 L S
626 506 M 629 489 L S
629 489 M 631 472 L S
631 472 M 633 455 L S
633 455 M 635 440 L S
635 440 M 638 424 L S
638 424 M 640 410 L S
640 410 M 642 396 L S
642 396 M 644 382 L S
644 382 M 647 368 L S
647 368 M 649 354 L S
649 354 M 651 341 L S
651 341 M 654 327 L S
654 327 M 656 314 L S
656 314 M 658 301 L S
658 301 M 660 288 L S
660 288 M 663 275 L S
663 275 M 665 263 L S
665 263 M 667 251 L S
667 251 M 669 240 L S
669 240 M 672 230 L S
672 230 M 674 220 L S
674 220 M 676 211 L S
676 211 M 678 204 L S
678 204 M 681 197 L S
681 197 M 683 190 L S
683 190 M 685 184 L S
685 184 M 688 180 L S
688 180 M 690 175 L S
690 175 M 692 172 L S
692 172 M 694 168 L S
694 168 M 697 166 L S
697 166 M 699 164 L S
699 164 M 701 162 L S
701 162 M 703 160 L S
703 160 M 706 159 L S
706 159 M 708 158 L S
708 158 M 710 158 L S
710 158 M 712 157 L S
712 157 M 715 157 L S
715 157 M 717 156 L S
717 156 M 719 156 L S
719 156 M 721 156 L S
721 156 M 724 156 L S
724 156 M 726 156 L S
726 156 M 728 156 L S
728 156 M 731 156 L S
731 156 M 733 156 L S
733 156 M 735 156 L S
735 156 M 737 156 L S
737 156 M 740 156 L S
740 156 M 742 156 L S
742 156 M 744 156 L S
744 156 M 746 156 L S
746 156 M 749 156 L S
749 156 M 751 156 L S
751 156 M 753 156 L S
753 156 M 755 157 L S
755 157 M 758 157 L S
758 157 M 760 157 L S
760 157 M 762 157 L S
762 157 M 764 157 L S
764 157 M 767 157 L S
767 157 M 769 157 L S
769 157 M 771 157 L S
771 157 M 774 157 L S
774 157 M 776 157 L S
776 157 M 778 157 L S
778 157 M 780 157 L S
780 157 M 783 157 L S
783 157 M 785 157 L S
785 157 M 787 157 L S
787 157 M 789 157 L S
789 157 M 792 157 L S
792 157 M 794 157 L S
794 157 M 796 158 L S
796 158 M 798 158 L S
798 158 M 801 158 L S
801 158 M 803 158 L S
803 158 M 805 158 L S
805 158 M 808 158 L S
808 158 M 810 158 L S
810 158 M 812 158 L S
812 158 M 814 158 L S
814 158 M 817 158 L S
817 158 M 819 158 L S
819 158 M 821 158 L S
821 158 M 823 158 L S
823 158 M 826 158 L S
826 158 M 828 158 L S
828 158 M 830 157 L S
830 157 M 832 157 L S
832 157 M 835 157 L S
835 157 M 837 157 L S
837 157 M 839 157 L S
839 157 M 841 157 L S
841 157 M 844 157 L S
844 157 M 846 158 L S
846 158 M 848 158 L S
848 158 M 851 158 L S
851 158 M 853 157 L S
853 157 M 855 157 L S
855 157 M 857 157 L S
857 157 M 860 157 L S
860 157 M 862 158 L S
862 158 M 864 158 L S
864 158 M 866 158 L S
866 158 M 869 158 L S
869 158 M 871 158 L S
871 158 M 873 158 L S
873 158 M 875 158 L S
875 158 M 878 158 L S
878 158 M 880 158 L S
880 158 M 882 158 L S
882 158 M 885 158 L S
885 158 M 887 158 L S
887 158 M 889 158 L S
889 158 M 891 158 L S
891 158 M 894 158 L S
894 158 M 896 158 L S
896 158 M 898 158 L S
898 158 M 900 158 L S
900 158 M 903 158 L S
903 158 M 905 158 L S
905 158 M 907 158 L S
907 158 M 909 158 L S
909 158 M 912 158 L S
912 158 M 914 158 L S
914 158 M 914 158 L S
/Courier-Bold findfont 27 scalefont setfont
101 764 M (Zgoubi|Zpop                                                                     ) H
101 743 M (03-11-2017                                                                      ) H
/Courier-Bold findfont 26 scalefont setfont
160 85 M (* # TRAJECTORIES - STORAGE FILE, 03-11-2017 12:13:47 *                                                                            ) H
293 755 M (  BZ     (T)  vs.    s     (m)                                                                                                    ) H
26 42 M (Mi-ma H/V:    1.15       6.92    / -6.788E-03   1.80                                                                              ) H
26 21 M (Part#  1- 10000 (*); Lmnt#     1; pass#       1-      1, [    1];   3228 pnts                                                     ) H
showpage
