
  Job  started  on   6-Oct-95,  at  15:14:22

 ...  Copy of the ZGOUBI input data file  ...                                   


********************************************************************************************************************************
      1  OBJET             
                RIGIDITE  MAGNETIQUE =       2335.000 KG*CM

                                         CALCUL  DES  TRAJECTOIRES

                              OBJET  (5)  FORME  DE   11 POINTS 



                              Y (cm)    T (mrd)   Z (cm)    P (mrd)   S (cm)     dp/p 
               Sampling :        .15      1.50       .08      2.25       .00     .0010
   Reference trajectory :        .00       .00       .00       .00       .00    1.0000


********************************************************************************************************************************
      2  ESL               

                              ESPACE  LIBRE =    41.50000  CM

  TRAJ #1  D,Y,T,Z,P,S :  1.0000E+00   .0000E+00   .0000E+00   .0000E+00   .0000E+00      4.15000E+01

********************************************************************************************************************************
      3  CARTEMES          

          ++++  CONCORDE ++++                                                             
          CONCORD.MAP                                                                     


      CHAMP MIN/MAX CARTE MEDIANE : -8.225E+03                      8.245E+03                    
         A  X(CM),  Y(CM), Z(CM)  :   .00E+00   .00E+00   .00E+00    .00E+00   .00E+00   .00E+00 
      COEFFICIENT DE NORMALISATION: -9.6136E-04
      CHAMP MIN/MAX NORMALISE     :  7.907E+00                     -7.926E+00                    

      NBRE DE PAS EN X =  39  NBRE DE PAS EN Y =   23
      PAS EN X =  2.0000E+00 CM,  PAS EN Y =  1.0000E+00 CM

                     OPTION  DE  CALCUL  :25
                     LISSAGE  A  25  POINTS 

                    Integration step :       .50 cm


     ELEMENT  DECENTRE  PAR  RAPPORT  A  L'AXE  OPTIQUE
          CENTRE  DE  LA  FACE  D'ENTREE  EN  X =    .00 CM   Y =    .00 CM   INCLINAISON = .00000 RAD


********************************************************************************************************************************
      4  ESL               

                              ESPACE  LIBRE =    21.80000  CM

  TRAJ #1  D,Y,T,Z,P,S :  1.0000E+00  3.9609E-03  3.5922E-02   .0000E+00   .0000E+00      1.39300E+02

********************************************************************************************************************************
      5  FAISCEAU          
0                                             TRACE DU FAISCEAU

                                               11 TRAJECTOIRES

                                   OBJET                                                  FAISCEAU

          D      Y(CM)    T(MR)    Z(CM)    P(MR)    S(CM)          D      Y(CM)    T(MR)    Z(CM)    P(MR)    S(CM)

 
 O  1  1.0000     .000     .000     .000     .000     .000       1.0000     .004     .036     .000     .000       139.300   1  1
 
 A  1  1.0000     .150     .000     .000     .000     .000       1.0000     .274    2.090     .000     .000       139.300   2  2
 
 B  1  1.0000    -.150     .000     .000     .000     .000       1.0000    -.266   -2.018     .000     .000       139.300   3  3
 
 C  1  1.0000     .000    1.500     .000     .000     .000       1.0000     .304    3.152     .000     .000       139.300   4  4
 
 D  1  1.0000     .000   -1.500     .000     .000     .000       1.0000    -.296   -3.080     .000     .000       139.300   5  5
 E  1  1.0000     .000     .000     .075     .000     .000       1.0000     .004     .036     .024    -.845       139.300   6  6
 F  1  1.0000     .000     .000    -.075     .000     .000       1.0000     .004     .036    -.024     .845       139.300   7  7
 G  1  1.0000     .000     .000     .000    2.250     .000       1.0000     .004     .036     .194     .197       139.300   8  8
 H  1  1.0000     .000     .000     .000   -2.250     .000       1.0000     .004     .036    -.194    -.197       139.300   9  9
 
 I  1  1.0010     .000     .000     .000     .000     .000       1.0010     .004     .036     .000     .000       139.300  10 10
 
 J  1   .9990     .000     .000     .000     .000     .000        .9990     .004     .036     .000     .000       139.300  11 11

********************************************************************************************************************************
      6  CHANGREF          

 CHANGEMENT  DE  REFERENCE  XC =      .000 CM , YC =    32.500  CM ,   A = -35.60000 DEG  SOIT :  -.621337 RD

  TRAJ #1  D,Y,T,Z,P,S :  1.0000E+00 -3.9967E+01  6.2137E+02   .0000E+00   .0000E+00      1.16035E+02

********************************************************************************************************************************
      7  CARTEMES          

          ++++  A1 ++++                                                                   
          A1.MAP                                                                          


      CHAMP MIN/MAX CARTE MEDIANE : -4.900E+01                      1.733E+04                    
         A  X(CM),  Y(CM), Z(CM)  :   .00E+00   .00E+00   .00E+00    .00E+00   .00E+00   .00E+00 
      COEFFICIENT DE NORMALISATION:  1.0428E-03
      CHAMP MIN/MAX NORMALISE     : -5.110E-02                      1.808E+01                    

      NBRE DE PAS EN X = 117  NBRE DE PAS EN Y =   52
      PAS EN X =  2.0000E+00 CM,  PAS EN Y =  2.0000E+00 CM

                     OPTION  DE  CALCUL  :25
                     LISSAGE  A  25  POINTS 

                    Integration step :       .50 cm


     ELEMENT  DECENTRE  PAR  RAPPORT  A  L'AXE  OPTIQUE
          CENTRE  DE  LA  FACE  D'ENTREE  EN  X =    .00 CM   Y =    .00 CM   INCLINAISON = .00000 RAD


********************************************************************************************************************************
      8  CHANGREF          

 CHANGEMENT  DE  REFERENCE  XC =      .000 CM , YC =   -28.650  CM ,   A = -27.61370 DEG  SOIT :  -.481950 RD

  TRAJ #1  D,Y,T,Z,P,S :  1.0000E+00  1.4231E+00  1.0763E+01   .0000E+00   .0000E+00      3.71614E+02

********************************************************************************************************************************
      9  FAISCEAU          
0                                             TRACE DU FAISCEAU

                                               11 TRAJECTOIRES

                                   OBJET                                                  FAISCEAU

          D      Y(CM)    T(MR)    Z(CM)    P(MR)    S(CM)          D      Y(CM)    T(MR)    Z(CM)    P(MR)    S(CM)

 
 O  1  1.0000     .000     .000     .000     .000     .000       1.0000    1.423   10.763     .000     .000       371.614   1  1
 
 A  1  1.0000     .150     .000     .000     .000     .000       1.0000    1.879   10.467     .000     .000       372.104   2  2
 
 B  1  1.0000    -.150     .000     .000     .000     .000       1.0000     .966   11.051     .000     .000       371.124   3  3
 
 C  1  1.0000     .000    1.500     .000     .000     .000       1.0000    2.069   10.841     .000     .000       372.244   4  4
 
 D  1  1.0000     .000   -1.500     .000     .000     .000       1.0000     .779   10.687     .000     .000       370.986   5  5
 E  1  1.0000     .000     .000     .075     .000     .000       1.0000    1.423   10.762    -.167    -.727       371.614   6  6
 F  1  1.0000     .000     .000    -.075     .000     .000       1.0000    1.423   10.762     .167     .727       371.614   7  7
 G  1  1.0000     .000     .000     .000    2.250     .000       1.0000    1.423   10.763     .162    -.302       371.614   8  8
 H  1  1.0000     .000     .000     .000   -2.250     .000       1.0000    1.423   10.763    -.162     .302       371.614   9  9
 
 I  1  1.0010     .000     .000     .000     .000     .000       1.0010    1.553   11.740     .000     .000       371.643  10 10
 
 J  1   .9990     .000     .000     .000     .000     .000        .9990    1.293    9.780     .000     .000       371.584  11 11

********************************************************************************************************************************
     10  ESL               

                              ESPACE  LIBRE =    33.15000  CM

  TRAJ #1  D,Y,T,Z,P,S :  1.0000E+00  1.7799E+00  1.0763E+01   .0000E+00   .0000E+00      4.04766E+02

********************************************************************************************************************************
     11  CHANGREF          

 CHANGEMENT  DE  REFERENCE  XC =      .000 CM , YC =    27.500  CM ,   A = -19.88000 DEG  SOIT :  -.346971 RD

  TRAJ #1  D,Y,T,Z,P,S :  1.0000E+00 -2.7457E+01  3.5773E+02   .0000E+00   .0000E+00      3.95428E+02

********************************************************************************************************************************
     12  CARTEMES          

          ++++  A2 ++++                                                                   
          A2.MAP                                                                          


      CHAMP MIN/MAX CARTE MEDIANE : -6.620E+01                      1.684E+04                    
         A  X(CM),  Y(CM), Z(CM)  :   .00E+00   .00E+00   .00E+00    .00E+00   .00E+00   .00E+00 
      COEFFICIENT DE NORMALISATION:  1.0578E-03
      CHAMP MIN/MAX NORMALISE     : -7.003E-02                      1.782E+01                    

      NBRE DE PAS EN X = 132  NBRE DE PAS EN Y =   80
      PAS EN X =  2.0000E+00 CM,  PAS EN Y =  2.0000E+00 CM

                     OPTION  DE  CALCUL  :25
                     LISSAGE  A  25  POINTS 

                    Integration step :       .50 cm


     ELEMENT  DECENTRE  PAR  RAPPORT  A  L'AXE  OPTIQUE
          CENTRE  DE  LA  FACE  D'ENTREE  EN  X =    .00 CM   Y =    .00 CM   INCLINAISON = .00000 RAD


********************************************************************************************************************************
     13  CHANGREF          

 CHANGEMENT  DE  REFERENCE  XC =    41.000 CM , YC =   -81.000  CM ,   A = -21.94500 DEG  SOIT :  -.383013 RD

  TRAJ #1  D,Y,T,Z,P,S :  1.0000E+00  7.1240E-01  1.0859E+00   .0000E+00   .0000E+00      7.16140E+02

********************************************************************************************************************************
     14  FAISCEAU          
0                                             TRACE DU FAISCEAU

                                               11 TRAJECTOIRES

                                   OBJET                                                  FAISCEAU

          D      Y(CM)    T(MR)    Z(CM)    P(MR)    S(CM)          D      Y(CM)    T(MR)    Z(CM)    P(MR)    S(CM)

 
 O  1  1.0000     .000     .000     .000     .000     .000       1.0000     .712    1.086     .000     .000       716.140   1  1
 
 A  1  1.0000     .150     .000     .000     .000     .000       1.0000     .656   -1.470     .000     .000       716.950   2  2
 
 B  1  1.0000    -.150     .000     .000     .000     .000       1.0000     .765    3.642     .000     .000       715.329   3  3
 
 C  1  1.0000     .000    1.500     .000     .000     .000       1.0000     .724   -2.458     .000     .000       717.266   4  4
 
 D  1  1.0000     .000   -1.500     .000     .000     .000       1.0000     .699    4.617     .000     .000       715.020   5  5
 E  1  1.0000     .000     .000     .075     .000     .000       1.0000     .712    1.086    -.415    -.977       716.140   6  6
 F  1  1.0000     .000     .000    -.075     .000     .000       1.0000     .712    1.086     .415     .977       716.140   7  7
 G  1  1.0000     .000     .000     .000    2.250     .000       1.0000     .712    1.084     .013    -.377       716.141   8  8
 H  1  1.0000     .000     .000     .000   -2.250     .000       1.0000     .712    1.084    -.013     .377       716.141   9  9
 
 I  1  1.0010     .000     .000     .000     .000     .000       1.0010    1.028    1.090     .000     .000       716.362  10 10
 
 J  1   .9990     .000     .000     .000     .000     .000        .9990     .392    1.063     .000     .000       715.918  11 11

********************************************************************************************************************************
     15  IMAGES            

     RECHERCHE DU POINT DE FOCALISATION HORIZONTAL DE 11 TRAJECTOIRES (SUR 11)

     POINT DE FOCALISATION HORIZONTAL SUR L ORBITE MOYENNE    X =    -5.27 CM    Y =      .71 CM

     DECALAGE DU CENTRE DE GRAVITE EN Y =       .00 CM

     LARGEUR IMAGE,  A MI-HAUTEUR =     .322282 CM,  TOTALE =     .634917 CM
                                      .........                 .........

0                                             TRACE DU FAISCEAU

                                               11 TRAJECTOIRES

                                   OBJET                                                  FAISCEAU

          D      Y(CM)    T(MR)    Z(CM)    P(MR)    S(CM)          D      Y(CM)    T(MR)    Z(CM)    P(MR)    S(CM)

 
 O  1  1.0000     .000     .000     .000     .000     .000       1.0000     .712    1.086     .000     .000       716.140   1  1
 
 A  1  1.0000     .150     .000     .000     .000     .000       1.0000     .656   -1.470     .000     .000       716.950   2  2
 
 B  1  1.0000    -.150     .000     .000     .000     .000       1.0000     .765    3.642     .000     .000       715.329   3  3
 
 C  1  1.0000     .000    1.500     .000     .000     .000       1.0000     .724   -2.458     .000     .000       717.266   4  4
 
 D  1  1.0000     .000   -1.500     .000     .000     .000       1.0000     .699    4.617     .000     .000       715.020   5  5
 E  1  1.0000     .000     .000     .075     .000     .000       1.0000     .712    1.086    -.415    -.977       716.140   6  6
 F  1  1.0000     .000     .000    -.075     .000     .000       1.0000     .712    1.086     .415     .977       716.140   7  7
 G  1  1.0000     .000     .000     .000    2.250     .000       1.0000     .712    1.084     .013    -.377       716.141   8  8
 H  1  1.0000     .000     .000     .000   -2.250     .000       1.0000     .712    1.084    -.013     .377       716.141   9  9
 
 I  1  1.0010     .000     .000     .000     .000     .000       1.0010    1.028    1.090     .000     .000       716.362  10 10
 
 J  1   .9990     .000     .000     .000     .000     .000        .9990     .392    1.063     .000     .000       715.918  11 11

********************************************************************************************************************************
     16  MATRIX            

           Frame for MATRIX calculation moved by :
            XC =    3.487 CM , YC =     .716  CM ,   A =   .06222 DEG  ( =  .001086 RD )
            Path length of particle #1 :    719.6271 m



                  MATRICE  DE  TRANSFERT  ORDRE  1  ( MKSA )

         -.423986    .000003    .000000    .000000    .000000   3.175763
        -1.704148  -2.358451    .000000    .000000    .000000    .013496
          .000000    .000000  -5.576721    .051195    .000000    .000000
          .000000    .000000  -1.302825   -.167356    .000000    .000000
         5.403398   7.488679    .000000    .000000   1.000000   2.214685
          .000000    .000000    .000000    .000000    .000000   1.000000

      Determinants  :        1-DetY =  .0000440639
                             1-DetZ =  .0000013574

       R12=0  at         .0000  metres
       R34=0  at         .3059  metres

      First order sympletic conditions (expected values = 0) :
        -4.4064E-05   -1.3574E-06    1.4565E-13    2.5948E-13   -6.8706E-13   -4.2969E-13

 TRAJ #1  D,Y,T,Z,P,S :  1.0000E+00 -6.5052E-18   .0000E+00   .0000E+00   .0000E+00      7.19627E+02

********************************************************************************************************************************
     16  FIN               

********************************************************************************************************************************

           PGM PRINCIPAL : ARRET SUR CLE   FIN     

********************************************************************************************************************************

  Job  started  on   6-Oct-95,  at  15:14:22

  Job  ended  on   6-Oct-95,  at  15:14:24

