
     17-JAN-91

 .......     ZGOUBI         ............                                        
 .......  INPUT  DATA  FILE  ............                                       
  
 ***SPES2 AVEC CARTES ,D'APRES LISTING H.KATZ DU 01/07/76                        
 'OBJET'                                                                        1
 2335.                                                                           
 1                                                                               
 1   5   1   1   5                                                               
 0. 20.  0.  0.  0.09                                                            
 1.                                                                              
 'ESL     '                                                                     2
 41.5                                                                            
 'CARTEMES'                                                                     3
  0  0                                                                           
  -.96136E-3                                                                     
 ++++  CONCORDE ++++                                                             
  39  23                              IX  IY                                     
  CONCORD.MAP                                                                    
  0  0. 0. 0.                            PAS DE DROITE COUPURE                   
 2                                                                               
 1.5                                                                             
 2 0 0 0                                                                         
 'ESL'                                                                          4
 21.8                                                                            
 'FAISCEAU'                                                                     5
 'CHANGREF'                                                                     6
 0. 32.5 -35.6                                                                   
 'CARTEMES'                                                                     7
  0  0 0                                                                         
  1.04279E-3                                                                     
 ++++  A1 ++++                                                                   
  117  52                             IX  IY                                     
  A1.MAP                                                                         
  0  0 0 0                            PAS DE DROITE COUPURE                      
 2                                                                               
 1.5                                                                             
 2 0 0 0                                                                         
 'CHANGREF'                                                                     8
 0. -28.65  -27.6137                                                             
 'FAISCEAU'                                                                     9
 'ESL'                                                                         10
 33.15                                                                           
 'CHANGREF'                                                                    11
 0. 27.5  -19.88                                                                 
 'CARTEMES'                                                                    12
  0  0 0                                                                         
  1.05778E-3                                                                     
 ++++  A2 ++++                                                                   
  132  80                             IX  IY                                     
  A2.MAP                                                                         
  0  0 0 0                            PAS DE DROITE COUPURE                      
 2                                                                               
 1.5                                                                             
 2 0 0 0                                                                         
 'CHANGREF'                                                                    13
 41.  -81.  -21.945                                                              
 'FAISCEAU'                                                                    14
 'IMAGES'                                                                      15
 'FIN'                                                                         16

********************************************************************************************************************
1                RIGIDITE  MAGNETIQUE =       2335.000 KG*CM

                                         CALCUL  DES  TRAJECTOIRES

                              OBJET  (1)  FORME  DE   25 POINTS 



                                          D       Y(CM)     T(MR)     Z(CM)     P(MR)

                              NOMBRE       5         1         5         1         1


                    ECHANTILLONNAGE     0.0900      0.00     20.00      0.00      0.00


********************************************************************************************************************

                              ESPACE  LIBRE =    41.50000  CM

  PARTICULE 1 * D,Y,T,Z,P,SAR :  1.0000E+00  0.0000E+00  0.0000E+00  0.0000E+00  0.0000E+00  4.1500E+01

********************************************************************************************************************

          ++++  CONCORDE ++++                                                             

                               CONCORD.MAP                                                                    


      BZ MINI/MAXI DE LA CARTE MEDIANE   :          -8.2251E+03          8.2448E+03
                    A  X(CM)  ,  Y(CM)   :    0.00E+00 0.00E+00     0.00E+00 0.00E+00
      COEFFICIENT  DE  NORMALISATION     :          -9.6136E-04
      BZ  MINI / MAXI  NORMALISES  (kG)  :           7.9073E+00         -7.9262E+00

                     OPTION  DE  CALCUL  : 2
                     LISSAGE  A   9  POINTS 

                    PAS D'INTEGRATION =      1.50 CM


     ELEMENT  DECENTRE  PAR  RAPPORT  A  L'AXE  OPTIQUE
          CENTRE  DE  LA  FACE  D'ENTREE  EN  X =   0.00 CM   Y =   0.00 CM   INCLINAISON =0.00000 RAD


********************************************************************************************************************

                              ESPACE  LIBRE =    21.80000  CM

  PARTICULE 1 * D,Y,T,Z,P,SAR :  1.0000E+00  4.0202E-03  3.7950E-02  0.0000E+00  0.0000E+00  1.3930E+02

********************************************************************************************************************
0                                             TRACE DU FAISCEAU

                                               25 TRAJECTOIRES

                         OBJET                                             FAISCEAU

          D      Y(CM)    T(MR)    Z(CM)    P(MR)          D      Y(CM)    T(MR)    Z(CM)    P(MR)          SAR(CM)

 
 O  1  1.0000    0.000    0.000    0.000    0.000       1.0000    0.004    0.038    0.000    0.000   1  1   139.30
 
 A  1  1.0000    0.000   20.000    0.000    0.000       1.0000    4.008   41.576    0.000    0.000   2  2   139.36
 
 B  1  1.0000    0.000  -20.000    0.000    0.000       1.0000   -4.001  -41.519    0.000    0.000   3  3   139.36
 
 C  1  1.0000    0.000   40.000    0.000    0.000       1.0000    8.025   83.131    0.000    0.000   4  4   139.56
 
 D  1  1.0000    0.000  -40.000    0.000    0.000       1.0000   -8.020  -83.112    0.000    0.000   5  5   139.55
 
 O  1  1.0900    0.000    0.000    0.000    0.000       1.0900    0.004    0.034    0.000    0.000   6  6   139.30
 
 A  1  1.0900    0.000   20.000    0.000    0.000       1.0900    3.901   39.664    0.000    0.000   7  7   139.36
 
 B  1  1.0900    0.000  -20.000    0.000    0.000       1.0900   -3.894  -39.612    0.000    0.000   8  8   139.36
 
 C  1  1.0900    0.000   40.000    0.000    0.000       1.0900    7.810   79.308    0.000    0.000   9  9   139.54
 
 D  1  1.0900    0.000  -40.000    0.000    0.000       1.0900   -7.805  -79.291    0.000    0.000  10 10   139.54
 
 O  1  0.9100    0.000    0.000    0.000    0.000       0.9100    0.004    0.043    0.000    0.000  11 11   139.30
 
 A  1  0.9100    0.000   20.000    0.000    0.000       0.9100    4.138   43.900    0.000    0.000  12 12   139.37
 
 B  1  0.9100    0.000  -20.000    0.000    0.000       0.9100   -4.130  -43.833    0.000    0.000  13 13   139.37
 
 C  1  0.9100    0.000   40.000    0.000    0.000       0.9100    8.286   87.775    0.000    0.000  14 14   139.58
 
 D  1  0.9100    0.000  -40.000    0.000    0.000       0.9100   -8.280  -87.751    0.000    0.000  15 15   139.58
 
 O  1  1.1800    0.000    0.000    0.000    0.000       1.1800    0.003    0.030    0.000    0.000  16 16   139.30
 
 A  1  1.1800    0.000   20.000    0.000    0.000       1.1800    3.811   38.061    0.000    0.000  17 17   139.36
 
 B  1  1.1800    0.000  -20.000    0.000    0.000       1.1800   -3.805  -38.015    0.000    0.000  18 18   139.36
 
 C  1  1.1800    0.000   40.000    0.000    0.000       1.1800    7.629   76.104    0.000    0.000  19 19   139.53
 
 D  1  1.1800    0.000  -40.000    0.000    0.000       1.1800   -7.625  -76.091    0.000    0.000  20 20   139.53
 
 O  1  0.8200    0.000    0.000    0.000    0.000       0.8200    0.005    0.050    0.000    0.000  21 21   139.30
 
 A  1  0.8200    0.000   20.000    0.000    0.000       0.8200    4.298   46.780    0.000    0.000  22 22   139.38
 
 B  1  0.8200    0.000  -20.000    0.000    0.000       0.8200   -4.289  -46.701    0.000    0.000  23 23   139.38
 
 C  1  0.8200    0.000   40.000    0.000    0.000       0.8200    8.609   93.537    0.000    0.000  24 24   139.60
 
 D  1  0.8200    0.000  -40.000    0.000    0.000       0.8200   -8.602  -93.506    0.000    0.000  25 25   139.60

********************************************************************************************************************

 CHANGEMENT  DE  REFERENCE  XC =    0.000 CM , YC =   32.500  CM ,   A =-35.60000 DEG  SOIT :-0.621337 RD



  PARTICULE 1 * D,Y,T,Z,P,SAR :  1.0000E+00 -3.9967E+01  6.2138E+02  0.0000E+00  0.0000E+00  1.1603E+02

********************************************************************************************************************

          ++++  A1 ++++                                                                   

                               A1.MAP                                                                         


      BZ MINI/MAXI DE LA CARTE MEDIANE   :          -4.9000E+01          1.7335E+04
                    A  X(CM)  ,  Y(CM)   :    0.00E+00 0.00E+00     0.00E+00 0.00E+00
      COEFFICIENT  DE  NORMALISATION     :           1.0428E-03
      BZ  MINI / MAXI  NORMALISES  (kG)  :          -5.1097E-02          1.8077E+01

                     OPTION  DE  CALCUL  : 2
                     LISSAGE  A   9  POINTS 

                    PAS D'INTEGRATION =      1.50 CM


     ELEMENT  DECENTRE  PAR  RAPPORT  A  L'AXE  OPTIQUE
          CENTRE  DE  LA  FACE  D'ENTREE  EN  X =   0.00 CM   Y =   0.00 CM   INCLINAISON =0.00000 RAD


    Y =  -50.29 X =  253.78 T =-0.564 TRAJECTOIRE  13 HORS LIMITES CHAMP MAGNETIQUE  B/BR= -8.6315E-06

    Y =  -50.16 X =  237.21 T =-0.561 TRAJECTOIRE  15 HORS LIMITES CHAMP MAGNETIQUE  B/BR= -7.7519E-06

    Y =  -50.32 X =  241.75 T =-0.684 TRAJECTOIRE  21 HORS LIMITES CHAMP MAGNETIQUE  B/BR= -9.0145E-06

    Y =  -50.57 X =  252.66 T =-0.698 TRAJECTOIRE  22 HORS LIMITES CHAMP MAGNETIQUE  B/BR= -9.5373E-06

    Y =  -50.88 X =  230.34 T =-0.673 TRAJECTOIRE  23 HORS LIMITES CHAMP MAGNETIQUE  B/BR= -7.6870E-06

    Y =  -50.21 X =  216.09 T =-0.664 TRAJECTOIRE  25 HORS LIMITES CHAMP MAGNETIQUE  B/BR=  1.4478E-05

********************************************************************************************************************

 CHANGEMENT  DE  REFERENCE  XC =    0.000 CM , YC =  -28.650  CM ,   A =-27.61370 DEG  SOIT :-0.481950 RD



  PARTICULE 1 * D,Y,T,Z,P,SAR :  1.0000E+00  1.4237E+00  1.0765E+01  0.0000E+00  0.0000E+00  3.7161E+02

********************************************************************************************************************
0                                             TRACE DU FAISCEAU

                                               25 TRAJECTOIRES

                         OBJET                                             FAISCEAU

          D      Y(CM)    T(MR)    Z(CM)    P(MR)          D      Y(CM)    T(MR)    Z(CM)    P(MR)          SAR(CM)

 
 O  1  1.0000    0.000    0.000    0.000    0.000       1.0000    1.424   10.765    0.000    0.000   1  1   371.61
 
 A  1  1.0000    0.000   20.000    0.000    0.000       1.0000    9.843   11.555    0.000    0.000   2  2   380.09
 
 B  1  1.0000    0.000  -20.000    0.000    0.000       1.0000   -7.354    9.371    0.000    0.000   3  3   363.33
 
 C  1  1.0000    0.000   40.000    0.000    0.000       1.0000   17.925   12.143    0.000    0.000   4  4   388.75
 
 D  1  1.0000    0.000  -40.000    0.000    0.000       1.0000  -16.462    7.098    0.000    0.000   5  5   355.28
 
 O  1  1.0900    0.000    0.000    0.000    0.000       1.0900   12.379   92.185    0.000    0.000   6  6   374.45
 
 A  1  1.0900    0.000   20.000    0.000    0.000       1.0900   21.303   97.538    0.000    0.000   7  7   382.92
 
 B  1  1.0900    0.000  -20.000    0.000    0.000       1.0900    3.211   86.755    0.000    0.000   8  8   366.18
 
 C  1  1.0900    0.000   40.000    0.000    0.000       1.0900   30.007  103.110    0.000    0.000   9  9   391.58
 
 D  1  1.0900    0.000  -40.000    0.000    0.000       1.0900   -6.182   80.948    0.000    0.000  10 10   358.13
 
 O  1  0.9100    0.000    0.000    0.000    0.000       0.9100  -11.238  -85.552    0.000    0.000  11 11   369.21
 
 A  1  0.9100    0.000   20.000    0.000    0.000       0.9100   -3.445  -90.858    0.000    0.000  12 12   377.81
 
 B  1  0.9100    0.000  -20.000    0.000    0.000       0.9100  -19.546  -81.681    0.000    0.000  13 13   360.83
 
 C  1  0.9100    0.000   40.000    0.000    0.000       0.9100    3.850  -97.138    0.000    0.000  14 14   386.60
 
 D  1  0.9100    0.000  -40.000    0.000    0.000       0.9100  -28.301  -79.195    0.000    0.000  15 15   352.71
 
 O  1  1.1800    0.000    0.000    0.000    0.000       1.1800   22.064  162.103    0.000    0.000  16 16   377.51
 
 A  1  1.1800    0.000   20.000    0.000    0.000       1.1800   31.414  170.887    0.000    0.000  17 17   386.04
 
 B  1  1.1800    0.000  -20.000    0.000    0.000       1.1800   12.557  153.513    0.000    0.000  18 18   369.19
 
 C  1  1.1800    0.000   40.000    0.000    0.000       1.1800   40.648  180.241    0.000    0.000  19 19   394.77
 
 D  1  1.1800    0.000  -40.000    0.000    0.000       1.1800    2.909  144.940    0.000    0.000  20 20   361.10
 
 O  1  0.8200    0.000    0.000    0.000    0.000       0.8200  -26.335 -201.872    0.000    0.000  21 21   367.67
 
 A  1  0.8200    0.000   20.000    0.000    0.000       0.8200  -19.392 -215.559    0.000    0.000  22 22   376.59
 
 B  1  0.8200    0.000  -20.000    0.000    0.000       0.8200  -34.002 -190.614    0.000    0.000  23 23   359.03
 
 C  1  0.8200    0.000   40.000    0.000    0.000       0.8200  -13.184 -231.520    0.000    0.000  24 24   385.77
 
 D  1  0.8200    0.000  -40.000    0.000    0.000       0.8200  -42.274 -181.412    0.000    0.000  25 25   350.70

********************************************************************************************************************

                              ESPACE  LIBRE =    33.15000  CM

  PARTICULE 1 * D,Y,T,Z,P,SAR :  1.0000E+00  1.7806E+00  1.0765E+01  0.0000E+00  0.0000E+00  4.0477E+02

********************************************************************************************************************

 CHANGEMENT  DE  REFERENCE  XC =    0.000 CM , YC =   27.500  CM ,   A =-19.88000 DEG  SOIT :-0.346971 RD



  PARTICULE 1 * D,Y,T,Z,P,SAR :  1.0000E+00 -2.7456E+01  3.5774E+02  0.0000E+00  0.0000E+00  3.9543E+02

********************************************************************************************************************

          ++++  A2 ++++                                                                   

                               A2.MAP                                                                         


      BZ MINI/MAXI DE LA CARTE MEDIANE   :          -6.6200E+01          1.6843E+04
                    A  X(CM)  ,  Y(CM)   :    0.00E+00 0.00E+00     0.00E+00 0.00E+00
      COEFFICIENT  DE  NORMALISATION     :           1.0578E-03
      BZ  MINI / MAXI  NORMALISES  (kG)  :          -7.0025E-02          1.7816E+01

                     OPTION  DE  CALCUL  : 2
                     LISSAGE  A   9  POINTS 

                    PAS D'INTEGRATION =      1.50 CM


     ELEMENT  DECENTRE  PAR  RAPPORT  A  L'AXE  OPTIQUE
          CENTRE  DE  LA  FACE  D'ENTREE  EN  X =   0.00 CM   Y =   0.00 CM   INCLINAISON =0.00000 RAD


    Y =  -87.37 X =  244.24 T =-0.381 TRAJECTOIRE  11 HORS LIMITES CHAMP MAGNETIQUE  B/BR=  0.0000E+00

    Y =  -87.29 X =  244.50 T =-0.428 TRAJECTOIRE  12 HORS LIMITES CHAMP MAGNETIQUE  B/BR=  0.0000E+00

    Y =  -87.42 X =  243.91 T =-0.328 TRAJECTOIRE  13 HORS LIMITES CHAMP MAGNETIQUE  B/BR=  0.0000E+00

    Y =  -87.36 X =  244.69 T =-0.471 TRAJECTOIRE  14 HORS LIMITES CHAMP MAGNETIQUE  B/BR=  0.0000E+00

    Y =  -87.06 X =  243.46 T =-0.269 TRAJECTOIRE  15 HORS LIMITES CHAMP MAGNETIQUE  B/BR=  0.0000E+00

    Y =  -87.44 X =  171.11 T =-0.354 TRAJECTOIRE  21 HORS LIMITES CHAMP MAGNETIQUE  B/BR= -2.1224E-05

    Y =  -87.53 X =  172.24 T =-0.409 TRAJECTOIRE  22 HORS LIMITES CHAMP MAGNETIQUE  B/BR= -2.0346E-05

    Y =  -87.17 X =  168.46 T =-0.291 TRAJECTOIRE  23 HORS LIMITES CHAMP MAGNETIQUE  B/BR= -2.3461E-05

    Y =  -87.49 X =  171.96 T =-0.456 TRAJECTOIRE  24 HORS LIMITES CHAMP MAGNETIQUE  B/BR= -2.0570E-05

    Y =  -87.06 X =  165.53 T =-0.219 TRAJECTOIRE  25 HORS LIMITES CHAMP MAGNETIQUE  B/BR= -2.6188E-05

********************************************************************************************************************

 CHANGEMENT  DE  REFERENCE  XC =   41.000 CM , YC =  -81.000  CM ,   A =-21.94500 DEG  SOIT :-0.383013 RD



  PARTICULE 1 * D,Y,T,Z,P,SAR :  1.0000E+00  7.0976E-01  1.0715E+00  0.0000E+00  0.0000E+00  7.1614E+02

********************************************************************************************************************
0                                             TRACE DU FAISCEAU

                                               25 TRAJECTOIRES

                         OBJET                                             FAISCEAU

          D      Y(CM)    T(MR)    Z(CM)    P(MR)          D      Y(CM)    T(MR)    Z(CM)    P(MR)          SAR(CM)

 
 O  1  1.0000    0.000    0.000    0.000    0.000       1.0000    0.710    1.072    0.000    0.000   1  1   716.14
 
 A  1  1.0000    0.000   20.000    0.000    0.000       1.0000    0.874  -44.842    0.000    0.000   2  2   731.25
 
 B  1  1.0000    0.000  -20.000    0.000    0.000       1.0000    0.566   49.590    0.000    0.000   3  3   701.32
 
 C  1  1.0000    0.000   40.000    0.000    0.000       1.0000    1.047  -88.442    0.000    0.000   4  4   746.61
 
 D  1  1.0000    0.000  -40.000    0.000    0.000       1.0000    0.550  100.995    0.000    0.000   5  5   686.91
 
 O  1  1.0900    0.000    0.000    0.000    0.000       1.0900   28.998    2.322    0.000    0.000   6  6   736.33
 
 A  1  1.0900    0.000   20.000    0.000    0.000       1.0900   31.070  -44.723    0.000    0.000   7  7   752.57
 
 B  1  1.0900    0.000  -20.000    0.000    0.000       1.0900   26.912   50.426    0.000    0.000   8  8   720.52
 
 C  1  1.0900    0.000   40.000    0.000    0.000       1.0900   33.139  -90.941    0.000    0.000   9  9   769.26
 
 D  1  1.0900    0.000  -40.000    0.000    0.000       1.0900   24.911  100.078    0.000    0.000  10 10   705.20
 
 O  1  0.9100    0.000    0.000    0.000    0.000       0.9100  -27.740    2.428    0.000    0.000  11 11   696.47
 
 A  1  0.9100    0.000   20.000    0.000    0.000       0.9100  -30.032  -44.930    0.000    0.000  12 12   710.62
 
 B  1  0.9100    0.000  -20.000    0.000    0.000       0.9100  -25.150   55.032    0.000    0.000  13 13   682.55
 
 C  1  0.9100    0.000   40.000    0.000    0.000       0.9100  -32.270  -88.308    0.000    0.000  14 14   724.89
 
 D  1  0.9100    0.000  -40.000    0.000    0.000       0.9100  -21.805  114.135    0.000    0.000  15 15   669.17
 
 O  1  1.1800    0.000    0.000    0.000    0.000       1.1800   56.186   -0.226    0.000    0.000  16 16   756.94
 
 A  1  1.1800    0.000   20.000    0.000    0.000       1.1800   59.974  -49.694    0.000    0.000  17 17   774.49
 
 B  1  1.1800    0.000  -20.000    0.000    0.000       1.1800   52.591   50.025    0.000    0.000  18 18   740.00
 
 C  1  1.1800    0.000   40.000    0.000    0.000       1.1800   64.589  -95.779    0.000    0.000  19 19   792.70
 
 D  1  1.1800    0.000  -40.000    0.000    0.000       1.1800   49.073  100.428    0.000    0.000  20 20   723.70
 
 O  1  0.8200    0.000    0.000    0.000    0.000       0.8200  -51.773   29.283    0.000    0.000  21 21   677.65
 
 A  1  0.8200    0.000   20.000    0.000    0.000       0.8200  -57.950  -25.234    0.000    0.000  22 22   690.83
 
 B  1  0.8200    0.000  -20.000    0.000    0.000       0.8200  -44.642   92.686    0.000    0.000  23 23   664.93
 
 C  1  0.8200    0.000   40.000    0.000    0.000       0.8200  -63.675  -72.582    0.000    0.000  24 24   704.17
 
 D  1  0.8200    0.000  -40.000    0.000    0.000       0.8200  -36.155  165.038    0.000    0.000  25 25   653.22

********************************************************************************************************************

1    RECHERCHE DU POINT DE FOCALISATION HORIZONTALDE  5 TRAJECTOIRES (SUR  5)

          POINT DE FOCALISATION HORIZONTAL SUR L ORBITE MOYENNE    X =     2.72 CM    Y =     0.71 CM

          DECALAGE DU CENTRE DE GRAVITE EN Y =      0.05 CM

          LARGEUR IMAGE ,    A MI-HAUTEUR =    0.116 CM , TOTALE =    0.125 CM
                                             .......                .......

0                                             TRACE DU FAISCEAU

                                               25 TRAJECTOIRES

                         OBJET                                             FAISCEAU

          D      Y(CM)    T(MR)    Z(CM)    P(MR)          D      Y(CM)    T(MR)    Z(CM)    P(MR)          SAR(CM)

 
 O  1  1.0000    0.000    0.000    0.000    0.000       1.0000    0.710    1.072    0.000    0.000   1  1   716.14
 
 A  1  1.0000    0.000   20.000    0.000    0.000       1.0000    0.874  -44.842    0.000    0.000   2  2   731.25
 
 B  1  1.0000    0.000  -20.000    0.000    0.000       1.0000    0.566   49.590    0.000    0.000   3  3   701.32
 
 C  1  1.0000    0.000   40.000    0.000    0.000       1.0000    1.047  -88.442    0.000    0.000   4  4   746.61
 
 D  1  1.0000    0.000  -40.000    0.000    0.000       1.0000    0.550  100.995    0.000    0.000   5  5   686.91

1    RECHERCHE DU POINT DE FOCALISATION HORIZONTALDE  5 TRAJECTOIRES (SUR  5)

          POINT DE FOCALISATION HORIZONTAL SUR L ORBITE MOYENNE    X =    43.08 CM    Y =    29.10 CM

          DECALAGE DU CENTRE DE GRAVITE EN Y =      0.06 CM

          LARGEUR IMAGE ,    A MI-HAUTEUR =    0.141 CM , TOTALE =    0.150 CM
                                             .......                .......

0                                             TRACE DU FAISCEAU

                                               25 TRAJECTOIRES

                         OBJET                                             FAISCEAU

          D      Y(CM)    T(MR)    Z(CM)    P(MR)          D      Y(CM)    T(MR)    Z(CM)    P(MR)          SAR(CM)

 
 O  1  1.0900    0.000    0.000    0.000    0.000       1.0900   28.998    2.322    0.000    0.000   6  6   736.33
 
 A  1  1.0900    0.000   20.000    0.000    0.000       1.0900   31.070  -44.723    0.000    0.000   7  7   752.57
 
 B  1  1.0900    0.000  -20.000    0.000    0.000       1.0900   26.912   50.426    0.000    0.000   8  8   720.52
 
 C  1  1.0900    0.000   40.000    0.000    0.000       1.0900   33.139  -90.941    0.000    0.000   9  9   769.26
 
 D  1  1.0900    0.000  -40.000    0.000    0.000       1.0900   24.911  100.078    0.000    0.000  10 10   705.20

1    RECHERCHE DU POINT DE FOCALISATION HORIZONTALDE  5 TRAJECTOIRES (SUR  5)

          POINT DE FOCALISATION HORIZONTAL SUR L ORBITE MOYENNE    X =   -51.04 CM    Y =   -27.86 CM

          DECALAGE DU CENTRE DE GRAVITE EN Y =      0.07 CM

          LARGEUR IMAGE ,    A MI-HAUTEUR =    0.251 CM , TOTALE =    0.306 CM
                                             .......                .......

0                                             TRACE DU FAISCEAU

                                               25 TRAJECTOIRES

                         OBJET                                             FAISCEAU

          D      Y(CM)    T(MR)    Z(CM)    P(MR)          D      Y(CM)    T(MR)    Z(CM)    P(MR)          SAR(CM)

 
 O  1  0.9100    0.000    0.000    0.000    0.000       0.9100  -27.740    2.428    0.000    0.000  11 11   696.47
 
 A  1  0.9100    0.000   20.000    0.000    0.000       0.9100  -30.032  -44.930    0.000    0.000  12 12   710.62
 
 B  1  0.9100    0.000  -20.000    0.000    0.000       0.9100  -25.150   55.032    0.000    0.000  13 13   682.55
 
 C  1  0.9100    0.000   40.000    0.000    0.000       0.9100  -32.270  -88.308    0.000    0.000  14 14   724.89
 
 D  1  0.9100    0.000  -40.000    0.000    0.000       0.9100  -21.805  114.135    0.000    0.000  15 15   669.17

1    RECHERCHE DU POINT DE FOCALISATION HORIZONTALDE  5 TRAJECTOIRES (SUR  5)

          POINT DE FOCALISATION HORIZONTAL SUR L ORBITE MOYENNE    X =    77.75 CM    Y =    56.17 CM

          DECALAGE DU CENTRE DE GRAVITE EN Y =      0.39 CM

          LARGEUR IMAGE ,    A MI-HAUTEUR =    0.939 CM , TOTALE =    1.013 CM
                                             .......                .......

0                                             TRACE DU FAISCEAU

                                               25 TRAJECTOIRES

                         OBJET                                             FAISCEAU

          D      Y(CM)    T(MR)    Z(CM)    P(MR)          D      Y(CM)    T(MR)    Z(CM)    P(MR)          SAR(CM)

 
 O  1  1.1800    0.000    0.000    0.000    0.000       1.1800   56.186   -0.226    0.000    0.000  16 16   756.94
 
 A  1  1.1800    0.000   20.000    0.000    0.000       1.1800   59.974  -49.694    0.000    0.000  17 17   774.49
 
 B  1  1.1800    0.000  -20.000    0.000    0.000       1.1800   52.591   50.025    0.000    0.000  18 18   740.00
 
 C  1  1.1800    0.000   40.000    0.000    0.000       1.1800   64.589  -95.779    0.000    0.000  19 19   792.70
 
 D  1  1.1800    0.000  -40.000    0.000    0.000       1.1800   49.073  100.428    0.000    0.000  20 20   723.70

1    RECHERCHE DU POINT DE FOCALISATION HORIZONTALDE  5 TRAJECTOIRES (SUR  5)

          POINT DE FOCALISATION HORIZONTAL SUR L ORBITE MOYENNE    X =  -114.48 CM    Y =   -55.13 CM

          DECALAGE DU CENTRE DE GRAVITE EN Y =     -0.08 CM

          LARGEUR IMAGE ,    A MI-HAUTEUR =    0.246 CM , TOTALE =    0.291 CM
                                             .......                .......

0                                             TRACE DU FAISCEAU

                                               25 TRAJECTOIRES

                         OBJET                                             FAISCEAU

          D      Y(CM)    T(MR)    Z(CM)    P(MR)          D      Y(CM)    T(MR)    Z(CM)    P(MR)          SAR(CM)

 
 O  1  0.8200    0.000    0.000    0.000    0.000       0.8200  -51.773   29.283    0.000    0.000  21 21   677.65
 
 A  1  0.8200    0.000   20.000    0.000    0.000       0.8200  -57.950  -25.234    0.000    0.000  22 22   690.83
 
 B  1  0.8200    0.000  -20.000    0.000    0.000       0.8200  -44.642   92.686    0.000    0.000  23 23   664.93
 
 C  1  0.8200    0.000   40.000    0.000    0.000       0.8200  -63.675  -72.582    0.000    0.000  24 24   704.17
 
 D  1  0.8200    0.000  -40.000    0.000    0.000       0.8200  -36.155  165.038    0.000    0.000  25 25   653.22

********************************************************************************************************************

           PGM PRINCIPAL : ARRET SUR CLE   FIN     

********************************************************************************************************************
