 dx-, dx+, du_Z, itraj :  -1.9563E+00   1.0437E+00   2.9688E+00    1
 dx-, dx+, du_Z, itraj :  -3.8604E+00   3.3271E+00   3.1172E+00    2
 dx-, dx+, du_Z, itraj :  -6.4470E+00   6.3030E+00   4.7500E+00    3
 dx-, dx+, du_Z, itraj :  -5.8817E+00   5.6183E+00   5.2250E+00    4
 dx-, dx+, du_Z, itraj :  -7.2716E+00   7.4003E+00   6.5312E+00    5
 dx-, dx+, du_Z, itraj :  -9.3274E+00   1.0423E+01   8.4312E+00    6
 dx-, dx+, du_Z, itraj :  -1.0826E+01   1.3112E+01   1.0688E+01    7
 #  prec, Ndx, nTrnIn :    9.99999978E-03          40         499
 # 
 # xst-xst0, zDA, dpp, xst0, jo, klost
 # 
 #    0.00000000       1.56555176      0.677214444     -0.456348389               1           0
 #    3.70370448E-02   1.54109001      0.677214444     -0.456348389               1           0
 #    7.40740597E-02   1.51701045      0.677214444     -0.456348389               1           0
 #   0.111111104       1.42219722      0.677214444     -0.456348389               1           0
 #   0.148148149       1.33330989      0.677214444     -0.456348389               1           0
 #   0.185185194       1.26039445      0.677214444     -0.456348389               1           0
 #   0.222222224       1.16192603      0.677214444     -0.456348389               1           0
 #   0.259259254       1.05299544      0.677214444     -0.456348389               1           0
 #   0.296296299      0.937824011      0.677214444     -0.456348389               1           0
 #   0.333333343      0.823364258      0.677214444     -0.456348389               1           0
 #   0.370370388      0.730590820      0.677214444     -0.456348389               1           0
 #   0.407407403      0.649414062      0.677214444     -0.456348389               1           0
 #   0.444444448      0.533447266      0.677214444     -0.456348389               1           0
 #   0.481481493      0.429077148      0.677214444     -0.456348389               1           0
 #   0.518518507      0.359497070      0.677214444     -0.456348389               1           0
 #   0.555555582      0.231933594      0.677214444     -0.456348389               1           0
 #   0.592592597       9.27734375E-02  0.677214444     -0.456348389               1           0
 #   0.629629612       0.00000000      0.677214444     -0.456348389               1           0
 #   0.666666687       0.00000000      0.677214444     -0.456348389               1           1
 #   0.703703701       0.00000000      0.677214444     -0.456348389               1           2
 #   -3.70370448E-02   1.54235840      0.677214444     -0.456348389               1           0
 #   -7.40740597E-02   1.59055710      0.677214444     -0.456348389               1           0
 #  -0.111111134       1.59055710      0.677214444     -0.456348389               1           0
 #  -0.148148149       1.55327833      0.677214444     -0.456348389               1           0
 #  -0.185185224       1.50473833      0.677214444     -0.456348389               1           0
 #  -0.222222239       1.45771527      0.677214444     -0.456348389               1           0
 #  -0.259259254       1.37799656      0.677214444     -0.456348389               1           0
 #  -0.296296269       1.28110623      0.677214444     -0.456348389               1           0
 #  -0.333333343       1.18101978      0.677214444     -0.456348389               1           0
 #  -0.370370418       1.05184591      0.677214444     -0.456348389               1           0
 #  -0.407407433      0.920365155      0.677214444     -0.456348389               1           0
 #  -0.444444448      0.858154297      0.677214444     -0.456348389               1           0
 #  -0.481481463      0.718994141      0.677214444     -0.456348389               1           0
 #  -0.518518448      0.591430664      0.677214444     -0.456348389               1           0
 #  -0.555555582      0.475463867      0.677214444     -0.456348389               1           0
 #  -0.592592597      0.382690430      0.677214444     -0.456348389               1           0
 #  -0.629629612       5.79833984E-02  0.677214444     -0.456348389               1           0
 #  -0.666666627       0.00000000      0.677214444     -0.456348389               1           0
 #  -0.703703642       0.00000000      0.677214444     -0.456348389               1           1
 #  -0.740740776       0.00000000      0.677214444     -0.456348389               1           2
 -0.740740776       0.00000000      0.677214444       1.00000000     -0.456348389    
 -0.703703642       0.00000000      0.677214444       1.00000000     -0.456348389    
 -0.666666627       0.00000000      0.677214444       1.00000000     -0.456348389    
 -0.629629612       5.79833984E-02  0.677214444       1.00000000     -0.456348389    
 -0.592592597      0.382690430      0.677214444       1.00000000     -0.456348389    
 -0.555555582      0.475463867      0.677214444       1.00000000     -0.456348389    
 -0.518518448      0.591430664      0.677214444       1.00000000     -0.456348389    
 -0.481481463      0.718994141      0.677214444       1.00000000     -0.456348389    
 -0.444444448      0.858154297      0.677214444       1.00000000     -0.456348389    
 -0.407407433      0.920365155      0.677214444       1.00000000     -0.456348389    
 -0.370370418       1.05184591      0.677214444       1.00000000     -0.456348389    
 -0.333333343       1.18101978      0.677214444       1.00000000     -0.456348389    
 -0.296296269       1.28110623      0.677214444       1.00000000     -0.456348389    
 -0.259259254       1.37799656      0.677214444       1.00000000     -0.456348389    
 -0.222222239       1.45771527      0.677214444       1.00000000     -0.456348389    
 -0.185185224       1.50473833      0.677214444       1.00000000     -0.456348389    
 -0.148148149       1.55327833      0.677214444       1.00000000     -0.456348389    
 -0.111111134       1.59055710      0.677214444       1.00000000     -0.456348389    
  -7.40740597E-02   1.59055710      0.677214444       1.00000000     -0.456348389    
  -3.70370448E-02   1.54235840      0.677214444       1.00000000     -0.456348389    
   0.00000000       1.56555176      0.677214444       1.00000000     -0.456348389    
   3.70370448E-02   1.54109001      0.677214444       1.00000000     -0.456348389    
   7.40740597E-02   1.51701045      0.677214444       1.00000000     -0.456348389    
  0.111111104       1.42219722      0.677214444       1.00000000     -0.456348389    
  0.148148149       1.33330989      0.677214444       1.00000000     -0.456348389    
  0.185185194       1.26039445      0.677214444       1.00000000     -0.456348389    
  0.222222224       1.16192603      0.677214444       1.00000000     -0.456348389    
  0.259259254       1.05299544      0.677214444       1.00000000     -0.456348389    
  0.296296299      0.937824011      0.677214444       1.00000000     -0.456348389    
  0.333333343      0.823364258      0.677214444       1.00000000     -0.456348389    
  0.370370388      0.730590820      0.677214444       1.00000000     -0.456348389    
  0.407407403      0.649414062      0.677214444       1.00000000     -0.456348389    
  0.444444448      0.533447266      0.677214444       1.00000000     -0.456348389    
  0.481481493      0.429077148      0.677214444       1.00000000     -0.456348389    
  0.518518507      0.359497070      0.677214444       1.00000000     -0.456348389    
  0.555555582      0.231933594      0.677214444       1.00000000     -0.456348389    
  0.592592597       9.27734375E-02  0.677214444       1.00000000     -0.456348389    
  0.629629612       0.00000000      0.677214444       1.00000000     -0.456348389    
  0.666666687       0.00000000      0.677214444       1.00000000     -0.456348389    
  0.703703701       0.00000000      0.677214444       1.00000000     -0.456348389    
 #    0.00000000       1.64382935      0.806303442     -0.422949702               2           0
 #    8.87345672E-02   1.65667176      0.806303442     -0.422949702               2           0
 #   0.177469134       1.68255746      0.806303442     -0.422949702               2           0
 #   0.266203701       1.72199214      0.806303442     -0.422949702               2           0
 #   0.354938269       1.76235151      0.806303442     -0.422949702               2           0
 #   0.443672836       1.84496176      0.806303442     -0.422949702               2           0
 #   0.532407403       1.94585836      0.806303442     -0.422949702               2           0
 #   0.621141970       2.20429254      0.806303442     -0.422949702               2           0
 #   0.709876537       2.49705029      0.806303442     -0.422949702               2           0
 #   0.798611104       2.00934505      0.806303442     -0.422949702               2           0
 #   0.887345672       1.44421673      0.806303442     -0.422949702               2           0
 #   0.976080179      0.789806068      0.806303442     -0.422949702               2           0
 #    1.06481481      0.243530273      0.806303442     -0.422949702               2           0
 #    1.15354943       9.74121094E-02  0.806303442     -0.422949702               2           0
 #    1.24228394      0.109588623      0.806303442     -0.422949702               2           0
 #    1.33101845      0.292236328      0.806303442     -0.422949702               2           0
 #    1.41975307      0.572296143      0.806303442     -0.422949702               2           0
 #    1.50848770      0.876708984      0.806303442     -0.422949702               2           0
 #    1.59722221       1.14459229      0.806303442     -0.422949702               2           0
 #    1.68595672      0.983633995      0.806303442     -0.422949702               2           0
 #    1.77469134      0.937591553      0.806303442     -0.422949702               2           0
 #    1.86342597      0.937591553      0.806303442     -0.422949702               2           0
 #    1.95216048       1.24200439      0.806303442     -0.422949702               2           0
 #    2.04089499       1.06734753      0.806303442     -0.422949702               2           0
 #    2.12962961       1.18408871      0.806303442     -0.422949702               2           0
 #    2.21836424       1.20259011      0.806303442     -0.422949702               2           0
 #    2.30709887       1.35291398      0.806303442     -0.422949702               2           0
 #    2.39583325       1.07810330      0.806303442     -0.422949702               2           0
 #    2.48456788       1.48239195      0.806303442     -0.422949702               2           0
 #    2.57330251       1.42448604      0.806303442     -0.422949702               2           0
 #    2.66203690       0.00000000      0.806303442     -0.422949702               2           0
 #    2.75077152       0.00000000      0.806303442     -0.422949702               2           1
 #    2.83950615       0.00000000      0.806303442     -0.422949702               2           2
 #   -8.87345970E-02   1.63165283      0.806303442     -0.422949702               2           0
 #  -0.177469105       1.63165283      0.806303442     -0.422949702               2           0
 #  -0.266203731       1.64440012      0.806303442     -0.422949702               2           0
 #  -0.354938239       1.67009389      0.806303442     -0.422949702               2           0
 #  -0.443672866       1.72228408      0.806303442     -0.422949702               2           0
 #  -0.532407403       1.82992661      0.806303442     -0.422949702               2           0
 #  -0.621142030       2.23022318      0.806303442     -0.422949702               2           0
 #  -0.709876537       1.89917457      0.806303442     -0.422949702               2           0
 #  -0.798611164       1.51340473      0.806303442     -0.422949702               2           0
 #  -0.887345672       1.06411266      0.806303442     -0.422949702               2           0
 #  -0.976080298      0.532056332      0.806303442     -0.422949702               2           0
 #   -1.06481481      0.133941650      0.806303442     -0.422949702               2           0
 #   -1.15354943       6.08825684E-02  0.806303442     -0.422949702               2           0
 #   -1.24228394      0.109588623      0.806303442     -0.422949702               2           0
 #   -1.33101845      0.304412842      0.806303442     -0.422949702               2           0
 #   -1.41975307      0.535766602      0.806303442     -0.422949702               2           0
 #   -1.50848770      0.730590820      0.806303442     -0.422949702               2           0
 #   -1.59722221      0.901062012      0.806303442     -0.422949702               2           0
 #   -1.68595684      0.754943848      0.806303442     -0.422949702               2           0
 #   -1.77469146      0.815826416      0.806303442     -0.422949702               2           0
 #   -1.86342609      0.657531738      0.806303442     -0.422949702               2           0
 #   -1.95216048      0.754943848      0.806303442     -0.422949702               2           0
 #   -2.04089499      0.560119629      0.806303442     -0.422949702               2           0
 #   -2.12962961      0.474884033      0.806303442     -0.422949702               2           0
 #   -2.21836424      0.694061279      0.806303442     -0.422949702               2           0
 #   -2.30709887      0.340942383      0.806303442     -0.422949702               2           0
 #   -2.39583325       7.30590820E-02  0.806303442     -0.422949702               2           0
 #   -2.48456788       0.00000000      0.806303442     -0.422949702               2           0
 #   -2.57330251       0.00000000      0.806303442     -0.422949702               2           1
 #   -2.66203690       0.00000000      0.806303442     -0.422949702               2           2
  -2.66203690       0.00000000      0.806303442       2.00000000     -0.422949702    
  -2.57330251       0.00000000      0.806303442       2.00000000     -0.422949702    
  -2.48456788       0.00000000      0.806303442       2.00000000     -0.422949702    
  -2.39583325       7.30590820E-02  0.806303442       2.00000000     -0.422949702    
  -2.30709887      0.340942383      0.806303442       2.00000000     -0.422949702    
  -2.21836424      0.694061279      0.806303442       2.00000000     -0.422949702    
  -2.12962961      0.474884033      0.806303442       2.00000000     -0.422949702    
  -2.04089499      0.560119629      0.806303442       2.00000000     -0.422949702    
  -1.95216048      0.754943848      0.806303442       2.00000000     -0.422949702    
  -1.86342609      0.657531738      0.806303442       2.00000000     -0.422949702    
  -1.77469146      0.815826416      0.806303442       2.00000000     -0.422949702    
  -1.68595684      0.754943848      0.806303442       2.00000000     -0.422949702    
  -1.59722221      0.901062012      0.806303442       2.00000000     -0.422949702    
  -1.50848770      0.730590820      0.806303442       2.00000000     -0.422949702    
  -1.41975307      0.535766602      0.806303442       2.00000000     -0.422949702    
  -1.33101845      0.304412842      0.806303442       2.00000000     -0.422949702    
  -1.24228394      0.109588623      0.806303442       2.00000000     -0.422949702    
  -1.15354943       6.08825684E-02  0.806303442       2.00000000     -0.422949702    
  -1.06481481      0.133941650      0.806303442       2.00000000     -0.422949702    
 -0.976080298      0.532056332      0.806303442       2.00000000     -0.422949702    
 -0.887345672       1.06411266      0.806303442       2.00000000     -0.422949702    
 -0.798611164       1.51340473      0.806303442       2.00000000     -0.422949702    
 -0.709876537       1.89917457      0.806303442       2.00000000     -0.422949702    
 -0.621142030       2.23022318      0.806303442       2.00000000     -0.422949702    
 -0.532407403       1.82992661      0.806303442       2.00000000     -0.422949702    
 -0.443672866       1.72228408      0.806303442       2.00000000     -0.422949702    
 -0.354938239       1.67009389      0.806303442       2.00000000     -0.422949702    
 -0.266203731       1.64440012      0.806303442       2.00000000     -0.422949702    
 -0.177469105       1.63165283      0.806303442       2.00000000     -0.422949702    
  -8.87345970E-02   1.63165283      0.806303442       2.00000000     -0.422949702    
   0.00000000       1.64382935      0.806303442       2.00000000     -0.422949702    
   8.87345672E-02   1.65667176      0.806303442       2.00000000     -0.422949702    
  0.177469134       1.68255746      0.806303442       2.00000000     -0.422949702    
  0.266203701       1.72199214      0.806303442       2.00000000     -0.422949702    
  0.354938269       1.76235151      0.806303442       2.00000000     -0.422949702    
  0.443672836       1.84496176      0.806303442       2.00000000     -0.422949702    
  0.532407403       1.94585836      0.806303442       2.00000000     -0.422949702    
  0.621141970       2.20429254      0.806303442       2.00000000     -0.422949702    
  0.709876537       2.49705029      0.806303442       2.00000000     -0.422949702    
  0.798611104       2.00934505      0.806303442       2.00000000     -0.422949702    
  0.887345672       1.44421673      0.806303442       2.00000000     -0.422949702    
  0.976080179      0.789806068      0.806303442       2.00000000     -0.422949702    
   1.06481481      0.243530273      0.806303442       2.00000000     -0.422949702    
   1.15354943       9.74121094E-02  0.806303442       2.00000000     -0.422949702    
   1.24228394      0.109588623      0.806303442       2.00000000     -0.422949702    
   1.33101845      0.292236328      0.806303442       2.00000000     -0.422949702    
   1.41975307      0.572296143      0.806303442       2.00000000     -0.422949702    
   1.50848770      0.876708984      0.806303442       2.00000000     -0.422949702    
   1.59722221       1.14459229      0.806303442       2.00000000     -0.422949702    
   1.68595672      0.983633995      0.806303442       2.00000000     -0.422949702    
   1.77469134      0.937591553      0.806303442       2.00000000     -0.422949702    
   1.86342597      0.937591553      0.806303442       2.00000000     -0.422949702    
   1.95216048       1.24200439      0.806303442       2.00000000     -0.422949702    
   2.04089499       1.06734753      0.806303442       2.00000000     -0.422949702    
   2.12962961       1.18408871      0.806303442       2.00000000     -0.422949702    
   2.21836424       1.20259011      0.806303442       2.00000000     -0.422949702    
   2.30709887       1.35291398      0.806303442       2.00000000     -0.422949702    
   2.39583325       1.07810330      0.806303442       2.00000000     -0.422949702    
   2.48456788       1.48239195      0.806303442       2.00000000     -0.422949702    
   2.57330251       1.42448604      0.806303442       2.00000000     -0.422949702    
   2.66203690       0.00000000      0.806303442       2.00000000     -0.422949702    
   2.75077152       0.00000000      0.806303442       2.00000000     -0.422949702    
   2.83950615       0.00000000      0.806303442       2.00000000     -0.422949702    
 #    0.00000000       2.46777344      0.935392439     -0.259457499               3           0
 #   0.157407403       2.52561188      0.935392439     -0.259457499               3           0
 #   0.314814806       2.48614931      0.935392439     -0.259457499               3           0
 #   0.472222209       2.52499533      0.935392439     -0.259457499               3           0
 #   0.629629612       2.60390139      0.935392439     -0.259457499               3           0
 #   0.787037015       2.59372997      0.935392439     -0.259457499               3           0
 #   0.944444418       2.71531105      0.935392439     -0.259457499               3           0
 #    1.10185182       3.28807211      0.935392439     -0.259457499               3           0
 #    1.25925922       2.42752171      0.935392439     -0.259457499               3           0
 #    1.41666663       1.23272586      0.935392439     -0.259457499               3           0
 #    1.57407403       3.85226831E-02  0.935392439     -0.259457499               3           0
 #    1.73148143       0.00000000      0.935392439     -0.259457499               3           0
 #    1.88888884       5.56640625E-02  0.935392439     -0.259457499               3           1
 #    2.04629612      0.259765625      0.935392439     -0.259457499               3           0
 #    2.20370364      0.333984375      0.935392439     -0.259457499               3           0
 #    2.36111116      0.333984375      0.935392439     -0.259457499               3           0
 #    2.51851845       7.42187500E-02  0.935392439     -0.259457499               3           0
 #    2.67592573       0.00000000      0.935392439     -0.259457499               3           0
 #    2.83333325       0.00000000      0.935392439     -0.259457499               3           1
 #    2.99074078       0.00000000      0.935392439     -0.259457499               3           2
 #  -0.157407403       2.50488281      0.935392439     -0.259457499               3           0
 #  -0.314814776       2.44617462      0.935392439     -0.259457499               3           0
 #  -0.472222179       2.44617462      0.935392439     -0.259457499               3           0
 #  -0.629629612       2.46528530      0.935392439     -0.259457499               3           0
 #  -0.787037015       2.48454523      0.935392439     -0.259457499               3           0
 #  -0.944444418       2.58159781      0.935392439     -0.259457499               3           0
 #   -1.10185182       3.01522565      0.935392439     -0.259457499               3           0
 #   -1.25925922       2.20252824      0.935392439     -0.259457499               3           0
 #   -1.41666663       1.04964244      0.935392439     -0.259457499               3           0
 #   -1.57407403       1.64006632E-02  0.935392439     -0.259457499               3           0
 #   -1.73148143       0.00000000      0.935392439     -0.259457499               3           0
 #   -1.88888896       9.27734375E-02  0.935392439     -0.259457499               3           1
 #   -2.04629612      0.259765625      0.935392439     -0.259457499               3           0
 #   -2.20370364      0.315429688      0.935392439     -0.259457499               3           0
 #   -2.36111116      0.278320312      0.935392439     -0.259457499               3           0
 #   -2.51851845       0.00000000      0.935392439     -0.259457499               3           0
 #   -2.67592573       0.00000000      0.935392439     -0.259457499               3           1
 #   -2.83333325      0.593750000      0.935392439     -0.259457499               3           2
 #   -2.99074078       0.00000000      0.935392439     -0.259457499               3           0
 #   -3.14814806       0.00000000      0.935392439     -0.259457499               3           1
 #   -3.30555534       0.00000000      0.935392439     -0.259457499               3           2
  -3.30555534       0.00000000      0.935392439       3.00000000     -0.259457499    
  -3.14814806       0.00000000      0.935392439       3.00000000     -0.259457499    
  -2.99074078       0.00000000      0.935392439       3.00000000     -0.259457499    
  -2.83333325      0.593750000      0.935392439       3.00000000     -0.259457499    
  -2.67592573       0.00000000      0.935392439       3.00000000     -0.259457499    
  -2.51851845       0.00000000      0.935392439       3.00000000     -0.259457499    
  -2.36111116      0.278320312      0.935392439       3.00000000     -0.259457499    
  -2.20370364      0.315429688      0.935392439       3.00000000     -0.259457499    
  -2.04629612      0.259765625      0.935392439       3.00000000     -0.259457499    
  -1.88888896       9.27734375E-02  0.935392439       3.00000000     -0.259457499    
  -1.73148143       0.00000000      0.935392439       3.00000000     -0.259457499    
  -1.57407403       1.64006632E-02  0.935392439       3.00000000     -0.259457499    
  -1.41666663       1.04964244      0.935392439       3.00000000     -0.259457499    
  -1.25925922       2.20252824      0.935392439       3.00000000     -0.259457499    
  -1.10185182       3.01522565      0.935392439       3.00000000     -0.259457499    
 -0.944444418       2.58159781      0.935392439       3.00000000     -0.259457499    
 -0.787037015       2.48454523      0.935392439       3.00000000     -0.259457499    
 -0.629629612       2.46528530      0.935392439       3.00000000     -0.259457499    
 -0.472222179       2.44617462      0.935392439       3.00000000     -0.259457499    
 -0.314814776       2.44617462      0.935392439       3.00000000     -0.259457499    
 -0.157407403       2.50488281      0.935392439       3.00000000     -0.259457499    
   0.00000000       2.46777344      0.935392439       3.00000000     -0.259457499    
  0.157407403       2.52561188      0.935392439       3.00000000     -0.259457499    
  0.314814806       2.48614931      0.935392439       3.00000000     -0.259457499    
  0.472222209       2.52499533      0.935392439       3.00000000     -0.259457499    
  0.629629612       2.60390139      0.935392439       3.00000000     -0.259457499    
  0.787037015       2.59372997      0.935392439       3.00000000     -0.259457499    
  0.944444418       2.71531105      0.935392439       3.00000000     -0.259457499    
   1.10185182       3.28807211      0.935392439       3.00000000     -0.259457499    
   1.25925922       2.42752171      0.935392439       3.00000000     -0.259457499    
   1.41666663       1.23272586      0.935392439       3.00000000     -0.259457499    
   1.57407403       3.85226831E-02  0.935392439       3.00000000     -0.259457499    
   1.73148143       0.00000000      0.935392439       3.00000000     -0.259457499    
   1.88888884       5.56640625E-02  0.935392439       3.00000000     -0.259457499    
   2.04629612      0.259765625      0.935392439       3.00000000     -0.259457499    
   2.20370364      0.333984375      0.935392439       3.00000000     -0.259457499    
   2.36111116      0.333984375      0.935392439       3.00000000     -0.259457499    
   2.51851845       7.42187500E-02  0.935392439       3.00000000     -0.259457499    
   2.67592573       0.00000000      0.935392439       3.00000000     -0.259457499    
   2.83333325       0.00000000      0.935392439       3.00000000     -0.259457499    
   2.99074078       0.00000000      0.935392439       3.00000000     -0.259457499    
 #    0.00000000       2.96967721      0.999936938     -0.131704703               4           0
 #   0.141975313       2.95807695      0.999936938     -0.131704703               4           0
 #   0.283950627       2.98118734      0.999936938     -0.131704703               4           0
 #   0.425925910       3.00447750      0.999936938     -0.131704703               4           0
 #   0.567901254       3.01621366      0.999936938     -0.131704703               4           0
 #   0.709876537       3.05156016      0.999936938     -0.131704703               4           0
 #   0.851851881       3.18268180      0.999936938     -0.131704703               4           0
 #   0.993827224       3.23241091      0.999936938     -0.131704703               4           0
 #    1.13580251       3.47231698      0.999936938     -0.131704703               4           0
 #    1.27777779       4.06912184      0.999936938     -0.131704703               4           0
 #    1.41975307       3.17900133      0.999936938     -0.131704703               4           0
 #    1.56172848       2.08621979      0.999936938     -0.131704703               4           0
 #    1.70370376      0.896422565      0.999936938     -0.131704703               4           0
 #    1.84567904       5.10253869E-02  0.999936938     -0.131704703               4           0
 #    1.98765445       0.00000000      0.999936938     -0.131704703               4           0
 #    2.12962961       0.00000000      0.999936938     -0.131704703               4           1
 #    2.27160501       8.16406161E-02  0.999936938     -0.131704703               4           2
 #    2.41358042      0.285742164      0.999936938     -0.131704703               4           0
 #    2.55555558      0.397998005      0.999936938     -0.131704703               4           0
 #    2.69753098      0.469433546      0.999936938     -0.131704703               4           0
 #    2.83950615      0.571484327      0.999936938     -0.131704703               4           0
 #    2.98148155      0.581689417      0.999936938     -0.131704703               4           0
 #    3.12345695      0.520458996      0.999936938     -0.131704703               4           0
 #    3.26543212      0.510253906      0.999936938     -0.131704703               4           0
 #    3.40740752      0.387792915      0.999936938     -0.131704703               4           0
 #    3.54938293      0.142871082      0.999936938     -0.131704703               4           0
 #    3.69135809       0.00000000      0.999936938     -0.131704703               4           0
 #    3.83333349       0.00000000      0.999936938     -0.131704703               4           1
 #    3.97530890       0.00000000      0.999936938     -0.131704703               4           2
 #  -0.141975328       2.94926715      0.999936938     -0.131704703               4           0
 #  -0.283950627       2.96078753      0.999936938     -0.131704703               4           0
 #  -0.425925970       2.96078730      0.999936938     -0.131704703               4           0
 #  -0.567901254       2.97235346      0.999936938     -0.131704703               4           0
 #  -0.709876537       3.03040767      0.999936938     -0.131704703               4           0
 #  -0.851851881       3.03040743      0.999936938     -0.131704703               4           0
 #  -0.993827224       3.18429589      0.999936938     -0.131704703               4           0
 #   -1.13580251       3.32112145      0.999936938     -0.131704703               4           0
 #   -1.27777779       3.93085885      0.999936938     -0.131704703               4           0
 #   -1.41975307       3.08633852      0.999936938     -0.131704703               4           0
 #   -1.56172848       1.98924196      0.999936938     -0.131704703               4           0
 #   -1.70370376      0.885834277      0.999936938     -0.131704703               4           0
 #   -1.84567904       2.04101540E-02  0.999936938     -0.131704703               4           0
 #   -1.98765457       0.00000000      0.999936938     -0.131704703               4           0
 #   -2.12962961       0.00000000      0.999936938     -0.131704703               4           1
 #   -2.27160501      0.112255849      0.999936938     -0.131704703               4           2
 #   -2.41358042      0.275537103      0.999936938     -0.131704703               4           0
 #   -2.55555558      0.408203095      0.999936938     -0.131704703               4           0
 #   -2.69753098      0.469433546      0.999936938     -0.131704703               4           0
 #   -2.83950615      0.520458996      0.999936938     -0.131704703               4           0
 #   -2.98148155      0.449023396      0.999936938     -0.131704703               4           0
 #   -3.12345695      0.489843726      0.999936938     -0.131704703               4           0
 #   -3.26543212      0.479638636      0.999936938     -0.131704703               4           0
 #   -3.40740752      0.326562464      0.999936938     -0.131704703               4           0
 #   -3.54938293       0.00000000      0.999936938     -0.131704703               4           0
 #   -3.69135809       0.00000000      0.999936938     -0.131704703               4           1
 #   -3.83333349       0.00000000      0.999936938     -0.131704703               4           2
  -3.83333349       0.00000000      0.999936938       4.00000000     -0.131704703    
  -3.69135809       0.00000000      0.999936938       4.00000000     -0.131704703    
  -3.54938293       0.00000000      0.999936938       4.00000000     -0.131704703    
  -3.40740752      0.326562464      0.999936938       4.00000000     -0.131704703    
  -3.26543212      0.479638636      0.999936938       4.00000000     -0.131704703    
  -3.12345695      0.489843726      0.999936938       4.00000000     -0.131704703    
  -2.98148155      0.449023396      0.999936938       4.00000000     -0.131704703    
  -2.83950615      0.520458996      0.999936938       4.00000000     -0.131704703    
  -2.69753098      0.469433546      0.999936938       4.00000000     -0.131704703    
  -2.55555558      0.408203095      0.999936938       4.00000000     -0.131704703    
  -2.41358042      0.275537103      0.999936938       4.00000000     -0.131704703    
  -2.27160501      0.112255849      0.999936938       4.00000000     -0.131704703    
  -2.12962961       0.00000000      0.999936938       4.00000000     -0.131704703    
  -1.98765457       0.00000000      0.999936938       4.00000000     -0.131704703    
  -1.84567904       2.04101540E-02  0.999936938       4.00000000     -0.131704703    
  -1.70370376      0.885834277      0.999936938       4.00000000     -0.131704703    
  -1.56172848       1.98924196      0.999936938       4.00000000     -0.131704703    
  -1.41975307       3.08633852      0.999936938       4.00000000     -0.131704703    
  -1.27777779       3.93085885      0.999936938       4.00000000     -0.131704703    
  -1.13580251       3.32112145      0.999936938       4.00000000     -0.131704703    
 -0.993827224       3.18429589      0.999936938       4.00000000     -0.131704703    
 -0.851851881       3.03040743      0.999936938       4.00000000     -0.131704703    
 -0.709876537       3.03040767      0.999936938       4.00000000     -0.131704703    
 -0.567901254       2.97235346      0.999936938       4.00000000     -0.131704703    
 -0.425925970       2.96078730      0.999936938       4.00000000     -0.131704703    
 -0.283950627       2.96078753      0.999936938       4.00000000     -0.131704703    
 -0.141975328       2.94926715      0.999936938       4.00000000     -0.131704703    
   0.00000000       2.96967721      0.999936938       4.00000000     -0.131704703    
  0.141975313       2.95807695      0.999936938       4.00000000     -0.131704703    
  0.283950627       2.98118734      0.999936938       4.00000000     -0.131704703    
  0.425925910       3.00447750      0.999936938       4.00000000     -0.131704703    
  0.567901254       3.01621366      0.999936938       4.00000000     -0.131704703    
  0.709876537       3.05156016      0.999936938       4.00000000     -0.131704703    
  0.851851881       3.18268180      0.999936938       4.00000000     -0.131704703    
  0.993827224       3.23241091      0.999936938       4.00000000     -0.131704703    
   1.13580251       3.47231698      0.999936938       4.00000000     -0.131704703    
   1.27777779       4.06912184      0.999936938       4.00000000     -0.131704703    
   1.41975307       3.17900133      0.999936938       4.00000000     -0.131704703    
   1.56172848       2.08621979      0.999936938       4.00000000     -0.131704703    
   1.70370376      0.896422565      0.999936938       4.00000000     -0.131704703    
   1.84567904       5.10253869E-02  0.999936938       4.00000000     -0.131704703    
   1.98765445       0.00000000      0.999936938       4.00000000     -0.131704703    
   2.12962961       0.00000000      0.999936938       4.00000000     -0.131704703    
   2.27160501       8.16406161E-02  0.999936938       4.00000000     -0.131704703    
   2.41358042      0.285742164      0.999936938       4.00000000     -0.131704703    
   2.55555558      0.397998005      0.999936938       4.00000000     -0.131704703    
   2.69753098      0.469433546      0.999936938       4.00000000     -0.131704703    
   2.83950615      0.571484327      0.999936938       4.00000000     -0.131704703    
   2.98148155      0.581689417      0.999936938       4.00000000     -0.131704703    
   3.12345695      0.520458996      0.999936938       4.00000000     -0.131704703    
   3.26543212      0.510253906      0.999936938       4.00000000     -0.131704703    
   3.40740752      0.387792915      0.999936938       4.00000000     -0.131704703    
   3.54938293      0.142871082      0.999936938       4.00000000     -0.131704703    
   3.69135809       0.00000000      0.999936938       4.00000000     -0.131704703    
   3.83333349       0.00000000      0.999936938       4.00000000     -0.131704703    
   3.97530890       0.00000000      0.999936938       4.00000000     -0.131704703    
 #    0.00000000       3.44421387       1.06448138       2.52574403E-02           5           0
 #   0.181134254       3.44421387       1.06448138       2.52574403E-02           5           0
 #   0.362268507       3.47112179       1.06448138       2.52574403E-02           5           0
 #   0.543402791       3.52535796       1.06448138       2.52574403E-02           5           0
 #   0.724537015       3.56667042       1.06448138       2.52574403E-02           5           0
 #   0.905671239       3.67812896       1.06448138       2.52574403E-02           5           0
 #    1.08680558       3.80743766       1.06448138       2.52574403E-02           5           0
 #    1.26793981       5.23522663       1.06448138       2.52574403E-02           5           0
 #    1.44907403       3.73214388       1.06448138       2.52574403E-02           5           0
 #    1.63020825       3.09068179       1.06448138       2.52574403E-02           5           0
 #    1.81134248       2.14898944       1.06448138       2.52574403E-02           5           0
 #    1.99247682      0.587614238       1.06448138       2.52574403E-02           5           0
 #    2.17361116       0.00000000       1.06448138       2.52574403E-02           5           0
 #    2.35474539       0.00000000       1.06448138       2.52574403E-02           5           1
 #    2.53587961       0.00000000       1.06448138       2.52574403E-02           5           2
 #  -0.181134254       3.43145752       1.06448138       2.52574403E-02           5           0
 #  -0.362268507       3.44486165       1.06448138       2.52574403E-02           5           0
 #  -0.543402791       3.44486213       1.06448138       2.52574403E-02           5           0
 #  -0.724537015       3.48523140       1.06448138       2.52574403E-02           5           0
 #  -0.905671239       3.51245975       1.06448138       2.52574403E-02           5           0
 #   -1.08680558       3.60850358       1.06448138       2.52574403E-02           5           0
 #   -1.26793981       3.62259984       1.06448138       2.52574403E-02           5           0
 #   -1.44907403       2.97166395       1.06448138       2.52574403E-02           5           0
 #   -1.63020825       2.29839611       1.06448138       2.52574403E-02           5           0
 #   -1.81134248       1.40058517       1.06448138       2.52574403E-02           5           0
 #   -1.99247682      0.361088365       1.06448138       2.52574403E-02           5           0
 #   -2.17361116       0.00000000       1.06448138       2.52574403E-02           5           0
 #   -2.35474539       0.00000000       1.06448138       2.52574403E-02           5           1
 #   -2.53587961       0.00000000       1.06448138       2.52574403E-02           5           2
  -2.53587961       0.00000000       1.06448138       5.00000000       2.52574403E-02
  -2.35474539       0.00000000       1.06448138       5.00000000       2.52574403E-02
  -2.17361116       0.00000000       1.06448138       5.00000000       2.52574403E-02
  -1.99247682      0.361088365       1.06448138       5.00000000       2.52574403E-02
  -1.81134248       1.40058517       1.06448138       5.00000000       2.52574403E-02
  -1.63020825       2.29839611       1.06448138       5.00000000       2.52574403E-02
  -1.44907403       2.97166395       1.06448138       5.00000000       2.52574403E-02
  -1.26793981       3.62259984       1.06448138       5.00000000       2.52574403E-02
  -1.08680558       3.60850358       1.06448138       5.00000000       2.52574403E-02
 -0.905671239       3.51245975       1.06448138       5.00000000       2.52574403E-02
 -0.724537015       3.48523140       1.06448138       5.00000000       2.52574403E-02
 -0.543402791       3.44486213       1.06448138       5.00000000       2.52574403E-02
 -0.362268507       3.44486165       1.06448138       5.00000000       2.52574403E-02
 -0.181134254       3.43145752       1.06448138       5.00000000       2.52574403E-02
   0.00000000       3.44421387       1.06448138       5.00000000       2.52574403E-02
  0.181134254       3.44421387       1.06448138       5.00000000       2.52574403E-02
  0.362268507       3.47112179       1.06448138       5.00000000       2.52574403E-02
  0.543402791       3.52535796       1.06448138       5.00000000       2.52574403E-02
  0.724537015       3.56667042       1.06448138       5.00000000       2.52574403E-02
  0.905671239       3.67812896       1.06448138       5.00000000       2.52574403E-02
   1.08680558       3.80743766       1.06448138       5.00000000       2.52574403E-02
   1.26793981       5.23522663       1.06448138       5.00000000       2.52574403E-02
   1.44907403       3.73214388       1.06448138       5.00000000       2.52574403E-02
   1.63020825       3.09068179       1.06448138       5.00000000       2.52574403E-02
   1.81134248       2.14898944       1.06448138       5.00000000       2.52574403E-02
   1.99247682      0.587614238       1.06448138       5.00000000       2.52574403E-02
   2.17361116       0.00000000       1.06448138       5.00000000       2.52574403E-02
   2.35474539       0.00000000       1.06448138       5.00000000       2.52574403E-02
   2.53587961       0.00000000       1.06448138       5.00000000       2.52574403E-02
 #    0.00000000       4.49556828       1.19357038      0.422560185               6           0
 #   0.243827134       4.47800779       1.19357038      0.422560185               6           0
 #   0.487654358       4.61794519       1.19357038      0.422560185               6           0
 #   0.731481433       4.69010115       1.19357038      0.422560185               6           0
 #   0.975308657       4.90994883       1.19357038      0.422560185               6           0
 #    1.21913576       5.38943624       1.19357038      0.422560185               6           0
 #    1.46296299       7.26310682       1.19357038      0.422560185               6           0
 #    1.70679021       5.70267344       1.19357038      0.422560185               6           0
 #    1.95061731       3.57530904       1.19357038      0.422560185               6           0
 #    2.19444442       1.52229965       1.19357038      0.422560185               6           0
 #    2.43827152      0.142715588       1.19357038      0.422560185               6           0
 #    2.68209887       0.00000000       1.19357038      0.422560185               6           0
 #    2.92592597       0.00000000       1.19357038      0.422560185               6           1
 #    3.16975307       0.00000000       1.19357038      0.422560185               6           2
 #  -0.243827164       4.47910118       1.19357038      0.422560185               6           0
 #  -0.487654328       4.44410801       1.19357038      0.422560185               6           0
 #  -0.731481493       4.56562662       1.19357038      0.422560185               6           0
 #  -0.975308657       9.30959892       1.19357038      0.422560185               6           0
 #   -1.21913576       5.12755251       1.19357038      0.422560185               6           0
 #   -1.46296299       7.68131447       1.19357038      0.422560185               6           0
 #   -1.70679021       6.07604074       1.19357038      0.422560185               6           0
 #   -1.95061731       3.70258760       1.19357038      0.422560185               6           0
 #   -2.19444442       1.53310275       1.19357038      0.422560185               6           0
 #   -2.43827152      0.131751001       1.19357038      0.422560185               6           0
 #   -2.68209887       0.00000000       1.19357038      0.422560185               6           0
 #   -2.92592597       0.00000000       1.19357038      0.422560185               6           1
 #   -3.16975307       0.00000000       1.19357038      0.422560185               6           2
  -3.16975307       0.00000000       1.19357038       6.00000000      0.422560185    
  -2.92592597       0.00000000       1.19357038       6.00000000      0.422560185    
  -2.68209887       0.00000000       1.19357038       6.00000000      0.422560185    
  -2.43827152      0.131751001       1.19357038       6.00000000      0.422560185    
  -2.19444442       1.53310275       1.19357038       6.00000000      0.422560185    
  -1.95061731       3.70258760       1.19357038       6.00000000      0.422560185    
  -1.70679021       6.07604074       1.19357038       6.00000000      0.422560185    
  -1.46296299       7.68131447       1.19357038       6.00000000      0.422560185    
  -1.21913576       5.12755251       1.19357038       6.00000000      0.422560185    
 -0.975308657       9.30959892       1.19357038       6.00000000      0.422560185    
 -0.731481493       4.56562662       1.19357038       6.00000000      0.422560185    
 -0.487654328       4.44410801       1.19357038       6.00000000      0.422560185    
 -0.243827164       4.47910118       1.19357038       6.00000000      0.422560185    
   0.00000000       4.49556828       1.19357038       6.00000000      0.422560185    
  0.243827134       4.47800779       1.19357038       6.00000000      0.422560185    
  0.487654358       4.61794519       1.19357038       6.00000000      0.422560185    
  0.731481433       4.69010115       1.19357038       6.00000000      0.422560185    
  0.975308657       4.90994883       1.19357038       6.00000000      0.422560185    
   1.21913576       5.38943624       1.19357038       6.00000000      0.422560185    
   1.46296299       7.26310682       1.19357038       6.00000000      0.422560185    
   1.70679021       5.70267344       1.19357038       6.00000000      0.422560185    
   1.95061731       3.57530904       1.19357038       6.00000000      0.422560185    
   2.19444442       1.52229965       1.19357038       6.00000000      0.422560185    
   2.43827152      0.142715588       1.19357038       6.00000000      0.422560185    
   2.68209887       0.00000000       1.19357038       6.00000000      0.422560185    
   2.92592597       0.00000000       1.19357038       6.00000000      0.422560185    
   3.16975307       0.00000000       1.19357038       6.00000000      0.422560185    
 #    0.00000000       5.67773438       1.32265937      0.924192905               7           0
 #   0.295524716       5.73318100       1.32265937      0.924192905               7           0
 #   0.591049433       6.44982815       1.32265937      0.924192905               7           0
 #   0.886574030       9.47318459       1.32265937      0.924192905               7           0
 #    1.18209887       10.0467558       1.32265937      0.924192905               7           0
 #    1.47762346       8.24147892       1.32265937      0.924192905               7           0
 #    1.77314806       6.43865585       1.32265937      0.924192905               7           0
 #    2.06867290       4.31339598       1.32265937      0.924192905               7           0
 #    2.36419749       2.05560255       1.32265937      0.924192905               7           0
 #    2.65972209      0.289069116       1.32265937      0.924192905               7           0
 #    2.95524693       0.00000000       1.32265937      0.924192905               7           0
 #    3.25077152       0.00000000       1.32265937      0.924192905               7           1
 #    3.54629612       0.00000000       1.32265937      0.924192905               7           2
 #  -0.295524716       5.64642334       1.32265937      0.924192905               7           0
 #  -0.591049373       5.87801456       1.32265937      0.924192905               7           0
 #  -0.886574030       6.61276722       1.32265937      0.924192905               7           0
 #   -1.18209875       10.3324490       1.32265937      0.924192905               7           0
 #   -1.47762346       9.97928810       1.32265937      0.924192905               7           0
 #   -1.77314806       8.12766361       1.32265937      0.924192905               7           0
 #   -2.06867290       4.98454428       1.32265937      0.924192905               7           0
 #   -2.36419749       2.12232542       1.32265937      0.924192905               7           0
 #   -2.65972209      0.348194033       1.32265937      0.924192905               7           0
 #   -2.95524693       0.00000000       1.32265937      0.924192905               7           0
 #   -3.25077152       0.00000000       1.32265937      0.924192905               7           1
 #   -3.54629612       0.00000000       1.32265937      0.924192905               7           2
  -3.54629612       0.00000000       1.32265937       7.00000000      0.924192905    
  -3.25077152       0.00000000       1.32265937       7.00000000      0.924192905    
  -2.95524693       0.00000000       1.32265937       7.00000000      0.924192905    
  -2.65972209      0.348194033       1.32265937       7.00000000      0.924192905    
  -2.36419749       2.12232542       1.32265937       7.00000000      0.924192905    
  -2.06867290       4.98454428       1.32265937       7.00000000      0.924192905    
  -1.77314806       8.12766361       1.32265937       7.00000000      0.924192905    
  -1.47762346       9.97928810       1.32265937       7.00000000      0.924192905    
  -1.18209875       10.3324490       1.32265937       7.00000000      0.924192905    
 -0.886574030       6.61276722       1.32265937       7.00000000      0.924192905    
 -0.591049373       5.87801456       1.32265937       7.00000000      0.924192905    
 -0.295524716       5.64642334       1.32265937       7.00000000      0.924192905    
   0.00000000       5.67773438       1.32265937       7.00000000      0.924192905    
  0.295524716       5.73318100       1.32265937       7.00000000      0.924192905    
  0.591049433       6.44982815       1.32265937       7.00000000      0.924192905    
  0.886574030       9.47318459       1.32265937       7.00000000      0.924192905    
   1.18209887       10.0467558       1.32265937       7.00000000      0.924192905    
   1.47762346       8.24147892       1.32265937       7.00000000      0.924192905    
   1.77314806       6.43865585       1.32265937       7.00000000      0.924192905    
   2.06867290       4.31339598       1.32265937       7.00000000      0.924192905    
   2.36419749       2.05560255       1.32265937       7.00000000      0.924192905    
   2.65972209      0.289069116       1.32265937       7.00000000      0.924192905    
   2.95524693       0.00000000       1.32265937       7.00000000      0.924192905    
   3.25077152       0.00000000       1.32265937       7.00000000      0.924192905    
   3.54629612       0.00000000       1.32265937       7.00000000      0.924192905    
