Data generated by searchCO
 'OBJET'                                                                                                      1
0.14008655052543029e3     ! 42 MeV total  41.489003 MeV kin
2
1 1
-1.162023E+00  -1.218376E+02   0.0E+00   0.0E+00   0.0E+00   9.52373730E-01 '1'        39.489002 MeV      1
1 1 1 1 1 1 1 1 1 1
 
 'PARTICUL'                                                                                                   2
0.51099892 1.60217653e-19 1.15965218076e-3 0.0 0.0
 
!'FAISTORE'                                                                                                   3
!zgoubi.fai
!1
 
 'DRIFT'  ! corrctn for 6.15cm distance (vs. HD2=6) from map entrance to QF entrance EFB                      3
-0.15
 
 'TOSCA'   QF+BD     !  Distance from map entr. to QF EFB is 6.15cm. Map length is 45cm.                      4
0  0
-9.69871600E-04  1.00000000E+00  1.00000000E+00  1.00000000E+00
HEADER_8  ZroBXY     ! R=509.6292823  -> Rtan5deg+.15=44.5867848021+.15=44.7367848021
451 83 27 15.1  1. 0.
b_3cell_mod_withIronCorr_x=+-4p1_y+1p3_z=0+45cm_step=1mm_Int.table
1  482.028259 42.1720085 -20328.0996     ! stop integration at end of cell
2
.2
2   0.00000000E+00  0.00000000E+00  0.00000000E+00
 'DRIFT'                                                                                                      5
0.
!  Cell-end X in map =    42.0162888    => XS=45-42.0162888=
!  Cell-end Y in map =   -1.77989459
 
 'FAISCEAU'                                                                                                   6
 'CHANGREF'                                                                                                   7
XS  -0.65863451 YS  -3.20614352 ZR  -5.00000000
 
 'CHANGREF'                                                                                                   8
YS   1.20472887
 
 'MARKER'  dum  .plt                                                                                          9
 
 'FAISCEAU'                                                                                                  10
 'REBELOTE'                                                                                                  11
19   0.2  99
 'END'                                                                                                       12

************************************************************************************************************************************
      1  Keyword, label(s) :  OBJET                                                 

                          MAGNETIC  RIGIDITY =        140.087 kG*cm

                                         TRAJECTOIRY SETTING UP

                              OBJET  (2)  BUILT  UP  FROM       1 POINTS 



************************************************************************************************************************************
      2  Keyword, label(s) :  PARTICUL                                              


     Particle  properties :
      
                     Mass          =   0.510999        MeV/c2
                     Charge        =   1.602177E-19    C     
                     G  factor     =   1.159652E-03          

              Reference  data :
                    mag. rigidity (kG.cm)   :   140.08655      =p/q, such that dev.=B*L/rigidity
                    mass (MeV/c2)           :  0.51099892    
                    momentum (MeV/c)        :   41.996892    
                    energy, total (MeV)     :   42.000001    
                    energy, kinetic (MeV)   :   41.489002    
                    beta = v/c              :  0.9999259837    
                    gamma                   :   82.19195674    
                    beta*gamma              :   82.18587319    
                    G*gamma                 :  9.5314081875E-02
                    electric rigidity (MeV) :   41.99378511    =T[eV]*(gamma+1)/gamma, such that dev.=E*L/rigidity
  
 I, AMQ(1,I), AMQ(2,I)/QE, P/Pref, v/c, time, s :
  
     1   5.10998920E-01  1.00000003E+00  9.52373730E-01  9.99918397E-01  0.00000000E+00  0.00000000E+00

************************************************************************************************************************************
      3  Keyword, label(s) :  DRIFT                                                 


                              Drift,  length =    -0.15000  cm

TRAJ #1 IEX,D,Y,T,Z,P,S,time :  1 -4.762627E-02 -1.143656E+00 -1.218376E+02  0.000000E+00  0.000000E+00 -1.5112026E-01 -5.04124E-06

 Cumulative length of optical axis =  -1.500000000E-03 m   ;  Time  (for reference rigidity & particle) =  -5.003832E-12 s 

************************************************************************************************************************************
      4  Keyword, label(s) :  TOSCA       QF+BD                                     


     Status of MOD.MOD2 is 15.1 ; NDIM = 3 ; number of field data files used is   1.
     Field map set stored in field array HC(IMAP = 1)
     3-D map. MOD=15.  Single field map, with field coefficient value : 
                 1.000000E+00

     ZroBXY OPTION :  found in map title. BX and BY values in Z=0 plane forced to zero.

           New field map(s) opened, cartesian mesh (MOD.le.19) ; 
           name(s) of map data file(s) : 

          'b_3cell_mod_withIronCorr_x=+-4p1_y+1p3_z=0+45cm_step=1mm_Int.table'

   ----
   Map file number    1 ( of 1) :

     b_3cell_mod_withIronCorr_x=+-4p1_y+1p3_z=0+45cm_step=1mm_Int.table field map,
     FORMAT type : regular,
     field multiplication factor :  1.00000000E+00.

 HEADER  (8 lines) : 
      451 27 83 2                                                                                                            
      1 X [CM]                                                                                                               
      2 Y [CM]                                                                                                               
      3 Z [CM]                                                                                                               
      4 BX [1]                                                                                                               
      5 BY [1]                                                                                                               
      6 BZ [1]                                                                                                               
      0                                                                                                                      
R_min (cm), DR (cm), DTTA (deg), DZ (cm) :    0.00000000E+00   0.00000000E+00   0.00000000E+00   0.00000000E+00

  Sbr fmapw/fmapr3 : completed job of reading map.
     Field map scaled by factor  a(1) =   1.000000E+00

     Min/max fields found in map (series) read   :   7.846448E+07  /  -1.066550E+08
       @  X,  Y, Z :   36.4       3.20       1.10                  /   31.1       3.50       1.30    
     Given normalisation coeffs on field, x, y, z :  -9.698716E-04   1.000000E+00   1.000000E+00   1.000000E+00
     this yields min/max normalised fields (kG) : -7.610047E+04                      1.034416E+05
       @  X (cm),  Y (cm), Z (cm) :   36.4       3.20       1.10   /   31.1       3.50       1.30    

     Length of element,  XL =  4.500000E+01 cm 
                                               from  XI =   0.000000E+00 cm 
                                               to    XF =   4.500000E+01 cm 

     Nbr of nodes in X = 451;  nbr of nodes in Y =   83
     X-size of mesh =  1.000000E-01 cm ; Y-size =  1.000000E-01 cm
     nber of mesh nodes in Z =   27 ; Step in Z =  0.100000E+00 cm
      DROITE  DE  COUPURE  SORTIE  D'EQUATION     (    482.028)*X + (     42.172)*Y + ( -20328.100) =0

                     OPTION  DE  CALCUL  :  GRILLE  3-D  A  3*3*3  POINTS , INTERPOLATION  A  L'ORDRE  2

                    Integration step :  0.2000     cm

  A    1  0.9524    -1.162  -121.838     0.000     0.000           45.000    -3.330    -0.211     0.000     0.000            1

     KPOS =  2.  Element  is  mis-aligned  wrt.  the  optical  axis.
          X =   0.000     CM   Y =   0.000     cm,  tilt  angle =   0.00000     RAD


 Cumulative length of optical axis =   0.448500000     m ;  Time  (for ref. rigidity & particle) =   1.496146E-09 s 

************************************************************************************************************************************
      5  Keyword, label(s) :  DRIFT                                                 


                              Drift,  length =     0.00000  cm

TRAJ #1 IEX,D,Y,T,Z,P,S,time :  1 -4.762627E-02 -3.330012E+00 -2.114826E+02  5.044222E-08  1.803703E-06  4.5162090E+01  1.50657E-03

 Cumulative length of optical axis =   0.448500000     m   ;  Time  (for reference rigidity & particle) =   1.496146E-09 s 

************************************************************************************************************************************
      6  Keyword, label(s) :  FAISCEAU                                              

0                                             TRACE DU FAISCEAU
                                           (follows element #      5)
                                                  1 TRAJECTOIRES

                                   OBJET                                                  FAISCEAU

          D       Y(cm)     T(mr)     Z(cm)     P(mr)       S(cm)      D-1     Y(cm)    T(mr)    Z(cm)    P(mr)      S(cm)

1  1   0.9524    -1.162  -121.838     0.000     0.000      0.0000   -0.0476   -3.330 -211.483    0.000    0.000   4.516209E+01     1
               Time of flight (mus) :  1.50656812E-03 mass (MeV/c2) :  0.510999    


---------------  Concentration ellipses : 
   surface      alpha        beta         <X>            <XP>           numb. of prtcls   ratio      space      pass# 
                                                                        in ellips,  out 
   0.0000E+00   0.0000E+00   1.0000E+00  -3.330012E-02  -2.114826E-01        1        1    1.000      (Y,T)         1
   0.0000E+00   0.0000E+00   1.0000E+00   5.044222E-10   1.803703E-09        1        1    1.000      (Z,P)         1
   0.0000E+00   0.0000E+00   1.0000E+00   1.506568E-03   3.948900E+01        1        1    1.000      (t,K)         1

(Y,T)  space (units : (cm,rd)   ) :  
      sigma_Y = sqrt(Surface/pi * BET) =   0.000000E+00
      sigma_T = sqrt(Surface/pi * (1+ALF^2)/BET) =   0.000000E+00

(Z,P)  space (units : (cm,rd)   ) :  
      sigma_Z = sqrt(Surface/pi * BET) =   0.000000E+00
      sigma_P = sqrt(Surface/pi * (1+ALF^2)/BET) =   0.000000E+00

(t,K)  space (units : (mu_s,MeV)) :  
      sigma_t = sqrt(Surface/pi * BET) =   0.000000E+00
      sigma_K = sqrt(Surface/pi * (1+ALF^2)/BET) =   0.000000E+00


  Beam  sigma  matrix : 

   0.000000E+00   0.000000E+00   0.000000E+00   0.000000E+00
   0.000000E+00   0.000000E+00   0.000000E+00   0.000000E+00
   0.000000E+00   0.000000E+00   0.000000E+00   0.000000E+00
   0.000000E+00   0.000000E+00   0.000000E+00   0.000000E+00

      sqrt(det_Y), sqrt(det_Z) :     0.000000E+00    0.000000E+00    (Note :  sqrt(determinant) = ellipse surface / pi)

************************************************************************************************************************************
      7  Keyword, label(s) :  CHANGREF                                              


     Change  of  reference,  3  transformations :

          type : X-shift,        value :  -6.586345E-01 cm
          type : Y-shift,        value :  -3.206144E+00 cm
          type : Z-rotation,     value :  -5.000000E+00 deg  ( -8.726646E-02 rad)

 Traj #1,  IEX,D,Y,T,Z,P,S,time :  1  0.9524      1.7279E-02  -124.2      4.9230E-08  1.8037E-06       44.490          1.48415E-03

************************************************************************************************************************************
      8  Keyword, label(s) :  CHANGREF                                              


     Change  of  reference,  1  transformations :

          type : Y-shift,        value :   1.204729E+00 cm

 Traj #1,  IEX,D,Y,T,Z,P,S,time :  1  0.9524      -1.187      -124.2      4.9230E-08  1.8037E-06       44.490          1.48415E-03

************************************************************************************************************************************
      9  Keyword, label(s) :  MARKER      dum                   .plt                


                OPEN FILE zgoubi.plt                                                                      
                FOR PRINTING TRAJECTORIES


************************************************************************************************************************************
     10  Keyword, label(s) :  FAISCEAU                                              

0                                             TRACE DU FAISCEAU
                                           (follows element #      9)
                                                  1 TRAJECTOIRES

                                   OBJET                                                  FAISCEAU

          D       Y(cm)     T(mr)     Z(cm)     P(mr)       S(cm)      D-1     Y(cm)    T(mr)    Z(cm)    P(mr)      S(cm)

1  1   0.9524    -1.162  -121.838     0.000     0.000      0.0000   -0.0476   -1.187 -124.216    0.000    0.000   4.448999E+01     1
               Time of flight (mus) :  1.48414737E-03 mass (MeV/c2) :  0.510999    


---------------  Concentration ellipses : 
   surface      alpha        beta         <X>            <XP>           numb. of prtcls   ratio      space      pass# 
                                                                        in ellips,  out 
   0.0000E+00   0.0000E+00   1.0000E+00  -1.187450E-02  -1.242161E-01        1        1    1.000      (Y,T)         1
   0.0000E+00   0.0000E+00   1.0000E+00   4.922994E-10   1.803703E-09        1        1    1.000      (Z,P)         1
   0.0000E+00   0.0000E+00   1.0000E+00   1.484147E-03   3.948900E+01        1        1    1.000      (t,K)         1

(Y,T)  space (units : (cm,rd)   ) :  
      sigma_Y = sqrt(Surface/pi * BET) =   0.000000E+00
      sigma_T = sqrt(Surface/pi * (1+ALF^2)/BET) =   0.000000E+00

(Z,P)  space (units : (cm,rd)   ) :  
      sigma_Z = sqrt(Surface/pi * BET) =   0.000000E+00
      sigma_P = sqrt(Surface/pi * (1+ALF^2)/BET) =   0.000000E+00

(t,K)  space (units : (mu_s,MeV)) :  
      sigma_t = sqrt(Surface/pi * BET) =   0.000000E+00
      sigma_K = sqrt(Surface/pi * (1+ALF^2)/BET) =   0.000000E+00


  Beam  sigma  matrix : 

   0.000000E+00   0.000000E+00   0.000000E+00   0.000000E+00
   0.000000E+00   0.000000E+00   0.000000E+00   0.000000E+00
   0.000000E+00   0.000000E+00   0.000000E+00   0.000000E+00
   0.000000E+00   0.000000E+00   0.000000E+00   0.000000E+00

      sqrt(det_Y), sqrt(det_Z) :     0.000000E+00    0.000000E+00    (Note :  sqrt(determinant) = ellipse surface / pi)

************************************************************************************************************************************
     11  Keyword, label(s) :  REBELOTE                                              


                                -----  REBELOTE  -----

     End of pass #        1 through the optical structure 

                     Total of          1 particles have been launched

     Multiple pass, 
          from element #     1 : OBJET     /label1=                    /label2=                    
                             to  REBELOTE  /label1=                    /label2=                    
     ending at pass #      20 at element #    11 : REBELOTE  /label1=                    /label2=                    


     WRITE statements to zgoubi.res are inhibeted from now on.

************************************************************************************************************************************

                                -----  REBELOTE  -----

     End of pass #        2 through the optical structure 

                     Total of          1 particles have been launched

                                -----  REBELOTE  -----

     End of pass #        3 through the optical structure 

                     Total of          1 particles have been launched

                                -----  REBELOTE  -----

     End of pass #        4 through the optical structure 

                     Total of          1 particles have been launched

                                -----  REBELOTE  -----

     End of pass #        5 through the optical structure 

                     Total of          1 particles have been launched

                                -----  REBELOTE  -----

     End of pass #        6 through the optical structure 

                     Total of          1 particles have been launched

                                -----  REBELOTE  -----

     End of pass #        7 through the optical structure 

                     Total of          1 particles have been launched

                                -----  REBELOTE  -----

     End of pass #        8 through the optical structure 

                     Total of          1 particles have been launched

                                -----  REBELOTE  -----

     End of pass #        9 through the optical structure 

                     Total of          1 particles have been launched

                                -----  REBELOTE  -----

     End of pass #       10 through the optical structure 

                     Total of          1 particles have been launched

                                -----  REBELOTE  -----

     End of pass #       11 through the optical structure 

                     Total of          1 particles have been launched

                                -----  REBELOTE  -----

     End of pass #       12 through the optical structure 

                     Total of          1 particles have been launched

                                -----  REBELOTE  -----

     End of pass #       13 through the optical structure 

                     Total of          1 particles have been launched

                                -----  REBELOTE  -----

     End of pass #       14 through the optical structure 

                     Total of          1 particles have been launched

                                -----  REBELOTE  -----

     End of pass #       15 through the optical structure 

                     Total of          1 particles have been launched

                                -----  REBELOTE  -----

     End of pass #       16 through the optical structure 

                     Total of          1 particles have been launched

                                -----  REBELOTE  -----

     End of pass #       17 through the optical structure 

                     Total of          1 particles have been launched

                                -----  REBELOTE  -----

     End of pass #       18 through the optical structure 

                     Total of          1 particles have been launched

                                -----  REBELOTE  -----

     End of pass #       19 through the optical structure 

                     Total of          1 particles have been launched


      Next  pass  is  #    20 and  last  pass  through  the  optical  structure


************************************************************************************************************************************
      1  Keyword, label(s) :  OBJET                                                 



               Final  coordinates  of  previous  run  taken  as  initial  coordinates ;         1 particles

************************************************************************************************************************************
      2  Keyword, label(s) :  PARTICUL                                              


************************************************************************************************************************************
      3  Keyword, label(s) :  DRIFT                                                 


                              Drift,  length =    -0.15000  cm

TRAJ #1 IEX,D,Y,T,Z,P,S,time :  1 -4.762627E-02 -1.161472E+00 -1.230390E+02  3.453415E-08 -2.774446E-06  8.4518432E+02  2.81946E-02

 Cumulative length of optical axis =  -1.500000000E-03 m   ;  Time  (for reference rigidity & particle) =   2.842176E-08 s 

************************************************************************************************************************************
      4  Keyword, label(s) :  TOSCA       QF+BD                                     


     Status of MOD.MOD2 is 15.1 ; NDIM = 3 ; number of field data files used is   1.
     Field map set stored in field array HC(IMAP = 1)
     3-D map. MOD=15.  Single field map, with field coefficient value : 
                 1.000000E+00

     ZroBXY OPTION :  found in map title. BX and BY values in Z=0 plane forced to zero.

     No  map  file  opened :  was  already  stored.
     Skip  reading  field  map  file :           b_3cell_mod_withIronCorr_x=+-4p1_y+1p3_z=0+45cm_step=1mm_Int.table
     Restored mesh coordinates for field map #IMAP=   1,  name : b_3cell_mod_withIronCorr_x=+-4p1_y+1p3_z=0+45cm_step=1mm_Int.table
     Field map scaled by factor  a(1) =   1.000000E+00

     Min/max fields found in map (series) read   :   7.846448E+07  /  -1.066550E+08
       @  X,  Y, Z :   36.4       3.20       1.10                  /   31.1       3.50       1.30    
     Given normalisation coeffs on field, x, y, z :  -9.698716E-04   1.000000E+00   1.000000E+00   1.000000E+00
     this yields min/max normalised fields (kG) : -7.610047E+04                      1.034416E+05
       @  X (cm),  Y (cm), Z (cm) :   36.4       3.20       1.10   /   31.1       3.50       1.30    

     Length of element,  XL =  4.500000E+01 cm 
                                               from  XI =   0.000000E+00 cm 
                                               to    XF =   4.500000E+01 cm 

     Nbr of nodes in X = 451;  nbr of nodes in Y =   83
     X-size of mesh =  1.000000E-01 cm ; Y-size =  1.000000E-01 cm
     nber of mesh nodes in Z =   27 ; Step in Z =  0.100000E+00 cm
      DROITE  DE  COUPURE  SORTIE  D'EQUATION     (    482.028)*X + (     42.172)*Y + ( -20328.100) =0

                     OPTION  DE  CALCUL  :  GRILLE  3-D  A  3*3*3  POINTS , INTERPOLATION  A  L'ORDRE  2

                    Integration step :  0.2000     cm

  A    1  0.9524    -1.162  -121.838     0.000     0.000           45.000    -3.306    -0.210     0.000     0.000            1

     KPOS =  2.  Element  is  mis-aligned  wrt.  the  optical  axis.
          X =   0.000     CM   Y =   0.000     cm,  tilt  angle =   0.00000     RAD


 Cumulative length of optical axis =   0.448500000     m ;  Time  (for ref. rigidity & particle) =   2.992291E-08 s 

************************************************************************************************************************************
      5  Keyword, label(s) :  DRIFT                                                 


                              Drift,  length =     0.00000  cm

TRAJ #1 IEX,D,Y,T,Z,P,S,time :  1 -4.762627E-02 -3.306367E+00 -2.096352E+02  2.204206E-08  3.301864E-06  8.9049669E+02  2.97062E-02

 Cumulative length of optical axis =   0.448500000     m   ;  Time  (for reference rigidity & particle) =   2.992291E-08 s 

************************************************************************************************************************************
      6  Keyword, label(s) :  FAISCEAU                                              

0                                             TRACE DU FAISCEAU
                                           (follows element #      5)
                                                  1 TRAJECTOIRES

                                   OBJET                                                  FAISCEAU

          D       Y(cm)     T(mr)     Z(cm)     P(mr)       S(cm)      D-1     Y(cm)    T(mr)    Z(cm)    P(mr)      S(cm)

1  1   0.9524    -1.162  -121.838     0.000     0.000      0.0000   -0.0476   -3.306 -209.635    0.000    0.000   8.904967E+02     1
               Time of flight (mus) :  2.97061963E-02 mass (MeV/c2) :  0.510999    


---------------  Concentration ellipses : 
   surface      alpha        beta         <X>            <XP>           numb. of prtcls   ratio      space      pass# 
                                                                        in ellips,  out 
   0.0000E+00   0.0000E+00   1.0000E+00  -3.306367E-02  -2.096352E-01        1        1    1.000      (Y,T)        20
   0.0000E+00   0.0000E+00   1.0000E+00   2.204206E-10   3.301864E-09        1        1    1.000      (Z,P)        20
   0.0000E+00   0.0000E+00   1.0000E+00   2.970620E-02   3.948900E+01        1        1    1.000      (t,K)        20

(Y,T)  space (units : (cm,rd)   ) :  
      sigma_Y = sqrt(Surface/pi * BET) =   0.000000E+00
      sigma_T = sqrt(Surface/pi * (1+ALF^2)/BET) =   0.000000E+00

(Z,P)  space (units : (cm,rd)   ) :  
      sigma_Z = sqrt(Surface/pi * BET) =   0.000000E+00
      sigma_P = sqrt(Surface/pi * (1+ALF^2)/BET) =   0.000000E+00

(t,K)  space (units : (mu_s,MeV)) :  
      sigma_t = sqrt(Surface/pi * BET) =   0.000000E+00
      sigma_K = sqrt(Surface/pi * (1+ALF^2)/BET) =   0.000000E+00


  Beam  sigma  matrix : 

   0.000000E+00   0.000000E+00   0.000000E+00   0.000000E+00
   0.000000E+00   0.000000E+00   0.000000E+00   0.000000E+00
   0.000000E+00   0.000000E+00   0.000000E+00   0.000000E+00
   0.000000E+00   0.000000E+00   0.000000E+00   0.000000E+00

      sqrt(det_Y), sqrt(det_Z) :     0.000000E+00    0.000000E+00    (Note :  sqrt(determinant) = ellipse surface / pi)

************************************************************************************************************************************
      7  Keyword, label(s) :  CHANGREF                                              


     Change  of  reference,  3  transformations :

          type : X-shift,        value :  -6.586345E-01 cm
          type : Y-shift,        value :  -3.206144E+00 cm
          type : Z-rotation,     value :  -5.000000E+00 deg  ( -8.726646E-02 rad)

 Traj #1,  IEX,D,Y,T,Z,P,S,time :  1  0.9524      3.9329E-02  -122.4      1.9830E-08  3.3019E-06       889.83          2.96838E-02

************************************************************************************************************************************
      8  Keyword, label(s) :  CHANGREF                                              


     Change  of  reference,  1  transformations :

          type : Y-shift,        value :   1.204729E+00 cm

 Traj #1,  IEX,D,Y,T,Z,P,S,time :  1  0.9524      -1.165      -122.4      1.9830E-08  3.3019E-06       889.83          2.96838E-02

************************************************************************************************************************************
      9  Keyword, label(s) :  MARKER      dum                   .plt                


     zgoubi.plt                                                                      
      already open...

************************************************************************************************************************************
     10  Keyword, label(s) :  FAISCEAU                                              

0                                             TRACE DU FAISCEAU
                                           (follows element #      9)
                                                  1 TRAJECTOIRES

                                   OBJET                                                  FAISCEAU

          D       Y(cm)     T(mr)     Z(cm)     P(mr)       S(cm)      D-1     Y(cm)    T(mr)    Z(cm)    P(mr)      S(cm)

1  1   0.9524    -1.162  -121.838     0.000     0.000      0.0000   -0.0476   -1.165 -122.369    0.000    0.000   8.898268E+02     1
               Time of flight (mus) :  2.96838499E-02 mass (MeV/c2) :  0.510999    


---------------  Concentration ellipses : 
   surface      alpha        beta         <X>            <XP>           numb. of prtcls   ratio      space      pass# 
                                                                        in ellips,  out 
   0.0000E+00   0.0000E+00   1.0000E+00  -1.165400E-02  -1.223687E-01        1        1    1.000      (Y,T)        20
   0.0000E+00   0.0000E+00   1.0000E+00   1.983023E-10   3.301864E-09        1        1    1.000      (Z,P)        20
   0.0000E+00   0.0000E+00   1.0000E+00   2.968385E-02   3.948900E+01        1        1    1.000      (t,K)        20

(Y,T)  space (units : (cm,rd)   ) :  
      sigma_Y = sqrt(Surface/pi * BET) =   0.000000E+00
      sigma_T = sqrt(Surface/pi * (1+ALF^2)/BET) =   0.000000E+00

(Z,P)  space (units : (cm,rd)   ) :  
      sigma_Z = sqrt(Surface/pi * BET) =   0.000000E+00
      sigma_P = sqrt(Surface/pi * (1+ALF^2)/BET) =   0.000000E+00

(t,K)  space (units : (mu_s,MeV)) :  
      sigma_t = sqrt(Surface/pi * BET) =   0.000000E+00
      sigma_K = sqrt(Surface/pi * (1+ALF^2)/BET) =   0.000000E+00


  Beam  sigma  matrix : 

   0.000000E+00   0.000000E+00   0.000000E+00   0.000000E+00
   0.000000E+00   0.000000E+00   0.000000E+00   0.000000E+00
   0.000000E+00   0.000000E+00   0.000000E+00   0.000000E+00
   0.000000E+00   0.000000E+00   0.000000E+00   0.000000E+00

      sqrt(det_Y), sqrt(det_Z) :     0.000000E+00    0.000000E+00    (Note :  sqrt(determinant) = ellipse surface / pi)

************************************************************************************************************************************
     11  Keyword, label(s) :  REBELOTE                                              


                         ****  End  of  'REBELOTE'  procedure  ****

      There  has  been         20  passes  through  the  optical  structure 

                     Total of          1 particles have been launched

************************************************************************************************************************************
     12  Keyword, label(s) :  END                                                   


************************************************************************************************************************************
 Pgm zgoubi : Execution ended normally, upon keyword END or FIN
   
            ZGOUBI RUN COMPLETED. 

  Zgoubi, author's dvlpmnt version.
  Job  started  on  28-08-2018,  at  14:59:43 
  JOB  ENDED  ON    28-08-2018,  AT  14:59:43 

   CPU time, total :    0.22961899999999999     
