%!PS-Adobe-2.0 EPSF-2.0
%%Title: analField.eps
%%Titre: analField.eps
%%Creator: Fminigraf Library
%%BoundingBox: 20 40 567 457
%%EndComments
/offx 20 def
/offy 40 def
/lx 595 def
/ly 842 def
/maxx 1023 def
/maxy 779 def
/reduc 0.92 def
/coeff lx maxx div reduc mul def
offx offy translate
coeff coeff scale
1 setlinewidth newpath 0 0 moveto
/Courier-Bold findfont 32 scalefont setfont
/M {moveto} def
/L {lineto} def
/S {stroke} def
/H {show} def
/D {setdash} def
0 0 0 setrgbcolor
[] 0 D
[] 0 D
[2 3] 0 D
126 156 M 126 740 L S
[] 0 D
/Courier-Bold findfont 30 scalefont setfont
108 128 M (-.3) H
126 156 M 126 166 L S
126 170 M 126 190 L S
126 730 M 126 740 L S
159 156 M 159 161 L S
159 175 M 159 185 L S
159 735 M 159 740 L S
192 156 M 192 161 L S
192 175 M 192 185 L S
192 735 M 192 740 L S
225 156 M 225 161 L S
225 175 M 225 185 L S
225 735 M 225 740 L S
258 156 M 258 161 L S
258 175 M 258 185 L S
258 735 M 258 740 L S
[2 3] 0 D
292 156 M 292 740 L S
[] 0 D
274 128 M (-.2) H
292 156 M 292 166 L S
292 170 M 292 190 L S
292 730 M 292 740 L S
325 156 M 325 161 L S
325 175 M 325 185 L S
325 735 M 325 740 L S
358 156 M 358 161 L S
358 175 M 358 185 L S
358 735 M 358 740 L S
391 156 M 391 161 L S
391 175 M 391 185 L S
391 735 M 391 740 L S
425 156 M 425 161 L S
425 175 M 425 185 L S
425 735 M 425 740 L S
[2 3] 0 D
458 156 M 458 740 L S
[] 0 D
440 128 M (-.1) H
458 156 M 458 166 L S
458 170 M 458 190 L S
458 730 M 458 740 L S
491 156 M 491 161 L S
491 175 M 491 185 L S
491 735 M 491 740 L S
524 156 M 524 161 L S
524 175 M 524 185 L S
524 735 M 524 740 L S
558 156 M 558 161 L S
558 175 M 558 185 L S
558 735 M 558 740 L S
591 156 M 591 161 L S
591 175 M 591 185 L S
591 735 M 591 740 L S
[2 3] 0 D
624 156 M 624 740 L S
[] 0 D
606 128 M (0.0) H
624 156 M 624 166 L S
624 170 M 624 190 L S
624 730 M 624 740 L S
657 156 M 657 161 L S
657 175 M 657 185 L S
657 735 M 657 740 L S
690 156 M 690 161 L S
690 175 M 690 185 L S
690 735 M 690 740 L S
724 156 M 724 161 L S
724 175 M 724 185 L S
724 735 M 724 740 L S
757 156 M 757 161 L S
757 175 M 757 185 L S
757 735 M 757 740 L S
[2 3] 0 D
790 156 M 790 740 L S
[] 0 D
772 128 M (0.1) H
790 156 M 790 166 L S
790 170 M 790 190 L S
790 730 M 790 740 L S
823 156 M 823 161 L S
823 175 M 823 185 L S
823 735 M 823 740 L S
857 156 M 857 161 L S
857 175 M 857 185 L S
857 735 M 857 740 L S
890 156 M 890 161 L S
890 175 M 890 185 L S
890 735 M 890 740 L S
923 156 M 923 161 L S
923 175 M 923 185 L S
923 735 M 923 740 L S
[2 3] 0 D
956 156 M 956 740 L S
[] 0 D
938 128 M (0.2) H
956 156 M 956 166 L S
956 170 M 956 190 L S
956 730 M 956 740 L S
102 163 M 107 163 L S
619 163 M 629 163 L S
967 163 M 972 163 L S
[2 3] 0 D
102 181 M 972 181 L S
[] 0 D
33 171 M (0.0) H
102 181 M 112 181 L S
614 181 M 634 181 L S
962 181 M 972 181 L S
102 199 M 107 199 L S
619 199 M 629 199 L S
967 199 M 972 199 L S
102 217 M 107 217 L S
619 217 M 629 217 L S
967 217 M 972 217 L S
102 235 M 107 235 L S
619 235 M 629 235 L S
967 235 M 972 235 L S
[2 3] 0 D
102 253 M 972 253 L S
[] 0 D
33 243 M (0.2) H
102 253 M 112 253 L S
614 253 M 634 253 L S
962 253 M 972 253 L S
102 271 M 107 271 L S
619 271 M 629 271 L S
967 271 M 972 271 L S
102 289 M 107 289 L S
619 289 M 629 289 L S
967 289 M 972 289 L S
102 307 M 107 307 L S
619 307 M 629 307 L S
967 307 M 972 307 L S
[2 3] 0 D
102 325 M 972 325 L S
[] 0 D
33 315 M (0.4) H
102 325 M 112 325 L S
614 325 M 634 325 L S
962 325 M 972 325 L S
102 342 M 107 342 L S
619 342 M 629 342 L S
967 342 M 972 342 L S
102 360 M 107 360 L S
619 360 M 629 360 L S
967 360 M 972 360 L S
102 378 M 107 378 L S
619 378 M 629 378 L S
967 378 M 972 378 L S
[2 3] 0 D
102 396 M 972 396 L S
[] 0 D
33 386 M (0.6) H
102 396 M 112 396 L S
614 396 M 634 396 L S
962 396 M 972 396 L S
102 414 M 107 414 L S
619 414 M 629 414 L S
967 414 M 972 414 L S
102 432 M 107 432 L S
619 432 M 629 432 L S
967 432 M 972 432 L S
102 450 M 107 450 L S
619 450 M 629 450 L S
967 450 M 972 450 L S
[2 3] 0 D
102 468 M 972 468 L S
[] 0 D
33 458 M (0.8) H
102 468 M 112 468 L S
614 468 M 634 468 L S
962 468 M 972 468 L S
102 486 M 107 486 L S
619 486 M 629 486 L S
967 486 M 972 486 L S
102 504 M 107 504 L S
619 504 M 629 504 L S
967 504 M 972 504 L S
102 522 M 107 522 L S
619 522 M 629 522 L S
967 522 M 972 522 L S
[2 3] 0 D
102 540 M 972 540 L S
[] 0 D
39 530 M (1.) H
102 540 M 112 540 L S
614 540 M 634 540 L S
962 540 M 972 540 L S
102 558 M 107 558 L S
619 558 M 629 558 L S
967 558 M 972 558 L S
102 576 M 107 576 L S
619 576 M 629 576 L S
967 576 M 972 576 L S
102 594 M 107 594 L S
619 594 M 629 594 L S
967 594 M 972 594 L S
[2 3] 0 D
102 612 M 972 612 L S
[] 0 D
33 602 M (1.2) H
102 612 M 112 612 L S
614 612 M 634 612 L S
962 612 M 972 612 L S
102 630 M 107 630 L S
619 630 M 629 630 L S
967 630 M 972 630 L S
102 648 M 107 648 L S
619 648 M 629 648 L S
967 648 M 972 648 L S
102 666 M 107 666 L S
619 666 M 629 666 L S
967 666 M 972 666 L S
[2 3] 0 D
102 684 M 972 684 L S
[] 0 D
33 674 M (1.4) H
102 684 M 112 684 L S
614 684 M 634 684 L S
962 684 M 972 684 L S
102 702 M 107 702 L S
619 702 M 629 702 L S
967 702 M 972 702 L S
102 720 M 107 720 L S
619 720 M 629 720 L S
967 720 M 972 720 L S
102 738 M 107 738 L S
619 738 M 629 738 L S
967 738 M 972 738 L S
[] 0 D
102 156 M 972 156 L S
972 156 M 972 740 L S
972 740 M 102 740 L S
102 740 M 102 156 L S
624 156 M 624 740 L S
102 180 M 972 180 L S
[] 0 D
102 181 M 102 181 L S
102 181 M 102 181 L S
102 181 M 110 181 L S
110 181 M 118 181 L S
118 181 M 126 181 L S
126 181 M 134 181 L S
134 181 M 142 181 L S
142 181 M 150 181 L S
150 181 M 158 181 L S
158 181 M 166 181 L S
166 181 M 174 181 L S
174 181 M 182 181 L S
182 181 M 190 181 L S
190 181 M 198 181 L S
198 181 M 206 181 L S
206 181 M 214 181 L S
214 181 M 222 181 L S
222 181 M 230 181 L S
230 181 M 238 181 L S
238 181 M 246 181 L S
246 181 M 254 181 L S
254 181 M 262 181 L S
262 181 M 270 181 L S
270 181 M 278 181 L S
278 181 M 286 181 L S
286 181 M 294 181 L S
294 181 M 302 181 L S
302 181 M 310 183 L S
310 183 M 318 186 L S
318 186 M 326 192 L S
326 192 M 334 203 L S
334 203 M 342 221 L S
342 221 M 349 243 L S
349 243 M 357 270 L S
357 270 M 365 301 L S
365 301 M 373 334 L S
373 334 M 381 370 L S
381 370 M 389 410 L S
389 410 M 397 455 L S
397 455 M 404 505 L S
404 505 M 412 557 L S
412 557 M 420 606 L S
420 606 M 428 644 L S
428 644 M 436 670 L S
436 670 M 444 683 L S
444 683 M 451 690 L S
451 690 M 459 693 L S
459 693 M 467 695 L S
467 695 M 475 697 L S
475 697 M 483 698 L S
483 698 M 491 699 L S
491 699 M 499 700 L S
499 700 M 506 701 L S
506 701 M 514 702 L S
514 702 M 522 702 L S
522 702 M 530 702 L S
530 702 M 538 702 L S
538 702 M 546 702 L S
546 702 M 554 702 L S
554 702 M 561 702 L S
561 702 M 569 701 L S
569 701 M 577 700 L S
577 700 M 585 699 L S
585 699 M 593 698 L S
593 698 M 601 697 L S
601 697 M 609 695 L S
609 695 M 616 693 L S
616 693 M 624 689 L S
624 689 M 632 681 L S
632 681 M 640 666 L S
640 666 M 648 637 L S
648 637 M 656 596 L S
656 596 M 663 546 L S
663 546 M 671 494 L S
671 494 M 679 445 L S
679 445 M 687 401 L S
687 401 M 695 362 L S
695 362 M 703 327 L S
703 327 M 710 294 L S
710 294 M 718 264 L S
718 264 M 726 238 L S
726 238 M 734 216 L S
734 216 M 742 201 L S
742 201 M 750 190 L S
750 190 M 758 185 L S
758 185 M 766 182 L S
766 182 M 774 181 L S
774 181 M 782 181 L S
782 181 M 789 181 L S
789 181 M 797 181 L S
797 181 M 805 181 L S
805 181 M 813 181 L S
813 181 M 821 181 L S
821 181 M 829 181 L S
829 181 M 837 181 L S
837 181 M 845 181 L S
845 181 M 853 181 L S
853 181 M 861 181 L S
861 181 M 869 181 L S
869 181 M 877 181 L S
877 181 M 885 181 L S
885 181 M 893 181 L S
893 181 M 901 181 L S
901 181 M 909 181 L S
909 181 M 917 181 L S
917 181 M 925 181 L S
925 181 M 933 181 L S
933 181 M 942 181 L S
942 181 M 950 181 L S
950 181 M 958 181 L S
958 181 M 966 181 L S
966 181 M 972 181 L S
102 181 M 102 181 L S
102 181 M 102 181 L S
102 181 M 110 181 L S
110 181 M 118 181 L S
118 181 M 126 181 L S
126 181 M 134 181 L S
134 181 M 142 181 L S
142 181 M 150 181 L S
150 181 M 158 181 L S
158 181 M 166 181 L S
166 181 M 174 181 L S
174 181 M 182 181 L S
182 181 M 190 181 L S
190 181 M 198 181 L S
198 181 M 206 181 L S
206 181 M 214 181 L S
214 181 M 222 181 L S
222 181 M 230 181 L S
230 181 M 237 181 L S
237 181 M 245 181 L S
245 181 M 253 181 L S
253 181 M 261 181 L S
261 181 M 269 181 L S
269 181 M 277 181 L S
277 181 M 285 181 L S
285 181 M 293 181 L S
293 181 M 301 181 L S
301 181 M 309 182 L S
309 182 M 316 183 L S
316 183 M 324 184 L S
324 184 M 332 179 L S
332 179 M 340 173 L S
340 173 M 348 167 L S
348 167 M 356 160 L S
356 160 M 363 160 L S
363 160 M 371 182 L S
371 182 M 379 218 L S
379 218 M 387 265 L S
387 265 M 394 336 L S
394 336 M 402 425 L S
402 425 M 410 513 L S
410 513 M 418 593 L S
418 593 M 425 657 L S
425 657 M 433 695 L S
433 695 M 441 714 L S
441 714 M 449 722 L S
449 722 M 456 726 L S
456 726 M 464 729 L S
464 729 M 472 731 L S
472 731 M 480 733 L S
480 733 M 487 734 L S
487 734 M 495 736 L S
495 736 M 503 737 L S
503 737 M 511 738 L S
511 738 M 519 739 L S
519 739 M 526 739 L S
526 739 M 534 740 L S
534 740 M 542 740 L S
542 740 M 550 740 L S
550 740 M 558 740 L S
558 740 M 565 739 L S
565 739 M 573 739 L S
573 739 M 581 738 L S
581 738 M 589 737 L S
589 737 M 597 736 L S
597 736 M 604 734 L S
604 734 M 612 732 L S
612 732 M 620 730 L S
620 730 M 628 725 L S
628 725 M 635 715 L S
635 715 M 643 693 L S
643 693 M 651 647 L S
651 647 M 659 576 L S
659 576 M 666 492 L S
666 492 M 674 401 L S
674 401 M 682 313 L S
682 313 M 690 250 L S
690 250 M 697 206 L S
697 206 M 705 172 L S
705 172 M 713 156 L S
713 156 M 721 161 L S
721 161 M 729 168 L S
729 168 M 736 173 L S
736 173 M 744 181 L S
744 181 M 752 184 L S
752 184 M 760 183 L S
760 183 M 768 181 L S
768 181 M 776 181 L S
776 181 M 784 181 L S
784 181 M 791 181 L S
791 181 M 799 181 L S
799 181 M 807 181 L S
807 181 M 815 181 L S
815 181 M 823 181 L S
823 181 M 831 181 L S
831 181 M 839 181 L S
839 181 M 847 181 L S
847 181 M 855 181 L S
855 181 M 863 181 L S
863 181 M 871 181 L S
871 181 M 878 181 L S
878 181 M 886 181 L S
886 181 M 894 181 L S
894 181 M 902 181 L S
902 181 M 910 181 L S
910 181 M 918 181 L S
918 181 M 926 181 L S
926 181 M 934 181 L S
934 181 M 942 181 L S
942 181 M 950 181 L S
950 181 M 958 181 L S
958 181 M 966 181 L S
966 181 M 972 181 L S
972 181 M 972 181 L S
/Courier-Bold findfont 27 scalefont setfont
101 764 M (Zgoubi|Zpop                                                                     ) H
101 743 M (05-12-2017                                                                      ) H
/Courier-Bold findfont 26 scalefont setfont
160 85 M (* # TRAJECTORIES - STORAGE FILE, 05-12-2017 17:10:22 *                                                                            ) H
293 755 M (  BZ     (T)  vs.    X     (m)                                                                                                    ) H
26 42 M (Mi-ma H/V:  -0.314      0.209    / -6.862E-02   1.56                                                                              ) H
26 21 M (Part#  1- 10000 (*); Lmnt#     1; pass#       1-      1, [    1];    223 pnts                                                     ) H
showpage
