%!PS-Adobe-2.0 EPSF-2.0
%%Title: K_histo.eps
%%Titre: K_histo.eps
%%Creator: Fminigraf Library
%%BoundingBox: 20 40 567 457
%%EndComments
/offx 20 def
/offy 40 def
/lx 595 def
/ly 842 def
/maxx 1023 def
/maxy 779 def
/reduc 0.92 def
/coeff lx maxx div reduc mul def
offx offy translate
coeff coeff scale
1 setlinewidth newpath 0 0 moveto
/Courier-Bold findfont 32 scalefont setfont
/M {moveto} def
/L {lineto} def
/S {stroke} def
/H {show} def
/D {setdash} def
0 0 0 setrgbcolor
[] 0 D
117 156 M 117 161 L S
117 735 M 117 740 L S
148 156 M 148 161 L S
148 735 M 148 740 L S
[2 3] 0 D
179 156 M 179 740 L S
[] 0 D
/Courier-Bold findfont 30 scalefont setfont
143 128 M (2.1815) H
161 109 M (E+4) H
179 156 M 179 166 L S
179 730 M 179 740 L S
210 156 M 210 161 L S
210 735 M 210 740 L S
241 156 M 241 161 L S
241 735 M 241 740 L S
272 156 M 272 161 L S
272 735 M 272 740 L S
303 156 M 303 161 L S
303 735 M 303 740 L S
[2 3] 0 D
334 156 M 334 740 L S
[] 0 D
304 128 M (2.182) H
316 109 M (E+4) H
334 156 M 334 166 L S
334 730 M 334 740 L S
365 156 M 365 161 L S
365 735 M 365 740 L S
397 156 M 397 161 L S
397 735 M 397 740 L S
428 156 M 428 161 L S
428 735 M 428 740 L S
459 156 M 459 161 L S
459 735 M 459 740 L S
[2 3] 0 D
490 156 M 490 740 L S
[] 0 D
454 128 M (2.1825) H
472 109 M (E+4) H
490 156 M 490 166 L S
490 730 M 490 740 L S
521 156 M 521 161 L S
521 735 M 521 740 L S
552 156 M 552 161 L S
552 735 M 552 740 L S
583 156 M 583 161 L S
583 735 M 583 740 L S
614 156 M 614 161 L S
614 735 M 614 740 L S
[2 3] 0 D
645 156 M 645 740 L S
[] 0 D
615 128 M (2.183) H
627 109 M (E+4) H
645 156 M 645 166 L S
645 730 M 645 740 L S
676 156 M 676 161 L S
676 735 M 676 740 L S
707 156 M 707 161 L S
707 735 M 707 740 L S
738 156 M 738 161 L S
738 735 M 738 740 L S
769 156 M 769 161 L S
769 735 M 769 740 L S
[2 3] 0 D
800 156 M 800 740 L S
[] 0 D
764 128 M (2.1835) H
782 109 M (E+4) H
800 156 M 800 166 L S
800 730 M 800 740 L S
831 156 M 831 161 L S
831 735 M 831 740 L S
862 156 M 862 161 L S
862 735 M 862 740 L S
894 156 M 894 161 L S
894 735 M 894 740 L S
925 156 M 925 161 L S
925 735 M 925 740 L S
[2 3] 0 D
956 156 M 956 740 L S
[] 0 D
926 128 M (2.184) H
938 109 M (E+4) H
956 156 M 956 166 L S
956 730 M 956 740 L S
[2 3] 0 D
102 156 M 972 156 L S
[] 0 D
45 146 M (0) H
102 156 M 112 156 L S
962 156 M 972 156 L S
102 174 M 107 174 L S
967 174 M 972 174 L S
102 192 M 107 192 L S
967 192 M 972 192 L S
102 211 M 107 211 L S
967 211 M 972 211 L S
102 229 M 107 229 L S
967 229 M 972 229 L S
[2 3] 0 D
102 247 M 972 247 L S
[] 0 D
39 237 M (50) H
102 247 M 112 247 L S
962 247 M 972 247 L S
102 265 M 107 265 L S
967 265 M 972 265 L S
102 284 M 107 284 L S
967 284 M 972 284 L S
102 302 M 107 302 L S
967 302 M 972 302 L S
102 320 M 107 320 L S
967 320 M 972 320 L S
[2 3] 0 D
102 338 M 972 338 L S
[] 0 D
33 328 M (100) H
102 338 M 112 338 L S
962 338 M 972 338 L S
102 357 M 107 357 L S
967 357 M 972 357 L S
102 375 M 107 375 L S
967 375 M 972 375 L S
102 393 M 107 393 L S
967 393 M 972 393 L S
102 411 M 107 411 L S
967 411 M 972 411 L S
[2 3] 0 D
102 430 M 972 430 L S
[] 0 D
33 420 M (150) H
102 430 M 112 430 L S
962 430 M 972 430 L S
102 448 M 107 448 L S
967 448 M 972 448 L S
102 466 M 107 466 L S
967 466 M 972 466 L S
102 484 M 107 484 L S
967 484 M 972 484 L S
102 503 M 107 503 L S
967 503 M 972 503 L S
[2 3] 0 D
102 521 M 972 521 L S
[] 0 D
33 511 M (200) H
102 521 M 112 521 L S
962 521 M 972 521 L S
102 539 M 107 539 L S
967 539 M 972 539 L S
102 557 M 107 557 L S
967 557 M 972 557 L S
102 576 M 107 576 L S
967 576 M 972 576 L S
102 594 M 107 594 L S
967 594 M 972 594 L S
[2 3] 0 D
102 612 M 972 612 L S
[] 0 D
33 602 M (250) H
102 612 M 112 612 L S
962 612 M 972 612 L S
102 630 M 107 630 L S
967 630 M 972 630 L S
102 649 M 107 649 L S
967 649 M 972 649 L S
102 667 M 107 667 L S
967 667 M 972 667 L S
102 685 M 107 685 L S
967 685 M 972 685 L S
[2 3] 0 D
102 703 M 972 703 L S
[] 0 D
33 693 M (300) H
102 703 M 112 703 L S
962 703 M 972 703 L S
102 722 M 107 722 L S
967 722 M 972 722 L S
102 740 M 107 740 L S
967 740 M 972 740 L S
[] 0 D
102 156 M 972 156 L S
972 156 M 972 740 L S
972 740 M 102 740 L S
102 740 M 102 156 L S
[] 0 D
102 156 M 102 156 L S
102 156 M 102 158 L S
102 158 M 111 158 L S
111 158 M 111 156 L S
111 156 M 120 156 L S
120 156 M 120 158 L S
120 158 M 128 158 L S
128 158 M 128 158 L S
128 158 M 137 158 L S
137 158 M 137 158 L S
137 158 M 146 158 L S
146 158 M 146 158 L S
146 158 M 155 158 L S
155 158 M 155 161 L S
155 161 M 163 161 L S
163 161 M 163 158 L S
163 158 M 172 158 L S
172 158 M 172 156 L S
172 156 M 181 156 L S
181 156 M 181 160 L S
181 160 M 190 160 L S
190 160 M 190 161 L S
190 161 M 199 161 L S
199 161 M 199 161 L S
199 161 M 207 161 L S
207 161 M 207 172 L S
207 172 M 216 172 L S
216 172 M 216 165 L S
216 165 M 225 165 L S
225 165 M 225 176 L S
225 176 M 234 176 L S
234 176 M 234 174 L S
234 174 M 243 174 L S
243 174 M 243 172 L S
243 172 M 251 172 L S
251 172 M 251 180 L S
251 180 M 260 180 L S
260 180 M 260 193 L S
260 193 M 269 193 L S
269 193 M 269 187 L S
269 187 M 278 187 L S
278 187 M 278 185 L S
278 185 M 286 185 L S
286 185 M 286 187 L S
286 187 M 295 187 L S
295 187 M 295 198 L S
295 198 M 304 198 L S
304 198 M 304 214 L S
304 214 M 313 214 L S
313 214 M 313 222 L S
313 222 M 322 222 L S
322 222 M 322 267 L S
322 267 M 330 267 L S
330 267 M 330 258 L S
330 258 M 339 258 L S
339 258 M 339 251 L S
339 251 M 348 251 L S
348 251 M 348 302 L S
348 302 M 357 302 L S
357 302 M 357 307 L S
357 307 M 366 307 L S
366 307 M 366 289 L S
366 289 M 374 289 L S
374 289 M 374 340 L S
374 340 M 383 340 L S
383 340 M 383 349 L S
383 349 M 392 349 L S
392 349 M 392 375 L S
392 375 M 401 375 L S
401 375 M 401 408 L S
401 408 M 410 408 L S
410 408 M 410 441 L S
410 441 M 418 441 L S
418 441 M 418 468 L S
418 468 M 427 468 L S
427 468 M 427 481 L S
427 481 M 436 481 L S
436 481 M 436 453 L S
436 453 M 445 453 L S
445 453 M 445 532 L S
445 532 M 454 532 L S
454 532 M 454 550 L S
454 550 M 462 550 L S
462 550 M 462 592 L S
462 592 M 471 592 L S
471 592 M 471 596 L S
471 596 M 480 596 L S
480 596 M 480 669 L S
480 669 M 489 669 L S
489 669 M 489 656 L S
489 656 M 497 656 L S
497 656 M 497 614 L S
497 614 M 506 614 L S
506 614 M 506 616 L S
506 616 M 515 616 L S
515 616 M 515 662 L S
515 662 M 524 662 L S
524 662 M 524 663 L S
524 663 M 533 663 L S
533 663 M 533 714 L S
533 714 M 541 714 L S
541 714 M 541 687 L S
541 687 M 550 687 L S
550 687 M 550 740 L S
550 740 M 559 740 L S
559 740 M 559 683 L S
559 683 M 568 683 L S
568 683 M 568 709 L S
568 709 M 576 709 L S
576 709 M 576 725 L S
576 725 M 585 725 L S
585 725 M 585 687 L S
585 687 M 594 687 L S
594 687 M 594 667 L S
594 667 M 603 667 L S
603 667 M 603 654 L S
603 654 M 612 654 L S
612 654 M 612 589 L S
612 589 M 620 589 L S
620 589 M 620 550 L S
620 550 M 629 550 L S
629 550 M 629 598 L S
629 598 M 638 598 L S
638 598 M 638 528 L S
638 528 M 647 528 L S
647 528 M 647 552 L S
647 552 M 656 552 L S
656 552 M 656 461 L S
656 461 M 664 461 L S
664 461 M 664 508 L S
664 508 M 673 508 L S
673 508 M 673 470 L S
673 470 M 682 470 L S
682 470 M 682 426 L S
682 426 M 691 426 L S
691 426 M 691 441 L S
691 441 M 700 441 L S
700 441 M 700 393 L S
700 393 M 708 393 L S
708 393 M 708 362 L S
708 362 M 717 362 L S
717 362 M 717 326 L S
717 326 M 726 326 L S
726 326 M 726 333 L S
726 333 M 735 333 L S
735 333 M 735 328 L S
735 328 M 744 328 L S
744 328 M 744 320 L S
744 320 M 752 320 L S
752 320 M 752 280 L S
752 280 M 761 280 L S
761 280 M 761 280 L S
761 280 M 770 280 L S
770 280 M 770 264 L S
770 264 M 779 264 L S
779 264 M 779 229 L S
779 229 M 787 229 L S
787 229 M 787 220 L S
787 220 M 796 220 L S
796 220 M 796 211 L S
796 211 M 805 211 L S
805 211 M 805 211 L S
805 211 M 814 211 L S
814 211 M 814 222 L S
814 222 M 823 222 L S
823 222 M 823 198 L S
823 198 M 831 198 L S
831 198 M 831 176 L S
831 176 M 840 176 L S
840 176 M 840 178 L S
840 178 M 849 178 L S
849 178 M 849 174 L S
849 174 M 858 174 L S
858 174 M 858 163 L S
858 163 M 866 163 L S
866 163 M 866 167 L S
866 167 M 875 167 L S
875 167 M 875 178 L S
875 178 M 884 178 L S
884 178 M 884 165 L S
884 165 M 893 165 L S
893 165 M 893 167 L S
893 167 M 902 167 L S
902 167 M 902 165 L S
902 165 M 910 165 L S
910 165 M 910 161 L S
910 161 M 919 161 L S
919 161 M 919 165 L S
919 165 M 928 165 L S
928 165 M 928 158 L S
928 158 M 937 158 L S
937 158 M 937 161 L S
937 161 M 946 161 L S
946 161 M 946 160 L S
946 160 M 954 160 L S
954 160 M 954 156 L S
954 156 M 963 156 L S
963 156 M 963 161 L S
963 161 M 972 161 L S
972 161 M 972 156 L S
972 156 M 976 156 L S
/Courier-Bold findfont 27 scalefont setfont
101 764 M (Zgoubi|Zpop                                                                     ) H
101 743 M (29-08-2015                                                                      ) H
/Courier-Bold findfont 26 scalefont setfont
160 85 M (* # COORDINATES  - STORAGE FILE, 29-08-0015 09:50:55 *                                                                            ) H
293 755 M (COUNT         vs. KinEnr  (MeV)                                                                                                   ) H
26 42 M (Mi-ma H/V:   2.181E+04  2.184E+04/   0.00       320.                                                                              ) H
26 21 M (Part#  1- 10000 (*); Lmnt#     1; pass#       1-      1, [    1];    100 pnts                                                     ) H
26 63 M (Avrg: 2.1827E+04; Sgma: 3.8201E+00; X(max): 2.1827E+04; Counts:   9999          ) H
showpage
