%!PS-Adobe-2.0 EPSF-2.0
%%Title: t_histo.eps
%%Titre: t_histo.eps
%%Creator: Fminigraf Library
%%BoundingBox: 20 40 567 457
%%EndComments
/offx 20 def
/offy 40 def
/lx 595 def
/ly 842 def
/maxx 1023 def
/maxy 779 def
/reduc 0.92 def
/coeff lx maxx div reduc mul def
offx offy translate
coeff coeff scale
1 setlinewidth newpath 0 0 moveto
/Courier-Bold findfont 32 scalefont setfont
/M {moveto} def
/L {lineto} def
/S {stroke} def
/H {show} def
/D {setdash} def
0 0 0 setrgbcolor
[] 0 D
103 156 M 103 161 L S
103 735 M 103 740 L S
[2 3] 0 D
135 156 M 135 740 L S
[] 0 D
/Courier-Bold findfont 30 scalefont setfont
105 128 M (-.006) H
135 156 M 135 166 L S
135 730 M 135 740 L S
166 156 M 166 161 L S
166 735 M 166 740 L S
198 156 M 198 161 L S
198 735 M 198 740 L S
230 156 M 230 161 L S
230 735 M 230 740 L S
[2 3] 0 D
261 156 M 261 740 L S
[] 0 D
231 128 M (-.004) H
261 156 M 261 166 L S
261 730 M 261 740 L S
293 156 M 293 161 L S
293 735 M 293 740 L S
325 156 M 325 161 L S
325 735 M 325 740 L S
356 156 M 356 161 L S
356 735 M 356 740 L S
[2 3] 0 D
388 156 M 388 740 L S
[] 0 D
358 128 M (-.002) H
388 156 M 388 166 L S
388 730 M 388 740 L S
420 156 M 420 161 L S
420 735 M 420 740 L S
451 156 M 451 161 L S
451 735 M 451 740 L S
483 156 M 483 161 L S
483 735 M 483 740 L S
[2 3] 0 D
515 156 M 515 740 L S
[] 0 D
497 128 M (0.0) H
515 156 M 515 166 L S
515 730 M 515 740 L S
546 156 M 546 161 L S
546 735 M 546 740 L S
578 156 M 578 161 L S
578 735 M 578 740 L S
610 156 M 610 161 L S
610 735 M 610 740 L S
[2 3] 0 D
641 156 M 641 740 L S
[] 0 D
611 128 M (0.002) H
641 156 M 641 166 L S
641 730 M 641 740 L S
673 156 M 673 161 L S
673 735 M 673 740 L S
705 156 M 705 161 L S
705 735 M 705 740 L S
737 156 M 737 161 L S
737 735 M 737 740 L S
[2 3] 0 D
768 156 M 768 740 L S
[] 0 D
738 128 M (0.004) H
768 156 M 768 166 L S
768 730 M 768 740 L S
800 156 M 800 161 L S
800 735 M 800 740 L S
832 156 M 832 161 L S
832 735 M 832 740 L S
863 156 M 863 161 L S
863 735 M 863 740 L S
[2 3] 0 D
895 156 M 895 740 L S
[] 0 D
865 128 M (0.006) H
895 156 M 895 166 L S
895 730 M 895 740 L S
927 156 M 927 161 L S
927 735 M 927 740 L S
958 156 M 958 161 L S
958 735 M 958 740 L S
[2 3] 0 D
102 156 M 972 156 L S
[] 0 D
45 146 M (0) H
102 156 M 112 156 L S
504 156 M 524 156 L S
962 156 M 972 156 L S
102 176 M 107 176 L S
509 176 M 519 176 L S
967 176 M 972 176 L S
102 195 M 107 195 L S
509 195 M 519 195 L S
967 195 M 972 195 L S
102 215 M 107 215 L S
509 215 M 519 215 L S
967 215 M 972 215 L S
102 235 M 107 235 L S
509 235 M 519 235 L S
967 235 M 972 235 L S
[2 3] 0 D
102 255 M 972 255 L S
[] 0 D
39 245 M (50) H
102 255 M 112 255 L S
504 255 M 524 255 L S
962 255 M 972 255 L S
102 274 M 107 274 L S
509 274 M 519 274 L S
967 274 M 972 274 L S
102 294 M 107 294 L S
509 294 M 519 294 L S
967 294 M 972 294 L S
102 314 M 107 314 L S
509 314 M 519 314 L S
967 314 M 972 314 L S
102 334 M 107 334 L S
509 334 M 519 334 L S
967 334 M 972 334 L S
[2 3] 0 D
102 353 M 972 353 L S
[] 0 D
33 343 M (100) H
102 353 M 112 353 L S
504 353 M 524 353 L S
962 353 M 972 353 L S
102 373 M 107 373 L S
509 373 M 519 373 L S
967 373 M 972 373 L S
102 393 M 107 393 L S
509 393 M 519 393 L S
967 393 M 972 393 L S
102 412 M 107 412 L S
509 412 M 519 412 L S
967 412 M 972 412 L S
102 432 M 107 432 L S
509 432 M 519 432 L S
967 432 M 972 432 L S
[2 3] 0 D
102 452 M 972 452 L S
[] 0 D
33 442 M (150) H
102 452 M 112 452 L S
504 452 M 524 452 L S
962 452 M 972 452 L S
102 472 M 107 472 L S
509 472 M 519 472 L S
967 472 M 972 472 L S
102 491 M 107 491 L S
509 491 M 519 491 L S
967 491 M 972 491 L S
102 511 M 107 511 L S
509 511 M 519 511 L S
967 511 M 972 511 L S
102 531 M 107 531 L S
509 531 M 519 531 L S
967 531 M 972 531 L S
[2 3] 0 D
102 551 M 972 551 L S
[] 0 D
33 541 M (200) H
102 551 M 112 551 L S
504 551 M 524 551 L S
962 551 M 972 551 L S
102 570 M 107 570 L S
509 570 M 519 570 L S
967 570 M 972 570 L S
102 590 M 107 590 L S
509 590 M 519 590 L S
967 590 M 972 590 L S
102 610 M 107 610 L S
509 610 M 519 610 L S
967 610 M 972 610 L S
102 630 M 107 630 L S
509 630 M 519 630 L S
967 630 M 972 630 L S
[2 3] 0 D
102 649 M 972 649 L S
[] 0 D
33 639 M (250) H
102 649 M 112 649 L S
504 649 M 524 649 L S
962 649 M 972 649 L S
102 669 M 107 669 L S
509 669 M 519 669 L S
967 669 M 972 669 L S
102 689 M 107 689 L S
509 689 M 519 689 L S
967 689 M 972 689 L S
102 708 M 107 708 L S
509 708 M 519 708 L S
967 708 M 972 708 L S
102 728 M 107 728 L S
509 728 M 519 728 L S
967 728 M 972 728 L S
[] 0 D
102 156 M 972 156 L S
972 156 M 972 740 L S
972 740 M 102 740 L S
102 740 M 102 156 L S
514 156 M 514 740 L S
[] 0 D
102 156 M 102 156 L S
102 156 M 102 162 L S
102 162 M 111 162 L S
111 162 M 111 162 L S
111 162 M 120 162 L S
120 162 M 120 162 L S
120 162 M 128 162 L S
128 162 M 128 164 L S
128 164 M 137 164 L S
137 164 M 137 158 L S
137 158 M 146 158 L S
146 158 M 146 168 L S
146 168 M 155 168 L S
155 168 M 155 158 L S
155 158 M 164 158 L S
164 158 M 164 164 L S
164 164 M 172 164 L S
172 164 M 172 164 L S
172 164 M 181 164 L S
181 164 M 181 180 L S
181 180 M 190 180 L S
190 180 M 190 166 L S
190 166 M 199 166 L S
199 166 M 199 174 L S
199 174 M 207 174 L S
207 174 M 207 178 L S
207 178 M 216 178 L S
216 178 M 216 209 L S
216 209 M 225 209 L S
225 209 M 225 178 L S
225 178 M 234 178 L S
234 178 M 234 205 L S
234 205 M 243 205 L S
243 205 M 243 211 L S
243 211 M 251 211 L S
251 211 M 251 211 L S
251 211 M 260 211 L S
260 211 M 260 221 L S
260 221 M 269 221 L S
269 221 M 269 239 L S
269 239 M 278 239 L S
278 239 M 278 241 L S
278 241 M 287 241 L S
287 241 M 287 266 L S
287 266 M 295 266 L S
295 266 M 295 288 L S
295 288 M 304 288 L S
304 288 M 304 314 L S
304 314 M 313 314 L S
313 314 M 313 286 L S
313 286 M 322 286 L S
322 286 M 322 347 L S
322 347 M 330 347 L S
330 347 M 330 351 L S
330 351 M 339 351 L S
339 351 M 339 403 L S
339 403 M 348 403 L S
348 403 M 348 393 L S
348 393 M 357 393 L S
357 393 M 357 397 L S
357 397 M 366 397 L S
366 397 M 366 414 L S
366 414 M 374 414 L S
374 414 M 374 480 L S
374 480 M 383 480 L S
383 480 M 383 495 L S
383 495 M 392 495 L S
392 495 M 392 521 L S
392 521 M 401 521 L S
401 521 M 401 557 L S
401 557 M 410 557 L S
410 557 M 410 560 L S
410 560 M 418 560 L S
418 560 M 418 562 L S
418 562 M 427 562 L S
427 562 M 427 576 L S
427 576 M 436 576 L S
436 576 M 436 643 L S
436 643 M 445 643 L S
445 643 M 445 641 L S
445 641 M 454 641 L S
454 641 M 454 687 L S
454 687 M 462 687 L S
462 687 M 462 703 L S
462 703 M 471 703 L S
471 703 M 471 685 L S
471 685 M 480 685 L S
480 685 M 480 703 L S
480 703 M 489 703 L S
489 703 M 489 665 L S
489 665 M 497 665 L S
497 665 M 497 708 L S
497 708 M 506 708 L S
506 708 M 506 681 L S
506 681 M 515 681 L S
515 681 M 515 720 L S
515 720 M 524 720 L S
524 720 M 524 740 L S
524 740 M 533 740 L S
533 740 M 533 703 L S
533 703 M 541 703 L S
541 703 M 541 740 L S
541 740 M 550 740 L S
550 740 M 550 622 L S
550 622 M 559 622 L S
559 622 M 559 665 L S
559 665 M 568 665 L S
568 665 M 568 661 L S
568 661 M 577 661 L S
577 661 M 577 669 L S
577 669 M 585 669 L S
585 669 M 585 616 L S
585 616 M 594 616 L S
594 616 M 594 562 L S
594 562 M 603 562 L S
603 562 M 603 586 L S
603 586 M 612 586 L S
612 586 M 612 560 L S
612 560 M 620 560 L S
620 560 M 620 557 L S
620 557 M 629 557 L S
629 557 M 629 458 L S
629 458 M 638 458 L S
638 458 M 638 446 L S
638 446 M 647 446 L S
647 446 M 647 511 L S
647 511 M 656 511 L S
656 511 M 656 422 L S
656 422 M 664 422 L S
664 422 M 664 442 L S
664 442 M 673 442 L S
673 442 M 673 371 L S
673 371 M 682 371 L S
682 371 M 682 359 L S
682 359 M 691 359 L S
691 359 M 691 328 L S
691 328 M 700 328 L S
700 328 M 700 310 L S
700 310 M 708 310 L S
708 310 M 708 298 L S
708 298 M 717 298 L S
717 298 M 717 330 L S
717 330 M 726 330 L S
726 330 M 726 266 L S
726 266 M 735 266 L S
735 266 M 735 294 L S
735 294 M 744 294 L S
744 294 M 744 261 L S
744 261 M 752 261 L S
752 261 M 752 231 L S
752 231 M 761 231 L S
761 231 M 761 229 L S
761 229 M 770 229 L S
770 229 M 770 235 L S
770 235 M 779 235 L S
779 235 M 779 209 L S
779 209 M 787 209 L S
787 209 M 787 188 L S
787 188 M 796 188 L S
796 188 M 796 205 L S
796 205 M 805 205 L S
805 205 M 805 203 L S
805 203 M 814 203 L S
814 203 M 814 186 L S
814 186 M 823 186 L S
823 186 M 823 186 L S
823 186 M 831 186 L S
831 186 M 831 174 L S
831 174 M 840 174 L S
840 174 M 840 174 L S
840 174 M 849 174 L S
849 174 M 849 176 L S
849 176 M 858 176 L S
858 176 M 858 160 L S
858 160 M 867 160 L S
867 160 M 867 162 L S
867 162 M 875 162 L S
875 162 M 875 166 L S
875 166 M 884 166 L S
884 166 M 884 160 L S
884 160 M 893 160 L S
893 160 M 893 158 L S
893 158 M 902 158 L S
902 158 M 902 158 L S
902 158 M 910 158 L S
910 158 M 910 166 L S
910 166 M 919 166 L S
919 166 M 919 156 L S
919 156 M 928 156 L S
928 156 M 928 160 L S
928 160 M 937 160 L S
937 160 M 937 160 L S
937 160 M 946 160 L S
946 160 M 946 160 L S
946 160 M 954 160 L S
954 160 M 954 156 L S
954 156 M 963 156 L S
963 156 M 963 156 L S
963 156 M 972 156 L S
972 156 M 972 158 L S
/Courier-Bold findfont 27 scalefont setfont
101 764 M (Zgoubi|Zpop                                                                     ) H
101 743 M (29-08-2015                                                                      ) H
/Courier-Bold findfont 26 scalefont setfont
160 85 M (* # COORDINATES  - STORAGE FILE, 29-08-0015 09:50:55 *                                                                            ) H
293 755 M (COUNT         vs.  Time  (mu_s)                                                                                                   ) H
26 42 M (Mi-ma H/V:  -6.516E-03  7.217E-03/   0.00       296.                                                                              ) H
26 21 M (Part#  1- 10000 (*); Lmnt#     1; pass#       1-      1, [    1];    100 pnts                                                     ) H
26 63 M (Avrg: 7.3954E-06; Sgma: 1.9575E-03; X(max): 2.8118E-04; Counts:   9999          ) H
showpage
