%!PS-Adobe-2.0 EPSF-2.0
%%Title: gnuplot_scanTraj.eps
%%Creator: gnuplot 5.2 patchlevel 2
%%CreationDate: Thu Feb  3 10:33:17 2022
%%DocumentFonts: (atend)
%%BoundingBox: 50 50 410 302
%%EndComments
%%BeginProlog
/gnudict 256 dict def
gnudict begin
%
% The following true/false flags may be edited by hand if desired.
% The unit line width and grayscale image gamma correction may also be changed.
%
/Color true def
/Blacktext true def
/Solid false def
/Dashlength 1 def
/Landscape false def
/Level1 false def
/Level3 false def
/Rounded false def
/ClipToBoundingBox false def
/SuppressPDFMark false def
/TransparentPatterns false def
/gnulinewidth 5.000 def
/userlinewidth gnulinewidth def
/Gamma 1.0 def
/BackgroundColor {-1.000 -1.000 -1.000} def
%
/vshift -46 def
/dl1 {
  10.0 Dashlength userlinewidth gnulinewidth div mul mul mul
  Rounded { currentlinewidth 0.75 mul sub dup 0 le { pop 0.01 } if } if
} def
/dl2 {
  10.0 Dashlength userlinewidth gnulinewidth div mul mul mul
  Rounded { currentlinewidth 0.75 mul add } if
} def
/hpt_ 31.5 def
/vpt_ 31.5 def
/hpt hpt_ def
/vpt vpt_ def
/doclip {
  ClipToBoundingBox {
    newpath 50 50 moveto 410 50 lineto 410 302 lineto 50 302 lineto closepath
    clip
  } if
} def
%
% Gnuplot Prolog Version 5.1 (Oct 2015)
%
%/SuppressPDFMark true def
%
/M {moveto} bind def
/L {lineto} bind def
/R {rmoveto} bind def
/V {rlineto} bind def
/N {newpath moveto} bind def
/Z {closepath} bind def
/C {setrgbcolor} bind def
/f {rlineto fill} bind def
/g {setgray} bind def
/Gshow {show} def   % May be redefined later in the file to support UTF-8
/vpt2 vpt 2 mul def
/hpt2 hpt 2 mul def
/Lshow {currentpoint stroke M 0 vshift R 
	Blacktext {gsave 0 setgray textshow grestore} {textshow} ifelse} def
/Rshow {currentpoint stroke M dup stringwidth pop neg vshift R
	Blacktext {gsave 0 setgray textshow grestore} {textshow} ifelse} def
/Cshow {currentpoint stroke M dup stringwidth pop -2 div vshift R 
	Blacktext {gsave 0 setgray textshow grestore} {textshow} ifelse} def
/UP {dup vpt_ mul /vpt exch def hpt_ mul /hpt exch def
  /hpt2 hpt 2 mul def /vpt2 vpt 2 mul def} def
/DL {Color {setrgbcolor Solid {pop []} if 0 setdash}
 {pop pop pop 0 setgray Solid {pop []} if 0 setdash} ifelse} def
/BL {stroke userlinewidth 2 mul setlinewidth
	Rounded {1 setlinejoin 1 setlinecap} if} def
/AL {stroke userlinewidth 2 div setlinewidth
	Rounded {1 setlinejoin 1 setlinecap} if} def
/UL {dup gnulinewidth mul /userlinewidth exch def
	dup 1 lt {pop 1} if 10 mul /udl exch def} def
/PL {stroke userlinewidth setlinewidth
	Rounded {1 setlinejoin 1 setlinecap} if} def
3.8 setmiterlimit
% Classic Line colors (version 5.0)
/LCw {1 1 1} def
/LCb {0 0 0} def
/LCa {0 0 0} def
/LC0 {1 0 0} def
/LC1 {0 1 0} def
/LC2 {0 0 1} def
/LC3 {1 0 1} def
/LC4 {0 1 1} def
/LC5 {1 1 0} def
/LC6 {0 0 0} def
/LC7 {1 0.3 0} def
/LC8 {0.5 0.5 0.5} def
% Default dash patterns (version 5.0)
/LTB {BL [] LCb DL} def
/LTw {PL [] 1 setgray} def
/LTb {PL [] LCb DL} def
/LTa {AL [1 udl mul 2 udl mul] 0 setdash LCa setrgbcolor} def
/LT0 {PL [] LC0 DL} def
/LT1 {PL [2 dl1 3 dl2] LC1 DL} def
/LT2 {PL [1 dl1 1.5 dl2] LC2 DL} def
/LT3 {PL [6 dl1 2 dl2 1 dl1 2 dl2] LC3 DL} def
/LT4 {PL [1 dl1 2 dl2 6 dl1 2 dl2 1 dl1 2 dl2] LC4 DL} def
/LT5 {PL [4 dl1 2 dl2] LC5 DL} def
/LT6 {PL [1.5 dl1 1.5 dl2 1.5 dl1 1.5 dl2 1.5 dl1 6 dl2] LC6 DL} def
/LT7 {PL [3 dl1 3 dl2 1 dl1 3 dl2] LC7 DL} def
/LT8 {PL [2 dl1 2 dl2 2 dl1 6 dl2] LC8 DL} def
/SL {[] 0 setdash} def
/Pnt {stroke [] 0 setdash gsave 1 setlinecap M 0 0 V stroke grestore} def
/Dia {stroke [] 0 setdash 2 copy vpt add M
  hpt neg vpt neg V hpt vpt neg V
  hpt vpt V hpt neg vpt V closepath stroke
  Pnt} def
/Pls {stroke [] 0 setdash vpt sub M 0 vpt2 V
  currentpoint stroke M
  hpt neg vpt neg R hpt2 0 V stroke
 } def
/Box {stroke [] 0 setdash 2 copy exch hpt sub exch vpt add M
  0 vpt2 neg V hpt2 0 V 0 vpt2 V
  hpt2 neg 0 V closepath stroke
  Pnt} def
/Crs {stroke [] 0 setdash exch hpt sub exch vpt add M
  hpt2 vpt2 neg V currentpoint stroke M
  hpt2 neg 0 R hpt2 vpt2 V stroke} def
/TriU {stroke [] 0 setdash 2 copy vpt 1.12 mul add M
  hpt neg vpt -1.62 mul V
  hpt 2 mul 0 V
  hpt neg vpt 1.62 mul V closepath stroke
  Pnt} def
/Star {2 copy Pls Crs} def
/BoxF {stroke [] 0 setdash exch hpt sub exch vpt add M
  0 vpt2 neg V hpt2 0 V 0 vpt2 V
  hpt2 neg 0 V closepath fill} def
/TriUF {stroke [] 0 setdash vpt 1.12 mul add M
  hpt neg vpt -1.62 mul V
  hpt 2 mul 0 V
  hpt neg vpt 1.62 mul V closepath fill} def
/TriD {stroke [] 0 setdash 2 copy vpt 1.12 mul sub M
  hpt neg vpt 1.62 mul V
  hpt 2 mul 0 V
  hpt neg vpt -1.62 mul V closepath stroke
  Pnt} def
/TriDF {stroke [] 0 setdash vpt 1.12 mul sub M
  hpt neg vpt 1.62 mul V
  hpt 2 mul 0 V
  hpt neg vpt -1.62 mul V closepath fill} def
/DiaF {stroke [] 0 setdash vpt add M
  hpt neg vpt neg V hpt vpt neg V
  hpt vpt V hpt neg vpt V closepath fill} def
/Pent {stroke [] 0 setdash 2 copy gsave
  translate 0 hpt M 4 {72 rotate 0 hpt L} repeat
  closepath stroke grestore Pnt} def
/PentF {stroke [] 0 setdash gsave
  translate 0 hpt M 4 {72 rotate 0 hpt L} repeat
  closepath fill grestore} def
/Circle {stroke [] 0 setdash 2 copy
  hpt 0 360 arc stroke Pnt} def
/CircleF {stroke [] 0 setdash hpt 0 360 arc fill} def
/C0 {BL [] 0 setdash 2 copy moveto vpt 90 450 arc} bind def
/C1 {BL [] 0 setdash 2 copy moveto
	2 copy vpt 0 90 arc closepath fill
	vpt 0 360 arc closepath} bind def
/C2 {BL [] 0 setdash 2 copy moveto
	2 copy vpt 90 180 arc closepath fill
	vpt 0 360 arc closepath} bind def
/C3 {BL [] 0 setdash 2 copy moveto
	2 copy vpt 0 180 arc closepath fill
	vpt 0 360 arc closepath} bind def
/C4 {BL [] 0 setdash 2 copy moveto
	2 copy vpt 180 270 arc closepath fill
	vpt 0 360 arc closepath} bind def
/C5 {BL [] 0 setdash 2 copy moveto
	2 copy vpt 0 90 arc
	2 copy moveto
	2 copy vpt 180 270 arc closepath fill
	vpt 0 360 arc} bind def
/C6 {BL [] 0 setdash 2 copy moveto
	2 copy vpt 90 270 arc closepath fill
	vpt 0 360 arc closepath} bind def
/C7 {BL [] 0 setdash 2 copy moveto
	2 copy vpt 0 270 arc closepath fill
	vpt 0 360 arc closepath} bind def
/C8 {BL [] 0 setdash 2 copy moveto
	2 copy vpt 270 360 arc closepath fill
	vpt 0 360 arc closepath} bind def
/C9 {BL [] 0 setdash 2 copy moveto
	2 copy vpt 270 450 arc closepath fill
	vpt 0 360 arc closepath} bind def
/C10 {BL [] 0 setdash 2 copy 2 copy moveto vpt 270 360 arc closepath fill
	2 copy moveto
	2 copy vpt 90 180 arc closepath fill
	vpt 0 360 arc closepath} bind def
/C11 {BL [] 0 setdash 2 copy moveto
	2 copy vpt 0 180 arc closepath fill
	2 copy moveto
	2 copy vpt 270 360 arc closepath fill
	vpt 0 360 arc closepath} bind def
/C12 {BL [] 0 setdash 2 copy moveto
	2 copy vpt 180 360 arc closepath fill
	vpt 0 360 arc closepath} bind def
/C13 {BL [] 0 setdash 2 copy moveto
	2 copy vpt 0 90 arc closepath fill
	2 copy moveto
	2 copy vpt 180 360 arc closepath fill
	vpt 0 360 arc closepath} bind def
/C14 {BL [] 0 setdash 2 copy moveto
	2 copy vpt 90 360 arc closepath fill
	vpt 0 360 arc} bind def
/C15 {BL [] 0 setdash 2 copy vpt 0 360 arc closepath fill
	vpt 0 360 arc closepath} bind def
/Rec {newpath 4 2 roll moveto 1 index 0 rlineto 0 exch rlineto
	neg 0 rlineto closepath} bind def
/Square {dup Rec} bind def
/Bsquare {vpt sub exch vpt sub exch vpt2 Square} bind def
/S0 {BL [] 0 setdash 2 copy moveto 0 vpt rlineto BL Bsquare} bind def
/S1 {BL [] 0 setdash 2 copy vpt Square fill Bsquare} bind def
/S2 {BL [] 0 setdash 2 copy exch vpt sub exch vpt Square fill Bsquare} bind def
/S3 {BL [] 0 setdash 2 copy exch vpt sub exch vpt2 vpt Rec fill Bsquare} bind def
/S4 {BL [] 0 setdash 2 copy exch vpt sub exch vpt sub vpt Square fill Bsquare} bind def
/S5 {BL [] 0 setdash 2 copy 2 copy vpt Square fill
	exch vpt sub exch vpt sub vpt Square fill Bsquare} bind def
/S6 {BL [] 0 setdash 2 copy exch vpt sub exch vpt sub vpt vpt2 Rec fill Bsquare} bind def
/S7 {BL [] 0 setdash 2 copy exch vpt sub exch vpt sub vpt vpt2 Rec fill
	2 copy vpt Square fill Bsquare} bind def
/S8 {BL [] 0 setdash 2 copy vpt sub vpt Square fill Bsquare} bind def
/S9 {BL [] 0 setdash 2 copy vpt sub vpt vpt2 Rec fill Bsquare} bind def
/S10 {BL [] 0 setdash 2 copy vpt sub vpt Square fill 2 copy exch vpt sub exch vpt Square fill
	Bsquare} bind def
/S11 {BL [] 0 setdash 2 copy vpt sub vpt Square fill 2 copy exch vpt sub exch vpt2 vpt Rec fill
	Bsquare} bind def
/S12 {BL [] 0 setdash 2 copy exch vpt sub exch vpt sub vpt2 vpt Rec fill Bsquare} bind def
/S13 {BL [] 0 setdash 2 copy exch vpt sub exch vpt sub vpt2 vpt Rec fill
	2 copy vpt Square fill Bsquare} bind def
/S14 {BL [] 0 setdash 2 copy exch vpt sub exch vpt sub vpt2 vpt Rec fill
	2 copy exch vpt sub exch vpt Square fill Bsquare} bind def
/S15 {BL [] 0 setdash 2 copy Bsquare fill Bsquare} bind def
/D0 {gsave translate 45 rotate 0 0 S0 stroke grestore} bind def
/D1 {gsave translate 45 rotate 0 0 S1 stroke grestore} bind def
/D2 {gsave translate 45 rotate 0 0 S2 stroke grestore} bind def
/D3 {gsave translate 45 rotate 0 0 S3 stroke grestore} bind def
/D4 {gsave translate 45 rotate 0 0 S4 stroke grestore} bind def
/D5 {gsave translate 45 rotate 0 0 S5 stroke grestore} bind def
/D6 {gsave translate 45 rotate 0 0 S6 stroke grestore} bind def
/D7 {gsave translate 45 rotate 0 0 S7 stroke grestore} bind def
/D8 {gsave translate 45 rotate 0 0 S8 stroke grestore} bind def
/D9 {gsave translate 45 rotate 0 0 S9 stroke grestore} bind def
/D10 {gsave translate 45 rotate 0 0 S10 stroke grestore} bind def
/D11 {gsave translate 45 rotate 0 0 S11 stroke grestore} bind def
/D12 {gsave translate 45 rotate 0 0 S12 stroke grestore} bind def
/D13 {gsave translate 45 rotate 0 0 S13 stroke grestore} bind def
/D14 {gsave translate 45 rotate 0 0 S14 stroke grestore} bind def
/D15 {gsave translate 45 rotate 0 0 S15 stroke grestore} bind def
/DiaE {stroke [] 0 setdash vpt add M
  hpt neg vpt neg V hpt vpt neg V
  hpt vpt V hpt neg vpt V closepath stroke} def
/BoxE {stroke [] 0 setdash exch hpt sub exch vpt add M
  0 vpt2 neg V hpt2 0 V 0 vpt2 V
  hpt2 neg 0 V closepath stroke} def
/TriUE {stroke [] 0 setdash vpt 1.12 mul add M
  hpt neg vpt -1.62 mul V
  hpt 2 mul 0 V
  hpt neg vpt 1.62 mul V closepath stroke} def
/TriDE {stroke [] 0 setdash vpt 1.12 mul sub M
  hpt neg vpt 1.62 mul V
  hpt 2 mul 0 V
  hpt neg vpt -1.62 mul V closepath stroke} def
/PentE {stroke [] 0 setdash gsave
  translate 0 hpt M 4 {72 rotate 0 hpt L} repeat
  closepath stroke grestore} def
/CircE {stroke [] 0 setdash 
  hpt 0 360 arc stroke} def
/Opaque {gsave closepath 1 setgray fill grestore 0 setgray closepath} def
/DiaW {stroke [] 0 setdash vpt add M
  hpt neg vpt neg V hpt vpt neg V
  hpt vpt V hpt neg vpt V Opaque stroke} def
/BoxW {stroke [] 0 setdash exch hpt sub exch vpt add M
  0 vpt2 neg V hpt2 0 V 0 vpt2 V
  hpt2 neg 0 V Opaque stroke} def
/TriUW {stroke [] 0 setdash vpt 1.12 mul add M
  hpt neg vpt -1.62 mul V
  hpt 2 mul 0 V
  hpt neg vpt 1.62 mul V Opaque stroke} def
/TriDW {stroke [] 0 setdash vpt 1.12 mul sub M
  hpt neg vpt 1.62 mul V
  hpt 2 mul 0 V
  hpt neg vpt -1.62 mul V Opaque stroke} def
/PentW {stroke [] 0 setdash gsave
  translate 0 hpt M 4 {72 rotate 0 hpt L} repeat
  Opaque stroke grestore} def
/CircW {stroke [] 0 setdash 
  hpt 0 360 arc Opaque stroke} def
/BoxFill {gsave Rec 1 setgray fill grestore} def
/Density {
  /Fillden exch def
  currentrgbcolor
  /ColB exch def /ColG exch def /ColR exch def
  /ColR ColR Fillden mul Fillden sub 1 add def
  /ColG ColG Fillden mul Fillden sub 1 add def
  /ColB ColB Fillden mul Fillden sub 1 add def
  ColR ColG ColB setrgbcolor} def
/BoxColFill {gsave Rec PolyFill} def
/PolyFill {gsave Density fill grestore grestore} def
/h {rlineto rlineto rlineto gsave closepath fill grestore} bind def
%
% PostScript Level 1 Pattern Fill routine for rectangles
% Usage: x y w h s a XX PatternFill
%	x,y = lower left corner of box to be filled
%	w,h = width and height of box
%	  a = angle in degrees between lines and x-axis
%	 XX = 0/1 for no/yes cross-hatch
%
/PatternFill {gsave /PFa [ 9 2 roll ] def
  PFa 0 get PFa 2 get 2 div add PFa 1 get PFa 3 get 2 div add translate
  PFa 2 get -2 div PFa 3 get -2 div PFa 2 get PFa 3 get Rec
  TransparentPatterns {} {gsave 1 setgray fill grestore} ifelse
  clip
  currentlinewidth 0.5 mul setlinewidth
  /PFs PFa 2 get dup mul PFa 3 get dup mul add sqrt def
  0 0 M PFa 5 get rotate PFs -2 div dup translate
  0 1 PFs PFa 4 get div 1 add floor cvi
	{PFa 4 get mul 0 M 0 PFs V} for
  0 PFa 6 get ne {
	0 1 PFs PFa 4 get div 1 add floor cvi
	{PFa 4 get mul 0 2 1 roll M PFs 0 V} for
 } if
  stroke grestore} def
%
/languagelevel where
 {pop languagelevel} {1} ifelse
dup 2 lt
	{/InterpretLevel1 true def
	 /InterpretLevel3 false def}
	{/InterpretLevel1 Level1 def
	 2 gt
	    {/InterpretLevel3 Level3 def}
	    {/InterpretLevel3 false def}
	 ifelse }
 ifelse
%
% PostScript level 2 pattern fill definitions
%
/Level2PatternFill {
/Tile8x8 {/PaintType 2 /PatternType 1 /TilingType 1 /BBox [0 0 8 8] /XStep 8 /YStep 8}
	bind def
/KeepColor {currentrgbcolor [/Pattern /DeviceRGB] setcolorspace} bind def
<< Tile8x8
 /PaintProc {0.5 setlinewidth pop 0 0 M 8 8 L 0 8 M 8 0 L stroke} 
>> matrix makepattern
/Pat1 exch def
<< Tile8x8
 /PaintProc {0.5 setlinewidth pop 0 0 M 8 8 L 0 8 M 8 0 L stroke
	0 4 M 4 8 L 8 4 L 4 0 L 0 4 L stroke}
>> matrix makepattern
/Pat2 exch def
<< Tile8x8
 /PaintProc {0.5 setlinewidth pop 0 0 M 0 8 L
	8 8 L 8 0 L 0 0 L fill}
>> matrix makepattern
/Pat3 exch def
<< Tile8x8
 /PaintProc {0.5 setlinewidth pop -4 8 M 8 -4 L
	0 12 M 12 0 L stroke}
>> matrix makepattern
/Pat4 exch def
<< Tile8x8
 /PaintProc {0.5 setlinewidth pop -4 0 M 8 12 L
	0 -4 M 12 8 L stroke}
>> matrix makepattern
/Pat5 exch def
<< Tile8x8
 /PaintProc {0.5 setlinewidth pop -2 8 M 4 -4 L
	0 12 M 8 -4 L 4 12 M 10 0 L stroke}
>> matrix makepattern
/Pat6 exch def
<< Tile8x8
 /PaintProc {0.5 setlinewidth pop -2 0 M 4 12 L
	0 -4 M 8 12 L 4 -4 M 10 8 L stroke}
>> matrix makepattern
/Pat7 exch def
<< Tile8x8
 /PaintProc {0.5 setlinewidth pop 8 -2 M -4 4 L
	12 0 M -4 8 L 12 4 M 0 10 L stroke}
>> matrix makepattern
/Pat8 exch def
<< Tile8x8
 /PaintProc {0.5 setlinewidth pop 0 -2 M 12 4 L
	-4 0 M 12 8 L -4 4 M 8 10 L stroke}
>> matrix makepattern
/Pat9 exch def
/Pattern1 {PatternBgnd KeepColor Pat1 setpattern} bind def
/Pattern2 {PatternBgnd KeepColor Pat2 setpattern} bind def
/Pattern3 {PatternBgnd KeepColor Pat3 setpattern} bind def
/Pattern4 {PatternBgnd KeepColor Landscape {Pat5} {Pat4} ifelse setpattern} bind def
/Pattern5 {PatternBgnd KeepColor Landscape {Pat4} {Pat5} ifelse setpattern} bind def
/Pattern6 {PatternBgnd KeepColor Landscape {Pat9} {Pat6} ifelse setpattern} bind def
/Pattern7 {PatternBgnd KeepColor Landscape {Pat8} {Pat7} ifelse setpattern} bind def
} def
%
%
%End of PostScript Level 2 code
%
/PatternBgnd {
  TransparentPatterns {} {gsave 1 setgray fill grestore} ifelse
} def
%
% Substitute for Level 2 pattern fill codes with
% grayscale if Level 2 support is not selected.
%
/Level1PatternFill {
/Pattern1 {0.250 Density} bind def
/Pattern2 {0.500 Density} bind def
/Pattern3 {0.750 Density} bind def
/Pattern4 {0.125 Density} bind def
/Pattern5 {0.375 Density} bind def
/Pattern6 {0.625 Density} bind def
/Pattern7 {0.875 Density} bind def
} def
%
% Now test for support of Level 2 code
%
Level1 {Level1PatternFill} {Level2PatternFill} ifelse
%
/Symbol-Oblique /Symbol findfont [1 0 .167 1 0 0] makefont
dup length dict begin {1 index /FID eq {pop pop} {def} ifelse} forall
currentdict end definefont pop
%
/Metrics {ExtendTextBox Gswidth} def
/Lwidth {currentpoint stroke M 0 vshift R Metrics} def
/Rwidth {currentpoint stroke M dup stringwidth pop neg vshift R Metrics} def
/Cwidth {currentpoint stroke M dup stringwidth pop -2 div vshift R Metrics} def
/GLwidth {currentpoint stroke M 0 vshift R {ExtendTextBox} forall} def
/GRwidth {currentpoint stroke M dup Gwidth vshift R {ExtendTextBox} forall} def
/GCwidth {currentpoint stroke M dup Gwidth 2 div vshift R {ExtendTextBox} forall} def
/GLwidth2 {0 Gwidth AddGlyphWidth} def
/GRwidth2 {Gwidth -1 mul 0 AddGlyphWidth} def
/GCwidth2 {Gwidth 2 div dup -1 mul AddGlyphWidth} def
/AddGlyphWidth { dup TBx2 gt {userdict /TBx2 3 -1 roll put} {pop} ifelse
                 dup TBx1 lt {userdict /TBx1 3 -1 roll put} {pop} ifelse } def
/MFshow {
   { dup 5 get 3 ge
     { 5 get 3 eq {gsave} {grestore} ifelse }
     {dup dup 0 get findfont exch 1 get scalefont setfont
     [ currentpoint ] exch dup 2 get 0 exch R dup 5 get 2 ne {dup dup 6
     get exch 4 get {textshow} {Metrics pop 0 R} ifelse }if dup 5 get 0 eq
     {dup 3 get {2 get neg 0 exch R pop} {pop aload pop M} ifelse} {dup 5
     get 1 eq {dup 2 get exch dup 3 get exch 6 get Gswidth pop -2 div
     dup 0 R} {dup 6 get Gswidth pop -2 div 0 R 6 get
     textshow 2 index {aload pop M neg 3 -1 roll neg R pop pop} {pop pop pop
     pop aload pop M} ifelse }ifelse }ifelse }
     ifelse }
   forall} def
/Gswidth {dup type /stringtype eq {stringwidth} {pop (n) stringwidth} ifelse} def
/MFwidth {0 exch { dup 5 get 3 ge { 5 get 3 eq { 0 } { pop } ifelse }
 {dup 3 get{dup dup 0 get findfont exch 1 get scalefont setfont
     6 get Gswidth pop add} {pop} ifelse} ifelse} forall} def
/MLshow { currentpoint stroke M
  0 exch R
  Blacktext {gsave 0 setgray MFshow grestore} {MFshow} ifelse } bind def
/MRshow { currentpoint stroke M
  exch dup MFwidth neg 3 -1 roll R
  Blacktext {gsave 0 setgray MFshow grestore} {MFshow} ifelse } bind def
/MCshow { currentpoint stroke M
  exch dup MFwidth -2 div 3 -1 roll R
  Blacktext {gsave 0 setgray MFshow grestore} {MFshow} ifelse } bind def
/XYsave    { [( ) 1 2 true false 3 ()] } bind def
/XYrestore { [( ) 1 2 true false 4 ()] } bind def
Level1 SuppressPDFMark or 
{} {
/SDict 10 dict def
systemdict /pdfmark known not {
  userdict /pdfmark systemdict /cleartomark get put
} if
SDict begin [
  /Title (gnuplot_scanTraj.eps)
  /Subject (gnuplot plot)
  /Creator (gnuplot 5.2 patchlevel 2)
%  /Producer (gnuplot)
%  /Keywords ()
  /CreationDate (Thu Feb  3 10:33:17 2022)
  /DOCINFO pdfmark
end
} ifelse
%
% Support for boxed text - Ethan A Merritt Sep 2016
%
/InitTextBox { userdict /TBy2 3 -1 roll put userdict /TBx2 3 -1 roll put
           userdict /TBy1 3 -1 roll put userdict /TBx1 3 -1 roll put
	   /Boxing true def } def
/ExtendTextBox { dup type /stringtype eq
    { Boxing { gsave dup false charpath pathbbox
      dup TBy2 gt {userdict /TBy2 3 -1 roll put} {pop} ifelse
      dup TBx2 gt {userdict /TBx2 3 -1 roll put} {pop} ifelse
      dup TBy1 lt {userdict /TBy1 3 -1 roll put} {pop} ifelse
      dup TBx1 lt {userdict /TBx1 3 -1 roll put} {pop} ifelse
      grestore } if }
    {} ifelse} def
/PopTextBox { newpath TBx1 TBxmargin sub TBy1 TBymargin sub M
               TBx1 TBxmargin sub TBy2 TBymargin add L
	       TBx2 TBxmargin add TBy2 TBymargin add L
	       TBx2 TBxmargin add TBy1 TBymargin sub L closepath } def
/DrawTextBox { PopTextBox stroke /Boxing false def} def
/FillTextBox { gsave PopTextBox fill grestore /Boxing false def} def
0 0 0 0 InitTextBox
/TBxmargin 20 def
/TBymargin 20 def
/Boxing false def
/textshow { ExtendTextBox Gshow } def
%
end
%%EndProlog
%%Page: 1 1
gnudict begin
gsave
doclip
50 50 translate
0.050 0.050 scale
0 setgray
newpath
(Helvetica) findfont 140 scalefont setfont
BackgroundColor 0 lt 3 1 roll 0 lt exch 0 lt or or not {BackgroundColor C 1.000 0 0 7200.00 5040.00 BoxColFill} if
/Helvetica findfont 140 scalefont setfont
/vshift -46 def
/Helvetica findfont 140 scalefont setfont
1.000 UL
LTb
LCb setrgbcolor
1022 448 M
63 0 V
stroke
938 448 M
[ [(Helvetica) 140.0 0.0 true true 0 ( 0)]
] -46.7 MRshow
1.000 UL
LTb
LCb setrgbcolor
1022 1084 M
63 0 V
stroke
938 1084 M
[ [(Helvetica) 140.0 0.0 true true 0 ( 5x10)]
[(Helvetica) 112.0 70.0 true true 0 (-5)]
] -60.7 MRshow
1.000 UL
LTb
LCb setrgbcolor
1022 1720 M
63 0 V
stroke
938 1720 M
[ [(Helvetica) 140.0 0.0 true true 0 ( 0.0001)]
] -46.7 MRshow
1.000 UL
LTb
LCb setrgbcolor
1022 2356 M
63 0 V
stroke
938 2356 M
[ [(Helvetica) 140.0 0.0 true true 0 ( 0.00015)]
] -46.7 MRshow
1.000 UL
LTb
LCb setrgbcolor
1022 2991 M
63 0 V
stroke
938 2991 M
[ [(Helvetica) 140.0 0.0 true true 0 ( 0.0002)]
] -46.7 MRshow
1.000 UL
LTb
LCb setrgbcolor
1022 3627 M
63 0 V
stroke
938 3627 M
[ [(Helvetica) 140.0 0.0 true true 0 ( 0.00025)]
] -46.7 MRshow
1.000 UL
LTb
LCb setrgbcolor
1022 4263 M
63 0 V
stroke
938 4263 M
[ [(Helvetica) 140.0 0.0 true true 0 ( 0.0003)]
] -46.7 MRshow
1.000 UL
LTb
LCb setrgbcolor
1022 4899 M
63 0 V
stroke
938 4899 M
[ [(Helvetica) 140.0 0.0 true true 0 ( 0.00035)]
] -46.7 MRshow
1.000 UL
LTb
LCb setrgbcolor
1140 448 M
0 31 V
0 4420 R
0 -31 V
1338 448 M
0 31 V
0 4420 R
0 -31 V
1500 448 M
0 31 V
0 4420 R
0 -31 V
1637 448 M
0 31 V
0 4420 R
0 -31 V
1756 448 M
0 31 V
0 4420 R
0 -31 V
1861 448 M
0 31 V
0 4420 R
0 -31 V
1954 448 M
0 63 V
0 4388 R
0 -63 V
stroke
1954 308 M
[ [(Helvetica) 140.0 0.0 true true 0 ( 0.1)]
] -46.7 MCshow
1.000 UL
LTb
LCb setrgbcolor
2571 448 M
0 31 V
0 4420 R
0 -31 V
2931 448 M
0 31 V
0 4420 R
0 -31 V
3187 448 M
0 31 V
0 4420 R
0 -31 V
3385 448 M
0 31 V
0 4420 R
0 -31 V
3547 448 M
0 31 V
0 4420 R
0 -31 V
3684 448 M
0 31 V
0 4420 R
0 -31 V
3803 448 M
0 31 V
0 4420 R
0 -31 V
3908 448 M
0 31 V
0 4420 R
0 -31 V
4002 448 M
0 63 V
0 4388 R
0 -63 V
stroke
4002 308 M
[ [(Helvetica) 140.0 0.0 true true 0 ( 1)]
] -46.7 MCshow
1.000 UL
LTb
LCb setrgbcolor
4618 448 M
0 31 V
0 4420 R
0 -31 V
4978 448 M
0 31 V
0 4420 R
0 -31 V
5234 448 M
0 31 V
0 4420 R
0 -31 V
5433 448 M
0 31 V
0 4420 R
0 -31 V
5595 448 M
0 31 V
0 4420 R
0 -31 V
5732 448 M
0 31 V
0 4420 R
0 -31 V
5850 448 M
0 31 V
0 4420 R
0 -31 V
5955 448 M
0 31 V
0 4420 R
0 -31 V
6049 448 M
0 63 V
0 4388 R
0 -63 V
stroke
6049 308 M
[ [(Helvetica) 140.0 0.0 true true 0 ( 10)]
] -46.7 MCshow
1.000 UL
LTb
LCb setrgbcolor
6051 448 M
-63 0 V
stroke
6135 448 M
[ [(Helvetica) 140.0 0.0 true true 0 (-0.0016)]
] -46.7 MLshow
1.000 UL
LTb
LCb setrgbcolor
6051 943 M
-63 0 V
stroke
6135 943 M
[ [(Helvetica) 140.0 0.0 true true 0 (-0.0014)]
] -46.7 MLshow
1.000 UL
LTb
LCb setrgbcolor
6051 1437 M
-63 0 V
stroke
6135 1437 M
[ [(Helvetica) 140.0 0.0 true true 0 (-0.0012)]
] -46.7 MLshow
1.000 UL
LTb
LCb setrgbcolor
6051 1932 M
-63 0 V
stroke
6135 1932 M
[ [(Helvetica) 140.0 0.0 true true 0 (-0.001)]
] -46.7 MLshow
1.000 UL
LTb
LCb setrgbcolor
6051 2426 M
-63 0 V
stroke
6135 2426 M
[ [(Helvetica) 140.0 0.0 true true 0 (-0.0008)]
] -46.7 MLshow
1.000 UL
LTb
LCb setrgbcolor
6051 2921 M
-63 0 V
stroke
6135 2921 M
[ [(Helvetica) 140.0 0.0 true true 0 (-0.0006)]
] -46.7 MLshow
1.000 UL
LTb
LCb setrgbcolor
6051 3415 M
-63 0 V
stroke
6135 3415 M
[ [(Helvetica) 140.0 0.0 true true 0 (-0.0004)]
] -46.7 MLshow
1.000 UL
LTb
LCb setrgbcolor
6051 3910 M
-63 0 V
stroke
6135 3910 M
[ [(Helvetica) 140.0 0.0 true true 0 (-0.0002)]
] -46.7 MLshow
1.000 UL
LTb
LCb setrgbcolor
6051 4404 M
-63 0 V
stroke
6135 4404 M
[ [(Helvetica) 140.0 0.0 true true 0 ( 0)]
] -46.7 MLshow
1.000 UL
LTb
LCb setrgbcolor
6051 4899 M
-63 0 V
stroke
6135 4899 M
[ [(Helvetica) 140.0 0.0 true true 0 ( 0.0002)]
] -46.7 MLshow
1.000 UL
LTb
LCb setrgbcolor
1.000 UL
LTB
LCb setrgbcolor
1022 4899 N
0 -4451 V
5029 0 V
0 4451 V
-5029 0 V
Z stroke
1.000 UP
1.000 UL
LT1
0.58 0.00 0.83 C 4868 448 M
0 4451 V
stroke
LTb
LCb setrgbcolor
LCb setrgbcolor
126 2673 M
currentpoint gsave translate -270 rotate 0 0 moveto
[ [(Helvetica) 140.0 0.0 true true 0 ( x [cm],  x' [mrad])]
] -46.7 MCshow
grestore
LTb
LCb setrgbcolor
6975 2673 M
currentpoint gsave translate -270 rotate 0 0 moveto
[ [(Symbol) 140.0 0.0 true true 0 (d q)]
[(Helvetica) 112.0 -42.0 true true 0 (s)]
[(Helvetica) 140.0 0.0 true true 0 (/)]
[(Symbol) 140.0 0.0 true true 0 (q)]
[(Helvetica) 112.0 -42.0 true true 0 (s)]
] -32.7 MCshow
grestore
LTb
LCb setrgbcolor
3536 98 M
[ [(Helvetica) 140.0 0.0 true true 0 (step size [cm])]
] -46.7 MCshow
LTb
% Begin plot #1
0.700 UP
1.000 UL
LTb
1.00 0.00 0.00 C /Helvetica findfont 140 scalefont setfont
LCb setrgbcolor
/roman findfont 100 scalefont setfont
/vshift -33 def
4946 2773 M
("zgoubi.fai" u \($38>1 && $26==1? stpi+dstp*$0/nbtraj :1/0\):\($10\)) Rshow
/Helvetica findfont 140 scalefont setfont
/vshift -46 def
0.700 UP
1.000 UL
LTb
1.00 0.00 0.00 C 1022 551 BoxF
1501 551 BoxF
1811 551 BoxF
2040 551 BoxF
2222 551 BoxF
2374 551 BoxF
2503 551 BoxF
2615 551 BoxF
2715 551 BoxF
2805 551 BoxF
2887 551 BoxF
2962 551 BoxF
3031 551 BoxF
3095 551 BoxF
3154 551 BoxF
3210 551 BoxF
3263 551 BoxF
3313 551 BoxF
3360 551 BoxF
3404 551 BoxF
3447 551 BoxF
3487 551 BoxF
3526 551 BoxF
3563 551 BoxF
3599 551 BoxF
3633 551 BoxF
3667 551 BoxF
3698 551 BoxF
3729 551 BoxF
3759 551 BoxF
3788 551 BoxF
3816 551 BoxF
3843 551 BoxF
3869 551 BoxF
3894 551 BoxF
3919 551 BoxF
3943 551 BoxF
3967 551 BoxF
3989 551 BoxF
4012 551 BoxF
4034 551 BoxF
4055 551 BoxF
4075 551 BoxF
4096 551 BoxF
4116 551 BoxF
4135 551 BoxF
4154 551 BoxF
4172 551 BoxF
4191 551 BoxF
4208 551 BoxF
4226 551 BoxF
4243 551 BoxF
4260 551 BoxF
4276 551 BoxF
4292 551 BoxF
4308 551 BoxF
4324 551 BoxF
4339 551 BoxF
4354 551 BoxF
4369 551 BoxF
4384 551 BoxF
4398 551 BoxF
4412 551 BoxF
4426 551 BoxF
4440 551 BoxF
4454 551 BoxF
4467 551 BoxF
4480 551 BoxF
4493 551 BoxF
4506 551 BoxF
4518 551 BoxF
4530 551 BoxF
4543 551 BoxF
4555 551 BoxF
4567 551 BoxF
4578 551 BoxF
4590 551 BoxF
4601 551 BoxF
4612 551 BoxF
4624 551 BoxF
4635 551 BoxF
4645 551 BoxF
4656 551 BoxF
4667 551 BoxF
4677 551 BoxF
4688 551 BoxF
4698 551 BoxF
4708 551 BoxF
4718 551 BoxF
4728 551 BoxF
4738 551 BoxF
4747 551 BoxF
4757 551 BoxF
4766 551 BoxF
4776 551 BoxF
4785 551 BoxF
4794 551 BoxF
4803 551 BoxF
4812 551 BoxF
4821 551 BoxF
4830 551 BoxF
4839 551 BoxF
4847 551 BoxF
4856 551 BoxF
4864 551 BoxF
4873 551 BoxF
4881 551 BoxF
4889 551 BoxF
4897 551 BoxF
4906 551 BoxF
4914 551 BoxF
4922 551 BoxF
4929 551 BoxF
4937 551 BoxF
4945 551 BoxF
4953 551 BoxF
4960 551 BoxF
4968 551 BoxF
4975 551 BoxF
4983 551 BoxF
4990 551 BoxF
4997 551 BoxF
5005 551 BoxF
5012 551 BoxF
5019 551 BoxF
5026 551 BoxF
5033 551 BoxF
5040 551 BoxF
5047 551 BoxF
5054 551 BoxF
5060 551 BoxF
5067 551 BoxF
5074 551 BoxF
5080 551 BoxF
5087 551 BoxF
5094 551 BoxF
5100 551 BoxF
5107 551 BoxF
5113 551 BoxF
5119 551 BoxF
5126 551 BoxF
5132 551 BoxF
5138 551 BoxF
5144 551 BoxF
5150 551 BoxF
5156 551 BoxF
5163 551 BoxF
5169 551 BoxF
5175 551 BoxF
5180 551 BoxF
5186 551 BoxF
5192 551 BoxF
5198 551 BoxF
5204 551 BoxF
5210 551 BoxF
5215 551 BoxF
5221 551 BoxF
5227 551 BoxF
5232 551 BoxF
5238 551 BoxF
5243 551 BoxF
5249 551 BoxF
5254 551 BoxF
5260 551 BoxF
5265 551 BoxF
5270 551 BoxF
5276 551 BoxF
5281 551 BoxF
5286 551 BoxF
5291 551 BoxF
5297 551 BoxF
5302 551 BoxF
5307 551 BoxF
5312 551 BoxF
5317 551 BoxF
5322 551 BoxF
5327 551 BoxF
5332 551 BoxF
5337 551 BoxF
5342 551 BoxF
5347 551 BoxF
5352 551 BoxF
5357 551 BoxF
5362 551 BoxF
5366 551 BoxF
5371 551 BoxF
5376 551 BoxF
5381 551 BoxF
5385 551 BoxF
5390 551 BoxF
5395 551 BoxF
5399 551 BoxF
5404 551 BoxF
5409 551 BoxF
5413 551 BoxF
5418 551 BoxF
5422 551 BoxF
5427 551 BoxF
5431 551 BoxF
5436 551 BoxF
5440 551 BoxF
5444 551 BoxF
5449 551 BoxF
5453 551 BoxF
5458 551 BoxF
5462 551 BoxF
5466 551 BoxF
5470 551 BoxF
5475 551 BoxF
5479 551 BoxF
5483 551 BoxF
5487 551 BoxF
5492 551 BoxF
5496 551 BoxF
5500 551 BoxF
5504 551 BoxF
5508 551 BoxF
5512 551 BoxF
5516 551 BoxF
5520 551 BoxF
5524 551 BoxF
5528 551 BoxF
5532 551 BoxF
5536 551 BoxF
5540 551 BoxF
5544 551 BoxF
5548 551 BoxF
5552 551 BoxF
5556 551 BoxF
5560 551 BoxF
5564 551 BoxF
5567 551 BoxF
5571 551 BoxF
5575 551 BoxF
5579 551 BoxF
5583 551 BoxF
5586 551 BoxF
5590 551 BoxF
5594 551 BoxF
5597 551 BoxF
5601 551 BoxF
5605 551 BoxF
5608 551 BoxF
5612 551 BoxF
5616 551 BoxF
5619 551 BoxF
5623 551 BoxF
5627 551 BoxF
5630 551 BoxF
5634 551 BoxF
5637 551 BoxF
5641 551 BoxF
5644 551 BoxF
5648 551 BoxF
5651 551 BoxF
5655 551 BoxF
5658 551 BoxF
5662 551 BoxF
5665 551 BoxF
5668 551 BoxF
5672 551 BoxF
5675 551 BoxF
5679 551 BoxF
5682 551 BoxF
5685 551 BoxF
5689 551 BoxF
5692 551 BoxF
5695 551 BoxF
5699 551 BoxF
5702 551 BoxF
5705 551 BoxF
5709 551 BoxF
5712 551 BoxF
5715 551 BoxF
5718 551 BoxF
5721 551 BoxF
5725 551 BoxF
5728 551 BoxF
5731 551 BoxF
5734 551 BoxF
5737 551 BoxF
5741 551 BoxF
5744 551 BoxF
5747 551 BoxF
5750 551 BoxF
5753 551 BoxF
5756 551 BoxF
5759 551 BoxF
5762 551 BoxF
5765 551 BoxF
5768 551 BoxF
5772 551 BoxF
5775 551 BoxF
5778 551 BoxF
5781 551 BoxF
5784 551 BoxF
5787 551 BoxF
5790 551 BoxF
5793 551 BoxF
5796 551 BoxF
5798 551 BoxF
5801 551 BoxF
5804 551 BoxF
5807 551 BoxF
5810 551 BoxF
5813 551 BoxF
5816 551 BoxF
5819 551 BoxF
5822 551 BoxF
5825 551 BoxF
5827 551 BoxF
5830 551 BoxF
5833 551 BoxF
5836 551 BoxF
5839 551 BoxF
5842 551 BoxF
5844 551 BoxF
5847 551 BoxF
5850 550 BoxF
5853 550 BoxF
5856 550 BoxF
5858 550 BoxF
5861 550 BoxF
5864 550 BoxF
5867 550 BoxF
5869 550 BoxF
5872 550 BoxF
5875 550 BoxF
5877 550 BoxF
5880 550 BoxF
5883 550 BoxF
5886 550 BoxF
5888 550 BoxF
5891 550 BoxF
5894 550 BoxF
5896 550 BoxF
5899 550 BoxF
5901 550 BoxF
5904 550 BoxF
5907 550 BoxF
5909 550 BoxF
5912 550 BoxF
5914 550 BoxF
5917 550 BoxF
5920 550 BoxF
5922 550 BoxF
5925 550 BoxF
5927 550 BoxF
5930 550 BoxF
5932 550 BoxF
5935 550 BoxF
5937 550 BoxF
5940 550 BoxF
5942 550 BoxF
5945 550 BoxF
5948 550 BoxF
5950 550 BoxF
5952 550 BoxF
5955 550 BoxF
5957 550 BoxF
5960 550 BoxF
5962 550 BoxF
5965 550 BoxF
5967 550 BoxF
5970 550 BoxF
5972 550 BoxF
5975 550 BoxF
5977 550 BoxF
5979 550 BoxF
5982 550 BoxF
5984 550 BoxF
5987 550 BoxF
5989 550 BoxF
5991 550 BoxF
5994 550 BoxF
5996 550 BoxF
5998 550 BoxF
6001 550 BoxF
6003 550 BoxF
6005 550 BoxF
6008 550 BoxF
6010 550 BoxF
6012 550 BoxF
6015 550 BoxF
6017 550 BoxF
6019 550 BoxF
6022 550 BoxF
6024 550 BoxF
6026 550 BoxF
6029 550 BoxF
6031 550 BoxF
6033 550 BoxF
6035 550 BoxF
6038 550 BoxF
6040 550 BoxF
6042 550 BoxF
6044 550 BoxF
6047 550 BoxF
6049 550 BoxF
6051 550 BoxF
5157 2773 BoxF
% End plot #1
% Begin plot #2
0.700 UP
1.000 UL
LTb
0.00 0.00 1.00 C /Helvetica findfont 140 scalefont setfont
LCb setrgbcolor
/roman findfont 100 scalefont setfont
/vshift -33 def
4946 2673 M
("zgoubi.fai" u \($38>1 && $26==1? stpi+dstp*$0/nbtraj :1/0\):\($11\)) Rshow
/Helvetica findfont 140 scalefont setfont
/vshift -46 def
0.700 UP
1.000 UL
LTb
0.00 0.00 1.00 C 5006 2673 M
303 0 V
1022 4480 M
479 0 R
310 0 R
229 0 R
182 -1 R
152 0 R
129 0 R
112 0 R
100 0 R
90 0 R
82 0 R
75 -1 R
69 0 R
64 0 R
59 0 R
56 0 R
53 0 R
50 0 R
47 -1 R
44 0 R
43 0 R
40 0 R
39 0 R
37 0 R
36 0 R
34 0 R
34 -1 R
31 0 R
31 0 R
30 0 R
29 0 R
28 0 R
27 0 R
26 -1 R
25 0 R
25 0 R
24 0 R
24 0 R
22 0 R
23 0 R
22 -1 R
21 0 R
20 0 R
21 0 R
20 0 R
19 0 R
19 0 R
18 -1 R
19 0 R
17 0 R
18 0 R
17 0 R
17 0 R
16 0 R
16 -1 R
16 0 R
16 0 R
15 0 R
15 0 R
15 0 R
15 0 R
14 0 R
14 -1 R
14 0 R
14 0 R
14 0 R
13 0 R
13 0 R
13 -1 R
13 0 R
12 0 R
12 0 R
13 0 R
12 0 R
12 0 R
11 0 R
12 -1 R
11 0 R
11 0 R
12 0 R
11 0 R
10 0 R
11 0 R
11 -1 R
10 0 R
11 0 R
10 0 R
10 0 R
10 0 R
10 0 R
10 -1 R
9 0 R
10 0 R
9 0 R
10 0 R
9 0 R
9 0 R
9 0 R
9 -1 R
9 0 R
9 0 R
9 0 R
8 0 R
9 0 R
8 0 R
9 -1 R
8 0 R
8 0 R
8 0 R
9 0 R
8 0 R
8 0 R
7 0 R
8 0 R
8 -1 R
8 0 R
7 0 R
8 0 R
7 0 R
8 0 R
7 0 R
7 0 R
8 -1 R
7 0 R
7 0 R
7 0 R
7 0 R
7 0 R
7 0 R
7 -1 R
6 0 R
7 0 R
7 0 R
6 -1 R
7 1 R
7 0 R
6 0 R
7 -1 R
6 0 R
6 0 R
7 0 R
6 0 R
6 -1 R
6 0 R
6 0 R
6 0 R
7 0 R
6 0 R
6 0 R
5 0 R
6 0 R
6 -1 R
6 0 R
6 0 R
6 0 R
5 0 R
6 0 R
6 0 R
5 0 R
6 0 R
5 0 R
6 -1 R
5 0 R
6 0 R
5 0 R
5 -1 R
6 0 R
5 0 R
5 0 R
5 0 R
6 0 R
5 0 R
5 0 R
5 0 R
5 0 R
5 0 R
5 -1 R
5 0 R
5 0 R
5 0 R
5 -1 R
5 0 R
5 0 R
5 0 R
4 0 R
5 0 R
5 0 R
5 0 R
4 0 R
5 0 R
5 0 R
4 0 R
5 0 R
5 -1 R
4 0 R
5 0 R
4 0 R
5 -1 R
4 0 R
5 -1 R
4 0 R
4 1 R
5 0 R
4 0 R
5 0 R
4 0 R
4 0 R
4 0 R
5 0 R
4 0 R
4 -1 R
4 0 R
5 0 R
4 0 R
4 0 R
4 -1 R
4 0 R
4 0 R
4 0 R
4 -1 R
4 0 R
4 0 R
4 -1 R
4 1 R
4 0 R
4 0 R
4 0 R
4 0 R
4 0 R
4 0 R
4 0 R
3 0 R
4 0 R
4 0 R
4 0 R
4 -1 R
3 0 R
4 0 R
4 0 R
3 0 R
4 0 R
4 -1 R
3 0 R
4 0 R
4 0 R
3 -1 R
4 0 R
4 0 R
3 -1 R
4 0 R
3 0 R
4 0 R
3 0 R
4 0 R
3 0 R
4 0 R
3 0 R
4 0 R
3 0 R
3 0 R
4 0 R
3 0 R
4 0 R
3 0 R
3 0 R
4 0 R
3 0 R
3 0 R
4 0 R
3 -1 R
3 0 R
4 0 R
3 0 R
3 0 R
3 -1 R
3 0 R
4 0 R
3 0 R
3 -1 R
3 0 R
3 0 R
4 -1 R
3 0 R
3 0 R
3 -1 R
3 0 R
3 0 R
3 0 R
3 0 R
3 0 R
3 0 R
4 1 R
3 0 R
3 0 R
3 0 R
3 0 R
3 0 R
3 0 R
3 0 R
3 0 R
2 0 R
3 0 R
3 0 R
3 0 R
3 -1 R
3 0 R
3 0 R
3 0 R
3 0 R
3 0 R
2 0 R
3 0 R
3 0 R
3 -1 R
3 0 R
3 0 R
2 0 R
3 0 R
3 -1 R
3 0 R
3 0 R
2 0 R
3 -1 R
3 0 R
3 0 R
2 -1 R
3 0 R
3 0 R
2 -1 R
3 0 R
3 0 R
3 -1 R
2 0 R
3 0 R
3 0 R
2 0 R
3 0 R
2 0 R
3 0 R
3 0 R
2 0 R
3 1 R
2 0 R
3 0 R
3 0 R
2 0 R
3 0 R
2 0 R
3 0 R
2 0 R
3 0 R
2 0 R
3 0 R
2 0 R
3 0 R
3 0 R
2 0 R
2 0 R
3 0 R
2 0 R
3 -1 R
2 0 R
3 0 R
2 0 R
3 0 R
2 0 R
3 0 R
2 0 R
2 0 R
3 -1 R
2 0 R
3 0 R
2 0 R
2 0 R
3 0 R
2 -1 R
2 0 R
3 0 R
2 0 R
2 0 R
3 -1 R
2 0 R
2 0 R
3 0 R
2 -1 R
2 0 R
3 0 R
2 -1 R
2 0 R
3 0 R
2 0 R
2 -1 R
2 0 R
3 0 R
2 -1 R
2 0 R
2 -1 R
3 0 R
2 0 R
2 -1 R
1022 4480 Circle
1501 4480 Circle
1811 4480 Circle
2040 4480 Circle
2222 4479 Circle
2374 4479 Circle
2503 4479 Circle
2615 4479 Circle
2715 4479 Circle
2805 4479 Circle
2887 4479 Circle
2962 4478 Circle
3031 4478 Circle
3095 4478 Circle
3154 4478 Circle
3210 4478 Circle
3263 4478 Circle
3313 4478 Circle
3360 4477 Circle
3404 4477 Circle
3447 4477 Circle
3487 4477 Circle
3526 4477 Circle
3563 4477 Circle
3599 4477 Circle
3633 4477 Circle
3667 4476 Circle
3698 4476 Circle
3729 4476 Circle
3759 4476 Circle
3788 4476 Circle
3816 4476 Circle
3843 4476 Circle
3869 4475 Circle
3894 4475 Circle
3919 4475 Circle
3943 4475 Circle
3967 4475 Circle
3989 4475 Circle
4012 4475 Circle
4034 4474 Circle
4055 4474 Circle
4075 4474 Circle
4096 4474 Circle
4116 4474 Circle
4135 4474 Circle
4154 4474 Circle
4172 4473 Circle
4191 4473 Circle
4208 4473 Circle
4226 4473 Circle
4243 4473 Circle
4260 4473 Circle
4276 4473 Circle
4292 4472 Circle
4308 4472 Circle
4324 4472 Circle
4339 4472 Circle
4354 4472 Circle
4369 4472 Circle
4384 4472 Circle
4398 4472 Circle
4412 4471 Circle
4426 4471 Circle
4440 4471 Circle
4454 4471 Circle
4467 4471 Circle
4480 4471 Circle
4493 4470 Circle
4506 4470 Circle
4518 4470 Circle
4530 4470 Circle
4543 4470 Circle
4555 4470 Circle
4567 4470 Circle
4578 4470 Circle
4590 4469 Circle
4601 4469 Circle
4612 4469 Circle
4624 4469 Circle
4635 4469 Circle
4645 4469 Circle
4656 4469 Circle
4667 4468 Circle
4677 4468 Circle
4688 4468 Circle
4698 4468 Circle
4708 4468 Circle
4718 4468 Circle
4728 4468 Circle
4738 4467 Circle
4747 4467 Circle
4757 4467 Circle
4766 4467 Circle
4776 4467 Circle
4785 4467 Circle
4794 4467 Circle
4803 4467 Circle
4812 4466 Circle
4821 4466 Circle
4830 4466 Circle
4839 4466 Circle
4847 4466 Circle
4856 4466 Circle
4864 4466 Circle
4873 4465 Circle
4881 4465 Circle
4889 4465 Circle
4897 4465 Circle
4906 4465 Circle
4914 4465 Circle
4922 4465 Circle
4929 4465 Circle
4937 4465 Circle
4945 4464 Circle
4953 4464 Circle
4960 4464 Circle
4968 4464 Circle
4975 4464 Circle
4983 4464 Circle
4990 4464 Circle
4997 4464 Circle
5005 4463 Circle
5012 4463 Circle
5019 4463 Circle
5026 4463 Circle
5033 4463 Circle
5040 4463 Circle
5047 4463 Circle
5054 4462 Circle
5060 4462 Circle
5067 4462 Circle
5074 4462 Circle
5080 4461 Circle
5087 4462 Circle
5094 4462 Circle
5100 4462 Circle
5107 4461 Circle
5113 4461 Circle
5119 4461 Circle
5126 4461 Circle
5132 4461 Circle
5138 4460 Circle
5144 4460 Circle
5150 4460 Circle
5156 4460 Circle
5163 4460 Circle
5169 4460 Circle
5175 4460 Circle
5180 4460 Circle
5186 4460 Circle
5192 4459 Circle
5198 4459 Circle
5204 4459 Circle
5210 4459 Circle
5215 4459 Circle
5221 4459 Circle
5227 4459 Circle
5232 4459 Circle
5238 4459 Circle
5243 4459 Circle
5249 4458 Circle
5254 4458 Circle
5260 4458 Circle
5265 4458 Circle
5270 4457 Circle
5276 4457 Circle
5281 4457 Circle
5286 4457 Circle
5291 4457 Circle
5297 4457 Circle
5302 4457 Circle
5307 4457 Circle
5312 4457 Circle
5317 4457 Circle
5322 4457 Circle
5327 4456 Circle
5332 4456 Circle
5337 4456 Circle
5342 4456 Circle
5347 4455 Circle
5352 4455 Circle
5357 4455 Circle
5362 4455 Circle
5366 4455 Circle
5371 4455 Circle
5376 4455 Circle
5381 4455 Circle
5385 4455 Circle
5390 4455 Circle
5395 4455 Circle
5399 4455 Circle
5404 4455 Circle
5409 4454 Circle
5413 4454 Circle
5418 4454 Circle
5422 4454 Circle
5427 4453 Circle
5431 4453 Circle
5436 4452 Circle
5440 4452 Circle
5444 4453 Circle
5449 4453 Circle
5453 4453 Circle
5458 4453 Circle
5462 4453 Circle
5466 4453 Circle
5470 4453 Circle
5475 4453 Circle
5479 4453 Circle
5483 4452 Circle
5487 4452 Circle
5492 4452 Circle
5496 4452 Circle
5500 4452 Circle
5504 4451 Circle
5508 4451 Circle
5512 4451 Circle
5516 4451 Circle
5520 4450 Circle
5524 4450 Circle
5528 4450 Circle
5532 4449 Circle
5536 4450 Circle
5540 4450 Circle
5544 4450 Circle
5548 4450 Circle
5552 4450 Circle
5556 4450 Circle
5560 4450 Circle
5564 4450 Circle
5567 4450 Circle
5571 4450 Circle
5575 4450 Circle
5579 4450 Circle
5583 4449 Circle
5586 4449 Circle
5590 4449 Circle
5594 4449 Circle
5597 4449 Circle
5601 4449 Circle
5605 4448 Circle
5608 4448 Circle
5612 4448 Circle
5616 4448 Circle
5619 4447 Circle
5623 4447 Circle
5627 4447 Circle
5630 4446 Circle
5634 4446 Circle
5637 4446 Circle
5641 4446 Circle
5644 4446 Circle
5648 4446 Circle
5651 4446 Circle
5655 4446 Circle
5658 4446 Circle
5662 4446 Circle
5665 4446 Circle
5668 4446 Circle
5672 4446 Circle
5675 4446 Circle
5679 4446 Circle
5682 4446 Circle
5685 4446 Circle
5689 4446 Circle
5692 4446 Circle
5695 4446 Circle
5699 4446 Circle
5702 4445 Circle
5705 4445 Circle
5709 4445 Circle
5712 4445 Circle
5715 4445 Circle
5718 4444 Circle
5721 4444 Circle
5725 4444 Circle
5728 4444 Circle
5731 4443 Circle
5734 4443 Circle
5737 4443 Circle
5741 4442 Circle
5744 4442 Circle
5747 4442 Circle
5750 4441 Circle
5753 4441 Circle
5756 4441 Circle
5759 4441 Circle
5762 4441 Circle
5765 4441 Circle
5768 4441 Circle
5772 4442 Circle
5775 4442 Circle
5778 4442 Circle
5781 4442 Circle
5784 4442 Circle
5787 4442 Circle
5790 4442 Circle
5793 4442 Circle
5796 4442 Circle
5798 4442 Circle
5801 4442 Circle
5804 4442 Circle
5807 4442 Circle
5810 4441 Circle
5813 4441 Circle
5816 4441 Circle
5819 4441 Circle
5822 4441 Circle
5825 4441 Circle
5827 4441 Circle
5830 4441 Circle
5833 4441 Circle
5836 4440 Circle
5839 4440 Circle
5842 4440 Circle
5844 4440 Circle
5847 4440 Circle
5850 4439 Circle
5853 4439 Circle
5856 4439 Circle
5858 4439 Circle
5861 4438 Circle
5864 4438 Circle
5867 4438 Circle
5869 4437 Circle
5872 4437 Circle
5875 4437 Circle
5877 4436 Circle
5880 4436 Circle
5883 4436 Circle
5886 4435 Circle
5888 4435 Circle
5891 4435 Circle
5894 4435 Circle
5896 4435 Circle
5899 4435 Circle
5901 4435 Circle
5904 4435 Circle
5907 4435 Circle
5909 4435 Circle
5912 4436 Circle
5914 4436 Circle
5917 4436 Circle
5920 4436 Circle
5922 4436 Circle
5925 4436 Circle
5927 4436 Circle
5930 4436 Circle
5932 4436 Circle
5935 4436 Circle
5937 4436 Circle
5940 4436 Circle
5942 4436 Circle
5945 4436 Circle
5948 4436 Circle
5950 4436 Circle
5952 4436 Circle
5955 4436 Circle
5957 4436 Circle
5960 4435 Circle
5962 4435 Circle
5965 4435 Circle
5967 4435 Circle
5970 4435 Circle
5972 4435 Circle
5975 4435 Circle
5977 4435 Circle
5979 4435 Circle
5982 4434 Circle
5984 4434 Circle
5987 4434 Circle
5989 4434 Circle
5991 4434 Circle
5994 4434 Circle
5996 4433 Circle
5998 4433 Circle
6001 4433 Circle
6003 4433 Circle
6005 4433 Circle
6008 4432 Circle
6010 4432 Circle
6012 4432 Circle
6015 4432 Circle
6017 4431 Circle
6019 4431 Circle
6022 4431 Circle
6024 4430 Circle
6026 4430 Circle
6029 4430 Circle
6031 4430 Circle
6033 4429 Circle
6035 4429 Circle
6038 4429 Circle
6040 4428 Circle
6042 4428 Circle
6044 4427 Circle
6047 4427 Circle
6049 4427 Circle
6051 4426 Circle
5157 2673 Circle
% End plot #2
% Begin plot #3
0.700 UP
1.000 UL
LTb
0.00 1.00 0.00 C LCb setrgbcolor
4946 2573 M
[ [(roman) 100.0 0.0 true true 0 (spin-R \(right axis\))]
] -33.3 MRshow
0.700 UP
1.000 UL
LTb
0.00 1.00 0.00 C 5006 2573 M
303 0 V
1022 4407 M
479 0 R
310 0 R
229 0 R
182 0 R
152 0 R
129 -1 R
112 0 R
100 0 R
90 -1 R
82 0 R
75 -1 R
69 0 R
64 -1 R
59 0 R
56 -1 R
53 -1 R
50 -1 R
47 -1 R
44 0 R
43 -1 R
40 -1 R
39 -1 R
37 -1 R
36 -2 R
34 -1 R
34 -1 R
31 -1 R
31 -2 R
30 -1 R
29 -1 R
28 -2 R
27 -1 R
26 -2 R
25 -1 R
25 -2 R
24 -2 R
24 -1 R
22 -2 R
23 -2 R
22 -2 R
21 -2 R
20 -2 R
21 -2 R
20 -2 R
19 -2 R
19 -2 R
18 -2 R
19 -3 R
17 -2 R
18 -2 R
17 -3 R
17 -2 R
16 -2 R
16 -3 R
16 -3 R
16 -2 R
15 -3 R
15 -3 R
15 -2 R
15 -4 R
14 -2 R
14 -4 R
14 -1 R
14 -5 R
14 -1 R
13 -4 R
13 -3 R
13 -3 R
13 -3 R
12 -3 R
12 -5 R
13 -2 R
12 -4 R
12 -3 R
11 -3 R
12 -5 R
11 -3 R
11 -3 R
12 -5 R
11 -3 R
10 -3 R
11 -5 R
11 -4 R
10 -2 R
11 -5 R
10 -5 R
10 -3 R
10 -3 R
10 -5 R
10 -6 R
9 -3 R
10 -3 R
9 -5 R
10 -6 R
9 -4 R
9 -3 R
9 -4 R
9 -5 R
9 -7 R
9 -4 R
9 -2 R
8 -5 R
9 -6 R
8 -6 R
9 -6 R
8 -2 R
8 -4 R
8 -5 R
9 -7 R
8 -7 R
8 -5 R
7 -2 R
8 -4 R
8 -6 R
8 -6 R
7 -8 R
8 -8 R
7 -2 R
8 -3 R
7 -4 R
7 -6 R
8 -8 R
7 -8 R
7 -8 R
7 -4 R
7 -2 R
7 -4 R
7 -6 R
7 -6 R
6 -8 R
7 -9 R
7 -9 R
6 -7 R
7 -1 R
7 -3 R
6 -5 R
7 -6 R
6 -7 R
6 -9 R
7 -9 R
6 -9 R
6 -10 R
6 -3 R
6 -2 R
6 -4 R
7 -5 R
6 -7 R
6 -7 R
5 -9 R
6 -9 R
6 -10 R
6 -11 R
6 -10 R
6 -3 R
5 -2 R
6 -4 R
6 -5 R
5 -6 R
6 -7 R
5 -8 R
6 -10 R
5 -10 R
6 -10 R
5 -11 R
5 -12 R
6 -11 R
5 -1 R
5 -3 R
5 -3 R
6 -5 R
5 -6 R
5 -7 R
5 -8 R
5 -9 R
5 -10 R
5 -11 R
5 -11 R
5 -12 R
5 -12 R
5 -13 R
5 -12 R
5 -3 R
5 -2 R
4 -3 R
5 -4 R
5 -6 R
5 -6 R
4 -8 R
5 -8 R
5 -10 R
4 -10 R
5 -11 R
5 -12 R
4 -12 R
5 -12 R
4 -14 R
5 -13 R
4 -14 R
5 -14 R
4 -4 R
4 -2 R
5 -3 R
4 -3 R
5 -5 R
4 -6 R
4 -7 R
4 -8 R
5 -9 R
4 -10 R
4 -10 R
4 -11 R
5 -12 R
4 -12 R
4 -13 R
4 -14 R
4 -14 R
4 -14 R
4 -15 R
4 -15 R
4 -16 R
4 -15 R
4 -8 R
4 -1 R
4 -2 R
4 -4 R
4 -4 R
4 -5 R
4 -6 R
4 -7 R
4 -8 R
3 -9 R
4 -10 R
4 -10 R
4 -11 R
4 -12 R
3 -12 R
4 -14 R
4 -13 R
3 -14 R
4 -15 R
4 -15 R
3 -16 R
4 -16 R
4 -16 R
3 -17 R
4 -17 R
4 -17 R
3 -17 R
4 -18 R
3 -4 R
4 -2 R
3 -2 R
4 -3 R
3 -4 R
4 -5 R
3 -6 R
4 -6 R
3 -8 R
3 -8 R
4 -9 R
3 -10 R
4 -10 R
3 -11 R
3 -12 R
4 -13 R
3 -13 R
3 -13 R
4 -14 R
3 -15 R
3 -16 R
4 -15 R
3 -17 R
3 -16 R
3 -17 R
3 -18 R
4 -18 R
3 -18 R
3 -19 R
3 -19 R
3 -19 R
4 -19 R
3 -20 R
3 -20 R
3 -20 R
3 -18 R
3 0 R
3 -2 R
3 -2 R
3 -3 R
3 -4 R
4 -4 R
3 -6 R
3 -6 R
3 -7 R
3 -7 R
3 -8 R
3 -9 R
3 -10 R
3 -10 R
2 -11 R
3 -12 R
3 -12 R
3 -13 R
3 -13 R
3 -14 R
3 -14 R
3 -15 R
3 -16 R
3 -16 R
2 -17 R
3 -16 R
3 -18 R
3 -18 R
3 -18 R
3 -19 R
2 -19 R
3 -20 R
3 -20 R
3 -20 R
3 -21 R
2 -21 R
3 -21 R
3 -21 R
3 -22 R
2 -22 R
3 -23 R
3 -22 R
2 -23 R
3 -23 R
3 -24 R
3 -23 R
2 -24 R
3 -10 R
3 -1 R
2 -1 R
3 -2 R
2 -3 R
3 -4 R
3 -4 R
2 -5 R
3 -5 R
2 -6 R
3 -7 R
3 -8 R
2 -8 R
3 -8 R
2 -10 R
3 -9 R
2 -11 R
3 -11 R
2 -11 R
3 -12 R
2 -13 R
3 -13 R
3 -14 R
2 -14 R
2 -15 R
3 -15 R
2 -16 R
3 -16 R
2 -17 R
3 -17 R
2 -17 R
3 -19 R
2 -18 R
3 -19 R
2 -19 R
2 -20 R
3 -20 R
2 -21 R
3 -21 R
2 -21 R
2 -22 R
3 -22 R
2 -23 R
2 -22 R
3 -24 R
2 -23 R
2 -24 R
3 -24 R
2 -25 R
2 -24 R
3 -25 R
2 -26 R
2 -25 R
3 -26 R
2 -26 R
2 -27 R
3 -26 R
2 -27 R
2 -27 R
2 -27 R
3 -28 R
2 -27 R
2 -28 R
2 -28 R
3 -28 R
2 -29 R
2 -28 R
1022 4407 CircleF
1501 4407 CircleF
1811 4407 CircleF
2040 4407 CircleF
2222 4407 CircleF
2374 4407 CircleF
2503 4406 CircleF
2615 4406 CircleF
2715 4406 CircleF
2805 4405 CircleF
2887 4405 CircleF
2962 4404 CircleF
3031 4404 CircleF
3095 4403 CircleF
3154 4403 CircleF
3210 4402 CircleF
3263 4401 CircleF
3313 4400 CircleF
3360 4399 CircleF
3404 4399 CircleF
3447 4398 CircleF
3487 4397 CircleF
3526 4396 CircleF
3563 4395 CircleF
3599 4393 CircleF
3633 4392 CircleF
3667 4391 CircleF
3698 4390 CircleF
3729 4388 CircleF
3759 4387 CircleF
3788 4386 CircleF
3816 4384 CircleF
3843 4383 CircleF
3869 4381 CircleF
3894 4380 CircleF
3919 4378 CircleF
3943 4376 CircleF
3967 4375 CircleF
3989 4373 CircleF
4012 4371 CircleF
4034 4369 CircleF
4055 4367 CircleF
4075 4365 CircleF
4096 4363 CircleF
4116 4361 CircleF
4135 4359 CircleF
4154 4357 CircleF
4172 4355 CircleF
4191 4352 CircleF
4208 4350 CircleF
4226 4348 CircleF
4243 4345 CircleF
4260 4343 CircleF
4276 4341 CircleF
4292 4338 CircleF
4308 4335 CircleF
4324 4333 CircleF
4339 4330 CircleF
4354 4327 CircleF
4369 4325 CircleF
4384 4321 CircleF
4398 4319 CircleF
4412 4315 CircleF
4426 4314 CircleF
4440 4309 CircleF
4454 4308 CircleF
4467 4304 CircleF
4480 4301 CircleF
4493 4298 CircleF
4506 4295 CircleF
4518 4292 CircleF
4530 4287 CircleF
4543 4285 CircleF
4555 4281 CircleF
4567 4278 CircleF
4578 4275 CircleF
4590 4270 CircleF
4601 4267 CircleF
4612 4264 CircleF
4624 4259 CircleF
4635 4256 CircleF
4645 4253 CircleF
4656 4248 CircleF
4667 4244 CircleF
4677 4242 CircleF
4688 4237 CircleF
4698 4232 CircleF
4708 4229 CircleF
4718 4226 CircleF
4728 4221 CircleF
4738 4215 CircleF
4747 4212 CircleF
4757 4209 CircleF
4766 4204 CircleF
4776 4198 CircleF
4785 4194 CircleF
4794 4191 CircleF
4803 4187 CircleF
4812 4182 CircleF
4821 4175 CircleF
4830 4171 CircleF
4839 4169 CircleF
4847 4164 CircleF
4856 4158 CircleF
4864 4152 CircleF
4873 4146 CircleF
4881 4144 CircleF
4889 4140 CircleF
4897 4135 CircleF
4906 4128 CircleF
4914 4121 CircleF
4922 4116 CircleF
4929 4114 CircleF
4937 4110 CircleF
4945 4104 CircleF
4953 4098 CircleF
4960 4090 CircleF
4968 4082 CircleF
4975 4080 CircleF
4983 4077 CircleF
4990 4073 CircleF
4997 4067 CircleF
5005 4059 CircleF
5012 4051 CircleF
5019 4043 CircleF
5026 4039 CircleF
5033 4037 CircleF
5040 4033 CircleF
5047 4027 CircleF
5054 4021 CircleF
5060 4013 CircleF
5067 4004 CircleF
5074 3995 CircleF
5080 3988 CircleF
5087 3987 CircleF
5094 3984 CircleF
5100 3979 CircleF
5107 3973 CircleF
5113 3966 CircleF
5119 3957 CircleF
5126 3948 CircleF
5132 3939 CircleF
5138 3929 CircleF
5144 3926 CircleF
5150 3924 CircleF
5156 3920 CircleF
5163 3915 CircleF
5169 3908 CircleF
5175 3901 CircleF
5180 3892 CircleF
5186 3883 CircleF
5192 3873 CircleF
5198 3862 CircleF
5204 3852 CircleF
5210 3849 CircleF
5215 3847 CircleF
5221 3843 CircleF
5227 3838 CircleF
5232 3832 CircleF
5238 3825 CircleF
5243 3817 CircleF
5249 3807 CircleF
5254 3797 CircleF
5260 3787 CircleF
5265 3776 CircleF
5270 3764 CircleF
5276 3753 CircleF
5281 3752 CircleF
5286 3749 CircleF
5291 3746 CircleF
5297 3741 CircleF
5302 3735 CircleF
5307 3728 CircleF
5312 3720 CircleF
5317 3711 CircleF
5322 3701 CircleF
5327 3690 CircleF
5332 3679 CircleF
5337 3667 CircleF
5342 3655 CircleF
5347 3642 CircleF
5352 3630 CircleF
5357 3627 CircleF
5362 3625 CircleF
5366 3622 CircleF
5371 3618 CircleF
5376 3612 CircleF
5381 3606 CircleF
5385 3598 CircleF
5390 3590 CircleF
5395 3580 CircleF
5399 3570 CircleF
5404 3559 CircleF
5409 3547 CircleF
5413 3535 CircleF
5418 3523 CircleF
5422 3509 CircleF
5427 3496 CircleF
5431 3482 CircleF
5436 3468 CircleF
5440 3464 CircleF
5444 3462 CircleF
5449 3459 CircleF
5453 3456 CircleF
5458 3451 CircleF
5462 3445 CircleF
5466 3438 CircleF
5470 3430 CircleF
5475 3421 CircleF
5479 3411 CircleF
5483 3401 CircleF
5487 3390 CircleF
5492 3378 CircleF
5496 3366 CircleF
5500 3353 CircleF
5504 3339 CircleF
5508 3325 CircleF
5512 3311 CircleF
5516 3296 CircleF
5520 3281 CircleF
5524 3265 CircleF
5528 3250 CircleF
5532 3242 CircleF
5536 3241 CircleF
5540 3239 CircleF
5544 3235 CircleF
5548 3231 CircleF
5552 3226 CircleF
5556 3220 CircleF
5560 3213 CircleF
5564 3205 CircleF
5567 3196 CircleF
5571 3186 CircleF
5575 3176 CircleF
5579 3165 CircleF
5583 3153 CircleF
5586 3141 CircleF
5590 3127 CircleF
5594 3114 CircleF
5597 3100 CircleF
5601 3085 CircleF
5605 3070 CircleF
5608 3054 CircleF
5612 3038 CircleF
5616 3022 CircleF
5619 3005 CircleF
5623 2988 CircleF
5627 2971 CircleF
5630 2954 CircleF
5634 2936 CircleF
5637 2932 CircleF
5641 2930 CircleF
5644 2928 CircleF
5648 2925 CircleF
5651 2921 CircleF
5655 2916 CircleF
5658 2910 CircleF
5662 2904 CircleF
5665 2896 CircleF
5668 2888 CircleF
5672 2879 CircleF
5675 2869 CircleF
5679 2859 CircleF
5682 2848 CircleF
5685 2836 CircleF
5689 2823 CircleF
5692 2810 CircleF
5695 2797 CircleF
5699 2783 CircleF
5702 2768 CircleF
5705 2752 CircleF
5709 2737 CircleF
5712 2720 CircleF
5715 2704 CircleF
5718 2687 CircleF
5721 2669 CircleF
5725 2651 CircleF
5728 2633 CircleF
5731 2614 CircleF
5734 2595 CircleF
5737 2576 CircleF
5741 2557 CircleF
5744 2537 CircleF
5747 2517 CircleF
5750 2497 CircleF
5753 2479 CircleF
5756 2479 CircleF
5759 2477 CircleF
5762 2475 CircleF
5765 2472 CircleF
5768 2468 CircleF
5772 2464 CircleF
5775 2458 CircleF
5778 2452 CircleF
5781 2445 CircleF
5784 2438 CircleF
5787 2430 CircleF
5790 2421 CircleF
5793 2411 CircleF
5796 2401 CircleF
5798 2390 CircleF
5801 2378 CircleF
5804 2366 CircleF
5807 2353 CircleF
5810 2340 CircleF
5813 2326 CircleF
5816 2312 CircleF
5819 2297 CircleF
5822 2281 CircleF
5825 2265 CircleF
5827 2248 CircleF
5830 2232 CircleF
5833 2214 CircleF
5836 2196 CircleF
5839 2178 CircleF
5842 2159 CircleF
5844 2140 CircleF
5847 2120 CircleF
5850 2100 CircleF
5853 2080 CircleF
5856 2059 CircleF
5858 2038 CircleF
5861 2017 CircleF
5864 1996 CircleF
5867 1974 CircleF
5869 1952 CircleF
5872 1929 CircleF
5875 1907 CircleF
5877 1884 CircleF
5880 1861 CircleF
5883 1837 CircleF
5886 1814 CircleF
5888 1790 CircleF
5891 1780 CircleF
5894 1779 CircleF
5896 1778 CircleF
5899 1776 CircleF
5901 1773 CircleF
5904 1769 CircleF
5907 1765 CircleF
5909 1760 CircleF
5912 1755 CircleF
5914 1749 CircleF
5917 1742 CircleF
5920 1734 CircleF
5922 1726 CircleF
5925 1718 CircleF
5927 1708 CircleF
5930 1699 CircleF
5932 1688 CircleF
5935 1677 CircleF
5937 1666 CircleF
5940 1654 CircleF
5942 1641 CircleF
5945 1628 CircleF
5948 1614 CircleF
5950 1600 CircleF
5952 1585 CircleF
5955 1570 CircleF
5957 1554 CircleF
5960 1538 CircleF
5962 1521 CircleF
5965 1504 CircleF
5967 1487 CircleF
5970 1468 CircleF
5972 1450 CircleF
5975 1431 CircleF
5977 1412 CircleF
5979 1392 CircleF
5982 1372 CircleF
5984 1351 CircleF
5987 1330 CircleF
5989 1309 CircleF
5991 1287 CircleF
5994 1265 CircleF
5996 1242 CircleF
5998 1220 CircleF
6001 1196 CircleF
6003 1173 CircleF
6005 1149 CircleF
6008 1125 CircleF
6010 1100 CircleF
6012 1076 CircleF
6015 1051 CircleF
6017 1025 CircleF
6019 1000 CircleF
6022 974 CircleF
6024 948 CircleF
6026 921 CircleF
6029 895 CircleF
6031 868 CircleF
6033 841 CircleF
6035 814 CircleF
6038 786 CircleF
6040 759 CircleF
6042 731 CircleF
6044 703 CircleF
6047 675 CircleF
6049 646 CircleF
6051 618 CircleF
5157 2573 CircleF
% End plot #3
% Begin plot #4
1.000 UL
LTb
LT1
0.58 0.00 0.83 C 1022 4157 M
51 0 V
51 0 V
50 0 V
51 0 V
51 0 V
51 0 V
51 0 V
50 0 V
51 0 V
51 0 V
51 0 V
51 0 V
50 0 V
51 0 V
51 0 V
51 0 V
51 0 V
50 0 V
51 0 V
51 0 V
51 0 V
51 0 V
50 0 V
51 0 V
51 0 V
51 0 V
51 0 V
50 0 V
51 0 V
51 0 V
51 0 V
51 0 V
50 0 V
51 0 V
51 0 V
51 0 V
51 0 V
50 0 V
51 0 V
51 0 V
51 0 V
51 0 V
50 0 V
51 0 V
51 0 V
51 0 V
51 0 V
50 0 V
51 0 V
51 0 V
51 0 V
50 0 V
51 0 V
51 0 V
51 0 V
51 0 V
50 0 V
51 0 V
51 0 V
51 0 V
51 0 V
50 0 V
51 0 V
51 0 V
51 0 V
51 0 V
50 0 V
51 0 V
51 0 V
51 0 V
51 0 V
50 0 V
51 0 V
51 0 V
51 0 V
51 0 V
50 0 V
51 0 V
51 0 V
51 0 V
51 0 V
50 0 V
51 0 V
51 0 V
51 0 V
51 0 V
50 0 V
51 0 V
51 0 V
51 0 V
51 0 V
50 0 V
51 0 V
51 0 V
51 0 V
51 0 V
50 0 V
51 0 V
51 0 V
% End plot #4
stroke
2.000 UL
LTb
LCb setrgbcolor
1.000 UL
LTB
LCb setrgbcolor
1022 4899 N
0 -4451 V
5029 0 V
0 4451 V
-5029 0 V
Z stroke
1.000 UP
1.000 UL
LTb
LCb setrgbcolor
stroke
grestore
end
showpage
%%Trailer
%%DocumentFonts: Symbol roman Helvetica
