FFAG triplet. 150MeV machine
'OBJET'                                                                                                      1
1839.090113 150MeV
5
0.001 0.01 0.001 0.01 0.001 0.1
486.38972  0.  0.0  0. 0.   0.562925  !   50MeV
'PARTICUL'                                                                                                   2
PROTON
'SPNTRK'                                                                                                     3
4.1
0.0997496867163 0.0997496867163 0.99
'SPNPRT'                                                                                                     4
'PARTICUL'                                                                                                   5
938.27231  1.602e-19 0. 0. 0.
'FAISCEAU'                                                                                                   6
'FFAG'              #START                                                                                   7
0
3   30.     540.  1          NMAG, AT=tetaF+2tetaD+2Atan(XFF/R0), R0, type calc
6.465  0.  -14.308348  7.25 0. 0.     mag 1 : ACNT, dum, B0, K,dummies
4. 000                                        EFB 1 : lambda, iop=data option f
4  .1455   2.2670  -.6395  1.1558  0. 0.  0.
1.715 0.    1.E6  -1.E6  1.E6  1.E6
4. 000                                       EFB 2
4  .1455   2.2670  -.6395  1.1558  0. 0.  0.
-1.715  0.    1.E6  -1.E6  1.E6  1.E6
0. -1                                         EFB 3 : inhibited by iop=0
0  0.      0.      0.      0.      0. 0.  0.
0.  0.   0.    0.    0. 0.
15.   0.   17.16  7.58 0. 0.        mag 2 : ACNT, dum, B0, K,dummies
4. 000                                        EFB 1
4  .1455   2.2670  -.6395  1.1558  0. 0.  0.
5.12   0.    1.E6  -1.E6  1.E6  1.E6
4. 000                                       EFB 2
4  .1455   2.2670  -.6395  1.1558  0. 0.  0.
-5.12   0.    1.E6  -1.E6  1.E6  1.E6
0. -1                                         EFB 3
0  0.      0.      0.      0.      0. 0.  0.
0.  0.   0.    0.    0. 0.
23.535  0.  -14.308348  7.25  0. 0.    mag 3 : ACNT, dum, B0, K,dummies
4. 000                                         EFB 1
4  .1455   2.2670  -.6395  1.1558  0. 0.  0.
1.715 0.    1.E6  -1.E6  1.E6  1.E6
4. 000                                         EFB 2
4  .1455   2.2670  -.6395  1.1558  0. 0.  0.
-1.715  0.    1.E6  -1.E6  1.E6  1.E6
0. -1                                         EFB 3
0  0.      0.      0.      0.      0. 0.  0.
0.  0.   0.    0.    0. 0.
2  4.                            IRD(=2, 25 or 4), resol(=>step/*)
.5                                integration step size (cm)
2   0.  0. 0. 0.
'FAISCEAU'    #START                                                                                         8
 
'FIT'                                                                                                        9
2
1 30 0 .1
1 31 0 [-10.,10.]
2
3.1 1 2 #End 0. 1. 0
3.1 1 3 #End 0. 1. 0
 
'SPNPRT'                                                                                                    10
 
'MATRIX'                                                                                                    11
1 11
'END'                                                                                                        6

************************************************************************************************************************************
      1  Keyword, label(s) :  OBJET                                                                                    IPASS= 1

                          MAGNETIC  RIGIDITY =       1839.090 kG*cm

                                         CALCUL  DES  TRAJECTOIRES

                              OBJET  (5)  FORME  DE     13 POINTS 



                                 Y (cm)        T (mrd)       Z (cm)        P (mrd)       S (cm)        dp/p 
                   Sampling :    1.0000E-03    1.0000E-02    1.0000E-03    1.0000E-02    1.0000E-03    0.1000    
Reference trajectory #    1 :    4.8639E+02    0.0000E+00    0.0000E+00    0.0000E+00    0.0000E+00    0.5629    

************************************************************************************************************************************
      2  Keyword, label(s) :  PARTICUL                                                                                 IPASS= 1

     Particle  properties :
     PROTON
                     Mass          =    938.272        MeV/c2
                     Charge        =   1.602176E-19    C     
                     G  factor     =    1.79285              
                     COM life-time =   1.000000E+99    s     

              Reference  data :
                    mag. rigidity (kG.cm)   :   1839.0901      =p/q, such that dev.=B*L/rigidity
                    mass (MeV/c2)           :   938.27208    
                    momentum (MeV/c)        :   551.34535    
                    energy, total (MeV)     :   1088.2721    
                    energy, kinetic (MeV)   :   150.00003    
                    beta = v/c              :  0.5066245286    
                    gamma                   :   1.159868372    
                    beta*gamma              :  0.5876177672    
                    G*gamma                 :   2.079466937    
                    m / G                   :   523.3418681    
                    electric rigidity (MeV) :   279.3250757    =T[eV]*(gamma+1)/gamma, such that dev.=E*L/rigidity
  
 I, AMQ(1,I), AMQ(2,I)/QE, P/Pref, v/c, time, s :
  
     1   9.38272081E+02  1.00000000E+00  5.62925000E-01  3.14049239E-01  0.00000000E+00  0.00000000E+00
     2   9.38272081E+02  1.00000000E+00  5.62925000E-01  3.14049239E-01  0.00000000E+00  0.00000000E+00
     3   9.38272081E+02  1.00000000E+00  5.62925000E-01  3.14049239E-01  0.00000000E+00  0.00000000E+00
     4   9.38272081E+02  1.00000000E+00  5.62925000E-01  3.14049239E-01  0.00000000E+00  0.00000000E+00
     5   9.38272081E+02  1.00000000E+00  5.62925000E-01  3.14049239E-01  0.00000000E+00  0.00000000E+00
     6   9.38272081E+02  1.00000000E+00  5.62925000E-01  3.14049239E-01  0.00000000E+00  0.00000000E+00
     7   9.38272081E+02  1.00000000E+00  5.62925000E-01  3.14049239E-01  0.00000000E+00  0.00000000E+00
     8   9.38272081E+02  1.00000000E+00  5.62925000E-01  3.14049239E-01  0.00000000E+00  0.00000000E+00
     9   9.38272081E+02  1.00000000E+00  5.62925000E-01  3.14049239E-01  0.00000000E+00  0.00000000E+00
    10   9.38272081E+02  1.00000000E+00  6.62925000E-01  3.62978473E-01  0.00000000E+00  0.00000000E+00
    11   9.38272081E+02  1.00000000E+00  4.62925000E-01  2.62484778E-01  0.00000000E+00  0.00000000E+00
    12   9.38272081E+02  1.00000000E+00  5.62925000E-01  3.14049239E-01  1.06213948E-07  1.00000000E-03
    13   9.38272081E+02  1.00000000E+00  5.62925000E-01  3.14049239E-01 -1.06213948E-07 -1.00000000E-03

************************************************************************************************************************************
      3  Keyword, label(s) :  SPNTRK                                                                                   IPASS= 1


                Spin  tracking  requested.


                          Particle  mass          =    938.2721     MeV/c2
                          Gyromagnetic  factor  G =    1.792847    

                          Initial spin conditions type  4 :
                              KSO2=1. Same spin for all particles
                              Particles # 1 to 12 may be subjected to spin matching using FIT procedure

                          PARAMETRES  DYNAMIQUES  DE  REFERENCE :
                               BORO      =     1839.0901     kG*cm
                               beta      =    0.50662453    
                               gamma     =     1.1598684    
                               G*gamma   =     2.0794669    
                               M / G     =     523.3418681    


                          POLARISATION  INITIALE  MOYENNE  DU  FAISCEAU  DE       13  PARTICULES :
                               <SX> =     0.099750
                               <SY> =     0.099750
                               <SZ> =     0.990000
                               <S>  =     1.000000

************************************************************************************************************************************
      4  Keyword, label(s) :  SPNPRT                                                                                   IPASS= 1



                    ----------------------------------------------------------------------------------
                    Momentum  group  #1 (D=   5.629250E-01) ; average  over 13 particles at this pass : 

                   INITIAL                                           FINAL

      <SX>       <SY>       <SZ>       <|S|>            <SX>       <SY>       <SZ>      <|S|>    <G.gma>    <(SI,SF)>  sigma_(SI,SF)
                                                                                                               (deg)       (deg)
   0.099750   0.099750   0.990000   1.000000         0.099750   0.099750   0.990000   1.000000   1.888794   0.000000   0.000000


                Spin  components  of  each  of  the     13  particles,  and  rotation  angle :

                   INITIAL                                           FINAL

           SX        SY        SZ        |S|         SX        SY        SZ        |S|       GAMMA   |Si,Sf|   (Z,Sf_yz) (Z,Sf)
                                                                                                      (deg.)    (deg.)    (deg.)
                                                                                           (Sf_yz : projection of Sf on YZ plane)

 O  1  0.099750  0.099750  0.990000  1.000000     0.099750  0.099750  0.990000  1.000000      1.0533    0.000   45.145    8.110    1
 A  1  0.099750  0.099750  0.990000  1.000000     0.099750  0.099750  0.990000  1.000000      1.0533    0.000   45.145    8.110    2
 B  1  0.099750  0.099750  0.990000  1.000000     0.099750  0.099750  0.990000  1.000000      1.0533    0.000   45.145    8.110    3
 C  1  0.099750  0.099750  0.990000  1.000000     0.099750  0.099750  0.990000  1.000000      1.0533    0.000   45.145    8.110    4
 D  1  0.099750  0.099750  0.990000  1.000000     0.099750  0.099750  0.990000  1.000000      1.0533    0.000   45.145    8.110    5
 E  1  0.099750  0.099750  0.990000  1.000000     0.099750  0.099750  0.990000  1.000000      1.0533    0.000   45.145    8.110    6
 F  1  0.099750  0.099750  0.990000  1.000000     0.099750  0.099750  0.990000  1.000000      1.0533    0.000   45.145    8.110    7
 G  1  0.099750  0.099750  0.990000  1.000000     0.099750  0.099750  0.990000  1.000000      1.0533    0.000   45.145    8.110    8
 H  1  0.099750  0.099750  0.990000  1.000000     0.099750  0.099750  0.990000  1.000000      1.0533    0.000   45.145    8.110    9
 I  1  0.099750  0.099750  0.990000  1.000000     0.099750  0.099750  0.990000  1.000000      1.0732    0.000   45.145    8.110   10
 J  1  0.099750  0.099750  0.990000  1.000000     0.099750  0.099750  0.990000  1.000000      1.0363    0.000   45.145    8.110   11
 K  1  0.099750  0.099750  0.990000  1.000000     0.099750  0.099750  0.990000  1.000000      1.0533    0.000   45.145    8.110   12
 L  1  0.099750  0.099750  0.990000  1.000000     0.099750  0.099750  0.990000  1.000000      1.0533    0.000   45.145    8.110   13



                Min/Max  components  of  each  of  the     13  particles :

  SX_mi       SX_ma       SY_mi       SY_ma       SZ_mi       SZ_ma       |S|_mi      |S|_ma      p/p_0        GAMMA          I  IEX

  9.9750E-02  9.9750E-02  9.9750E-02  9.9750E-02  9.9000E-01  9.9000E-01  1.0000E+00  1.0000E+00  5.62925E-01  1.05329E+00     1   1
  9.9750E-02  9.9750E-02  9.9750E-02  9.9750E-02  9.9000E-01  9.9000E-01  1.0000E+00  1.0000E+00  5.62925E-01  1.05329E+00     2   1
  9.9750E-02  9.9750E-02  9.9750E-02  9.9750E-02  9.9000E-01  9.9000E-01  1.0000E+00  1.0000E+00  5.62925E-01  1.05329E+00     3   1
  9.9750E-02  9.9750E-02  9.9750E-02  9.9750E-02  9.9000E-01  9.9000E-01  1.0000E+00  1.0000E+00  5.62925E-01  1.05329E+00     4   1
  9.9750E-02  9.9750E-02  9.9750E-02  9.9750E-02  9.9000E-01  9.9000E-01  1.0000E+00  1.0000E+00  5.62925E-01  1.05329E+00     5   1
  9.9750E-02  9.9750E-02  9.9750E-02  9.9750E-02  9.9000E-01  9.9000E-01  1.0000E+00  1.0000E+00  5.62925E-01  1.05329E+00     6   1
  9.9750E-02  9.9750E-02  9.9750E-02  9.9750E-02  9.9000E-01  9.9000E-01  1.0000E+00  1.0000E+00  5.62925E-01  1.05329E+00     7   1
  9.9750E-02  9.9750E-02  9.9750E-02  9.9750E-02  9.9000E-01  9.9000E-01  1.0000E+00  1.0000E+00  5.62925E-01  1.05329E+00     8   1
  9.9750E-02  9.9750E-02  9.9750E-02  9.9750E-02  9.9000E-01  9.9000E-01  1.0000E+00  1.0000E+00  5.62925E-01  1.05329E+00     9   1
  9.9750E-02  9.9750E-02  9.9750E-02  9.9750E-02  9.9000E-01  9.9000E-01  1.0000E+00  1.0000E+00  6.62925E-01  1.07319E+00    10   1
  9.9750E-02  9.9750E-02  9.9750E-02  9.9750E-02  9.9000E-01  9.9000E-01  1.0000E+00  1.0000E+00  4.62925E-01  1.03634E+00    11   1
  9.9750E-02  9.9750E-02  9.9750E-02  9.9750E-02  9.9000E-01  9.9000E-01  1.0000E+00  1.0000E+00  5.62925E-01  1.05329E+00    12   1
  9.9750E-02  9.9750E-02  9.9750E-02  9.9750E-02  9.9000E-01  9.9000E-01  1.0000E+00  1.0000E+00  5.62925E-01  1.05329E+00    13   1

************************************************************************************************************************************
      5  Keyword, label(s) :  PARTICUL                                                                                 IPASS= 1


************************************************************************************************************************************
      6  Keyword, label(s) :  FAISCEAU                                                                                 IPASS= 1

0                                             TRACE DU FAISCEAU
                                           (follows element #      5)
                                                 13 TRAJECTOIRES

                                   OBJET                                                  FAISCEAU

          D       Y(cm)     T(mr)     Z(cm)     P(mr)       S(cm)      D-1     Y(cm)    T(mr)    Z(cm)    P(mr)      S(cm)

O   1   0.5629   486.390     0.000     0.000     0.000      0.0000  -0.4371  486.390    0.000    0.000    0.000   0.000000E+00     1
               Time of flight (mus) :   0.0000000     mass (MeV/c2) :   938.272    
A   1   0.5629   486.391     0.000     0.000     0.000      0.0000  -0.4371  486.391    0.000    0.000    0.000   0.000000E+00     2
               Time of flight (mus) :   0.0000000     mass (MeV/c2) :   938.272    
B   1   0.5629   486.389     0.000     0.000     0.000      0.0000  -0.4371  486.389    0.000    0.000    0.000   0.000000E+00     3
               Time of flight (mus) :   0.0000000     mass (MeV/c2) :   938.272    
C   1   0.5629   486.390     0.010     0.000     0.000      0.0000  -0.4371  486.390    0.010    0.000    0.000   0.000000E+00     4
               Time of flight (mus) :   0.0000000     mass (MeV/c2) :   938.272    
D   1   0.5629   486.390    -0.010     0.000     0.000      0.0000  -0.4371  486.390   -0.010    0.000    0.000   0.000000E+00     5
               Time of flight (mus) :   0.0000000     mass (MeV/c2) :   938.272    
E   1   0.5629   486.390     0.000     0.001     0.000      0.0000  -0.4371  486.390    0.000    0.001    0.000   0.000000E+00     6
               Time of flight (mus) :   0.0000000     mass (MeV/c2) :   938.272    
F   1   0.5629   486.390     0.000    -0.001     0.000      0.0000  -0.4371  486.390    0.000   -0.001    0.000   0.000000E+00     7
               Time of flight (mus) :   0.0000000     mass (MeV/c2) :   938.272    
G   1   0.5629   486.390     0.000     0.000     0.010      0.0000  -0.4371  486.390    0.000    0.000    0.010   0.000000E+00     8
               Time of flight (mus) :   0.0000000     mass (MeV/c2) :   938.272    
H   1   0.5629   486.390     0.000     0.000    -0.010      0.0000  -0.4371  486.390    0.000    0.000   -0.010   0.000000E+00     9
               Time of flight (mus) :   0.0000000     mass (MeV/c2) :   938.272    
I   1   0.6629   486.390     0.000     0.000     0.000      0.0000  -0.3371  486.390    0.000    0.000    0.000   0.000000E+00    10
               Time of flight (mus) :   0.0000000     mass (MeV/c2) :   938.272    
J   1   0.4629   486.390     0.000     0.000     0.000      0.0000  -0.5371  486.390    0.000    0.000    0.000   0.000000E+00    11
               Time of flight (mus) :   0.0000000     mass (MeV/c2) :   938.272    
K   1   0.5629   486.390     0.000     0.000     0.000      0.0010  -0.4371  486.390    0.000    0.000    0.000   1.000000E-03    12
               Time of flight (mus) :  1.06213948E-07 mass (MeV/c2) :   938.272    
L   1   0.5629   486.390     0.000     0.000     0.000     -0.0010  -0.4371  486.390    0.000    0.000    0.000  -1.000000E-03    13
               Time of flight (mus) : -1.06213948E-07 mass (MeV/c2) :   938.272    


---------------  Concentration ellipses : 
   surface/pi              alpha        beta         <X>            <XP>           numb. of prtcls   ratio      space      pass# 
                                                                                   in ellips,  out 
   1.5385E-11 [m.rad]     -0.0000E+00   1.0000E+00   4.863897E+00   0.000000E+00       13        9   0.6923      (Y,T)         1
   1.5385E-11 [m.rad]     -0.0000E+00   1.0000E+00   0.000000E+00   0.000000E+00       13        9   0.6923      (Z,P)         1
   2.8331E-07 [mu_s.MeV]  -0.0000E+00   6.1262E-09   0.000000E+00   5.021313E+01       13        9   0.6923      (t,K)         1

(Y,T)  space (units : m, rad   ) :  
      sigma_Y = sqrt(surface/pi * beta) =   3.922323E-06
      sigma_T = sqrt(surface/pi * (1+alpha^2)/beta) =   3.922323E-06

(Z,P)  space (units : m, rad   ) :  
      sigma_Z = sqrt(surface/pi * beta) =   3.922323E-06
      sigma_P = sqrt(surface/pi * (1+alpha^2)/beta) =   3.922323E-06

(t,K)  space (units : mu_s, MeV) :  
      sigma_t = sqrt(surface/pi * beta) =   4.166054E-08
      sigma_K = sqrt(surface/pi * (1+alpha^2)/beta) =   6.800380E+00


  Beam  sigma  matrix  and  determinants : 

   1.538462E-11   0.000000E+00   0.000000E+00   0.000000E+00
   0.000000E+00   1.538462E-11   0.000000E+00   0.000000E+00
   0.000000E+00   0.000000E+00   1.538462E-11   0.000000E+00
   0.000000E+00   0.000000E+00   0.000000E+00   1.538462E-11

      sqrt(det_Y), sqrt(det_Z) :     1.538462E-11    1.538462E-11    (Note :  sqrt(determinant) = ellipse surface / pi)
      normalized (*beta*gamma) :     9.040273E-12    9.040273E-12

************************************************************************************************************************************
      7  Keyword, label(s) :  FFAG        #START                                                                       IPASS= 1

                    FFAG  N-tuple,  number  of  dipoles,  N :  3

            Total angular extent of the magnet :  30.0000 Degres
            Reference geometrical radius R0  :     540.0000 cm

     Dipole # 1
            Positionning  angle ACENT :    6.46500     degrees
            Positionning  wrt.  R0  :    0.00000     cm
            B0 =  -14.308348     kGauss,       K =   7.2500    

     Entrance  EFB
          Fringe  field  :  gap at R0 is   4.00 cm,    type is :  constant   
           COEFFICIENTS :  4   0.14550   2.26700  -0.63950   1.15580   0.00000   0.00000
           Shift  of  EFB  is    0.000     cm

          OMEGA =   1.72 deg.     Wedge  angle  =   0.00 deg.
           Radius 1 =  1.00E+06 CM
           Straight  segment 1 = -1.00E+06 CM
           Straight  segment 2 =  1.00E+06 CM
           Radius 2 =  1.00E+06 CM

         Exit  EFB
          Fringe  field  :  gap at R0 is   4.00 cm,    type is :  constant   
           COEFFICIENTS :  4   0.14550   2.26700  -0.63950   1.15580   0.00000   0.00000
           Shift  of  EFB  is    0.000     cm

          OMEGA =  -1.72 deg.     Wedge  angle  =   0.00 deg.
           Radius 1 =  1.00E+06 CM
           Straight  segment 1 = -1.00E+06 CM
           Straight  segment 2 =  1.00E+06 CM
           Radius 2 =  1.00E+06 CM

         Lateral face :  unused

     Dipole # 2
            Positionning  angle ACENT :    15.0000     degrees
            Positionning  wrt.  R0  :    0.00000     cm
            B0 =   17.160000     kGauss,       K =   7.5800    

     Entrance  EFB
          Fringe  field  :  gap at R0 is   4.00 cm,    type is :  constant   
           COEFFICIENTS :  4   0.14550   2.26700  -0.63950   1.15580   0.00000   0.00000
           Shift  of  EFB  is    0.000     cm

          OMEGA =   5.12 deg.     Wedge  angle  =   0.00 deg.
           Radius 1 =  1.00E+06 CM
           Straight  segment 1 = -1.00E+06 CM
           Straight  segment 2 =  1.00E+06 CM
           Radius 2 =  1.00E+06 CM

         Exit  EFB
          Fringe  field  :  gap at R0 is   4.00 cm,    type is :  constant   
           COEFFICIENTS :  4   0.14550   2.26700  -0.63950   1.15580   0.00000   0.00000
           Shift  of  EFB  is    0.000     cm

          OMEGA =  -5.12 deg.     Wedge  angle  =   0.00 deg.
           Radius 1 =  1.00E+06 CM
           Straight  segment 1 = -1.00E+06 CM
           Straight  segment 2 =  1.00E+06 CM
           Radius 2 =  1.00E+06 CM

         Lateral face :  unused

     Dipole # 3
            Positionning  angle ACENT :    23.5350     degrees
            Positionning  wrt.  R0  :    0.00000     cm
            B0 =  -14.308348     kGauss,       K =   7.2500    

     Entrance  EFB
          Fringe  field  :  gap at R0 is   4.00 cm,    type is :  constant   
           COEFFICIENTS :  4   0.14550   2.26700  -0.63950   1.15580   0.00000   0.00000
           Shift  of  EFB  is    0.000     cm

          OMEGA =   1.72 deg.     Wedge  angle  =   0.00 deg.
           Radius 1 =  1.00E+06 CM
           Straight  segment 1 = -1.00E+06 CM
           Straight  segment 2 =  1.00E+06 CM
           Radius 2 =  1.00E+06 CM

         Exit  EFB
          Fringe  field  :  gap at R0 is   4.00 cm,    type is :  constant   
           COEFFICIENTS :  4   0.14550   2.26700  -0.63950   1.15580   0.00000   0.00000
           Shift  of  EFB  is    0.000     cm

          OMEGA =  -1.72 deg.     Wedge  angle  =   0.00 deg.
           Radius 1 =  1.00E+06 CM
           Straight  segment 1 = -1.00E+06 CM
           Straight  segment 2 =  1.00E+06 CM
           Radius 2 =  1.00E+06 CM

         Lateral face :  unused


     KIRD, resol :  2     4.000

     Field & deriv. calculation : interpolation
                    Order 2, 3*3-point  interpolation, size of flying mesh :  integration step /   4.000    

                    Integration step :  0.5000     cm   (i.e.,   9.2593E-04 rad  at mean radius RM =    540.0    )

                              AIMANT - KPOS = 2 ;  position of reference orbit on mechanical  faces
                                         at entrance    RE =   0.00000     cm  TE =   0.00000     rad
                                         at exit        RS =   0.00000     cm  TS =   0.00000     rad

  A    1  0.5629   486.390     0.000     0.000     0.000            0.524   486.390     0.000     0.000     0.000            1
  A    1  0.5629   486.391     0.000     0.000     0.000            0.524   486.389    -0.000     0.000     0.000            2
  A    1  0.5629   486.389     0.000     0.000     0.000            0.524   486.390     0.000     0.000     0.000            3
  A    1  0.5629   486.390     0.010     0.000     0.000            0.524   486.390    -0.000     0.000     0.000            4
  A    1  0.5629   486.390    -0.010     0.000     0.000            0.524   486.389     0.000     0.000     0.000            5
  A    1  0.5629   486.390     0.000     0.001     0.000            0.524   486.390     0.000     0.000    -0.000            6
  A    1  0.5629   486.390     0.000    -0.001     0.000            0.524   486.390     0.000    -0.000     0.000            7
  A    1  0.5629   486.390     0.000     0.000     0.010            0.524   486.390     0.000     0.002     0.000            8
  A    1  0.5629   486.390     0.000     0.000    -0.010            0.524   486.390     0.000    -0.002    -0.000            9
  A    1  0.6629   486.390     0.000     0.000     0.000            0.524   498.923     0.103     0.000     0.000           10
  A    1  0.4629   486.390     0.000     0.000     0.000            0.524   466.011    -0.167     0.000     0.000           11
  A    1  0.5629   486.390     0.000     0.000     0.000            0.524   486.390     0.000     0.000     0.000           12
  A    1  0.5629   486.390     0.000     0.000     0.000            0.524   486.390     0.000     0.000     0.000           13

 Cumulative length of optical axis =    2.93400800     m ;  Time  (for ref. rigidity & particle) =   1.931765E-08 s 

************************************************************************************************************************************
      8  Keyword, label(s) :  FAISCEAU    #START                                                                       IPASS= 1

0                                             TRACE DU FAISCEAU
                                           (follows element #      7)
                                                 13 TRAJECTOIRES

                                   OBJET                                                  FAISCEAU

          D       Y(cm)     T(mr)     Z(cm)     P(mr)       S(cm)      D-1     Y(cm)    T(mr)    Z(cm)    P(mr)      S(cm)

O   1   0.5629   486.390     0.000     0.000     0.000      0.0000  -0.4371  486.390    0.000    0.000    0.000   2.654735E+02     1
               Time of flight (mus) :  2.81969833E-02 mass (MeV/c2) :   938.272    
A   1   0.5629   486.391     0.000     0.000     0.000      0.0000  -0.4371  486.389   -0.013    0.000    0.000   2.654742E+02     2
               Time of flight (mus) :  2.81970596E-02 mass (MeV/c2) :   938.272    
B   1   0.5629   486.389     0.000     0.000     0.000      0.0000  -0.4371  486.390    0.013    0.000    0.000   2.654727E+02     3
               Time of flight (mus) :  2.81969069E-02 mass (MeV/c2) :   938.272    
C   1   0.5629   486.390     0.010     0.000     0.000      0.0000  -0.4371  486.390   -0.005    0.000    0.000   2.654743E+02     4
               Time of flight (mus) :  2.81970753E-02 mass (MeV/c2) :   938.272    
D   1   0.5629   486.390    -0.010     0.000     0.000      0.0000  -0.4371  486.389    0.006    0.000    0.000   2.654726E+02     5
               Time of flight (mus) :  2.81968912E-02 mass (MeV/c2) :   938.272    
E   1   0.5629   486.390     0.000     0.001     0.000      0.0000  -0.4371  486.390    0.000    0.000   -0.004   2.654735E+02     6
               Time of flight (mus) :  2.81969833E-02 mass (MeV/c2) :   938.272    
F   1   0.5629   486.390     0.000    -0.001     0.000      0.0000  -0.4371  486.390    0.000   -0.000    0.004   2.654735E+02     7
               Time of flight (mus) :  2.81969833E-02 mass (MeV/c2) :   938.272    
G   1   0.5629   486.390     0.000     0.000     0.010      0.0000  -0.4371  486.390    0.000    0.002    0.003   2.654735E+02     8
               Time of flight (mus) :  2.81969833E-02 mass (MeV/c2) :   938.272    
H   1   0.5629   486.390     0.000     0.000    -0.010      0.0000  -0.4371  486.390    0.000   -0.002   -0.003   2.654735E+02     9
               Time of flight (mus) :  2.81969833E-02 mass (MeV/c2) :   938.272    
I   1   0.6629   486.390     0.000     0.000     0.000      0.0000  -0.3371  498.923  103.438    0.000    0.000   2.646864E+02    10
               Time of flight (mus) :  2.43237229E-02 mass (MeV/c2) :   938.272    
J   1   0.4629   486.390     0.000     0.000     0.000      0.0000  -0.5371  466.011 -167.443    0.000    0.000   2.695811E+02    11
               Time of flight (mus) :  3.42582118E-02 mass (MeV/c2) :   938.272    
K   1   0.5629   486.390     0.000     0.000     0.000      0.0010  -0.4371  486.390    0.000    0.000    0.000   2.654745E+02    12
               Time of flight (mus) :  2.81970895E-02 mass (MeV/c2) :   938.272    
L   1   0.5629   486.390     0.000     0.000     0.000     -0.0010  -0.4371  486.390    0.000    0.000    0.000   2.654725E+02    13
               Time of flight (mus) :  2.81968770E-02 mass (MeV/c2) :   938.272    


---------------  Concentration ellipses : 
   surface/pi              alpha        beta         <X>            <XP>           numb. of prtcls   ratio      space      pass# 
                                                                                   in ellips,  out 
   6.6348E-06 [m.rad]     -5.4143E+02   6.5810E+02   4.857862E+00  -4.923445E-03       13       11   0.8462      (Y,T)         1
   1.5385E-11 [m.rad]     -6.7300E-01   5.5656E+00   0.000000E+00   0.000000E+00       13        9   0.6923      (Z,P)         1
   3.6510E-03 [mu_s.MeV]   3.5651E+00   1.0824E-03   2.836529E-02   5.021313E+01       13       11   0.8462      (t,K)         1

(Y,T)  space (units : m, rad   ) :  
      sigma_Y = sqrt(surface/pi * beta) =   6.607823E-02
      sigma_T = sqrt(surface/pi * (1+alpha^2)/beta) =   5.436445E-02

(Z,P)  space (units : m, rad   ) :  
      sigma_Z = sqrt(surface/pi * beta) =   9.253388E-06
      sigma_P = sqrt(surface/pi * (1+alpha^2)/beta) =   2.004046E-06

(t,K)  space (units : mu_s, MeV) :  
      sigma_t = sqrt(surface/pi * beta) =   1.987894E-03
      sigma_K = sqrt(surface/pi * (1+alpha^2)/beta) =   6.800380E+00


  Beam  sigma  matrix  and  determinants : 

   4.366333E-03   3.592300E-03   0.000000E+00   0.000000E+00
   3.592300E-03   2.955493E-03   0.000000E+00   0.000000E+00
   0.000000E+00   0.000000E+00   8.562518E-11   1.035380E-11
   0.000000E+00   0.000000E+00   1.035380E-11   4.016202E-12

      sqrt(det_Y), sqrt(det_Z) :     6.634790E-06    1.538463E-11    (Note :  sqrt(determinant) = ellipse surface / pi)
      normalized (*beta*gamma) :     3.898721E-06    9.040281E-12

************************************************************************************************************************************
      9  Keyword, label(s) :  FIT                                                                                      IPASS= 1

     Pgm main. FITING=.T., FIT procedure launched.

           variable #            1       IR =            1 ,   ok.
           variable #            1       IP =           30 ,   ok.
           variable #            2       IR =            1 ,   ok.
           variable #            2       IP =           31 ,   ok.
           constraint #            1       IR =            8 ,   ok.
           constraint #            1       I  =            1 ,   ok.
           constraint #            2       IR =            8 ,   ok.
           constraint #            2       I  =            1 ,   ok.

                    FIT  variables  and  constraints  in  good  order,  FIT  will proceed. 
 STATUS OF VARIABLES  (Iteration #     5 /    999 max.)
LMNT VAR PARAM  MINIMUM    INITIAL         FINAL         MAXIMUM     STEP        NAME   LBL1                 LBL2
   1   1    30    438.        486.       486.38972       535.      1.647E-05  OBJET      -                    -                   
   1   2    31   -10.0       2.032E-05  2.03221054E-05   10.0      3.387E-06  OBJET      -                    -                   
 STATUS OF CONSTRAINTS (Target penalty =   1.0000E-10)
TYPE  I   J LMNT#     DESIRED          WEIGHT         REACHED         KI2     NAME   LBL1                 LBL2      Nb param. [value]
  3   1   2     8    0.000000E+00    1.000E+00    6.438590E-06    9.94E-01 FAISCEAU   #START               -                    0
  3   1   3     8    0.000000E+00    1.000E+00    5.106806E-07    6.25E-03 FAISCEAU   #START               -                    0
 Fit reached penalty value   4.1716E-11



************************************************************************************************************************************

           MAIN PROGRAM :  FIT completed. Now doing a last run using variable values from FIT. 

************************************************************************************************************************************
      1  Keyword, label(s) :  OBJET                                                                                    IPASS= 1

                          MAGNETIC  RIGIDITY =       1839.090 kG*cm

                                         CALCUL  DES  TRAJECTOIRES

                              OBJET  (5)  FORME  DE     13 POINTS 



                                 Y (cm)        T (mrd)       Z (cm)        P (mrd)       S (cm)        dp/p 
                   Sampling :    1.0000E-03    1.0000E-02    1.0000E-03    1.0000E-02    1.0000E-03    0.1000    
Reference trajectory #    1 :    4.8639E+02    2.0322E-05    0.0000E+00    0.0000E+00    0.0000E+00    0.5629    

************************************************************************************************************************************
      2  Keyword, label(s) :  PARTICUL                                                                                 IPASS= 1


************************************************************************************************************************************
      3  Keyword, label(s) :  SPNTRK                                                                                   IPASS= 1


                Spin  tracking  requested.


                          Particle  mass          =    938.2721     MeV/c2
                          Gyromagnetic  factor  G =    1.792847    

                          Initial spin conditions type  4 :
                              KSO2=1. Same spin for all particles
                              Particles # 1 to 12 may be subjected to spin matching using FIT procedure

                          PARAMETRES  DYNAMIQUES  DE  REFERENCE :
                               BORO      =     1839.0901     kG*cm
                               beta      =    0.50662453    
                               gamma     =     1.1598684    
                               G*gamma   =     2.0794669    
                               M / G     =     523.3418681    


                          POLARISATION  INITIALE  MOYENNE  DU  FAISCEAU  DE       13  PARTICULES :
                               <SX> =     0.099750
                               <SY> =     0.099750
                               <SZ> =     0.990000
                               <S>  =     1.000000

************************************************************************************************************************************
      4  Keyword, label(s) :  SPNPRT                                                                                   IPASS= 1



                    ----------------------------------------------------------------------------------
                    Momentum  group  #1 (D=   5.629250E-01) ; average  over 13 particles at this pass : 

                   INITIAL                                           FINAL

      <SX>       <SY>       <SZ>       <|S|>            <SX>       <SY>       <SZ>      <|S|>    <G.gma>    <(SI,SF)>  sigma_(SI,SF)
                                                                                                               (deg)       (deg)
   0.099750   0.099750   0.990000   1.000000         0.099750   0.099750   0.990000   1.000000   1.888794   0.000000   0.000000


                Spin  components  of  each  of  the     13  particles,  and  rotation  angle :

                   INITIAL                                           FINAL

           SX        SY        SZ        |S|         SX        SY        SZ        |S|       GAMMA   |Si,Sf|   (Z,Sf_yz) (Z,Sf)
                                                                                                      (deg.)    (deg.)    (deg.)
                                                                                           (Sf_yz : projection of Sf on YZ plane)

 O  1  0.099750  0.099750  0.990000  1.000000     0.099750  0.099750  0.990000  1.000000      1.0533    0.000   45.145    8.110    1
 A  1  0.099750  0.099750  0.990000  1.000000     0.099750  0.099750  0.990000  1.000000      1.0533    0.000   45.145    8.110    2
 B  1  0.099750  0.099750  0.990000  1.000000     0.099750  0.099750  0.990000  1.000000      1.0533    0.000   45.145    8.110    3
 C  1  0.099750  0.099750  0.990000  1.000000     0.099750  0.099750  0.990000  1.000000      1.0533    0.000   45.145    8.110    4
 D  1  0.099750  0.099750  0.990000  1.000000     0.099750  0.099750  0.990000  1.000000      1.0533    0.000   45.145    8.110    5
 E  1  0.099750  0.099750  0.990000  1.000000     0.099750  0.099750  0.990000  1.000000      1.0533    0.000   45.145    8.110    6
 F  1  0.099750  0.099750  0.990000  1.000000     0.099750  0.099750  0.990000  1.000000      1.0533    0.000   45.145    8.110    7
 G  1  0.099750  0.099750  0.990000  1.000000     0.099750  0.099750  0.990000  1.000000      1.0533    0.000   45.145    8.110    8
 H  1  0.099750  0.099750  0.990000  1.000000     0.099750  0.099750  0.990000  1.000000      1.0533    0.000   45.145    8.110    9
 I  1  0.099750  0.099750  0.990000  1.000000     0.099750  0.099750  0.990000  1.000000      1.0732    0.000   45.145    8.110   10
 J  1  0.099750  0.099750  0.990000  1.000000     0.099750  0.099750  0.990000  1.000000      1.0363    0.000   45.145    8.110   11
 K  1  0.099750  0.099750  0.990000  1.000000     0.099750  0.099750  0.990000  1.000000      1.0533    0.000   45.145    8.110   12
 L  1  0.099750  0.099750  0.990000  1.000000     0.099750  0.099750  0.990000  1.000000      1.0533    0.000   45.145    8.110   13



                Min/Max  components  of  each  of  the     13  particles :

  SX_mi       SX_ma       SY_mi       SY_ma       SZ_mi       SZ_ma       |S|_mi      |S|_ma      p/p_0        GAMMA          I  IEX

  9.9750E-02  9.9750E-02  9.9750E-02  9.9750E-02  9.9000E-01  9.9000E-01  1.0000E+00  1.0000E+00  5.62925E-01  1.05329E+00     1   1
  9.9750E-02  9.9750E-02  9.9750E-02  9.9750E-02  9.9000E-01  9.9000E-01  1.0000E+00  1.0000E+00  5.62925E-01  1.05329E+00     2   1
  9.9750E-02  9.9750E-02  9.9750E-02  9.9750E-02  9.9000E-01  9.9000E-01  1.0000E+00  1.0000E+00  5.62925E-01  1.05329E+00     3   1
  9.9750E-02  9.9750E-02  9.9750E-02  9.9750E-02  9.9000E-01  9.9000E-01  1.0000E+00  1.0000E+00  5.62925E-01  1.05329E+00     4   1
  9.9750E-02  9.9750E-02  9.9750E-02  9.9750E-02  9.9000E-01  9.9000E-01  1.0000E+00  1.0000E+00  5.62925E-01  1.05329E+00     5   1
  9.9750E-02  9.9750E-02  9.9750E-02  9.9750E-02  9.9000E-01  9.9000E-01  1.0000E+00  1.0000E+00  5.62925E-01  1.05329E+00     6   1
  9.9750E-02  9.9750E-02  9.9750E-02  9.9750E-02  9.9000E-01  9.9000E-01  1.0000E+00  1.0000E+00  5.62925E-01  1.05329E+00     7   1
  9.9750E-02  9.9750E-02  9.9750E-02  9.9750E-02  9.9000E-01  9.9000E-01  1.0000E+00  1.0000E+00  5.62925E-01  1.05329E+00     8   1
  9.9750E-02  9.9750E-02  9.9750E-02  9.9750E-02  9.9000E-01  9.9000E-01  1.0000E+00  1.0000E+00  5.62925E-01  1.05329E+00     9   1
  9.9750E-02  9.9750E-02  9.9750E-02  9.9750E-02  9.9000E-01  9.9000E-01  1.0000E+00  1.0000E+00  6.62925E-01  1.07319E+00    10   1
  9.9750E-02  9.9750E-02  9.9750E-02  9.9750E-02  9.9000E-01  9.9000E-01  1.0000E+00  1.0000E+00  4.62925E-01  1.03634E+00    11   1
  9.9750E-02  9.9750E-02  9.9750E-02  9.9750E-02  9.9000E-01  9.9000E-01  1.0000E+00  1.0000E+00  5.62925E-01  1.05329E+00    12   1
  9.9750E-02  9.9750E-02  9.9750E-02  9.9750E-02  9.9000E-01  9.9000E-01  1.0000E+00  1.0000E+00  5.62925E-01  1.05329E+00    13   1

************************************************************************************************************************************
      5  Keyword, label(s) :  PARTICUL                                                                                 IPASS= 1


************************************************************************************************************************************
      6  Keyword, label(s) :  FAISCEAU                                                                                 IPASS= 1

0                                             TRACE DU FAISCEAU
                                           (follows element #      5)
                                                 13 TRAJECTOIRES

                                   OBJET                                                  FAISCEAU

          D       Y(cm)     T(mr)     Z(cm)     P(mr)       S(cm)      D-1     Y(cm)    T(mr)    Z(cm)    P(mr)      S(cm)

O   1   0.5629   486.390     0.000     0.000     0.000      0.0000  -0.4371  486.390    0.000    0.000    0.000   0.000000E+00     1
               Time of flight (mus) :   0.0000000     mass (MeV/c2) :   938.272    
A   1   0.5629   486.391     0.000     0.000     0.000      0.0000  -0.4371  486.391    0.000    0.000    0.000   0.000000E+00     2
               Time of flight (mus) :   0.0000000     mass (MeV/c2) :   938.272    
B   1   0.5629   486.389     0.000     0.000     0.000      0.0000  -0.4371  486.389    0.000    0.000    0.000   0.000000E+00     3
               Time of flight (mus) :   0.0000000     mass (MeV/c2) :   938.272    
C   1   0.5629   486.390     0.010     0.000     0.000      0.0000  -0.4371  486.390    0.010    0.000    0.000   0.000000E+00     4
               Time of flight (mus) :   0.0000000     mass (MeV/c2) :   938.272    
D   1   0.5629   486.390    -0.010     0.000     0.000      0.0000  -0.4371  486.390   -0.010    0.000    0.000   0.000000E+00     5
               Time of flight (mus) :   0.0000000     mass (MeV/c2) :   938.272    
E   1   0.5629   486.390     0.000     0.001     0.000      0.0000  -0.4371  486.390    0.000    0.001    0.000   0.000000E+00     6
               Time of flight (mus) :   0.0000000     mass (MeV/c2) :   938.272    
F   1   0.5629   486.390     0.000    -0.001     0.000      0.0000  -0.4371  486.390    0.000   -0.001    0.000   0.000000E+00     7
               Time of flight (mus) :   0.0000000     mass (MeV/c2) :   938.272    
G   1   0.5629   486.390     0.000     0.000     0.010      0.0000  -0.4371  486.390    0.000    0.000    0.010   0.000000E+00     8
               Time of flight (mus) :   0.0000000     mass (MeV/c2) :   938.272    
H   1   0.5629   486.390     0.000     0.000    -0.010      0.0000  -0.4371  486.390    0.000    0.000   -0.010   0.000000E+00     9
               Time of flight (mus) :   0.0000000     mass (MeV/c2) :   938.272    
I   1   0.6629   486.390     0.000     0.000     0.000      0.0000  -0.3371  486.390    0.000    0.000    0.000   0.000000E+00    10
               Time of flight (mus) :   0.0000000     mass (MeV/c2) :   938.272    
J   1   0.4629   486.390     0.000     0.000     0.000      0.0000  -0.5371  486.390    0.000    0.000    0.000   0.000000E+00    11
               Time of flight (mus) :   0.0000000     mass (MeV/c2) :   938.272    
K   1   0.5629   486.390     0.000     0.000     0.000      0.0010  -0.4371  486.390    0.000    0.000    0.000   1.000000E-03    12
               Time of flight (mus) :   0.0000000     mass (MeV/c2) :   938.272    
L   1   0.5629   486.390     0.000     0.000     0.000     -0.0010  -0.4371  486.390    0.000    0.000    0.000  -1.000000E-03    13
               Time of flight (mus) :   0.0000000     mass (MeV/c2) :   938.272    


---------------  Concentration ellipses : 
   surface/pi              alpha        beta         <X>            <XP>           numb. of prtcls   ratio      space      pass# 
                                                                                   in ellips,  out 
   1.5385E-11 [m.rad]     -1.4106E-27   1.0000E+00   4.863897E+00   2.032211E-08       13        9   0.6923      (Y,T)         1
   1.5385E-11 [m.rad]     -0.0000E+00   1.0000E+00   0.000000E+00   0.000000E+00       13        9   0.6923      (Z,P)         1
   0.0000E+00 [mu_s.MeV]   0.0000E+00   1.0000E+00   0.000000E+00   5.021313E+01       13        0    0.000      (t,K)         1

(Y,T)  space (units : m, rad   ) :  
      sigma_Y = sqrt(surface/pi * beta) =   3.922323E-06
      sigma_T = sqrt(surface/pi * (1+alpha^2)/beta) =   3.922323E-06

(Z,P)  space (units : m, rad   ) :  
      sigma_Z = sqrt(surface/pi * beta) =   3.922323E-06
      sigma_P = sqrt(surface/pi * (1+alpha^2)/beta) =   3.922323E-06

(t,K)  space (units : mu_s, MeV) :  
      sigma_t = sqrt(surface/pi * beta) =   0.000000E+00
      sigma_K = sqrt(surface/pi * (1+alpha^2)/beta) =   0.000000E+00


  Beam  sigma  matrix  and  determinants : 

   1.538462E-11   2.170143E-38   0.000000E+00   0.000000E+00
   2.170143E-38   1.538462E-11   0.000000E+00   0.000000E+00
   0.000000E+00   0.000000E+00   1.538462E-11   0.000000E+00
   0.000000E+00   0.000000E+00   0.000000E+00   1.538462E-11

      sqrt(det_Y), sqrt(det_Z) :     1.538462E-11    1.538462E-11    (Note :  sqrt(determinant) = ellipse surface / pi)
      normalized (*beta*gamma) :     9.040273E-12    9.040273E-12

************************************************************************************************************************************
      7  Keyword, label(s) :  FFAG        #START                                                                       IPASS= 1

                    FFAG  N-tuple,  number  of  dipoles,  N :  3

            Total angular extent of the magnet :  30.0000 Degres
            Reference geometrical radius R0  :     540.0000 cm

     Dipole # 1
            Positionning  angle ACENT :    6.46500     degrees
            Positionning  wrt.  R0  :    0.00000     cm
            B0 =  -14.308348     kGauss,       K =   7.2500    

     Entrance  EFB
          Fringe  field  :  gap at R0 is   4.00 cm,    type is :  constant   
           COEFFICIENTS :  4   0.14550   2.26700  -0.63950   1.15580   0.00000   0.00000
           Shift  of  EFB  is    0.000     cm

          OMEGA =   1.72 deg.     Wedge  angle  =   0.00 deg.
           Radius 1 =  1.00E+06 CM
           Straight  segment 1 = -1.00E+06 CM
           Straight  segment 2 =  1.00E+06 CM
           Radius 2 =  1.00E+06 CM

         Exit  EFB
          Fringe  field  :  gap at R0 is   4.00 cm,    type is :  constant   
           COEFFICIENTS :  4   0.14550   2.26700  -0.63950   1.15580   0.00000   0.00000
           Shift  of  EFB  is    0.000     cm

          OMEGA =  -1.72 deg.     Wedge  angle  =   0.00 deg.
           Radius 1 =  1.00E+06 CM
           Straight  segment 1 = -1.00E+06 CM
           Straight  segment 2 =  1.00E+06 CM
           Radius 2 =  1.00E+06 CM

         Lateral face :  unused

     Dipole # 2
            Positionning  angle ACENT :    15.0000     degrees
            Positionning  wrt.  R0  :    0.00000     cm
            B0 =   17.160000     kGauss,       K =   7.5800    

     Entrance  EFB
          Fringe  field  :  gap at R0 is   4.00 cm,    type is :  constant   
           COEFFICIENTS :  4   0.14550   2.26700  -0.63950   1.15580   0.00000   0.00000
           Shift  of  EFB  is    0.000     cm

          OMEGA =   5.12 deg.     Wedge  angle  =   0.00 deg.
           Radius 1 =  1.00E+06 CM
           Straight  segment 1 = -1.00E+06 CM
           Straight  segment 2 =  1.00E+06 CM
           Radius 2 =  1.00E+06 CM

         Exit  EFB
          Fringe  field  :  gap at R0 is   4.00 cm,    type is :  constant   
           COEFFICIENTS :  4   0.14550   2.26700  -0.63950   1.15580   0.00000   0.00000
           Shift  of  EFB  is    0.000     cm

          OMEGA =  -5.12 deg.     Wedge  angle  =   0.00 deg.
           Radius 1 =  1.00E+06 CM
           Straight  segment 1 = -1.00E+06 CM
           Straight  segment 2 =  1.00E+06 CM
           Radius 2 =  1.00E+06 CM

         Lateral face :  unused

     Dipole # 3
            Positionning  angle ACENT :    23.5350     degrees
            Positionning  wrt.  R0  :    0.00000     cm
            B0 =  -14.308348     kGauss,       K =   7.2500    

     Entrance  EFB
          Fringe  field  :  gap at R0 is   4.00 cm,    type is :  constant   
           COEFFICIENTS :  4   0.14550   2.26700  -0.63950   1.15580   0.00000   0.00000
           Shift  of  EFB  is    0.000     cm

          OMEGA =   1.72 deg.     Wedge  angle  =   0.00 deg.
           Radius 1 =  1.00E+06 CM
           Straight  segment 1 = -1.00E+06 CM
           Straight  segment 2 =  1.00E+06 CM
           Radius 2 =  1.00E+06 CM

         Exit  EFB
          Fringe  field  :  gap at R0 is   4.00 cm,    type is :  constant   
           COEFFICIENTS :  4   0.14550   2.26700  -0.63950   1.15580   0.00000   0.00000
           Shift  of  EFB  is    0.000     cm

          OMEGA =  -1.72 deg.     Wedge  angle  =   0.00 deg.
           Radius 1 =  1.00E+06 CM
           Straight  segment 1 = -1.00E+06 CM
           Straight  segment 2 =  1.00E+06 CM
           Radius 2 =  1.00E+06 CM

         Lateral face :  unused


     KIRD, resol :  2     4.000

     Field & deriv. calculation : interpolation
                    Order 2, 3*3-point  interpolation, size of flying mesh :  integration step /   4.000    

                    Integration step :  0.5000     cm   (i.e.,   9.2593E-04 rad  at mean radius RM =    540.0    )

                              AIMANT - KPOS = 2 ;  position of reference orbit on mechanical  faces
                                         at entrance    RE =   0.00000     cm  TE =   0.00000     rad
                                         at exit        RS =   0.00000     cm  TS =   0.00000     rad

  A    1  0.5629   486.390     0.000     0.000     0.000            0.524   486.390     0.000     0.000     0.000            1
  A    1  0.5629   486.391     0.000     0.000     0.000            0.524   486.389    -0.000     0.000     0.000            2
  A    1  0.5629   486.389     0.000     0.000     0.000            0.524   486.390     0.000     0.000     0.000            3
  A    1  0.5629   486.390     0.010     0.000     0.000            0.524   486.390    -0.000     0.000     0.000            4
  A    1  0.5629   486.390    -0.010     0.000     0.000            0.524   486.389     0.000     0.000     0.000            5
  A    1  0.5629   486.390     0.000     0.001     0.000            0.524   486.390     0.000     0.000    -0.000            6
  A    1  0.5629   486.390     0.000    -0.001     0.000            0.524   486.390     0.000    -0.000     0.000            7
  A    1  0.5629   486.390     0.000     0.000     0.010            0.524   486.390     0.000     0.002     0.000            8
  A    1  0.5629   486.390     0.000     0.000    -0.010            0.524   486.390     0.000    -0.002    -0.000            9
  A    1  0.6629   486.390     0.000     0.000     0.000            0.524   498.923     0.103     0.000     0.000           10
  A    1  0.4629   486.390     0.000     0.000     0.000            0.524   466.011    -0.167     0.000     0.000           11
  A    1  0.5629   486.390     0.000     0.000     0.000            0.524   486.390     0.000     0.000     0.000           12
  A    1  0.5629   486.390     0.000     0.000     0.000            0.524   486.390     0.000     0.000     0.000           13

 Cumulative length of optical axis =    2.93400800     m ;  Time  (for ref. rigidity & particle) =   1.931765E-08 s 

************************************************************************************************************************************
      8  Keyword, label(s) :  FAISCEAU    #START                                                                       IPASS= 1

0                                             TRACE DU FAISCEAU
                                           (follows element #      7)
                                                 13 TRAJECTOIRES

                                   OBJET                                                  FAISCEAU

          D       Y(cm)     T(mr)     Z(cm)     P(mr)       S(cm)      D-1     Y(cm)    T(mr)    Z(cm)    P(mr)      S(cm)

O   1   0.5629   486.390     0.000     0.000     0.000      0.0000  -0.4371  486.390    0.000    0.000    0.000   2.654735E+02     1
               Time of flight (mus) :  2.81969834E-02 mass (MeV/c2) :   938.272    
A   1   0.5629   486.391     0.000     0.000     0.000      0.0000  -0.4371  486.389   -0.013    0.000    0.000   2.654742E+02     2
               Time of flight (mus) :  2.81970598E-02 mass (MeV/c2) :   938.272    
B   1   0.5629   486.389     0.000     0.000     0.000      0.0000  -0.4371  486.390    0.013    0.000    0.000   2.654727E+02     3
               Time of flight (mus) :  2.81969071E-02 mass (MeV/c2) :   938.272    
C   1   0.5629   486.390     0.010     0.000     0.000      0.0000  -0.4371  486.390   -0.005    0.000    0.000   2.654743E+02     4
               Time of flight (mus) :  2.81970755E-02 mass (MeV/c2) :   938.272    
D   1   0.5629   486.390    -0.010     0.000     0.000      0.0000  -0.4371  486.389    0.006    0.000    0.000   2.654726E+02     5
               Time of flight (mus) :  2.81968914E-02 mass (MeV/c2) :   938.272    
E   1   0.5629   486.390     0.000     0.001     0.000      0.0000  -0.4371  486.390    0.000    0.000   -0.004   2.654735E+02     6
               Time of flight (mus) :  2.81969834E-02 mass (MeV/c2) :   938.272    
F   1   0.5629   486.390     0.000    -0.001     0.000      0.0000  -0.4371  486.390    0.000   -0.000    0.004   2.654735E+02     7
               Time of flight (mus) :  2.81969834E-02 mass (MeV/c2) :   938.272    
G   1   0.5629   486.390     0.000     0.000     0.010      0.0000  -0.4371  486.390    0.000    0.002    0.003   2.654735E+02     8
               Time of flight (mus) :  2.81969834E-02 mass (MeV/c2) :   938.272    
H   1   0.5629   486.390     0.000     0.000    -0.010      0.0000  -0.4371  486.390    0.000   -0.002   -0.003   2.654735E+02     9
               Time of flight (mus) :  2.81969834E-02 mass (MeV/c2) :   938.272    
I   1   0.6629   486.390     0.000     0.000     0.000      0.0000  -0.3371  498.923  103.438    0.000    0.000   2.646864E+02    10
               Time of flight (mus) :  2.43237231E-02 mass (MeV/c2) :   938.272    
J   1   0.4629   486.390     0.000     0.000     0.000      0.0000  -0.5371  466.011 -167.443    0.000    0.000   2.695811E+02    11
               Time of flight (mus) :  3.42582121E-02 mass (MeV/c2) :   938.272    
K   1   0.5629   486.390     0.000     0.000     0.000      0.0010  -0.4371  486.390    0.000    0.000    0.000   2.654745E+02    12
               Time of flight (mus) :  2.81969834E-02 mass (MeV/c2) :   938.272    
L   1   0.5629   486.390     0.000     0.000     0.000     -0.0010  -0.4371  486.390    0.000    0.000    0.000   2.654725E+02    13
               Time of flight (mus) :  2.81969834E-02 mass (MeV/c2) :   938.272    


---------------  Concentration ellipses : 
   surface/pi              alpha        beta         <X>            <XP>           numb. of prtcls   ratio      space      pass# 
                                                                                   in ellips,  out 
   6.6348E-06 [m.rad]     -5.4143E+02   6.5810E+02   4.857862E+00  -4.923456E-03       13       11   0.8462      (Y,T)         1
   1.5385E-11 [m.rad]     -6.7300E-01   5.5656E+00   0.000000E+00   0.000000E+00       13        9   0.6923      (Z,P)         1
   3.6510E-03 [mu_s.MeV]   3.5651E+00   1.0824E-03   2.836529E-02   5.021313E+01       13       11   0.8462      (t,K)         1

(Y,T)  space (units : m, rad   ) :  
      sigma_Y = sqrt(surface/pi * beta) =   6.607824E-02
      sigma_T = sqrt(surface/pi * (1+alpha^2)/beta) =   5.436445E-02

(Z,P)  space (units : m, rad   ) :  
      sigma_Z = sqrt(surface/pi * beta) =   9.253387E-06
      sigma_P = sqrt(surface/pi * (1+alpha^2)/beta) =   2.004046E-06

(t,K)  space (units : mu_s, MeV) :  
      sigma_t = sqrt(surface/pi * beta) =   1.987894E-03
      sigma_K = sqrt(surface/pi * (1+alpha^2)/beta) =   6.800380E+00


  Beam  sigma  matrix  and  determinants : 

   4.366333E-03   3.592301E-03   0.000000E+00   0.000000E+00
   3.592301E-03   2.955493E-03   0.000000E+00   0.000000E+00
   0.000000E+00   0.000000E+00   8.562518E-11   1.035380E-11
   0.000000E+00   0.000000E+00   1.035380E-11   4.016202E-12

      sqrt(det_Y), sqrt(det_Z) :     6.634798E-06    1.538463E-11    (Note :  sqrt(determinant) = ellipse surface / pi)
      normalized (*beta*gamma) :     3.898725E-06    9.040281E-12

************************************************************************************************************************************

      9   Keyword FIT[2] is skipped since this is the (end of) last run following the fitting procedure.

          Now carrying on beyond FIT keyword.


************************************************************************************************************************************
     10  Keyword, label(s) :  SPNPRT                                                                                   IPASS= 1



                    ----------------------------------------------------------------------------------
                    Momentum  group  #1 (D=   5.629250E-01) ; average  over 13 particles at this pass : 

                   INITIAL                                           FINAL

      <SX>       <SY>       <SZ>       <|S|>            <SX>       <SY>       <SZ>      <|S|>    <G.gma>    <(SI,SF)>  sigma_(SI,SF)
                                                                                                               (deg)       (deg)
   0.099750   0.099750   0.990000   1.000000         0.136254  -0.029940   0.990000   0.999781   1.888794   7.750859   1.027298


                Spin  components  of  each  of  the     13  particles,  and  rotation  angle :

                   INITIAL                                           FINAL

           SX        SY        SZ        |S|         SX        SY        SZ        |S|       GAMMA   |Si,Sf|   (Z,Sf_yz) (Z,Sf)
                                                                                                      (deg.)    (deg.)    (deg.)
                                                                                           (Sf_yz : projection of Sf on YZ plane)

 O  1  0.099750  0.099750  0.990000  1.000000     0.138160 -0.028490  0.990000  1.000000      1.0533    7.676   45.012    8.110    1
 A  1  0.099750  0.099750  0.990000  1.000000     0.138159 -0.028495  0.990000  1.000000      1.0533    7.676   45.012    8.110    2
 B  1  0.099750  0.099750  0.990000  1.000000     0.138162 -0.028485  0.990000  1.000000      1.0533    7.676   45.012    8.110    3
 C  1  0.099750  0.099750  0.990000  1.000000     0.138159 -0.028496  0.990000  1.000000      1.0533    7.676   45.012    8.110    4
 D  1  0.099750  0.099750  0.990000  1.000000     0.138162 -0.028484  0.990000  1.000000      1.0533    7.676   45.012    8.110    5
 E  1  0.099750  0.099750  0.990000  1.000000     0.138197 -0.028513  0.989994  1.000000      1.0533    7.678   45.012    8.112    6
 F  1  0.099750  0.099750  0.990000  1.000000     0.138124 -0.028467  0.990006  1.000000      1.0533    7.674   45.012    8.107    7
 G  1  0.099750  0.099750  0.990000  1.000000     0.138231 -0.028516  0.989989  1.000000      1.0533    7.678   45.012    8.114    8
 H  1  0.099750  0.099750  0.990000  1.000000     0.138090 -0.028464  0.990011  1.000000      1.0533    7.673   45.012    8.105    9
 I  1  0.099750  0.099750  0.990000  1.000000     0.140611  0.011332  0.990000  1.000000      1.0732    5.583   45.002    8.110   10
 J  1  0.099750  0.099750  0.990000  1.000000     0.110921 -0.087158  0.990000  1.000000      1.0363   10.744   45.111    8.110   11
 K  1  0.099750  0.099750  0.990000  1.000000     0.138160 -0.028490  0.990000  1.000000      1.0533    7.676   45.012    8.110   12
 L  1  0.099750  0.099750  0.990000  1.000000     0.138160 -0.028490  0.990000  1.000000      1.0533    7.676   45.012    8.110   13



                Min/Max  components  of  each  of  the     13  particles :

  SX_mi       SX_ma       SY_mi       SY_ma       SZ_mi       SZ_ma       |S|_mi      |S|_ma      p/p_0        GAMMA          I  IEX

  9.9750E-02  1.3816E-01 -2.8490E-02  9.9750E-02  9.9000E-01  9.9000E-01  1.0000E+00  1.0000E+00  5.62925E-01  1.05329E+00     1   1
  9.9750E-02  1.3816E-01 -2.8495E-02  9.9750E-02  9.9000E-01  9.9000E-01  1.0000E+00  1.0000E+00  5.62925E-01  1.05329E+00     2   1
  9.9750E-02  1.3816E-01 -2.8485E-02  9.9750E-02  9.9000E-01  9.9000E-01  1.0000E+00  1.0000E+00  5.62925E-01  1.05329E+00     3   1
  9.9750E-02  1.3816E-01 -2.8496E-02  9.9750E-02  9.9000E-01  9.9000E-01  1.0000E+00  1.0000E+00  5.62925E-01  1.05329E+00     4   1
  9.9750E-02  1.3816E-01 -2.8484E-02  9.9750E-02  9.9000E-01  9.9000E-01  1.0000E+00  1.0000E+00  5.62925E-01  1.05329E+00     5   1
  9.9750E-02  1.3820E-01 -2.8513E-02  9.9750E-02  9.8999E-01  9.9000E-01  1.0000E+00  1.0000E+00  5.62925E-01  1.05329E+00     6   1
  9.9750E-02  1.3812E-01 -2.8467E-02  9.9750E-02  9.9000E-01  9.9001E-01  1.0000E+00  1.0000E+00  5.62925E-01  1.05329E+00     7   1
  9.9750E-02  1.3823E-01 -2.8516E-02  9.9750E-02  9.8999E-01  9.9000E-01  1.0000E+00  1.0000E+00  5.62925E-01  1.05329E+00     8   1
  9.9750E-02  1.3809E-01 -2.8464E-02  9.9750E-02  9.9000E-01  9.9001E-01  1.0000E+00  1.0000E+00  5.62925E-01  1.05329E+00     9   1
  9.9750E-02  1.4061E-01  1.1332E-02  9.9750E-02  9.9000E-01  9.9000E-01  1.0000E+00  1.0000E+00  6.62925E-01  1.07319E+00    10   1
  9.9750E-02  1.1092E-01 -8.7158E-02  9.9750E-02  9.9000E-01  9.9000E-01  1.0000E+00  1.0000E+00  4.62925E-01  1.03634E+00    11   1
  9.9750E-02  1.3816E-01 -2.8490E-02  9.9750E-02  9.9000E-01  9.9000E-01  1.0000E+00  1.0000E+00  5.62925E-01  1.05329E+00    12   1
  9.9750E-02  1.3816E-01 -2.8490E-02  9.9750E-02  9.9000E-01  9.9000E-01  1.0000E+00  1.0000E+00  5.62925E-01  1.05329E+00    13   1

************************************************************************************************************************************
     11  Keyword, label(s) :  MATRIX                                                                                   IPASS= 1


  Reference, before change of frame (particle #  1  - D-1,Y,T,Z,s,time)  : 
  -4.37075000E-01   4.86389726E+02   2.08327859E-05   0.00000000E+00   0.00000000E+00   2.65473453E+02   2.81969834E-02

           Frame for MATRIX calculation moved by :
            XC =    0.000 cm , YC =  486.390 cm ,   A =  0.00000 deg  ( = 0.000000 rad )


  Reference, after change of frame (particle #  1  - D-1,Y,T,Z,s,time)  : 
  -4.37075000E-01   0.00000000E+00   0.00000000E+00   0.00000000E+00   0.00000000E+00   2.65473453E+02   2.81969834E-02

  Reference particle (#     1), path length :   265.47345     cm  relative momentum :   0.562925    


                  TRANSFER  MATRIX  ORDRE  1  (MKSA units)

         -0.549330        0.543461         0.00000         0.00000         0.00000        0.926333    
          -1.28480       -0.549330         0.00000         0.00000         0.00000        0.762428    
           0.00000         0.00000        0.344035         2.33394         0.00000         0.00000    
           0.00000         0.00000       -0.377748        0.344034         0.00000         0.00000    
          0.718736        0.866720         0.00000         0.00000         1.00000       -0.137769    
           0.00000         0.00000         0.00000         0.00000         0.00000         1.00000    

          DetY-1 =       0.0000001342,    DetZ-1 =       0.0000008278

          R12=0 at   0.9893     m,        R34=0 at   -6.784     m

      First order symplectic conditions (expected values = 0) :
         1.3418E-07    8.2778E-07     0.000         0.000         0.000         0.000    


                  G  MATRIX : 

         -1.057261E-03   -1.274946E-04    3.630598E-02    7.091105E-03     0.00000        8.356654E-02
         -5.127124E-03   -6.182772E-04   -2.316324E-02   -2.567311E-03     0.00000        0.277211    


                TWISS  parameters,  periodicity  of   1  is  assumed 
                                   -  COUPLED  -

       Beam  matrix  (beta/-alpha/-alpha/gamma) and  periodic  dispersion  (MKSA units)

           0.650379    -0.000000     0.000000     0.000000     0.000000     0.596886
          -0.000000     1.537564     0.000000     0.000000     0.000000    -0.002872
           0.000000     0.000000     2.485672    -0.000000     0.000000    -0.000000
           0.000000     0.000000    -0.000000     0.402306     0.000000     0.000000
           0.000000     0.000000     0.000000     0.000000     0.000000     0.000000
           0.000000     0.000000     0.000000     0.000000     0.000000     0.000000

                              Betatron  tunes  (Q1 Q2 modes)

                    NU_Y =  0.34255851         NU_Z =  0.19410318    


                                        ----------------------------------------
                                        -  EDWARDS AND TENG`S PARAMETRIZATION  -
                                        ----------------------------------------


      COUPLING PARAMETERS:
                           - r:     1.00240905
                           - C:
                                   0.00000000      0.00000000
                                   0.00000000      0.00000000

                                                                              MODE 1               MODE 2

      FRACTIONAL PART OF THE BETATRON TUNES IN THE DECOUPLED FRAME:        0.34255851           0.19410318

      EDWARDS-TENG`S PARAMETERS:
                                - ALPHA:                                    0.00000004           0.00000014
                                - BETA:                                     0.65037936           2.48567176
                                - GAMMA:                                    1.53756417           0.40230573

      HAMILTONIAN PERTURBATION PARAMETERS:

                           - DISTANCE FROM THE NEAREST DIFFERENCE LINEAR RESONANCE:     0.00000000
                           - COUPLING STRENGTH OF THE DIFFERENCE LINEAR RESONANCE:      0.00000000

                           - DISTANCE FROM THE NEAREST SUM LINEAR RESONANCE:            0.00000000
                           - UNPERTURBED HORIZONTAL TUNE:                               0.34255851
                           - UNPERTURBED VERTICAL TUNE:                                 0.19410318

      P MATRIX :

    8.6441601790E-01    3.1487994050E-17    0.0000000000E+00    0.0000000000E+00
   -5.5175812157E-08    1.3290950965E+00    0.0000000000E+00    0.0000000000E+00
    0.0000000000E+00    0.0000000000E+00    1.4708976638E+00    6.9819423201E-15
    0.0000000000E+00    0.0000000000E+00   -8.3524841586E-08    5.9175056349E-01

************************************************************************************************************************************
     12  Keyword, label(s) :  END                                                                                      IPASS= 1


                            13 particles have been launched
                     Made  it  to  the  end :     13

************************************************************************************************************************************
 Pgm zgoubi : Execution ended normally, upon keyword END or FIN
   
 File in:   K7.25-7.58_G-MATRIX.res
 File out:  zgoubi.res

  Zgoubi, author's Revision: 1590.
  Job  started  on  12-01-2022,  at  11:31:01 
  JOB  ENDED  ON    12-01-2022,  AT  11:31:02 

   CPU time, total :     1.3608669999999998     

     An updated version of the input data file, with variables in FIT'ed state, has been saved in zgoubi.FIT.out.dat.


************************************************************************************************************************************
