%!PS-Adobe-2.0 EPSF-2.0
%%Title: gnuplot_TWISS_btxy.eps
%%Creator: gnuplot 5.0 patchlevel 4
%%CreationDate: Sat May 13 21:01:34 2017
%%DocumentFonts: (atend)
%%BoundingBox: 50 50 285 191
%%EndComments
%%BeginProlog
/gnudict 256 dict def
gnudict begin
%
% The following true/false flags may be edited by hand if desired.
% The unit line width and grayscale image gamma correction may also be changed.
%
/Color true def
/Blacktext true def
/Solid false def
/Dashlength 1 def
/Landscape false def
/Level1 false def
/Level3 false def
/Rounded false def
/ClipToBoundingBox false def
/SuppressPDFMark false def
/TransparentPatterns false def
/gnulinewidth 5.000 def
/userlinewidth gnulinewidth def
/Gamma 1.0 def
/BackgroundColor {-1.000 -1.000 -1.000} def
%
/vshift -40 def
/dl1 {
  10.0 Dashlength userlinewidth gnulinewidth div mul mul mul
  Rounded { currentlinewidth 0.75 mul sub dup 0 le { pop 0.01 } if } if
} def
/dl2 {
  10.0 Dashlength userlinewidth gnulinewidth div mul mul mul
  Rounded { currentlinewidth 0.75 mul add } if
} def
/hpt_ 31.5 def
/vpt_ 31.5 def
/hpt hpt_ def
/vpt vpt_ def
/doclip {
  ClipToBoundingBox {
    newpath 50 50 moveto 285 50 lineto 285 191 lineto 50 191 lineto closepath
    clip
  } if
} def
%
% Gnuplot Prolog Version 5.1 (Oct 2015)
%
%/SuppressPDFMark true def
%
/M {moveto} bind def
/L {lineto} bind def
/R {rmoveto} bind def
/V {rlineto} bind def
/N {newpath moveto} bind def
/Z {closepath} bind def
/C {setrgbcolor} bind def
/f {rlineto fill} bind def
/g {setgray} bind def
/Gshow {show} def   % May be redefined later in the file to support UTF-8
/vpt2 vpt 2 mul def
/hpt2 hpt 2 mul def
/Lshow {currentpoint stroke M 0 vshift R 
	Blacktext {gsave 0 setgray textshow grestore} {textshow} ifelse} def
/Rshow {currentpoint stroke M dup stringwidth pop neg vshift R
	Blacktext {gsave 0 setgray textshow grestore} {textshow} ifelse} def
/Cshow {currentpoint stroke M dup stringwidth pop -2 div vshift R 
	Blacktext {gsave 0 setgray textshow grestore} {textshow} ifelse} def
/UP {dup vpt_ mul /vpt exch def hpt_ mul /hpt exch def
  /hpt2 hpt 2 mul def /vpt2 vpt 2 mul def} def
/DL {Color {setrgbcolor Solid {pop []} if 0 setdash}
 {pop pop pop 0 setgray Solid {pop []} if 0 setdash} ifelse} def
/BL {stroke userlinewidth 2 mul setlinewidth
	Rounded {1 setlinejoin 1 setlinecap} if} def
/AL {stroke userlinewidth 2 div setlinewidth
	Rounded {1 setlinejoin 1 setlinecap} if} def
/UL {dup gnulinewidth mul /userlinewidth exch def
	dup 1 lt {pop 1} if 10 mul /udl exch def} def
/PL {stroke userlinewidth setlinewidth
	Rounded {1 setlinejoin 1 setlinecap} if} def
3.8 setmiterlimit
% Classic Line colors (version 5.0)
/LCw {1 1 1} def
/LCb {0 0 0} def
/LCa {0 0 0} def
/LC0 {1 0 0} def
/LC1 {0 1 0} def
/LC2 {0 0 1} def
/LC3 {1 0 1} def
/LC4 {0 1 1} def
/LC5 {1 1 0} def
/LC6 {0 0 0} def
/LC7 {1 0.3 0} def
/LC8 {0.5 0.5 0.5} def
% Default dash patterns (version 5.0)
/LTB {BL [] LCb DL} def
/LTw {PL [] 1 setgray} def
/LTb {PL [] LCb DL} def
/LTa {AL [1 udl mul 2 udl mul] 0 setdash LCa setrgbcolor} def
/LT0 {PL [] LC0 DL} def
/LT1 {PL [2 dl1 3 dl2] LC1 DL} def
/LT2 {PL [1 dl1 1.5 dl2] LC2 DL} def
/LT3 {PL [6 dl1 2 dl2 1 dl1 2 dl2] LC3 DL} def
/LT4 {PL [1 dl1 2 dl2 6 dl1 2 dl2 1 dl1 2 dl2] LC4 DL} def
/LT5 {PL [4 dl1 2 dl2] LC5 DL} def
/LT6 {PL [1.5 dl1 1.5 dl2 1.5 dl1 1.5 dl2 1.5 dl1 6 dl2] LC6 DL} def
/LT7 {PL [3 dl1 3 dl2 1 dl1 3 dl2] LC7 DL} def
/LT8 {PL [2 dl1 2 dl2 2 dl1 6 dl2] LC8 DL} def
/SL {[] 0 setdash} def
/Pnt {stroke [] 0 setdash gsave 1 setlinecap M 0 0 V stroke grestore} def
/Dia {stroke [] 0 setdash 2 copy vpt add M
  hpt neg vpt neg V hpt vpt neg V
  hpt vpt V hpt neg vpt V closepath stroke
  Pnt} def
/Pls {stroke [] 0 setdash vpt sub M 0 vpt2 V
  currentpoint stroke M
  hpt neg vpt neg R hpt2 0 V stroke
 } def
/Box {stroke [] 0 setdash 2 copy exch hpt sub exch vpt add M
  0 vpt2 neg V hpt2 0 V 0 vpt2 V
  hpt2 neg 0 V closepath stroke
  Pnt} def
/Crs {stroke [] 0 setdash exch hpt sub exch vpt add M
  hpt2 vpt2 neg V currentpoint stroke M
  hpt2 neg 0 R hpt2 vpt2 V stroke} def
/TriU {stroke [] 0 setdash 2 copy vpt 1.12 mul add M
  hpt neg vpt -1.62 mul V
  hpt 2 mul 0 V
  hpt neg vpt 1.62 mul V closepath stroke
  Pnt} def
/Star {2 copy Pls Crs} def
/BoxF {stroke [] 0 setdash exch hpt sub exch vpt add M
  0 vpt2 neg V hpt2 0 V 0 vpt2 V
  hpt2 neg 0 V closepath fill} def
/TriUF {stroke [] 0 setdash vpt 1.12 mul add M
  hpt neg vpt -1.62 mul V
  hpt 2 mul 0 V
  hpt neg vpt 1.62 mul V closepath fill} def
/TriD {stroke [] 0 setdash 2 copy vpt 1.12 mul sub M
  hpt neg vpt 1.62 mul V
  hpt 2 mul 0 V
  hpt neg vpt -1.62 mul V closepath stroke
  Pnt} def
/TriDF {stroke [] 0 setdash vpt 1.12 mul sub M
  hpt neg vpt 1.62 mul V
  hpt 2 mul 0 V
  hpt neg vpt -1.62 mul V closepath fill} def
/DiaF {stroke [] 0 setdash vpt add M
  hpt neg vpt neg V hpt vpt neg V
  hpt vpt V hpt neg vpt V closepath fill} def
/Pent {stroke [] 0 setdash 2 copy gsave
  translate 0 hpt M 4 {72 rotate 0 hpt L} repeat
  closepath stroke grestore Pnt} def
/PentF {stroke [] 0 setdash gsave
  translate 0 hpt M 4 {72 rotate 0 hpt L} repeat
  closepath fill grestore} def
/Circle {stroke [] 0 setdash 2 copy
  hpt 0 360 arc stroke Pnt} def
/CircleF {stroke [] 0 setdash hpt 0 360 arc fill} def
/C0 {BL [] 0 setdash 2 copy moveto vpt 90 450 arc} bind def
/C1 {BL [] 0 setdash 2 copy moveto
	2 copy vpt 0 90 arc closepath fill
	vpt 0 360 arc closepath} bind def
/C2 {BL [] 0 setdash 2 copy moveto
	2 copy vpt 90 180 arc closepath fill
	vpt 0 360 arc closepath} bind def
/C3 {BL [] 0 setdash 2 copy moveto
	2 copy vpt 0 180 arc closepath fill
	vpt 0 360 arc closepath} bind def
/C4 {BL [] 0 setdash 2 copy moveto
	2 copy vpt 180 270 arc closepath fill
	vpt 0 360 arc closepath} bind def
/C5 {BL [] 0 setdash 2 copy moveto
	2 copy vpt 0 90 arc
	2 copy moveto
	2 copy vpt 180 270 arc closepath fill
	vpt 0 360 arc} bind def
/C6 {BL [] 0 setdash 2 copy moveto
	2 copy vpt 90 270 arc closepath fill
	vpt 0 360 arc closepath} bind def
/C7 {BL [] 0 setdash 2 copy moveto
	2 copy vpt 0 270 arc closepath fill
	vpt 0 360 arc closepath} bind def
/C8 {BL [] 0 setdash 2 copy moveto
	2 copy vpt 270 360 arc closepath fill
	vpt 0 360 arc closepath} bind def
/C9 {BL [] 0 setdash 2 copy moveto
	2 copy vpt 270 450 arc closepath fill
	vpt 0 360 arc closepath} bind def
/C10 {BL [] 0 setdash 2 copy 2 copy moveto vpt 270 360 arc closepath fill
	2 copy moveto
	2 copy vpt 90 180 arc closepath fill
	vpt 0 360 arc closepath} bind def
/C11 {BL [] 0 setdash 2 copy moveto
	2 copy vpt 0 180 arc closepath fill
	2 copy moveto
	2 copy vpt 270 360 arc closepath fill
	vpt 0 360 arc closepath} bind def
/C12 {BL [] 0 setdash 2 copy moveto
	2 copy vpt 180 360 arc closepath fill
	vpt 0 360 arc closepath} bind def
/C13 {BL [] 0 setdash 2 copy moveto
	2 copy vpt 0 90 arc closepath fill
	2 copy moveto
	2 copy vpt 180 360 arc closepath fill
	vpt 0 360 arc closepath} bind def
/C14 {BL [] 0 setdash 2 copy moveto
	2 copy vpt 90 360 arc closepath fill
	vpt 0 360 arc} bind def
/C15 {BL [] 0 setdash 2 copy vpt 0 360 arc closepath fill
	vpt 0 360 arc closepath} bind def
/Rec {newpath 4 2 roll moveto 1 index 0 rlineto 0 exch rlineto
	neg 0 rlineto closepath} bind def
/Square {dup Rec} bind def
/Bsquare {vpt sub exch vpt sub exch vpt2 Square} bind def
/S0 {BL [] 0 setdash 2 copy moveto 0 vpt rlineto BL Bsquare} bind def
/S1 {BL [] 0 setdash 2 copy vpt Square fill Bsquare} bind def
/S2 {BL [] 0 setdash 2 copy exch vpt sub exch vpt Square fill Bsquare} bind def
/S3 {BL [] 0 setdash 2 copy exch vpt sub exch vpt2 vpt Rec fill Bsquare} bind def
/S4 {BL [] 0 setdash 2 copy exch vpt sub exch vpt sub vpt Square fill Bsquare} bind def
/S5 {BL [] 0 setdash 2 copy 2 copy vpt Square fill
	exch vpt sub exch vpt sub vpt Square fill Bsquare} bind def
/S6 {BL [] 0 setdash 2 copy exch vpt sub exch vpt sub vpt vpt2 Rec fill Bsquare} bind def
/S7 {BL [] 0 setdash 2 copy exch vpt sub exch vpt sub vpt vpt2 Rec fill
	2 copy vpt Square fill Bsquare} bind def
/S8 {BL [] 0 setdash 2 copy vpt sub vpt Square fill Bsquare} bind def
/S9 {BL [] 0 setdash 2 copy vpt sub vpt vpt2 Rec fill Bsquare} bind def
/S10 {BL [] 0 setdash 2 copy vpt sub vpt Square fill 2 copy exch vpt sub exch vpt Square fill
	Bsquare} bind def
/S11 {BL [] 0 setdash 2 copy vpt sub vpt Square fill 2 copy exch vpt sub exch vpt2 vpt Rec fill
	Bsquare} bind def
/S12 {BL [] 0 setdash 2 copy exch vpt sub exch vpt sub vpt2 vpt Rec fill Bsquare} bind def
/S13 {BL [] 0 setdash 2 copy exch vpt sub exch vpt sub vpt2 vpt Rec fill
	2 copy vpt Square fill Bsquare} bind def
/S14 {BL [] 0 setdash 2 copy exch vpt sub exch vpt sub vpt2 vpt Rec fill
	2 copy exch vpt sub exch vpt Square fill Bsquare} bind def
/S15 {BL [] 0 setdash 2 copy Bsquare fill Bsquare} bind def
/D0 {gsave translate 45 rotate 0 0 S0 stroke grestore} bind def
/D1 {gsave translate 45 rotate 0 0 S1 stroke grestore} bind def
/D2 {gsave translate 45 rotate 0 0 S2 stroke grestore} bind def
/D3 {gsave translate 45 rotate 0 0 S3 stroke grestore} bind def
/D4 {gsave translate 45 rotate 0 0 S4 stroke grestore} bind def
/D5 {gsave translate 45 rotate 0 0 S5 stroke grestore} bind def
/D6 {gsave translate 45 rotate 0 0 S6 stroke grestore} bind def
/D7 {gsave translate 45 rotate 0 0 S7 stroke grestore} bind def
/D8 {gsave translate 45 rotate 0 0 S8 stroke grestore} bind def
/D9 {gsave translate 45 rotate 0 0 S9 stroke grestore} bind def
/D10 {gsave translate 45 rotate 0 0 S10 stroke grestore} bind def
/D11 {gsave translate 45 rotate 0 0 S11 stroke grestore} bind def
/D12 {gsave translate 45 rotate 0 0 S12 stroke grestore} bind def
/D13 {gsave translate 45 rotate 0 0 S13 stroke grestore} bind def
/D14 {gsave translate 45 rotate 0 0 S14 stroke grestore} bind def
/D15 {gsave translate 45 rotate 0 0 S15 stroke grestore} bind def
/DiaE {stroke [] 0 setdash vpt add M
  hpt neg vpt neg V hpt vpt neg V
  hpt vpt V hpt neg vpt V closepath stroke} def
/BoxE {stroke [] 0 setdash exch hpt sub exch vpt add M
  0 vpt2 neg V hpt2 0 V 0 vpt2 V
  hpt2 neg 0 V closepath stroke} def
/TriUE {stroke [] 0 setdash vpt 1.12 mul add M
  hpt neg vpt -1.62 mul V
  hpt 2 mul 0 V
  hpt neg vpt 1.62 mul V closepath stroke} def
/TriDE {stroke [] 0 setdash vpt 1.12 mul sub M
  hpt neg vpt 1.62 mul V
  hpt 2 mul 0 V
  hpt neg vpt -1.62 mul V closepath stroke} def
/PentE {stroke [] 0 setdash gsave
  translate 0 hpt M 4 {72 rotate 0 hpt L} repeat
  closepath stroke grestore} def
/CircE {stroke [] 0 setdash 
  hpt 0 360 arc stroke} def
/Opaque {gsave closepath 1 setgray fill grestore 0 setgray closepath} def
/DiaW {stroke [] 0 setdash vpt add M
  hpt neg vpt neg V hpt vpt neg V
  hpt vpt V hpt neg vpt V Opaque stroke} def
/BoxW {stroke [] 0 setdash exch hpt sub exch vpt add M
  0 vpt2 neg V hpt2 0 V 0 vpt2 V
  hpt2 neg 0 V Opaque stroke} def
/TriUW {stroke [] 0 setdash vpt 1.12 mul add M
  hpt neg vpt -1.62 mul V
  hpt 2 mul 0 V
  hpt neg vpt 1.62 mul V Opaque stroke} def
/TriDW {stroke [] 0 setdash vpt 1.12 mul sub M
  hpt neg vpt 1.62 mul V
  hpt 2 mul 0 V
  hpt neg vpt -1.62 mul V Opaque stroke} def
/PentW {stroke [] 0 setdash gsave
  translate 0 hpt M 4 {72 rotate 0 hpt L} repeat
  Opaque stroke grestore} def
/CircW {stroke [] 0 setdash 
  hpt 0 360 arc Opaque stroke} def
/BoxFill {gsave Rec 1 setgray fill grestore} def
/Density {
  /Fillden exch def
  currentrgbcolor
  /ColB exch def /ColG exch def /ColR exch def
  /ColR ColR Fillden mul Fillden sub 1 add def
  /ColG ColG Fillden mul Fillden sub 1 add def
  /ColB ColB Fillden mul Fillden sub 1 add def
  ColR ColG ColB setrgbcolor} def
/BoxColFill {gsave Rec PolyFill} def
/PolyFill {gsave Density fill grestore grestore} def
/h {rlineto rlineto rlineto gsave closepath fill grestore} bind def
%
% PostScript Level 1 Pattern Fill routine for rectangles
% Usage: x y w h s a XX PatternFill
%	x,y = lower left corner of box to be filled
%	w,h = width and height of box
%	  a = angle in degrees between lines and x-axis
%	 XX = 0/1 for no/yes cross-hatch
%
/PatternFill {gsave /PFa [ 9 2 roll ] def
  PFa 0 get PFa 2 get 2 div add PFa 1 get PFa 3 get 2 div add translate
  PFa 2 get -2 div PFa 3 get -2 div PFa 2 get PFa 3 get Rec
  TransparentPatterns {} {gsave 1 setgray fill grestore} ifelse
  clip
  currentlinewidth 0.5 mul setlinewidth
  /PFs PFa 2 get dup mul PFa 3 get dup mul add sqrt def
  0 0 M PFa 5 get rotate PFs -2 div dup translate
  0 1 PFs PFa 4 get div 1 add floor cvi
	{PFa 4 get mul 0 M 0 PFs V} for
  0 PFa 6 get ne {
	0 1 PFs PFa 4 get div 1 add floor cvi
	{PFa 4 get mul 0 2 1 roll M PFs 0 V} for
 } if
  stroke grestore} def
%
/languagelevel where
 {pop languagelevel} {1} ifelse
dup 2 lt
	{/InterpretLevel1 true def
	 /InterpretLevel3 false def}
	{/InterpretLevel1 Level1 def
	 2 gt
	    {/InterpretLevel3 Level3 def}
	    {/InterpretLevel3 false def}
	 ifelse }
 ifelse
%
% PostScript level 2 pattern fill definitions
%
/Level2PatternFill {
/Tile8x8 {/PaintType 2 /PatternType 1 /TilingType 1 /BBox [0 0 8 8] /XStep 8 /YStep 8}
	bind def
/KeepColor {currentrgbcolor [/Pattern /DeviceRGB] setcolorspace} bind def
<< Tile8x8
 /PaintProc {0.5 setlinewidth pop 0 0 M 8 8 L 0 8 M 8 0 L stroke} 
>> matrix makepattern
/Pat1 exch def
<< Tile8x8
 /PaintProc {0.5 setlinewidth pop 0 0 M 8 8 L 0 8 M 8 0 L stroke
	0 4 M 4 8 L 8 4 L 4 0 L 0 4 L stroke}
>> matrix makepattern
/Pat2 exch def
<< Tile8x8
 /PaintProc {0.5 setlinewidth pop 0 0 M 0 8 L
	8 8 L 8 0 L 0 0 L fill}
>> matrix makepattern
/Pat3 exch def
<< Tile8x8
 /PaintProc {0.5 setlinewidth pop -4 8 M 8 -4 L
	0 12 M 12 0 L stroke}
>> matrix makepattern
/Pat4 exch def
<< Tile8x8
 /PaintProc {0.5 setlinewidth pop -4 0 M 8 12 L
	0 -4 M 12 8 L stroke}
>> matrix makepattern
/Pat5 exch def
<< Tile8x8
 /PaintProc {0.5 setlinewidth pop -2 8 M 4 -4 L
	0 12 M 8 -4 L 4 12 M 10 0 L stroke}
>> matrix makepattern
/Pat6 exch def
<< Tile8x8
 /PaintProc {0.5 setlinewidth pop -2 0 M 4 12 L
	0 -4 M 8 12 L 4 -4 M 10 8 L stroke}
>> matrix makepattern
/Pat7 exch def
<< Tile8x8
 /PaintProc {0.5 setlinewidth pop 8 -2 M -4 4 L
	12 0 M -4 8 L 12 4 M 0 10 L stroke}
>> matrix makepattern
/Pat8 exch def
<< Tile8x8
 /PaintProc {0.5 setlinewidth pop 0 -2 M 12 4 L
	-4 0 M 12 8 L -4 4 M 8 10 L stroke}
>> matrix makepattern
/Pat9 exch def
/Pattern1 {PatternBgnd KeepColor Pat1 setpattern} bind def
/Pattern2 {PatternBgnd KeepColor Pat2 setpattern} bind def
/Pattern3 {PatternBgnd KeepColor Pat3 setpattern} bind def
/Pattern4 {PatternBgnd KeepColor Landscape {Pat5} {Pat4} ifelse setpattern} bind def
/Pattern5 {PatternBgnd KeepColor Landscape {Pat4} {Pat5} ifelse setpattern} bind def
/Pattern6 {PatternBgnd KeepColor Landscape {Pat9} {Pat6} ifelse setpattern} bind def
/Pattern7 {PatternBgnd KeepColor Landscape {Pat8} {Pat7} ifelse setpattern} bind def
} def
%
%
%End of PostScript Level 2 code
%
/PatternBgnd {
  TransparentPatterns {} {gsave 1 setgray fill grestore} ifelse
} def
%
% Substitute for Level 2 pattern fill codes with
% grayscale if Level 2 support is not selected.
%
/Level1PatternFill {
/Pattern1 {0.250 Density} bind def
/Pattern2 {0.500 Density} bind def
/Pattern3 {0.750 Density} bind def
/Pattern4 {0.125 Density} bind def
/Pattern5 {0.375 Density} bind def
/Pattern6 {0.625 Density} bind def
/Pattern7 {0.875 Density} bind def
} def
%
% Now test for support of Level 2 code
%
Level1 {Level1PatternFill} {Level2PatternFill} ifelse
%
/Symbol-Oblique /Symbol findfont [1 0 .167 1 0 0] makefont
dup length dict begin {1 index /FID eq {pop pop} {def} ifelse} forall
currentdict end definefont pop
%
/MFshow {
   { dup 5 get 3 ge
     { 5 get 3 eq {gsave} {grestore} ifelse }
     {dup dup 0 get findfont exch 1 get scalefont setfont
     [ currentpoint ] exch dup 2 get 0 exch R dup 5 get 2 ne {dup dup 6
     get exch 4 get {textshow} {stringwidth pop 0 R} ifelse }if dup 5 get 0 eq
     {dup 3 get {2 get neg 0 exch R pop} {pop aload pop M} ifelse} {dup 5
     get 1 eq {dup 2 get exch dup 3 get exch 6 get stringwidth pop -2 div
     dup 0 R} {dup 6 get stringwidth pop -2 div 0 R 6 get
     textshow 2 index {aload pop M neg 3 -1 roll neg R pop pop} {pop pop pop
     pop aload pop M} ifelse }ifelse }ifelse }
     ifelse }
   forall} def
/Gswidth {dup type /stringtype eq {stringwidth} {pop (n) stringwidth} ifelse} def
/MFwidth {0 exch { dup 5 get 3 ge { 5 get 3 eq { 0 } { pop } ifelse }
 {dup 3 get{dup dup 0 get findfont exch 1 get scalefont setfont
     6 get Gswidth pop add} {pop} ifelse} ifelse} forall} def
/MLshow { currentpoint stroke M
  0 exch R
  Blacktext {gsave 0 setgray MFshow grestore} {MFshow} ifelse } bind def
/MRshow { currentpoint stroke M
  exch dup MFwidth neg 3 -1 roll R
  Blacktext {gsave 0 setgray MFshow grestore} {MFshow} ifelse } bind def
/MCshow { currentpoint stroke M
  exch dup MFwidth -2 div 3 -1 roll R
  Blacktext {gsave 0 setgray MFshow grestore} {MFshow} ifelse } bind def
/XYsave    { [( ) 1 2 true false 3 ()] } bind def
/XYrestore { [( ) 1 2 true false 4 ()] } bind def
Level1 SuppressPDFMark or 
{} {
/SDict 10 dict def
systemdict /pdfmark known not {
  userdict /pdfmark systemdict /cleartomark get put
} if
SDict begin [
  /Title (gnuplot_TWISS_btxy.eps)
  /Subject (gnuplot plot)
  /Creator (gnuplot 5.0 patchlevel 4)
%  /Producer (gnuplot)
%  /Keywords ()
  /CreationDate (Sat May 13 21:01:34 2017)
  /DOCINFO pdfmark
end
} ifelse
%
% Support for boxed text - Ethan A Merritt May 2005
%
/InitTextBox { userdict /TBy2 3 -1 roll put userdict /TBx2 3 -1 roll put
           userdict /TBy1 3 -1 roll put userdict /TBx1 3 -1 roll put
	   /Boxing true def } def
/ExtendTextBox { Boxing
    { gsave dup false charpath pathbbox
      dup TBy2 gt {userdict /TBy2 3 -1 roll put} {pop} ifelse
      dup TBx2 gt {userdict /TBx2 3 -1 roll put} {pop} ifelse
      dup TBy1 lt {userdict /TBy1 3 -1 roll put} {pop} ifelse
      dup TBx1 lt {userdict /TBx1 3 -1 roll put} {pop} ifelse
      grestore } if } def
/PopTextBox { newpath TBx1 TBxmargin sub TBy1 TBymargin sub M
               TBx1 TBxmargin sub TBy2 TBymargin add L
	       TBx2 TBxmargin add TBy2 TBymargin add L
	       TBx2 TBxmargin add TBy1 TBymargin sub L closepath } def
/DrawTextBox { PopTextBox stroke /Boxing false def} def
/FillTextBox { gsave PopTextBox 1 1 1 setrgbcolor fill grestore /Boxing false def} def
0 0 0 0 InitTextBox
/TBxmargin 20 def
/TBymargin 20 def
/Boxing false def
/textshow { ExtendTextBox Gshow } def
%
% redundant definitions for compatibility with prologue.ps older than 5.0.2
/LTB {BL [] LCb DL} def
/LTb {PL [] LCb DL} def
end
%%EndProlog
%%Page: 1 1
gnudict begin
gsave
doclip
50 50 translate
0.050 0.050 scale
0 setgray
newpath
(Times-Roman) findfont 120 scalefont setfont
BackgroundColor 0 lt 3 1 roll 0 lt exch 0 lt or or not {BackgroundColor C 1.000 0 0 4704.00 2834.00 BoxColFill} if
1.000 UL
LTb
LCb setrgbcolor
0.500 UL
LTa
LCa setrgbcolor
516 384 M
3419 0 V
stroke
1.000 UL
LTb
LCb setrgbcolor
516 384 M
63 0 V
stroke
444 384 M
[ [(roman) 120.0 0.0 true true 0 ( 0)]
] -40.0 MRshow
1.000 UL
LTb
LCb setrgbcolor
0.500 UL
LTa
LCa setrgbcolor
516 706 M
3419 0 V
stroke
1.000 UL
LTb
LCb setrgbcolor
516 706 M
63 0 V
stroke
444 706 M
[ [(roman) 120.0 0.0 true true 0 ( 5)]
] -40.0 MRshow
1.000 UL
LTb
LCb setrgbcolor
0.500 UL
LTa
LCa setrgbcolor
516 1027 M
3419 0 V
stroke
1.000 UL
LTb
LCb setrgbcolor
516 1027 M
63 0 V
stroke
444 1027 M
[ [(roman) 120.0 0.0 true true 0 ( 10)]
] -40.0 MRshow
1.000 UL
LTb
LCb setrgbcolor
0.500 UL
LTa
LCa setrgbcolor
516 1349 M
3419 0 V
stroke
1.000 UL
LTb
LCb setrgbcolor
516 1349 M
63 0 V
stroke
444 1349 M
[ [(roman) 120.0 0.0 true true 0 ( 15)]
] -40.0 MRshow
1.000 UL
LTb
LCb setrgbcolor
0.500 UL
LTa
LCa setrgbcolor
516 1670 M
3419 0 V
stroke
1.000 UL
LTb
LCb setrgbcolor
516 1670 M
63 0 V
stroke
444 1670 M
[ [(roman) 120.0 0.0 true true 0 ( 20)]
] -40.0 MRshow
1.000 UL
LTb
LCb setrgbcolor
0.500 UL
LTa
LCa setrgbcolor
516 1992 M
3419 0 V
stroke
1.000 UL
LTb
LCb setrgbcolor
516 1992 M
63 0 V
stroke
444 1992 M
[ [(roman) 120.0 0.0 true true 0 ( 25)]
] -40.0 MRshow
1.000 UL
LTb
LCb setrgbcolor
0.500 UL
LTa
LCa setrgbcolor
516 2313 M
3419 0 V
stroke
1.000 UL
LTb
LCb setrgbcolor
516 2313 M
63 0 V
stroke
444 2313 M
[ [(roman) 120.0 0.0 true true 0 ( 30)]
] -40.0 MRshow
1.000 UL
LTb
LCb setrgbcolor
0.500 UL
LTa
LCa setrgbcolor
516 384 M
0 1929 V
stroke
1.000 UL
LTb
LCb setrgbcolor
516 384 M
0 63 V
stroke
516 264 M
[ [(roman) 120.0 0.0 true true 0 ( 0)]
] -40.0 MCshow
1.000 UL
LTb
LCb setrgbcolor
0.500 UL
LTa
LCa setrgbcolor
967 384 M
0 63 V
0 120 R
0 1746 V
stroke
1.000 UL
LTb
LCb setrgbcolor
967 384 M
0 63 V
stroke
967 264 M
[ [(roman) 120.0 0.0 true true 0 ( 100)]
] -40.0 MCshow
1.000 UL
LTb
LCb setrgbcolor
0.500 UL
LTa
LCa setrgbcolor
1418 384 M
0 63 V
0 120 R
0 1746 V
stroke
1.000 UL
LTb
LCb setrgbcolor
1418 384 M
0 63 V
stroke
1418 264 M
[ [(roman) 120.0 0.0 true true 0 ( 200)]
] -40.0 MCshow
1.000 UL
LTb
LCb setrgbcolor
0.500 UL
LTa
LCa setrgbcolor
1869 384 M
0 63 V
0 120 R
0 1746 V
stroke
1.000 UL
LTb
LCb setrgbcolor
1869 384 M
0 63 V
stroke
1869 264 M
[ [(roman) 120.0 0.0 true true 0 ( 300)]
] -40.0 MCshow
1.000 UL
LTb
LCb setrgbcolor
0.500 UL
LTa
LCa setrgbcolor
2320 384 M
0 63 V
0 120 R
0 1746 V
stroke
1.000 UL
LTb
LCb setrgbcolor
2320 384 M
0 63 V
stroke
2320 264 M
[ [(roman) 120.0 0.0 true true 0 ( 400)]
] -40.0 MCshow
1.000 UL
LTb
LCb setrgbcolor
0.500 UL
LTa
LCa setrgbcolor
2771 384 M
0 63 V
0 120 R
0 1746 V
stroke
1.000 UL
LTb
LCb setrgbcolor
2771 384 M
0 63 V
stroke
2771 264 M
[ [(roman) 120.0 0.0 true true 0 ( 500)]
] -40.0 MCshow
1.000 UL
LTb
LCb setrgbcolor
0.500 UL
LTa
LCa setrgbcolor
3222 384 M
0 1929 V
stroke
1.000 UL
LTb
LCb setrgbcolor
3222 384 M
0 63 V
stroke
3222 264 M
[ [(roman) 120.0 0.0 true true 0 ( 600)]
] -40.0 MCshow
1.000 UL
LTb
LCb setrgbcolor
0.500 UL
LTa
LCa setrgbcolor
3673 384 M
0 1929 V
stroke
1.000 UL
LTb
LCb setrgbcolor
3673 384 M
0 63 V
stroke
3673 264 M
[ [(roman) 120.0 0.0 true true 0 ( 700)]
] -40.0 MCshow
1.000 UL
LTb
LCb setrgbcolor
3935 384 M
-63 0 V
stroke
4007 384 M
[ [(roman) 120.0 0.0 true true 0 ( 0)]
] -40.0 MLshow
1.000 UL
LTb
LCb setrgbcolor
3935 660 M
-63 0 V
stroke
4007 660 M
[ [(roman) 120.0 0.0 true true 0 ( 0.5)]
] -40.0 MLshow
1.000 UL
LTb
LCb setrgbcolor
3935 935 M
-63 0 V
stroke
4007 935 M
[ [(roman) 120.0 0.0 true true 0 ( 1)]
] -40.0 MLshow
1.000 UL
LTb
LCb setrgbcolor
3935 1211 M
-63 0 V
stroke
4007 1211 M
[ [(roman) 120.0 0.0 true true 0 ( 1.5)]
] -40.0 MLshow
1.000 UL
LTb
LCb setrgbcolor
3935 1486 M
-63 0 V
stroke
4007 1486 M
[ [(roman) 120.0 0.0 true true 0 ( 2)]
] -40.0 MLshow
1.000 UL
LTb
LCb setrgbcolor
3935 1762 M
-63 0 V
stroke
4007 1762 M
[ [(roman) 120.0 0.0 true true 0 ( 2.5)]
] -40.0 MLshow
1.000 UL
LTb
LCb setrgbcolor
3935 2037 M
-63 0 V
stroke
4007 2037 M
[ [(roman) 120.0 0.0 true true 0 ( 3)]
] -40.0 MLshow
1.000 UL
LTb
LCb setrgbcolor
3935 2313 M
-63 0 V
stroke
4007 2313 M
[ [(roman) 120.0 0.0 true true 0 ( 3.5)]
] -40.0 MLshow
1.000 UL
LTb
LCb setrgbcolor
516 2313 M
0 -63 V
516 384 M
0 63 V
stroke
516 2433 M
[ [(roman) 120.0 0.0 true true 0 ( 0)]
] -40.0 MCshow
1.000 UL
LTb
LCb setrgbcolor
943 2313 M
0 -63 V
943 384 M
0 63 V
stroke
943 2433 M
[ [(roman) 120.0 0.0 true true 0 ( 100)]
] -40.0 MCshow
1.000 UL
LTb
LCb setrgbcolor
1371 2313 M
0 -63 V
0 -1866 R
0 63 V
stroke
1371 2433 M
[ [(roman) 120.0 0.0 true true 0 ( 200)]
] -40.0 MCshow
1.000 UL
LTb
LCb setrgbcolor
1798 2313 M
0 -63 V
0 -1866 R
0 63 V
stroke
1798 2433 M
[ [(roman) 120.0 0.0 true true 0 ( 300)]
] -40.0 MCshow
1.000 UL
LTb
LCb setrgbcolor
2226 2313 M
0 -63 V
0 -1866 R
0 63 V
stroke
2226 2433 M
[ [(roman) 120.0 0.0 true true 0 ( 400)]
] -40.0 MCshow
1.000 UL
LTb
LCb setrgbcolor
2653 2313 M
0 -63 V
0 -1866 R
0 63 V
stroke
2653 2433 M
[ [(roman) 120.0 0.0 true true 0 ( 500)]
] -40.0 MCshow
1.000 UL
LTb
LCb setrgbcolor
3080 2313 M
0 -63 V
0 -1866 R
0 63 V
stroke
3080 2433 M
[ [(roman) 120.0 0.0 true true 0 ( 600)]
] -40.0 MCshow
1.000 UL
LTb
LCb setrgbcolor
3508 2313 M
0 -63 V
0 -1866 R
0 63 V
stroke
3508 2433 M
[ [(roman) 120.0 0.0 true true 0 ( 700)]
] -40.0 MCshow
1.000 UL
LTb
LCb setrgbcolor
3935 2313 M
0 -63 V
0 -1866 R
0 63 V
stroke
3935 2433 M
[ [(roman) 120.0 0.0 true true 0 ( 800)]
] -40.0 MCshow
1.000 UL
LTb
LCb setrgbcolor
1.000 UL
LTB
LCb setrgbcolor
516 2313 N
516 384 L
3419 0 V
0 1929 V
-3419 0 V
Z stroke
1.000 UP
1.000 UL
LTb
LCb setrgbcolor
LCb setrgbcolor
96 1348 M
currentpoint gsave translate -270 rotate 0 0 moveto
[ [(Symbol) 130.0 0.0 true true 0 (b)]
[(roman) 104.0 -39.0 true true 0 (x)]
[(roman) 130.0 0.0 true true 0 (, )]
[(Symbol) 130.0 0.0 true true 0 (b)]
[(roman) 104.0 -39.0 true true 0 (y)]
[(roman) 130.0 0.0 true true 0 ( [m])]
] -30.3 MCshow
grestore
LTb
LCb setrgbcolor
4426 1348 M
currentpoint gsave translate -270 rotate 0 0 moveto
[ [(Symbol) 130.0 0.0 true true 0 (h)]
[(roman) 104.0 -39.0 true true 0 (x)]
[(roman) 130.0 0.0 true true 0 (, )]
[(Symbol) 130.0 0.0 true true 0 (h)]
[(roman) 104.0 -39.0 true true 0 (y)]
] -30.3 MCshow
grestore
LTb
LCb setrgbcolor
2225 84 M
[ [(roman) 160.0 0.0 true true 0 (s [m])]
] -53.3 MCshow
LTb
LCb setrgbcolor
2225 2773 M
[ [(roman) 160.0 0.0 true true 0 (Optical functions, from zgoubi.TWISS.out)]
] -53.3 MCshow
% Begin plot #1
1.000 UL
LTb
0.58 0.00 0.83 C LCb setrgbcolor
948 507 M
[ [(Symbol) 120.0 0.0 true true 0 (b)]
[(roman) 96.0 -36.0 true true 0 (x)]
] -28.0 MRshow
1.000 UL
LTb
0.58 0.00 0.83 C 1020 507 M
135 0 V
516 1889 M
1 -2 V
15 -576 V
1 -70 V
1 -66 V
548 780 L
1 -3 V
1 -1 V
15 308 V
0 35 V
1 37 V
15 476 V
1 5 V
2 6 V
15 -415 V
0 -36 V
1 -35 V
615 866 L
1 4 V
1 5 V
14 456 V
1 48 V
1 49 V
14 600 V
2 -1 V
2 0 V
14 -608 V
1 -50 V
1 -48 V
681 863 L
1 -3 V
0 -3 V
15 271 V
2 91 V
2 98 V
14 401 V
1 -5 V
0 -5 V
15 -555 V
1 -62 V
1 -58 V
747 702 L
2 0 V
1 2 V
14 361 V
1 62 V
1 65 V
2 137 V
13 310 V
1 -39 V
3 -94 V
11 -312 V
807 984 L
2 -36 V
1 -13 V
13 311 V
2 142 V
1 78 V
1 80 V
14 604 V
1 -5 V
2 -5 V
14 -700 V
1 -82 V
1 -79 V
875 783 L
1 -8 V
1 -7 V
14 222 V
1 46 V
1 48 V
15 394 V
1 1 V
1 1 V
14 -372 V
2 -47 V
1 -46 V
941 798 L
1 8 V
1 9 V
15 513 V
1 81 V
1 84 V
14 704 V
1 3 V
1 3 V
15 -645 V
1 -84 V
1 -80 V
15 -499 V
1 -7 V
1 -6 V
14 264 V
1 52 V
1 54 V
15 381 V
1 -7 V
1 -6 V
14 -504 V
1 -56 V
2 -53 V
14 -294 V
1 3 V
1 3 V
15 402 V
1 67 V
1 70 V
14 625 V
1 8 V
1 8 V
15 -473 V
1 -67 V
1 -65 V
14 -365 V
1 1 V
2 2 V
14 413 V
1 71 V
1 73 V
15 528 V
1 -8 V
1 -7 V
14 -667 V
1 -75 V
1 -73 V
15 -447 V
1 -6 V
1 -4 V
14 255 V
2 49 V
1 52 V
14 451 V
1 5 V
1 4 V
15 -364 V
1 -51 V
1 -48 V
14 -234 V
1 7 V
1 9 V
15 515 V
1 83 V
1 85 V
15 680 V
1 -1 V
1 0 V
14 -690 V
1 -86 V
1 -82 V
15 -518 V
1 -9 V
23 82 V
3 143 V
1 144 V
2 160 V
3 158 V
23 -56 V
1 2 V
14 -361 V
1 -47 V
2 -45 V
14 -212 V
1 8 V
1 9 V
15 525 V
1 83 V
1 86 V
14 712 V
1 2 V
1 3 V
15 -665 V
1 -86 V
1 -82 V
14 -513 V
1 -8 V
2 -7 V
14 249 V
1 50 V
1 52 V
15 369 V
1 -7 V
1 -6 V
stroke 1530 1584 M
14 -487 V
1 -54 V
1 -52 V
15 -278 V
1 4 V
1 4 V
14 420 V
2 69 V
1 72 V
14 647 V
1 8 V
1 8 V
15 -489 V
1 -69 V
1 -67 V
14 -382 V
1 0 V
1 1 V
15 402 V
1 69 V
1 72 V
15 512 V
1 -8 V
1 -8 V
14 -664 V
1 -74 V
1 -71 V
15 -439 V
1 -6 V
1 -4 V
14 262 V
1 50 V
2 52 V
14 465 V
1 6 V
1 6 V
15 -362 V
1 -51 V
1 -48 V
14 -237 V
1 8 V
1 8 V
15 521 V
1 82 V
1 87 V
14 679 V
1 -1 V
2 -2 V
14 -706 V
1 -86 V
1 -84 V
15 -527 V
1 -9 V
1 -8 V
14 216 V
1 45 V
1 48 V
15 357 V
1 -3 V
1 -3 V
14 -415 V
2 -49 V
1 -46 V
14 -230 V
1 6 V
1 8 V
15 481 V
1 77 V
1 80 V
2 169 V
12 355 V
1 -51 V
3 -125 V
11 -423 V
11 -301 V
3 -56 V
1 -20 V
12 208 V
2 116 V
1 62 V
2 65 V
14 456 V
1 -8 V
1 -8 V
15 -605 V
1 -67 V
1 -65 V
14 -383 V
1 -3 V
1 -1 V
15 310 V
1 56 V
1 58 V
14 523 V
1 5 V
1 4 V
14 -394 V
2 -94 V
2 -88 V
14 -255 V
1 3 V
1 4 V
14 466 V
1 48 V
stroke 2104 1358 M
1 50 V
14 626 V
2 3 V
2 4 V
14 -590 V
1 -50 V
1 -48 V
14 -455 V
1 -5 V
1 -3 V
15 303 V
0 37 V
1 37 V
15 420 V
1 -9 V
2 -7 V
15 -504 V
0 -39 V
1 -37 V
15 -327 V
1 0 V
1 2 V
14 371 V
1 63 V
1 66 V
15 555 V
1 4 V
1 3 V
14 -492 V
1 -65 V
2 -63 V
14 -355 V
1 0 V
1 1 V
15 378 V
1 65 V
1 68 V
14 517 V
1 -3 V
1 -3 V
15 -575 V
1 -68 V
1 -66 V
14 -391 V
2 -3 V
1 -2 V
14 310 V
1 56 V
1 59 V
15 483 V
1 2 V
1 2 V
14 -449 V
1 -57 V
1 -56 V
15 -302 V
1 3 V
1 4 V
14 419 V
2 70 V
1 72 V
14 580 V
1 0 V
1 0 V
15 -583 V
1 -73 V
1 -69 V
2 -127 V
12 -277 V
1 11 V
3 33 V
11 207 V
11 328 V
3 101 V
1 42 V
12 -239 V
2 -126 V
2 -59 V
1 -57 V
14 -316 V
1 1 V
1 2 V
15 382 V
1 65 V
1 67 V
14 569 V
1 4 V
1 4 V
15 -502 V
1 -66 V
1 -64 V
14 -366 V
2 0 V
1 1 V
14 370 V
1 64 V
1 67 V
15 506 V
1 -3 V
1 -4 V
14 -573 V
1 -68 V
1 -65 V
15 -386 V
stroke 2679 768 M
1 -3 V
1 -1 V
15 313 V
1 56 V
1 59 V
14 491 V
1 3 V
1 2 V
15 -444 V
1 -58 V
1 -56 V
14 -302 V
1 3 V
2 4 V
14 423 V
1 70 V
1 73 V
15 581 V
1 -1 V
1 -1 V
14 -594 V
1 -73 V
1 -71 V
15 -426 V
1 -4 V
1 -3 V
14 291 V
2 54 V
1 56 V
14 443 V
1 -2 V
1 -1 V
15 -465 V
1 -57 V
1 -55 V
14 -296 V
1 2 V
1 4 V
15 408 V
1 68 V
1 70 V
14 591 V
2 3 V
1 3 V
14 -537 V
1 -70 V
1 -67 V
15 -395 V
1 -3 V
1 -1 V
14 339 V
1 61 V
1 62 V
15 475 V
1 -4 V
1 -4 V
15 -542 V
1 -64 V
1 -62 V
14 -355 V
1 -1 V
1 0 V
15 341 V
1 59 V
1 62 V
14 527 V
1 3 V
7 26 V
15 115 V
2 13 V
2 -207 V
2 -212 V
1 -192 V
3 -193 V
1 -14 V
11 -167 V
11 -65 V
2 0 V
14 354 V
1 62 V
1 65 V
15 490 V
1 -3 V
1 -3 V
14 -556 V
1 -65 V
1 -63 V
15 -370 V
1 -2 V
1 0 V
14 328 V
2 58 V
1 61 V
14 509 V
1 3 V
1 3 V
15 -456 V
1 -60 V
1 -58 V
14 -315 V
1 2 V
1 3 V
15 412 V
1 69 V
stroke 3250 1322 M
1 72 V
14 563 V
2 -1 V
1 -2 V
14 -590 V
1 -72 V
1 -70 V
15 -418 V
1 -4 V
1 -3 V
14 294 V
1 55 V
1 56 V
15 452 V
1 -1 V
1 0 V
15 -458 V
1 -57 V
1 -54 V
14 -296 V
1 3 V
1 3 V
15 413 V
1 69 V
1 71 V
14 590 V
1 2 V
2 2 V
14 -551 V
1 -71 V
1 -68 V
15 -403 V
1 -3 V
1 -2 V
14 326 V
1 59 V
1 61 V
15 465 V
1 -4 V
1 -3 V
14 -524 V
2 -62 V
1 -59 V
14 -341 V
1 0 V
1 1 V
15 357 V
1 61 V
1 64 V
14 542 V
1 3 V
1 4 V
15 -478 V
1 -63 V
1 -61 V
14 -341 V
2 1 V
1 2 V
14 391 V
1 67 V
1 69 V
15 534 V
1 -3 V
1 -2 V
14 -585 V
1 -70 V
1 -67 V
2 -122 V
13 -267 V
1 10 V
3 32 V
11 207 V
11 338 V
2 104 V
2 44 V
12 -208 V
2 -121 V
1 -57 V
1 -55 V
15 -298 V
1 3 V
1 3 V
14 413 V
1 69 V
1 71 V
15 586 V
1 1 V
1 2 V
14 -556 V
2 -71 V
1 -68 V
14 -405 V
1 -3 V
1 -2 V
15 322 V
1 58 V
1 60 V
14 462 V
1 -3 V
1 -2 V
15 -515 V
1 -62 V
1 -58 V
15 -335 V
stroke 3825 764 M
1 0 V
1 2 V
14 364 V
1 62 V
1 65 V
15 548 V
1 3 V
1 3 V
14 -487 V
1 -64 V
2 -61 V
14 -349 V
1 0 V
1 2 V
15 382 V
1 65 V
1 69 V
14 524 V
1 -3 V
% End plot #1
% Begin plot #2
stroke
LTb
0.34 0.71 0.91 C LCb setrgbcolor
1587 507 M
[ [(Symbol) 120.0 0.0 true true 0 (b)]
[(roman) 96.0 -36.0 true true 0 (y)]
] -28.0 MRshow
1.000 UL
LTb
0.34 0.71 0.91 C 1659 507 M
135 0 V
516 829 M
1 5 V
15 444 V
1 72 V
1 76 V
14 598 V
1 -1 V
1 -1 V
15 -616 V
0 -49 V
1 -49 V
581 844 L
1 -9 V
2 -7 V
15 291 V
0 35 V
1 35 V
15 425 V
1 -2 V
1 -1 V
14 -456 V
1 -36 V
1 -35 V
647 784 L
2 5 V
2 8 V
14 438 V
1 46 V
1 47 V
14 609 V
1 2 V
0 3 V
15 -540 V
2 -119 V
2 -110 V
715 798 L
1 -2 V
0 -1 V
15 316 V
1 57 V
1 59 V
14 470 V
2 -1 V
1 0 V
14 -480 V
1 -59 V
1 -57 V
2 -103 V
781 799 L
1 15 V
3 44 V
11 266 V
11 409 V
2 125 V
1 51 V
13 -235 V
2 -142 V
1 -67 V
1 -64 V
841 824 L
1 -2 V
2 -1 V
14 338 V
1 60 V
1 62 V
15 481 V
1 -2 V
1 -2 V
14 -520 V
1 -63 V
1 -60 V
908 768 L
1 0 V
1 0 V
14 350 V
2 60 V
1 64 V
14 523 V
1 2 V
1 2 V
15 -483 V
1 -63 V
1 -60 V
974 823 L
1 0 V
1 2 V
15 375 V
1 63 V
1 67 V
15 523 V
1 -2 V
1 -2 V
14 -553 V
1 -68 V
1 -64 V
15 -382 V
1 -2 V
1 -2 V
14 319 V
1 56 V
2 60 V
14 482 V
1 1 V
1 1 V
15 -467 V
1 -60 V
1 -56 V
14 -315 V
1 2 V
1 3 V
15 393 V
1 66 V
1 69 V
14 554 V
1 0 V
2 0 V
14 -550 V
1 -69 V
1 -65 V
15 -393 V
1 -2 V
1 -2 V
14 318 V
1 56 V
1 60 V
15 467 V
1 -1 V
1 -1 V
14 -490 V
2 -60 V
1 -57 V
14 -323 V
1 1 V
1 2 V
15 377 V
1 63 V
1 67 V
14 549 V
1 2 V
1 2 V
15 -514 V
1 -66 V
1 -63 V
15 -368 V
1 -1 V
1 0 V
14 348 V
1 61 V
1 63 V
15 492 V
1 -3 V
23 32 V
3 -208 V
1 -205 V
2 -184 V
3 -189 V
23 -254 V
1 2 V
14 368 V
1 63 V
2 66 V
14 538 V
1 2 V
1 2 V
15 -510 V
1 -65 V
1 -62 V
14 -362 V
1 -1 V
1 0 V
15 352 V
1 61 V
1 64 V
14 498 V
1 -2 V
2 -1 V
14 -530 V
1 -65 V
1 -61 V
15 -359 V
1 -1 V
1 0 V
14 339 V
1 59 V
1 62 V
15 508 V
1 1 V
1 2 V
stroke 1563 1746 M
14 -481 V
2 -62 V
1 -59 V
14 -332 V
1 0 V
1 2 V
15 378 V
1 64 V
1 68 V
14 531 V
1 -1 V
1 -1 V
15 -547 V
1 -67 V
1 -65 V
15 -381 V
1 -3 V
1 -1 V
14 322 V
1 57 V
1 60 V
15 480 V
1 0 V
1 0 V
14 -479 V
1 -60 V
2 -57 V
14 -322 V
1 2 V
1 2 V
15 382 V
1 65 V
1 67 V
14 547 V
1 1 V
1 1 V
15 -533 V
1 -67 V
1 -65 V
14 -379 V
1 -2 V
2 0 V
14 331 V
1 59 V
1 61 V
15 480 V
1 -2 V
1 -1 V
14 -506 V
1 -62 V
1 -58 V
15 -338 V
1 0 V
1 1 V
14 361 V
2 62 V
1 64 V
14 532 V
1 2 V
1 2 V
15 -500 V
1 -65 V
1 -61 V
2 -112 V
12 -224 V
1 14 V
3 43 V
11 251 V
11 381 V
3 115 V
1 48 V
12 -260 V
2 -140 V
1 -67 V
2 -63 V
14 -377 V
1 -2 V
1 -1 V
15 324 V
1 57 V
1 60 V
14 488 V
1 1 V
1 1 V
15 -472 V
1 -60 V
1 -57 V
14 -320 V
1 0 V
1 2 V
14 372 V
2 110 V
2 119 V
14 534 V
1 -3 V
1 -3 V
14 -611 V
1 -47 V
1 -45 V
14 -438 V
2 -8 V
2 -4 V
14 299 V
1 35 V
stroke 2138 1113 M
1 36 V
14 458 V
1 2 V
1 2 V
15 -419 V
0 -36 V
1 -34 V
15 -288 V
1 7 V
2 10 V
15 470 V
0 48 V
1 50 V
15 621 V
1 0 V
1 1 V
14 -608 V
1 -77 V
1 -73 V
15 -451 V
1 -5 V
1 -4 V
14 272 V
1 52 V
2 55 V
14 411 V
1 -4 V
1 -2 V
15 -467 V
1 -56 V
1 -52 V
14 -286 V
1 3 V
1 4 V
15 410 V
1 68 V
1 71 V
14 605 V
2 5 V
1 5 V
14 -519 V
1 -69 V
1 -67 V
15 -390 V
1 -2 V
1 -1 V
14 348 V
1 61 V
1 65 V
15 471 V
1 -6 V
1 -5 V
14 -568 V
2 -66 V
1 -63 V
14 -370 V
1 -2 V
1 -1 V
15 321 V
1 57 V
1 59 V
2 126 V
12 257 V
1 -40 V
3 -95 V
11 -313 V
11 -199 V
3 -32 V
1 -10 V
12 294 V
2 133 V
2 73 V
1 76 V
14 593 V
1 -2 V
1 -2 V
15 -628 V
1 -76 V
1 -73 V
14 -452 V
1 -6 V
1 -5 V
15 260 V
1 50 V
1 53 V
14 414 V
2 -1 V
1 0 V
14 -428 V
1 -52 V
1 -51 V
15 -262 V
1 4 V
1 6 V
14 443 V
1 71 V
1 76 V
15 627 V
1 2 V
1 4 V
15 -570 V
1 -74 V
1 -71 V
14 -430 V
stroke 2712 860 M
1 -4 V
1 -3 V
15 304 V
1 55 V
1 59 V
14 430 V
1 -5 V
2 -5 V
14 -518 V
1 -60 V
1 -57 V
15 -324 V
1 1 V
1 1 V
14 367 V
1 62 V
1 66 V
15 565 V
1 6 V
1 5 V
14 -467 V
2 -63 V
1 -61 V
14 -344 V
1 0 V
1 2 V
15 395 V
1 67 V
1 70 V
14 523 V
1 -5 V
1 -5 V
15 -609 V
1 -71 V
1 -68 V
14 -415 V
2 -4 V
1 -3 V
14 282 V
1 52 V
1 56 V
15 462 V
1 3 V
1 3 V
14 -409 V
1 -54 V
1 -51 V
15 -270 V
1 4 V
1 6 V
15 453 V
1 73 V
1 77 V
14 612 V
1 -1 V
1 0 V
15 -621 V
1 -77 V
1 -73 V
14 -455 V
1 -6 V
7 -11 V
15 136 V
2 23 V
2 160 V
2 159 V
1 176 V
3 176 V
1 -4 V
11 -41 V
11 1 V
2 2 V
14 -410 V
1 -54 V
1 -50 V
15 -266 V
1 4 V
1 6 V
14 453 V
1 73 V
1 77 V
15 618 V
1 0 V
1 0 V
14 -611 V
2 -77 V
1 -73 V
14 -452 V
1 -5 V
1 -5 V
15 271 V
1 51 V
1 54 V
14 410 V
1 -3 V
1 -2 V
15 -461 V
1 -55 V
1 -52 V
14 -282 V
2 3 V
1 4 V
14 416 V
1 68 V
stroke 3283 1240 M
1 71 V
15 609 V
1 5 V
1 4 V
14 -525 V
1 -70 V
1 -67 V
15 -396 V
1 -2 V
1 -1 V
15 342 V
1 60 V
1 64 V
14 464 V
1 -5 V
1 -5 V
15 -562 V
1 -65 V
1 -62 V
14 -364 V
1 -2 V
2 0 V
14 326 V
1 58 V
1 60 V
15 521 V
1 4 V
1 5 V
14 -432 V
1 -59 V
1 -56 V
15 -307 V
1 3 V
1 4 V
14 427 V
2 70 V
1 74 V
14 566 V
1 -3 V
1 -3 V
15 -624 V
1 -75 V
1 -72 V
14 -440 V
1 -5 V
1 -5 V
15 265 V
1 50 V
1 54 V
14 430 V
2 0 V
1 1 V
14 -415 V
1 -53 V
1 -50 V
15 -261 V
1 4 V
1 6 V
14 451 V
1 73 V
1 76 V
2 161 V
13 299 V
1 -54 V
3 -131 V
11 -439 V
11 -301 V
2 -54 V
2 -19 V
12 177 V
2 102 V
1 55 V
1 58 V
15 429 V
1 -4 V
1 -4 V
14 -507 V
1 -59 V
1 -56 V
15 -317 V
1 1 V
1 3 V
14 375 V
2 63 V
1 66 V
14 571 V
1 5 V
1 5 V
15 -479 V
1 -65 V
1 -62 V
14 -354 V
1 1 V
1 1 V
15 382 V
1 66 V
1 68 V
15 511 V
1 -5 V
1 -4 V
14 -596 V
1 -70 V
1 -66 V
15 -402 V
stroke 3858 752 M
1 -4 V
1 -2 V
14 293 V
1 53 V
2 57 V
14 475 V
1 3 V
1 3 V
15 -417 V
1 -55 V
1 -53 V
14 -280 V
1 4 V
% End plot #2
% Begin plot #3
stroke
2.000 UL
LTb
0.00 0.62 0.45 C LCb setrgbcolor
2226 507 M
[ [(Symbol) 120.0 0.0 true true 0 (h)]
[(roman) 96.0 -36.0 true true 0 (x)]
] -28.0 MRshow
2.000 UL
LTb
0.00 0.62 0.45 C 2298 507 M
135 0 V
516 2136 M
1 -2 V
15 -369 V
1 -51 V
1 -52 V
14 -413 V
1 -13 V
1 -13 V
15 44 V
0 12 V
1 13 V
15 72 V
1 -15 V
2 -15 V
15 -287 V
0 -21 V
1 -21 V
615 713 L
1 -13 V
1 -13 V
14 -85 V
1 0 V
1 0 V
14 -22 V
2 -6 V
2 -5 V
14 -48 V
1 -3 V
1 -3 V
14 2 V
1 3 V
0 3 V
15 126 V
2 25 V
2 26 V
14 147 V
1 4 V
0 4 V
15 1 V
1 -5 V
1 -6 V
14 53 V
2 14 V
1 15 V
14 358 V
1 42 V
1 42 V
2 83 V
13 181 V
1 -17 V
3 -43 V
11 -175 V
11 -174 V
2 -44 V
1 -17 V
13 67 V
2 52 V
1 26 V
1 26 V
14 145 V
1 -5 V
2 -5 V
14 -268 V
1 -33 V
1 -34 V
875 856 L
1 -10 V
1 -9 V
14 -4 V
1 10 V
1 9 V
15 40 V
1 -3 V
1 -4 V
924 764 L
2 -14 V
1 -14 V
14 -91 V
1 0 V
1 0 V
15 90 V
1 14 V
1 14 V
14 120 V
1 3 V
1 3 V
15 -40 V
1 -9 V
1 -9 V
15 3 V
1 10 V
1 10 V
14 277 V
1 33 V
1 34 V
15 267 V
1 5 V
1 5 V
14 -144 V
1 -26 V
2 -26 V
14 -133 V
1 5 V
1 5 V
15 283 V
1 39 V
1 39 V
14 266 V
1 -1 V
1 0 V
15 -281 V
1 -39 V
1 -40 V
14 -301 V
1 -7 V
2 -7 V
14 100 V
1 22 V
1 22 V
15 118 V
1 -5 V
1 -6 V
14 -248 V
1 -30 V
1 -31 V
15 -252 V
1 -9 V
1 -9 V
14 -4 V
2 8 V
1 8 V
14 41 V
1 -2 V
1 -3 V
15 -95 V
1 -11 V
1 -12 V
14 -60 V
1 3 V
1 2 V
15 125 V
1 17 V
1 17 V
15 148 V
1 4 V
1 4 V
14 -46 V
1 -11 V
1 -11 V
15 -5 V
1 10 V
23 213 V
3 87 V
1 80 V
2 80 V
3 69 V
23 -131 V
1 -6 V
14 -244 V
1 -29 V
2 -30 V
14 -246 V
1 -9 V
1 -9 V
15 -21 V
1 6 V
1 6 V
14 28 V
1 -2 V
1 -2 V
15 -72 V
1 -9 V
1 -9 V
14 -31 V
1 4 V
2 4 V
14 143 V
1 19 V
1 18 V
stroke 1513 813 M
15 163 V
1 5 V
1 6 V
14 -38 V
1 -11 V
1 -11 V
15 4 V
1 11 V
1 11 V
14 323 V
2 39 V
1 39 V
14 303 V
1 4 V
1 5 V
15 -192 V
1 -32 V
1 -32 V
14 -194 V
1 2 V
1 2 V
15 255 V
1 38 V
1 37 V
15 241 V
1 -3 V
1 -3 V
14 -307 V
1 -42 V
1 -42 V
15 -332 V
1 -10 V
1 -10 V
14 38 V
1 16 V
2 16 V
14 70 V
1 -6 V
1 -6 V
15 -216 V
1 -25 V
1 -25 V
14 -209 V
1 -7 V
1 -8 V
15 -8 V
1 6 V
1 7 V
14 40 V
1 -1 V
2 0 V
14 -51 V
1 -7 V
1 -7 V
15 -4 V
1 6 V
1 6 V
14 184 V
1 22 V
1 23 V
15 196 V
1 5 V
1 6 V
14 -55 V
2 -14 V
1 -14 V
14 -20 V
1 11 V
1 11 V
15 331 V
1 41 V
1 41 V
2 82 V
12 157 V
1 -21 V
3 -53 V
11 -211 V
11 -211 V
3 -53 V
1 -20 V
12 1 V
2 37 V
1 18 V
2 18 V
14 82 V
1 -6 V
1 -7 V
15 -237 V
1 -27 V
1 -28 V
14 -236 V
1 -9 V
1 -9 V
15 -25 V
1 5 V
1 5 V
14 27 V
1 -1 V
1 -1 V
14 -60 V
2 -12 V
2 -13 V
14 -17 V
1 3 V
stroke 2088 613 M
1 3 V
14 149 V
1 13 V
1 12 V
14 171 V
2 11 V
2 10 V
14 -25 V
1 -7 V
1 -6 V
14 20 V
1 13 V
1 13 V
15 355 V
0 28 V
1 27 V
15 334 V
1 10 V
2 10 V
15 -195 V
0 -22 V
1 -22 V
15 -195 V
1 4 V
1 4 V
14 302 V
1 44 V
1 43 V
15 278 V
1 -4 V
1 -3 V
14 -358 V
1 -49 V
2 -48 V
14 -397 V
1 -13 V
1 -14 V
15 6 V
1 15 V
1 14 V
14 43 V
1 -9 V
1 -8 V
15 -244 V
1 -27 V
1 -27 V
14 -242 V
2 -11 V
1 -11 V
14 -72 V
1 -1 V
1 0 V
15 -12 V
1 -1 V
1 -1 V
14 -15 V
1 -1 V
1 -1 V
15 42 V
1 8 V
1 8 V
14 181 V
2 21 V
1 20 V
14 196 V
1 8 V
1 8 V
15 -9 V
1 -9 V
1 -9 V
2 -18 V
12 74 V
1 25 V
3 62 V
11 250 V
11 250 V
3 63 V
1 24 V
12 -125 V
2 -78 V
2 -40 V
1 -39 V
14 -293 V
1 -6 V
1 -7 V
15 108 V
1 24 V
1 23 V
14 124 V
1 -5 V
1 -5 V
15 -250 V
1 -31 V
1 -31 V
14 -256 V
2 -8 V
1 -9 V
14 0 V
1 8 V
1 9 V
15 44 V
1 -3 V
1 -2 V
14 -103 V
stroke 2662 748 M
1 -12 V
1 -12 V
15 -69 V
1 2 V
1 1 V
15 118 V
1 17 V
1 17 V
14 142 V
1 4 V
1 4 V
15 -48 V
1 -11 V
1 -10 V
14 -8 V
1 10 V
2 10 V
14 289 V
1 35 V
1 35 V
15 276 V
1 5 V
1 4 V
14 -167 V
1 -28 V
1 -29 V
15 -162 V
1 4 V
1 3 V
14 262 V
2 37 V
1 37 V
14 248 V
1 -1 V
1 -2 V
15 -284 V
1 -40 V
1 -40 V
14 -304 V
1 -8 V
1 -8 V
15 76 V
1 19 V
1 20 V
14 99 V
2 -5 V
1 -5 V
14 -228 V
1 -28 V
1 -27 V
15 -226 V
1 -8 V
1 -8 V
14 5 V
1 9 V
1 8 V
15 49 V
1 -1 V
1 -1 V
15 -81 V
1 -10 V
1 -10 V
14 -42 V
1 4 V
1 4 V
15 153 V
1 20 V
1 20 V
14 171 V
1 4 V
7 27 V
15 66 V
2 6 V
2 -50 V
2 -57 V
1 -58 V
3 -63 V
1 -4 V
11 -70 V
11 -75 V
2 -7 V
14 17 V
1 10 V
1 10 V
15 58 V
1 -1 V
1 -1 V
14 -89 V
1 -11 V
1 -12 V
15 -52 V
1 4 V
1 3 V
14 152 V
2 20 V
1 21 V
14 169 V
1 4 V
1 4 V
15 -67 V
1 -14 V
1 -14 V
14 -33 V
1 9 V
stroke 3233 948 M
1 9 V
15 289 V
1 37 V
1 36 V
14 275 V
2 3 V
1 4 V
14 -191 V
1 -31 V
1 -32 V
15 -191 V
1 1 V
1 1 V
14 228 V
1 34 V
1 35 V
15 220 V
1 -2 V
1 -2 V
15 -279 V
1 -37 V
1 -38 V
14 -295 V
1 -9 V
1 -8 V
15 58 V
1 17 V
1 17 V
14 86 V
1 -5 V
2 -4 V
14 -200 V
1 -25 V
1 -24 V
15 -191 V
1 -6 V
1 -5 V
14 29 V
1 10 V
1 10 V
15 69 V
1 0 V
1 0 V
14 -72 V
2 -11 V
1 -10 V
14 -32 V
1 5 V
1 5 V
15 184 V
1 24 V
1 23 V
14 195 V
1 4 V
1 5 V
15 -82 V
1 -16 V
1 -17 V
14 -52 V
2 8 V
1 8 V
14 295 V
1 38 V
1 38 V
15 278 V
1 2 V
1 3 V
14 -216 V
1 -33 V
1 -34 V
2 -66 V
13 -142 V
1 12 V
3 29 V
11 118 V
11 117 V
2 30 V
2 11 V
12 -195 V
2 -78 V
1 -39 V
1 -39 V
15 -357 V
1 -16 V
1 -17 V
14 -119 V
1 -2 V
1 -3 V
15 -52 V
1 -5 V
1 -5 V
14 -76 V
2 -5 V
1 -6 V
14 -30 V
1 2 V
1 1 V
15 59 V
1 9 V
1 8 V
14 100 V
1 6 V
1 6 V
15 49 V
stroke 3808 686 M
1 1 V
1 1 V
15 115 V
1 17 V
1 17 V
14 377 V
1 42 V
1 42 V
15 349 V
1 8 V
1 9 V
14 -143 V
1 -29 V
2 -29 V
14 -136 V
1 8 V
1 8 V
15 367 V
1 49 V
1 49 V
14 329 V
1 -1 V
% End plot #3
% Begin plot #4
stroke
LTb
0.90 0.62 0.00 C LCb setrgbcolor
2865 507 M
[ [(Symbol) 120.0 0.0 true true 0 (h)]
[(roman) 96.0 -36.0 true true 0 (y)]
] -28.0 MRshow
2.000 UL
LTb
0.90 0.62 0.00 C 2937 507 M
135 0 V
516 384 M
1 0 V
15 0 V
1 0 V
1 0 V
14 0 V
1 0 V
1 0 V
15 0 V
1 0 V
15 0 V
1 0 V
2 0 V
15 0 V
1 0 V
15 0 V
1 0 V
1 0 V
14 0 V
1 0 V
1 0 V
14 0 V
2 0 V
2 0 V
14 0 V
1 0 V
1 0 V
14 0 V
1 0 V
15 0 V
2 0 V
2 0 V
14 0 V
1 0 V
15 0 V
1 0 V
1 0 V
14 0 V
2 0 V
1 0 V
14 0 V
1 0 V
1 0 V
2 0 V
13 0 V
1 0 V
3 0 V
11 0 V
11 0 V
2 0 V
1 0 V
13 0 V
2 0 V
1 0 V
1 0 V
14 0 V
1 0 V
2 0 V
14 0 V
1 0 V
1 0 V
15 0 V
1 0 V
1 0 V
14 0 V
1 0 V
1 0 V
15 0 V
1 0 V
1 0 V
14 0 V
2 0 V
1 0 V
14 0 V
1 0 V
1 0 V
15 0 V
1 0 V
1 0 V
14 0 V
1 0 V
1 0 V
15 0 V
1 0 V
1 0 V
15 0 V
1 0 V
1 0 V
14 0 V
1 0 V
1 0 V
15 0 V
1 0 V
1 0 V
14 0 V
1 0 V
2 0 V
14 0 V
1 0 V
1 0 V
15 0 V
1 0 V
1 0 V
stroke 1093 384 M
14 0 V
1 0 V
1 0 V
15 0 V
1 0 V
1 0 V
14 0 V
1 0 V
2 0 V
14 0 V
1 0 V
1 0 V
15 0 V
1 0 V
1 0 V
14 0 V
1 0 V
1 0 V
15 0 V
1 0 V
1 0 V
14 0 V
2 0 V
1 0 V
14 0 V
1 0 V
1 0 V
15 0 V
1 0 V
1 0 V
14 0 V
1 0 V
1 0 V
15 0 V
1 0 V
1 0 V
15 0 V
1 0 V
1 0 V
14 0 V
1 0 V
1 0 V
15 0 V
1 0 V
23 0 V
3 0 V
1 0 V
2 0 V
3 0 V
23 0 V
1 0 V
14 0 V
1 0 V
2 0 V
14 0 V
1 0 V
1 0 V
15 0 V
1 0 V
1 0 V
14 0 V
1 0 V
1 0 V
15 0 V
1 0 V
1 0 V
14 0 V
1 0 V
2 0 V
14 0 V
1 0 V
1 0 V
15 0 V
1 0 V
1 0 V
14 0 V
1 0 V
1 0 V
15 0 V
1 0 V
1 0 V
14 0 V
2 0 V
1 0 V
14 0 V
1 0 V
1 0 V
15 0 V
1 0 V
1 0 V
14 0 V
1 0 V
1 0 V
15 0 V
1 0 V
1 0 V
15 0 V
1 0 V
1 0 V
14 0 V
1 0 V
1 0 V
15 0 V
1 0 V
stroke 1695 384 M
1 0 V
14 0 V
1 0 V
2 0 V
14 0 V
1 0 V
1 0 V
15 0 V
1 0 V
1 0 V
14 0 V
1 0 V
1 0 V
15 0 V
1 0 V
1 0 V
14 0 V
1 0 V
2 0 V
14 0 V
1 0 V
1 0 V
15 0 V
1 0 V
1 0 V
14 0 V
1 0 V
1 0 V
15 0 V
1 0 V
1 0 V
14 0 V
2 0 V
1 0 V
14 0 V
1 0 V
1 0 V
15 0 V
1 0 V
1 0 V
2 0 V
12 0 V
1 0 V
3 0 V
11 0 V
11 0 V
3 0 V
1 0 V
12 0 V
2 0 V
1 0 V
2 0 V
14 0 V
1 0 V
1 0 V
15 0 V
1 0 V
1 0 V
14 0 V
1 0 V
1 0 V
15 0 V
1 0 V
1 0 V
14 0 V
1 0 V
1 0 V
14 0 V
2 0 V
2 0 V
14 0 V
1 0 V
1 0 V
14 0 V
1 0 V
1 0 V
14 0 V
2 0 V
2 0 V
14 0 V
1 0 V
1 0 V
14 0 V
1 0 V
1 0 V
15 0 V
1 0 V
15 0 V
1 0 V
2 0 V
15 0 V
1 0 V
15 0 V
1 0 V
1 0 V
14 0 V
1 0 V
1 0 V
15 0 V
1 0 V
1 0 V
14 0 V
1 0 V
2 0 V
stroke 2272 384 M
14 0 V
1 0 V
1 0 V
15 0 V
1 0 V
1 0 V
14 0 V
1 0 V
1 0 V
15 0 V
1 0 V
1 0 V
14 0 V
2 0 V
1 0 V
14 0 V
1 0 V
1 0 V
15 0 V
1 0 V
1 0 V
14 0 V
1 0 V
1 0 V
15 0 V
1 0 V
1 0 V
14 0 V
2 0 V
1 0 V
14 0 V
1 0 V
1 0 V
15 0 V
1 0 V
1 0 V
2 0 V
12 0 V
1 0 V
3 0 V
11 0 V
11 0 V
3 0 V
1 0 V
12 0 V
2 0 V
2 0 V
1 0 V
14 0 V
1 0 V
1 0 V
15 0 V
1 0 V
1 0 V
14 0 V
1 0 V
1 0 V
15 0 V
1 0 V
1 0 V
14 0 V
2 0 V
1 0 V
14 0 V
1 0 V
1 0 V
15 0 V
1 0 V
1 0 V
14 0 V
1 0 V
1 0 V
15 0 V
1 0 V
1 0 V
15 0 V
1 0 V
1 0 V
14 0 V
1 0 V
1 0 V
15 0 V
1 0 V
1 0 V
14 0 V
1 0 V
2 0 V
14 0 V
1 0 V
1 0 V
15 0 V
1 0 V
1 0 V
14 0 V
1 0 V
1 0 V
15 0 V
1 0 V
1 0 V
14 0 V
2 0 V
1 0 V
14 0 V
1 0 V
stroke 2846 384 M
1 0 V
15 0 V
1 0 V
1 0 V
14 0 V
1 0 V
1 0 V
15 0 V
1 0 V
1 0 V
14 0 V
2 0 V
1 0 V
14 0 V
1 0 V
1 0 V
15 0 V
1 0 V
1 0 V
14 0 V
1 0 V
1 0 V
15 0 V
1 0 V
1 0 V
15 0 V
1 0 V
1 0 V
14 0 V
1 0 V
1 0 V
15 0 V
1 0 V
1 0 V
14 0 V
1 0 V
7 0 V
15 0 V
2 0 V
2 0 V
2 0 V
1 0 V
3 0 V
1 0 V
11 0 V
11 0 V
2 0 V
14 0 V
1 0 V
1 0 V
15 0 V
1 0 V
1 0 V
14 0 V
1 0 V
1 0 V
15 0 V
1 0 V
1 0 V
14 0 V
2 0 V
1 0 V
14 0 V
1 0 V
1 0 V
15 0 V
1 0 V
1 0 V
14 0 V
1 0 V
1 0 V
15 0 V
1 0 V
1 0 V
14 0 V
2 0 V
1 0 V
14 0 V
1 0 V
1 0 V
15 0 V
1 0 V
1 0 V
14 0 V
1 0 V
1 0 V
15 0 V
1 0 V
1 0 V
15 0 V
1 0 V
1 0 V
14 0 V
1 0 V
1 0 V
15 0 V
1 0 V
1 0 V
14 0 V
1 0 V
2 0 V
14 0 V
1 0 V
1 0 V
stroke 3417 384 M
15 0 V
1 0 V
1 0 V
14 0 V
1 0 V
1 0 V
15 0 V
1 0 V
1 0 V
14 0 V
2 0 V
1 0 V
14 0 V
1 0 V
1 0 V
15 0 V
1 0 V
1 0 V
14 0 V
1 0 V
1 0 V
15 0 V
1 0 V
1 0 V
14 0 V
2 0 V
1 0 V
14 0 V
1 0 V
1 0 V
15 0 V
1 0 V
1 0 V
14 0 V
1 0 V
1 0 V
2 0 V
13 0 V
1 0 V
3 0 V
11 0 V
11 0 V
2 0 V
2 0 V
12 0 V
2 0 V
1 0 V
1 0 V
15 0 V
1 0 V
1 0 V
14 0 V
1 0 V
1 0 V
15 0 V
1 0 V
1 0 V
14 0 V
2 0 V
1 0 V
14 0 V
1 0 V
1 0 V
15 0 V
1 0 V
1 0 V
14 0 V
1 0 V
1 0 V
15 0 V
1 0 V
1 0 V
15 0 V
1 0 V
1 0 V
14 0 V
1 0 V
1 0 V
15 0 V
1 0 V
1 0 V
14 0 V
1 0 V
2 0 V
14 0 V
1 0 V
1 0 V
15 0 V
1 0 V
1 0 V
14 0 V
1 0 V
% End plot #4
stroke
LTb
LCb setrgbcolor
1.000 UL
LTB
LCb setrgbcolor
516 2313 N
516 384 L
3419 0 V
0 1929 V
-3419 0 V
Z stroke
1.000 UP
1.000 UL
LTb
LCb setrgbcolor
stroke
grestore
end
showpage
%%Trailer
%%DocumentFonts: Symbol roman Times-Roman
