%!PS-Adobe-2.0 EPSF-2.0
%%Title: gnuplot_TWISS_xy.eps
%%Creator: gnuplot 5.0 patchlevel 4
%%CreationDate: Sat May 13 21:01:36 2017
%%DocumentFonts: (atend)
%%BoundingBox: 50 50 313 220
%%EndComments
%%BeginProlog
/gnudict 256 dict def
gnudict begin
%
% The following true/false flags may be edited by hand if desired.
% The unit line width and grayscale image gamma correction may also be changed.
%
/Color true def
/Blacktext true def
/Solid false def
/Dashlength 1 def
/Landscape false def
/Level1 false def
/Level3 false def
/Rounded false def
/ClipToBoundingBox false def
/SuppressPDFMark false def
/TransparentPatterns false def
/gnulinewidth 5.000 def
/userlinewidth gnulinewidth def
/Gamma 1.0 def
/BackgroundColor {-1.000 -1.000 -1.000} def
%
/vshift -40 def
/dl1 {
  10.0 Dashlength userlinewidth gnulinewidth div mul mul mul
  Rounded { currentlinewidth 0.75 mul sub dup 0 le { pop 0.01 } if } if
} def
/dl2 {
  10.0 Dashlength userlinewidth gnulinewidth div mul mul mul
  Rounded { currentlinewidth 0.75 mul add } if
} def
/hpt_ 31.5 def
/vpt_ 31.5 def
/hpt hpt_ def
/vpt vpt_ def
/doclip {
  ClipToBoundingBox {
    newpath 50 50 moveto 313 50 lineto 313 220 lineto 50 220 lineto closepath
    clip
  } if
} def
%
% Gnuplot Prolog Version 5.1 (Oct 2015)
%
%/SuppressPDFMark true def
%
/M {moveto} bind def
/L {lineto} bind def
/R {rmoveto} bind def
/V {rlineto} bind def
/N {newpath moveto} bind def
/Z {closepath} bind def
/C {setrgbcolor} bind def
/f {rlineto fill} bind def
/g {setgray} bind def
/Gshow {show} def   % May be redefined later in the file to support UTF-8
/vpt2 vpt 2 mul def
/hpt2 hpt 2 mul def
/Lshow {currentpoint stroke M 0 vshift R 
	Blacktext {gsave 0 setgray textshow grestore} {textshow} ifelse} def
/Rshow {currentpoint stroke M dup stringwidth pop neg vshift R
	Blacktext {gsave 0 setgray textshow grestore} {textshow} ifelse} def
/Cshow {currentpoint stroke M dup stringwidth pop -2 div vshift R 
	Blacktext {gsave 0 setgray textshow grestore} {textshow} ifelse} def
/UP {dup vpt_ mul /vpt exch def hpt_ mul /hpt exch def
  /hpt2 hpt 2 mul def /vpt2 vpt 2 mul def} def
/DL {Color {setrgbcolor Solid {pop []} if 0 setdash}
 {pop pop pop 0 setgray Solid {pop []} if 0 setdash} ifelse} def
/BL {stroke userlinewidth 2 mul setlinewidth
	Rounded {1 setlinejoin 1 setlinecap} if} def
/AL {stroke userlinewidth 2 div setlinewidth
	Rounded {1 setlinejoin 1 setlinecap} if} def
/UL {dup gnulinewidth mul /userlinewidth exch def
	dup 1 lt {pop 1} if 10 mul /udl exch def} def
/PL {stroke userlinewidth setlinewidth
	Rounded {1 setlinejoin 1 setlinecap} if} def
3.8 setmiterlimit
% Classic Line colors (version 5.0)
/LCw {1 1 1} def
/LCb {0 0 0} def
/LCa {0 0 0} def
/LC0 {1 0 0} def
/LC1 {0 1 0} def
/LC2 {0 0 1} def
/LC3 {1 0 1} def
/LC4 {0 1 1} def
/LC5 {1 1 0} def
/LC6 {0 0 0} def
/LC7 {1 0.3 0} def
/LC8 {0.5 0.5 0.5} def
% Default dash patterns (version 5.0)
/LTB {BL [] LCb DL} def
/LTw {PL [] 1 setgray} def
/LTb {PL [] LCb DL} def
/LTa {AL [1 udl mul 2 udl mul] 0 setdash LCa setrgbcolor} def
/LT0 {PL [] LC0 DL} def
/LT1 {PL [2 dl1 3 dl2] LC1 DL} def
/LT2 {PL [1 dl1 1.5 dl2] LC2 DL} def
/LT3 {PL [6 dl1 2 dl2 1 dl1 2 dl2] LC3 DL} def
/LT4 {PL [1 dl1 2 dl2 6 dl1 2 dl2 1 dl1 2 dl2] LC4 DL} def
/LT5 {PL [4 dl1 2 dl2] LC5 DL} def
/LT6 {PL [1.5 dl1 1.5 dl2 1.5 dl1 1.5 dl2 1.5 dl1 6 dl2] LC6 DL} def
/LT7 {PL [3 dl1 3 dl2 1 dl1 3 dl2] LC7 DL} def
/LT8 {PL [2 dl1 2 dl2 2 dl1 6 dl2] LC8 DL} def
/SL {[] 0 setdash} def
/Pnt {stroke [] 0 setdash gsave 1 setlinecap M 0 0 V stroke grestore} def
/Dia {stroke [] 0 setdash 2 copy vpt add M
  hpt neg vpt neg V hpt vpt neg V
  hpt vpt V hpt neg vpt V closepath stroke
  Pnt} def
/Pls {stroke [] 0 setdash vpt sub M 0 vpt2 V
  currentpoint stroke M
  hpt neg vpt neg R hpt2 0 V stroke
 } def
/Box {stroke [] 0 setdash 2 copy exch hpt sub exch vpt add M
  0 vpt2 neg V hpt2 0 V 0 vpt2 V
  hpt2 neg 0 V closepath stroke
  Pnt} def
/Crs {stroke [] 0 setdash exch hpt sub exch vpt add M
  hpt2 vpt2 neg V currentpoint stroke M
  hpt2 neg 0 R hpt2 vpt2 V stroke} def
/TriU {stroke [] 0 setdash 2 copy vpt 1.12 mul add M
  hpt neg vpt -1.62 mul V
  hpt 2 mul 0 V
  hpt neg vpt 1.62 mul V closepath stroke
  Pnt} def
/Star {2 copy Pls Crs} def
/BoxF {stroke [] 0 setdash exch hpt sub exch vpt add M
  0 vpt2 neg V hpt2 0 V 0 vpt2 V
  hpt2 neg 0 V closepath fill} def
/TriUF {stroke [] 0 setdash vpt 1.12 mul add M
  hpt neg vpt -1.62 mul V
  hpt 2 mul 0 V
  hpt neg vpt 1.62 mul V closepath fill} def
/TriD {stroke [] 0 setdash 2 copy vpt 1.12 mul sub M
  hpt neg vpt 1.62 mul V
  hpt 2 mul 0 V
  hpt neg vpt -1.62 mul V closepath stroke
  Pnt} def
/TriDF {stroke [] 0 setdash vpt 1.12 mul sub M
  hpt neg vpt 1.62 mul V
  hpt 2 mul 0 V
  hpt neg vpt -1.62 mul V closepath fill} def
/DiaF {stroke [] 0 setdash vpt add M
  hpt neg vpt neg V hpt vpt neg V
  hpt vpt V hpt neg vpt V closepath fill} def
/Pent {stroke [] 0 setdash 2 copy gsave
  translate 0 hpt M 4 {72 rotate 0 hpt L} repeat
  closepath stroke grestore Pnt} def
/PentF {stroke [] 0 setdash gsave
  translate 0 hpt M 4 {72 rotate 0 hpt L} repeat
  closepath fill grestore} def
/Circle {stroke [] 0 setdash 2 copy
  hpt 0 360 arc stroke Pnt} def
/CircleF {stroke [] 0 setdash hpt 0 360 arc fill} def
/C0 {BL [] 0 setdash 2 copy moveto vpt 90 450 arc} bind def
/C1 {BL [] 0 setdash 2 copy moveto
	2 copy vpt 0 90 arc closepath fill
	vpt 0 360 arc closepath} bind def
/C2 {BL [] 0 setdash 2 copy moveto
	2 copy vpt 90 180 arc closepath fill
	vpt 0 360 arc closepath} bind def
/C3 {BL [] 0 setdash 2 copy moveto
	2 copy vpt 0 180 arc closepath fill
	vpt 0 360 arc closepath} bind def
/C4 {BL [] 0 setdash 2 copy moveto
	2 copy vpt 180 270 arc closepath fill
	vpt 0 360 arc closepath} bind def
/C5 {BL [] 0 setdash 2 copy moveto
	2 copy vpt 0 90 arc
	2 copy moveto
	2 copy vpt 180 270 arc closepath fill
	vpt 0 360 arc} bind def
/C6 {BL [] 0 setdash 2 copy moveto
	2 copy vpt 90 270 arc closepath fill
	vpt 0 360 arc closepath} bind def
/C7 {BL [] 0 setdash 2 copy moveto
	2 copy vpt 0 270 arc closepath fill
	vpt 0 360 arc closepath} bind def
/C8 {BL [] 0 setdash 2 copy moveto
	2 copy vpt 270 360 arc closepath fill
	vpt 0 360 arc closepath} bind def
/C9 {BL [] 0 setdash 2 copy moveto
	2 copy vpt 270 450 arc closepath fill
	vpt 0 360 arc closepath} bind def
/C10 {BL [] 0 setdash 2 copy 2 copy moveto vpt 270 360 arc closepath fill
	2 copy moveto
	2 copy vpt 90 180 arc closepath fill
	vpt 0 360 arc closepath} bind def
/C11 {BL [] 0 setdash 2 copy moveto
	2 copy vpt 0 180 arc closepath fill
	2 copy moveto
	2 copy vpt 270 360 arc closepath fill
	vpt 0 360 arc closepath} bind def
/C12 {BL [] 0 setdash 2 copy moveto
	2 copy vpt 180 360 arc closepath fill
	vpt 0 360 arc closepath} bind def
/C13 {BL [] 0 setdash 2 copy moveto
	2 copy vpt 0 90 arc closepath fill
	2 copy moveto
	2 copy vpt 180 360 arc closepath fill
	vpt 0 360 arc closepath} bind def
/C14 {BL [] 0 setdash 2 copy moveto
	2 copy vpt 90 360 arc closepath fill
	vpt 0 360 arc} bind def
/C15 {BL [] 0 setdash 2 copy vpt 0 360 arc closepath fill
	vpt 0 360 arc closepath} bind def
/Rec {newpath 4 2 roll moveto 1 index 0 rlineto 0 exch rlineto
	neg 0 rlineto closepath} bind def
/Square {dup Rec} bind def
/Bsquare {vpt sub exch vpt sub exch vpt2 Square} bind def
/S0 {BL [] 0 setdash 2 copy moveto 0 vpt rlineto BL Bsquare} bind def
/S1 {BL [] 0 setdash 2 copy vpt Square fill Bsquare} bind def
/S2 {BL [] 0 setdash 2 copy exch vpt sub exch vpt Square fill Bsquare} bind def
/S3 {BL [] 0 setdash 2 copy exch vpt sub exch vpt2 vpt Rec fill Bsquare} bind def
/S4 {BL [] 0 setdash 2 copy exch vpt sub exch vpt sub vpt Square fill Bsquare} bind def
/S5 {BL [] 0 setdash 2 copy 2 copy vpt Square fill
	exch vpt sub exch vpt sub vpt Square fill Bsquare} bind def
/S6 {BL [] 0 setdash 2 copy exch vpt sub exch vpt sub vpt vpt2 Rec fill Bsquare} bind def
/S7 {BL [] 0 setdash 2 copy exch vpt sub exch vpt sub vpt vpt2 Rec fill
	2 copy vpt Square fill Bsquare} bind def
/S8 {BL [] 0 setdash 2 copy vpt sub vpt Square fill Bsquare} bind def
/S9 {BL [] 0 setdash 2 copy vpt sub vpt vpt2 Rec fill Bsquare} bind def
/S10 {BL [] 0 setdash 2 copy vpt sub vpt Square fill 2 copy exch vpt sub exch vpt Square fill
	Bsquare} bind def
/S11 {BL [] 0 setdash 2 copy vpt sub vpt Square fill 2 copy exch vpt sub exch vpt2 vpt Rec fill
	Bsquare} bind def
/S12 {BL [] 0 setdash 2 copy exch vpt sub exch vpt sub vpt2 vpt Rec fill Bsquare} bind def
/S13 {BL [] 0 setdash 2 copy exch vpt sub exch vpt sub vpt2 vpt Rec fill
	2 copy vpt Square fill Bsquare} bind def
/S14 {BL [] 0 setdash 2 copy exch vpt sub exch vpt sub vpt2 vpt Rec fill
	2 copy exch vpt sub exch vpt Square fill Bsquare} bind def
/S15 {BL [] 0 setdash 2 copy Bsquare fill Bsquare} bind def
/D0 {gsave translate 45 rotate 0 0 S0 stroke grestore} bind def
/D1 {gsave translate 45 rotate 0 0 S1 stroke grestore} bind def
/D2 {gsave translate 45 rotate 0 0 S2 stroke grestore} bind def
/D3 {gsave translate 45 rotate 0 0 S3 stroke grestore} bind def
/D4 {gsave translate 45 rotate 0 0 S4 stroke grestore} bind def
/D5 {gsave translate 45 rotate 0 0 S5 stroke grestore} bind def
/D6 {gsave translate 45 rotate 0 0 S6 stroke grestore} bind def
/D7 {gsave translate 45 rotate 0 0 S7 stroke grestore} bind def
/D8 {gsave translate 45 rotate 0 0 S8 stroke grestore} bind def
/D9 {gsave translate 45 rotate 0 0 S9 stroke grestore} bind def
/D10 {gsave translate 45 rotate 0 0 S10 stroke grestore} bind def
/D11 {gsave translate 45 rotate 0 0 S11 stroke grestore} bind def
/D12 {gsave translate 45 rotate 0 0 S12 stroke grestore} bind def
/D13 {gsave translate 45 rotate 0 0 S13 stroke grestore} bind def
/D14 {gsave translate 45 rotate 0 0 S14 stroke grestore} bind def
/D15 {gsave translate 45 rotate 0 0 S15 stroke grestore} bind def
/DiaE {stroke [] 0 setdash vpt add M
  hpt neg vpt neg V hpt vpt neg V
  hpt vpt V hpt neg vpt V closepath stroke} def
/BoxE {stroke [] 0 setdash exch hpt sub exch vpt add M
  0 vpt2 neg V hpt2 0 V 0 vpt2 V
  hpt2 neg 0 V closepath stroke} def
/TriUE {stroke [] 0 setdash vpt 1.12 mul add M
  hpt neg vpt -1.62 mul V
  hpt 2 mul 0 V
  hpt neg vpt 1.62 mul V closepath stroke} def
/TriDE {stroke [] 0 setdash vpt 1.12 mul sub M
  hpt neg vpt 1.62 mul V
  hpt 2 mul 0 V
  hpt neg vpt -1.62 mul V closepath stroke} def
/PentE {stroke [] 0 setdash gsave
  translate 0 hpt M 4 {72 rotate 0 hpt L} repeat
  closepath stroke grestore} def
/CircE {stroke [] 0 setdash 
  hpt 0 360 arc stroke} def
/Opaque {gsave closepath 1 setgray fill grestore 0 setgray closepath} def
/DiaW {stroke [] 0 setdash vpt add M
  hpt neg vpt neg V hpt vpt neg V
  hpt vpt V hpt neg vpt V Opaque stroke} def
/BoxW {stroke [] 0 setdash exch hpt sub exch vpt add M
  0 vpt2 neg V hpt2 0 V 0 vpt2 V
  hpt2 neg 0 V Opaque stroke} def
/TriUW {stroke [] 0 setdash vpt 1.12 mul add M
  hpt neg vpt -1.62 mul V
  hpt 2 mul 0 V
  hpt neg vpt 1.62 mul V Opaque stroke} def
/TriDW {stroke [] 0 setdash vpt 1.12 mul sub M
  hpt neg vpt 1.62 mul V
  hpt 2 mul 0 V
  hpt neg vpt -1.62 mul V Opaque stroke} def
/PentW {stroke [] 0 setdash gsave
  translate 0 hpt M 4 {72 rotate 0 hpt L} repeat
  Opaque stroke grestore} def
/CircW {stroke [] 0 setdash 
  hpt 0 360 arc Opaque stroke} def
/BoxFill {gsave Rec 1 setgray fill grestore} def
/Density {
  /Fillden exch def
  currentrgbcolor
  /ColB exch def /ColG exch def /ColR exch def
  /ColR ColR Fillden mul Fillden sub 1 add def
  /ColG ColG Fillden mul Fillden sub 1 add def
  /ColB ColB Fillden mul Fillden sub 1 add def
  ColR ColG ColB setrgbcolor} def
/BoxColFill {gsave Rec PolyFill} def
/PolyFill {gsave Density fill grestore grestore} def
/h {rlineto rlineto rlineto gsave closepath fill grestore} bind def
%
% PostScript Level 1 Pattern Fill routine for rectangles
% Usage: x y w h s a XX PatternFill
%	x,y = lower left corner of box to be filled
%	w,h = width and height of box
%	  a = angle in degrees between lines and x-axis
%	 XX = 0/1 for no/yes cross-hatch
%
/PatternFill {gsave /PFa [ 9 2 roll ] def
  PFa 0 get PFa 2 get 2 div add PFa 1 get PFa 3 get 2 div add translate
  PFa 2 get -2 div PFa 3 get -2 div PFa 2 get PFa 3 get Rec
  TransparentPatterns {} {gsave 1 setgray fill grestore} ifelse
  clip
  currentlinewidth 0.5 mul setlinewidth
  /PFs PFa 2 get dup mul PFa 3 get dup mul add sqrt def
  0 0 M PFa 5 get rotate PFs -2 div dup translate
  0 1 PFs PFa 4 get div 1 add floor cvi
	{PFa 4 get mul 0 M 0 PFs V} for
  0 PFa 6 get ne {
	0 1 PFs PFa 4 get div 1 add floor cvi
	{PFa 4 get mul 0 2 1 roll M PFs 0 V} for
 } if
  stroke grestore} def
%
/languagelevel where
 {pop languagelevel} {1} ifelse
dup 2 lt
	{/InterpretLevel1 true def
	 /InterpretLevel3 false def}
	{/InterpretLevel1 Level1 def
	 2 gt
	    {/InterpretLevel3 Level3 def}
	    {/InterpretLevel3 false def}
	 ifelse }
 ifelse
%
% PostScript level 2 pattern fill definitions
%
/Level2PatternFill {
/Tile8x8 {/PaintType 2 /PatternType 1 /TilingType 1 /BBox [0 0 8 8] /XStep 8 /YStep 8}
	bind def
/KeepColor {currentrgbcolor [/Pattern /DeviceRGB] setcolorspace} bind def
<< Tile8x8
 /PaintProc {0.5 setlinewidth pop 0 0 M 8 8 L 0 8 M 8 0 L stroke} 
>> matrix makepattern
/Pat1 exch def
<< Tile8x8
 /PaintProc {0.5 setlinewidth pop 0 0 M 8 8 L 0 8 M 8 0 L stroke
	0 4 M 4 8 L 8 4 L 4 0 L 0 4 L stroke}
>> matrix makepattern
/Pat2 exch def
<< Tile8x8
 /PaintProc {0.5 setlinewidth pop 0 0 M 0 8 L
	8 8 L 8 0 L 0 0 L fill}
>> matrix makepattern
/Pat3 exch def
<< Tile8x8
 /PaintProc {0.5 setlinewidth pop -4 8 M 8 -4 L
	0 12 M 12 0 L stroke}
>> matrix makepattern
/Pat4 exch def
<< Tile8x8
 /PaintProc {0.5 setlinewidth pop -4 0 M 8 12 L
	0 -4 M 12 8 L stroke}
>> matrix makepattern
/Pat5 exch def
<< Tile8x8
 /PaintProc {0.5 setlinewidth pop -2 8 M 4 -4 L
	0 12 M 8 -4 L 4 12 M 10 0 L stroke}
>> matrix makepattern
/Pat6 exch def
<< Tile8x8
 /PaintProc {0.5 setlinewidth pop -2 0 M 4 12 L
	0 -4 M 8 12 L 4 -4 M 10 8 L stroke}
>> matrix makepattern
/Pat7 exch def
<< Tile8x8
 /PaintProc {0.5 setlinewidth pop 8 -2 M -4 4 L
	12 0 M -4 8 L 12 4 M 0 10 L stroke}
>> matrix makepattern
/Pat8 exch def
<< Tile8x8
 /PaintProc {0.5 setlinewidth pop 0 -2 M 12 4 L
	-4 0 M 12 8 L -4 4 M 8 10 L stroke}
>> matrix makepattern
/Pat9 exch def
/Pattern1 {PatternBgnd KeepColor Pat1 setpattern} bind def
/Pattern2 {PatternBgnd KeepColor Pat2 setpattern} bind def
/Pattern3 {PatternBgnd KeepColor Pat3 setpattern} bind def
/Pattern4 {PatternBgnd KeepColor Landscape {Pat5} {Pat4} ifelse setpattern} bind def
/Pattern5 {PatternBgnd KeepColor Landscape {Pat4} {Pat5} ifelse setpattern} bind def
/Pattern6 {PatternBgnd KeepColor Landscape {Pat9} {Pat6} ifelse setpattern} bind def
/Pattern7 {PatternBgnd KeepColor Landscape {Pat8} {Pat7} ifelse setpattern} bind def
} def
%
%
%End of PostScript Level 2 code
%
/PatternBgnd {
  TransparentPatterns {} {gsave 1 setgray fill grestore} ifelse
} def
%
% Substitute for Level 2 pattern fill codes with
% grayscale if Level 2 support is not selected.
%
/Level1PatternFill {
/Pattern1 {0.250 Density} bind def
/Pattern2 {0.500 Density} bind def
/Pattern3 {0.750 Density} bind def
/Pattern4 {0.125 Density} bind def
/Pattern5 {0.375 Density} bind def
/Pattern6 {0.625 Density} bind def
/Pattern7 {0.875 Density} bind def
} def
%
% Now test for support of Level 2 code
%
Level1 {Level1PatternFill} {Level2PatternFill} ifelse
%
/Symbol-Oblique /Symbol findfont [1 0 .167 1 0 0] makefont
dup length dict begin {1 index /FID eq {pop pop} {def} ifelse} forall
currentdict end definefont pop
%
/MFshow {
   { dup 5 get 3 ge
     { 5 get 3 eq {gsave} {grestore} ifelse }
     {dup dup 0 get findfont exch 1 get scalefont setfont
     [ currentpoint ] exch dup 2 get 0 exch R dup 5 get 2 ne {dup dup 6
     get exch 4 get {textshow} {stringwidth pop 0 R} ifelse }if dup 5 get 0 eq
     {dup 3 get {2 get neg 0 exch R pop} {pop aload pop M} ifelse} {dup 5
     get 1 eq {dup 2 get exch dup 3 get exch 6 get stringwidth pop -2 div
     dup 0 R} {dup 6 get stringwidth pop -2 div 0 R 6 get
     textshow 2 index {aload pop M neg 3 -1 roll neg R pop pop} {pop pop pop
     pop aload pop M} ifelse }ifelse }ifelse }
     ifelse }
   forall} def
/Gswidth {dup type /stringtype eq {stringwidth} {pop (n) stringwidth} ifelse} def
/MFwidth {0 exch { dup 5 get 3 ge { 5 get 3 eq { 0 } { pop } ifelse }
 {dup 3 get{dup dup 0 get findfont exch 1 get scalefont setfont
     6 get Gswidth pop add} {pop} ifelse} ifelse} forall} def
/MLshow { currentpoint stroke M
  0 exch R
  Blacktext {gsave 0 setgray MFshow grestore} {MFshow} ifelse } bind def
/MRshow { currentpoint stroke M
  exch dup MFwidth neg 3 -1 roll R
  Blacktext {gsave 0 setgray MFshow grestore} {MFshow} ifelse } bind def
/MCshow { currentpoint stroke M
  exch dup MFwidth -2 div 3 -1 roll R
  Blacktext {gsave 0 setgray MFshow grestore} {MFshow} ifelse } bind def
/XYsave    { [( ) 1 2 true false 3 ()] } bind def
/XYrestore { [( ) 1 2 true false 4 ()] } bind def
Level1 SuppressPDFMark or 
{} {
/SDict 10 dict def
systemdict /pdfmark known not {
  userdict /pdfmark systemdict /cleartomark get put
} if
SDict begin [
  /Title (gnuplot_TWISS_xy.eps)
  /Subject (gnuplot plot)
  /Creator (gnuplot 5.0 patchlevel 4)
%  /Producer (gnuplot)
%  /Keywords ()
  /CreationDate (Sat May 13 21:01:36 2017)
  /DOCINFO pdfmark
end
} ifelse
%
% Support for boxed text - Ethan A Merritt May 2005
%
/InitTextBox { userdict /TBy2 3 -1 roll put userdict /TBx2 3 -1 roll put
           userdict /TBy1 3 -1 roll put userdict /TBx1 3 -1 roll put
	   /Boxing true def } def
/ExtendTextBox { Boxing
    { gsave dup false charpath pathbbox
      dup TBy2 gt {userdict /TBy2 3 -1 roll put} {pop} ifelse
      dup TBx2 gt {userdict /TBx2 3 -1 roll put} {pop} ifelse
      dup TBy1 lt {userdict /TBy1 3 -1 roll put} {pop} ifelse
      dup TBx1 lt {userdict /TBx1 3 -1 roll put} {pop} ifelse
      grestore } if } def
/PopTextBox { newpath TBx1 TBxmargin sub TBy1 TBymargin sub M
               TBx1 TBxmargin sub TBy2 TBymargin add L
	       TBx2 TBxmargin add TBy2 TBymargin add L
	       TBx2 TBxmargin add TBy1 TBymargin sub L closepath } def
/DrawTextBox { PopTextBox stroke /Boxing false def} def
/FillTextBox { gsave PopTextBox 1 1 1 setrgbcolor fill grestore /Boxing false def} def
0 0 0 0 InitTextBox
/TBxmargin 20 def
/TBymargin 20 def
/Boxing false def
/textshow { ExtendTextBox Gshow } def
%
% redundant definitions for compatibility with prologue.ps older than 5.0.2
/LTB {BL [] LCb DL} def
/LTb {PL [] LCb DL} def
end
%%EndProlog
%%Page: 1 1
gnudict begin
gsave
doclip
50 50 translate
0.050 0.050 scale
0 setgray
newpath
(Times-Roman) findfont 120 scalefont setfont
BackgroundColor 0 lt 3 1 roll 0 lt exch 0 lt or or not {BackgroundColor C 1.000 0 0 5272.00 3400.00 BoxColFill} if
1.000 UL
LTb
LCb setrgbcolor
0.500 UL
LTa
LCa setrgbcolor
732 384 M
4143 0 V
stroke
1.000 UL
LTb
LCb setrgbcolor
732 384 M
63 0 V
4080 0 R
-63 0 V
stroke
660 384 M
[ [(roman) 120.0 0.0 true true 0 (-6x10)]
[(roman) 96.0 60.0 true true 0 (-6)]
] -52.0 MRshow
1.000 UL
LTb
LCb setrgbcolor
0.500 UL
LTa
LCa setrgbcolor
732 622 M
4143 0 V
stroke
1.000 UL
LTb
LCb setrgbcolor
732 622 M
63 0 V
4080 0 R
-63 0 V
stroke
660 622 M
[ [(roman) 120.0 0.0 true true 0 (-5x10)]
[(roman) 96.0 60.0 true true 0 (-6)]
] -52.0 MRshow
1.000 UL
LTb
LCb setrgbcolor
0.500 UL
LTa
LCa setrgbcolor
732 859 M
4143 0 V
stroke
1.000 UL
LTb
LCb setrgbcolor
732 859 M
63 0 V
4080 0 R
-63 0 V
stroke
660 859 M
[ [(roman) 120.0 0.0 true true 0 (-4x10)]
[(roman) 96.0 60.0 true true 0 (-6)]
] -52.0 MRshow
1.000 UL
LTb
LCb setrgbcolor
0.500 UL
LTa
LCa setrgbcolor
732 1097 M
4143 0 V
stroke
1.000 UL
LTb
LCb setrgbcolor
732 1097 M
63 0 V
4080 0 R
-63 0 V
stroke
660 1097 M
[ [(roman) 120.0 0.0 true true 0 (-3x10)]
[(roman) 96.0 60.0 true true 0 (-6)]
] -52.0 MRshow
1.000 UL
LTb
LCb setrgbcolor
0.500 UL
LTa
LCa setrgbcolor
732 1335 M
4143 0 V
stroke
1.000 UL
LTb
LCb setrgbcolor
732 1335 M
63 0 V
4080 0 R
-63 0 V
stroke
660 1335 M
[ [(roman) 120.0 0.0 true true 0 (-2x10)]
[(roman) 96.0 60.0 true true 0 (-6)]
] -52.0 MRshow
1.000 UL
LTb
LCb setrgbcolor
0.500 UL
LTa
LCa setrgbcolor
732 1573 M
4143 0 V
stroke
1.000 UL
LTb
LCb setrgbcolor
732 1573 M
63 0 V
4080 0 R
-63 0 V
stroke
660 1573 M
[ [(roman) 120.0 0.0 true true 0 (-1x10)]
[(roman) 96.0 60.0 true true 0 (-6)]
] -52.0 MRshow
1.000 UL
LTb
LCb setrgbcolor
0.500 UL
LTa
LCa setrgbcolor
732 1810 M
4143 0 V
stroke
1.000 UL
LTb
LCb setrgbcolor
732 1810 M
63 0 V
4080 0 R
-63 0 V
stroke
660 1810 M
[ [(roman) 120.0 0.0 true true 0 ( 0)]
] -40.0 MRshow
1.000 UL
LTb
LCb setrgbcolor
0.500 UL
LTa
LCa setrgbcolor
732 2048 M
4143 0 V
stroke
1.000 UL
LTb
LCb setrgbcolor
732 2048 M
63 0 V
4080 0 R
-63 0 V
stroke
660 2048 M
[ [(roman) 120.0 0.0 true true 0 ( 1x10)]
[(roman) 96.0 60.0 true true 0 (-6)]
] -52.0 MRshow
1.000 UL
LTb
LCb setrgbcolor
0.500 UL
LTa
LCa setrgbcolor
732 2286 M
4143 0 V
stroke
1.000 UL
LTb
LCb setrgbcolor
732 2286 M
63 0 V
4080 0 R
-63 0 V
stroke
660 2286 M
[ [(roman) 120.0 0.0 true true 0 ( 2x10)]
[(roman) 96.0 60.0 true true 0 (-6)]
] -52.0 MRshow
1.000 UL
LTb
LCb setrgbcolor
0.500 UL
LTa
LCa setrgbcolor
732 2524 M
4143 0 V
stroke
1.000 UL
LTb
LCb setrgbcolor
732 2524 M
63 0 V
4080 0 R
-63 0 V
stroke
660 2524 M
[ [(roman) 120.0 0.0 true true 0 ( 3x10)]
[(roman) 96.0 60.0 true true 0 (-6)]
] -52.0 MRshow
1.000 UL
LTb
LCb setrgbcolor
0.500 UL
LTa
LCa setrgbcolor
732 2761 M
4143 0 V
stroke
1.000 UL
LTb
LCb setrgbcolor
732 2761 M
63 0 V
4080 0 R
-63 0 V
stroke
660 2761 M
[ [(roman) 120.0 0.0 true true 0 ( 4x10)]
[(roman) 96.0 60.0 true true 0 (-6)]
] -52.0 MRshow
1.000 UL
LTb
LCb setrgbcolor
0.500 UL
LTa
LCa setrgbcolor
732 2999 M
4143 0 V
stroke
1.000 UL
LTb
LCb setrgbcolor
732 2999 M
63 0 V
4080 0 R
-63 0 V
stroke
660 2999 M
[ [(roman) 120.0 0.0 true true 0 ( 5x10)]
[(roman) 96.0 60.0 true true 0 (-6)]
] -52.0 MRshow
1.000 UL
LTb
LCb setrgbcolor
0.500 UL
LTa
LCa setrgbcolor
732 384 M
0 2615 V
stroke
1.000 UL
LTb
LCb setrgbcolor
732 384 M
0 63 V
0 2552 R
0 -63 V
stroke
732 264 M
[ [(roman) 120.0 0.0 true true 0 ( 0)]
] -40.0 MCshow
1.000 UL
LTb
LCb setrgbcolor
0.500 UL
LTa
LCa setrgbcolor
1250 384 M
0 63 V
0 120 R
0 2432 V
stroke
1.000 UL
LTb
LCb setrgbcolor
1250 384 M
0 63 V
0 2552 R
0 -63 V
stroke
1250 264 M
[ [(roman) 120.0 0.0 true true 0 ( 100)]
] -40.0 MCshow
1.000 UL
LTb
LCb setrgbcolor
0.500 UL
LTa
LCa setrgbcolor
1768 384 M
0 63 V
0 120 R
0 2432 V
stroke
1.000 UL
LTb
LCb setrgbcolor
1768 384 M
0 63 V
0 2552 R
0 -63 V
stroke
1768 264 M
[ [(roman) 120.0 0.0 true true 0 ( 200)]
] -40.0 MCshow
1.000 UL
LTb
LCb setrgbcolor
0.500 UL
LTa
LCa setrgbcolor
2286 384 M
0 2615 V
stroke
1.000 UL
LTb
LCb setrgbcolor
2286 384 M
0 63 V
0 2552 R
0 -63 V
stroke
2286 264 M
[ [(roman) 120.0 0.0 true true 0 ( 300)]
] -40.0 MCshow
1.000 UL
LTb
LCb setrgbcolor
0.500 UL
LTa
LCa setrgbcolor
2804 384 M
0 2615 V
stroke
1.000 UL
LTb
LCb setrgbcolor
2804 384 M
0 63 V
0 2552 R
0 -63 V
stroke
2804 264 M
[ [(roman) 120.0 0.0 true true 0 ( 400)]
] -40.0 MCshow
1.000 UL
LTb
LCb setrgbcolor
0.500 UL
LTa
LCa setrgbcolor
3321 384 M
0 2615 V
stroke
1.000 UL
LTb
LCb setrgbcolor
3321 384 M
0 63 V
0 2552 R
0 -63 V
stroke
3321 264 M
[ [(roman) 120.0 0.0 true true 0 ( 500)]
] -40.0 MCshow
1.000 UL
LTb
LCb setrgbcolor
0.500 UL
LTa
LCa setrgbcolor
3839 384 M
0 2615 V
stroke
1.000 UL
LTb
LCb setrgbcolor
3839 384 M
0 63 V
0 2552 R
0 -63 V
stroke
3839 264 M
[ [(roman) 120.0 0.0 true true 0 ( 600)]
] -40.0 MCshow
1.000 UL
LTb
LCb setrgbcolor
0.500 UL
LTa
LCa setrgbcolor
4357 384 M
0 2615 V
stroke
1.000 UL
LTb
LCb setrgbcolor
4357 384 M
0 63 V
0 2552 R
0 -63 V
stroke
4357 264 M
[ [(roman) 120.0 0.0 true true 0 ( 700)]
] -40.0 MCshow
1.000 UL
LTb
LCb setrgbcolor
0.500 UL
LTa
LCa setrgbcolor
4875 384 M
0 2615 V
stroke
1.000 UL
LTb
LCb setrgbcolor
4875 384 M
0 63 V
0 2552 R
0 -63 V
stroke
4875 264 M
[ [(roman) 120.0 0.0 true true 0 ( 800)]
] -40.0 MCshow
1.000 UL
LTb
LCb setrgbcolor
1.000 UL
LTB
LCb setrgbcolor
732 2999 N
732 384 L
4143 0 V
0 2615 V
-4143 0 V
Z stroke
1.000 UP
1.000 UL
LTb
LCb setrgbcolor
LCb setrgbcolor
96 1691 M
currentpoint gsave translate -270 rotate 0 0 moveto
[ [(roman) 130.0 0.0 true true 0 (x, y [m])]
] -43.3 MCshow
grestore
LTb
LCb setrgbcolor
4994 1691 M
currentpoint gsave translate -270 rotate 0 0 moveto
[ [(roman) 130.0 0.0 true true 0 (x, y [m])]
] -43.3 MCshow
grestore
LTb
LCb setrgbcolor
2803 84 M
[ [(roman) 160.0 0.0 true true 0 (s [m])]
] -53.3 MCshow
LTb
LCb setrgbcolor
2803 3219 M
[ [(roman) 160.0 0.0 true true 0 (Orbit, from zgoubi.TWISS.out)]
] -53.3 MCshow
% Begin plot #1
1.000 UL
LTb
0.58 0.00 0.83 C LCb setrgbcolor
1164 507 M
[ [(roman) 120.0 0.0 true true 0 (x)]
] -40.0 MRshow
1.000 UL
LTb
0.58 0.00 0.83 C 1236 507 M
135 0 V
732 1810 M
1 0 V
17 1 V
1 0 V
1 0 V
17 -5 V
1 -1 V
1 -1 V
17 -23 V
1 -2 V
1 -1 V
16 -24 V
2 -2 V
2 -1 V
17 2 V
1 1 V
1 1 V
16 -3 V
1 -1 V
2 -2 V
16 -44 V
1 -4 V
1 -3 V
16 -41 V
3 -1 V
2 -1 V
16 27 V
1 3 V
1 3 V
16 28 V
1 0 V
1 0 V
17 -30 V
2 -8 V
2 -8 V
16 -26 V
1 1 V
1 0 V
17 47 V
1 6 V
1 5 V
17 53 V
1 2 V
1 2 V
17 14 V
1 -1 V
1 0 V
3 -9 V
14 -85 V
1 -5 V
3 -11 V
13 -45 V
13 -46 V
3 -11 V
1 -4 V
14 -144 V
3 -31 V
1 -12 V
1 -11 V
17 -42 V
1 5 V
1 5 V
17 169 V
1 20 V
1 19 V
17 204 V
1 13 V
1 12 V
17 162 V
1 13 V
1 13 V
17 127 V
1 5 V
1 6 V
17 11 V
1 -5 V
1 -4 V
17 -1 V
1 4 V
2 4 V
16 117 V
1 15 V
2 14 V
16 83 V
1 -2 V
2 -2 V
16 -137 V
2 -18 V
1 -18 V
16 -179 V
2 -11 V
1 -10 V
16 -125 V
2 -9 V
1 -9 V
16 -109 V
2 -7 V
1 -7 V
17 -57 V
1 -1 V
1 -2 V
17 -70 V
1 -9 V
stroke 1374 1546 M
1 -10 V
17 -207 V
1 -23 V
1 -23 V
17 -168 V
1 -1 V
1 -1 V
17 133 V
1 21 V
1 20 V
17 168 V
1 5 V
1 6 V
17 -10 V
1 -7 V
1 -7 V
17 -6 V
1 6 V
2 6 V
16 154 V
1 16 V
2 16 V
16 184 V
1 12 V
2 13 V
16 177 V
2 16 V
1 15 V
16 138 V
2 5 V
1 4 V
16 -25 V
2 -8 V
1 -9 V
16 -46 V
2 2 V
1 1 V
17 79 V
1 12 V
1 11 V
17 53 V
1 -4 V
1 -4 V
17 -141 V
1 -16 V
1 -17 V
17 -183 V
1 -12 V
27 -251 V
3 -46 V
2 -33 V
1 -33 V
4 -38 V
26 -101 V
1 -5 V
17 34 V
1 10 V
1 9 V
17 44 V
1 -3 V
2 -3 V
16 -125 V
1 -17 V
2 -16 V
16 -100 V
1 2 V
2 3 V
16 156 V
2 20 V
1 20 V
16 192 V
2 9 V
1 10 V
16 88 V
2 4 V
1 4 V
16 70 V
2 6 V
1 6 V
17 75 V
1 5 V
1 5 V
17 82 V
1 8 V
1 8 V
17 147 V
1 15 V
1 15 V
17 110 V
1 1 V
1 1 V
17 -90 V
1 -13 V
1 -14 V
17 -123 V
1 -6 V
1 -5 V
17 -35 V
1 0 V
1 0 V
17 -37 V
1 -6 V
2 -5 V
16 -97 V
stroke 2065 1848 M
1 -8 V
2 -9 V
16 -123 V
1 -10 V
2 -11 V
16 -190 V
2 -19 V
1 -19 V
16 -157 V
2 -3 V
1 -4 V
16 65 V
2 13 V
1 13 V
16 83 V
2 0 V
1 -1 V
17 -91 V
1 -14 V
1 -13 V
17 -72 V
1 3 V
1 4 V
17 157 V
1 20 V
1 19 V
17 191 V
1 11 V
1 10 V
17 118 V
1 7 V
1 8 V
17 92 V
1 6 V
1 6 V
17 44 V
1 1 V
1 1 V
17 43 V
1 6 V
2 6 V
16 129 V
1 14 V
2 14 V
2 19 V
14 -52 V
1 -15 V
4 -39 V
12 -155 V
13 -155 V
3 -38 V
1 -16 V
15 -220 V
2 -37 V
1 -15 V
1 -15 V
17 -108 V
1 0 V
1 -1 V
17 96 V
1 14 V
1 14 V
17 118 V
1 4 V
2 4 V
16 -2 V
1 -4 V
2 -4 V
16 -2 V
1 3 V
1 2 V
16 98 V
3 18 V
2 17 V
16 118 V
1 5 V
1 6 V
16 116 V
1 7 V
1 7 V
17 90 V
2 5 V
2 5 V
16 -21 V
1 -3 V
1 -4 V
17 -36 V
1 0 V
1 0 V
17 43 V
1 5 V
0 4 V
17 26 V
2 -4 V
2 -5 V
17 -91 V
1 -6 V
0 -7 V
17 -118 V
1 -8 V
1 -8 V
17 -113 V
1 -10 V
1 -10 V
stroke 2709 1710 M
17 -98 V
1 -4 V
2 -5 V
16 -9 V
1 3 V
2 3 V
16 -12 V
1 -5 V
2 -5 V
16 -133 V
2 -15 V
1 -16 V
16 -108 V
2 0 V
1 0 V
16 111 V
2 16 V
1 16 V
16 135 V
2 6 V
1 5 V
17 19 V
1 -3 V
1 -2 V
17 14 V
1 5 V
1 4 V
17 95 V
1 9 V
1 9 V
17 109 V
1 8 V
1 7 V
17 118 V
1 11 V
1 11 V
17 88 V
1 3 V
1 2 V
17 -34 V
1 -7 V
1 -7 V
3 -7 V
14 84 V
1 15 V
3 38 V
13 152 V
13 153 V
3 38 V
1 15 V
14 -68 V
3 -55 V
1 -32 V
1 -33 V
17 -346 V
1 -21 V
1 -22 V
17 -279 V
1 -22 V
1 -22 V
17 -235 V
1 -11 V
1 -12 V
17 -55 V
1 4 V
1 4 V
17 -60 V
1 -13 V
2 -14 V
16 -329 V
1 -38 V
2 -38 V
16 -259 V
1 0 V
2 0 V
16 269 V
2 38 V
1 39 V
16 339 V
2 14 V
1 14 V
16 80 V
2 -1 V
1 -2 V
16 70 V
2 12 V
1 12 V
17 224 V
1 20 V
1 20 V
17 264 V
1 22 V
1 21 V
17 346 V
1 33 V
1 33 V
17 271 V
1 6 V
1 6 V
17 -123 V
1 -24 V
1 -24 V
17 -174 V
1 -4 V
stroke 3369 2387 M
1 -3 V
17 79 V
1 16 V
1 15 V
17 47 V
1 -9 V
2 -9 V
16 -262 V
1 -29 V
2 -30 V
16 -332 V
1 -22 V
2 -23 V
16 -329 V
2 -29 V
1 -29 V
16 -272 V
2 -11 V
1 -11 V
16 11 V
2 12 V
1 13 V
16 23 V
2 -9 V
1 -9 V
17 -278 V
1 -35 V
1 -34 V
17 -218 V
1 4 V
1 3 V
17 294 V
1 40 V
1 39 V
17 369 V
1 18 V
1 18 V
17 158 V
1 6 V
1 6 V
17 131 V
1 13 V
7 72 V
18 178 V
2 16 V
3 18 V
2 1 V
1 2 V
4 19 V
1 8 V
12 135 V
13 144 V
2 13 V
16 306 V
1 34 V
2 34 V
16 231 V
1 -1 V
2 -1 V
16 -248 V
2 -35 V
1 -36 V
16 -326 V
2 -16 V
1 -15 V
16 -128 V
2 -5 V
1 -4 V
16 -119 V
2 -13 V
1 -13 V
17 -191 V
1 -15 V
1 -15 V
17 -235 V
1 -22 V
1 -22 V
17 -398 V
1 -40 V
1 -40 V
17 -321 V
1 -6 V
1 -6 V
17 174 V
1 31 V
1 31 V
17 226 V
1 4 V
1 4 V
17 -107 V
1 -21 V
1 -20 V
17 -78 V
1 10 V
2 9 V
16 310 V
1 36 V
2 35 V
16 379 V
1 24 V
2 24 V
16 317 V
2 25 V
1 26 V
stroke 4025 2098 M
16 253 V
2 11 V
1 11 V
16 17 V
2 -8 V
1 -9 V
16 0 V
2 8 V
1 9 V
17 250 V
1 31 V
1 30 V
17 185 V
1 -4 V
1 -3 V
17 -275 V
1 -36 V
1 -36 V
17 -355 V
1 -20 V
1 -19 V
17 -208 V
1 -14 V
1 -13 V
17 -181 V
1 -13 V
1 -13 V
17 -136 V
1 -7 V
1 -7 V
17 -163 V
1 -19 V
2 -19 V
16 -385 V
1 -41 V
2 -42 V
16 -307 V
1 -3 V
2 -4 V
16 229 V
2 37 V
1 36 V
2 79 V
14 333 V
2 12 V
3 30 V
12 120 V
13 120 V
3 30 V
1 12 V
15 185 V
2 26 V
1 9 V
1 10 V
17 131 V
1 11 V
2 12 V
16 192 V
1 19 V
2 19 V
16 147 V
1 2 V
2 2 V
16 -89 V
2 -16 V
1 -15 V
16 -126 V
2 -4 V
1 -4 V
16 2 V
2 4 V
1 5 V
17 -10 V
1 -6 V
1 -6 V
17 -137 V
1 -13 V
1 -14 V
17 -173 V
1 -14 V
1 -13 V
17 -216 V
1 -21 V
1 -20 V
17 -179 V
1 -5 V
1 -6 V
17 44 V
1 12 V
1 12 V
17 58 V
1 -3 V
1 -2 V
17 -141 V
1 -20 V
1 -19 V
17 -111 V
1 3 V
% End plot #1
% Begin plot #2
stroke
LTb
0.34 0.71 0.91 C LCb setrgbcolor
1803 507 M
[ [(roman) 120.0 0.0 true true 0 (y)]
] -40.0 MRshow
1.000 UL
LTb
0.34 0.71 0.91 C 1875 507 M
135 0 V
732 1810 M
1 0 V
17 0 V
1 0 V
1 0 V
17 0 V
1 0 V
1 0 V
17 0 V
1 0 V
1 0 V
16 0 V
2 0 V
2 0 V
17 0 V
1 0 V
1 0 V
16 0 V
1 0 V
2 0 V
16 0 V
1 0 V
1 0 V
16 0 V
3 0 V
2 0 V
16 0 V
1 0 V
1 0 V
16 0 V
1 0 V
1 0 V
17 0 V
2 0 V
2 0 V
16 0 V
1 0 V
1 0 V
17 0 V
1 0 V
1 0 V
17 0 V
1 0 V
1 0 V
17 0 V
1 0 V
1 0 V
3 0 V
14 0 V
1 0 V
3 0 V
13 0 V
13 0 V
3 0 V
1 0 V
14 0 V
3 0 V
1 0 V
1 0 V
17 0 V
1 0 V
1 0 V
17 0 V
1 0 V
1 0 V
17 0 V
1 0 V
1 0 V
17 0 V
1 0 V
1 0 V
17 0 V
1 0 V
1 0 V
17 0 V
1 0 V
1 0 V
17 0 V
1 0 V
2 0 V
16 0 V
1 0 V
2 0 V
16 0 V
1 0 V
2 0 V
16 0 V
2 0 V
1 0 V
16 0 V
2 0 V
1 0 V
16 0 V
2 0 V
1 0 V
16 0 V
2 0 V
1 0 V
17 0 V
1 0 V
1 0 V
17 0 V
1 0 V
stroke 1374 1810 M
1 0 V
17 0 V
1 0 V
1 0 V
17 0 V
1 0 V
1 0 V
17 0 V
1 0 V
1 0 V
17 0 V
1 0 V
1 0 V
17 0 V
1 0 V
1 0 V
17 0 V
1 0 V
2 0 V
16 0 V
1 0 V
2 0 V
16 0 V
1 0 V
2 0 V
16 0 V
2 0 V
1 0 V
16 0 V
2 0 V
1 0 V
16 0 V
2 0 V
1 0 V
16 0 V
2 0 V
1 0 V
17 0 V
1 0 V
1 0 V
17 0 V
1 0 V
1 0 V
17 0 V
1 0 V
1 0 V
17 0 V
1 0 V
27 0 V
3 0 V
2 0 V
1 0 V
4 0 V
26 0 V
1 0 V
17 0 V
1 0 V
1 0 V
17 0 V
1 0 V
2 0 V
16 0 V
1 0 V
2 0 V
16 0 V
1 0 V
2 0 V
16 0 V
2 0 V
1 0 V
16 0 V
2 0 V
1 0 V
16 0 V
2 0 V
1 0 V
16 0 V
2 0 V
1 0 V
17 0 V
1 0 V
1 0 V
17 0 V
1 0 V
1 0 V
17 0 V
1 0 V
1 0 V
17 0 V
1 0 V
1 0 V
17 0 V
1 0 V
1 0 V
17 0 V
1 0 V
1 0 V
17 0 V
1 0 V
1 0 V
17 0 V
1 0 V
2 0 V
16 0 V
stroke 2065 1810 M
1 0 V
2 0 V
16 0 V
1 0 V
2 0 V
16 0 V
2 0 V
1 0 V
16 0 V
2 0 V
1 0 V
16 0 V
2 0 V
1 0 V
16 0 V
2 0 V
1 0 V
17 0 V
1 0 V
1 0 V
17 0 V
1 0 V
1 0 V
17 0 V
1 0 V
1 0 V
17 0 V
1 0 V
1 0 V
17 0 V
1 0 V
1 0 V
17 0 V
1 0 V
1 0 V
17 0 V
1 0 V
1 0 V
17 0 V
1 0 V
2 0 V
16 0 V
1 0 V
2 0 V
2 0 V
14 0 V
1 0 V
4 0 V
12 0 V
13 0 V
3 0 V
1 0 V
15 0 V
2 0 V
1 0 V
1 0 V
17 0 V
1 0 V
1 0 V
17 0 V
1 0 V
1 0 V
17 0 V
1 0 V
2 0 V
16 0 V
1 0 V
2 0 V
16 0 V
1 0 V
1 0 V
16 0 V
3 0 V
2 0 V
16 0 V
1 0 V
1 0 V
16 0 V
1 0 V
1 0 V
17 0 V
2 0 V
2 0 V
16 0 V
1 0 V
1 0 V
17 0 V
1 0 V
1 0 V
17 0 V
1 0 V
17 0 V
2 0 V
2 0 V
17 0 V
1 0 V
17 0 V
1 0 V
1 0 V
17 0 V
1 0 V
1 0 V
17 0 V
1 0 V
stroke 2727 1810 M
2 0 V
16 0 V
1 0 V
2 0 V
16 0 V
1 0 V
2 0 V
16 0 V
2 0 V
1 0 V
16 0 V
2 0 V
1 0 V
16 0 V
2 0 V
1 0 V
16 0 V
2 0 V
1 0 V
17 0 V
1 0 V
1 0 V
17 0 V
1 0 V
1 0 V
17 0 V
1 0 V
1 0 V
17 0 V
1 0 V
1 0 V
17 0 V
1 0 V
1 0 V
17 0 V
1 0 V
1 0 V
17 0 V
1 0 V
1 0 V
3 0 V
14 0 V
1 0 V
3 0 V
13 0 V
13 0 V
3 0 V
1 0 V
14 0 V
3 0 V
1 0 V
1 0 V
17 0 V
1 0 V
1 0 V
17 0 V
1 0 V
1 0 V
17 0 V
1 0 V
1 0 V
17 0 V
1 0 V
1 0 V
17 0 V
1 0 V
2 0 V
16 0 V
1 0 V
2 0 V
16 0 V
1 0 V
2 0 V
16 0 V
2 0 V
1 0 V
16 0 V
2 0 V
1 0 V
16 0 V
2 0 V
1 0 V
16 0 V
2 0 V
1 0 V
17 0 V
1 0 V
1 0 V
17 0 V
1 0 V
1 0 V
17 0 V
1 0 V
1 0 V
17 0 V
1 0 V
1 0 V
17 0 V
1 0 V
1 0 V
17 0 V
1 0 V
1 0 V
17 0 V
stroke 3387 1810 M
1 0 V
1 0 V
17 0 V
1 0 V
2 0 V
16 0 V
1 0 V
2 0 V
16 0 V
1 0 V
2 0 V
16 0 V
2 0 V
1 0 V
16 0 V
2 0 V
1 0 V
16 0 V
2 0 V
1 0 V
16 0 V
2 0 V
1 0 V
17 0 V
1 0 V
1 0 V
17 0 V
1 0 V
1 0 V
17 0 V
1 0 V
1 0 V
17 0 V
1 0 V
1 0 V
17 0 V
1 0 V
1 0 V
17 0 V
1 0 V
7 0 V
18 0 V
2 0 V
3 0 V
2 0 V
1 0 V
4 0 V
1 0 V
12 0 V
13 0 V
2 0 V
16 0 V
1 0 V
2 0 V
16 0 V
1 0 V
2 0 V
16 0 V
2 0 V
1 0 V
16 0 V
2 0 V
1 0 V
16 0 V
2 0 V
1 0 V
16 0 V
2 0 V
1 0 V
17 0 V
1 0 V
1 0 V
17 0 V
1 0 V
1 0 V
17 0 V
1 0 V
1 0 V
17 0 V
1 0 V
1 0 V
17 0 V
1 0 V
1 0 V
17 0 V
1 0 V
1 0 V
17 0 V
1 0 V
1 0 V
17 0 V
1 0 V
2 0 V
16 0 V
1 0 V
2 0 V
16 0 V
1 0 V
2 0 V
16 0 V
2 0 V
1 0 V
16 0 V
2 0 V
stroke 4043 1810 M
1 0 V
16 0 V
2 0 V
1 0 V
16 0 V
2 0 V
1 0 V
17 0 V
1 0 V
1 0 V
17 0 V
1 0 V
1 0 V
17 0 V
1 0 V
1 0 V
17 0 V
1 0 V
1 0 V
17 0 V
1 0 V
1 0 V
17 0 V
1 0 V
1 0 V
17 0 V
1 0 V
1 0 V
17 0 V
1 0 V
2 0 V
16 0 V
1 0 V
2 0 V
16 0 V
1 0 V
2 0 V
16 0 V
2 0 V
1 0 V
2 0 V
14 0 V
2 0 V
3 0 V
12 0 V
13 0 V
3 0 V
1 0 V
15 0 V
2 0 V
1 0 V
1 0 V
17 0 V
1 0 V
2 0 V
16 0 V
1 0 V
2 0 V
16 0 V
1 0 V
2 0 V
16 0 V
2 0 V
1 0 V
16 0 V
2 0 V
1 0 V
16 0 V
2 0 V
1 0 V
17 0 V
1 0 V
1 0 V
17 0 V
1 0 V
1 0 V
17 0 V
1 0 V
1 0 V
17 0 V
1 0 V
1 0 V
17 0 V
1 0 V
1 0 V
17 0 V
1 0 V
1 0 V
17 0 V
1 0 V
1 0 V
17 0 V
1 0 V
1 0 V
17 0 V
1 0 V
% End plot #2
stroke
2.000 UL
LTb
LCb setrgbcolor
1.000 UL
LTB
LCb setrgbcolor
732 2999 N
732 384 L
4143 0 V
0 2615 V
-4143 0 V
Z stroke
1.000 UP
1.000 UL
LTb
LCb setrgbcolor
stroke
grestore
end
showpage
%%Trailer
%%DocumentFonts: roman Times-Roman
