%!PS-Adobe-2.0 EPSF-2.0
%%Title: gnuplot_zgoubi.plt_ex1231a_diffTheor.eps
%%Creator: gnuplot 5.2 patchlevel 2
%%CreationDate: Thu May 28 13:55:39 2020
%%DocumentFonts: (atend)
%%BoundingBox: 50 50 410 302
%%EndComments
%%BeginProlog
/gnudict 256 dict def
gnudict begin
%
% The following true/false flags may be edited by hand if desired.
% The unit line width and grayscale image gamma correction may also be changed.
%
/Color true def
/Blacktext true def
/Solid false def
/Dashlength 1 def
/Landscape false def
/Level1 false def
/Level3 false def
/Rounded false def
/ClipToBoundingBox false def
/SuppressPDFMark false def
/TransparentPatterns false def
/gnulinewidth 5.000 def
/userlinewidth gnulinewidth def
/Gamma 1.0 def
/BackgroundColor {-1.000 -1.000 -1.000} def
%
/vshift -46 def
/dl1 {
  10.0 Dashlength userlinewidth gnulinewidth div mul mul mul
  Rounded { currentlinewidth 0.75 mul sub dup 0 le { pop 0.01 } if } if
} def
/dl2 {
  10.0 Dashlength userlinewidth gnulinewidth div mul mul mul
  Rounded { currentlinewidth 0.75 mul add } if
} def
/hpt_ 31.5 def
/vpt_ 31.5 def
/hpt hpt_ def
/vpt vpt_ def
/doclip {
  ClipToBoundingBox {
    newpath 50 50 moveto 410 50 lineto 410 302 lineto 50 302 lineto closepath
    clip
  } if
} def
%
% Gnuplot Prolog Version 5.1 (Oct 2015)
%
%/SuppressPDFMark true def
%
/M {moveto} bind def
/L {lineto} bind def
/R {rmoveto} bind def
/V {rlineto} bind def
/N {newpath moveto} bind def
/Z {closepath} bind def
/C {setrgbcolor} bind def
/f {rlineto fill} bind def
/g {setgray} bind def
/Gshow {show} def   % May be redefined later in the file to support UTF-8
/vpt2 vpt 2 mul def
/hpt2 hpt 2 mul def
/Lshow {currentpoint stroke M 0 vshift R 
	Blacktext {gsave 0 setgray textshow grestore} {textshow} ifelse} def
/Rshow {currentpoint stroke M dup stringwidth pop neg vshift R
	Blacktext {gsave 0 setgray textshow grestore} {textshow} ifelse} def
/Cshow {currentpoint stroke M dup stringwidth pop -2 div vshift R 
	Blacktext {gsave 0 setgray textshow grestore} {textshow} ifelse} def
/UP {dup vpt_ mul /vpt exch def hpt_ mul /hpt exch def
  /hpt2 hpt 2 mul def /vpt2 vpt 2 mul def} def
/DL {Color {setrgbcolor Solid {pop []} if 0 setdash}
 {pop pop pop 0 setgray Solid {pop []} if 0 setdash} ifelse} def
/BL {stroke userlinewidth 2 mul setlinewidth
	Rounded {1 setlinejoin 1 setlinecap} if} def
/AL {stroke userlinewidth 2 div setlinewidth
	Rounded {1 setlinejoin 1 setlinecap} if} def
/UL {dup gnulinewidth mul /userlinewidth exch def
	dup 1 lt {pop 1} if 10 mul /udl exch def} def
/PL {stroke userlinewidth setlinewidth
	Rounded {1 setlinejoin 1 setlinecap} if} def
3.8 setmiterlimit
% Classic Line colors (version 5.0)
/LCw {1 1 1} def
/LCb {0 0 0} def
/LCa {0 0 0} def
/LC0 {1 0 0} def
/LC1 {0 1 0} def
/LC2 {0 0 1} def
/LC3 {1 0 1} def
/LC4 {0 1 1} def
/LC5 {1 1 0} def
/LC6 {0 0 0} def
/LC7 {1 0.3 0} def
/LC8 {0.5 0.5 0.5} def
% Default dash patterns (version 5.0)
/LTB {BL [] LCb DL} def
/LTw {PL [] 1 setgray} def
/LTb {PL [] LCb DL} def
/LTa {AL [1 udl mul 2 udl mul] 0 setdash LCa setrgbcolor} def
/LT0 {PL [] LC0 DL} def
/LT1 {PL [2 dl1 3 dl2] LC1 DL} def
/LT2 {PL [1 dl1 1.5 dl2] LC2 DL} def
/LT3 {PL [6 dl1 2 dl2 1 dl1 2 dl2] LC3 DL} def
/LT4 {PL [1 dl1 2 dl2 6 dl1 2 dl2 1 dl1 2 dl2] LC4 DL} def
/LT5 {PL [4 dl1 2 dl2] LC5 DL} def
/LT6 {PL [1.5 dl1 1.5 dl2 1.5 dl1 1.5 dl2 1.5 dl1 6 dl2] LC6 DL} def
/LT7 {PL [3 dl1 3 dl2 1 dl1 3 dl2] LC7 DL} def
/LT8 {PL [2 dl1 2 dl2 2 dl1 6 dl2] LC8 DL} def
/SL {[] 0 setdash} def
/Pnt {stroke [] 0 setdash gsave 1 setlinecap M 0 0 V stroke grestore} def
/Dia {stroke [] 0 setdash 2 copy vpt add M
  hpt neg vpt neg V hpt vpt neg V
  hpt vpt V hpt neg vpt V closepath stroke
  Pnt} def
/Pls {stroke [] 0 setdash vpt sub M 0 vpt2 V
  currentpoint stroke M
  hpt neg vpt neg R hpt2 0 V stroke
 } def
/Box {stroke [] 0 setdash 2 copy exch hpt sub exch vpt add M
  0 vpt2 neg V hpt2 0 V 0 vpt2 V
  hpt2 neg 0 V closepath stroke
  Pnt} def
/Crs {stroke [] 0 setdash exch hpt sub exch vpt add M
  hpt2 vpt2 neg V currentpoint stroke M
  hpt2 neg 0 R hpt2 vpt2 V stroke} def
/TriU {stroke [] 0 setdash 2 copy vpt 1.12 mul add M
  hpt neg vpt -1.62 mul V
  hpt 2 mul 0 V
  hpt neg vpt 1.62 mul V closepath stroke
  Pnt} def
/Star {2 copy Pls Crs} def
/BoxF {stroke [] 0 setdash exch hpt sub exch vpt add M
  0 vpt2 neg V hpt2 0 V 0 vpt2 V
  hpt2 neg 0 V closepath fill} def
/TriUF {stroke [] 0 setdash vpt 1.12 mul add M
  hpt neg vpt -1.62 mul V
  hpt 2 mul 0 V
  hpt neg vpt 1.62 mul V closepath fill} def
/TriD {stroke [] 0 setdash 2 copy vpt 1.12 mul sub M
  hpt neg vpt 1.62 mul V
  hpt 2 mul 0 V
  hpt neg vpt -1.62 mul V closepath stroke
  Pnt} def
/TriDF {stroke [] 0 setdash vpt 1.12 mul sub M
  hpt neg vpt 1.62 mul V
  hpt 2 mul 0 V
  hpt neg vpt -1.62 mul V closepath fill} def
/DiaF {stroke [] 0 setdash vpt add M
  hpt neg vpt neg V hpt vpt neg V
  hpt vpt V hpt neg vpt V closepath fill} def
/Pent {stroke [] 0 setdash 2 copy gsave
  translate 0 hpt M 4 {72 rotate 0 hpt L} repeat
  closepath stroke grestore Pnt} def
/PentF {stroke [] 0 setdash gsave
  translate 0 hpt M 4 {72 rotate 0 hpt L} repeat
  closepath fill grestore} def
/Circle {stroke [] 0 setdash 2 copy
  hpt 0 360 arc stroke Pnt} def
/CircleF {stroke [] 0 setdash hpt 0 360 arc fill} def
/C0 {BL [] 0 setdash 2 copy moveto vpt 90 450 arc} bind def
/C1 {BL [] 0 setdash 2 copy moveto
	2 copy vpt 0 90 arc closepath fill
	vpt 0 360 arc closepath} bind def
/C2 {BL [] 0 setdash 2 copy moveto
	2 copy vpt 90 180 arc closepath fill
	vpt 0 360 arc closepath} bind def
/C3 {BL [] 0 setdash 2 copy moveto
	2 copy vpt 0 180 arc closepath fill
	vpt 0 360 arc closepath} bind def
/C4 {BL [] 0 setdash 2 copy moveto
	2 copy vpt 180 270 arc closepath fill
	vpt 0 360 arc closepath} bind def
/C5 {BL [] 0 setdash 2 copy moveto
	2 copy vpt 0 90 arc
	2 copy moveto
	2 copy vpt 180 270 arc closepath fill
	vpt 0 360 arc} bind def
/C6 {BL [] 0 setdash 2 copy moveto
	2 copy vpt 90 270 arc closepath fill
	vpt 0 360 arc closepath} bind def
/C7 {BL [] 0 setdash 2 copy moveto
	2 copy vpt 0 270 arc closepath fill
	vpt 0 360 arc closepath} bind def
/C8 {BL [] 0 setdash 2 copy moveto
	2 copy vpt 270 360 arc closepath fill
	vpt 0 360 arc closepath} bind def
/C9 {BL [] 0 setdash 2 copy moveto
	2 copy vpt 270 450 arc closepath fill
	vpt 0 360 arc closepath} bind def
/C10 {BL [] 0 setdash 2 copy 2 copy moveto vpt 270 360 arc closepath fill
	2 copy moveto
	2 copy vpt 90 180 arc closepath fill
	vpt 0 360 arc closepath} bind def
/C11 {BL [] 0 setdash 2 copy moveto
	2 copy vpt 0 180 arc closepath fill
	2 copy moveto
	2 copy vpt 270 360 arc closepath fill
	vpt 0 360 arc closepath} bind def
/C12 {BL [] 0 setdash 2 copy moveto
	2 copy vpt 180 360 arc closepath fill
	vpt 0 360 arc closepath} bind def
/C13 {BL [] 0 setdash 2 copy moveto
	2 copy vpt 0 90 arc closepath fill
	2 copy moveto
	2 copy vpt 180 360 arc closepath fill
	vpt 0 360 arc closepath} bind def
/C14 {BL [] 0 setdash 2 copy moveto
	2 copy vpt 90 360 arc closepath fill
	vpt 0 360 arc} bind def
/C15 {BL [] 0 setdash 2 copy vpt 0 360 arc closepath fill
	vpt 0 360 arc closepath} bind def
/Rec {newpath 4 2 roll moveto 1 index 0 rlineto 0 exch rlineto
	neg 0 rlineto closepath} bind def
/Square {dup Rec} bind def
/Bsquare {vpt sub exch vpt sub exch vpt2 Square} bind def
/S0 {BL [] 0 setdash 2 copy moveto 0 vpt rlineto BL Bsquare} bind def
/S1 {BL [] 0 setdash 2 copy vpt Square fill Bsquare} bind def
/S2 {BL [] 0 setdash 2 copy exch vpt sub exch vpt Square fill Bsquare} bind def
/S3 {BL [] 0 setdash 2 copy exch vpt sub exch vpt2 vpt Rec fill Bsquare} bind def
/S4 {BL [] 0 setdash 2 copy exch vpt sub exch vpt sub vpt Square fill Bsquare} bind def
/S5 {BL [] 0 setdash 2 copy 2 copy vpt Square fill
	exch vpt sub exch vpt sub vpt Square fill Bsquare} bind def
/S6 {BL [] 0 setdash 2 copy exch vpt sub exch vpt sub vpt vpt2 Rec fill Bsquare} bind def
/S7 {BL [] 0 setdash 2 copy exch vpt sub exch vpt sub vpt vpt2 Rec fill
	2 copy vpt Square fill Bsquare} bind def
/S8 {BL [] 0 setdash 2 copy vpt sub vpt Square fill Bsquare} bind def
/S9 {BL [] 0 setdash 2 copy vpt sub vpt vpt2 Rec fill Bsquare} bind def
/S10 {BL [] 0 setdash 2 copy vpt sub vpt Square fill 2 copy exch vpt sub exch vpt Square fill
	Bsquare} bind def
/S11 {BL [] 0 setdash 2 copy vpt sub vpt Square fill 2 copy exch vpt sub exch vpt2 vpt Rec fill
	Bsquare} bind def
/S12 {BL [] 0 setdash 2 copy exch vpt sub exch vpt sub vpt2 vpt Rec fill Bsquare} bind def
/S13 {BL [] 0 setdash 2 copy exch vpt sub exch vpt sub vpt2 vpt Rec fill
	2 copy vpt Square fill Bsquare} bind def
/S14 {BL [] 0 setdash 2 copy exch vpt sub exch vpt sub vpt2 vpt Rec fill
	2 copy exch vpt sub exch vpt Square fill Bsquare} bind def
/S15 {BL [] 0 setdash 2 copy Bsquare fill Bsquare} bind def
/D0 {gsave translate 45 rotate 0 0 S0 stroke grestore} bind def
/D1 {gsave translate 45 rotate 0 0 S1 stroke grestore} bind def
/D2 {gsave translate 45 rotate 0 0 S2 stroke grestore} bind def
/D3 {gsave translate 45 rotate 0 0 S3 stroke grestore} bind def
/D4 {gsave translate 45 rotate 0 0 S4 stroke grestore} bind def
/D5 {gsave translate 45 rotate 0 0 S5 stroke grestore} bind def
/D6 {gsave translate 45 rotate 0 0 S6 stroke grestore} bind def
/D7 {gsave translate 45 rotate 0 0 S7 stroke grestore} bind def
/D8 {gsave translate 45 rotate 0 0 S8 stroke grestore} bind def
/D9 {gsave translate 45 rotate 0 0 S9 stroke grestore} bind def
/D10 {gsave translate 45 rotate 0 0 S10 stroke grestore} bind def
/D11 {gsave translate 45 rotate 0 0 S11 stroke grestore} bind def
/D12 {gsave translate 45 rotate 0 0 S12 stroke grestore} bind def
/D13 {gsave translate 45 rotate 0 0 S13 stroke grestore} bind def
/D14 {gsave translate 45 rotate 0 0 S14 stroke grestore} bind def
/D15 {gsave translate 45 rotate 0 0 S15 stroke grestore} bind def
/DiaE {stroke [] 0 setdash vpt add M
  hpt neg vpt neg V hpt vpt neg V
  hpt vpt V hpt neg vpt V closepath stroke} def
/BoxE {stroke [] 0 setdash exch hpt sub exch vpt add M
  0 vpt2 neg V hpt2 0 V 0 vpt2 V
  hpt2 neg 0 V closepath stroke} def
/TriUE {stroke [] 0 setdash vpt 1.12 mul add M
  hpt neg vpt -1.62 mul V
  hpt 2 mul 0 V
  hpt neg vpt 1.62 mul V closepath stroke} def
/TriDE {stroke [] 0 setdash vpt 1.12 mul sub M
  hpt neg vpt 1.62 mul V
  hpt 2 mul 0 V
  hpt neg vpt -1.62 mul V closepath stroke} def
/PentE {stroke [] 0 setdash gsave
  translate 0 hpt M 4 {72 rotate 0 hpt L} repeat
  closepath stroke grestore} def
/CircE {stroke [] 0 setdash 
  hpt 0 360 arc stroke} def
/Opaque {gsave closepath 1 setgray fill grestore 0 setgray closepath} def
/DiaW {stroke [] 0 setdash vpt add M
  hpt neg vpt neg V hpt vpt neg V
  hpt vpt V hpt neg vpt V Opaque stroke} def
/BoxW {stroke [] 0 setdash exch hpt sub exch vpt add M
  0 vpt2 neg V hpt2 0 V 0 vpt2 V
  hpt2 neg 0 V Opaque stroke} def
/TriUW {stroke [] 0 setdash vpt 1.12 mul add M
  hpt neg vpt -1.62 mul V
  hpt 2 mul 0 V
  hpt neg vpt 1.62 mul V Opaque stroke} def
/TriDW {stroke [] 0 setdash vpt 1.12 mul sub M
  hpt neg vpt 1.62 mul V
  hpt 2 mul 0 V
  hpt neg vpt -1.62 mul V Opaque stroke} def
/PentW {stroke [] 0 setdash gsave
  translate 0 hpt M 4 {72 rotate 0 hpt L} repeat
  Opaque stroke grestore} def
/CircW {stroke [] 0 setdash 
  hpt 0 360 arc Opaque stroke} def
/BoxFill {gsave Rec 1 setgray fill grestore} def
/Density {
  /Fillden exch def
  currentrgbcolor
  /ColB exch def /ColG exch def /ColR exch def
  /ColR ColR Fillden mul Fillden sub 1 add def
  /ColG ColG Fillden mul Fillden sub 1 add def
  /ColB ColB Fillden mul Fillden sub 1 add def
  ColR ColG ColB setrgbcolor} def
/BoxColFill {gsave Rec PolyFill} def
/PolyFill {gsave Density fill grestore grestore} def
/h {rlineto rlineto rlineto gsave closepath fill grestore} bind def
%
% PostScript Level 1 Pattern Fill routine for rectangles
% Usage: x y w h s a XX PatternFill
%	x,y = lower left corner of box to be filled
%	w,h = width and height of box
%	  a = angle in degrees between lines and x-axis
%	 XX = 0/1 for no/yes cross-hatch
%
/PatternFill {gsave /PFa [ 9 2 roll ] def
  PFa 0 get PFa 2 get 2 div add PFa 1 get PFa 3 get 2 div add translate
  PFa 2 get -2 div PFa 3 get -2 div PFa 2 get PFa 3 get Rec
  TransparentPatterns {} {gsave 1 setgray fill grestore} ifelse
  clip
  currentlinewidth 0.5 mul setlinewidth
  /PFs PFa 2 get dup mul PFa 3 get dup mul add sqrt def
  0 0 M PFa 5 get rotate PFs -2 div dup translate
  0 1 PFs PFa 4 get div 1 add floor cvi
	{PFa 4 get mul 0 M 0 PFs V} for
  0 PFa 6 get ne {
	0 1 PFs PFa 4 get div 1 add floor cvi
	{PFa 4 get mul 0 2 1 roll M PFs 0 V} for
 } if
  stroke grestore} def
%
/languagelevel where
 {pop languagelevel} {1} ifelse
dup 2 lt
	{/InterpretLevel1 true def
	 /InterpretLevel3 false def}
	{/InterpretLevel1 Level1 def
	 2 gt
	    {/InterpretLevel3 Level3 def}
	    {/InterpretLevel3 false def}
	 ifelse }
 ifelse
%
% PostScript level 2 pattern fill definitions
%
/Level2PatternFill {
/Tile8x8 {/PaintType 2 /PatternType 1 /TilingType 1 /BBox [0 0 8 8] /XStep 8 /YStep 8}
	bind def
/KeepColor {currentrgbcolor [/Pattern /DeviceRGB] setcolorspace} bind def
<< Tile8x8
 /PaintProc {0.5 setlinewidth pop 0 0 M 8 8 L 0 8 M 8 0 L stroke} 
>> matrix makepattern
/Pat1 exch def
<< Tile8x8
 /PaintProc {0.5 setlinewidth pop 0 0 M 8 8 L 0 8 M 8 0 L stroke
	0 4 M 4 8 L 8 4 L 4 0 L 0 4 L stroke}
>> matrix makepattern
/Pat2 exch def
<< Tile8x8
 /PaintProc {0.5 setlinewidth pop 0 0 M 0 8 L
	8 8 L 8 0 L 0 0 L fill}
>> matrix makepattern
/Pat3 exch def
<< Tile8x8
 /PaintProc {0.5 setlinewidth pop -4 8 M 8 -4 L
	0 12 M 12 0 L stroke}
>> matrix makepattern
/Pat4 exch def
<< Tile8x8
 /PaintProc {0.5 setlinewidth pop -4 0 M 8 12 L
	0 -4 M 12 8 L stroke}
>> matrix makepattern
/Pat5 exch def
<< Tile8x8
 /PaintProc {0.5 setlinewidth pop -2 8 M 4 -4 L
	0 12 M 8 -4 L 4 12 M 10 0 L stroke}
>> matrix makepattern
/Pat6 exch def
<< Tile8x8
 /PaintProc {0.5 setlinewidth pop -2 0 M 4 12 L
	0 -4 M 8 12 L 4 -4 M 10 8 L stroke}
>> matrix makepattern
/Pat7 exch def
<< Tile8x8
 /PaintProc {0.5 setlinewidth pop 8 -2 M -4 4 L
	12 0 M -4 8 L 12 4 M 0 10 L stroke}
>> matrix makepattern
/Pat8 exch def
<< Tile8x8
 /PaintProc {0.5 setlinewidth pop 0 -2 M 12 4 L
	-4 0 M 12 8 L -4 4 M 8 10 L stroke}
>> matrix makepattern
/Pat9 exch def
/Pattern1 {PatternBgnd KeepColor Pat1 setpattern} bind def
/Pattern2 {PatternBgnd KeepColor Pat2 setpattern} bind def
/Pattern3 {PatternBgnd KeepColor Pat3 setpattern} bind def
/Pattern4 {PatternBgnd KeepColor Landscape {Pat5} {Pat4} ifelse setpattern} bind def
/Pattern5 {PatternBgnd KeepColor Landscape {Pat4} {Pat5} ifelse setpattern} bind def
/Pattern6 {PatternBgnd KeepColor Landscape {Pat9} {Pat6} ifelse setpattern} bind def
/Pattern7 {PatternBgnd KeepColor Landscape {Pat8} {Pat7} ifelse setpattern} bind def
} def
%
%
%End of PostScript Level 2 code
%
/PatternBgnd {
  TransparentPatterns {} {gsave 1 setgray fill grestore} ifelse
} def
%
% Substitute for Level 2 pattern fill codes with
% grayscale if Level 2 support is not selected.
%
/Level1PatternFill {
/Pattern1 {0.250 Density} bind def
/Pattern2 {0.500 Density} bind def
/Pattern3 {0.750 Density} bind def
/Pattern4 {0.125 Density} bind def
/Pattern5 {0.375 Density} bind def
/Pattern6 {0.625 Density} bind def
/Pattern7 {0.875 Density} bind def
} def
%
% Now test for support of Level 2 code
%
Level1 {Level1PatternFill} {Level2PatternFill} ifelse
%
/Symbol-Oblique /Symbol findfont [1 0 .167 1 0 0] makefont
dup length dict begin {1 index /FID eq {pop pop} {def} ifelse} forall
currentdict end definefont pop
%
/Metrics {ExtendTextBox Gswidth} def
/Lwidth {currentpoint stroke M 0 vshift R Metrics} def
/Rwidth {currentpoint stroke M dup stringwidth pop neg vshift R Metrics} def
/Cwidth {currentpoint stroke M dup stringwidth pop -2 div vshift R Metrics} def
/GLwidth {currentpoint stroke M 0 vshift R {ExtendTextBox} forall} def
/GRwidth {currentpoint stroke M dup Gwidth vshift R {ExtendTextBox} forall} def
/GCwidth {currentpoint stroke M dup Gwidth 2 div vshift R {ExtendTextBox} forall} def
/GLwidth2 {0 Gwidth AddGlyphWidth} def
/GRwidth2 {Gwidth -1 mul 0 AddGlyphWidth} def
/GCwidth2 {Gwidth 2 div dup -1 mul AddGlyphWidth} def
/AddGlyphWidth { dup TBx2 gt {userdict /TBx2 3 -1 roll put} {pop} ifelse
                 dup TBx1 lt {userdict /TBx1 3 -1 roll put} {pop} ifelse } def
/MFshow {
   { dup 5 get 3 ge
     { 5 get 3 eq {gsave} {grestore} ifelse }
     {dup dup 0 get findfont exch 1 get scalefont setfont
     [ currentpoint ] exch dup 2 get 0 exch R dup 5 get 2 ne {dup dup 6
     get exch 4 get {textshow} {Metrics pop 0 R} ifelse }if dup 5 get 0 eq
     {dup 3 get {2 get neg 0 exch R pop} {pop aload pop M} ifelse} {dup 5
     get 1 eq {dup 2 get exch dup 3 get exch 6 get Gswidth pop -2 div
     dup 0 R} {dup 6 get Gswidth pop -2 div 0 R 6 get
     textshow 2 index {aload pop M neg 3 -1 roll neg R pop pop} {pop pop pop
     pop aload pop M} ifelse }ifelse }ifelse }
     ifelse }
   forall} def
/Gswidth {dup type /stringtype eq {stringwidth} {pop (n) stringwidth} ifelse} def
/MFwidth {0 exch { dup 5 get 3 ge { 5 get 3 eq { 0 } { pop } ifelse }
 {dup 3 get{dup dup 0 get findfont exch 1 get scalefont setfont
     6 get Gswidth pop add} {pop} ifelse} ifelse} forall} def
/MLshow { currentpoint stroke M
  0 exch R
  Blacktext {gsave 0 setgray MFshow grestore} {MFshow} ifelse } bind def
/MRshow { currentpoint stroke M
  exch dup MFwidth neg 3 -1 roll R
  Blacktext {gsave 0 setgray MFshow grestore} {MFshow} ifelse } bind def
/MCshow { currentpoint stroke M
  exch dup MFwidth -2 div 3 -1 roll R
  Blacktext {gsave 0 setgray MFshow grestore} {MFshow} ifelse } bind def
/XYsave    { [( ) 1 2 true false 3 ()] } bind def
/XYrestore { [( ) 1 2 true false 4 ()] } bind def
Level1 SuppressPDFMark or 
{} {
/SDict 10 dict def
systemdict /pdfmark known not {
  userdict /pdfmark systemdict /cleartomark get put
} if
SDict begin [
  /Title (gnuplot_zgoubi.plt_ex1231a_diffTheor.eps)
  /Subject (gnuplot plot)
  /Creator (gnuplot 5.2 patchlevel 2)
%  /Producer (gnuplot)
%  /Keywords ()
  /CreationDate (Thu May 28 13:55:39 2020)
  /DOCINFO pdfmark
end
} ifelse
%
% Support for boxed text - Ethan A Merritt Sep 2016
%
/InitTextBox { userdict /TBy2 3 -1 roll put userdict /TBx2 3 -1 roll put
           userdict /TBy1 3 -1 roll put userdict /TBx1 3 -1 roll put
	   /Boxing true def } def
/ExtendTextBox { dup type /stringtype eq
    { Boxing { gsave dup false charpath pathbbox
      dup TBy2 gt {userdict /TBy2 3 -1 roll put} {pop} ifelse
      dup TBx2 gt {userdict /TBx2 3 -1 roll put} {pop} ifelse
      dup TBy1 lt {userdict /TBy1 3 -1 roll put} {pop} ifelse
      dup TBx1 lt {userdict /TBx1 3 -1 roll put} {pop} ifelse
      grestore } if }
    {} ifelse} def
/PopTextBox { newpath TBx1 TBxmargin sub TBy1 TBymargin sub M
               TBx1 TBxmargin sub TBy2 TBymargin add L
	       TBx2 TBxmargin add TBy2 TBymargin add L
	       TBx2 TBxmargin add TBy1 TBymargin sub L closepath } def
/DrawTextBox { PopTextBox stroke /Boxing false def} def
/FillTextBox { gsave PopTextBox fill grestore /Boxing false def} def
0 0 0 0 InitTextBox
/TBxmargin 20 def
/TBymargin 20 def
/Boxing false def
/textshow { ExtendTextBox Gshow } def
%
end
%%EndProlog
%%Page: 1 1
gnudict begin
gsave
doclip
50 50 translate
0.050 0.050 scale
0 setgray
newpath
(Helvetica) findfont 140 scalefont setfont
BackgroundColor 0 lt 3 1 roll 0 lt exch 0 lt or or not {BackgroundColor C 1.000 0 0 7200.00 5040.00 BoxColFill} if
/Helvetica findfont 140 scalefont setfont
/vshift -46 def
1.000 UL
LTb
LCb setrgbcolor
770 644 M
63 0 V
stroke
686 644 M
[ [(Helvetica) 140.0 0.0 true true 0 (-0.1)]
] -46.7 MRshow
1.000 UL
LTb
LCb setrgbcolor
770 1624 M
63 0 V
stroke
686 1624 M
[ [(Helvetica) 140.0 0.0 true true 0 (-0.05)]
] -46.7 MRshow
1.000 UL
LTb
LCb setrgbcolor
770 2603 M
63 0 V
stroke
686 2603 M
[ [(Helvetica) 140.0 0.0 true true 0 ( 0)]
] -46.7 MRshow
1.000 UL
LTb
LCb setrgbcolor
770 3583 M
63 0 V
stroke
686 3583 M
[ [(Helvetica) 140.0 0.0 true true 0 ( 0.05)]
] -46.7 MRshow
1.000 UL
LTb
LCb setrgbcolor
770 4563 M
63 0 V
stroke
686 4563 M
[ [(Helvetica) 140.0 0.0 true true 0 ( 0.1)]
] -46.7 MRshow
1.000 UL
LTb
LCb setrgbcolor
770 448 M
0 63 V
0 4248 R
0 -63 V
stroke
770 308 M
[ [(Helvetica) 140.0 0.0 true true 0 ( 0)]
] -46.7 MCshow
1.000 UL
LTb
LCb setrgbcolor
1265 448 M
0 63 V
0 4248 R
0 -63 V
stroke
1265 308 M
[ [(Helvetica) 140.0 0.0 true true 0 ( 1)]
] -46.7 MCshow
1.000 UL
LTb
LCb setrgbcolor
1759 448 M
0 63 V
0 4248 R
0 -63 V
stroke
1759 308 M
[ [(Helvetica) 140.0 0.0 true true 0 ( 2)]
] -46.7 MCshow
1.000 UL
LTb
LCb setrgbcolor
2254 448 M
0 63 V
0 4248 R
0 -63 V
stroke
2254 308 M
[ [(Helvetica) 140.0 0.0 true true 0 ( 3)]
] -46.7 MCshow
1.000 UL
LTb
LCb setrgbcolor
2748 448 M
0 63 V
0 4248 R
0 -63 V
stroke
2748 308 M
[ [(Helvetica) 140.0 0.0 true true 0 ( 4)]
] -46.7 MCshow
1.000 UL
LTb
LCb setrgbcolor
3243 448 M
0 63 V
0 4248 R
0 -63 V
stroke
3243 308 M
[ [(Helvetica) 140.0 0.0 true true 0 ( 5)]
] -46.7 MCshow
1.000 UL
LTb
LCb setrgbcolor
3737 448 M
0 63 V
0 4248 R
0 -63 V
stroke
3737 308 M
[ [(Helvetica) 140.0 0.0 true true 0 ( 6)]
] -46.7 MCshow
1.000 UL
LTb
LCb setrgbcolor
4232 448 M
0 63 V
0 4248 R
0 -63 V
stroke
4232 308 M
[ [(Helvetica) 140.0 0.0 true true 0 ( 7)]
] -46.7 MCshow
1.000 UL
LTb
LCb setrgbcolor
4726 448 M
0 63 V
0 4248 R
0 -63 V
stroke
4726 308 M
[ [(Helvetica) 140.0 0.0 true true 0 ( 8)]
] -46.7 MCshow
1.000 UL
LTb
LCb setrgbcolor
5221 448 M
0 63 V
0 4248 R
0 -63 V
stroke
5221 308 M
[ [(Helvetica) 140.0 0.0 true true 0 ( 9)]
] -46.7 MCshow
1.000 UL
LTb
LCb setrgbcolor
5715 448 M
0 63 V
0 4248 R
0 -63 V
stroke
5715 308 M
[ [(Helvetica) 140.0 0.0 true true 0 ( 10)]
] -46.7 MCshow
1.000 UL
LTb
LCb setrgbcolor
5715 448 M
-63 0 V
stroke
5799 448 M
[ [(Helvetica) 140.0 0.0 true true 0 (0.000000001)]
] -46.7 MLshow
1.000 UL
LTb
LCb setrgbcolor
5715 772 M
-31 0 V
31 190 R
-31 0 V
31 135 R
-31 0 V
31 104 R
-31 0 V
31 86 R
-31 0 V
31 72 R
-31 0 V
31 62 R
-31 0 V
31 55 R
-31 0 V
31 50 R
-63 0 V
stroke
5799 1526 M
[ [(Helvetica) 140.0 0.0 true true 0 (0.000000010)]
] -46.7 MLshow
1.000 UL
LTb
LCb setrgbcolor
5715 1850 M
-31 0 V
31 190 R
-31 0 V
31 135 R
-31 0 V
31 104 R
-31 0 V
31 85 R
-31 0 V
31 73 R
-31 0 V
31 62 R
-31 0 V
31 55 R
-31 0 V
31 50 R
-63 0 V
stroke
5799 2604 M
[ [(Helvetica) 140.0 0.0 true true 0 (0.000000100)]
] -46.7 MLshow
1.000 UL
LTb
LCb setrgbcolor
5715 2928 M
-31 0 V
31 190 R
-31 0 V
31 134 R
-31 0 V
31 105 R
-31 0 V
31 85 R
-31 0 V
31 72 R
-31 0 V
31 63 R
-31 0 V
31 55 R
-31 0 V
31 49 R
-63 0 V
stroke
5799 3681 M
[ [(Helvetica) 140.0 0.0 true true 0 (0.000001000)]
] -46.7 MLshow
1.000 UL
LTb
LCb setrgbcolor
5715 4006 M
-31 0 V
31 189 R
-31 0 V
31 135 R
-31 0 V
31 105 R
-31 0 V
31 85 R
-31 0 V
31 72 R
-31 0 V
31 63 R
-31 0 V
31 55 R
-31 0 V
31 49 R
-63 0 V
stroke
5799 4759 M
[ [(Helvetica) 140.0 0.0 true true 0 (0.000010000)]
] -46.7 MLshow
1.000 UL
LTb
LCb setrgbcolor
770 4759 M
0 -63 V
stroke
770 4899 M
[ [(Helvetica) 140.0 0.0 true true 0 ( 0)]
] -46.7 MCshow
1.000 UL
LTb
LCb setrgbcolor
1265 4759 M
0 -63 V
stroke
1265 4899 M
[ [(Helvetica) 140.0 0.0 true true 0 ( 1)]
] -46.7 MCshow
1.000 UL
LTb
LCb setrgbcolor
1759 4759 M
0 -63 V
stroke
1759 4899 M
[ [(Helvetica) 140.0 0.0 true true 0 ( 2)]
] -46.7 MCshow
1.000 UL
LTb
LCb setrgbcolor
2254 4759 M
0 -63 V
stroke
2254 4899 M
[ [(Helvetica) 140.0 0.0 true true 0 ( 3)]
] -46.7 MCshow
1.000 UL
LTb
LCb setrgbcolor
2748 4759 M
0 -63 V
stroke
2748 4899 M
[ [(Helvetica) 140.0 0.0 true true 0 ( 4)]
] -46.7 MCshow
1.000 UL
LTb
LCb setrgbcolor
3243 4759 M
0 -63 V
stroke
3243 4899 M
[ [(Helvetica) 140.0 0.0 true true 0 ( 5)]
] -46.7 MCshow
1.000 UL
LTb
LCb setrgbcolor
3737 4759 M
0 -63 V
stroke
3737 4899 M
[ [(Helvetica) 140.0 0.0 true true 0 ( 6)]
] -46.7 MCshow
1.000 UL
LTb
LCb setrgbcolor
4232 4759 M
0 -63 V
stroke
4232 4899 M
[ [(Helvetica) 140.0 0.0 true true 0 ( 7)]
] -46.7 MCshow
1.000 UL
LTb
LCb setrgbcolor
4726 4759 M
0 -63 V
stroke
4726 4899 M
[ [(Helvetica) 140.0 0.0 true true 0 ( 8)]
] -46.7 MCshow
1.000 UL
LTb
LCb setrgbcolor
5221 4759 M
0 -63 V
stroke
5221 4899 M
[ [(Helvetica) 140.0 0.0 true true 0 ( 9)]
] -46.7 MCshow
1.000 UL
LTb
LCb setrgbcolor
5715 4759 M
0 -63 V
stroke
5715 4899 M
[ [(Helvetica) 140.0 0.0 true true 0 ( 10)]
] -46.7 MCshow
1.000 UL
LTb
LCb setrgbcolor
1.000 UL
LTB
LCb setrgbcolor
770 4759 N
770 448 L
4945 0 V
0 4311 V
-4945 0 V
Z stroke
1.000 UP
1.000 UL
LTb
LCb setrgbcolor
LCb setrgbcolor
126 2603 M
currentpoint gsave translate -270 rotate 0 0 moveto
[ [(Helvetica) 140.0 0.0 true true 0 (Y  [cm])]
] -46.7 MCshow
grestore
LTb
LCb setrgbcolor
6975 2603 M
currentpoint gsave translate -270 rotate 0 0 moveto
[ [(Helvetica) 140.0 0.0 true true 0 (Y)]
[(Helvetica) 112.0 -42.0 true true 0 (num.)]
[(Helvetica) 140.0 0.0 true true 0 ( - Y)]
[(Helvetica) 112.0 -42.0 true true 0 (theor)]
[(Helvetica) 140.0 0.0 true true 0 (  [cm])]
] -32.7 MCshow
grestore
LTb
LCb setrgbcolor
3242 98 M
[ [(Helvetica) 140.0 0.0 true true 0 (s  /circumference)]
] -46.7 MCshow
LTb
% Begin plot #1
0.900 UP
1.000 UL
LTb
0.58 0.00 0.83 C 770 4563 Pls
773 4563 Pls
776 4563 Pls
779 4563 Pls
782 4562 Pls
785 4562 Pls
788 4561 Pls
791 4561 Pls
794 4560 Pls
797 4559 Pls
800 4559 Pls
803 4558 Pls
807 4557 Pls
810 4556 Pls
813 4554 Pls
816 4553 Pls
819 4552 Pls
822 4550 Pls
825 4549 Pls
828 4547 Pls
831 4545 Pls
834 4544 Pls
837 4542 Pls
840 4540 Pls
843 4538 Pls
846 4536 Pls
849 4533 Pls
852 4531 Pls
1264 3513 Pls
1268 3501 Pls
1271 3489 Pls
1274 3478 Pls
1277 3466 Pls
1280 3454 Pls
1283 3442 Pls
1286 3430 Pls
1289 3418 Pls
1292 3406 Pls
1295 3394 Pls
1298 3382 Pls
1301 3370 Pls
1304 3358 Pls
1307 3346 Pls
1310 3334 Pls
1313 3322 Pls
1316 3310 Pls
1319 3297 Pls
1322 3285 Pls
1325 3273 Pls
1328 3260 Pls
1331 3248 Pls
1335 3236 Pls
1338 3223 Pls
1341 3211 Pls
1344 3198 Pls
1347 3186 Pls
1759 1488 Pls
1762 1477 Pls
1765 1466 Pls
1768 1456 Pls
1771 1445 Pls
1774 1434 Pls
1777 1424 Pls
1780 1413 Pls
1783 1403 Pls
1786 1393 Pls
1789 1382 Pls
1792 1372 Pls
1796 1362 Pls
1799 1352 Pls
1802 1342 Pls
1805 1332 Pls
1808 1322 Pls
1811 1312 Pls
1814 1302 Pls
1817 1292 Pls
1820 1282 Pls
1823 1273 Pls
1826 1263 Pls
1829 1254 Pls
1832 1244 Pls
1835 1235 Pls
1838 1225 Pls
1841 1216 Pls
2253 659 Pls
2257 660 Pls
2260 662 Pls
2263 664 Pls
2266 666 Pls
2269 668 Pls
2272 670 Pls
2275 672 Pls
2278 674 Pls
2281 677 Pls
2284 679 Pls
2287 682 Pls
2290 684 Pls
2293 687 Pls
2296 690 Pls
2299 693 Pls
2302 696 Pls
2305 699 Pls
2308 702 Pls
2311 705 Pls
2314 708 Pls
2317 712 Pls
2320 715 Pls
2324 719 Pls
2327 722 Pls
2330 726 Pls
2333 730 Pls
2336 734 Pls
2748 1915 Pls
2751 1927 Pls
2754 1939 Pls
2757 1952 Pls
2760 1964 Pls
2763 1976 Pls
2766 1989 Pls
2769 2001 Pls
2772 2014 Pls
2775 2026 Pls
2778 2039 Pls
2781 2052 Pls
2785 2064 Pls
2788 2077 Pls
2791 2089 Pls
2794 2102 Pls
2797 2115 Pls
2800 2128 Pls
2803 2140 Pls
2806 2153 Pls
2809 2166 Pls
2812 2179 Pls
2815 2191 Pls
2818 2204 Pls
2821 2217 Pls
2824 2230 Pls
2827 2243 Pls
2830 2256 Pls
3242 3909 Pls
3246 3919 Pls
3249 3928 Pls
3252 3938 Pls
3255 3948 Pls
3258 3957 Pls
3261 3967 Pls
3264 3976 Pls
3267 3985 Pls
3270 3995 Pls
3273 4004 Pls
3276 4013 Pls
3279 4022 Pls
3282 4031 Pls
3285 4040 Pls
3288 4049 Pls
3291 4058 Pls
3294 4067 Pls
3297 4075 Pls
3300 4084 Pls
3303 4092 Pls
3306 4101 Pls
3309 4109 Pls
3313 4118 Pls
3316 4126 Pls
3319 4134 Pls
3322 4142 Pls
3325 4151 Pls
3737 4504 Pls
3740 4501 Pls
3743 4497 Pls
3746 4494 Pls
3749 4490 Pls
3752 4487 Pls
3755 4483 Pls
3758 4479 Pls
3761 4476 Pls
3764 4472 Pls
3767 4468 Pls
3770 4464 Pls
3774 4459 Pls
3777 4455 Pls
3780 4451 Pls
3783 4446 Pls
3786 4442 Pls
3789 4437 Pls
3792 4433 Pls
3795 4428 Pls
3798 4423 Pls
3801 4418 Pls
3804 4413 Pls
3807 4408 Pls
3810 4403 Pls
3813 4398 Pls
3816 4392 Pls
3819 4387 Pls
4231 3062 Pls
4235 3049 Pls
4238 3036 Pls
4241 3023 Pls
4244 3010 Pls
4247 2998 Pls
4250 2985 Pls
4253 2972 Pls
4256 2959 Pls
4259 2946 Pls
4262 2933 Pls
4265 2920 Pls
4268 2907 Pls
4271 2894 Pls
4274 2881 Pls
4277 2868 Pls
4280 2855 Pls
4283 2842 Pls
4286 2829 Pls
4289 2816 Pls
4292 2803 Pls
4295 2790 Pls
4298 2777 Pls
4302 2764 Pls
4305 2751 Pls
4308 2738 Pls
4311 2724 Pls
4314 2711 Pls
4726 1128 Pls
4729 1120 Pls
4732 1111 Pls
4735 1103 Pls
4738 1094 Pls
4741 1086 Pls
4744 1078 Pls
4747 1069 Pls
4750 1061 Pls
4753 1053 Pls
4756 1045 Pls
4759 1037 Pls
4763 1029 Pls
4766 1022 Pls
4769 1014 Pls
4772 1006 Pls
4775 999 Pls
4778 991 Pls
4781 984 Pls
4784 976 Pls
4787 969 Pls
4790 962 Pls
4793 955 Pls
4796 948 Pls
4799 941 Pls
4802 934 Pls
4805 927 Pls
4808 920 Pls
5220 776 Pls
5224 781 Pls
5227 786 Pls
5230 791 Pls
5233 796 Pls
5236 801 Pls
5239 806 Pls
5242 811 Pls
5245 817 Pls
5248 822 Pls
5251 828 Pls
5254 833 Pls
5257 839 Pls
5260 845 Pls
5263 851 Pls
5266 857 Pls
5269 863 Pls
5272 869 Pls
5275 875 Pls
5278 881 Pls
5281 887 Pls
5284 894 Pls
5287 900 Pls
5291 907 Pls
5294 913 Pls
5297 920 Pls
5300 927 Pls
5303 934 Pls
% End plot #1
% Begin plot #2
0.900 UP
1.000 UL
LTb
0.00 0.62 0.45 C 852 4531 Crs
855 4528 Crs
859 4526 Crs
862 4523 Crs
865 4521 Crs
868 4518 Crs
871 4515 Crs
874 4512 Crs
877 4509 Crs
880 4506 Crs
883 4503 Crs
886 4500 Crs
889 4496 Crs
892 4493 Crs
895 4489 Crs
898 4486 Crs
901 4482 Crs
904 4478 Crs
907 4474 Crs
910 4470 Crs
913 4466 Crs
916 4462 Crs
919 4458 Crs
922 4454 Crs
925 4449 Crs
929 4445 Crs
932 4440 Crs
935 4436 Crs
1347 3185 Crs
1350 3172 Crs
1353 3160 Crs
1356 3147 Crs
1359 3134 Crs
1362 3122 Crs
1365 3109 Crs
1368 3096 Crs
1371 3084 Crs
1374 3071 Crs
1377 3058 Crs
1380 3045 Crs
1383 3033 Crs
1386 3020 Crs
1390 3007 Crs
1393 2994 Crs
1396 2981 Crs
1399 2968 Crs
1402 2955 Crs
1405 2942 Crs
1408 2929 Crs
1411 2916 Crs
1414 2904 Crs
1417 2891 Crs
1420 2878 Crs
1423 2865 Crs
1426 2852 Crs
1429 2838 Crs
1841 1215 Crs
1844 1206 Crs
1848 1197 Crs
1851 1188 Crs
1854 1179 Crs
1857 1170 Crs
1860 1161 Crs
1863 1152 Crs
1866 1143 Crs
1869 1135 Crs
1872 1126 Crs
1875 1117 Crs
1878 1109 Crs
1881 1100 Crs
1884 1092 Crs
1887 1084 Crs
1890 1075 Crs
1893 1067 Crs
1896 1059 Crs
1899 1051 Crs
1902 1043 Crs
1905 1035 Crs
1908 1027 Crs
1911 1020 Crs
1914 1012 Crs
1918 1004 Crs
1921 997 Crs
1924 989 Crs
2336 734 Crs
2339 738 Crs
2342 742 Crs
2345 746 Crs
2348 751 Crs
2351 755 Crs
2354 759 Crs
2357 764 Crs
2360 768 Crs
2363 773 Crs
2366 778 Crs
2369 782 Crs
2372 787 Crs
2375 792 Crs
2379 797 Crs
2382 803 Crs
2385 808 Crs
2388 813 Crs
2391 818 Crs
2394 824 Crs
2397 829 Crs
2400 835 Crs
2403 841 Crs
2406 847 Crs
2409 852 Crs
2412 858 Crs
2415 864 Crs
2418 870 Crs
2830 2257 Crs
2833 2270 Crs
2837 2283 Crs
2840 2296 Crs
2843 2309 Crs
2846 2322 Crs
2849 2335 Crs
2852 2348 Crs
2855 2361 Crs
2858 2374 Crs
2861 2387 Crs
2864 2400 Crs
2867 2413 Crs
2870 2426 Crs
2873 2439 Crs
2876 2452 Crs
2879 2465 Crs
2882 2478 Crs
2885 2491 Crs
2888 2504 Crs
2891 2518 Crs
2894 2531 Crs
2897 2544 Crs
2900 2557 Crs
2903 2570 Crs
2907 2583 Crs
2910 2596 Crs
2913 2609 Crs
3325 4151 Crs
3328 4159 Crs
3331 4167 Crs
3334 4175 Crs
3337 4183 Crs
3340 4191 Crs
3343 4198 Crs
3346 4206 Crs
3349 4213 Crs
3352 4221 Crs
3355 4228 Crs
3358 4235 Crs
3361 4243 Crs
3364 4250 Crs
3368 4257 Crs
3371 4264 Crs
3374 4271 Crs
3377 4278 Crs
3380 4285 Crs
3383 4291 Crs
3386 4298 Crs
3389 4304 Crs
3392 4311 Crs
3395 4317 Crs
3398 4324 Crs
3401 4330 Crs
3404 4336 Crs
3407 4342 Crs
3819 4386 Crs
3822 4381 Crs
3826 4375 Crs
3829 4370 Crs
3832 4364 Crs
3835 4358 Crs
3838 4352 Crs
3841 4346 Crs
3844 4340 Crs
3847 4334 Crs
3850 4328 Crs
3853 4322 Crs
3856 4315 Crs
3859 4309 Crs
3862 4302 Crs
3865 4296 Crs
3868 4289 Crs
3871 4282 Crs
3874 4276 Crs
3877 4269 Crs
3880 4262 Crs
3883 4255 Crs
3886 4248 Crs
3889 4241 Crs
3892 4233 Crs
3896 4226 Crs
3899 4219 Crs
3902 4211 Crs
4314 2710 Crs
4317 2697 Crs
4320 2684 Crs
4323 2671 Crs
4326 2658 Crs
4329 2645 Crs
4332 2632 Crs
4335 2619 Crs
4338 2605 Crs
4341 2592 Crs
4344 2579 Crs
4347 2566 Crs
4350 2553 Crs
4353 2540 Crs
4357 2527 Crs
4360 2514 Crs
4363 2500 Crs
4366 2487 Crs
4369 2474 Crs
4372 2461 Crs
4375 2448 Crs
4378 2435 Crs
4381 2422 Crs
4384 2409 Crs
4387 2396 Crs
4390 2383 Crs
4393 2370 Crs
4396 2357 Crs
4808 920 Crs
4811 913 Crs
4815 907 Crs
4818 900 Crs
4821 894 Crs
4824 887 Crs
4827 881 Crs
4830 875 Crs
4833 868 Crs
4836 862 Crs
4839 856 Crs
4842 851 Crs
4845 845 Crs
4848 839 Crs
4851 833 Crs
4854 828 Crs
4857 822 Crs
4860 817 Crs
4863 811 Crs
4866 806 Crs
4869 801 Crs
4872 796 Crs
4875 791 Crs
4878 786 Crs
4881 781 Crs
4885 776 Crs
4888 771 Crs
4891 767 Crs
5303 934 Crs
5306 941 Crs
5309 948 Crs
5312 955 Crs
5315 962 Crs
5318 969 Crs
5321 977 Crs
5324 984 Crs
5327 991 Crs
5330 999 Crs
5333 1006 Crs
5336 1014 Crs
5339 1022 Crs
5342 1030 Crs
5346 1037 Crs
5349 1045 Crs
5352 1053 Crs
5355 1061 Crs
5358 1070 Crs
5361 1078 Crs
5364 1086 Crs
5367 1094 Crs
5370 1103 Crs
5373 1111 Crs
5376 1120 Crs
5379 1128 Crs
5382 1137 Crs
5385 1146 Crs
% End plot #2
% Begin plot #3
0.900 UP
1.000 UL
LTb
0.34 0.71 0.91 C 935 4436 Star
938 4431 Star
941 4426 Star
944 4421 Star
947 4416 Star
950 4411 Star
953 4406 Star
956 4401 Star
959 4396 Star
962 4390 Star
965 4385 Star
968 4379 Star
971 4374 Star
974 4368 Star
977 4362 Star
981 4357 Star
984 4351 Star
987 4345 Star
990 4339 Star
993 4332 Star
996 4326 Star
999 4320 Star
1002 4314 Star
1005 4307 Star
1008 4301 Star
1011 4294 Star
1014 4287 Star
1017 4281 Star
1429 2838 Star
1432 2825 Star
1435 2811 Star
1438 2798 Star
1442 2785 Star
1445 2772 Star
1448 2759 Star
1451 2746 Star
1454 2733 Star
1457 2720 Star
1460 2707 Star
1463 2694 Star
1466 2681 Star
1469 2667 Star
1472 2654 Star
1475 2641 Star
1478 2628 Star
1481 2615 Star
1484 2602 Star
1487 2589 Star
1490 2576 Star
1493 2562 Star
1496 2549 Star
1499 2536 Star
1502 2523 Star
1505 2510 Star
1508 2497 Star
1512 2484 Star
1924 989 Star
1927 981 Star
1930 974 Star
1933 967 Star
1936 960 Star
1939 952 Star
1942 945 Star
1945 938 Star
1948 932 Star
1951 925 Star
1954 918 Star
1957 911 Star
1960 905 Star
1963 898 Star
1966 892 Star
1970 885 Star
1973 879 Star
1976 873 Star
1979 867 Star
1982 861 Star
1985 855 Star
1988 849 Star
1991 843 Star
1994 837 Star
1997 832 Star
2000 826 Star
2003 821 Star
2006 815 Star
2418 871 Star
2421 877 Star
2424 883 Star
2427 890 Star
2431 896 Star
2434 902 Star
2437 909 Star
2440 916 Star
2443 922 Star
2446 929 Star
2449 936 Star
2452 943 Star
2455 950 Star
2458 957 Star
2461 964 Star
2464 971 Star
2467 979 Star
2470 986 Star
2473 994 Star
2476 1001 Star
2479 1009 Star
2482 1016 Star
2485 1024 Star
2488 1032 Star
2491 1040 Star
2494 1048 Star
2497 1056 Star
2501 1064 Star
2913 2610 Star
2916 2624 Star
2919 2637 Star
2922 2650 Star
2925 2663 Star
2928 2676 Star
2931 2689 Star
2934 2702 Star
2937 2715 Star
2940 2728 Star
2943 2742 Star
2946 2755 Star
2949 2768 Star
2952 2781 Star
2955 2794 Star
2959 2807 Star
2962 2820 Star
2965 2833 Star
2968 2846 Star
2971 2859 Star
2974 2872 Star
2977 2885 Star
2980 2898 Star
2983 2911 Star
2986 2924 Star
2989 2937 Star
2992 2950 Star
2995 2963 Star
3407 4343 Star
3410 4349 Star
3413 4355 Star
3416 4360 Star
3420 4366 Star
3423 4372 Star
3426 4377 Star
3429 4383 Star
3432 4388 Star
3435 4394 Star
3438 4399 Star
3441 4404 Star
3444 4410 Star
3447 4415 Star
3450 4420 Star
3453 4424 Star
3456 4429 Star
3459 4434 Star
3462 4439 Star
3465 4443 Star
3468 4448 Star
3471 4452 Star
3474 4456 Star
3477 4461 Star
3480 4465 Star
3483 4469 Star
3486 4473 Star
3490 4477 Star
3902 4211 Star
3905 4203 Star
3908 4195 Star
3911 4188 Star
3914 4180 Star
3917 4172 Star
3920 4164 Star
3923 4156 Star
3926 4148 Star
3929 4140 Star
3932 4132 Star
3935 4124 Star
3938 4115 Star
3941 4107 Star
3944 4098 Star
3948 4090 Star
3951 4081 Star
3954 4073 Star
3957 4064 Star
3960 4055 Star
3963 4046 Star
3966 4037 Star
3969 4028 Star
3972 4019 Star
3975 4010 Star
3978 4001 Star
3981 3992 Star
3984 3983 Star
4396 2356 Star
4399 2343 Star
4402 2330 Star
4405 2317 Star
4409 2304 Star
4412 2291 Star
4415 2278 Star
4418 2265 Star
4421 2252 Star
4424 2239 Star
4427 2226 Star
4430 2213 Star
4433 2200 Star
4436 2188 Star
4439 2175 Star
4442 2162 Star
4445 2149 Star
4448 2136 Star
4451 2124 Star
4454 2111 Star
4457 2098 Star
4460 2086 Star
4463 2073 Star
4466 2060 Star
4469 2048 Star
4472 2035 Star
4475 2023 Star
4479 2010 Star
4891 767 Star
4894 762 Star
4897 758 Star
4900 753 Star
4903 749 Star
4906 745 Star
4909 741 Star
4912 737 Star
4915 733 Star
4918 729 Star
4921 725 Star
4924 721 Star
4927 718 Star
4930 714 Star
4933 711 Star
4937 707 Star
4940 704 Star
4943 701 Star
4946 698 Star
4949 695 Star
4952 692 Star
4955 689 Star
4958 686 Star
4961 684 Star
4964 681 Star
4967 678 Star
4970 676 Star
4973 674 Star
5385 1147 Star
5388 1155 Star
5391 1164 Star
5394 1173 Star
5398 1182 Star
5401 1191 Star
5404 1200 Star
5407 1210 Star
5410 1219 Star
5413 1228 Star
5416 1238 Star
5419 1247 Star
5422 1256 Star
5425 1266 Star
5428 1276 Star
5431 1285 Star
5434 1295 Star
5437 1305 Star
5440 1315 Star
5443 1325 Star
5446 1335 Star
5449 1345 Star
5452 1355 Star
5455 1365 Star
5458 1375 Star
5461 1385 Star
5464 1396 Star
5468 1406 Star
% End plot #3
% Begin plot #4
0.900 UP
1.000 UL
LTb
0.90 0.62 0.00 C 1017 4280 Box
1020 4273 Box
1023 4266 Box
1026 4259 Box
1029 4252 Box
1032 4245 Box
1036 4238 Box
1039 4231 Box
1042 4223 Box
1045 4216 Box
1048 4208 Box
1051 4201 Box
1054 4193 Box
1057 4185 Box
1060 4178 Box
1063 4170 Box
1066 4162 Box
1069 4154 Box
1072 4146 Box
1075 4138 Box
1078 4129 Box
1081 4121 Box
1084 4113 Box
1087 4104 Box
1090 4096 Box
1093 4087 Box
1096 4079 Box
1099 4070 Box
1512 2483 Box
1515 2470 Box
1518 2457 Box
1521 2444 Box
1524 2430 Box
1527 2417 Box
1530 2404 Box
1533 2391 Box
1536 2378 Box
1539 2365 Box
1542 2352 Box
1545 2339 Box
1548 2326 Box
1551 2313 Box
1554 2300 Box
1557 2287 Box
1560 2274 Box
1564 2261 Box
1567 2248 Box
1570 2235 Box
1573 2223 Box
1576 2210 Box
1579 2197 Box
1582 2184 Box
1585 2171 Box
1588 2158 Box
1591 2146 Box
1594 2133 Box
2006 815 Box
2009 810 Box
2012 804 Box
2015 799 Box
2018 794 Box
2021 789 Box
2025 784 Box
2028 779 Box
2031 775 Box
2034 770 Box
2037 765 Box
2040 761 Box
2043 756 Box
2046 752 Box
2049 748 Box
2052 744 Box
2055 740 Box
2058 736 Box
2061 732 Box
2064 728 Box
2067 724 Box
2070 720 Box
2073 717 Box
2076 713 Box
2079 710 Box
2082 706 Box
2085 703 Box
2088 700 Box
2501 1064 Box
2504 1073 Box
2507 1081 Box
2510 1089 Box
2513 1097 Box
2516 1106 Box
2519 1114 Box
2522 1123 Box
2525 1132 Box
2528 1140 Box
2531 1149 Box
2534 1158 Box
2537 1167 Box
2540 1176 Box
2543 1185 Box
2546 1194 Box
2549 1203 Box
2553 1212 Box
2556 1221 Box
2559 1231 Box
2562 1240 Box
2565 1250 Box
2568 1259 Box
2571 1269 Box
2574 1278 Box
2577 1288 Box
2580 1298 Box
2583 1308 Box
2995 2964 Box
2998 2977 Box
3001 2990 Box
3004 3002 Box
3007 3015 Box
3010 3028 Box
3014 3041 Box
3017 3054 Box
3020 3066 Box
3023 3079 Box
3026 3092 Box
3029 3105 Box
3032 3117 Box
3035 3130 Box
3038 3143 Box
3041 3155 Box
3044 3168 Box
3047 3180 Box
3050 3193 Box
3053 3205 Box
3056 3218 Box
3059 3230 Box
3062 3243 Box
3065 3255 Box
3068 3268 Box
3071 3280 Box
3074 3292 Box
3077 3304 Box
3490 4477 Box
3493 4481 Box
3496 4485 Box
3499 4488 Box
3502 4492 Box
3505 4495 Box
3508 4499 Box
3511 4502 Box
3514 4505 Box
3517 4508 Box
3520 4511 Box
3523 4514 Box
3526 4517 Box
3529 4520 Box
3532 4523 Box
3535 4525 Box
3538 4528 Box
3542 4530 Box
3545 4533 Box
3548 4535 Box
3551 4537 Box
3554 4539 Box
3557 4541 Box
3560 4543 Box
3563 4545 Box
3566 4547 Box
3569 4548 Box
3572 4550 Box
3984 3982 Box
3987 3972 Box
3990 3963 Box
3993 3954 Box
3996 3944 Box
3999 3934 Box
4003 3925 Box
4006 3915 Box
4009 3905 Box
4012 3895 Box
4015 3886 Box
4018 3876 Box
4021 3866 Box
4024 3855 Box
4027 3845 Box
4030 3835 Box
4033 3825 Box
4036 3815 Box
4039 3804 Box
4042 3794 Box
4045 3783 Box
4048 3773 Box
4051 3762 Box
4054 3752 Box
4057 3741 Box
4060 3730 Box
4063 3720 Box
4066 3709 Box
4479 2009 Box
4482 1997 Box
4485 1984 Box
4488 1972 Box
4491 1959 Box
4494 1947 Box
4497 1935 Box
4500 1922 Box
4503 1910 Box
4506 1898 Box
4509 1885 Box
4512 1873 Box
4515 1861 Box
4518 1849 Box
4521 1837 Box
4524 1825 Box
4527 1813 Box
4531 1801 Box
4534 1789 Box
4537 1777 Box
4540 1765 Box
4543 1753 Box
4546 1741 Box
4549 1730 Box
4552 1718 Box
4555 1706 Box
4558 1694 Box
4561 1683 Box
4973 674 Box
4976 671 Box
4979 669 Box
4982 667 Box
4985 665 Box
4988 663 Box
4992 661 Box
4995 660 Box
4998 658 Box
5001 657 Box
5004 655 Box
5007 654 Box
5010 652 Box
5013 651 Box
5016 650 Box
5019 649 Box
5022 648 Box
5025 647 Box
5028 647 Box
5031 646 Box
5034 645 Box
5037 645 Box
5040 645 Box
5043 644 Box
5046 644 Box
5049 644 Box
5052 644 Box
5055 644 Box
5468 1407 Box
5471 1417 Box
5474 1428 Box
5477 1438 Box
5480 1449 Box
5483 1459 Box
5486 1470 Box
5489 1481 Box
5492 1492 Box
5495 1503 Box
5498 1513 Box
5501 1524 Box
5504 1535 Box
5507 1546 Box
5510 1557 Box
5513 1569 Box
5516 1580 Box
5520 1591 Box
5523 1602 Box
5526 1614 Box
5529 1625 Box
5532 1636 Box
5535 1648 Box
5538 1659 Box
5541 1671 Box
5544 1682 Box
5547 1694 Box
5550 1706 Box
% End plot #4
% Begin plot #5
0.900 UP
1.000 UL
LTb
0.94 0.89 0.26 C 1100 4070 BoxF
1103 4061 BoxF
1106 4052 BoxF
1109 4043 BoxF
1112 4034 BoxF
1115 4025 BoxF
1118 4016 BoxF
1121 4007 BoxF
1124 3998 BoxF
1127 3989 BoxF
1130 3979 BoxF
1133 3970 BoxF
1136 3960 BoxF
1139 3951 BoxF
1142 3941 BoxF
1145 3932 BoxF
1148 3922 BoxF
1151 3912 BoxF
1154 3902 BoxF
1158 3893 BoxF
1161 3883 BoxF
1164 3873 BoxF
1167 3863 BoxF
1170 3853 BoxF
1173 3842 BoxF
1176 3832 BoxF
1179 3822 BoxF
1182 3812 BoxF
1594 2132 BoxF
1597 2119 BoxF
1600 2107 BoxF
1603 2094 BoxF
1606 2081 BoxF
1609 2069 BoxF
1612 2056 BoxF
1615 2043 BoxF
1619 2031 BoxF
1622 2018 BoxF
1625 2006 BoxF
1628 1993 BoxF
1631 1981 BoxF
1634 1968 BoxF
1637 1956 BoxF
1640 1944 BoxF
1643 1931 BoxF
1646 1919 BoxF
1649 1907 BoxF
1652 1894 BoxF
1655 1882 BoxF
1658 1870 BoxF
1661 1858 BoxF
1664 1846 BoxF
1667 1834 BoxF
1670 1821 BoxF
1673 1809 BoxF
1676 1797 BoxF
2089 700 BoxF
2092 697 BoxF
2095 694 BoxF
2098 691 BoxF
2101 688 BoxF
2104 685 BoxF
2107 683 BoxF
2110 680 BoxF
2113 678 BoxF
2116 675 BoxF
2119 673 BoxF
2122 671 BoxF
2125 669 BoxF
2128 667 BoxF
2131 665 BoxF
2134 663 BoxF
2137 661 BoxF
2140 659 BoxF
2143 658 BoxF
2147 656 BoxF
2150 655 BoxF
2153 653 BoxF
2156 652 BoxF
2159 651 BoxF
2162 650 BoxF
2165 649 BoxF
2168 648 BoxF
2171 647 BoxF
2583 1308 BoxF
2586 1318 BoxF
2589 1328 BoxF
2592 1338 BoxF
2595 1348 BoxF
2598 1358 BoxF
2601 1369 BoxF
2604 1379 BoxF
2608 1389 BoxF
2611 1399 BoxF
2614 1410 BoxF
2617 1420 BoxF
2620 1431 BoxF
2623 1441 BoxF
2626 1452 BoxF
2629 1463 BoxF
2632 1473 BoxF
2635 1484 BoxF
2638 1495 BoxF
2641 1506 BoxF
2644 1517 BoxF
2647 1527 BoxF
2650 1538 BoxF
2653 1550 BoxF
2656 1561 BoxF
2659 1572 BoxF
2662 1583 BoxF
2665 1594 BoxF
3078 3305 BoxF
3081 3318 BoxF
3084 3330 BoxF
3087 3342 BoxF
3090 3354 BoxF
3093 3366 BoxF
3096 3378 BoxF
3099 3390 BoxF
3102 3402 BoxF
3105 3414 BoxF
3108 3426 BoxF
3111 3438 BoxF
3114 3450 BoxF
3117 3462 BoxF
3120 3474 BoxF
3123 3485 BoxF
3126 3497 BoxF
3129 3509 BoxF
3132 3520 BoxF
3136 3532 BoxF
3139 3543 BoxF
3142 3555 BoxF
3145 3566 BoxF
3148 3578 BoxF
3151 3589 BoxF
3154 3601 BoxF
3157 3612 BoxF
3160 3623 BoxF
3572 4550 BoxF
3575 4551 BoxF
3578 4553 BoxF
3581 4554 BoxF
3584 4555 BoxF
3587 4556 BoxF
3590 4557 BoxF
3593 4558 BoxF
3597 4559 BoxF
3600 4560 BoxF
3603 4561 BoxF
3606 4561 BoxF
3609 4562 BoxF
3612 4562 BoxF
3615 4563 BoxF
3618 4563 BoxF
3621 4563 BoxF
3624 4563 BoxF
3627 4563 BoxF
3630 4563 BoxF
3633 4563 BoxF
3636 4563 BoxF
3639 4562 BoxF
3642 4562 BoxF
3645 4561 BoxF
3648 4561 BoxF
3651 4560 BoxF
3654 4559 BoxF
4067 3708 BoxF
4070 3697 BoxF
4073 3686 BoxF
4076 3675 BoxF
4079 3664 BoxF
4082 3653 BoxF
4085 3642 BoxF
4088 3631 BoxF
4091 3620 BoxF
4094 3608 BoxF
4097 3597 BoxF
4100 3586 BoxF
4103 3574 BoxF
4106 3563 BoxF
4109 3552 BoxF
4112 3540 BoxF
4115 3528 BoxF
4118 3517 BoxF
4121 3505 BoxF
4125 3494 BoxF
4128 3482 BoxF
4131 3470 BoxF
4134 3458 BoxF
4137 3446 BoxF
4140 3435 BoxF
4143 3423 BoxF
4146 3411 BoxF
4149 3399 BoxF
4561 1682 BoxF
4564 1670 BoxF
4567 1659 BoxF
4570 1647 BoxF
4573 1636 BoxF
4576 1625 BoxF
4579 1613 BoxF
4582 1602 BoxF
4586 1591 BoxF
4589 1579 BoxF
4592 1568 BoxF
4595 1557 BoxF
4598 1546 BoxF
4601 1535 BoxF
4604 1524 BoxF
4607 1513 BoxF
4610 1502 BoxF
4613 1491 BoxF
4616 1481 BoxF
4619 1470 BoxF
4622 1459 BoxF
4625 1449 BoxF
4628 1438 BoxF
4631 1427 BoxF
4634 1417 BoxF
4637 1407 BoxF
4640 1396 BoxF
4643 1386 BoxF
5056 644 BoxF
5059 644 BoxF
5062 644 BoxF
5065 645 BoxF
5068 645 BoxF
5071 645 BoxF
5074 646 BoxF
5077 647 BoxF
5080 647 BoxF
5083 648 BoxF
5086 649 BoxF
5089 650 BoxF
5092 651 BoxF
5095 652 BoxF
5098 654 BoxF
5101 655 BoxF
5104 657 BoxF
5107 658 BoxF
5110 660 BoxF
5114 661 BoxF
5117 663 BoxF
5120 665 BoxF
5123 667 BoxF
5126 669 BoxF
5129 671 BoxF
5132 674 BoxF
5135 676 BoxF
5138 678 BoxF
5550 1706 BoxF
5553 1718 BoxF
5556 1730 BoxF
5559 1742 BoxF
5562 1753 BoxF
5565 1765 BoxF
5568 1777 BoxF
5571 1789 BoxF
5575 1801 BoxF
5578 1813 BoxF
5581 1825 BoxF
5584 1837 BoxF
5587 1849 BoxF
5590 1861 BoxF
5593 1874 BoxF
5596 1886 BoxF
5599 1898 BoxF
5602 1910 BoxF
5605 1923 BoxF
5608 1935 BoxF
5611 1947 BoxF
5614 1960 BoxF
5617 1972 BoxF
5620 1984 BoxF
5623 1997 BoxF
5626 2009 BoxF
5629 2022 BoxF
5632 2035 BoxF
% End plot #5
% Begin plot #6
0.900 UP
1.000 UL
LTb
0.00 0.45 0.70 C 1182 3811 Circle
1185 3801 Circle
1188 3790 Circle
1191 3780 Circle
1194 3769 Circle
1197 3759 Circle
1200 3748 Circle
1203 3737 Circle
1206 3727 Circle
1209 3716 Circle
1213 3705 Circle
1216 3694 Circle
1219 3683 Circle
1222 3672 Circle
1225 3661 Circle
1228 3650 Circle
1231 3639 Circle
1234 3628 Circle
1237 3616 Circle
1240 3605 Circle
1243 3594 Circle
1246 3583 Circle
1249 3571 Circle
1252 3560 Circle
1255 3548 Circle
1258 3537 Circle
1261 3525 Circle
1264 3514 Circle
1677 1797 Circle
1680 1785 Circle
1683 1773 Circle
1686 1761 Circle
1689 1749 Circle
1692 1737 Circle
1695 1725 Circle
1698 1714 Circle
1701 1702 Circle
1704 1690 Circle
1707 1679 Circle
1710 1667 Circle
1713 1656 Circle
1716 1644 Circle
1719 1633 Circle
1722 1622 Circle
1725 1610 Circle
1728 1599 Circle
1731 1588 Circle
1734 1576 Circle
1737 1565 Circle
1741 1554 Circle
1744 1543 Circle
1747 1532 Circle
1750 1521 Circle
1753 1510 Circle
1756 1499 Circle
1759 1488 Circle
2171 647 Circle
2174 647 Circle
2177 646 Circle
2180 645 Circle
2183 645 Circle
2186 645 Circle
2189 644 Circle
2192 644 Circle
2195 644 Circle
2198 644 Circle
2202 644 Circle
2205 644 Circle
2208 644 Circle
2211 645 Circle
2214 645 Circle
2217 646 Circle
2220 646 Circle
2223 647 Circle
2226 648 Circle
2229 649 Circle
2232 650 Circle
2235 651 Circle
2238 652 Circle
2241 653 Circle
2244 654 Circle
2247 656 Circle
2250 657 Circle
2253 659 Circle
2666 1595 Circle
2669 1606 Circle
2672 1618 Circle
2675 1629 Circle
2678 1640 Circle
2681 1652 Circle
2684 1663 Circle
2687 1675 Circle
2690 1686 Circle
2693 1698 Circle
2696 1710 Circle
2699 1721 Circle
2702 1733 Circle
2705 1745 Circle
2708 1757 Circle
2711 1769 Circle
2714 1781 Circle
2717 1792 Circle
2720 1804 Circle
2723 1816 Circle
2726 1828 Circle
2730 1841 Circle
2733 1853 Circle
2736 1865 Circle
2739 1877 Circle
2742 1889 Circle
2745 1901 Circle
2748 1914 Circle
3160 3624 Circle
3163 3635 Circle
3166 3646 Circle
3169 3657 Circle
3172 3668 Circle
3175 3679 Circle
3178 3690 Circle
3181 3701 Circle
3184 3712 Circle
3187 3723 Circle
3191 3734 Circle
3194 3744 Circle
3197 3755 Circle
3200 3766 Circle
3203 3776 Circle
3206 3787 Circle
3209 3797 Circle
3212 3807 Circle
3215 3818 Circle
3218 3828 Circle
3221 3838 Circle
3224 3848 Circle
3227 3859 Circle
3230 3869 Circle
3233 3879 Circle
3236 3889 Circle
3239 3898 Circle
3242 3908 Circle
3655 4559 Circle
3658 4558 Circle
3661 4557 Circle
3664 4556 Circle
3667 4555 Circle
3670 4554 Circle
3673 4552 Circle
3676 4551 Circle
3679 4549 Circle
3682 4548 Circle
3685 4546 Circle
3688 4544 Circle
3691 4542 Circle
3694 4540 Circle
3697 4538 Circle
3700 4536 Circle
3703 4534 Circle
3706 4532 Circle
3709 4529 Circle
3712 4527 Circle
3715 4524 Circle
3719 4522 Circle
3722 4519 Circle
3725 4516 Circle
3728 4513 Circle
3731 4510 Circle
3734 4507 Circle
3737 4504 Circle
4149 3398 Circle
4152 3386 Circle
4155 3374 Circle
4158 3362 Circle
4161 3350 Circle
4164 3337 Circle
4167 3325 Circle
4170 3313 Circle
4173 3301 Circle
4176 3288 Circle
4180 3276 Circle
4183 3264 Circle
4186 3251 Circle
4189 3239 Circle
4192 3227 Circle
4195 3214 Circle
4198 3202 Circle
4201 3189 Circle
4204 3177 Circle
4207 3164 Circle
4210 3151 Circle
4213 3139 Circle
4216 3126 Circle
4219 3113 Circle
4222 3101 Circle
4225 3088 Circle
4228 3075 Circle
4231 3063 Circle
4644 1385 Circle
4647 1375 Circle
4650 1365 Circle
4653 1355 Circle
4656 1344 Circle
4659 1334 Circle
4662 1324 Circle
4665 1315 Circle
4668 1305 Circle
4671 1295 Circle
4674 1285 Circle
4677 1275 Circle
4680 1266 Circle
4683 1256 Circle
4686 1247 Circle
4689 1237 Circle
4692 1228 Circle
4695 1219 Circle
4698 1209 Circle
4701 1200 Circle
4704 1191 Circle
4708 1182 Circle
4711 1173 Circle
4714 1164 Circle
4717 1155 Circle
4720 1146 Circle
4723 1138 Circle
4726 1129 Circle
5138 678 Circle
5141 681 Circle
5144 684 Circle
5147 686 Circle
5150 689 Circle
5153 692 Circle
5156 695 Circle
5159 698 Circle
5162 701 Circle
5165 704 Circle
5169 707 Circle
5172 711 Circle
5175 714 Circle
5178 718 Circle
5181 721 Circle
5184 725 Circle
5187 729 Circle
5190 733 Circle
5193 737 Circle
5196 741 Circle
5199 745 Circle
5202 749 Circle
5205 753 Circle
5208 758 Circle
5211 762 Circle
5214 767 Circle
5217 771 Circle
5220 776 Circle
5633 2035 Circle
5636 2048 Circle
5639 2061 Circle
5642 2073 Circle
5645 2086 Circle
5648 2099 Circle
5651 2111 Circle
5654 2124 Circle
5657 2137 Circle
5660 2149 Circle
5663 2162 Circle
5666 2175 Circle
5669 2188 Circle
5672 2201 Circle
5675 2214 Circle
5678 2226 Circle
5681 2239 Circle
5684 2252 Circle
5687 2265 Circle
5690 2278 Circle
5693 2291 Circle
5697 2304 Circle
5700 2317 Circle
5703 2330 Circle
5706 2343 Circle
5709 2356 Circle
5712 2369 Circle
5715 2382 Circle
% End plot #6
% Begin plot #7
2.000 UL
LTb
0.00 0.00 0.00 C /Helvetica findfont 140 scalefont setfont
LCb setrgbcolor
5064 4626 M
(z\(x\)) Rshow
2.000 UL
LTb
0.00 0.00 0.00 C 5148 4626 M
399 0 V
770 4563 M
50 -12 V
50 -35 V
50 -59 V
50 -80 V
50 -103 V
50 -122 V
50 -141 V
50 -158 V
50 -173 V
49 -186 V
50 -197 V
50 -205 V
50 -212 V
50 -214 V
50 -215 V
50 -214 V
50 -209 V
50 -202 V
50 -192 V
50 -181 V
50 -167 V
50 -151 V
50 -134 V
50 -114 V
50 -93 V
50 -72 V
50 -49 V
50 -25 V
49 -2 V
50 22 V
50 45 V
50 68 V
50 90 V
50 111 V
50 130 V
50 148 V
50 165 V
50 179 V
50 191 V
50 200 V
50 209 V
50 212 V
50 215 V
50 215 V
50 212 V
50 206 V
50 199 V
49 188 V
50 175 V
50 161 V
50 144 V
50 125 V
50 106 V
50 84 V
50 62 V
50 39 V
50 16 V
50 -8 V
50 -32 V
50 -55 V
50 -77 V
50 -99 V
50 -119 V
50 -138 V
50 -156 V
50 -171 V
49 -184 V
50 -195 V
50 -204 V
50 -210 V
50 -215 V
50 -215 V
50 -214 V
50 -210 V
50 -203 V
50 -194 V
50 -183 V
50 -170 V
50 -153 V
50 -137 V
50 -117 V
50 -97 V
50 -75 V
50 -52 V
50 -30 V
49 -5 V
50 18 V
50 41 V
50 64 V
50 87 V
50 107 V
50 128 V
50 145 V
50 163 V
50 176 V
50 190 V
50 199 V
50 207 V
50 212 V
% End plot #7
% Begin plot #8
0.200 UP
stroke
1.000 UL
LTb
0.00 0.00 0.00 C 2748 3729 TriU
2751 3740 TriU
2754 3749 TriU
2757 3759 TriU
2760 3769 TriU
2763 3778 TriU
2766 3787 TriU
2769 3796 TriU
2772 3805 TriU
2775 3814 TriU
2778 3823 TriU
2781 3831 TriU
2785 3839 TriU
2788 3847 TriU
2791 3855 TriU
2794 3863 TriU
2797 3871 TriU
2800 3878 TriU
2803 3886 TriU
2806 3893 TriU
2809 3900 TriU
2812 3907 TriU
2815 3914 TriU
2818 3921 TriU
2821 3928 TriU
2824 3935 TriU
2827 3941 TriU
2830 3948 TriU
3242 4380 TriU
3246 4382 TriU
3249 4383 TriU
3252 4384 TriU
3255 4385 TriU
3258 4386 TriU
3261 4388 TriU
3264 4389 TriU
3267 4390 TriU
3270 4391 TriU
3273 4392 TriU
3276 4393 TriU
3279 4394 TriU
3282 4395 TriU
3285 4396 TriU
3288 4397 TriU
3291 4398 TriU
3294 4399 TriU
3297 4400 TriU
3300 4401 TriU
3303 4402 TriU
3306 4403 TriU
3309 4403 TriU
3313 4404 TriU
3316 4405 TriU
3319 4406 TriU
3322 4406 TriU
3325 4407 TriU
3737 4286 TriU
3740 4282 TriU
3743 4279 TriU
3746 4276 TriU
3749 4273 TriU
3752 4270 TriU
3755 4266 TriU
3758 4263 TriU
3761 4259 TriU
3764 4256 TriU
3767 4252 TriU
3770 4249 TriU
3774 4245 TriU
3777 4241 TriU
3780 4238 TriU
3783 4234 TriU
3786 4230 TriU
3789 4226 TriU
3792 4222 TriU
3795 4218 TriU
3798 4214 TriU
3801 4209 TriU
3804 4205 TriU
3807 4201 TriU
3810 4196 TriU
3813 4192 TriU
3816 4187 TriU
3819 4182 TriU
% End plot #8
% Begin plot #9
0.200 UP
1.000 UL
LTb
0.00 0.00 0.00 C 2830 3948 TriUF
2833 3955 TriUF
2837 3961 TriUF
2840 3967 TriUF
2843 3973 TriUF
2846 3979 TriUF
2849 3985 TriUF
2852 3991 TriUF
2855 3997 TriUF
2858 4002 TriUF
2861 4008 TriUF
2864 4014 TriUF
2867 4019 TriUF
2870 4025 TriUF
2873 4030 TriUF
2876 4035 TriUF
2879 4040 TriUF
2882 4046 TriUF
2885 4051 TriUF
2888 4056 TriUF
2891 4061 TriUF
2894 4066 TriUF
2897 4070 TriUF
2900 4075 TriUF
2903 4080 TriUF
2907 4085 TriUF
2910 4089 TriUF
2913 4094 TriUF
3325 4407 TriUF
3328 4408 TriUF
3331 4409 TriUF
3334 4409 TriUF
3337 4410 TriUF
3340 4411 TriUF
3343 4411 TriUF
3346 4412 TriUF
3349 4412 TriUF
3352 4413 TriUF
3355 4413 TriUF
3358 4414 TriUF
3361 4414 TriUF
3364 4415 TriUF
3368 4415 TriUF
3371 4416 TriUF
3374 4416 TriUF
3377 4416 TriUF
3380 4417 TriUF
3383 4417 TriUF
3386 4417 TriUF
3389 4418 TriUF
3392 4418 TriUF
3395 4418 TriUF
3398 4419 TriUF
3401 4419 TriUF
3404 4419 TriUF
3407 4419 TriUF
3819 4182 TriUF
3822 4177 TriUF
3826 4173 TriUF
3829 4168 TriUF
3832 4163 TriUF
3835 4158 TriUF
3838 4152 TriUF
3841 4147 TriUF
3844 4142 TriUF
3847 4136 TriUF
3850 4131 TriUF
3853 4125 TriUF
3856 4119 TriUF
3859 4114 TriUF
3862 4108 TriUF
3865 4102 TriUF
3868 4095 TriUF
3871 4089 TriUF
3874 4083 TriUF
3877 4076 TriUF
3880 4070 TriUF
3883 4063 TriUF
3886 4056 TriUF
3889 4049 TriUF
3892 4042 TriUF
3896 4034 TriUF
3899 4027 TriUF
3902 4019 TriUF
% End plot #9
% Begin plot #10
0.200 UP
1.000 UL
LTb
0.00 0.00 0.00 C 2913 4094 TriD
2916 4099 TriD
2919 4103 TriD
2922 4107 TriD
2925 4112 TriD
2928 4116 TriD
2931 4120 TriD
2934 4125 TriD
2937 4129 TriD
2940 4133 TriD
2943 4137 TriD
2946 4141 TriD
2949 4145 TriD
2952 4149 TriD
2955 4153 TriD
2959 4157 TriD
2962 4160 TriD
2965 4164 TriD
2968 4168 TriD
2971 4172 TriD
2974 4175 TriD
2977 4179 TriD
2980 4182 TriD
2983 4186 TriD
2986 4189 TriD
2989 4193 TriD
2992 4196 TriD
2995 4200 TriD
3407 4419 TriD
3410 4419 TriD
3413 4419 TriD
3416 4419 TriD
3420 4420 TriD
3423 4420 TriD
3426 4420 TriD
3429 4420 TriD
3432 4420 TriD
3435 4420 TriD
3438 4420 TriD
3441 4419 TriD
3444 4419 TriD
3447 4419 TriD
3450 4419 TriD
3453 4419 TriD
3456 4419 TriD
3459 4419 TriD
3462 4418 TriD
3465 4418 TriD
3468 4418 TriD
3471 4418 TriD
3474 4417 TriD
3477 4417 TriD
3480 4417 TriD
3483 4416 TriD
3486 4416 TriD
3490 4415 TriD
3902 4019 TriD
3905 4011 TriD
3908 4003 TriD
3911 3995 TriD
3914 3986 TriD
3917 3978 TriD
3920 3969 TriD
3923 3960 TriD
3926 3951 TriD
3929 3942 TriD
3932 3932 TriD
3935 3922 TriD
3938 3912 TriD
3941 3902 TriD
3944 3891 TriD
3948 3880 TriD
3951 3869 TriD
3954 3858 TriD
3957 3846 TriD
3960 3834 TriD
3963 3821 TriD
3966 3808 TriD
3969 3795 TriD
3972 3781 TriD
3975 3767 TriD
3978 3752 TriD
3981 3737 TriD
3984 3721 TriD
% End plot #10
% Begin plot #11
0.200 UP
1.000 UL
LTb
0.00 0.00 0.00 C 2995 4200 TriDF
2998 4203 TriDF
3001 4207 TriDF
3004 4210 TriDF
3007 4213 TriDF
3010 4216 TriDF
3014 4219 TriDF
3017 4223 TriDF
3020 4226 TriDF
3023 4229 TriDF
3026 4232 TriDF
3029 4235 TriDF
3032 4238 TriDF
3035 4241 TriDF
3038 4244 TriDF
3041 4247 TriDF
3044 4249 TriDF
3047 4252 TriDF
3050 4255 TriDF
3053 4258 TriDF
3056 4261 TriDF
3059 4263 TriDF
3062 4266 TriDF
3065 4269 TriDF
3068 4271 TriDF
3071 4274 TriDF
3074 4276 TriDF
3077 4279 TriDF
3490 4415 TriDF
3493 4415 TriDF
3496 4414 TriDF
3499 4414 TriDF
3502 4413 TriDF
3505 4413 TriDF
3508 4412 TriDF
3511 4412 TriDF
3514 4411 TriDF
3517 4410 TriDF
3520 4410 TriDF
3523 4409 TriDF
3526 4408 TriDF
3529 4407 TriDF
3532 4407 TriDF
3535 4406 TriDF
3538 4405 TriDF
3542 4404 TriDF
3545 4403 TriDF
3548 4402 TriDF
3551 4401 TriDF
3554 4401 TriDF
3557 4400 TriDF
3560 4399 TriDF
3563 4398 TriDF
3566 4396 TriDF
3569 4395 TriDF
3572 4394 TriDF
3984 3720 TriDF
3987 3703 TriDF
3990 3686 TriDF
3993 3668 TriDF
3996 3650 TriDF
3999 3630 TriDF
4003 3610 TriDF
4006 3589 TriDF
4009 3566 TriDF
4012 3543 TriDF
4015 3518 TriDF
4018 3492 TriDF
4021 3464 TriDF
4024 3434 TriDF
4027 3402 TriDF
4030 3368 TriDF
4033 3331 TriDF
4036 3290 TriDF
4039 3246 TriDF
4042 3197 TriDF
4045 3142 TriDF
4048 3080 TriDF
4051 3008 TriDF
4054 2923 TriDF
4057 2819 TriDF
4060 2685 TriDF
4063 2495 TriDF
4066 2169 TriDF
5513 2085 TriDF
5516 2552 TriDF
5520 2781 TriDF
5523 2935 TriDF
5526 3050 TriDF
5529 3143 TriDF
5532 3220 TriDF
5535 3286 TriDF
5538 3344 TriDF
5541 3396 TriDF
5544 3443 TriDF
5547 3485 TriDF
5550 3524 TriDF
% End plot #11
% Begin plot #12
0.200 UP
1.000 UL
LTb
0.00 0.00 0.00 C 2608 1494 Dia
2611 2074 Dia
2614 2325 Dia
2617 2488 Dia
2620 2609 Dia
2623 2705 Dia
2626 2785 Dia
2629 2854 Dia
2632 2914 Dia
2635 2967 Dia
2638 3015 Dia
2641 3058 Dia
2644 3098 Dia
2647 3135 Dia
2650 3169 Dia
2653 3201 Dia
2656 3231 Dia
2659 3259 Dia
2662 3285 Dia
2665 3310 Dia
3078 4279 Dia
3081 4282 Dia
3084 4284 Dia
3087 4287 Dia
3090 4289 Dia
3093 4291 Dia
3096 4294 Dia
3099 4296 Dia
3102 4298 Dia
3105 4301 Dia
3108 4303 Dia
3111 4305 Dia
3114 4308 Dia
3117 4310 Dia
3120 4312 Dia
3123 4314 Dia
3126 4316 Dia
3129 4318 Dia
3132 4320 Dia
3136 4322 Dia
3139 4324 Dia
3142 4326 Dia
3145 4328 Dia
3148 4330 Dia
3151 4332 Dia
3154 4334 Dia
3157 4336 Dia
3160 4338 Dia
3572 4394 Dia
3575 4393 Dia
3578 4392 Dia
3581 4391 Dia
3584 4389 Dia
3587 4388 Dia
3590 4387 Dia
3593 4386 Dia
3597 4384 Dia
3600 4383 Dia
3603 4381 Dia
3606 4380 Dia
3609 4379 Dia
3612 4377 Dia
3615 4376 Dia
3618 4374 Dia
3621 4372 Dia
3624 4371 Dia
3627 4369 Dia
3630 4367 Dia
3633 4366 Dia
3636 4364 Dia
3639 4362 Dia
3642 4360 Dia
3645 4359 Dia
3648 4357 Dia
3651 4355 Dia
3654 4353 Dia
4067 2135 Dia
5550 3527 Dia
5553 3562 Dia
5556 3596 Dia
5559 3627 Dia
5562 3656 Dia
5565 3683 Dia
5568 3709 Dia
5571 3734 Dia
5575 3757 Dia
5578 3779 Dia
5581 3800 Dia
5584 3821 Dia
5587 3840 Dia
5590 3859 Dia
5593 3877 Dia
5596 3894 Dia
5599 3911 Dia
5602 3927 Dia
5605 3942 Dia
5608 3957 Dia
5611 3972 Dia
5614 3986 Dia
5617 4000 Dia
5620 4013 Dia
5623 4026 Dia
5626 4039 Dia
5629 4051 Dia
5632 4063 Dia
% End plot #12
% Begin plot #13
0.200 UP
1.000 UL
LTb
0.00 0.00 0.00 C 2666 3312 DiaF
2669 3336 DiaF
2672 3359 DiaF
2675 3381 DiaF
2678 3401 DiaF
2681 3421 DiaF
2684 3440 DiaF
2687 3459 DiaF
2690 3477 DiaF
2693 3494 DiaF
2696 3510 DiaF
2699 3526 DiaF
2702 3542 DiaF
2705 3557 DiaF
2708 3571 DiaF
2711 3585 DiaF
2714 3599 DiaF
2717 3612 DiaF
2720 3625 DiaF
2723 3638 DiaF
2726 3650 DiaF
2730 3662 DiaF
2733 3674 DiaF
2736 3685 DiaF
2739 3697 DiaF
2742 3707 DiaF
2745 3718 DiaF
2748 3729 DiaF
3160 4338 DiaF
3163 4340 DiaF
3166 4342 DiaF
3169 4344 DiaF
3172 4345 DiaF
3175 4347 DiaF
3178 4349 DiaF
3181 4351 DiaF
3184 4352 DiaF
3187 4354 DiaF
3191 4356 DiaF
3194 4357 DiaF
3197 4359 DiaF
3200 4360 DiaF
3203 4362 DiaF
3206 4364 DiaF
3209 4365 DiaF
3212 4367 DiaF
3215 4368 DiaF
3218 4369 DiaF
3221 4371 DiaF
3224 4372 DiaF
3227 4374 DiaF
3230 4375 DiaF
3233 4376 DiaF
3236 4378 DiaF
3239 4379 DiaF
3242 4380 DiaF
3655 4353 DiaF
3658 4351 DiaF
3661 4349 DiaF
3664 4347 DiaF
3667 4345 DiaF
3670 4343 DiaF
3673 4340 DiaF
3676 4338 DiaF
3679 4336 DiaF
3682 4334 DiaF
3685 4331 DiaF
3688 4329 DiaF
3691 4327 DiaF
3694 4324 DiaF
3697 4322 DiaF
3700 4319 DiaF
3703 4317 DiaF
3706 4314 DiaF
3709 4311 DiaF
3712 4309 DiaF
3715 4306 DiaF
3719 4303 DiaF
3722 4300 DiaF
3725 4298 DiaF
3728 4295 DiaF
3731 4292 DiaF
3734 4289 DiaF
3737 4286 DiaF
5633 4064 DiaF
5636 4075 DiaF
5639 4087 DiaF
5642 4098 DiaF
5645 4108 DiaF
5648 4119 DiaF
5651 4129 DiaF
5654 4139 DiaF
5657 4149 DiaF
5660 4159 DiaF
5663 4168 DiaF
5666 4177 DiaF
5669 4186 DiaF
5672 4195 DiaF
5675 4204 DiaF
5678 4212 DiaF
5681 4221 DiaF
5684 4229 DiaF
5687 4237 DiaF
5690 4245 DiaF
5693 4252 DiaF
5697 4260 DiaF
5700 4268 DiaF
5703 4275 DiaF
5706 4282 DiaF
5709 4289 DiaF
5712 4296 DiaF
5715 4303 DiaF
% End plot #13
2.000 UL
LTb
LCb setrgbcolor
1.000 UL
LTB
LCb setrgbcolor
770 4759 N
770 448 L
4945 0 V
0 4311 V
-4945 0 V
Z stroke
1.000 UP
1.000 UL
LTb
LCb setrgbcolor
stroke
grestore
end
showpage
%%Trailer
%%DocumentFonts: Helvetica
