%!PS-Adobe-2.0 EPSF-2.0
%%Title: gnuplot_TWISS_xy.eps
%%Creator: gnuplot 5.2 patchlevel 2
%%CreationDate: Thu Sep 24 04:32:14 2020
%%DocumentFonts: (atend)
%%BoundingBox: 50 50 313 220
%%EndComments
%%BeginProlog
/gnudict 256 dict def
gnudict begin
%
% The following true/false flags may be edited by hand if desired.
% The unit line width and grayscale image gamma correction may also be changed.
%
/Color true def
/Blacktext true def
/Solid false def
/Dashlength 1 def
/Landscape false def
/Level1 false def
/Level3 false def
/Rounded false def
/ClipToBoundingBox false def
/SuppressPDFMark false def
/TransparentPatterns false def
/gnulinewidth 5.000 def
/userlinewidth gnulinewidth def
/Gamma 1.0 def
/BackgroundColor {-1.000 -1.000 -1.000} def
%
/vshift -40 def
/dl1 {
  10.0 Dashlength userlinewidth gnulinewidth div mul mul mul
  Rounded { currentlinewidth 0.75 mul sub dup 0 le { pop 0.01 } if } if
} def
/dl2 {
  10.0 Dashlength userlinewidth gnulinewidth div mul mul mul
  Rounded { currentlinewidth 0.75 mul add } if
} def
/hpt_ 31.5 def
/vpt_ 31.5 def
/hpt hpt_ def
/vpt vpt_ def
/doclip {
  ClipToBoundingBox {
    newpath 50 50 moveto 313 50 lineto 313 220 lineto 50 220 lineto closepath
    clip
  } if
} def
%
% Gnuplot Prolog Version 5.1 (Oct 2015)
%
%/SuppressPDFMark true def
%
/M {moveto} bind def
/L {lineto} bind def
/R {rmoveto} bind def
/V {rlineto} bind def
/N {newpath moveto} bind def
/Z {closepath} bind def
/C {setrgbcolor} bind def
/f {rlineto fill} bind def
/g {setgray} bind def
/Gshow {show} def   % May be redefined later in the file to support UTF-8
/vpt2 vpt 2 mul def
/hpt2 hpt 2 mul def
/Lshow {currentpoint stroke M 0 vshift R 
	Blacktext {gsave 0 setgray textshow grestore} {textshow} ifelse} def
/Rshow {currentpoint stroke M dup stringwidth pop neg vshift R
	Blacktext {gsave 0 setgray textshow grestore} {textshow} ifelse} def
/Cshow {currentpoint stroke M dup stringwidth pop -2 div vshift R 
	Blacktext {gsave 0 setgray textshow grestore} {textshow} ifelse} def
/UP {dup vpt_ mul /vpt exch def hpt_ mul /hpt exch def
  /hpt2 hpt 2 mul def /vpt2 vpt 2 mul def} def
/DL {Color {setrgbcolor Solid {pop []} if 0 setdash}
 {pop pop pop 0 setgray Solid {pop []} if 0 setdash} ifelse} def
/BL {stroke userlinewidth 2 mul setlinewidth
	Rounded {1 setlinejoin 1 setlinecap} if} def
/AL {stroke userlinewidth 2 div setlinewidth
	Rounded {1 setlinejoin 1 setlinecap} if} def
/UL {dup gnulinewidth mul /userlinewidth exch def
	dup 1 lt {pop 1} if 10 mul /udl exch def} def
/PL {stroke userlinewidth setlinewidth
	Rounded {1 setlinejoin 1 setlinecap} if} def
3.8 setmiterlimit
% Classic Line colors (version 5.0)
/LCw {1 1 1} def
/LCb {0 0 0} def
/LCa {0 0 0} def
/LC0 {1 0 0} def
/LC1 {0 1 0} def
/LC2 {0 0 1} def
/LC3 {1 0 1} def
/LC4 {0 1 1} def
/LC5 {1 1 0} def
/LC6 {0 0 0} def
/LC7 {1 0.3 0} def
/LC8 {0.5 0.5 0.5} def
% Default dash patterns (version 5.0)
/LTB {BL [] LCb DL} def
/LTw {PL [] 1 setgray} def
/LTb {PL [] LCb DL} def
/LTa {AL [1 udl mul 2 udl mul] 0 setdash LCa setrgbcolor} def
/LT0 {PL [] LC0 DL} def
/LT1 {PL [2 dl1 3 dl2] LC1 DL} def
/LT2 {PL [1 dl1 1.5 dl2] LC2 DL} def
/LT3 {PL [6 dl1 2 dl2 1 dl1 2 dl2] LC3 DL} def
/LT4 {PL [1 dl1 2 dl2 6 dl1 2 dl2 1 dl1 2 dl2] LC4 DL} def
/LT5 {PL [4 dl1 2 dl2] LC5 DL} def
/LT6 {PL [1.5 dl1 1.5 dl2 1.5 dl1 1.5 dl2 1.5 dl1 6 dl2] LC6 DL} def
/LT7 {PL [3 dl1 3 dl2 1 dl1 3 dl2] LC7 DL} def
/LT8 {PL [2 dl1 2 dl2 2 dl1 6 dl2] LC8 DL} def
/SL {[] 0 setdash} def
/Pnt {stroke [] 0 setdash gsave 1 setlinecap M 0 0 V stroke grestore} def
/Dia {stroke [] 0 setdash 2 copy vpt add M
  hpt neg vpt neg V hpt vpt neg V
  hpt vpt V hpt neg vpt V closepath stroke
  Pnt} def
/Pls {stroke [] 0 setdash vpt sub M 0 vpt2 V
  currentpoint stroke M
  hpt neg vpt neg R hpt2 0 V stroke
 } def
/Box {stroke [] 0 setdash 2 copy exch hpt sub exch vpt add M
  0 vpt2 neg V hpt2 0 V 0 vpt2 V
  hpt2 neg 0 V closepath stroke
  Pnt} def
/Crs {stroke [] 0 setdash exch hpt sub exch vpt add M
  hpt2 vpt2 neg V currentpoint stroke M
  hpt2 neg 0 R hpt2 vpt2 V stroke} def
/TriU {stroke [] 0 setdash 2 copy vpt 1.12 mul add M
  hpt neg vpt -1.62 mul V
  hpt 2 mul 0 V
  hpt neg vpt 1.62 mul V closepath stroke
  Pnt} def
/Star {2 copy Pls Crs} def
/BoxF {stroke [] 0 setdash exch hpt sub exch vpt add M
  0 vpt2 neg V hpt2 0 V 0 vpt2 V
  hpt2 neg 0 V closepath fill} def
/TriUF {stroke [] 0 setdash vpt 1.12 mul add M
  hpt neg vpt -1.62 mul V
  hpt 2 mul 0 V
  hpt neg vpt 1.62 mul V closepath fill} def
/TriD {stroke [] 0 setdash 2 copy vpt 1.12 mul sub M
  hpt neg vpt 1.62 mul V
  hpt 2 mul 0 V
  hpt neg vpt -1.62 mul V closepath stroke
  Pnt} def
/TriDF {stroke [] 0 setdash vpt 1.12 mul sub M
  hpt neg vpt 1.62 mul V
  hpt 2 mul 0 V
  hpt neg vpt -1.62 mul V closepath fill} def
/DiaF {stroke [] 0 setdash vpt add M
  hpt neg vpt neg V hpt vpt neg V
  hpt vpt V hpt neg vpt V closepath fill} def
/Pent {stroke [] 0 setdash 2 copy gsave
  translate 0 hpt M 4 {72 rotate 0 hpt L} repeat
  closepath stroke grestore Pnt} def
/PentF {stroke [] 0 setdash gsave
  translate 0 hpt M 4 {72 rotate 0 hpt L} repeat
  closepath fill grestore} def
/Circle {stroke [] 0 setdash 2 copy
  hpt 0 360 arc stroke Pnt} def
/CircleF {stroke [] 0 setdash hpt 0 360 arc fill} def
/C0 {BL [] 0 setdash 2 copy moveto vpt 90 450 arc} bind def
/C1 {BL [] 0 setdash 2 copy moveto
	2 copy vpt 0 90 arc closepath fill
	vpt 0 360 arc closepath} bind def
/C2 {BL [] 0 setdash 2 copy moveto
	2 copy vpt 90 180 arc closepath fill
	vpt 0 360 arc closepath} bind def
/C3 {BL [] 0 setdash 2 copy moveto
	2 copy vpt 0 180 arc closepath fill
	vpt 0 360 arc closepath} bind def
/C4 {BL [] 0 setdash 2 copy moveto
	2 copy vpt 180 270 arc closepath fill
	vpt 0 360 arc closepath} bind def
/C5 {BL [] 0 setdash 2 copy moveto
	2 copy vpt 0 90 arc
	2 copy moveto
	2 copy vpt 180 270 arc closepath fill
	vpt 0 360 arc} bind def
/C6 {BL [] 0 setdash 2 copy moveto
	2 copy vpt 90 270 arc closepath fill
	vpt 0 360 arc closepath} bind def
/C7 {BL [] 0 setdash 2 copy moveto
	2 copy vpt 0 270 arc closepath fill
	vpt 0 360 arc closepath} bind def
/C8 {BL [] 0 setdash 2 copy moveto
	2 copy vpt 270 360 arc closepath fill
	vpt 0 360 arc closepath} bind def
/C9 {BL [] 0 setdash 2 copy moveto
	2 copy vpt 270 450 arc closepath fill
	vpt 0 360 arc closepath} bind def
/C10 {BL [] 0 setdash 2 copy 2 copy moveto vpt 270 360 arc closepath fill
	2 copy moveto
	2 copy vpt 90 180 arc closepath fill
	vpt 0 360 arc closepath} bind def
/C11 {BL [] 0 setdash 2 copy moveto
	2 copy vpt 0 180 arc closepath fill
	2 copy moveto
	2 copy vpt 270 360 arc closepath fill
	vpt 0 360 arc closepath} bind def
/C12 {BL [] 0 setdash 2 copy moveto
	2 copy vpt 180 360 arc closepath fill
	vpt 0 360 arc closepath} bind def
/C13 {BL [] 0 setdash 2 copy moveto
	2 copy vpt 0 90 arc closepath fill
	2 copy moveto
	2 copy vpt 180 360 arc closepath fill
	vpt 0 360 arc closepath} bind def
/C14 {BL [] 0 setdash 2 copy moveto
	2 copy vpt 90 360 arc closepath fill
	vpt 0 360 arc} bind def
/C15 {BL [] 0 setdash 2 copy vpt 0 360 arc closepath fill
	vpt 0 360 arc closepath} bind def
/Rec {newpath 4 2 roll moveto 1 index 0 rlineto 0 exch rlineto
	neg 0 rlineto closepath} bind def
/Square {dup Rec} bind def
/Bsquare {vpt sub exch vpt sub exch vpt2 Square} bind def
/S0 {BL [] 0 setdash 2 copy moveto 0 vpt rlineto BL Bsquare} bind def
/S1 {BL [] 0 setdash 2 copy vpt Square fill Bsquare} bind def
/S2 {BL [] 0 setdash 2 copy exch vpt sub exch vpt Square fill Bsquare} bind def
/S3 {BL [] 0 setdash 2 copy exch vpt sub exch vpt2 vpt Rec fill Bsquare} bind def
/S4 {BL [] 0 setdash 2 copy exch vpt sub exch vpt sub vpt Square fill Bsquare} bind def
/S5 {BL [] 0 setdash 2 copy 2 copy vpt Square fill
	exch vpt sub exch vpt sub vpt Square fill Bsquare} bind def
/S6 {BL [] 0 setdash 2 copy exch vpt sub exch vpt sub vpt vpt2 Rec fill Bsquare} bind def
/S7 {BL [] 0 setdash 2 copy exch vpt sub exch vpt sub vpt vpt2 Rec fill
	2 copy vpt Square fill Bsquare} bind def
/S8 {BL [] 0 setdash 2 copy vpt sub vpt Square fill Bsquare} bind def
/S9 {BL [] 0 setdash 2 copy vpt sub vpt vpt2 Rec fill Bsquare} bind def
/S10 {BL [] 0 setdash 2 copy vpt sub vpt Square fill 2 copy exch vpt sub exch vpt Square fill
	Bsquare} bind def
/S11 {BL [] 0 setdash 2 copy vpt sub vpt Square fill 2 copy exch vpt sub exch vpt2 vpt Rec fill
	Bsquare} bind def
/S12 {BL [] 0 setdash 2 copy exch vpt sub exch vpt sub vpt2 vpt Rec fill Bsquare} bind def
/S13 {BL [] 0 setdash 2 copy exch vpt sub exch vpt sub vpt2 vpt Rec fill
	2 copy vpt Square fill Bsquare} bind def
/S14 {BL [] 0 setdash 2 copy exch vpt sub exch vpt sub vpt2 vpt Rec fill
	2 copy exch vpt sub exch vpt Square fill Bsquare} bind def
/S15 {BL [] 0 setdash 2 copy Bsquare fill Bsquare} bind def
/D0 {gsave translate 45 rotate 0 0 S0 stroke grestore} bind def
/D1 {gsave translate 45 rotate 0 0 S1 stroke grestore} bind def
/D2 {gsave translate 45 rotate 0 0 S2 stroke grestore} bind def
/D3 {gsave translate 45 rotate 0 0 S3 stroke grestore} bind def
/D4 {gsave translate 45 rotate 0 0 S4 stroke grestore} bind def
/D5 {gsave translate 45 rotate 0 0 S5 stroke grestore} bind def
/D6 {gsave translate 45 rotate 0 0 S6 stroke grestore} bind def
/D7 {gsave translate 45 rotate 0 0 S7 stroke grestore} bind def
/D8 {gsave translate 45 rotate 0 0 S8 stroke grestore} bind def
/D9 {gsave translate 45 rotate 0 0 S9 stroke grestore} bind def
/D10 {gsave translate 45 rotate 0 0 S10 stroke grestore} bind def
/D11 {gsave translate 45 rotate 0 0 S11 stroke grestore} bind def
/D12 {gsave translate 45 rotate 0 0 S12 stroke grestore} bind def
/D13 {gsave translate 45 rotate 0 0 S13 stroke grestore} bind def
/D14 {gsave translate 45 rotate 0 0 S14 stroke grestore} bind def
/D15 {gsave translate 45 rotate 0 0 S15 stroke grestore} bind def
/DiaE {stroke [] 0 setdash vpt add M
  hpt neg vpt neg V hpt vpt neg V
  hpt vpt V hpt neg vpt V closepath stroke} def
/BoxE {stroke [] 0 setdash exch hpt sub exch vpt add M
  0 vpt2 neg V hpt2 0 V 0 vpt2 V
  hpt2 neg 0 V closepath stroke} def
/TriUE {stroke [] 0 setdash vpt 1.12 mul add M
  hpt neg vpt -1.62 mul V
  hpt 2 mul 0 V
  hpt neg vpt 1.62 mul V closepath stroke} def
/TriDE {stroke [] 0 setdash vpt 1.12 mul sub M
  hpt neg vpt 1.62 mul V
  hpt 2 mul 0 V
  hpt neg vpt -1.62 mul V closepath stroke} def
/PentE {stroke [] 0 setdash gsave
  translate 0 hpt M 4 {72 rotate 0 hpt L} repeat
  closepath stroke grestore} def
/CircE {stroke [] 0 setdash 
  hpt 0 360 arc stroke} def
/Opaque {gsave closepath 1 setgray fill grestore 0 setgray closepath} def
/DiaW {stroke [] 0 setdash vpt add M
  hpt neg vpt neg V hpt vpt neg V
  hpt vpt V hpt neg vpt V Opaque stroke} def
/BoxW {stroke [] 0 setdash exch hpt sub exch vpt add M
  0 vpt2 neg V hpt2 0 V 0 vpt2 V
  hpt2 neg 0 V Opaque stroke} def
/TriUW {stroke [] 0 setdash vpt 1.12 mul add M
  hpt neg vpt -1.62 mul V
  hpt 2 mul 0 V
  hpt neg vpt 1.62 mul V Opaque stroke} def
/TriDW {stroke [] 0 setdash vpt 1.12 mul sub M
  hpt neg vpt 1.62 mul V
  hpt 2 mul 0 V
  hpt neg vpt -1.62 mul V Opaque stroke} def
/PentW {stroke [] 0 setdash gsave
  translate 0 hpt M 4 {72 rotate 0 hpt L} repeat
  Opaque stroke grestore} def
/CircW {stroke [] 0 setdash 
  hpt 0 360 arc Opaque stroke} def
/BoxFill {gsave Rec 1 setgray fill grestore} def
/Density {
  /Fillden exch def
  currentrgbcolor
  /ColB exch def /ColG exch def /ColR exch def
  /ColR ColR Fillden mul Fillden sub 1 add def
  /ColG ColG Fillden mul Fillden sub 1 add def
  /ColB ColB Fillden mul Fillden sub 1 add def
  ColR ColG ColB setrgbcolor} def
/BoxColFill {gsave Rec PolyFill} def
/PolyFill {gsave Density fill grestore grestore} def
/h {rlineto rlineto rlineto gsave closepath fill grestore} bind def
%
% PostScript Level 1 Pattern Fill routine for rectangles
% Usage: x y w h s a XX PatternFill
%	x,y = lower left corner of box to be filled
%	w,h = width and height of box
%	  a = angle in degrees between lines and x-axis
%	 XX = 0/1 for no/yes cross-hatch
%
/PatternFill {gsave /PFa [ 9 2 roll ] def
  PFa 0 get PFa 2 get 2 div add PFa 1 get PFa 3 get 2 div add translate
  PFa 2 get -2 div PFa 3 get -2 div PFa 2 get PFa 3 get Rec
  TransparentPatterns {} {gsave 1 setgray fill grestore} ifelse
  clip
  currentlinewidth 0.5 mul setlinewidth
  /PFs PFa 2 get dup mul PFa 3 get dup mul add sqrt def
  0 0 M PFa 5 get rotate PFs -2 div dup translate
  0 1 PFs PFa 4 get div 1 add floor cvi
	{PFa 4 get mul 0 M 0 PFs V} for
  0 PFa 6 get ne {
	0 1 PFs PFa 4 get div 1 add floor cvi
	{PFa 4 get mul 0 2 1 roll M PFs 0 V} for
 } if
  stroke grestore} def
%
/languagelevel where
 {pop languagelevel} {1} ifelse
dup 2 lt
	{/InterpretLevel1 true def
	 /InterpretLevel3 false def}
	{/InterpretLevel1 Level1 def
	 2 gt
	    {/InterpretLevel3 Level3 def}
	    {/InterpretLevel3 false def}
	 ifelse }
 ifelse
%
% PostScript level 2 pattern fill definitions
%
/Level2PatternFill {
/Tile8x8 {/PaintType 2 /PatternType 1 /TilingType 1 /BBox [0 0 8 8] /XStep 8 /YStep 8}
	bind def
/KeepColor {currentrgbcolor [/Pattern /DeviceRGB] setcolorspace} bind def
<< Tile8x8
 /PaintProc {0.5 setlinewidth pop 0 0 M 8 8 L 0 8 M 8 0 L stroke} 
>> matrix makepattern
/Pat1 exch def
<< Tile8x8
 /PaintProc {0.5 setlinewidth pop 0 0 M 8 8 L 0 8 M 8 0 L stroke
	0 4 M 4 8 L 8 4 L 4 0 L 0 4 L stroke}
>> matrix makepattern
/Pat2 exch def
<< Tile8x8
 /PaintProc {0.5 setlinewidth pop 0 0 M 0 8 L
	8 8 L 8 0 L 0 0 L fill}
>> matrix makepattern
/Pat3 exch def
<< Tile8x8
 /PaintProc {0.5 setlinewidth pop -4 8 M 8 -4 L
	0 12 M 12 0 L stroke}
>> matrix makepattern
/Pat4 exch def
<< Tile8x8
 /PaintProc {0.5 setlinewidth pop -4 0 M 8 12 L
	0 -4 M 12 8 L stroke}
>> matrix makepattern
/Pat5 exch def
<< Tile8x8
 /PaintProc {0.5 setlinewidth pop -2 8 M 4 -4 L
	0 12 M 8 -4 L 4 12 M 10 0 L stroke}
>> matrix makepattern
/Pat6 exch def
<< Tile8x8
 /PaintProc {0.5 setlinewidth pop -2 0 M 4 12 L
	0 -4 M 8 12 L 4 -4 M 10 8 L stroke}
>> matrix makepattern
/Pat7 exch def
<< Tile8x8
 /PaintProc {0.5 setlinewidth pop 8 -2 M -4 4 L
	12 0 M -4 8 L 12 4 M 0 10 L stroke}
>> matrix makepattern
/Pat8 exch def
<< Tile8x8
 /PaintProc {0.5 setlinewidth pop 0 -2 M 12 4 L
	-4 0 M 12 8 L -4 4 M 8 10 L stroke}
>> matrix makepattern
/Pat9 exch def
/Pattern1 {PatternBgnd KeepColor Pat1 setpattern} bind def
/Pattern2 {PatternBgnd KeepColor Pat2 setpattern} bind def
/Pattern3 {PatternBgnd KeepColor Pat3 setpattern} bind def
/Pattern4 {PatternBgnd KeepColor Landscape {Pat5} {Pat4} ifelse setpattern} bind def
/Pattern5 {PatternBgnd KeepColor Landscape {Pat4} {Pat5} ifelse setpattern} bind def
/Pattern6 {PatternBgnd KeepColor Landscape {Pat9} {Pat6} ifelse setpattern} bind def
/Pattern7 {PatternBgnd KeepColor Landscape {Pat8} {Pat7} ifelse setpattern} bind def
} def
%
%
%End of PostScript Level 2 code
%
/PatternBgnd {
  TransparentPatterns {} {gsave 1 setgray fill grestore} ifelse
} def
%
% Substitute for Level 2 pattern fill codes with
% grayscale if Level 2 support is not selected.
%
/Level1PatternFill {
/Pattern1 {0.250 Density} bind def
/Pattern2 {0.500 Density} bind def
/Pattern3 {0.750 Density} bind def
/Pattern4 {0.125 Density} bind def
/Pattern5 {0.375 Density} bind def
/Pattern6 {0.625 Density} bind def
/Pattern7 {0.875 Density} bind def
} def
%
% Now test for support of Level 2 code
%
Level1 {Level1PatternFill} {Level2PatternFill} ifelse
%
/Symbol-Oblique /Symbol findfont [1 0 .167 1 0 0] makefont
dup length dict begin {1 index /FID eq {pop pop} {def} ifelse} forall
currentdict end definefont pop
%
/Metrics {ExtendTextBox Gswidth} def
/Lwidth {currentpoint stroke M 0 vshift R Metrics} def
/Rwidth {currentpoint stroke M dup stringwidth pop neg vshift R Metrics} def
/Cwidth {currentpoint stroke M dup stringwidth pop -2 div vshift R Metrics} def
/GLwidth {currentpoint stroke M 0 vshift R {ExtendTextBox} forall} def
/GRwidth {currentpoint stroke M dup Gwidth vshift R {ExtendTextBox} forall} def
/GCwidth {currentpoint stroke M dup Gwidth 2 div vshift R {ExtendTextBox} forall} def
/GLwidth2 {0 Gwidth AddGlyphWidth} def
/GRwidth2 {Gwidth -1 mul 0 AddGlyphWidth} def
/GCwidth2 {Gwidth 2 div dup -1 mul AddGlyphWidth} def
/AddGlyphWidth { dup TBx2 gt {userdict /TBx2 3 -1 roll put} {pop} ifelse
                 dup TBx1 lt {userdict /TBx1 3 -1 roll put} {pop} ifelse } def
/MFshow {
   { dup 5 get 3 ge
     { 5 get 3 eq {gsave} {grestore} ifelse }
     {dup dup 0 get findfont exch 1 get scalefont setfont
     [ currentpoint ] exch dup 2 get 0 exch R dup 5 get 2 ne {dup dup 6
     get exch 4 get {textshow} {Metrics pop 0 R} ifelse }if dup 5 get 0 eq
     {dup 3 get {2 get neg 0 exch R pop} {pop aload pop M} ifelse} {dup 5
     get 1 eq {dup 2 get exch dup 3 get exch 6 get Gswidth pop -2 div
     dup 0 R} {dup 6 get Gswidth pop -2 div 0 R 6 get
     textshow 2 index {aload pop M neg 3 -1 roll neg R pop pop} {pop pop pop
     pop aload pop M} ifelse }ifelse }ifelse }
     ifelse }
   forall} def
/Gswidth {dup type /stringtype eq {stringwidth} {pop (n) stringwidth} ifelse} def
/MFwidth {0 exch { dup 5 get 3 ge { 5 get 3 eq { 0 } { pop } ifelse }
 {dup 3 get{dup dup 0 get findfont exch 1 get scalefont setfont
     6 get Gswidth pop add} {pop} ifelse} ifelse} forall} def
/MLshow { currentpoint stroke M
  0 exch R
  Blacktext {gsave 0 setgray MFshow grestore} {MFshow} ifelse } bind def
/MRshow { currentpoint stroke M
  exch dup MFwidth neg 3 -1 roll R
  Blacktext {gsave 0 setgray MFshow grestore} {MFshow} ifelse } bind def
/MCshow { currentpoint stroke M
  exch dup MFwidth -2 div 3 -1 roll R
  Blacktext {gsave 0 setgray MFshow grestore} {MFshow} ifelse } bind def
/XYsave    { [( ) 1 2 true false 3 ()] } bind def
/XYrestore { [( ) 1 2 true false 4 ()] } bind def
Level1 SuppressPDFMark or 
{} {
/SDict 10 dict def
systemdict /pdfmark known not {
  userdict /pdfmark systemdict /cleartomark get put
} if
SDict begin [
  /Title (gnuplot_TWISS_xy.eps)
  /Subject (gnuplot plot)
  /Creator (gnuplot 5.2 patchlevel 2)
%  /Producer (gnuplot)
%  /Keywords ()
  /CreationDate (Thu Sep 24 04:32:14 2020)
  /DOCINFO pdfmark
end
} ifelse
%
% Support for boxed text - Ethan A Merritt Sep 2016
%
/InitTextBox { userdict /TBy2 3 -1 roll put userdict /TBx2 3 -1 roll put
           userdict /TBy1 3 -1 roll put userdict /TBx1 3 -1 roll put
	   /Boxing true def } def
/ExtendTextBox { dup type /stringtype eq
    { Boxing { gsave dup false charpath pathbbox
      dup TBy2 gt {userdict /TBy2 3 -1 roll put} {pop} ifelse
      dup TBx2 gt {userdict /TBx2 3 -1 roll put} {pop} ifelse
      dup TBy1 lt {userdict /TBy1 3 -1 roll put} {pop} ifelse
      dup TBx1 lt {userdict /TBx1 3 -1 roll put} {pop} ifelse
      grestore } if }
    {} ifelse} def
/PopTextBox { newpath TBx1 TBxmargin sub TBy1 TBymargin sub M
               TBx1 TBxmargin sub TBy2 TBymargin add L
	       TBx2 TBxmargin add TBy2 TBymargin add L
	       TBx2 TBxmargin add TBy1 TBymargin sub L closepath } def
/DrawTextBox { PopTextBox stroke /Boxing false def} def
/FillTextBox { gsave PopTextBox fill grestore /Boxing false def} def
0 0 0 0 InitTextBox
/TBxmargin 20 def
/TBymargin 20 def
/Boxing false def
/textshow { ExtendTextBox Gshow } def
%
end
%%EndProlog
%%Page: 1 1
gnudict begin
gsave
doclip
50 50 translate
0.050 0.050 scale
0 setgray
newpath
(Times-Roman) findfont 120 scalefont setfont
BackgroundColor 0 lt 3 1 roll 0 lt exch 0 lt or or not {BackgroundColor C 1.000 0 0 5272.00 3400.00 BoxColFill} if
1.000 UL
LTb
LCb setrgbcolor
876 384 M
63 0 V
3936 0 R
-63 0 V
stroke
804 384 M
[ [(roman) 120.0 0.0 true true 0 (-3.5x10)]
[(roman) 96.0 60.0 true true 0 (-7)]
] -52.0 MRshow
1.000 UL
LTb
LCb setrgbcolor
876 646 M
63 0 V
3936 0 R
-63 0 V
stroke
804 646 M
[ [(roman) 120.0 0.0 true true 0 (-3x10)]
[(roman) 96.0 60.0 true true 0 (-7)]
] -52.0 MRshow
1.000 UL
LTb
LCb setrgbcolor
876 907 M
63 0 V
3936 0 R
-63 0 V
stroke
804 907 M
[ [(roman) 120.0 0.0 true true 0 (-2.5x10)]
[(roman) 96.0 60.0 true true 0 (-7)]
] -52.0 MRshow
1.000 UL
LTb
LCb setrgbcolor
876 1169 M
63 0 V
3936 0 R
-63 0 V
stroke
804 1169 M
[ [(roman) 120.0 0.0 true true 0 (-2x10)]
[(roman) 96.0 60.0 true true 0 (-7)]
] -52.0 MRshow
1.000 UL
LTb
LCb setrgbcolor
876 1430 M
63 0 V
3936 0 R
-63 0 V
stroke
804 1430 M
[ [(roman) 120.0 0.0 true true 0 (-1.5x10)]
[(roman) 96.0 60.0 true true 0 (-7)]
] -52.0 MRshow
1.000 UL
LTb
LCb setrgbcolor
876 1692 M
63 0 V
3936 0 R
-63 0 V
stroke
804 1692 M
[ [(roman) 120.0 0.0 true true 0 (-1x10)]
[(roman) 96.0 60.0 true true 0 (-7)]
] -52.0 MRshow
1.000 UL
LTb
LCb setrgbcolor
876 1953 M
63 0 V
3936 0 R
-63 0 V
stroke
804 1953 M
[ [(roman) 120.0 0.0 true true 0 (-5x10)]
[(roman) 96.0 60.0 true true 0 (-8)]
] -52.0 MRshow
1.000 UL
LTb
LCb setrgbcolor
876 2215 M
63 0 V
3936 0 R
-63 0 V
stroke
804 2215 M
[ [(roman) 120.0 0.0 true true 0 ( 0)]
] -40.0 MRshow
1.000 UL
LTb
LCb setrgbcolor
876 2476 M
63 0 V
3936 0 R
-63 0 V
stroke
804 2476 M
[ [(roman) 120.0 0.0 true true 0 ( 5x10)]
[(roman) 96.0 60.0 true true 0 (-8)]
] -52.0 MRshow
1.000 UL
LTb
LCb setrgbcolor
876 2738 M
63 0 V
3936 0 R
-63 0 V
stroke
804 2738 M
[ [(roman) 120.0 0.0 true true 0 ( 1x10)]
[(roman) 96.0 60.0 true true 0 (-7)]
] -52.0 MRshow
1.000 UL
LTb
LCb setrgbcolor
876 2999 M
63 0 V
3936 0 R
-63 0 V
stroke
804 2999 M
[ [(roman) 120.0 0.0 true true 0 ( 1.5x10)]
[(roman) 96.0 60.0 true true 0 (-7)]
] -52.0 MRshow
1.000 UL
LTb
LCb setrgbcolor
876 384 M
0 63 V
0 2552 R
0 -63 V
stroke
876 264 M
[ [(roman) 120.0 0.0 true true 0 ( 0)]
] -40.0 MCshow
1.000 UL
LTb
LCb setrgbcolor
1376 384 M
0 63 V
0 2552 R
0 -63 V
stroke
1376 264 M
[ [(roman) 120.0 0.0 true true 0 ( 500)]
] -40.0 MCshow
1.000 UL
LTb
LCb setrgbcolor
1876 384 M
0 63 V
0 2552 R
0 -63 V
stroke
1876 264 M
[ [(roman) 120.0 0.0 true true 0 ( 1000)]
] -40.0 MCshow
1.000 UL
LTb
LCb setrgbcolor
2376 384 M
0 63 V
0 2552 R
0 -63 V
stroke
2376 264 M
[ [(roman) 120.0 0.0 true true 0 ( 1500)]
] -40.0 MCshow
1.000 UL
LTb
LCb setrgbcolor
2876 384 M
0 63 V
0 2552 R
0 -63 V
stroke
2876 264 M
[ [(roman) 120.0 0.0 true true 0 ( 2000)]
] -40.0 MCshow
1.000 UL
LTb
LCb setrgbcolor
3375 384 M
0 63 V
0 2552 R
0 -63 V
stroke
3375 264 M
[ [(roman) 120.0 0.0 true true 0 ( 2500)]
] -40.0 MCshow
1.000 UL
LTb
LCb setrgbcolor
3875 384 M
0 63 V
0 2552 R
0 -63 V
stroke
3875 264 M
[ [(roman) 120.0 0.0 true true 0 ( 3000)]
] -40.0 MCshow
1.000 UL
LTb
LCb setrgbcolor
4375 384 M
0 63 V
0 2552 R
0 -63 V
stroke
4375 264 M
[ [(roman) 120.0 0.0 true true 0 ( 3500)]
] -40.0 MCshow
1.000 UL
LTb
LCb setrgbcolor
4875 384 M
0 63 V
0 2552 R
0 -63 V
stroke
4875 264 M
[ [(roman) 120.0 0.0 true true 0 ( 4000)]
] -40.0 MCshow
1.000 UL
LTb
LCb setrgbcolor
1.000 UL
LTB
LCb setrgbcolor
876 2999 N
876 384 L
3999 0 V
0 2615 V
-3999 0 V
Z stroke
1.000 UP
1.000 UL
LTb
LCb setrgbcolor
LCb setrgbcolor
108 1691 M
currentpoint gsave translate -270 rotate 0 0 moveto
[ [(roman) 130.0 0.0 true true 0 (x, y [m])]
] -43.3 MCshow
grestore
LTb
LCb setrgbcolor
5019 1691 M
currentpoint gsave translate -270 rotate 0 0 moveto
[ [(roman) 130.0 0.0 true true 0 (x, y [m])]
] -43.3 MCshow
grestore
LTb
LCb setrgbcolor
2875 84 M
[ [(roman) 160.0 0.0 true true 0 (s [m])]
] -53.3 MCshow
LTb
LCb setrgbcolor
2875 3219 M
[ [(roman) 160.0 0.0 true true 0 (Orbit, from zgoubi.TWISS.out)]
] -53.3 MCshow
% Begin plot #1
1.000 UL
LTb
1.00 0.00 0.00 C LCb setrgbcolor
2560 2866 M
[ [(roman) 140.0 0.0 true true 0 (x)]
] -46.7 MRshow
1.000 UL
LTb
1.00 0.00 0.00 C 2644 2866 M
147 0 V
876 2215 M
2 -11 V
0 -2 V
2 -32 V
0 -6 V
1 -12 V
4 -100 V
1 -18 V
0 -17 V
5 -156 V
0 -4 V
1 10 V
6 135 V
1 9 V
0 5 V
7 64 V
0 4 V
1 4 V
6 39 V
1 6 V
0 8 V
6 83 V
0 8 V
0 2 V
1 10 V
1 9 V
6 110 V
0 4 V
1 -1 V
6 -14 V
1 2 V
0 4 V
7 51 V
0 -1 V
1 -4 V
6 -57 V
1 -2 V
0 2 V
0 1 V
1 2 V
5 19 V
2 -3 V
0 -1 V
2 -24 V
1 -16 V
0 -16 V
6 -206 V
1 -23 V
1 -22 V
6 -275 V
0 -3 V
1 17 V
6 218 V
2 55 V
0 5 V
2 35 V
1 4 V
1 0 V
6 1 V
0 6 V
1 8 V
11 185 V
0 15 V
1 16 V
0 10 V
4 114 V
0 5 V
0 16 V
1 5 V
0 17 V
1 0 V
0 -5 V
0 -16 V
1 -5 V
1 -70 V
1 -8 V
2 -91 V
0 -17 V
0 -27 V
1 -28 V
0 -6 V
1 -21 V
0 -7 V
2 -90 V
0 -11 V
2 -111 V
0 -21 V
1 -31 V
0 -21 V
1 0 V
0 -3 V
2 -19 V
0 -3 V
2 -40 V
1 -9 V
0 -13 V
1 -45 V
0 -20 V
0 -63 V
0 -20 V
2 -251 V
1 -28 V
2 -272 V
0 -48 V
0 -74 V
1 -11 V
0 17 V
1 54 V
0 18 V
2 196 V
0 20 V
2 175 V
0 28 V
1 43 V
0 3 V
0 -13 V
1 -38 V
0 -13 V
2 -159 V
0 -18 V
2 -180 V
0 -32 V
1 -49 V
1 13 V
0 24 V
0 72 V
0 24 V
2 267 V
0 27 V
2 246 V
1 40 V
0 62 V
1 46 V
0 6 V
0 17 V
1 5 V
2 54 V
0 5 V
2 33 V
0 4 V
1 6 V
0 19 V
0 9 V
1 27 V
0 8 V
2 92 V
0 9 V
2 70 V
0 11 V
1 15 V
0 24 V
1 8 V
0 24 V
0 8 V
2 82 V
0 8 V
2 61 V
1 9 V
0 13 V
1 -3 V
0 -6 V
0 -17 V
1 -6 V
1 -78 V
1 -9 V
2 -99 V
0 -19 V
0 -29 V
1 -33 V
0 -8 V
1 -28 V
0 -8 V
2 -115 V
0 -14 V
2 -135 V
0 -25 V
1 -38 V
0 -22 V
0 1 V
1 4 V
0 1 V
2 1 V
0 -1 V
2 -19 V
1 -5 V
0 -8 V
1 -43 V
0 -20 V
0 -64 V
0 -20 V
2 -255 V
1 -28 V
1 -275 V
1 -49 V
0 -74 V
1 -10 V
0 20 V
1 59 V
0 19 V
2 216 V
0 22 V
2 195 V
0 32 V
1 48 V
0 9 V
0 -11 V
1 -32 V
0 -11 V
2 -136 V
0 -16 V
2 -157 V
0 -28 V
1 -44 V
0 16 V
1 23 V
0 70 V
0 23 V
2 258 V
0 26 V
2 237 V
1 38 V
0 59 V
1 48 V
0 7 V
0 21 V
1 6 V
2 71 V
0 6 V
2 49 V
0 7 V
0 10 V
1 19 V
0 6 V
1 20 V
0 7 V
2 67 V
0 5 V
2 46 V
0 6 V
1 10 V
0 17 V
1 7 V
0 21 V
0 6 V
2 69 V
0 6 V
2 48 V
1 6 V
stroke 1139 2477 M
0 10 V
1 -6 V
0 -6 V
0 -19 V
0 -6 V
2 -83 V
1 -10 V
2 -104 V
0 -19 V
0 -30 V
1 -38 V
0 -10 V
1 -34 V
0 -11 V
2 -139 V
0 -15 V
2 -160 V
0 -29 V
1 -44 V
0 -22 V
0 3 V
1 9 V
0 3 V
2 23 V
0 2 V
2 3 V
0 -2 V
1 -2 V
1 -39 V
0 -20 V
0 -64 V
0 -20 V
2 -255 V
1 -27 V
1 -276 V
1 -48 V
0 -75 V
1 -6 V
0 20 V
1 64 V
0 21 V
2 234 V
0 23 V
2 213 V
0 34 V
1 53 V
0 15 V
0 -9 V
1 -26 V
0 -9 V
2 -112 V
0 -13 V
2 -133 V
0 -24 V
1 -37 V
0 17 V
1 22 V
0 67 V
0 22 V
2 245 V
0 25 V
2 225 V
1 36 V
0 56 V
1 48 V
0 8 V
0 24 V
1 8 V
1 84 V
1 7 V
2 63 V
0 9 V
0 14 V
1 16 V
0 5 V
1 14 V
0 4 V
2 43 V
0 3 V
2 21 V
0 2 V
1 3 V
0 12 V
1 5 V
0 16 V
0 5 V
2 53 V
0 4 V
2 31 V
1 4 V
0 5 V
1 -8 V
0 -7 V
0 -19 V
0 -6 V
2 -85 V
1 -10 V
2 -105 V
0 -20 V
0 -30 V
1 -41 V
0 -13 V
1 -39 V
0 -13 V
2 -161 V
0 -18 V
2 -183 V
0 -33 V
1 -50 V
0 -21 V
0 5 V
1 15 V
0 5 V
2 47 V
0 4 V
2 26 V
0 2 V
1 5 V
1 -35 V
0 -20 V
0 -63 V
0 -20 V
2 -251 V
0 -27 V
2 -272 V
1 -48 V
0 -73 V
1 -4 V
0 22 V
0 67 V
1 22 V
2 249 V
0 25 V
2 227 V
0 37 V
1 56 V
0 22 V
0 -6 V
1 -20 V
0 -7 V
2 -87 V
0 -11 V
2 -108 V
0 -20 V
1 -31 V
0 19 V
1 21 V
0 63 V
0 20 V
2 231 V
0 22 V
2 210 V
1 34 V
0 52 V
1 47 V
0 8 V
0 28 V
1 8 V
1 94 V
1 9 V
2 73 V
0 11 V
0 16 V
1 15 V
0 2 V
1 8 V
0 3 V
2 19 V
0 1 V
2 -2 V
0 -2 V
1 -3 V
0 4 V
0 4 V
1 11 V
0 4 V
2 33 V
0 3 V
2 12 V
1 1 V
1 -11 V
0 -6 V
0 -19 V
0 -6 V
2 -83 V
1 -9 V
1 -104 V
1 -19 V
0 -29 V
1 -44 V
0 -15 V
1 -45 V
0 -15 V
2 -182 V
0 -20 V
2 -204 V
0 -36 V
1 -56 V
0 -21 V
0 7 V
1 22 V
0 7 V
2 71 V
0 7 V
2 50 V
0 7 V
1 11 V
0 -30 V
1 -20 V
0 -60 V
0 -20 V
2 -244 V
0 -26 V
2 -265 V
1 -47 V
0 -71 V
1 -1 V
0 23 V
0 70 V
1 23 V
2 261 V
0 26 V
2 239 V
0 39 V
0 59 V
1 28 V
0 -5 V
1 -13 V
0 -5 V
2 -62 V
0 -8 V
2 -83 V
0 -16 V
1 -24 V
0 20 V
1 19 V
0 58 V
0 19 V
2 213 V
0 21 V
2 192 V
1 30 V
0 48 V
1 45 V
0 9 V
0 29 V
0 10 V
2 101 V
1 9 V
stroke 1313 2250 M
2 80 V
0 12 V
0 18 V
1 13 V
1 2 V
0 1 V
2 -3 V
0 -1 V
2 -24 V
0 -6 V
1 -8 V
0 -2 V
0 2 V
1 6 V
0 2 V
2 12 V
2 -9 V
0 -3 V
1 -5 V
1 -14 V
0 -5 V
0 -18 V
0 -5 V
2 -77 V
1 -9 V
1 -98 V
1 -18 V
0 -28 V
1 -47 V
0 -16 V
1 -49 V
0 -17 V
2 -201 V
0 -22 V
2 -223 V
0 -39 V
1 -61 V
0 -20 V
0 9 V
1 28 V
0 9 V
2 97 V
0 9 V
2 75 V
0 12 V
1 17 V
0 -25 V
1 -19 V
0 -58 V
0 -19 V
2 -233 V
0 -25 V
2 -255 V
1 -45 V
0 -69 V
1 3 V
0 23 V
0 73 V
1 24 V
1 269 V
1 27 V
2 247 V
0 41 V
0 61 V
1 33 V
0 -2 V
1 -7 V
0 -3 V
2 -37 V
0 -5 V
2 -59 V
0 -12 V
1 -18 V
0 22 V
0 17 V
1 53 V
0 17 V
2 193 V
0 18 V
2 172 V
1 27 V
0 42 V
1 43 V
0 10 V
0 30 V
0 10 V
2 104 V
1 10 V
2 84 V
0 13 V
0 19 V
1 9 V
0 -3 V
1 -1 V
0 -3 V
0 -1 V
4 -23 V
0 -2 V
1 -3 V
0 4 V
11 213 V
1 10 V
0 -9 V
6 -279 V
0 -25 V
1 -8 V
0 -25 V
1 -27 V
2 -95 V
0 -11 V
2 -116 V
6 -416 V
1 -32 V
0 -5 V
7 313 V
0 25 V
1 22 V
6 149 V
0 12 V
1 18 V
2 62 V
0 5 V
2 41 V
5 81 V
1 8 V
0 3 V
0 8 V
1 13 V
6 168 V
1 13 V
0 8 V
7 0 V
1 7 V
6 147 V
1 11 V
0 -4 V
6 -242 V
1 -19 V
1 -17 V
0 -3 V
0 -8 V
6 -97 V
0 -9 V
1 -12 V
6 -151 V
1 -12 V
0 -16 V
7 -171 V
0 -14 V
1 -21 V
6 -279 V
1 -22 V
0 4 V
5 243 V
0 28 V
1 25 V
4 134 V
1 15 V
0 9 V
2 41 V
0 3 V
2 20 V
0 1 V
2 -1 V
0 -1 V
2 -22 V
1 -6 V
0 -9 V
4 -87 V
1 -17 V
1 -18 V
4 -163 V
1 -2 V
0 15 V
6 197 V
1 15 V
0 10 V
7 126 V
0 11 V
1 9 V
6 115 V
1 8 V
0 6 V
6 60 V
0 5 V
1 2 V
0 11 V
1 14 V
6 172 V
1 2 V
0 -9 V
6 -116 V
1 -6 V
0 -1 V
7 -11 V
0 -7 V
1 -10 V
6 -124 V
1 -10 V
0 -7 V
0 -2 V
1 -7 V
5 -71 V
2 -37 V
0 -5 V
2 -58 V
1 -16 V
0 -9 V
7 -115 V
0 -19 V
1 -21 V
6 -272 V
1 5 V
0 31 V
6 389 V
2 108 V
0 10 V
2 87 V
1 26 V
1 23 V
0 8 V
0 23 V
6 265 V
0 7 V
1 -10 V
11 -230 V
1 -6 V
0 1 V
4 4 V
1 0 V
0 1 V
1 -9 V
0 -5 V
0 -16 V
1 -5 V
2 -71 V
0 -9 V
2 -92 V
0 -17 V
1 -27 V
0 -40 V
0 -13 V
1 -41 V
0 -13 V
2 -166 V
0 -19 V
2 -188 V
0 -33 V
1 -52 V
stroke 1666 1557 M
0 -19 V
1 6 V
0 19 V
0 6 V
2 64 V
0 5 V
2 43 V
1 5 V
0 8 V
1 -29 V
0 -19 V
0 -59 V
1 -19 V
1 -235 V
1 -26 V
2 -256 V
0 -45 V
0 -69 V
1 -2 V
0 22 V
1 66 V
0 21 V
2 245 V
0 24 V
2 223 V
0 36 V
1 56 V
0 23 V
0 -6 V
1 -16 V
0 -5 V
2 -74 V
0 -8 V
2 -95 V
1 -18 V
0 -27 V
1 19 V
0 18 V
0 58 V
0 19 V
2 212 V
1 21 V
1 191 V
1 31 V
0 47 V
1 43 V
0 8 V
1 25 V
0 8 V
2 87 V
0 7 V
2 66 V
0 9 V
1 14 V
0 13 V
0 2 V
1 6 V
0 2 V
2 13 V
2 -8 V
0 -3 V
1 -5 V
0 1 V
1 2 V
0 7 V
0 2 V
2 15 V
2 -6 V
1 -3 V
0 -4 V
1 -11 V
0 -5 V
0 -15 V
1 -5 V
2 -67 V
0 -8 V
2 -89 V
0 -16 V
0 -26 V
1 -42 V
0 -15 V
1 -45 V
0 -15 V
2 -185 V
0 -21 V
2 -206 V
0 -37 V
1 -56 V
0 -19 V
1 8 V
0 25 V
0 9 V
2 86 V
0 8 V
2 65 V
1 10 V
0 14 V
1 -25 V
0 -18 V
0 -56 V
1 -19 V
1 -227 V
1 -24 V
2 -248 V
0 -44 V
0 -67 V
1 1 V
0 22 V
1 69 V
0 22 V
2 254 V
0 25 V
2 233 V
0 37 V
1 58 V
0 28 V
0 -3 V
1 -11 V
0 -3 V
2 -50 V
0 -6 V
2 -72 V
0 -14 V
1 -21 V
1 20 V
0 17 V
0 53 V
0 18 V
2 194 V
1 19 V
1 173 V
1 28 V
0 42 V
1 41 V
0 9 V
1 26 V
0 9 V
2 91 V
0 8 V
2 70 V
0 10 V
1 16 V
0 10 V
1 1 V
0 1 V
2 -7 V
0 -2 V
2 -27 V
0 -6 V
1 -10 V
0 -5 V
1 0 V
0 2 V
2 -6 V
0 -1 V
2 -27 V
1 -6 V
0 -10 V
1 -14 V
0 -4 V
0 -13 V
1 -4 V
2 -61 V
0 -7 V
2 -81 V
0 -16 V
0 -24 V
1 -43 V
0 -17 V
1 -49 V
0 -16 V
2 -202 V
0 -22 V
2 -223 V
0 -39 V
1 -61 V
0 -18 V
1 11 V
0 31 V
0 10 V
2 110 V
0 10 V
2 89 V
1 13 V
0 20 V
1 -19 V
0 -18 V
0 -53 V
0 -18 V
2 -215 V
1 -24 V
2 -236 V
0 -42 V
0 -64 V
1 3 V
0 23 V
1 71 V
0 22 V
2 260 V
0 26 V
2 239 V
0 39 V
1 59 V
0 33 V
0 -2 V
1 -4 V
0 -2 V
2 -27 V
0 -4 V
2 -49 V
0 -10 V
1 -15 V
1 20 V
0 16 V
0 48 V
0 15 V
2 175 V
0 17 V
2 154 V
1 24 V
0 37 V
1 38 V
0 9 V
0 27 V
1 8 V
2 93 V
0 9 V
2 71 V
0 11 V
1 16 V
0 7 V
0 -1 V
1 -3 V
0 -1 V
2 -24 V
0 -4 V
2 -44 V
0 -10 V
1 -14 V
0 -11 V
1 -2 V
0 -4 V
0 -2 V
2 -27 V
0 -4 V
2 -48 V
1 -10 V
0 -16 V
1 -15 V
stroke 1843 2161 M
0 -4 V
0 -10 V
1 -3 V
1 -51 V
1 -6 V
2 -72 V
0 -14 V
0 -21 V
1 -44 V
0 -18 V
1 -53 V
0 -17 V
2 -216 V
0 -24 V
2 -236 V
0 -42 V
1 -64 V
0 -16 V
0 12 V
1 37 V
0 12 V
2 133 V
0 12 V
2 112 V
1 17 V
0 26 V
1 -13 V
0 -17 V
0 -49 V
0 -17 V
2 -201 V
1 -22 V
1 -223 V
1 -40 V
0 -60 V
1 6 V
0 23 V
1 71 V
0 24 V
2 263 V
0 26 V
2 242 V
0 39 V
1 60 V
0 37 V
1 1 V
0 1 V
2 -6 V
0 -2 V
2 -26 V
0 -7 V
1 -9 V
0 20 V
1 13 V
0 43 V
0 14 V
2 153 V
0 15 V
2 132 V
1 21 V
0 32 V
1 34 V
0 9 V
0 26 V
1 9 V
2 91 V
0 8 V
2 71 V
0 10 V
0 15 V
1 5 V
0 -2 V
1 -8 V
0 -2 V
2 -39 V
0 -5 V
2 -60 V
0 -12 V
1 -18 V
0 -17 V
1 -3 V
0 -11 V
0 -3 V
2 -50 V
0 -7 V
2 -71 V
1 -13 V
0 -22 V
1 -17 V
0 -2 V
0 -7 V
1 -3 V
1 -38 V
1 -5 V
2 -58 V
0 -12 V
0 -18 V
1 -44 V
0 -18 V
1 -57 V
0 -18 V
2 -227 V
0 -25 V
2 -247 V
0 -44 V
1 -67 V
0 -15 V
0 14 V
1 43 V
0 14 V
2 155 V
0 15 V
2 134 V
0 21 V
1 32 V
1 -8 V
0 -15 V
0 -45 V
0 -15 V
2 -185 V
1 -21 V
1 -206 V
1 -37 V
0 -56 V
1 9 V
0 23 V
1 71 V
0 23 V
2 263 V
0 26 V
2 242 V
0 39 V
1 61 V
0 39 V
0 2 V
1 7 V
0 2 V
2 15 V
2 -6 V
0 -3 V
1 -4 V
0 19 V
1 12 V
0 37 V
0 12 V
2 131 V
0 13 V
2 110 V
1 17 V
0 25 V
1 31 V
0 8 V
0 25 V
1 8 V
1 87 V
1 7 V
2 66 V
0 9 V
0 14 V
1 3 V
0 -4 V
1 -10 V
0 -4 V
2 -51 V
0 -7 V
2 -72 V
0 -14 V
1 -22 V
0 -22 V
1 -5 V
0 -17 V
0 -5 V
2 -73 V
0 -9 V
2 -94 V
1 -18 V
0 -27 V
1 -19 V
0 -1 V
0 -3 V
0 -1 V
2 -23 V
1 -3 V
2 -44 V
0 -9 V
0 -14 V
1 -43 V
0 -19 V
1 -58 V
0 -19 V
2 -235 V
0 -26 V
2 -256 V
0 -45 V
1 -69 V
0 -13 V
0 16 V
1 48 V
0 16 V
2 176 V
0 17 V
2 155 V
0 25 V
1 38 V
1 -2 V
0 -13 V
0 -41 V
0 -13 V
2 -167 V
0 -19 V
2 -187 V
1 -34 V
0 -52 V
1 12 V
0 23 V
0 70 V
1 23 V
2 259 V
0 26 V
2 238 V
0 39 V
1 59 V
0 42 V
0 4 V
1 12 V
0 3 V
2 34 V
0 2 V
2 13 V
1 0 V
0 19 V
1 11 V
0 30 V
0 10 V
2 108 V
0 10 V
2 87 V
1 13 V
0 20 V
1 26 V
0 7 V
0 24 V
1 7 V
1 78 V
1 8 V
2 57 V
0 8 V
0 12 V
1 0 V
stroke 2019 2454 M
1 -14 V
0 -4 V
0 -13 V
0 -4 V
4 -94 V
0 -8 V
1 -13 V
0 -12 V
7 -83 V
0 -7 V
1 -7 V
5 -56 V
1 -5 V
0 -1 V
1 -5 V
0 -9 V
5 -92 V
2 -47 V
0 -6 V
2 -69 V
0 -21 V
1 -14 V
6 -40 V
1 -3 V
0 -15 V
7 -269 V
0 -21 V
1 -2 V
5 206 V
1 18 V
0 6 V
2 60 V
0 5 V
2 38 V
0 3 V
2 18 V
2 -3 V
1 -4 V
1 -12 V
1 -40 V
1 -41 V
1 -40 V
1 -40 V
2 -41 V
0 -10 V
0 -17 V
1 -1 V
1 37 V
1 37 V
2 37 V
1 37 V
1 36 V
0 10 V
1 15 V
0 7 V
7 -54 V
0 -5 V
1 16 V
6 391 V
1 31 V
0 38 V
0 10 V
1 33 V
5 366 V
1 32 V
1 15 V
6 -106 V
0 -9 V
1 -4 V
6 23 V
1 2 V
0 11 V
7 214 V
0 17 V
1 -11 V
6 -452 V
1 -36 V
0 -38 V
8 -442 V
1 -27 V
0 -12 V
0 -2 V
1 5 V
8 73 V
1 -7 V
0 -15 V
7 -197 V
0 7 V
1 26 V
6 333 V
1 29 V
0 21 V
6 271 V
1 29 V
0 26 V
7 335 V
0 4 V
1 -21 V
5 -230 V
1 -21 V
0 -6 V
1 -15 V
0 -3 V
7 -45 V
0 -15 V
1 -22 V
6 -274 V
1 -29 V
0 -27 V
0 -17 V
2 -65 V
1 -64 V
1 -65 V
1 -65 V
1 -64 V
1 -17 V
1 0 V
1 0 V
1 -1 V
1 0 V
2 -1 V
1 0 V
0 -12 V
1 -19 V
2 -84 V
0 -10 V
2 -105 V
0 -12 V
2 -126 V
0 -14 V
2 -147 V
0 -15 V
1 -41 V
6 -462 V
0 4 V
1 47 V
6 593 V
1 32 V
0 7 V
6 79 V
1 31 V
0 46 V
2 167 V
1 16 V
1 146 V
5 331 V
1 41 V
0 34 V
0 11 V
1 34 V
6 381 V
0 12 V
1 -13 V
6 -172 V
1 -3 V
0 9 V
0 5 V
4 60 V
0 3 V
1 8 V
0 3 V
0 8 V
1 -13 V
0 -10 V
1 -30 V
0 -10 V
2 -128 V
0 -14 V
2 -149 V
0 -27 V
1 -41 V
0 -55 V
0 -17 V
1 -50 V
0 -17 V
2 -206 V
0 -23 V
2 -227 V
0 -40 V
1 -62 V
0 -26 V
1 6 V
0 19 V
0 6 V
2 61 V
0 5 V
2 41 V
1 5 V
0 7 V
1 -38 V
0 -23 V
0 -72 V
1 -24 V
2 -288 V
0 -31 V
2 -308 V
0 -54 V
0 -83 V
1 -2 V
0 27 V
1 80 V
0 27 V
2 299 V
0 30 V
2 279 V
0 45 V
1 70 V
0 33 V
1 -4 V
0 -14 V
0 -5 V
2 -63 V
0 -8 V
2 -85 V
1 -16 V
0 -25 V
1 26 V
0 21 V
0 67 V
0 22 V
2 245 V
1 25 V
2 224 V
0 36 V
0 56 V
1 57 V
0 13 V
1 40 V
0 14 V
2 144 V
0 14 V
2 123 V
0 19 V
1 30 V
0 15 V
0 -1 V
1 -3 V
0 -1 V
2 -24 V
0 -3 V
2 -45 V
0 -9 V
1 -14 V
1 -1 V
0 4 V
0 12 V
0 4 V
2 38 V
0 3 V
stroke 2353 2491 M
2 17 V
1 1 V
0 2 V
1 -16 V
0 -10 V
1 -29 V
0 -9 V
2 -122 V
0 -13 V
2 -143 V
0 -26 V
1 -39 V
0 -58 V
0 -18 V
1 -57 V
0 -19 V
2 -230 V
0 -25 V
2 -251 V
0 -45 V
1 -68 V
0 -25 V
1 9 V
0 27 V
0 8 V
2 93 V
0 8 V
2 71 V
1 11 V
0 16 V
1 -32 V
0 -22 V
0 -69 V
1 -23 V
1 -275 V
1 -30 V
2 -296 V
0 -52 V
0 -80 V
1 3 V
0 27 V
1 83 V
0 28 V
2 311 V
0 31 V
2 290 V
0 47 V
1 73 V
0 40 V
0 -2 V
1 -6 V
0 -2 V
2 -33 V
0 -4 V
2 -54 V
1 -11 V
0 -16 V
1 26 V
0 20 V
0 60 V
0 19 V
2 221 V
1 22 V
1 200 V
1 32 V
0 49 V
1 54 V
0 14 V
1 41 V
0 14 V
2 149 V
0 15 V
2 128 V
0 20 V
1 31 V
0 13 V
0 -4 V
1 -10 V
0 -3 V
2 -49 V
0 -6 V
2 -70 V
0 -13 V
1 -21 V
1 -9 V
0 1 V
0 6 V
0 1 V
2 10 V
2 -11 V
1 -4 V
0 -5 V
1 -19 V
0 -9 V
0 -26 V
1 -9 V
2 -111 V
0 -12 V
2 -132 V
0 -24 V
1 -37 V
0 -59 V
0 -21 V
1 -62 V
0 -21 V
2 -251 V
0 -27 V
2 -273 V
0 -48 V
1 -73 V
0 -24 V
1 12 V
0 35 V
0 11 V
2 124 V
0 11 V
2 103 V
1 16 V
0 24 V
1 -25 V
0 -21 V
0 -64 V
1 -21 V
1 -260 V
1 -28 V
2 -280 V
0 -49 V
0 -76 V
1 6 V
0 28 V
1 86 V
0 28 V
2 318 V
0 32 V
2 297 V
0 49 V
1 74 V
0 46 V
1 2 V
0 1 V
2 -2 V
0 -2 V
2 -23 V
0 -6 V
1 -9 V
1 27 V
0 18 V
0 53 V
0 17 V
2 193 V
1 20 V
1 172 V
1 28 V
0 42 V
1 50 V
0 13 V
1 42 V
0 14 V
2 150 V
0 15 V
2 129 V
0 20 V
1 31 V
0 10 V
0 -6 V
1 -15 V
0 -6 V
2 -71 V
0 -9 V
2 -92 V
0 -17 V
1 -27 V
0 -17 V
1 -1 V
0 -3 V
2 -20 V
0 -4 V
2 -40 V
1 -9 V
0 -13 V
1 -22 V
0 -7 V
0 -23 V
1 -7 V
2 -97 V
0 -11 V
2 -117 V
0 -22 V
0 -33 V
1 -60 V
0 -22 V
1 -67 V
0 -22 V
2 -269 V
0 -29 V
2 -290 V
0 -51 V
1 -78 V
0 -21 V
1 14 V
0 42 V
0 14 V
2 155 V
0 15 V
2 133 V
1 21 V
0 32 V
1 -17 V
0 -19 V
0 -59 V
0 -20 V
2 -239 V
1 -26 V
2 -261 V
0 -46 V
0 -70 V
1 10 V
0 28 V
1 86 V
0 28 V
2 321 V
0 32 V
2 301 V
0 49 V
1 75 V
0 50 V
0 3 V
1 10 V
0 3 V
2 27 V
0 1 V
2 6 V
0 -1 V
1 -1 V
1 26 V
0 15 V
0 46 V
0 15 V
2 164 V
0 16 V
2 144 V
1 22 V
0 35 V
1 45 V
0 13 V
1 41 V
0 13 V
2 147 V
0 14 V
stroke 2530 2516 M
2 127 V
0 19 V
1 30 V
0 6 V
0 -7 V
1 -21 V
0 -7 V
2 -90 V
0 -11 V
2 -112 V
0 -20 V
1 -32 V
0 -25 V
1 -4 V
0 -10 V
0 -3 V
2 -51 V
0 -7 V
2 -71 V
1 -14 V
0 -21 V
1 -24 V
0 -6 V
0 -18 V
1 -5 V
1 -79 V
1 -9 V
2 -99 V
0 -19 V
0 -28 V
1 -59 V
0 -23 V
1 -71 V
0 -23 V
2 -283 V
0 -31 V
2 -304 V
0 -53 V
1 -82 V
0 -19 V
0 17 V
1 50 V
0 17 V
2 183 V
0 18 V
2 163 V
1 26 V
0 40 V
1 -8 V
0 -18 V
0 -53 V
0 -18 V
2 -216 V
1 -24 V
1 -238 V
1 -42 V
0 -64 V
1 13 V
0 28 V
1 86 V
0 28 V
2 319 V
0 33 V
2 298 V
0 49 V
1 75 V
0 54 V
0 6 V
1 16 V
0 6 V
2 53 V
0 5 V
2 32 V
0 4 V
1 5 V
1 27 V
0 12 V
0 38 V
0 12 V
2 134 V
0 13 V
2 113 V
1 17 V
0 27 V
1 39 V
0 13 V
0 39 V
1 12 V
2 140 V
0 13 V
2 118 V
0 19 V
1 28 V
0 2 V
0 -9 V
1 -24 V
0 -9 V
2 -106 V
0 -12 V
2 -128 V
0 -23 V
1 -36 V
0 -32 V
1 -6 V
0 -19 V
0 -6 V
2 -82 V
0 -10 V
2 -102 V
1 -20 V
0 -29 V
1 -25 V
0 -4 V
0 -12 V
1 -4 V
1 -57 V
1 -7 V
2 -78 V
0 -15 V
0 -23 V
1 -57 V
0 -24 V
1 -74 V
0 -24 V
2 -292 V
0 -32 V
2 -314 V
0 -55 V
1 -84 V
0 -16 V
0 18 V
1 58 V
0 19 V
2 212 V
0 21 V
2 191 V
0 30 V
1 47 V
1 0 V
0 -15 V
0 -47 V
0 -15 V
2 -191 V
1 -21 V
1 -212 V
1 -38 V
0 -58 V
1 16 V
0 28 V
1 84 V
0 28 V
2 314 V
0 31 V
2 293 V
0 48 V
1 74 V
0 57 V
0 7 V
1 23 V
0 8 V
2 78 V
0 7 V
2 56 V
0 8 V
1 12 V
0 25 V
1 10 V
0 30 V
0 9 V
2 103 V
0 10 V
2 82 V
1 12 V
0 19 V
1 32 V
0 12 V
0 36 V
1 11 V
2 128 V
0 12 V
2 106 V
0 17 V
0 25 V
1 -2 V
1 -28 V
0 -9 V
0 -28 V
0 -10 V
4 -198 V
0 -19 V
1 -28 V
0 -25 V
7 -188 V
0 -15 V
1 -14 V
5 -104 V
1 -9 V
0 -3 V
1 -9 V
0 -17 V
5 -182 V
2 -85 V
0 -10 V
2 -106 V
0 -30 V
1 -17 V
6 27 V
1 2 V
0 -14 V
7 -329 V
0 -26 V
1 2 V
5 332 V
1 30 V
0 10 V
2 103 V
0 9 V
2 82 V
0 7 V
2 61 V
1 5 V
1 40 V
1 8 V
1 2 V
6 -38 V
0 -3 V
1 7 V
6 183 V
1 14 V
0 14 V
7 109 V
0 8 V
1 10 V
6 92 V
1 7 V
0 14 V
0 4 V
1 15 V
6 168 V
0 15 V
1 1 V
6 -164 V
0 -13 V
1 -13 V
6 -113 V
1 -9 V
0 -11 V
7 -104 V
0 -8 V
stroke 2779 2116 M
1 -5 V
6 1 V
1 0 V
0 -4 V
8 -114 V
1 -7 V
0 -2 V
1 5 V
0 13 V
8 204 V
1 15 V
0 13 V
7 159 V
0 6 V
1 -2 V
6 -31 V
1 1 V
0 3 V
6 40 V
1 8 V
0 8 V
7 109 V
0 -6 V
1 -18 V
6 -201 V
0 -18 V
0 -6 V
1 -19 V
0 -14 V
7 -177 V
0 -10 V
1 -2 V
6 -28 V
1 -8 V
0 -12 V
6 -147 V
1 -3 V
1 7 V
6 92 V
0 3 V
1 -2 V
2 -18 V
0 -3 V
2 -39 V
0 -5 V
2 -61 V
0 -7 V
2 -81 V
0 -8 V
1 -24 V
6 -269 V
0 -2 V
1 19 V
6 249 V
1 10 V
0 -3 V
6 -37 V
1 13 V
0 24 V
2 82 V
1 7 V
2 61 V
4 123 V
1 9 V
0 2 V
0 1 V
1 2 V
6 23 V
0 13 V
1 20 V
6 251 V
1 29 V
0 29 V
0 19 V
4 207 V
0 10 V
1 29 V
0 9 V
0 30 V
1 5 V
0 -7 V
1 -20 V
0 -7 V
2 -89 V
0 -11 V
2 -110 V
0 -20 V
1 -32 V
0 -25 V
0 -3 V
1 -11 V
0 -4 V
2 -53 V
0 -6 V
2 -74 V
0 -14 V
1 -22 V
1 -24 V
0 -5 V
0 -17 V
0 -5 V
2 -75 V
0 -9 V
2 -96 V
1 -18 V
0 -28 V
1 -58 V
0 -23 V
0 -70 V
1 -23 V
2 -281 V
0 -30 V
2 -302 V
0 -53 V
1 -81 V
0 -19 V
0 17 V
1 51 V
0 16 V
2 184 V
0 18 V
2 164 V
0 26 V
1 39 V
0 -7 V
1 -17 V
0 -53 V
0 -17 V
2 -214 V
0 -23 V
2 -234 V
1 -42 V
0 -63 V
1 13 V
0 28 V
0 85 V
1 27 V
1 317 V
1 32 V
2 295 V
0 48 V
0 75 V
1 53 V
0 6 V
1 16 V
0 6 V
2 53 V
0 4 V
2 32 V
0 4 V
1 5 V
0 26 V
0 12 V
1 37 V
0 13 V
2 131 V
0 13 V
2 111 V
1 17 V
0 26 V
1 38 V
0 13 V
0 38 V
0 12 V
2 136 V
1 13 V
1 115 V
1 18 V
0 27 V
1 1 V
0 -8 V
1 -24 V
0 -8 V
2 -105 V
0 -12 V
2 -125 V
0 -23 V
1 -35 V
0 -33 V
0 -6 V
1 -19 V
0 -6 V
2 -84 V
0 -10 V
2 -104 V
0 -20 V
1 -30 V
0 -25 V
1 -3 V
0 -11 V
0 -4 V
2 -54 V
0 -6 V
2 -75 V
1 -14 V
0 -22 V
1 -56 V
0 -24 V
0 -73 V
1 -24 V
2 -290 V
0 -32 V
2 -311 V
0 -55 V
0 -83 V
1 -16 V
0 19 V
1 58 V
0 18 V
2 212 V
0 21 V
2 191 V
0 30 V
1 47 V
0 1 V
1 -15 V
0 -46 V
0 -15 V
2 -188 V
0 -21 V
2 -209 V
1 -37 V
0 -57 V
1 16 V
0 27 V
0 84 V
1 27 V
1 311 V
1 31 V
2 290 V
0 47 V
0 72 V
1 57 V
0 7 V
1 23 V
0 8 V
2 77 V
0 7 V
2 56 V
0 7 V
1 12 V
0 25 V
0 9 V
1 29 V
0 10 V
2 101 V
0 10 V
2 80 V
0 12 V
stroke 3052 2316 M
1 18 V
1 31 V
0 12 V
0 35 V
0 11 V
2 124 V
1 12 V
1 103 V
1 15 V
0 25 V
1 -3 V
0 -8 V
1 -28 V
0 -9 V
2 -116 V
0 -13 V
2 -137 V
0 -25 V
1 -38 V
0 -39 V
0 -9 V
1 -27 V
0 -9 V
2 -114 V
0 -13 V
2 -135 V
0 -25 V
1 -38 V
0 -26 V
1 -1 V
0 -5 V
0 -2 V
2 -29 V
0 -4 V
2 -51 V
1 -10 V
0 -16 V
1 -53 V
0 -24 V
0 -74 V
1 -25 V
2 -296 V
0 -31 V
2 -317 V
0 -56 V
0 -85 V
1 -13 V
0 21 V
1 65 V
0 21 V
2 237 V
0 23 V
2 216 V
0 35 V
1 53 V
0 9 V
1 -13 V
0 -39 V
0 -12 V
2 -161 V
0 -17 V
2 -181 V
1 -33 V
0 -50 V
1 19 V
0 26 V
0 81 V
0 27 V
2 300 V
1 30 V
2 280 V
0 46 V
0 69 V
1 59 V
0 9 V
1 28 V
0 9 V
2 98 V
0 9 V
2 78 V
0 11 V
1 17 V
0 24 V
0 6 V
1 21 V
0 7 V
2 71 V
0 6 V
2 49 V
0 7 V
1 10 V
1 24 V
0 10 V
0 31 V
0 10 V
2 108 V
0 11 V
2 87 V
1 13 V
0 20 V
1 -6 V
0 -9 V
0 -30 V
1 -9 V
2 -124 V
0 -14 V
2 -144 V
0 -26 V
1 -40 V
0 -45 V
0 -11 V
1 -35 V
0 -11 V
2 -145 V
0 -16 V
2 -165 V
0 -30 V
1 -45 V
0 -27 V
1 1 V
0 2 V
2 -2 V
0 -2 V
2 -23 V
1 -6 V
0 -9 V
1 -49 V
0 -24 V
0 -75 V
1 -24 V
1 -297 V
1 -32 V
2 -318 V
0 -56 V
0 -86 V
1 -9 V
0 23 V
1 70 V
0 23 V
2 259 V
0 26 V
2 239 V
0 38 V
1 60 V
0 16 V
0 -10 V
1 -31 V
0 -11 V
2 -131 V
0 -14 V
2 -152 V
1 -28 V
0 -42 V
1 21 V
0 26 V
0 77 V
0 25 V
2 286 V
1 29 V
1 266 V
1 43 V
0 66 V
1 59 V
0 11 V
1 33 V
0 10 V
2 116 V
0 11 V
2 95 V
0 14 V
1 22 V
0 21 V
0 5 V
1 13 V
0 4 V
2 40 V
0 3 V
2 19 V
0 2 V
1 2 V
0 16 V
1 9 V
0 26 V
0 8 V
2 89 V
0 8 V
2 68 V
1 10 V
0 15 V
1 -9 V
0 -10 V
0 -30 V
1 -10 V
2 -127 V
0 -14 V
2 -147 V
0 -27 V
0 -41 V
1 -49 V
0 -14 V
1 -42 V
0 -14 V
2 -173 V
0 -19 V
2 -194 V
0 -35 V
1 -53 V
0 -26 V
1 3 V
0 9 V
0 3 V
2 26 V
0 2 V
2 5 V
1 -1 V
0 -1 V
1 -45 V
0 -24 V
0 -74 V
1 -24 V
1 -294 V
1 -31 V
2 -315 V
0 -55 V
0 -85 V
1 -6 V
0 25 V
1 75 V
0 24 V
2 279 V
0 28 V
2 258 V
0 42 V
1 64 V
0 24 V
0 -8 V
1 -23 V
0 -8 V
2 -100 V
0 -12 V
2 -121 V
0 -23 V
1 -34 V
1 23 V
0 24 V
0 72 V
0 24 V
2 269 V
1 27 V
stroke 3227 1633 M
1 248 V
1 40 V
0 62 V
1 58 V
0 12 V
1 36 V
0 12 V
2 130 V
0 12 V
2 109 V
0 17 V
1 26 V
0 18 V
0 2 V
1 6 V
0 2 V
2 10 V
2 -10 V
0 -4 V
1 -5 V
0 9 V
1 6 V
0 20 V
0 7 V
2 66 V
0 6 V
2 46 V
1 6 V
0 9 V
1 -13 V
0 -9 V
0 -30 V
1 -10 V
1 -125 V
1 -14 V
2 -147 V
0 -26 V
0 -41 V
1 -53 V
0 -17 V
1 -49 V
0 -16 V
2 -199 V
0 -22 V
2 -221 V
0 -39 V
1 -60 V
0 -26 V
1 6 V
0 17 V
0 6 V
2 56 V
0 4 V
2 35 V
1 4 V
0 7 V
1 -39 V
0 -23 V
0 -72 V
0 -24 V
2 -286 V
1 -31 V
2 -308 V
0 -54 V
0 -83 V
1 -2 V
0 26 V
1 79 V
0 26 V
2 295 V
0 29 V
2 274 V
0 44 V
1 69 V
0 31 V
0 -5 V
1 -15 V
0 -5 V
2 -70 V
0 -9 V
2 -90 V
0 -17 V
1 -27 V
1 25 V
0 22 V
0 67 V
0 22 V
2 248 V
0 25 V
2 226 V
1 37 V
0 56 V
1 57 V
0 13 V
0 39 V
1 13 V
2 140 V
0 13 V
2 119 V
0 18 V
1 29 V
0 16 V
1 -2 V
0 -1 V
0 -1 V
0 -1 V
4 -12 V
0 -1 V
1 -2 V
0 11 V
7 255 V
0 20 V
1 -10 V
5 -414 V
1 -37 V
0 -12 V
1 -36 V
0 -43 V
5 -333 V
2 -146 V
0 -16 V
2 -167 V
0 -47 V
1 -33 V
6 -112 V
1 -9 V
0 -35 V
7 -621 V
0 -49 V
1 -5 V
6 451 V
0 40 V
0 15 V
2 143 V
0 14 V
2 122 V
0 12 V
2 101 V
1 10 V
2 80 V
0 19 V
1 9 V
6 -34 V
0 -3 V
1 16 V
6 368 V
1 29 V
0 29 V
7 261 V
0 21 V
1 17 V
6 111 V
1 9 V
0 20 V
0 8 V
1 26 V
6 289 V
0 26 V
1 -1 V
6 -347 V
0 -28 V
1 -29 V
6 -262 V
1 -21 V
0 -26 V
7 -291 V
0 -23 V
1 -9 V
6 116 V
1 9 V
0 1 V
8 -148 V
1 -9 V
1 11 V
0 28 V
8 447 V
1 36 V
0 32 V
7 411 V
0 13 V
1 -12 V
6 -154 V
1 -6 V
0 2 V
6 23 V
1 9 V
1 13 V
6 162 V
0 -14 V
1 -35 V
6 -400 V
0 -35 V
0 -12 V
1 -39 V
0 -31 V
7 -392 V
0 -19 V
1 1 V
6 7 V
1 -12 V
0 -19 V
6 -249 V
1 -2 V
1 16 V
6 209 V
1 10 V
2 -9 V
0 -2 V
2 -31 V
0 -4 V
2 -51 V
0 -6 V
2 -73 V
0 -7 V
1 -22 V
6 -243 V
0 4 V
1 29 V
6 357 V
1 20 V
0 7 V
6 80 V
1 19 V
1 26 V
1 87 V
1 8 V
2 67 V
4 138 V
1 16 V
0 13 V
1 5 V
0 13 V
6 149 V
0 6 V
1 -4 V
6 -47 V
1 1 V
0 6 V
1 3 V
3 39 V
0 2 V
1 6 V
0 2 V
0 5 V
1 -5 V
0 -4 V
1 -13 V
0 -5 V
2 -62 V
stroke 3577 2306 M
0 -7 V
2 -83 V
0 -16 V
1 -24 V
0 -33 V
0 -10 V
1 -31 V
0 -10 V
2 -131 V
0 -14 V
2 -151 V
0 -28 V
1 -42 V
1 -19 V
0 4 V
0 11 V
0 3 V
2 31 V
1 2 V
1 10 V
1 0 V
1 -35 V
0 -19 V
1 -58 V
0 -19 V
2 -233 V
0 -25 V
2 -255 V
0 -45 V
1 -69 V
0 -6 V
0 20 V
1 59 V
0 19 V
2 217 V
0 21 V
2 196 V
0 31 V
1 49 V
0 13 V
1 -8 V
0 -26 V
0 -8 V
2 -110 V
0 -12 V
2 -130 V
1 -24 V
0 -36 V
1 15 V
0 20 V
0 63 V
1 20 V
2 229 V
0 23 V
2 208 V
0 33 V
0 52 V
1 42 V
0 6 V
1 20 V
0 6 V
2 64 V
0 6 V
2 44 V
0 5 V
1 9 V
0 15 V
1 5 V
0 15 V
0 6 V
2 50 V
0 4 V
2 29 V
1 3 V
0 5 V
1 10 V
0 4 V
0 13 V
0 4 V
2 38 V
1 3 V
2 17 V
0 2 V
0 1 V
1 -7 V
0 -4 V
1 -14 V
0 -5 V
2 -63 V
0 -8 V
2 -84 V
0 -16 V
1 -24 V
0 -37 V
0 -11 V
1 -37 V
0 -12 V
2 -150 V
0 -17 V
2 -171 V
0 -31 V
1 -47 V
1 -19 V
0 5 V
0 17 V
0 5 V
2 51 V
1 5 V
1 30 V
1 4 V
0 5 V
1 -31 V
0 -18 V
1 -58 V
0 -18 V
2 -231 V
0 -25 V
2 -251 V
0 -45 V
1 -68 V
0 -3 V
0 20 V
1 63 V
0 20 V
2 230 V
0 23 V
2 209 V
0 33 V
1 52 V
0 19 V
1 -7 V
0 -20 V
0 -6 V
2 -88 V
0 -10 V
2 -108 V
1 -20 V
0 -31 V
1 17 V
0 19 V
0 59 V
1 19 V
1 216 V
1 21 V
2 195 V
0 31 V
0 48 V
1 42 V
0 7 V
1 22 V
0 7 V
2 74 V
0 6 V
2 53 V
0 7 V
1 11 V
0 13 V
0 3 V
1 11 V
0 3 V
2 30 V
0 2 V
2 8 V
1 0 V
0 -1 V
1 5 V
0 3 V
0 8 V
0 3 V
2 21 V
1 1 V
1 1 V
1 -2 V
0 -2 V
1 -10 V
0 -4 V
1 -13 V
0 -5 V
2 -61 V
0 -8 V
2 -83 V
0 -15 V
1 -25 V
0 -38 V
0 -14 V
1 -41 V
0 -13 V
2 -169 V
0 -19 V
2 -190 V
0 -34 V
1 -52 V
1 -18 V
0 7 V
0 22 V
0 7 V
2 73 V
0 6 V
2 53 V
1 7 V
0 10 V
1 -26 V
0 -18 V
0 -56 V
1 -18 V
2 -224 V
0 -25 V
2 -245 V
0 -44 V
1 -66 V
0 -1 V
0 21 V
1 66 V
0 21 V
2 240 V
0 24 V
2 220 V
0 35 V
1 55 V
0 23 V
1 -4 V
0 -15 V
0 -4 V
2 -65 V
0 -8 V
2 -86 V
1 -17 V
0 -25 V
1 18 V
0 18 V
0 55 V
1 18 V
1 200 V
1 19 V
2 179 V
0 29 V
0 44 V
1 40 V
0 8 V
1 23 V
0 8 V
2 80 V
0 7 V
2 59 V
0 9 V
1 12 V
0 11 V
0 2 V
1 5 V
stroke 3751 2296 M
0 2 V
2 10 V
2 -11 V
0 -3 V
1 -6 V
1 -1 V
0 1 V
0 4 V
0 1 V
2 3 V
1 -1 V
1 -18 V
1 -4 V
0 -8 V
1 -12 V
0 -4 V
1 -12 V
0 -4 V
2 -57 V
0 -7 V
2 -77 V
0 -15 V
1 -23 V
0 -41 V
0 -15 V
1 -46 V
0 -14 V
2 -186 V
0 -21 V
2 -206 V
0 -37 V
1 -57 V
0 -17 V
1 9 V
0 27 V
0 9 V
2 95 V
0 9 V
2 74 V
1 11 V
0 17 V
1 -22 V
0 -17 V
0 -54 V
1 -17 V
2 -216 V
0 -23 V
2 -236 V
0 -42 V
0 -64 V
1 1 V
0 22 V
1 68 V
0 22 V
2 248 V
0 24 V
2 228 V
0 36 V
1 57 V
0 28 V
1 -3 V
0 -8 V
0 -3 V
2 -43 V
0 -6 V
2 -64 V
1 -13 V
0 -19 V
1 18 V
0 17 V
0 50 V
0 16 V
2 183 V
1 18 V
2 161 V
0 26 V
0 39 V
1 38 V
0 8 V
1 24 V
0 8 V
2 84 V
0 7 V
2 63 V
0 9 V
1 14 V
0 8 V
1 1 V
2 -7 V
0 -2 V
2 -29 V
0 -6 V
1 -11 V
1 -7 V
0 -2 V
2 -17 V
0 -3 V
2 -38 V
1 -8 V
0 -12 V
1 -14 V
0 -3 V
1 -11 V
0 -3 V
2 -49 V
0 -6 V
2 -71 V
0 -13 V
1 -21 V
0 -42 V
0 -16 V
1 -50 V
0 -16 V
2 -200 V
0 -22 V
2 -222 V
0 -39 V
1 -60 V
0 -17 V
1 11 V
0 33 V
0 11 V
2 117 V
0 11 V
2 97 V
1 14 V
0 23 V
1 -17 V
0 -16 V
0 -51 V
1 -16 V
1 -204 V
1 -22 V
2 -225 V
0 -40 V
0 -61 V
1 4 V
0 23 V
1 68 V
0 23 V
2 253 V
0 25 V
2 232 V
0 37 V
1 58 V
0 32 V
0 -1 V
1 -3 V
0 -1 V
2 -22 V
0 -3 V
2 -43 V
1 -9 V
0 -14 V
1 19 V
0 15 V
0 45 V
0 15 V
2 163 V
1 16 V
1 142 V
1 22 V
0 34 V
1 35 V
0 8 V
1 25 V
0 8 V
2 84 V
0 8 V
2 63 V
0 9 V
1 13 V
0 7 V
0 -2 V
1 -3 V
0 -1 V
2 -23 V
0 -4 V
2 -44 V
0 -10 V
1 -14 V
1 -13 V
0 -2 V
0 -7 V
0 -2 V
2 -38 V
0 -5 V
2 -59 V
1 -12 V
0 -18 V
1 -15 V
0 -3 V
0 -7 V
1 -2 V
2 -39 V
0 -6 V
2 -59 V
0 -12 V
1 -19 V
0 -42 V
0 -17 V
1 -52 V
0 -18 V
2 -212 V
0 -24 V
2 -233 V
0 -42 V
1 -63 V
0 -15 V
1 12 V
0 39 V
0 13 V
2 139 V
0 13 V
2 118 V
1 18 V
0 28 V
1 -11 V
0 -15 V
0 -47 V
1 -15 V
1 -190 V
1 -20 V
2 -211 V
0 -38 V
0 -57 V
1 7 V
0 22 V
1 69 V
0 23 V
2 255 V
0 25 V
2 234 V
0 38 V
1 58 V
0 36 V
1 3 V
2 -1 V
0 -2 V
2 -22 V
0 -6 V
1 -9 V
1 19 V
0 13 V
0 40 V
0 13 V
2 143 V
1 13 V
1 122 V
stroke 3931 2111 M
1 19 V
0 29 V
1 31 V
0 8 V
1 24 V
0 7 V
2 82 V
0 7 V
2 60 V
0 9 V
1 13 V
0 4 V
1 -7 V
0 -2 V
0 -7 V
1 -3 V
3 -48 V
0 -5 V
1 -7 V
0 -3 V
7 23 V
0 2 V
1 -6 V
6 -131 V
0 -11 V
0 -4 V
1 -11 V
0 -15 V
5 -128 V
2 -62 V
0 -8 V
2 -83 V
1 -24 V
0 -19 V
6 -73 V
1 -5 V
1 -20 V
6 -339 V
0 -26 V
1 -4 V
6 234 V
0 20 V
0 8 V
2 69 V
0 6 V
2 48 V
1 4 V
1 28 V
1 1 V
2 7 V
0 -1 V
1 -11 V
6 -211 V
0 -17 V
1 1 V
6 238 V
1 19 V
0 10 V
7 -18 V
0 -1 V
1 18 V
6 395 V
1 31 V
0 40 V
0 11 V
1 35 V
6 395 V
0 35 V
1 14 V
6 -150 V
1 -12 V
0 -7 V
6 -13 V
1 -1 V
1 7 V
6 169 V
0 14 V
1 -12 V
6 -425 V
1 -33 V
0 -37 V
9 -450 V
0 -28 V
0 -11 V
1 -1 V
0 8 V
8 131 V
1 -1 V
0 -11 V
7 -136 V
0 8 V
1 24 V
6 303 V
1 27 V
0 22 V
7 266 V
0 30 V
1 27 V
6 347 V
1 2 V
0 -24 V
6 -278 V
0 -25 V
0 -8 V
1 -19 V
0 -8 V
7 -95 V
0 -18 V
1 -21 V
6 -266 V
1 -30 V
0 -29 V
7 -364 V
0 -16 V
1 2 V
6 25 V
1 -9 V
0 -19 V
2 -82 V
0 -10 V
2 -103 V
0 -11 V
2 -124 V
0 -14 V
2 -145 V
1 -15 V
0 -40 V
6 -456 V
0 5 V
1 49 V
6 620 V
1 34 V
0 9 V
6 107 V
1 33 V
1 46 V
2 168 V
0 17 V
2 147 V
4 334 V
1 43 V
0 37 V
1 12 V
0 36 V
6 412 V
0 10 V
1 -19 V
6 -243 V
1 -10 V
0 3 V
1 2 V
3 20 V
0 1 V
1 3 V
0 1 V
0 2 V
1 -15 V
0 -10 V
1 -29 V
0 -9 V
2 -121 V
0 -14 V
2 -142 V
0 -26 V
1 -39 V
0 -57 V
1 -18 V
0 -56 V
0 -18 V
2 -224 V
0 -25 V
2 -245 V
1 -44 V
0 -66 V
1 -25 V
0 8 V
0 25 V
0 8 V
2 87 V
1 7 V
2 66 V
0 9 V
0 14 V
1 -32 V
0 -23 V
1 -69 V
0 -22 V
2 -277 V
0 -29 V
2 -298 V
0 -52 V
1 -80 V
0 2 V
0 27 V
1 82 V
0 27 V
2 308 V
0 30 V
2 287 V
0 47 V
1 71 V
1 39 V
0 -3 V
0 -7 V
0 -3 V
2 -39 V
0 -5 V
2 -60 V
1 -12 V
0 -18 V
1 26 V
0 20 V
0 61 V
1 20 V
2 225 V
0 22 V
2 204 V
0 33 V
1 50 V
0 54 V
0 13 V
1 41 V
0 14 V
2 147 V
0 14 V
2 126 V
0 19 V
1 30 V
0 14 V
1 -3 V
0 -9 V
0 -2 V
2 -44 V
0 -5 V
2 -64 V
1 -13 V
0 -19 V
1 -8 V
0 2 V
0 7 V
1 2 V
1 15 V
1 0 V
2 -6 V
0 -3 V
0 -4 V
1 -19 V
0 -8 V
1 -27 V
stroke 4278 2377 M
0 -8 V
2 -112 V
0 -13 V
2 -132 V
0 -24 V
1 -38 V
0 -58 V
0 -20 V
1 -61 V
0 -20 V
2 -246 V
0 -27 V
2 -267 V
1 -47 V
0 -72 V
1 -24 V
0 11 V
0 33 V
0 11 V
2 118 V
1 11 V
1 96 V
1 15 V
0 22 V
1 -25 V
0 -21 V
1 -66 V
0 -21 V
2 -261 V
0 -28 V
2 -282 V
0 -50 V
1 -76 V
0 6 V
0 27 V
1 85 V
0 28 V
2 315 V
0 32 V
2 294 V
0 48 V
1 74 V
1 44 V
0 1 V
2 -9 V
0 -2 V
2 -30 V
1 -7 V
0 -10 V
1 27 V
0 17 V
0 54 V
1 18 V
2 198 V
0 20 V
2 177 V
0 28 V
0 44 V
1 50 V
0 13 V
1 42 V
0 13 V
2 149 V
0 14 V
2 128 V
0 20 V
1 31 V
0 9 V
1 -4 V
0 -15 V
0 -4 V
2 -66 V
0 -8 V
2 -87 V
1 -17 V
0 -25 V
1 -16 V
0 -1 V
1 -1 V
1 -14 V
1 -3 V
2 -35 V
0 -8 V
0 -12 V
1 -21 V
0 -8 V
1 -22 V
0 -8 V
2 -98 V
0 -11 V
2 -119 V
0 -22 V
1 -34 V
0 -59 V
0 -21 V
1 -66 V
0 -22 V
2 -264 V
0 -29 V
2 -285 V
0 -50 V
1 -77 V
1 -22 V
0 14 V
0 41 V
0 14 V
2 148 V
1 14 V
1 127 V
1 20 V
0 30 V
1 -18 V
0 -19 V
1 -61 V
0 -19 V
2 -242 V
0 -27 V
2 -263 V
0 -46 V
1 -71 V
0 9 V
0 28 V
1 85 V
0 28 V
2 319 V
0 32 V
2 298 V
0 49 V
1 75 V
0 49 V
1 3 V
0 8 V
0 2 V
2 20 V
0 1 V
2 0 V
1 -2 V
0 -3 V
1 27 V
0 15 V
0 47 V
1 15 V
2 170 V
0 16 V
2 149 V
0 23 V
0 36 V
1 46 V
0 13 V
1 41 V
0 13 V
2 146 V
0 14 V
2 125 V
0 20 V
1 30 V
0 6 V
1 -6 V
0 -20 V
0 -6 V
2 -86 V
0 -10 V
2 -107 V
1 -20 V
0 -30 V
1 -24 V
0 -3 V
0 -9 V
0 -3 V
2 -45 V
1 -5 V
2 -66 V
0 -13 V
0 -20 V
1 -23 V
0 -6 V
1 -18 V
0 -6 V
2 -81 V
0 -10 V
2 -101 V
0 -19 V
1 -29 V
0 -59 V
0 -23 V
1 -70 V
0 -22 V
2 -279 V
0 -30 V
2 -300 V
0 -53 V
1 -81 V
1 -19 V
0 16 V
0 49 V
0 16 V
2 178 V
0 17 V
2 157 V
1 24 V
0 38 V
1 -9 V
0 -18 V
0 -55 V
1 -17 V
2 -220 V
0 -24 V
2 -241 V
0 -43 V
1 -65 V
0 12 V
0 28 V
1 86 V
0 27 V
2 319 V
0 32 V
2 297 V
0 49 V
1 75 V
0 53 V
1 5 V
0 15 V
0 5 V
2 47 V
0 4 V
2 26 V
1 3 V
0 4 V
1 26 V
0 13 V
0 39 V
1 13 V
1 139 V
1 14 V
2 119 V
0 18 V
0 28 V
1 40 V
0 13 V
1 39 V
0 12 V
2 140 V
0 13 V
2 118 V
0 19 V
1 28 V
0 2 V
0 -7 V
1 -24 V
stroke 4454 2674 M
0 -8 V
2 -102 V
0 -12 V
2 -123 V
1 -23 V
0 -34 V
1 -31 V
0 -5 V
0 -18 V
0 -5 V
2 -76 V
1 -9 V
1 -97 V
1 -18 V
0 -28 V
1 -25 V
0 -4 V
1 -13 V
0 -4 V
2 -60 V
0 -7 V
2 -81 V
0 -16 V
1 -24 V
0 -57 V
0 -23 V
1 -73 V
0 -24 V
2 -289 V
0 -31 V
2 -311 V
0 -54 V
1 -84 V
0 -16 V
1 18 V
0 56 V
0 19 V
2 205 V
0 20 V
2 185 V
1 30 V
0 45 V
1 -2 V
0 -15 V
0 -48 V
1 -16 V
2 -195 V
0 -21 V
2 -216 V
0 -39 V
0 -58 V
1 15 V
0 27 V
1 85 V
0 27 V
2 314 V
0 31 V
2 293 V
0 48 V
1 73 V
0 56 V
1 7 V
0 22 V
0 7 V
2 72 V
0 6 V
2 51 V
1 7 V
0 11 V
1 25 V
0 10 V
0 31 V
1 10 V
1 109 V
1 10 V
2 88 V
0 14 V
0 20 V
1 33 V
0 12 V
1 36 V
0 12 V
2 128 V
0 12 V
2 108 V
0 16 V
1 25 V
0 -1 V
0 -9 V
1 -27 V
0 -8 V
2 -115 V
0 -13 V
2 -136 V
0 -24 V
1 -38 V
1 -38 V
0 -8 V
0 -25 V
0 -8 V
2 -107 V
1 -12 V
1 -128 V
1 -24 V
0 -36 V
1 -25 V
0 -3 V
1 -6 V
0 -3 V
2 -36 V
0 -5 V
2 -57 V
0 -11 V
1 -18 V
0 -54 V
0 -25 V
1 -74 V
0 -24 V
2 -296 V
0 -32 V
2 -317 V
0 -56 V
1 -85 V
0 -13 V
1 20 V
0 63 V
0 21 V
2 231 V
0 23 V
2 211 V
1 34 V
0 52 V
1 6 V
0 -13 V
0 -41 V
1 -13 V
2 -168 V
0 -19 V
2 -188 V
0 -34 V
0 -52 V
1 18 V
0 27 V
1 82 V
0 27 V
2 304 V
0 31 V
2 283 V
0 47 V
1 71 V
0 58 V
1 9 V
0 27 V
0 9 V
2 94 V
0 8 V
2 74 V
1 10 V
0 16 V
1 24 V
0 8 V
0 23 V
0 7 V
2 78 V
1 7 V
2 57 V
0 8 V
0 12 V
1 26 V
0 11 V
1 32 V
0 10 V
2 114 V
0 11 V
2 92 V
0 14 V
1 22 V
0 -5 V
1 -30 V
0 -9 V
0 -29 V
1 -10 V
3 -208 V
0 -19 V
1 -29 V
1 -30 V
11 -446 V
0 -21 V
1 -6 V
5 118 V
1 11 V
0 3 V
0 10 V
1 5 V
2 -20 V
0 -3 V
2 -41 V
6 -170 V
1 -13 V
1 8 V
6 351 V
0 28 V
1 31 V
6 318 V
1 25 V
0 19 V
2 13 V
2 -9 V
5 -50 V
1 -5 V
0 -2 V
1 -5 V
0 2 V
7 99 V
0 8 V
1 0 V
6 -107 V
0 -8 V
1 -5 V
6 13 V
1 1 V
0 -9 V
7 -202 V
0 -16 V
1 -18 V
0 -4 V
1 -15 V
5 -163 V
1 -15 V
0 -12 V
7 -64 V
0 -5 V
1 -8 V
6 -112 V
1 -9 V
0 -17 V
6 -248 V
1 -20 V
1 9 V
4 296 V
0 34 V
1 33 V
4 194 V
1 22 V
0 13 V
2 71 V
0 7 V
2 50 V
0 2 V
stroke 4716 2272 M
% End plot #1
% Begin plot #2
stroke
LTb
0.00 0.00 1.00 C LCb setrgbcolor
3295 2866 M
[ [(roman) 140.0 0.0 true true 0 (y)]
] -46.7 MRshow
1.000 UL
LTb
0.00 0.00 1.00 C 3379 2866 M
147 0 V
876 2215 M
2 0 V
2 0 V
1 0 V
4 0 V
1 0 V
5 0 V
1 0 V
6 0 V
1 0 V
7 0 V
1 0 V
6 0 V
1 0 V
6 0 V
1 0 V
1 0 V
6 0 V
1 0 V
6 0 V
1 0 V
7 0 V
1 0 V
6 0 V
1 0 V
1 0 V
5 0 V
2 0 V
2 0 V
1 0 V
6 0 V
1 0 V
1 0 V
6 0 V
1 0 V
6 0 V
2 0 V
2 0 V
1 0 V
1 0 V
6 0 V
1 0 V
11 0 V
1 0 V
4 0 V
1 0 V
1 0 V
1 0 V
1 0 V
1 0 V
2 0 V
1 0 V
1 0 V
2 0 V
2 0 V
1 0 V
1 0 V
2 0 V
2 0 V
1 0 V
1 0 V
2 0 V
1 0 V
2 0 V
1 0 V
1 0 V
2 0 V
2 0 V
1 0 V
1 0 V
2 0 V
2 0 V
1 0 V
1 0 V
2 0 V
2 0 V
1 0 V
1 0 V
1 0 V
2 0 V
2 0 V
1 0 V
1 0 V
2 0 V
2 0 V
1 0 V
1 0 V
2 0 V
2 0 V
1 0 V
1 0 V
1 0 V
1 0 V
1 0 V
2 0 V
1 0 V
1 0 V
2 0 V
2 0 V
1 0 V
1 0 V
2 0 V
2 0 V
1 0 V
1 0 V
2 0 V
1 0 V
1 0 V
1 0 V
1 0 V
1 0 V
2 0 V
2 0 V
1 0 V
1 0 V
2 0 V
2 0 V
1 0 V
1 0 V
2 0 V
2 0 V
1 0 V
1 0 V
1 0 V
2 0 V
2 0 V
1 0 V
1 0 V
2 0 V
2 0 V
1 0 V
1 0 V
2 0 V
2 0 V
1 0 V
1 0 V
2 0 V
1 0 V
2 0 V
1 0 V
1 0 V
2 0 V
2 0 V
1 0 V
1 0 V
2 0 V
2 0 V
1 0 V
1 0 V
2 0 V
1 0 V
1 0 V
1 0 V
1 0 V
1 0 V
2 0 V
2 0 V
1 0 V
1 0 V
2 0 V
2 0 V
1 0 V
1 0 V
2 0 V
2 0 V
1 0 V
1 0 V
1 0 V
1 0 V
1 0 V
2 0 V
1 0 V
1 0 V
2 0 V
2 0 V
1 0 V
1 0 V
2 0 V
2 0 V
1 0 V
1 0 V
2 0 V
1 0 V
2 0 V
1 0 V
1 0 V
2 0 V
2 0 V
1 0 V
1 0 V
2 0 V
2 0 V
1 0 V
1 0 V
2 0 V
2 0 V
1 0 V
1 0 V
1 0 V
2 0 V
2 0 V
1 0 V
1 0 V
2 0 V
2 0 V
1 0 V
1 0 V
2 0 V
2 0 V
1 0 V
1 0 V
1 0 V
1 0 V
1 0 V
2 0 V
1 0 V
1 0 V
2 0 V
2 0 V
1 0 V
1 0 V
2 0 V
2 0 V
1 0 V
1 0 V
2 0 V
1 0 V
1 0 V
1 0 V
1 0 V
1 0 V
2 0 V
2 0 V
1 0 V
1 0 V
2 0 V
2 0 V
1 0 V
1 0 V
2 0 V
2 0 V
1 0 V
1 0 V
1 0 V
2 0 V
2 0 V
1 0 V
1 0 V
stroke 1298 2215 M
2 0 V
2 0 V
1 0 V
1 0 V
2 0 V
2 0 V
1 0 V
1 0 V
2 0 V
1 0 V
2 0 V
1 0 V
1 0 V
2 0 V
2 0 V
1 0 V
1 0 V
2 0 V
2 0 V
1 0 V
1 0 V
2 0 V
1 0 V
1 0 V
1 0 V
1 0 V
1 0 V
2 0 V
2 0 V
1 0 V
1 0 V
2 0 V
2 0 V
1 0 V
1 0 V
2 0 V
2 0 V
1 0 V
1 0 V
1 0 V
1 0 V
1 0 V
2 0 V
1 0 V
1 0 V
2 0 V
2 0 V
1 0 V
1 0 V
2 0 V
2 0 V
1 0 V
1 0 V
2 0 V
1 0 V
2 0 V
1 0 V
1 0 V
4 0 V
1 0 V
11 0 V
1 0 V
6 0 V
1 0 V
1 0 V
2 0 V
2 0 V
6 0 V
1 0 V
7 0 V
1 0 V
6 0 V
1 0 V
2 0 V
2 0 V
5 0 V
1 0 V
1 0 V
6 0 V
1 0 V
7 0 V
1 0 V
6 0 V
1 0 V
6 0 V
1 0 V
1 0 V
6 0 V
1 0 V
6 0 V
1 0 V
7 0 V
1 0 V
6 0 V
1 0 V
5 0 V
1 0 V
4 0 V
1 0 V
2 0 V
2 0 V
2 0 V
2 0 V
1 0 V
4 0 V
1 0 V
1 0 V
4 0 V
1 0 V
6 0 V
1 0 V
7 0 V
1 0 V
6 0 V
1 0 V
6 0 V
1 0 V
1 0 V
6 0 V
1 0 V
6 0 V
1 0 V
7 0 V
1 0 V
6 0 V
1 0 V
1 0 V
5 0 V
2 0 V
2 0 V
1 0 V
7 0 V
1 0 V
6 0 V
1 0 V
6 0 V
2 0 V
2 0 V
1 0 V
1 0 V
6 0 V
1 0 V
11 0 V
1 0 V
4 0 V
1 0 V
1 0 V
1 0 V
2 0 V
2 0 V
1 0 V
1 0 V
2 0 V
2 0 V
1 0 V
1 0 V
2 0 V
2 0 V
1 0 V
1 0 V
1 0 V
1 0 V
1 0 V
2 0 V
1 0 V
1 0 V
2 0 V
2 0 V
1 0 V
1 0 V
2 0 V
2 0 V
1 0 V
1 0 V
2 0 V
1 0 V
1 0 V
1 0 V
1 0 V
1 0 V
2 0 V
2 0 V
1 0 V
1 0 V
2 0 V
2 0 V
1 0 V
1 0 V
2 0 V
2 0 V
1 0 V
1 0 V
1 0 V
2 0 V
2 0 V
1 0 V
1 0 V
2 0 V
2 0 V
1 0 V
1 0 V
2 0 V
2 0 V
1 0 V
1 0 V
1 0 V
1 0 V
1 0 V
2 0 V
1 0 V
1 0 V
2 0 V
2 0 V
1 0 V
1 0 V
2 0 V
2 0 V
1 0 V
1 0 V
2 0 V
1 0 V
1 0 V
1 0 V
1 0 V
1 0 V
2 0 V
2 0 V
1 0 V
1 0 V
2 0 V
2 0 V
1 0 V
1 0 V
2 0 V
2 0 V
1 0 V
1 0 V
1 0 V
2 0 V
2 0 V
1 0 V
1 0 V
2 0 V
2 0 V
1 0 V
1 0 V
2 0 V
2 0 V
1 0 V
stroke 1798 2215 M
1 0 V
2 0 V
1 0 V
2 0 V
1 0 V
1 0 V
2 0 V
2 0 V
1 0 V
1 0 V
2 0 V
2 0 V
1 0 V
1 0 V
2 0 V
2 0 V
1 0 V
1 0 V
1 0 V
2 0 V
2 0 V
1 0 V
1 0 V
2 0 V
2 0 V
1 0 V
1 0 V
2 0 V
2 0 V
1 0 V
1 0 V
1 0 V
1 0 V
1 0 V
2 0 V
1 0 V
1 0 V
2 0 V
2 0 V
1 0 V
1 0 V
2 0 V
2 0 V
1 0 V
1 0 V
2 0 V
1 0 V
1 0 V
1 0 V
1 0 V
1 0 V
2 0 V
2 0 V
1 0 V
1 0 V
2 0 V
2 0 V
1 0 V
1 0 V
2 0 V
2 0 V
1 0 V
1 0 V
1 0 V
2 0 V
2 0 V
1 0 V
1 0 V
2 0 V
2 0 V
1 0 V
1 0 V
2 0 V
2 0 V
1 0 V
1 0 V
1 0 V
1 0 V
1 0 V
2 0 V
1 0 V
1 0 V
2 0 V
2 0 V
1 0 V
1 0 V
2 0 V
2 0 V
1 0 V
1 0 V
2 0 V
1 0 V
1 0 V
1 0 V
1 0 V
1 0 V
2 0 V
2 0 V
1 0 V
1 0 V
2 0 V
2 0 V
1 0 V
1 0 V
2 0 V
2 0 V
1 0 V
1 0 V
1 0 V
1 0 V
1 0 V
2 0 V
1 0 V
1 0 V
2 0 V
2 0 V
1 0 V
1 0 V
2 0 V
2 0 V
1 0 V
1 0 V
2 0 V
1 0 V
2 0 V
1 0 V
1 0 V
2 0 V
2 0 V
1 0 V
1 0 V
2 0 V
2 0 V
1 0 V
1 0 V
2 0 V
2 0 V
1 0 V
1 0 V
1 0 V
2 0 V
2 0 V
1 0 V
1 0 V
2 0 V
2 0 V
1 0 V
1 0 V
2 0 V
2 0 V
1 0 V
1 0 V
1 0 V
1 0 V
1 0 V
2 0 V
1 0 V
1 0 V
4 0 V
1 0 V
7 0 V
1 0 V
5 0 V
1 0 V
1 0 V
5 0 V
2 0 V
2 0 V
1 0 V
6 0 V
1 0 V
7 0 V
1 0 V
5 0 V
1 0 V
2 0 V
2 0 V
2 0 V
2 0 V
1 0 V
1 0 V
1 0 V
1 0 V
1 0 V
1 0 V
2 0 V
1 0 V
1 0 V
1 0 V
2 0 V
1 0 V
1 0 V
1 0 V
7 0 V
1 0 V
6 0 V
1 0 V
1 0 V
5 0 V
1 0 V
1 0 V
6 0 V
1 0 V
6 0 V
1 0 V
7 0 V
1 0 V
6 0 V
1 0 V
8 0 V
1 0 V
1 0 V
8 0 V
1 0 V
7 0 V
1 0 V
6 0 V
1 0 V
6 0 V
1 0 V
7 0 V
1 0 V
5 0 V
1 0 V
1 0 V
7 0 V
1 0 V
6 0 V
1 0 V
2 0 V
1 0 V
1 0 V
1 0 V
1 0 V
1 0 V
1 0 V
1 0 V
1 0 V
1 0 V
2 0 V
1 0 V
1 0 V
2 0 V
2 0 V
2 0 V
2 0 V
1 0 V
6 0 V
1 0 V
stroke 2249 2215 M
6 0 V
1 0 V
6 0 V
1 0 V
2 0 V
1 0 V
1 0 V
5 0 V
1 0 V
1 0 V
6 0 V
1 0 V
6 0 V
1 0 V
4 0 V
1 0 V
1 0 V
1 0 V
2 0 V
2 0 V
1 0 V
1 0 V
2 0 V
2 0 V
1 0 V
1 0 V
2 0 V
2 0 V
1 0 V
1 0 V
1 0 V
2 0 V
2 0 V
1 0 V
1 0 V
2 0 V
2 0 V
1 0 V
1 0 V
2 0 V
2 0 V
1 0 V
1 0 V
2 0 V
1 0 V
2 0 V
1 0 V
1 0 V
2 0 V
2 0 V
1 0 V
1 0 V
2 0 V
2 0 V
1 0 V
1 0 V
2 0 V
2 0 V
1 0 V
1 0 V
1 0 V
2 0 V
2 0 V
1 0 V
1 0 V
2 0 V
2 0 V
1 0 V
1 0 V
2 0 V
2 0 V
1 0 V
1 0 V
1 0 V
1 0 V
1 0 V
2 0 V
1 0 V
1 0 V
2 0 V
2 0 V
1 0 V
1 0 V
2 0 V
2 0 V
1 0 V
1 0 V
2 0 V
1 0 V
1 0 V
1 0 V
1 0 V
1 0 V
2 0 V
2 0 V
1 0 V
1 0 V
2 0 V
2 0 V
1 0 V
1 0 V
2 0 V
2 0 V
1 0 V
1 0 V
1 0 V
2 0 V
2 0 V
1 0 V
1 0 V
2 0 V
2 0 V
1 0 V
1 0 V
2 0 V
2 0 V
1 0 V
1 0 V
1 0 V
1 0 V
1 0 V
2 0 V
1 0 V
1 0 V
2 0 V
2 0 V
1 0 V
1 0 V
2 0 V
2 0 V
1 0 V
1 0 V
2 0 V
1 0 V
1 0 V
1 0 V
1 0 V
1 0 V
2 0 V
2 0 V
1 0 V
1 0 V
2 0 V
2 0 V
1 0 V
1 0 V
2 0 V
2 0 V
1 0 V
1 0 V
1 0 V
2 0 V
2 0 V
1 0 V
1 0 V
2 0 V
2 0 V
1 0 V
1 0 V
2 0 V
2 0 V
1 0 V
1 0 V
2 0 V
1 0 V
2 0 V
1 0 V
1 0 V
2 0 V
2 0 V
1 0 V
1 0 V
2 0 V
2 0 V
1 0 V
1 0 V
2 0 V
2 0 V
1 0 V
1 0 V
1 0 V
2 0 V
2 0 V
1 0 V
1 0 V
2 0 V
2 0 V
1 0 V
1 0 V
2 0 V
2 0 V
1 0 V
1 0 V
1 0 V
1 0 V
1 0 V
2 0 V
1 0 V
1 0 V
2 0 V
2 0 V
1 0 V
1 0 V
2 0 V
2 0 V
1 0 V
1 0 V
2 0 V
1 0 V
1 0 V
1 0 V
1 0 V
1 0 V
2 0 V
2 0 V
1 0 V
1 0 V
2 0 V
2 0 V
1 0 V
1 0 V
2 0 V
2 0 V
1 0 V
1 0 V
1 0 V
2 0 V
2 0 V
1 0 V
1 0 V
2 0 V
2 0 V
1 0 V
1 0 V
2 0 V
2 0 V
1 0 V
1 0 V
1 0 V
1 0 V
1 0 V
2 0 V
1 0 V
1 0 V
2 0 V
2 0 V
1 0 V
1 0 V
2 0 V
stroke 2624 2215 M
2 0 V
1 0 V
1 0 V
2 0 V
1 0 V
1 0 V
1 0 V
1 0 V
1 0 V
2 0 V
2 0 V
1 0 V
1 0 V
2 0 V
2 0 V
1 0 V
1 0 V
2 0 V
2 0 V
1 0 V
1 0 V
1 0 V
2 0 V
2 0 V
1 0 V
1 0 V
4 0 V
1 0 V
7 0 V
1 0 V
5 0 V
1 0 V
1 0 V
5 0 V
2 0 V
2 0 V
1 0 V
6 0 V
1 0 V
7 0 V
1 0 V
5 0 V
1 0 V
2 0 V
2 0 V
2 0 V
1 0 V
1 0 V
1 0 V
1 0 V
6 0 V
1 0 V
6 0 V
1 0 V
7 0 V
1 0 V
6 0 V
1 0 V
1 0 V
6 0 V
1 0 V
6 0 V
1 0 V
6 0 V
1 0 V
7 0 V
1 0 V
6 0 V
1 0 V
8 0 V
1 0 V
1 0 V
8 0 V
1 0 V
7 0 V
1 0 V
6 0 V
1 0 V
6 0 V
1 0 V
7 0 V
1 0 V
6 0 V
1 0 V
7 0 V
1 0 V
6 0 V
1 0 V
6 0 V
1 0 V
1 0 V
6 0 V
1 0 V
2 0 V
2 0 V
2 0 V
2 0 V
1 0 V
6 0 V
1 0 V
6 0 V
1 0 V
6 0 V
1 0 V
2 0 V
1 0 V
2 0 V
4 0 V
1 0 V
1 0 V
6 0 V
1 0 V
6 0 V
1 0 V
4 0 V
1 0 V
1 0 V
1 0 V
2 0 V
2 0 V
1 0 V
1 0 V
2 0 V
2 0 V
1 0 V
1 0 V
2 0 V
2 0 V
1 0 V
1 0 V
1 0 V
2 0 V
2 0 V
1 0 V
1 0 V
2 0 V
2 0 V
1 0 V
1 0 V
2 0 V
2 0 V
1 0 V
1 0 V
1 0 V
1 0 V
1 0 V
2 0 V
1 0 V
1 0 V
2 0 V
2 0 V
1 0 V
1 0 V
2 0 V
2 0 V
1 0 V
1 0 V
2 0 V
1 0 V
1 0 V
1 0 V
1 0 V
1 0 V
2 0 V
2 0 V
1 0 V
1 0 V
2 0 V
2 0 V
1 0 V
1 0 V
2 0 V
2 0 V
1 0 V
1 0 V
1 0 V
2 0 V
2 0 V
1 0 V
1 0 V
2 0 V
2 0 V
1 0 V
1 0 V
2 0 V
2 0 V
1 0 V
1 0 V
1 0 V
1 0 V
1 0 V
2 0 V
1 0 V
1 0 V
2 0 V
2 0 V
1 0 V
1 0 V
2 0 V
2 0 V
1 0 V
1 0 V
2 0 V
1 0 V
1 0 V
1 0 V
1 0 V
1 0 V
2 0 V
2 0 V
1 0 V
1 0 V
2 0 V
2 0 V
1 0 V
1 0 V
2 0 V
2 0 V
1 0 V
1 0 V
1 0 V
2 0 V
2 0 V
1 0 V
1 0 V
2 0 V
2 0 V
1 0 V
1 0 V
2 0 V
2 0 V
1 0 V
1 0 V
2 0 V
1 0 V
2 0 V
1 0 V
1 0 V
2 0 V
2 0 V
1 0 V
1 0 V
2 0 V
2 0 V
1 0 V
1 0 V
2 0 V
2 0 V
1 0 V
stroke 3122 2215 M
1 0 V
1 0 V
2 0 V
2 0 V
1 0 V
1 0 V
2 0 V
2 0 V
1 0 V
1 0 V
2 0 V
2 0 V
1 0 V
1 0 V
1 0 V
1 0 V
1 0 V
2 0 V
1 0 V
1 0 V
2 0 V
2 0 V
1 0 V
1 0 V
2 0 V
2 0 V
1 0 V
1 0 V
2 0 V
1 0 V
1 0 V
1 0 V
1 0 V
1 0 V
2 0 V
2 0 V
1 0 V
1 0 V
2 0 V
2 0 V
1 0 V
1 0 V
2 0 V
2 0 V
1 0 V
1 0 V
1 0 V
2 0 V
2 0 V
1 0 V
1 0 V
2 0 V
2 0 V
1 0 V
1 0 V
2 0 V
2 0 V
1 0 V
1 0 V
1 0 V
1 0 V
1 0 V
2 0 V
1 0 V
1 0 V
2 0 V
2 0 V
1 0 V
1 0 V
2 0 V
2 0 V
1 0 V
1 0 V
2 0 V
1 0 V
1 0 V
1 0 V
1 0 V
1 0 V
2 0 V
2 0 V
1 0 V
1 0 V
2 0 V
2 0 V
1 0 V
1 0 V
2 0 V
2 0 V
1 0 V
1 0 V
1 0 V
1 0 V
1 0 V
2 0 V
1 0 V
1 0 V
2 0 V
2 0 V
1 0 V
1 0 V
2 0 V
2 0 V
1 0 V
1 0 V
2 0 V
1 0 V
2 0 V
1 0 V
1 0 V
2 0 V
2 0 V
1 0 V
1 0 V
2 0 V
2 0 V
1 0 V
1 0 V
2 0 V
2 0 V
1 0 V
1 0 V
1 0 V
2 0 V
2 0 V
1 0 V
1 0 V
4 0 V
1 0 V
7 0 V
1 0 V
5 0 V
1 0 V
1 0 V
5 0 V
2 0 V
2 0 V
1 0 V
6 0 V
1 0 V
7 0 V
1 0 V
6 0 V
2 0 V
2 0 V
2 0 V
1 0 V
2 0 V
1 0 V
6 0 V
1 0 V
6 0 V
1 0 V
7 0 V
1 0 V
6 0 V
1 0 V
1 0 V
6 0 V
1 0 V
6 0 V
1 0 V
6 0 V
1 0 V
7 0 V
1 0 V
6 0 V
1 0 V
8 0 V
1 0 V
1 0 V
8 0 V
1 0 V
7 0 V
1 0 V
6 0 V
1 0 V
6 0 V
1 0 V
1 0 V
6 0 V
1 0 V
6 0 V
1 0 V
7 0 V
1 0 V
6 0 V
1 0 V
6 0 V
1 0 V
1 0 V
6 0 V
1 0 V
2 0 V
2 0 V
2 0 V
2 0 V
1 0 V
6 0 V
1 0 V
6 0 V
1 0 V
6 0 V
1 0 V
1 0 V
1 0 V
1 0 V
2 0 V
4 0 V
1 0 V
1 0 V
6 0 V
1 0 V
6 0 V
1 0 V
1 0 V
3 0 V
1 0 V
1 0 V
1 0 V
2 0 V
2 0 V
1 0 V
1 0 V
2 0 V
2 0 V
1 0 V
1 0 V
2 0 V
1 0 V
1 0 V
1 0 V
1 0 V
1 0 V
2 0 V
2 0 V
1 0 V
1 0 V
2 0 V
2 0 V
1 0 V
1 0 V
2 0 V
2 0 V
1 0 V
1 0 V
1 0 V
2 0 V
2 0 V
stroke 3617 2215 M
1 0 V
1 0 V
2 0 V
2 0 V
1 0 V
1 0 V
2 0 V
2 0 V
1 0 V
1 0 V
2 0 V
1 0 V
2 0 V
1 0 V
1 0 V
2 0 V
2 0 V
1 0 V
1 0 V
2 0 V
2 0 V
1 0 V
1 0 V
2 0 V
1 0 V
1 0 V
1 0 V
1 0 V
1 0 V
2 0 V
2 0 V
1 0 V
1 0 V
2 0 V
2 0 V
1 0 V
1 0 V
2 0 V
2 0 V
1 0 V
1 0 V
1 0 V
1 0 V
1 0 V
2 0 V
1 0 V
1 0 V
2 0 V
2 0 V
1 0 V
1 0 V
2 0 V
2 0 V
1 0 V
1 0 V
2 0 V
1 0 V
1 0 V
1 0 V
1 0 V
1 0 V
2 0 V
2 0 V
1 0 V
1 0 V
2 0 V
2 0 V
1 0 V
1 0 V
2 0 V
2 0 V
1 0 V
1 0 V
1 0 V
2 0 V
2 0 V
1 0 V
1 0 V
2 0 V
2 0 V
1 0 V
1 0 V
2 0 V
2 0 V
1 0 V
1 0 V
1 0 V
1 0 V
1 0 V
2 0 V
1 0 V
1 0 V
2 0 V
2 0 V
1 0 V
1 0 V
2 0 V
2 0 V
1 0 V
1 0 V
2 0 V
1 0 V
1 0 V
1 0 V
1 0 V
1 0 V
2 0 V
2 0 V
1 0 V
1 0 V
2 0 V
2 0 V
1 0 V
1 0 V
2 0 V
2 0 V
1 0 V
1 0 V
1 0 V
2 0 V
2 0 V
1 0 V
1 0 V
2 0 V
2 0 V
1 0 V
1 0 V
2 0 V
2 0 V
1 0 V
1 0 V
2 0 V
1 0 V
2 0 V
1 0 V
1 0 V
2 0 V
2 0 V
1 0 V
1 0 V
2 0 V
2 0 V
1 0 V
1 0 V
2 0 V
2 0 V
1 0 V
1 0 V
1 0 V
2 0 V
2 0 V
1 0 V
1 0 V
2 0 V
2 0 V
1 0 V
1 0 V
2 0 V
2 0 V
1 0 V
1 0 V
1 0 V
1 0 V
1 0 V
2 0 V
1 0 V
1 0 V
2 0 V
2 0 V
1 0 V
1 0 V
2 0 V
2 0 V
1 0 V
1 0 V
2 0 V
1 0 V
1 0 V
1 0 V
1 0 V
1 0 V
2 0 V
2 0 V
1 0 V
1 0 V
2 0 V
2 0 V
1 0 V
1 0 V
2 0 V
2 0 V
1 0 V
1 0 V
1 0 V
2 0 V
2 0 V
1 0 V
1 0 V
2 0 V
2 0 V
1 0 V
1 0 V
2 0 V
2 0 V
1 0 V
1 0 V
1 0 V
1 0 V
1 0 V
2 0 V
1 0 V
1 0 V
2 0 V
2 0 V
1 0 V
1 0 V
2 0 V
2 0 V
1 0 V
1 0 V
2 0 V
1 0 V
1 0 V
1 0 V
1 0 V
1 0 V
2 0 V
2 0 V
1 0 V
1 0 V
1 0 V
3 0 V
1 0 V
7 0 V
1 0 V
6 0 V
1 0 V
5 0 V
2 0 V
2 0 V
1 0 V
6 0 V
1 0 V
1 0 V
6 0 V
1 0 V
6 0 V
2 0 V
2 0 V
stroke 3995 2215 M
1 0 V
1 0 V
1 0 V
2 0 V
1 0 V
6 0 V
1 0 V
6 0 V
1 0 V
7 0 V
1 0 V
6 0 V
1 0 V
1 0 V
6 0 V
1 0 V
6 0 V
1 0 V
6 0 V
1 0 V
1 0 V
6 0 V
1 0 V
6 0 V
1 0 V
9 0 V
1 0 V
8 0 V
1 0 V
7 0 V
1 0 V
6 0 V
1 0 V
7 0 V
1 0 V
6 0 V
1 0 V
6 0 V
1 0 V
7 0 V
1 0 V
6 0 V
1 0 V
7 0 V
1 0 V
6 0 V
1 0 V
2 0 V
2 0 V
2 0 V
2 0 V
1 0 V
6 0 V
1 0 V
6 0 V
1 0 V
6 0 V
1 0 V
1 0 V
2 0 V
2 0 V
4 0 V
1 0 V
1 0 V
6 0 V
1 0 V
6 0 V
1 0 V
1 0 V
3 0 V
1 0 V
1 0 V
1 0 V
2 0 V
2 0 V
1 0 V
1 0 V
2 0 V
2 0 V
1 0 V
1 0 V
2 0 V
1 0 V
2 0 V
1 0 V
1 0 V
2 0 V
2 0 V
1 0 V
1 0 V
2 0 V
2 0 V
1 0 V
1 0 V
2 0 V
2 0 V
1 0 V
1 0 V
1 0 V
2 0 V
2 0 V
1 0 V
1 0 V
2 0 V
2 0 V
1 0 V
1 0 V
2 0 V
2 0 V
1 0 V
1 0 V
1 0 V
1 0 V
1 0 V
2 0 V
1 0 V
1 0 V
2 0 V
2 0 V
1 0 V
1 0 V
2 0 V
2 0 V
1 0 V
1 0 V
2 0 V
1 0 V
1 0 V
1 0 V
1 0 V
1 0 V
2 0 V
2 0 V
1 0 V
1 0 V
2 0 V
2 0 V
1 0 V
1 0 V
2 0 V
2 0 V
1 0 V
1 0 V
1 0 V
2 0 V
2 0 V
1 0 V
1 0 V
2 0 V
2 0 V
1 0 V
1 0 V
2 0 V
2 0 V
1 0 V
1 0 V
1 0 V
1 0 V
1 0 V
2 0 V
1 0 V
1 0 V
2 0 V
2 0 V
1 0 V
1 0 V
2 0 V
2 0 V
1 0 V
1 0 V
2 0 V
1 0 V
1 0 V
1 0 V
1 0 V
1 0 V
2 0 V
2 0 V
1 0 V
1 0 V
2 0 V
2 0 V
1 0 V
1 0 V
2 0 V
2 0 V
1 0 V
1 0 V
1 0 V
2 0 V
2 0 V
1 0 V
1 0 V
2 0 V
2 0 V
1 0 V
1 0 V
2 0 V
2 0 V
1 0 V
1 0 V
2 0 V
1 0 V
2 0 V
1 0 V
1 0 V
2 0 V
2 0 V
1 0 V
1 0 V
2 0 V
2 0 V
1 0 V
1 0 V
2 0 V
2 0 V
1 0 V
1 0 V
1 0 V
2 0 V
2 0 V
1 0 V
1 0 V
2 0 V
2 0 V
1 0 V
1 0 V
2 0 V
2 0 V
1 0 V
1 0 V
1 0 V
1 0 V
1 0 V
2 0 V
1 0 V
1 0 V
2 0 V
2 0 V
1 0 V
1 0 V
2 0 V
2 0 V
1 0 V
1 0 V
2 0 V
1 0 V
1 0 V
1 0 V
stroke 4465 2215 M
1 0 V
1 0 V
2 0 V
2 0 V
1 0 V
1 0 V
2 0 V
2 0 V
1 0 V
1 0 V
2 0 V
2 0 V
1 0 V
1 0 V
1 0 V
2 0 V
2 0 V
1 0 V
1 0 V
2 0 V
2 0 V
1 0 V
1 0 V
2 0 V
2 0 V
1 0 V
1 0 V
1 0 V
1 0 V
1 0 V
2 0 V
1 0 V
1 0 V
2 0 V
2 0 V
1 0 V
1 0 V
2 0 V
2 0 V
1 0 V
1 0 V
2 0 V
1 0 V
1 0 V
1 0 V
1 0 V
1 0 V
2 0 V
2 0 V
1 0 V
1 0 V
2 0 V
2 0 V
1 0 V
1 0 V
2 0 V
2 0 V
1 0 V
1 0 V
1 0 V
2 0 V
2 0 V
1 0 V
1 0 V
2 0 V
2 0 V
1 0 V
1 0 V
2 0 V
2 0 V
1 0 V
1 0 V
2 0 V
1 0 V
2 0 V
1 0 V
1 0 V
2 0 V
2 0 V
1 0 V
1 0 V
1 0 V
3 0 V
1 0 V
1 0 V
11 0 V
1 0 V
5 0 V
1 0 V
1 0 V
2 0 V
2 0 V
6 0 V
1 0 V
1 0 V
6 0 V
1 0 V
6 0 V
1 0 V
2 0 V
2 0 V
5 0 V
1 0 V
1 0 V
7 0 V
1 0 V
6 0 V
1 0 V
6 0 V
1 0 V
7 0 V
1 0 V
1 0 V
5 0 V
1 0 V
7 0 V
1 0 V
6 0 V
1 0 V
6 0 V
1 0 V
1 0 V
4 0 V
1 0 V
4 0 V
1 0 V
2 0 V
2 0 V
% End plot #2
stroke
2.000 UL
LTb
LCb setrgbcolor
1.000 UL
LTB
LCb setrgbcolor
876 2999 N
876 384 L
3999 0 V
0 2615 V
-3999 0 V
Z stroke
1.000 UP
1.000 UL
LTb
LCb setrgbcolor
stroke
grestore
end
showpage
%%Trailer
%%DocumentFonts: roman Times-Roman
