%!PS-Adobe-2.0 EPSF-2.0
%%Title: gnuplot_image_squeeze.eps
%%Creator: gnuplot 5.2 patchlevel 2
%%CreationDate: Sat Jan  9 04:04:09 2021
%%DocumentFonts: (atend)
%%BoundingBox: 50 50 410 302
%%EndComments
%%BeginProlog
/gnudict 256 dict def
gnudict begin
%
% The following true/false flags may be edited by hand if desired.
% The unit line width and grayscale image gamma correction may also be changed.
%
/Color true def
/Blacktext true def
/Solid false def
/Dashlength 1 def
/Landscape false def
/Level1 false def
/Level3 false def
/Rounded false def
/ClipToBoundingBox false def
/SuppressPDFMark false def
/TransparentPatterns false def
/gnulinewidth 5.000 def
/userlinewidth gnulinewidth def
/Gamma 1.0 def
/BackgroundColor {-1.000 -1.000 -1.000} def
%
/vshift -46 def
/dl1 {
  10.0 Dashlength userlinewidth gnulinewidth div mul mul mul
  Rounded { currentlinewidth 0.75 mul sub dup 0 le { pop 0.01 } if } if
} def
/dl2 {
  10.0 Dashlength userlinewidth gnulinewidth div mul mul mul
  Rounded { currentlinewidth 0.75 mul add } if
} def
/hpt_ 31.5 def
/vpt_ 31.5 def
/hpt hpt_ def
/vpt vpt_ def
/doclip {
  ClipToBoundingBox {
    newpath 50 50 moveto 410 50 lineto 410 302 lineto 50 302 lineto closepath
    clip
  } if
} def
%
% Gnuplot Prolog Version 5.1 (Oct 2015)
%
%/SuppressPDFMark true def
%
/M {moveto} bind def
/L {lineto} bind def
/R {rmoveto} bind def
/V {rlineto} bind def
/N {newpath moveto} bind def
/Z {closepath} bind def
/C {setrgbcolor} bind def
/f {rlineto fill} bind def
/g {setgray} bind def
/Gshow {show} def   % May be redefined later in the file to support UTF-8
/vpt2 vpt 2 mul def
/hpt2 hpt 2 mul def
/Lshow {currentpoint stroke M 0 vshift R 
	Blacktext {gsave 0 setgray textshow grestore} {textshow} ifelse} def
/Rshow {currentpoint stroke M dup stringwidth pop neg vshift R
	Blacktext {gsave 0 setgray textshow grestore} {textshow} ifelse} def
/Cshow {currentpoint stroke M dup stringwidth pop -2 div vshift R 
	Blacktext {gsave 0 setgray textshow grestore} {textshow} ifelse} def
/UP {dup vpt_ mul /vpt exch def hpt_ mul /hpt exch def
  /hpt2 hpt 2 mul def /vpt2 vpt 2 mul def} def
/DL {Color {setrgbcolor Solid {pop []} if 0 setdash}
 {pop pop pop 0 setgray Solid {pop []} if 0 setdash} ifelse} def
/BL {stroke userlinewidth 2 mul setlinewidth
	Rounded {1 setlinejoin 1 setlinecap} if} def
/AL {stroke userlinewidth 2 div setlinewidth
	Rounded {1 setlinejoin 1 setlinecap} if} def
/UL {dup gnulinewidth mul /userlinewidth exch def
	dup 1 lt {pop 1} if 10 mul /udl exch def} def
/PL {stroke userlinewidth setlinewidth
	Rounded {1 setlinejoin 1 setlinecap} if} def
3.8 setmiterlimit
% Classic Line colors (version 5.0)
/LCw {1 1 1} def
/LCb {0 0 0} def
/LCa {0 0 0} def
/LC0 {1 0 0} def
/LC1 {0 1 0} def
/LC2 {0 0 1} def
/LC3 {1 0 1} def
/LC4 {0 1 1} def
/LC5 {1 1 0} def
/LC6 {0 0 0} def
/LC7 {1 0.3 0} def
/LC8 {0.5 0.5 0.5} def
% Default dash patterns (version 5.0)
/LTB {BL [] LCb DL} def
/LTw {PL [] 1 setgray} def
/LTb {PL [] LCb DL} def
/LTa {AL [1 udl mul 2 udl mul] 0 setdash LCa setrgbcolor} def
/LT0 {PL [] LC0 DL} def
/LT1 {PL [2 dl1 3 dl2] LC1 DL} def
/LT2 {PL [1 dl1 1.5 dl2] LC2 DL} def
/LT3 {PL [6 dl1 2 dl2 1 dl1 2 dl2] LC3 DL} def
/LT4 {PL [1 dl1 2 dl2 6 dl1 2 dl2 1 dl1 2 dl2] LC4 DL} def
/LT5 {PL [4 dl1 2 dl2] LC5 DL} def
/LT6 {PL [1.5 dl1 1.5 dl2 1.5 dl1 1.5 dl2 1.5 dl1 6 dl2] LC6 DL} def
/LT7 {PL [3 dl1 3 dl2 1 dl1 3 dl2] LC7 DL} def
/LT8 {PL [2 dl1 2 dl2 2 dl1 6 dl2] LC8 DL} def
/SL {[] 0 setdash} def
/Pnt {stroke [] 0 setdash gsave 1 setlinecap M 0 0 V stroke grestore} def
/Dia {stroke [] 0 setdash 2 copy vpt add M
  hpt neg vpt neg V hpt vpt neg V
  hpt vpt V hpt neg vpt V closepath stroke
  Pnt} def
/Pls {stroke [] 0 setdash vpt sub M 0 vpt2 V
  currentpoint stroke M
  hpt neg vpt neg R hpt2 0 V stroke
 } def
/Box {stroke [] 0 setdash 2 copy exch hpt sub exch vpt add M
  0 vpt2 neg V hpt2 0 V 0 vpt2 V
  hpt2 neg 0 V closepath stroke
  Pnt} def
/Crs {stroke [] 0 setdash exch hpt sub exch vpt add M
  hpt2 vpt2 neg V currentpoint stroke M
  hpt2 neg 0 R hpt2 vpt2 V stroke} def
/TriU {stroke [] 0 setdash 2 copy vpt 1.12 mul add M
  hpt neg vpt -1.62 mul V
  hpt 2 mul 0 V
  hpt neg vpt 1.62 mul V closepath stroke
  Pnt} def
/Star {2 copy Pls Crs} def
/BoxF {stroke [] 0 setdash exch hpt sub exch vpt add M
  0 vpt2 neg V hpt2 0 V 0 vpt2 V
  hpt2 neg 0 V closepath fill} def
/TriUF {stroke [] 0 setdash vpt 1.12 mul add M
  hpt neg vpt -1.62 mul V
  hpt 2 mul 0 V
  hpt neg vpt 1.62 mul V closepath fill} def
/TriD {stroke [] 0 setdash 2 copy vpt 1.12 mul sub M
  hpt neg vpt 1.62 mul V
  hpt 2 mul 0 V
  hpt neg vpt -1.62 mul V closepath stroke
  Pnt} def
/TriDF {stroke [] 0 setdash vpt 1.12 mul sub M
  hpt neg vpt 1.62 mul V
  hpt 2 mul 0 V
  hpt neg vpt -1.62 mul V closepath fill} def
/DiaF {stroke [] 0 setdash vpt add M
  hpt neg vpt neg V hpt vpt neg V
  hpt vpt V hpt neg vpt V closepath fill} def
/Pent {stroke [] 0 setdash 2 copy gsave
  translate 0 hpt M 4 {72 rotate 0 hpt L} repeat
  closepath stroke grestore Pnt} def
/PentF {stroke [] 0 setdash gsave
  translate 0 hpt M 4 {72 rotate 0 hpt L} repeat
  closepath fill grestore} def
/Circle {stroke [] 0 setdash 2 copy
  hpt 0 360 arc stroke Pnt} def
/CircleF {stroke [] 0 setdash hpt 0 360 arc fill} def
/C0 {BL [] 0 setdash 2 copy moveto vpt 90 450 arc} bind def
/C1 {BL [] 0 setdash 2 copy moveto
	2 copy vpt 0 90 arc closepath fill
	vpt 0 360 arc closepath} bind def
/C2 {BL [] 0 setdash 2 copy moveto
	2 copy vpt 90 180 arc closepath fill
	vpt 0 360 arc closepath} bind def
/C3 {BL [] 0 setdash 2 copy moveto
	2 copy vpt 0 180 arc closepath fill
	vpt 0 360 arc closepath} bind def
/C4 {BL [] 0 setdash 2 copy moveto
	2 copy vpt 180 270 arc closepath fill
	vpt 0 360 arc closepath} bind def
/C5 {BL [] 0 setdash 2 copy moveto
	2 copy vpt 0 90 arc
	2 copy moveto
	2 copy vpt 180 270 arc closepath fill
	vpt 0 360 arc} bind def
/C6 {BL [] 0 setdash 2 copy moveto
	2 copy vpt 90 270 arc closepath fill
	vpt 0 360 arc closepath} bind def
/C7 {BL [] 0 setdash 2 copy moveto
	2 copy vpt 0 270 arc closepath fill
	vpt 0 360 arc closepath} bind def
/C8 {BL [] 0 setdash 2 copy moveto
	2 copy vpt 270 360 arc closepath fill
	vpt 0 360 arc closepath} bind def
/C9 {BL [] 0 setdash 2 copy moveto
	2 copy vpt 270 450 arc closepath fill
	vpt 0 360 arc closepath} bind def
/C10 {BL [] 0 setdash 2 copy 2 copy moveto vpt 270 360 arc closepath fill
	2 copy moveto
	2 copy vpt 90 180 arc closepath fill
	vpt 0 360 arc closepath} bind def
/C11 {BL [] 0 setdash 2 copy moveto
	2 copy vpt 0 180 arc closepath fill
	2 copy moveto
	2 copy vpt 270 360 arc closepath fill
	vpt 0 360 arc closepath} bind def
/C12 {BL [] 0 setdash 2 copy moveto
	2 copy vpt 180 360 arc closepath fill
	vpt 0 360 arc closepath} bind def
/C13 {BL [] 0 setdash 2 copy moveto
	2 copy vpt 0 90 arc closepath fill
	2 copy moveto
	2 copy vpt 180 360 arc closepath fill
	vpt 0 360 arc closepath} bind def
/C14 {BL [] 0 setdash 2 copy moveto
	2 copy vpt 90 360 arc closepath fill
	vpt 0 360 arc} bind def
/C15 {BL [] 0 setdash 2 copy vpt 0 360 arc closepath fill
	vpt 0 360 arc closepath} bind def
/Rec {newpath 4 2 roll moveto 1 index 0 rlineto 0 exch rlineto
	neg 0 rlineto closepath} bind def
/Square {dup Rec} bind def
/Bsquare {vpt sub exch vpt sub exch vpt2 Square} bind def
/S0 {BL [] 0 setdash 2 copy moveto 0 vpt rlineto BL Bsquare} bind def
/S1 {BL [] 0 setdash 2 copy vpt Square fill Bsquare} bind def
/S2 {BL [] 0 setdash 2 copy exch vpt sub exch vpt Square fill Bsquare} bind def
/S3 {BL [] 0 setdash 2 copy exch vpt sub exch vpt2 vpt Rec fill Bsquare} bind def
/S4 {BL [] 0 setdash 2 copy exch vpt sub exch vpt sub vpt Square fill Bsquare} bind def
/S5 {BL [] 0 setdash 2 copy 2 copy vpt Square fill
	exch vpt sub exch vpt sub vpt Square fill Bsquare} bind def
/S6 {BL [] 0 setdash 2 copy exch vpt sub exch vpt sub vpt vpt2 Rec fill Bsquare} bind def
/S7 {BL [] 0 setdash 2 copy exch vpt sub exch vpt sub vpt vpt2 Rec fill
	2 copy vpt Square fill Bsquare} bind def
/S8 {BL [] 0 setdash 2 copy vpt sub vpt Square fill Bsquare} bind def
/S9 {BL [] 0 setdash 2 copy vpt sub vpt vpt2 Rec fill Bsquare} bind def
/S10 {BL [] 0 setdash 2 copy vpt sub vpt Square fill 2 copy exch vpt sub exch vpt Square fill
	Bsquare} bind def
/S11 {BL [] 0 setdash 2 copy vpt sub vpt Square fill 2 copy exch vpt sub exch vpt2 vpt Rec fill
	Bsquare} bind def
/S12 {BL [] 0 setdash 2 copy exch vpt sub exch vpt sub vpt2 vpt Rec fill Bsquare} bind def
/S13 {BL [] 0 setdash 2 copy exch vpt sub exch vpt sub vpt2 vpt Rec fill
	2 copy vpt Square fill Bsquare} bind def
/S14 {BL [] 0 setdash 2 copy exch vpt sub exch vpt sub vpt2 vpt Rec fill
	2 copy exch vpt sub exch vpt Square fill Bsquare} bind def
/S15 {BL [] 0 setdash 2 copy Bsquare fill Bsquare} bind def
/D0 {gsave translate 45 rotate 0 0 S0 stroke grestore} bind def
/D1 {gsave translate 45 rotate 0 0 S1 stroke grestore} bind def
/D2 {gsave translate 45 rotate 0 0 S2 stroke grestore} bind def
/D3 {gsave translate 45 rotate 0 0 S3 stroke grestore} bind def
/D4 {gsave translate 45 rotate 0 0 S4 stroke grestore} bind def
/D5 {gsave translate 45 rotate 0 0 S5 stroke grestore} bind def
/D6 {gsave translate 45 rotate 0 0 S6 stroke grestore} bind def
/D7 {gsave translate 45 rotate 0 0 S7 stroke grestore} bind def
/D8 {gsave translate 45 rotate 0 0 S8 stroke grestore} bind def
/D9 {gsave translate 45 rotate 0 0 S9 stroke grestore} bind def
/D10 {gsave translate 45 rotate 0 0 S10 stroke grestore} bind def
/D11 {gsave translate 45 rotate 0 0 S11 stroke grestore} bind def
/D12 {gsave translate 45 rotate 0 0 S12 stroke grestore} bind def
/D13 {gsave translate 45 rotate 0 0 S13 stroke grestore} bind def
/D14 {gsave translate 45 rotate 0 0 S14 stroke grestore} bind def
/D15 {gsave translate 45 rotate 0 0 S15 stroke grestore} bind def
/DiaE {stroke [] 0 setdash vpt add M
  hpt neg vpt neg V hpt vpt neg V
  hpt vpt V hpt neg vpt V closepath stroke} def
/BoxE {stroke [] 0 setdash exch hpt sub exch vpt add M
  0 vpt2 neg V hpt2 0 V 0 vpt2 V
  hpt2 neg 0 V closepath stroke} def
/TriUE {stroke [] 0 setdash vpt 1.12 mul add M
  hpt neg vpt -1.62 mul V
  hpt 2 mul 0 V
  hpt neg vpt 1.62 mul V closepath stroke} def
/TriDE {stroke [] 0 setdash vpt 1.12 mul sub M
  hpt neg vpt 1.62 mul V
  hpt 2 mul 0 V
  hpt neg vpt -1.62 mul V closepath stroke} def
/PentE {stroke [] 0 setdash gsave
  translate 0 hpt M 4 {72 rotate 0 hpt L} repeat
  closepath stroke grestore} def
/CircE {stroke [] 0 setdash 
  hpt 0 360 arc stroke} def
/Opaque {gsave closepath 1 setgray fill grestore 0 setgray closepath} def
/DiaW {stroke [] 0 setdash vpt add M
  hpt neg vpt neg V hpt vpt neg V
  hpt vpt V hpt neg vpt V Opaque stroke} def
/BoxW {stroke [] 0 setdash exch hpt sub exch vpt add M
  0 vpt2 neg V hpt2 0 V 0 vpt2 V
  hpt2 neg 0 V Opaque stroke} def
/TriUW {stroke [] 0 setdash vpt 1.12 mul add M
  hpt neg vpt -1.62 mul V
  hpt 2 mul 0 V
  hpt neg vpt 1.62 mul V Opaque stroke} def
/TriDW {stroke [] 0 setdash vpt 1.12 mul sub M
  hpt neg vpt 1.62 mul V
  hpt 2 mul 0 V
  hpt neg vpt -1.62 mul V Opaque stroke} def
/PentW {stroke [] 0 setdash gsave
  translate 0 hpt M 4 {72 rotate 0 hpt L} repeat
  Opaque stroke grestore} def
/CircW {stroke [] 0 setdash 
  hpt 0 360 arc Opaque stroke} def
/BoxFill {gsave Rec 1 setgray fill grestore} def
/Density {
  /Fillden exch def
  currentrgbcolor
  /ColB exch def /ColG exch def /ColR exch def
  /ColR ColR Fillden mul Fillden sub 1 add def
  /ColG ColG Fillden mul Fillden sub 1 add def
  /ColB ColB Fillden mul Fillden sub 1 add def
  ColR ColG ColB setrgbcolor} def
/BoxColFill {gsave Rec PolyFill} def
/PolyFill {gsave Density fill grestore grestore} def
/h {rlineto rlineto rlineto gsave closepath fill grestore} bind def
%
% PostScript Level 1 Pattern Fill routine for rectangles
% Usage: x y w h s a XX PatternFill
%	x,y = lower left corner of box to be filled
%	w,h = width and height of box
%	  a = angle in degrees between lines and x-axis
%	 XX = 0/1 for no/yes cross-hatch
%
/PatternFill {gsave /PFa [ 9 2 roll ] def
  PFa 0 get PFa 2 get 2 div add PFa 1 get PFa 3 get 2 div add translate
  PFa 2 get -2 div PFa 3 get -2 div PFa 2 get PFa 3 get Rec
  TransparentPatterns {} {gsave 1 setgray fill grestore} ifelse
  clip
  currentlinewidth 0.5 mul setlinewidth
  /PFs PFa 2 get dup mul PFa 3 get dup mul add sqrt def
  0 0 M PFa 5 get rotate PFs -2 div dup translate
  0 1 PFs PFa 4 get div 1 add floor cvi
	{PFa 4 get mul 0 M 0 PFs V} for
  0 PFa 6 get ne {
	0 1 PFs PFa 4 get div 1 add floor cvi
	{PFa 4 get mul 0 2 1 roll M PFs 0 V} for
 } if
  stroke grestore} def
%
/languagelevel where
 {pop languagelevel} {1} ifelse
dup 2 lt
	{/InterpretLevel1 true def
	 /InterpretLevel3 false def}
	{/InterpretLevel1 Level1 def
	 2 gt
	    {/InterpretLevel3 Level3 def}
	    {/InterpretLevel3 false def}
	 ifelse }
 ifelse
%
% PostScript level 2 pattern fill definitions
%
/Level2PatternFill {
/Tile8x8 {/PaintType 2 /PatternType 1 /TilingType 1 /BBox [0 0 8 8] /XStep 8 /YStep 8}
	bind def
/KeepColor {currentrgbcolor [/Pattern /DeviceRGB] setcolorspace} bind def
<< Tile8x8
 /PaintProc {0.5 setlinewidth pop 0 0 M 8 8 L 0 8 M 8 0 L stroke} 
>> matrix makepattern
/Pat1 exch def
<< Tile8x8
 /PaintProc {0.5 setlinewidth pop 0 0 M 8 8 L 0 8 M 8 0 L stroke
	0 4 M 4 8 L 8 4 L 4 0 L 0 4 L stroke}
>> matrix makepattern
/Pat2 exch def
<< Tile8x8
 /PaintProc {0.5 setlinewidth pop 0 0 M 0 8 L
	8 8 L 8 0 L 0 0 L fill}
>> matrix makepattern
/Pat3 exch def
<< Tile8x8
 /PaintProc {0.5 setlinewidth pop -4 8 M 8 -4 L
	0 12 M 12 0 L stroke}
>> matrix makepattern
/Pat4 exch def
<< Tile8x8
 /PaintProc {0.5 setlinewidth pop -4 0 M 8 12 L
	0 -4 M 12 8 L stroke}
>> matrix makepattern
/Pat5 exch def
<< Tile8x8
 /PaintProc {0.5 setlinewidth pop -2 8 M 4 -4 L
	0 12 M 8 -4 L 4 12 M 10 0 L stroke}
>> matrix makepattern
/Pat6 exch def
<< Tile8x8
 /PaintProc {0.5 setlinewidth pop -2 0 M 4 12 L
	0 -4 M 8 12 L 4 -4 M 10 8 L stroke}
>> matrix makepattern
/Pat7 exch def
<< Tile8x8
 /PaintProc {0.5 setlinewidth pop 8 -2 M -4 4 L
	12 0 M -4 8 L 12 4 M 0 10 L stroke}
>> matrix makepattern
/Pat8 exch def
<< Tile8x8
 /PaintProc {0.5 setlinewidth pop 0 -2 M 12 4 L
	-4 0 M 12 8 L -4 4 M 8 10 L stroke}
>> matrix makepattern
/Pat9 exch def
/Pattern1 {PatternBgnd KeepColor Pat1 setpattern} bind def
/Pattern2 {PatternBgnd KeepColor Pat2 setpattern} bind def
/Pattern3 {PatternBgnd KeepColor Pat3 setpattern} bind def
/Pattern4 {PatternBgnd KeepColor Landscape {Pat5} {Pat4} ifelse setpattern} bind def
/Pattern5 {PatternBgnd KeepColor Landscape {Pat4} {Pat5} ifelse setpattern} bind def
/Pattern6 {PatternBgnd KeepColor Landscape {Pat9} {Pat6} ifelse setpattern} bind def
/Pattern7 {PatternBgnd KeepColor Landscape {Pat8} {Pat7} ifelse setpattern} bind def
} def
%
%
%End of PostScript Level 2 code
%
/PatternBgnd {
  TransparentPatterns {} {gsave 1 setgray fill grestore} ifelse
} def
%
% Substitute for Level 2 pattern fill codes with
% grayscale if Level 2 support is not selected.
%
/Level1PatternFill {
/Pattern1 {0.250 Density} bind def
/Pattern2 {0.500 Density} bind def
/Pattern3 {0.750 Density} bind def
/Pattern4 {0.125 Density} bind def
/Pattern5 {0.375 Density} bind def
/Pattern6 {0.625 Density} bind def
/Pattern7 {0.875 Density} bind def
} def
%
% Now test for support of Level 2 code
%
Level1 {Level1PatternFill} {Level2PatternFill} ifelse
%
/Symbol-Oblique /Symbol findfont [1 0 .167 1 0 0] makefont
dup length dict begin {1 index /FID eq {pop pop} {def} ifelse} forall
currentdict end definefont pop
%
/Metrics {ExtendTextBox Gswidth} def
/Lwidth {currentpoint stroke M 0 vshift R Metrics} def
/Rwidth {currentpoint stroke M dup stringwidth pop neg vshift R Metrics} def
/Cwidth {currentpoint stroke M dup stringwidth pop -2 div vshift R Metrics} def
/GLwidth {currentpoint stroke M 0 vshift R {ExtendTextBox} forall} def
/GRwidth {currentpoint stroke M dup Gwidth vshift R {ExtendTextBox} forall} def
/GCwidth {currentpoint stroke M dup Gwidth 2 div vshift R {ExtendTextBox} forall} def
/GLwidth2 {0 Gwidth AddGlyphWidth} def
/GRwidth2 {Gwidth -1 mul 0 AddGlyphWidth} def
/GCwidth2 {Gwidth 2 div dup -1 mul AddGlyphWidth} def
/AddGlyphWidth { dup TBx2 gt {userdict /TBx2 3 -1 roll put} {pop} ifelse
                 dup TBx1 lt {userdict /TBx1 3 -1 roll put} {pop} ifelse } def
/MFshow {
   { dup 5 get 3 ge
     { 5 get 3 eq {gsave} {grestore} ifelse }
     {dup dup 0 get findfont exch 1 get scalefont setfont
     [ currentpoint ] exch dup 2 get 0 exch R dup 5 get 2 ne {dup dup 6
     get exch 4 get {textshow} {Metrics pop 0 R} ifelse }if dup 5 get 0 eq
     {dup 3 get {2 get neg 0 exch R pop} {pop aload pop M} ifelse} {dup 5
     get 1 eq {dup 2 get exch dup 3 get exch 6 get Gswidth pop -2 div
     dup 0 R} {dup 6 get Gswidth pop -2 div 0 R 6 get
     textshow 2 index {aload pop M neg 3 -1 roll neg R pop pop} {pop pop pop
     pop aload pop M} ifelse }ifelse }ifelse }
     ifelse }
   forall} def
/Gswidth {dup type /stringtype eq {stringwidth} {pop (n) stringwidth} ifelse} def
/MFwidth {0 exch { dup 5 get 3 ge { 5 get 3 eq { 0 } { pop } ifelse }
 {dup 3 get{dup dup 0 get findfont exch 1 get scalefont setfont
     6 get Gswidth pop add} {pop} ifelse} ifelse} forall} def
/MLshow { currentpoint stroke M
  0 exch R
  Blacktext {gsave 0 setgray MFshow grestore} {MFshow} ifelse } bind def
/MRshow { currentpoint stroke M
  exch dup MFwidth neg 3 -1 roll R
  Blacktext {gsave 0 setgray MFshow grestore} {MFshow} ifelse } bind def
/MCshow { currentpoint stroke M
  exch dup MFwidth -2 div 3 -1 roll R
  Blacktext {gsave 0 setgray MFshow grestore} {MFshow} ifelse } bind def
/XYsave    { [( ) 1 2 true false 3 ()] } bind def
/XYrestore { [( ) 1 2 true false 4 ()] } bind def
Level1 SuppressPDFMark or 
{} {
/SDict 10 dict def
systemdict /pdfmark known not {
  userdict /pdfmark systemdict /cleartomark get put
} if
SDict begin [
  /Title (gnuplot_image_squeeze.eps)
  /Subject (gnuplot plot)
  /Creator (gnuplot 5.2 patchlevel 2)
%  /Producer (gnuplot)
%  /Keywords ()
  /CreationDate (Sat Jan  9 04:04:09 2021)
  /DOCINFO pdfmark
end
} ifelse
%
% Support for boxed text - Ethan A Merritt Sep 2016
%
/InitTextBox { userdict /TBy2 3 -1 roll put userdict /TBx2 3 -1 roll put
           userdict /TBy1 3 -1 roll put userdict /TBx1 3 -1 roll put
	   /Boxing true def } def
/ExtendTextBox { dup type /stringtype eq
    { Boxing { gsave dup false charpath pathbbox
      dup TBy2 gt {userdict /TBy2 3 -1 roll put} {pop} ifelse
      dup TBx2 gt {userdict /TBx2 3 -1 roll put} {pop} ifelse
      dup TBy1 lt {userdict /TBy1 3 -1 roll put} {pop} ifelse
      dup TBx1 lt {userdict /TBx1 3 -1 roll put} {pop} ifelse
      grestore } if }
    {} ifelse} def
/PopTextBox { newpath TBx1 TBxmargin sub TBy1 TBymargin sub M
               TBx1 TBxmargin sub TBy2 TBymargin add L
	       TBx2 TBxmargin add TBy2 TBymargin add L
	       TBx2 TBxmargin add TBy1 TBymargin sub L closepath } def
/DrawTextBox { PopTextBox stroke /Boxing false def} def
/FillTextBox { gsave PopTextBox fill grestore /Boxing false def} def
0 0 0 0 InitTextBox
/TBxmargin 20 def
/TBymargin 20 def
/Boxing false def
/textshow { ExtendTextBox Gshow } def
%
end
%%EndProlog
%%Page: 1 1
gnudict begin
gsave
doclip
50 50 translate
0.050 0.050 scale
0 setgray
newpath
(Helvetica) findfont 140 scalefont setfont
BackgroundColor 0 lt 3 1 roll 0 lt exch 0 lt or or not {BackgroundColor C 1.000 0 0 7200.00 5040.00 BoxColFill} if
1.000 UL
LTb
LCb setrgbcolor
2095 448 M
63 0 V
3548 0 R
-63 0 V
stroke
2011 448 M
[ [(Helvetica) 140.0 0.0 true true 0 (-0.004)]
] -46.7 MRshow
1.000 UL
LTb
LCb setrgbcolor
2095 899 M
63 0 V
3548 0 R
-63 0 V
stroke
2011 899 M
[ [(Helvetica) 140.0 0.0 true true 0 (-0.003)]
] -46.7 MRshow
1.000 UL
LTb
LCb setrgbcolor
2095 1351 M
63 0 V
3548 0 R
-63 0 V
stroke
2011 1351 M
[ [(Helvetica) 140.0 0.0 true true 0 (-0.002)]
] -46.7 MRshow
1.000 UL
LTb
LCb setrgbcolor
2095 1802 M
63 0 V
3548 0 R
-63 0 V
stroke
2011 1802 M
[ [(Helvetica) 140.0 0.0 true true 0 (-0.001)]
] -46.7 MRshow
1.000 UL
LTb
LCb setrgbcolor
2095 2254 M
63 0 V
3548 0 R
-63 0 V
stroke
2011 2254 M
[ [(Helvetica) 140.0 0.0 true true 0 ( 0)]
] -46.7 MRshow
1.000 UL
LTb
LCb setrgbcolor
2095 2705 M
63 0 V
3548 0 R
-63 0 V
stroke
2011 2705 M
[ [(Helvetica) 140.0 0.0 true true 0 ( 0.001)]
] -46.7 MRshow
1.000 UL
LTb
LCb setrgbcolor
2095 3156 M
63 0 V
3548 0 R
-63 0 V
stroke
2011 3156 M
[ [(Helvetica) 140.0 0.0 true true 0 ( 0.002)]
] -46.7 MRshow
1.000 UL
LTb
LCb setrgbcolor
2095 3608 M
63 0 V
3548 0 R
-63 0 V
stroke
2011 3608 M
[ [(Helvetica) 140.0 0.0 true true 0 ( 0.003)]
] -46.7 MRshow
1.000 UL
LTb
LCb setrgbcolor
2095 4059 M
63 0 V
3548 0 R
-63 0 V
stroke
2011 4059 M
[ [(Helvetica) 140.0 0.0 true true 0 ( 0.004)]
] -46.7 MRshow
1.000 UL
LTb
LCb setrgbcolor
2095 448 M
0 63 V
0 3548 R
0 -63 V
stroke
2095 308 M
[ [(Helvetica) 140.0 0.0 true true 0 (-0.004)]
] -46.7 MCshow
1.000 UL
LTb
LCb setrgbcolor
2546 448 M
0 63 V
0 3548 R
0 -63 V
stroke
2546 308 M
[ [(Helvetica) 140.0 0.0 true true 0 (-0.003)]
] -46.7 MCshow
1.000 UL
LTb
LCb setrgbcolor
2998 448 M
0 63 V
0 3548 R
0 -63 V
stroke
2998 308 M
[ [(Helvetica) 140.0 0.0 true true 0 (-0.002)]
] -46.7 MCshow
1.000 UL
LTb
LCb setrgbcolor
3449 448 M
0 63 V
0 3548 R
0 -63 V
stroke
3449 308 M
[ [(Helvetica) 140.0 0.0 true true 0 (-0.001)]
] -46.7 MCshow
1.000 UL
LTb
LCb setrgbcolor
3901 448 M
0 63 V
0 3548 R
0 -63 V
stroke
3901 308 M
[ [(Helvetica) 140.0 0.0 true true 0 ( 0)]
] -46.7 MCshow
1.000 UL
LTb
LCb setrgbcolor
4352 448 M
0 63 V
0 3548 R
0 -63 V
stroke
4352 308 M
[ [(Helvetica) 140.0 0.0 true true 0 ( 0.001)]
] -46.7 MCshow
1.000 UL
LTb
LCb setrgbcolor
4803 448 M
0 63 V
0 3548 R
0 -63 V
stroke
4803 308 M
[ [(Helvetica) 140.0 0.0 true true 0 ( 0.002)]
] -46.7 MCshow
1.000 UL
LTb
LCb setrgbcolor
5255 448 M
0 63 V
0 3548 R
0 -63 V
stroke
5255 308 M
[ [(Helvetica) 140.0 0.0 true true 0 ( 0.003)]
] -46.7 MCshow
1.000 UL
LTb
LCb setrgbcolor
5706 448 M
0 63 V
0 3548 R
0 -63 V
stroke
5706 308 M
[ [(Helvetica) 140.0 0.0 true true 0 ( 0.004)]
] -46.7 MCshow
1.000 UL
LTb
LCb setrgbcolor
1.000 UL
LTB
LCb setrgbcolor
2095 4059 N
0 -3611 V
3611 0 V
0 3611 V
-3611 0 V
Z stroke
1.000 UP
1.000 UL
LTb
LCb setrgbcolor
LCb setrgbcolor
1367 2253 M
currentpoint gsave translate -270 rotate 0 0 moveto
[ [(Helvetica) 140.0 0.0 true true 0 (Z [cm])]
] -46.7 MCshow
grestore
LTb
LCb setrgbcolor
3900 98 M
[ [(Helvetica) 140.0 0.0 true true 0 (Y [cm])]
] -46.7 MCshow
LTb
LCb setrgbcolor
3900 4829 M
[ [(roman) 140.0 0.0 true true 0 (SECOND ORDER ACHROMAT USING EXB 'EBMULT'. )]
] -46.7 MCshow
3900 4689 M
[ [(roman) 140.0 0.0 true true 0 ( transverse  phase space at image focal plane.  )]
] -46.7 MCshow
3900 4549 M
[ [(roman) 140.0 0.0 true true 0 ( Squeeze stems from E increase/B decrease \(E=0 at start\))]
] -46.7 MCshow
3900 4409 M
[ [(roman) 140.0 0.0 true true 0 ( This simulation: a single zgoubi.dat + short gnuplot: )]
] -46.7 MCshow
3900 4269 M
[ [(roman) 140.0 0.0 true true 0 ( rzg -in microProbe)]
[(roman) 112.0 -42.0 true true 0 (s)]
[(roman) 140.0 0.0 true true 0 (queeze.res)]
] -32.7 MCshow
% Begin plot #1
0.400 UP
1.000 UL
LTb
0.90 0.62 0.00 C LCb setrgbcolor
2767 581 M
[ [(Helvetica) 140.0 0.0 true true 0 (pass=20)]
] -46.7 MRshow
0.400 UP
1.000 UL
LTb
0.90 0.62 0.00 C 3827 2337 Box
4064 2160 Box
3882 2273 Box
3928 2234 Box
3885 2239 Box
3976 2351 Box
3799 2359 Box
4041 2434 Box
3855 2247 Box
3861 2167 Box
3901 2235 Box
3945 2267 Box
3921 2195 Box
3840 2074 Box
3826 2452 Box
3918 2213 Box
3923 2417 Box
3966 2328 Box
3845 2165 Box
3911 2194 Box
3880 2102 Box
3899 2226 Box
3879 2280 Box
3597 2095 Box
3512 2500 Box
3897 2273 Box
3583 2330 Box
4118 2394 Box
3461 2367 Box
3792 2342 Box
3977 2242 Box
3812 2458 Box
3826 2123 Box
3894 2266 Box
3939 2262 Box
3845 2357 Box
3904 2229 Box
3892 2285 Box
3702 2423 Box
3846 2197 Box
3999 2408 Box
4150 2331 Box
3991 2191 Box
3926 2387 Box
3846 2350 Box
3933 2249 Box
3996 2482 Box
3894 2246 Box
3929 2226 Box
4004 2235 Box
3729 2373 Box
3922 2375 Box
3913 2247 Box
3667 2164 Box
3953 2244 Box
3862 2237 Box
3885 2258 Box
3855 2255 Box
3997 2204 Box
4077 2407 Box
3864 2326 Box
3696 2284 Box
4092 2213 Box
3896 2251 Box
3885 2242 Box
3909 2282 Box
3894 2320 Box
3911 2252 Box
3964 1970 Box
3814 2442 Box
3897 2262 Box
3767 2190 Box
3787 2015 Box
3864 2234 Box
3894 2269 Box
3759 2042 Box
3995 2319 Box
4082 2399 Box
3879 2242 Box
3830 2136 Box
4057 2223 Box
3866 2259 Box
4229 2515 Box
3851 2301 Box
3998 2034 Box
3887 2240 Box
3911 2230 Box
3894 2433 Box
3970 2148 Box
3927 2008 Box
4006 2279 Box
3810 2273 Box
3944 2188 Box
3913 2226 Box
3695 1999 Box
3875 2230 Box
3890 2365 Box
3885 2255 Box
3923 2266 Box
3956 2282 Box
3613 2211 Box
4037 2344 Box
3958 2194 Box
3903 2252 Box
4057 2391 Box
3883 2229 Box
4001 2319 Box
3853 2235 Box
3794 2338 Box
4026 2146 Box
3720 2127 Box
3869 2173 Box
3877 2293 Box
3941 2258 Box
3909 2251 Box
3934 2186 Box
3854 2288 Box
3873 2357 Box
4260 2211 Box
3926 2181 Box
3696 2619 Box
3786 2094 Box
3918 2239 Box
3887 2244 Box
3963 2215 Box
3943 2224 Box
4031 2302 Box
4056 2391 Box
4068 2147 Box
3952 2438 Box
3782 2183 Box
3674 2110 Box
3786 2238 Box
4067 2300 Box
3856 2262 Box
3897 2252 Box
3678 2510 Box
3594 2234 Box
3884 2398 Box
3673 2148 Box
3898 2249 Box
3950 2225 Box
3931 2237 Box
3906 2172 Box
3925 2241 Box
3903 2222 Box
3959 2216 Box
3854 2256 Box
3883 2248 Box
3997 2213 Box
3820 2219 Box
3896 2279 Box
4041 2259 Box
3895 2269 Box
3966 2390 Box
3922 2405 Box
3784 2210 Box
3913 2258 Box
3803 2088 Box
3917 2219 Box
3795 2286 Box
3856 2224 Box
3915 2170 Box
3931 2280 Box
3920 2278 Box
3859 2139 Box
4103 2338 Box
3735 2273 Box
3928 2207 Box
4147 2175 Box
3751 2277 Box
3848 2441 Box
3486 2271 Box
4080 1977 Box
3880 2283 Box
3976 2337 Box
3785 2350 Box
3837 2095 Box
3904 2254 Box
3987 2294 Box
3919 2257 Box
3934 2398 Box
3901 2289 Box
4084 2224 Box
4235 2331 Box
3742 2176 Box
3876 2117 Box
4061 2529 Box
3883 2243 Box
3983 2332 Box
3911 2264 Box
3899 2243 Box
3861 2263 Box
3902 2255 Box
3897 2253 Box
3757 2116 Box
3884 2218 Box
3917 2252 Box
3957 2303 Box
3898 2253 Box
3932 2291 Box
3877 2396 Box
3947 2214 Box
3755 2347 Box
3962 2150 Box
3935 2335 Box
3958 2172 Box
4035 2191 Box
3940 2263 Box
3902 2206 Box
3730 2401 Box
3879 2057 Box
3901 2242 Box
3878 2235 Box
3921 1923 Box
3888 2230 Box
3963 2187 Box
3872 2356 Box
3898 2288 Box
3892 2268 Box
3889 2252 Box
3853 1968 Box
3927 2314 Box
3948 2432 Box
3968 2076 Box
3936 1870 Box
3757 2378 Box
3911 2250 Box
4010 2336 Box
3920 2306 Box
3805 2293 Box
3936 2186 Box
3856 2250 Box
3499 2280 Box
3935 2232 Box
3890 2251 Box
3830 2121 Box
3890 2191 Box
3752 2137 Box
4101 2453 Box
3904 2201 Box
3920 2198 Box
4129 2437 Box
3903 2230 Box
3930 2209 Box
3864 2440 Box
3855 2263 Box
3970 2452 Box
3912 2289 Box
3857 2242 Box
3836 2326 Box
3960 2297 Box
3943 2139 Box
3627 1998 Box
3771 2333 Box
3867 2270 Box
3795 2285 Box
4261 2232 Box
3879 2397 Box
3865 2290 Box
3938 2274 Box
3874 2245 Box
3901 2254 Box
3853 2249 Box
3849 2237 Box
3937 2239 Box
3936 2591 Box
3963 2242 Box
3903 2240 Box
3891 2250 Box
3798 2270 Box
3930 2296 Box
3919 2087 Box
3965 2283 Box
3940 2241 Box
3958 2223 Box
3893 2257 Box
3805 2149 Box
3894 2241 Box
3671 2180 Box
3797 2364 Box
4126 2325 Box
3933 2037 Box
3903 2567 Box
4029 2148 Box
3917 2236 Box
3981 2311 Box
3945 2283 Box
3763 2366 Box
3878 2258 Box
3891 2243 Box
3754 2545 Box
3952 2103 Box
4027 2118 Box
4327 2315 Box
3829 2494 Box
3913 1804 Box
4099 2478 Box
3921 2245 Box
3811 2206 Box
3808 2331 Box
3896 2255 Box
3916 2185 Box
3748 2331 Box
3959 2212 Box
3848 2274 Box
3848 2115 Box
3899 2253 Box
3907 2202 Box
3907 2246 Box
3605 2259 Box
3865 2208 Box
3872 2213 Box
3925 2280 Box
3985 2128 Box
3913 2186 Box
3915 2216 Box
3634 2257 Box
3946 2262 Box
3733 1967 Box
3901 2242 Box
3867 2520 Box
3960 2281 Box
4231 1973 Box
3824 2149 Box
3804 2185 Box
3863 2231 Box
3974 2208 Box
3892 2272 Box
4022 2187 Box
3779 2397 Box
4021 2202 Box
4061 2332 Box
3769 2336 Box
3871 2247 Box
3986 2257 Box
4247 2623 Box
3900 2254 Box
3943 2204 Box
3989 2303 Box
3872 2153 Box
4175 2052 Box
3812 2123 Box
3902 2319 Box
3937 2251 Box
4001 2293 Box
3729 2247 Box
4076 2280 Box
3943 2229 Box
3908 2250 Box
4005 2417 Box
4059 1977 Box
3903 2219 Box
3918 2246 Box
3955 2226 Box
4073 2217 Box
3953 2250 Box
3871 2254 Box
3857 2130 Box
3740 2432 Box
4028 2488 Box
3679 2227 Box
3904 2229 Box
4115 2217 Box
3969 2441 Box
3953 2243 Box
3731 2332 Box
4008 2307 Box
4026 2205 Box
3909 2227 Box
3867 2275 Box
3840 2208 Box
4137 2206 Box
3900 2255 Box
3903 2337 Box
4031 1921 Box
3845 2073 Box
3951 2273 Box
3850 2247 Box
3945 2261 Box
3845 2122 Box
3999 2304 Box
3979 2223 Box
3855 2266 Box
3913 2255 Box
3951 2265 Box
3863 2237 Box
3929 2269 Box
4056 2309 Box
3789 2486 Box
3703 2316 Box
3792 2082 Box
3773 2191 Box
3497 2330 Box
3723 2378 Box
4007 2344 Box
4001 2243 Box
3899 2339 Box
3913 2242 Box
3878 2231 Box
3856 2327 Box
3932 2596 Box
4012 2322 Box
3930 2260 Box
3831 2240 Box
3969 2269 Box
3857 2287 Box
3807 2352 Box
3988 2277 Box
3904 2297 Box
3763 2206 Box
3555 2144 Box
4050 2139 Box
3919 2125 Box
3867 2184 Box
4106 2241 Box
3802 2311 Box
4015 2139 Box
3891 2246 Box
4004 2179 Box
3949 2293 Box
4127 2391 Box
4011 2137 Box
3947 2220 Box
3940 2266 Box
3867 2452 Box
3946 2366 Box
4010 2219 Box
3459 2319 Box
3912 2179 Box
3774 2347 Box
3893 2253 Box
3962 2213 Box
3809 2314 Box
3941 2415 Box
4143 2328 Box
3909 2235 Box
3902 2253 Box
4027 2226 Box
4024 2162 Box
3869 1960 Box
3799 2265 Box
3908 2184 Box
3970 2211 Box
3924 2250 Box
3923 2235 Box
3903 2251 Box
4070 2401 Box
3879 2348 Box
3960 2191 Box
3903 2249 Box
4351 2213 Box
3908 2189 Box
4031 2267 Box
3993 2240 Box
3861 2242 Box
3921 2290 Box
4013 2278 Box
3924 2064 Box
3958 2264 Box
3869 2200 Box
3831 2351 Box
3909 2256 Box
3908 2269 Box
4031 2303 Box
3932 2441 Box
3949 2186 Box
3886 2231 Box
4068 2168 Box
3922 2215 Box
3873 2252 Box
3780 2417 Box
3798 2339 Box
3904 2247 Box
3967 2300 Box
3823 2230 Box
3915 2350 Box
3852 2263 Box
3833 2184 Box
3927 2223 Box
3847 2057 Box
4151 2394 Box
4105 2236 Box
3814 2379 Box
3963 2266 Box
3871 2281 Box
3912 2240 Box
3864 2381 Box
3861 2181 Box
3896 2263 Box
3979 2238 Box
3828 2318 Box
4424 2276 Box
3999 2216 Box
3909 2260 Box
3923 2372 Box
3854 2251 Box
3854 2238 Box
3842 2172 Box
3895 2177 Box
3887 2107 Box
3899 2222 Box
3958 2168 Box
3812 2249 Box
4057 2198 Box
3899 2292 Box
3648 2162 Box
4265 2493 Box
4030 2137 Box
3879 2255 Box
4003 2285 Box
3970 2014 Box
3985 2396 Box
4018 2441 Box
3894 2331 Box
4074 2619 Box
3904 2249 Box
3892 2170 Box
3831 2364 Box
3842 2224 Box
4242 2251 Box
3984 2224 Box
4012 2342 Box
3982 2135 Box
3874 2212 Box
3812 2383 Box
4087 1843 Box
3756 2182 Box
3904 2215 Box
3816 2430 Box
4023 2298 Box
3565 2622 Box
4066 2146 Box
3890 2295 Box
3709 2081 Box
4008 2018 Box
4037 2142 Box
4041 2253 Box
4107 2121 Box
3921 2347 Box
4097 2360 Box
3895 2233 Box
3859 2394 Box
3798 2323 Box
3962 2176 Box
3895 2249 Box
3808 2209 Box
3813 2230 Box
3907 2260 Box
3900 2255 Box
3834 2445 Box
3801 2142 Box
3901 2255 Box
3869 2275 Box
4023 2347 Box
3989 2295 Box
3870 2240 Box
3910 2234 Box
3898 2240 Box
3921 2184 Box
3846 2226 Box
3797 2266 Box
3879 2162 Box
3874 2344 Box
3946 2082 Box
4023 2206 Box
3887 2282 Box
3882 2324 Box
4075 2312 Box
4051 2178 Box
3871 2271 Box
3955 2275 Box
4012 2450 Box
3904 2268 Box
3916 2277 Box
3930 2227 Box
3897 2102 Box
3985 2243 Box
3573 2017 Box
3884 2150 Box
3873 2328 Box
3866 2251 Box
3890 2256 Box
3926 2211 Box
3995 2206 Box
3870 2269 Box
3962 2377 Box
3898 2253 Box
4154 2148 Box
3830 2318 Box
4137 2382 Box
3975 2080 Box
3917 2262 Box
3878 2295 Box
3901 2414 Box
3928 2222 Box
3996 2496 Box
3776 2177 Box
3799 2123 Box
4379 2264 Box
3898 2212 Box
3915 2351 Box
3874 2223 Box
3901 2241 Box
4096 2675 Box
3921 2532 Box
3967 2320 Box
3803 2262 Box
4051 2127 Box
3900 2254 Box
3884 2247 Box
3921 2267 Box
3916 2195 Box
3978 2195 Box
3424 2254 Box
3939 2285 Box
3935 2268 Box
3795 2014 Box
3885 2242 Box
3779 2253 Box
3930 2241 Box
4051 2260 Box
3903 2228 Box
3909 2318 Box
4019 2453 Box
3809 2225 Box
3898 2256 Box
3787 2243 Box
3892 2259 Box
3529 2236 Box
3934 2430 Box
3721 2295 Box
3957 2037 Box
3912 2278 Box
3660 2298 Box
3981 2238 Box
4064 2298 Box
3804 2297 Box
3822 2246 Box
3572 2513 Box
3947 2150 Box
3702 2211 Box
4065 2250 Box
3924 2250 Box
3713 2431 Box
3965 2325 Box
3748 1960 Box
3970 2175 Box
3843 2324 Box
4001 2468 Box
4241 2123 Box
3944 2144 Box
3738 2671 Box
3900 2252 Box
4185 2332 Box
3943 2341 Box
3848 2213 Box
3939 2258 Box
3942 2101 Box
4121 2465 Box
3882 2272 Box
3763 2151 Box
3874 2251 Box
3967 2262 Box
3810 2541 Box
3462 2098 Box
3862 2321 Box
3841 2131 Box
3914 2140 Box
3820 2257 Box
3887 2254 Box
3888 2159 Box
3784 2324 Box
3989 2134 Box
3912 2173 Box
3813 2241 Box
4144 2132 Box
4000 2319 Box
3903 2253 Box
3834 2306 Box
3894 2258 Box
3868 2262 Box
3818 2105 Box
3956 2502 Box
4008 2207 Box
3948 2335 Box
3965 2365 Box
3859 2215 Box
3974 2122 Box
4178 2260 Box
4230 2307 Box
3729 2396 Box
3846 2163 Box
3987 2092 Box
3896 2214 Box
3797 2269 Box
3938 2275 Box
3919 2263 Box
3781 2328 Box
3904 2132 Box
3789 2086 Box
3914 2263 Box
3897 2355 Box
3795 2103 Box
3948 2275 Box
3926 2285 Box
3908 2254 Box
3804 2203 Box
3903 2209 Box
4174 2257 Box
4065 2239 Box
3900 2242 Box
3885 2008 Box
3777 2303 Box
3848 2265 Box
4004 2143 Box
4052 2505 Box
3913 2244 Box
3971 2128 Box
3815 2158 Box
3840 2422 Box
3887 2253 Box
3881 2136 Box
3898 2255 Box
3996 2263 Box
3964 2204 Box
3912 2037 Box
3877 2219 Box
3777 2153 Box
3910 2233 Box
3903 2253 Box
3920 2291 Box
3901 2242 Box
3899 2235 Box
3769 2204 Box
3810 2336 Box
3846 2497 Box
3812 2065 Box
3879 2337 Box
4069 2160 Box
3544 2101 Box
3901 2251 Box
3944 2236 Box
4013 2303 Box
4143 2241 Box
3902 2257 Box
3810 2266 Box
3972 2450 Box
3905 2273 Box
3978 2260 Box
3978 2418 Box
3907 2253 Box
3753 2271 Box
3814 2356 Box
3894 2301 Box
3826 2220 Box
4220 2156 Box
3853 2515 Box
4023 2102 Box
3892 2163 Box
4147 2274 Box
3895 2246 Box
3861 2252 Box
3789 2123 Box
4130 2251 Box
3891 2248 Box
3980 2206 Box
3902 2287 Box
3966 2297 Box
3898 2238 Box
4076 2185 Box
3849 2316 Box
3936 2307 Box
4074 1875 Box
3936 2271 Box
4074 2273 Box
3890 1864 Box
3893 2260 Box
3889 2243 Box
3918 2235 Box
4041 2343 Box
3955 2250 Box
3882 2243 Box
3882 2149 Box
3904 2251 Box
4206 2128 Box
3769 2181 Box
4116 2147 Box
4036 2134 Box
3931 2287 Box
3964 2509 Box
3844 2338 Box
3906 2270 Box
4088 2254 Box
3939 2292 Box
3814 2035 Box
3850 2175 Box
3853 1959 Box
3855 2207 Box
3849 2453 Box
3950 2299 Box
3879 2477 Box
3794 2218 Box
3970 2327 Box
3720 2311 Box
3938 2282 Box
3900 2252 Box
3836 2456 Box
4093 2372 Box
4209 2155 Box
3614 2100 Box
3862 2252 Box
3786 2240 Box
3697 2359 Box
3853 2316 Box
3706 2146 Box
3991 2542 Box
4269 2104 Box
3974 2309 Box
3955 2349 Box
3532 2132 Box
3689 2056 Box
3905 2250 Box
3850 2340 Box
3964 2091 Box
4035 2485 Box
3863 2425 Box
3882 2212 Box
4042 2148 Box
3916 2242 Box
3695 2158 Box
3824 2275 Box
3864 2271 Box
3714 2274 Box
4358 2281 Box
3917 2272 Box
3964 2228 Box
3916 2442 Box
3926 1894 Box
3629 2290 Box
3543 2500 Box
3755 2237 Box
4142 2313 Box
3961 2087 Box
3899 2280 Box
3997 2118 Box
3937 2251 Box
3961 2284 Box
4193 2134 Box
3509 2519 Box
3905 2251 Box
3389 1824 Box
3856 2242 Box
3883 2266 Box
3538 2181 Box
3803 2288 Box
4152 2243 Box
3882 2067 Box
3857 2319 Box
3969 2258 Box
3941 2228 Box
3692 2237 Box
3818 2215 Box
3884 2231 Box
3790 2461 Box
4117 2150 Box
3915 2239 Box
3927 2220 Box
3851 2335 Box
3613 2307 Box
3961 2293 Box
3842 2269 Box
3945 2472 Box
3779 2198 Box
4108 2303 Box
3667 2166 Box
3742 2298 Box
3768 2181 Box
3725 2140 Box
3714 2210 Box
4064 2354 Box
4003 2270 Box
4039 2066 Box
3795 2302 Box
3895 1917 Box
4007 2264 Box
3843 2356 Box
3736 2346 Box
4061 2086 Box
3883 2253 Box
3900 2225 Box
3780 2506 Box
3671 1806 Box
3716 2375 Box
3897 2269 Box
3790 2385 Box
4085 2252 Box
3962 2275 Box
3856 2237 Box
3720 2091 Box
3890 2233 Box
3851 2287 Box
4290 2750 Box
3809 2210 Box
3884 2258 Box
4014 2239 Box
3844 2342 Box
3859 2270 Box
3942 2329 Box
4045 2123 Box
3845 2219 Box
4014 2379 Box
3769 2346 Box
3830 2203 Box
3879 2157 Box
3898 2253 Box
3850 2367 Box
3916 2307 Box
3913 2265 Box
3912 2262 Box
3810 2481 Box
3834 2290 Box
3901 2257 Box
3723 2440 Box
3763 2137 Box
3934 2227 Box
3903 2302 Box
3736 2250 Box
3937 2324 Box
3720 2320 Box
3729 2232 Box
3893 2206 Box
3915 2254 Box
3899 2239 Box
4038 2543 Box
3805 2136 Box
3954 2351 Box
3910 2247 Box
4008 2036 Box
3923 2220 Box
3898 2505 Box
3866 2302 Box
3677 2250 Box
3900 2133 Box
3523 2451 Box
3651 2411 Box
4023 2348 Box
3999 2249 Box
4237 2425 Box
3539 2172 Box
3882 2271 Box
3748 2284 Box
3904 2191 Box
3879 2268 Box
3908 2293 Box
3911 2485 Box
3900 2257 Box
3997 2223 Box
3757 2402 Box
3702 2331 Box
3951 2257 Box
3975 2069 Box
4065 2267 Box
3656 2212 Box
3970 2388 Box
4060 2004 Box
3885 2136 Box
3894 2288 Box
3970 2177 Box
3917 2113 Box
3997 2224 Box
3695 2277 Box
3922 1938 Box
3897 2216 Box
4132 2428 Box
3908 2228 Box
3953 2320 Box
3903 2267 Box
3864 2233 Box
3961 2274 Box
3901 2122 Box
3797 2541 Box
3807 2318 Box
3977 2010 Box
3824 2178 Box
3839 2225 Box
3788 2253 Box
3895 2250 Box
3756 2259 Box
3784 1908 Box
4108 2496 Box
3801 2195 Box
3782 2226 Box
3963 2046 Box
3902 2266 Box
3996 2226 Box
3864 2430 Box
3906 2271 Box
3858 2091 Box
4129 2130 Box
3050 581 Box
% End plot #1
2.000 UL
LTb
LCb setrgbcolor
1.000 UL
LTB
LCb setrgbcolor
2095 4059 N
0 -3611 V
3611 0 V
0 3611 V
-3611 0 V
Z stroke
1.000 UP
1.000 UL
LTb
LCb setrgbcolor
stroke
grestore
end
showpage
%%Trailer
%%DocumentFonts: roman Helvetica
