%!PS-Adobe-2.0 EPSF-2.0
%%Title: ZP_last200Turns.eps
%%Titre: ZP_last200Turns.eps
%%Creator: Fminigraf Library
%%BoundingBox: 20 40 567 457
%%EndComments
/offx 20 def
/offy 40 def
/lx 595 def
/ly 842 def
/maxx 1023 def
/maxy 779 def
/reduc 0.92 def
/coeff lx maxx div reduc mul def
offx offy translate
coeff coeff scale
1 setlinewidth newpath 0 0 moveto
/Courier-Bold findfont 32 scalefont setfont
/M {moveto} def
/L {lineto} def
/S {stroke} def
/H {show} def
/D {setdash} def
0 0 0 setrgbcolor
[] 0 D
135 156 M 135 161 L S
135 442 M 135 452 L S
135 735 M 135 740 L S
168 156 M 168 161 L S
168 442 M 168 452 L S
168 735 M 168 740 L S
[2 3] 0 D
202 156 M 202 740 L S
[] 0 D
/Courier-Bold findfont 30 scalefont setfont
172 128 M (-.002) H
202 156 M 202 166 L S
202 437 M 202 457 L S
202 730 M 202 740 L S
235 156 M 235 161 L S
235 442 M 235 452 L S
235 735 M 235 740 L S
269 156 M 269 161 L S
269 442 M 269 452 L S
269 735 M 269 740 L S
302 156 M 302 161 L S
302 442 M 302 452 L S
302 735 M 302 740 L S
336 156 M 336 161 L S
336 442 M 336 452 L S
336 735 M 336 740 L S
[2 3] 0 D
369 156 M 369 740 L S
[] 0 D
339 128 M (-.001) H
369 156 M 369 166 L S
369 437 M 369 457 L S
369 730 M 369 740 L S
402 156 M 402 161 L S
402 442 M 402 452 L S
402 735 M 402 740 L S
436 156 M 436 161 L S
436 442 M 436 452 L S
436 735 M 436 740 L S
469 156 M 469 161 L S
469 442 M 469 452 L S
469 735 M 469 740 L S
503 156 M 503 161 L S
503 442 M 503 452 L S
503 735 M 503 740 L S
[2 3] 0 D
536 156 M 536 740 L S
[] 0 D
518 128 M (0.0) H
536 156 M 536 166 L S
536 437 M 536 457 L S
536 730 M 536 740 L S
570 156 M 570 161 L S
570 442 M 570 452 L S
570 735 M 570 740 L S
603 156 M 603 161 L S
603 442 M 603 452 L S
603 735 M 603 740 L S
637 156 M 637 161 L S
637 442 M 637 452 L S
637 735 M 637 740 L S
670 156 M 670 161 L S
670 442 M 670 452 L S
670 735 M 670 740 L S
[2 3] 0 D
704 156 M 704 740 L S
[] 0 D
674 128 M (0.001) H
704 156 M 704 166 L S
704 437 M 704 457 L S
704 730 M 704 740 L S
737 156 M 737 161 L S
737 442 M 737 452 L S
737 735 M 737 740 L S
771 156 M 771 161 L S
771 442 M 771 452 L S
771 735 M 771 740 L S
804 156 M 804 161 L S
804 442 M 804 452 L S
804 735 M 804 740 L S
837 156 M 837 161 L S
837 442 M 837 452 L S
837 735 M 837 740 L S
[2 3] 0 D
871 156 M 871 740 L S
[] 0 D
841 128 M (0.002) H
871 156 M 871 166 L S
871 437 M 871 457 L S
871 730 M 871 740 L S
904 156 M 904 161 L S
904 442 M 904 452 L S
904 735 M 904 740 L S
938 156 M 938 161 L S
938 442 M 938 452 L S
938 735 M 938 740 L S
971 156 M 971 161 L S
971 442 M 971 452 L S
971 735 M 971 740 L S
102 164 M 107 164 L S
531 164 M 541 164 L S
967 164 M 972 164 L S
102 176 M 107 176 L S
531 176 M 541 176 L S
967 176 M 972 176 L S
102 187 M 107 187 L S
531 187 M 541 187 L S
967 187 M 972 187 L S
102 199 M 107 199 L S
531 199 M 541 199 L S
967 199 M 972 199 L S
[2 3] 0 D
102 211 M 972 211 L S
[] 0 D
15 201 M (-.0004) H
102 211 M 112 211 L S
526 211 M 546 211 L S
962 211 M 972 211 L S
102 223 M 107 223 L S
531 223 M 541 223 L S
967 223 M 972 223 L S
102 235 M 107 235 L S
531 235 M 541 235 L S
967 235 M 972 235 L S
102 247 M 107 247 L S
531 247 M 541 247 L S
967 247 M 972 247 L S
102 258 M 107 258 L S
531 258 M 541 258 L S
967 258 M 972 258 L S
[2 3] 0 D
102 270 M 972 270 L S
[] 0 D
15 260 M (-.0003) H
102 270 M 112 270 L S
526 270 M 546 270 L S
962 270 M 972 270 L S
102 282 M 107 282 L S
531 282 M 541 282 L S
967 282 M 972 282 L S
102 294 M 107 294 L S
531 294 M 541 294 L S
967 294 M 972 294 L S
102 306 M 107 306 L S
531 306 M 541 306 L S
967 306 M 972 306 L S
102 318 M 107 318 L S
531 318 M 541 318 L S
967 318 M 972 318 L S
[2 3] 0 D
102 329 M 972 329 L S
[] 0 D
15 319 M (-.0002) H
102 329 M 112 329 L S
526 329 M 546 329 L S
962 329 M 972 329 L S
102 341 M 107 341 L S
531 341 M 541 341 L S
967 341 M 972 341 L S
102 353 M 107 353 L S
531 353 M 541 353 L S
967 353 M 972 353 L S
102 365 M 107 365 L S
531 365 M 541 365 L S
967 365 M 972 365 L S
102 377 M 107 377 L S
531 377 M 541 377 L S
967 377 M 972 377 L S
[2 3] 0 D
102 389 M 972 389 L S
[] 0 D
15 379 M (-.0001) H
102 389 M 112 389 L S
526 389 M 546 389 L S
962 389 M 972 389 L S
102 400 M 107 400 L S
531 400 M 541 400 L S
967 400 M 972 400 L S
102 412 M 107 412 L S
531 412 M 541 412 L S
967 412 M 972 412 L S
102 424 M 107 424 L S
531 424 M 541 424 L S
967 424 M 972 424 L S
102 436 M 107 436 L S
531 436 M 541 436 L S
967 436 M 972 436 L S
[2 3] 0 D
102 448 M 972 448 L S
[] 0 D
33 438 M (0.0) H
102 448 M 112 448 L S
526 448 M 546 448 L S
962 448 M 972 448 L S
102 460 M 107 460 L S
531 460 M 541 460 L S
967 460 M 972 460 L S
102 471 M 107 471 L S
531 471 M 541 471 L S
967 471 M 972 471 L S
102 483 M 107 483 L S
531 483 M 541 483 L S
967 483 M 972 483 L S
102 495 M 107 495 L S
531 495 M 541 495 L S
967 495 M 972 495 L S
[2 3] 0 D
102 507 M 972 507 L S
[] 0 D
15 497 M (0.0001) H
102 507 M 112 507 L S
526 507 M 546 507 L S
962 507 M 972 507 L S
102 519 M 107 519 L S
531 519 M 541 519 L S
967 519 M 972 519 L S
102 531 M 107 531 L S
531 531 M 541 531 L S
967 531 M 972 531 L S
102 542 M 107 542 L S
531 542 M 541 542 L S
967 542 M 972 542 L S
102 554 M 107 554 L S
531 554 M 541 554 L S
967 554 M 972 554 L S
[2 3] 0 D
102 566 M 972 566 L S
[] 0 D
15 556 M (0.0002) H
102 566 M 112 566 L S
526 566 M 546 566 L S
962 566 M 972 566 L S
102 578 M 107 578 L S
531 578 M 541 578 L S
967 578 M 972 578 L S
102 590 M 107 590 L S
531 590 M 541 590 L S
967 590 M 972 590 L S
102 602 M 107 602 L S
531 602 M 541 602 L S
967 602 M 972 602 L S
102 613 M 107 613 L S
531 613 M 541 613 L S
967 613 M 972 613 L S
[2 3] 0 D
102 625 M 972 625 L S
[] 0 D
15 615 M (0.0003) H
102 625 M 112 625 L S
526 625 M 546 625 L S
962 625 M 972 625 L S
102 637 M 107 637 L S
531 637 M 541 637 L S
967 637 M 972 637 L S
102 649 M 107 649 L S
531 649 M 541 649 L S
967 649 M 972 649 L S
102 661 M 107 661 L S
531 661 M 541 661 L S
967 661 M 972 661 L S
102 673 M 107 673 L S
531 673 M 541 673 L S
967 673 M 972 673 L S
[2 3] 0 D
102 684 M 972 684 L S
[] 0 D
15 674 M (0.0004) H
102 684 M 112 684 L S
526 684 M 546 684 L S
962 684 M 972 684 L S
102 696 M 107 696 L S
531 696 M 541 696 L S
967 696 M 972 696 L S
102 708 M 107 708 L S
531 708 M 541 708 L S
967 708 M 972 708 L S
102 720 M 107 720 L S
531 720 M 541 720 L S
967 720 M 972 720 L S
102 732 M 107 732 L S
531 732 M 541 732 L S
967 732 M 972 732 L S
[] 0 D
102 156 M 972 156 L S
972 156 M 972 740 L S
972 740 M 102 740 L S
102 740 M 102 156 L S
536 156 M 536 740 L S
102 447 M 972 447 L S
192 176 M 192 177 L S
913 596 M 913 597 L S
502 585 M 502 586 L S
192 156 M 192 157 L S
128 246 M 128 247 L S
128 246 M 128 247 L S
676 377 M 676 378 L S
804 724 M 804 725 L S
128 246 M 128 247 L S
951 691 M 951 692 L S
301 447 M 301 448 L S
361 203 M 361 204 L S
141 178 M 141 179 L S
141 178 M 141 179 L S
854 520 M 854 521 L S
608 645 M 608 646 L S
141 178 M 141 179 L S
889 727 M 889 728 L S
157 309 M 157 310 L S
573 310 M 573 311 L S
249 176 M 249 177 L S
249 176 M 249 177 L S
954 645 M 954 646 L S
394 518 M 394 519 L S
249 176 M 249 177 L S
741 695 M 741 696 L S
105 204 M 105 205 L S
776 450 M 776 451 L S
427 240 M 427 241 L S
427 240 M 427 241 L S
954 722 M 954 723 L S
215 374 M 215 375 L S
427 240 M 427 241 L S
543 603 M 543 604 L S
158 159 M 158 160 L S
920 589 M 920 590 L S
543 603 M 543 604 L S
632 354 M 632 355 L S
852 733 M 852 734 L S
113 248 M 113 249 L S
344 474 M 344 475 L S
344 474 M 344 475 L S
303 184 M 303 185 L S
972 694 M 972 695 L S
344 474 M 344 475 L S
813 491 M 813 492 L S
674 674 M 674 675 L S
115 170 M 115 171 L S
192 338 M 192 339 L S
192 338 M 192 339 L S
504 273 M 504 274 L S
918 740 M 918 741 L S
192 338 M 192 339 L S
928 617 M 928 618 L S
462 561 M 462 562 L S
218 160 M 218 161 L S
123 229 M 123 230 L S
123 229 M 123 230 L S
713 404 M 713 405 L S
771 714 M 771 715 L S
123 229 M 123 230 L S
947 702 M 947 703 L S
269 420 M 269 421 L S
399 219 M 399 220 L S
154 173 M 154 174 L S
154 173 M 154 174 L S
879 546 M 879 547 L S
568 624 M 568 625 L S
154 173 M 154 174 L S
866 726 M 866 727 L S
140 286 M 140 287 L S
613 334 M 613 335 L S
278 184 M 278 185 L S
278 184 M 278 185 L S
962 664 M 962 665 L S
357 491 M 357 492 L S
278 184 M 278 185 L S
706 682 M 706 683 L S
107 191 M 107 192 L S
808 477 M 808 478 L S
465 258 M 465 259 L S
465 258 M 465 259 L S
942 729 M 942 730 L S
189 348 M 189 349 L S
465 258 M 465 259 L S
505 581 M 505 582 L S
179 159 M 179 160 L S
937 612 M 937 613 L S
505 581 M 505 582 L S
669 379 M 669 380 L S
823 727 M 823 728 L S
106 229 M 106 230 L S
311 448 M 311 449 L S
311 448 M 311 449 L S
337 196 M 337 197 L S
970 708 M 970 709 L S
311 448 M 311 449 L S
840 516 M 840 517 L S
635 657 M 635 658 L S
127 163 M 127 164 L S
172 315 M 172 316 L S
172 315 M 172 316 L S
544 295 M 544 296 L S
897 740 M 897 741 L S
172 315 M 172 316 L S
938 637 M 938 638 L S
423 536 M 423 537 L S
247 166 M 247 167 L S
121 214 M 121 215 L S
121 214 M 121 215 L S
748 430 M 748 431 L S
736 702 M 736 703 L S
121 214 M 121 215 L S
939 712 M 939 713 L S
239 393 M 239 394 L S
438 237 M 438 238 L S
171 170 M 171 171 L S
171 170 M 171 171 L S
901 570 M 901 571 L S
528 602 M 528 603 L S
171 170 M 171 171 L S
842 722 M 842 723 L S
126 265 M 126 266 L S
652 360 M 652 361 L S
310 193 M 310 194 L S
310 193 M 310 194 L S
966 680 M 966 681 L S
321 464 M 321 465 L S
310 193 M 310 194 L S
670 667 M 670 668 L S
113 180 M 113 181 L S
838 503 M 838 504 L S
503 278 M 503 279 L S
503 278 M 503 279 L S
926 734 M 926 735 L S
167 323 M 167 324 L S
467 558 M 467 559 L S
467 558 M 467 559 L S
203 160 M 203 161 L S
951 634 M 951 635 L S
467 558 M 467 559 L S
704 404 M 704 405 L S
792 718 M 792 719 L S
102 212 M 102 213 L S
280 422 M 280 423 L S
280 422 M 280 423 L S
373 211 M 373 212 L S
963 719 M 963 720 L S
280 422 M 280 423 L S
865 541 M 865 542 L S
596 637 M 596 638 L S
143 158 M 143 159 L S
156 293 M 156 294 L S
156 293 M 156 294 L S
583 318 M 583 319 L S
872 738 M 872 739 L S
156 293 M 156 294 L S
946 655 M 946 656 L S
386 510 M 386 511 L S
279 175 M 279 176 L S
123 201 M 123 202 L S
123 201 M 123 202 L S
782 457 M 782 458 L S
700 687 M 700 688 L S
123 201 M 123 202 L S
927 719 M 927 720 L S
212 368 M 212 369 L S
477 257 M 477 258 L S
191 169 M 191 170 L S
191 169 M 191 170 L S
920 594 M 920 595 L S
488 578 M 488 579 L S
191 169 M 191 170 L S
814 717 M 814 718 L S
116 245 M 116 246 L S
690 386 M 690 387 L S
343 205 M 343 206 L S
343 205 M 343 206 L S
966 695 M 966 696 L S
287 437 M 287 438 L S
343 205 M 343 206 L S
634 650 M 634 651 L S
123 171 M 123 172 L S
865 530 M 865 531 L S
541 299 M 541 300 L S
541 299 M 541 300 L S
908 736 M 908 737 L S
147 299 M 147 300 L S
429 534 M 429 535 L S
429 534 M 429 535 L S
230 165 M 230 166 L S
961 653 M 961 654 L S
429 534 M 429 535 L S
738 430 M 738 431 L S
759 708 M 759 709 L S
102 197 M 102 198 L S
251 397 M 251 398 L S
251 397 M 251 398 L S
411 227 M 411 228 L S
954 727 M 954 728 L S
251 397 M 251 398 L S
887 564 M 887 565 L S
557 616 M 557 617 L S
162 156 M 162 157 L S
142 272 M 142 273 L S
142 272 M 142 273 L S
622 343 M 622 344 L S
845 733 M 845 734 L S
142 272 M 142 273 L S
950 671 M 950 672 L S
349 483 M 349 484 L S
312 186 M 312 187 L S
129 191 M 129 192 L S
129 191 M 129 192 L S
813 484 M 813 485 L S
662 670 M 662 671 L S
129 191 M 129 192 L S
913 723 M 913 724 L S
187 342 M 187 343 L S
517 279 M 517 280 L S
214 171 M 214 172 L S
214 171 M 214 172 L S
936 616 M 936 617 L S
448 553 M 448 554 L S
214 171 M 214 172 L S
784 709 M 784 710 L S
110 227 M 110 228 L S
727 413 M 727 414 L S
378 219 M 378 220 L S
378 219 M 378 220 L S
963 708 M 963 709 L S
256 410 M 256 411 L S
378 219 M 378 220 L S
596 631 M 596 632 L S
136 165 M 136 166 L S
890 555 M 890 556 L S
579 322 M 579 323 L S
579 322 M 579 323 L S
886 736 M 886 737 L S
132 277 M 132 278 L S
393 509 M 393 510 L S
393 509 M 393 510 L S
259 172 M 259 173 L S
967 672 M 967 673 L S
393 509 M 393 510 L S
771 455 M 771 456 L S
724 695 M 724 696 L S
106 185 M 106 186 L S
225 372 M 225 373 L S
225 372 M 225 373 L S
450 245 M 450 246 L S
940 734 M 940 735 L S
225 372 M 225 373 L S
905 587 M 905 588 L S
517 593 M 517 594 L S
184 157 M 184 158 L S
133 253 M 133 254 L S
133 253 M 133 254 L S
661 368 M 661 369 L S
815 726 M 815 727 L S
133 253 M 133 254 L S
950 685 M 950 686 L S
314 457 M 314 458 L S
348 199 M 348 200 L S
138 182 M 138 183 L S
138 182 M 138 183 L S
842 510 M 842 511 L S
623 652 M 623 653 L S
138 182 M 138 183 L S
895 725 M 895 726 L S
166 318 M 166 319 L S
558 302 M 558 303 L S
240 175 M 240 176 L S
240 175 M 240 176 L S
949 637 M 949 638 L S
409 527 M 409 528 L S
240 175 M 240 176 L S
753 698 M 753 699 L S
107 211 M 107 212 L S
762 440 M 762 441 L S
414 234 M 414 235 L S
414 234 M 414 235 L S
956 718 M 956 719 L S
226 384 M 226 385 L S
414 234 M 414 235 L S
558 611 M 558 612 L S
153 161 M 153 162 L S
911 580 M 911 581 L S
558 611 M 558 612 L S
617 345 M 617 346 L S
861 733 M 861 734 L S
119 256 M 119 257 L S
358 483 M 358 484 L S
358 483 M 358 484 L S
291 181 M 291 182 L S
970 688 M 970 689 L S
358 483 M 358 484 L S
801 481 M 801 482 L S
687 680 M 687 681 L S
113 175 M 113 176 L S
202 348 M 202 349 L S
202 348 M 202 349 L S
489 265 M 489 266 L S
923 737 M 923 738 L S
202 348 M 202 349 L S
921 609 M 921 610 L S
477 570 M 477 571 L S
209 159 M 209 160 L S
126 236 M 126 237 L S
126 236 M 126 237 L S
698 394 M 698 395 L S
783 717 M 783 718 L S
126 236 M 126 237 L S
947 697 M 947 698 L S
282 430 M 282 431 L S
385 214 M 385 215 L S
150 176 M 150 177 L S
150 176 M 150 177 L S
868 536 M 868 537 L S
583 631 M 583 632 L S
150 176 M 150 177 L S
874 725 M 874 726 L S
148 295 M 148 296 L S
597 326 M 597 327 L S
268 182 M 268 183 L S
268 182 M 268 183 L S
958 656 M 958 657 L S
371 501 M 371 502 L S
268 182 M 268 183 L S
719 686 M 719 687 L S
108 197 M 108 198 L S
795 467 M 795 468 L S
451 252 M 451 253 L S
451 252 M 451 253 L S
945 726 M 945 727 L S
200 358 M 200 359 L S
451 252 M 451 253 L S
520 589 M 520 590 L S
172 160 M 172 161 L S
930 603 M 930 604 L S
520 589 M 520 590 L S
654 370 M 654 371 L S
833 728 M 833 729 L S
110 237 M 110 238 L S
325 458 M 325 459 L S
325 458 M 325 459 L S
325 192 M 325 193 L S
969 702 M 969 703 L S
325 458 M 325 459 L S
829 506 M 829 507 L S
650 663 M 650 664 L S
124 167 M 124 168 L S
181 324 M 181 325 L S
181 324 M 181 325 L S
528 287 M 528 288 L S
903 739 M 903 740 L S
181 324 M 181 325 L S
933 629 M 933 630 L S
438 545 M 438 546 L S
237 165 M 237 166 L S
123 221 M 123 222 L S
123 221 M 123 222 L S
734 420 M 734 421 L S
749 705 M 749 706 L S
123 221 M 123 222 L S
940 707 M 940 708 L S
251 404 M 251 405 L S
423 231 M 423 232 L S
166 172 M 166 173 L S
166 172 M 166 173 L S
892 561 M 892 562 L S
543 609 M 543 610 L S
166 172 M 166 173 L S
850 723 M 850 724 L S
133 273 M 133 274 L S
637 351 M 637 352 L S
298 190 M 298 191 L S
298 190 M 298 191 L S
963 673 M 963 674 L S
335 474 M 335 475 L S
298 190 M 298 191 L S
684 672 M 684 673 L S
113 185 M 113 186 L S
826 493 M 826 494 L S
488 271 M 488 272 L S
488 271 M 488 272 L S
931 731 M 931 732 L S
176 333 M 176 334 L S
482 566 M 482 567 L S
482 566 M 482 567 L S
195 161 M 195 162 L S
944 625 M 944 626 L S
482 566 M 482 567 L S
690 395 M 690 396 L S
803 721 M 803 722 L S
105 219 M 105 220 L S
293 432 M 293 433 L S
293 432 M 293 433 L S
360 206 M 360 207 L S
964 714 M 964 715 L S
293 432 M 293 433 L S
854 531 M 854 532 L S
611 644 M 611 645 L S
138 161 M 138 162 L S
163 302 M 163 303 L S
163 302 M 163 303 L S
568 310 M 568 311 L S
880 738 M 880 739 L S
163 302 M 163 303 L S
942 647 M 942 648 L S
400 519 M 400 520 L S
268 172 M 268 173 L S
124 207 M 124 208 L S
124 207 M 124 208 L S
768 447 M 768 448 L S
713 692 M 713 693 L S
124 207 M 124 208 L S
930 715 M 930 716 L S
223 378 M 223 379 L S
463 251 M 463 252 L S
185 171 M 185 172 L S
185 171 M 185 172 L S
912 584 M 912 585 L S
503 586 M 503 587 L S
185 171 M 185 172 L S
824 718 M 824 719 L S
122 253 M 122 254 L S
675 376 M 675 377 L S
331 201 M 331 202 L S
331 201 M 331 202 L S
965 689 M 965 690 L S
301 447 M 301 448 L S
331 201 M 331 202 L S
648 655 M 648 656 L S
121 176 M 121 177 L S
854 520 M 854 521 L S
526 292 M 526 293 L S
526 292 M 526 293 L S
913 734 M 913 735 L S
156 309 M 156 310 L S
444 543 M 444 544 L S
444 543 M 444 544 L S
221 164 M 221 165 L S
956 645 M 956 646 L S
444 543 M 444 544 L S
725 420 M 725 421 L S
771 711 M 771 712 L S
104 204 M 104 205 L S
263 407 M 263 408 L S
263 407 M 263 408 L S
397 222 M 397 223 L S
956 723 M 956 724 L S
263 407 M 263 408 L S
877 555 M 877 556 L S
571 623 M 571 624 L S
156 158 M 156 159 L S
149 281 M 149 282 L S
149 281 M 149 282 L S
607 334 M 607 335 L S
854 734 M 854 735 L S
149 281 M 149 282 L S
947 664 M 947 665 L S
364 493 M 364 494 L S
301 182 M 301 183 L S
128 196 M 128 197 L S
128 196 M 128 197 L S
800 474 M 800 475 L S
675 676 M 675 677 L S
128 196 M 128 197 L S
917 720 M 917 721 L S
198 352 M 198 353 L S
502 271 M 502 272 L S
206 171 M 206 172 L S
206 171 M 206 172 L S
929 607 M 929 608 L S
463 562 M 463 563 L S
206 171 M 206 172 L S
795 711 M 795 712 L S
114 234 M 114 235 L S
712 403 M 712 404 L S
365 214 M 365 215 L S
365 214 M 365 215 L S
963 702 M 963 703 L S
268 421 M 268 422 L S
365 214 M 365 215 L S
610 638 M 610 639 L S
133 168 M 133 169 L S
880 545 M 880 546 L S
565 314 M 565 315 L S
565 314 M 565 315 L S
893 735 M 893 736 L S
139 286 M 139 287 L S
408 518 M 408 519 L S
408 518 M 408 519 L S
249 170 M 249 171 L S
963 664 M 963 665 L S
408 518 M 408 519 L S
757 445 M 757 446 L S
737 699 M 737 700 L S
106 190 M 106 191 L S
236 382 M 236 383 L S
236 382 M 236 383 L S
435 239 M 435 240 L S
944 730 M 944 731 L S
236 382 M 236 383 L S
897 578 M 897 579 L S
532 601 M 532 602 L S
177 157 M 177 158 L S
138 261 M 138 262 L S
138 261 M 138 262 L S
646 359 M 646 360 L S
825 728 M 825 729 L S
138 261 M 138 262 L S
949 679 M 949 680 L S
328 467 M 328 468 L S
335 195 M 335 196 L S
136 186 M 136 187 L S
136 186 M 136 187 L S
830 500 M 830 501 L S
637 658 M 637 659 L S
136 186 M 136 187 L S
900 724 M 900 725 L S
175 328 M 175 329 L S
542 293 M 542 294 L S
231 175 M 231 176 L S
231 175 M 231 176 L S
943 628 M 943 629 L S
424 537 M 424 538 L S
231 175 M 231 176 L S
764 702 M 764 703 L S
110 218 M 110 219 L S
748 430 M 748 431 L S
400 229 M 400 230 L S
400 229 M 400 230 L S
957 713 M 957 714 L S
238 394 M 238 395 L S
400 229 M 400 230 L S
573 618 M 573 619 L S
148 164 M 148 165 L S
902 570 M 902 571 L S
573 618 M 573 619 L S
602 337 M 602 338 L S
869 733 M 869 734 L S
125 264 M 125 265 L S
372 493 M 372 494 L S
372 493 M 372 494 L S
280 178 M 280 179 L S
968 681 M 968 682 L S
372 493 M 372 494 L S
788 471 M 788 472 L S
701 684 M 701 685 L S
112 179 M 112 180 L S
212 357 M 212 358 L S
212 357 M 212 358 L S
474 258 M 474 259 L S
928 735 M 928 736 L S
212 357 M 212 358 L S
913 600 M 913 601 L S
492 578 M 492 579 L S
201 159 M 201 160 L S
130 244 M 130 245 L S
130 244 M 130 245 L S
684 384 M 684 385 L S
794 720 M 794 721 L S
130 244 M 130 245 L S
947 692 M 947 693 L S
295 440 M 295 441 L S
372 209 M 372 210 L S
147 179 M 147 180 L S
147 179 M 147 180 L S
857 526 M 857 527 L S
598 638 M 598 639 L S
147 179 M 147 180 L S
881 724 M 881 725 L S
156 304 M 156 305 L S
582 317 M 582 318 L S
258 180 M 258 181 L S
258 180 M 258 181 L S
953 648 M 953 649 L S
386 511 M 386 512 L S
258 180 M 258 181 L S
731 690 M 731 691 L S
109 203 M 109 204 L S
782 456 M 782 457 L S
437 246 M 437 247 L S
437 246 M 437 247 L S
948 722 M 948 723 L S
211 368 M 211 369 L S
437 246 M 437 247 L S
535 597 M 535 598 L S
166 161 M 166 162 L S
921 594 M 921 595 L S
535 597 M 535 598 L S
639 360 M 639 361 L S
843 729 M 843 730 L S
115 245 M 115 246 L S
338 468 M 338 469 L S
338 468 M 338 469 L S
313 189 M 313 190 L S
968 696 M 968 697 L S
338 468 M 338 469 L S
817 496 M 817 497 L S
663 668 M 663 669 L S
121 171 M 121 172 L S
190 334 M 190 335 L S
190 334 M 190 335 L S
514 279 M 514 280 L S
910 737 M 910 738 L S
190 334 M 190 335 L S
927 620 M 927 621 L S
453 554 M 453 555 L S
228 164 M 228 165 L S
126 227 M 126 228 L S
126 227 M 126 228 L S
720 411 M 720 412 L S
761 709 M 761 710 L S
126 227 M 126 228 L S
942 702 M 942 703 L S
264 414 M 264 415 L S
409 226 M 409 227 L S
161 174 M 161 175 L S
161 174 M 161 175 L S
882 551 M 882 552 L S
558 617 M 558 618 L S
161 174 M 161 175 L S
858 723 M 858 724 L S
140 282 M 140 283 L S
622 342 M 622 343 L S
287 188 M 287 189 L S
287 188 M 287 189 L S
960 666 M 960 667 L S
349 484 M 349 485 L S
287 188 M 287 189 L S
697 676 M 697 677 L S
112 190 M 112 191 L S
813 483 M 813 484 L S
474 264 M 474 265 L S
474 264 M 474 265 L S
935 728 M 935 729 L S
187 343 M 187 344 L S
474 264 M 474 265 L S
497 575 M 497 576 L S
188 161 M 188 162 L S
938 616 M 938 617 L S
497 575 M 497 576 L S
676 385 M 676 386 L S
814 722 M 814 723 L S
108 227 M 108 228 L S
306 442 M 306 443 L S
306 442 M 306 443 L S
348 202 M 348 203 L S
965 708 M 965 709 L S
306 442 M 306 443 L S
843 521 M 843 522 L S
625 650 M 625 651 L S
134 164 M 134 165 L S
171 311 M 171 312 L S
171 311 M 171 312 L S
553 302 M 553 303 L S
888 737 M 888 738 L S
171 311 M 171 312 L S
937 639 M 937 640 L S
415 529 M 415 530 L S
257 170 M 257 171 L S
125 213 M 125 214 L S
125 213 M 125 214 L S
754 437 M 754 438 L S
726 696 M 726 697 L S
125 213 M 125 214 L S
933 711 M 933 712 L S
235 388 M 235 389 L S
448 244 M 448 245 L S
179 172 M 179 173 L S
179 172 M 179 173 L S
903 575 M 903 576 L S
518 594 M 518 595 L S
179 172 M 179 173 L S
833 719 M 833 720 L S
127 261 M 127 262 L S
660 367 M 660 368 L S
319 198 M 319 199 L S
319 198 M 319 199 L S
963 682 M 963 683 L S
314 458 M 314 459 L S
319 198 M 319 199 L S
661 661 M 661 662 L S
119 180 M 119 181 L S
842 510 M 842 511 L S
512 284 M 512 285 L S
512 284 M 512 285 L S
919 732 M 919 733 L S
165 318 M 165 319 L S
459 551 M 459 552 L S
459 551 M 459 552 L S
212 164 M 212 165 L S
950 637 M 950 638 L S
459 551 M 459 552 L S
711 410 M 711 411 L S
782 714 M 782 715 L S
106 210 M 106 211 L S
276 417 M 276 418 L S
276 417 M 276 418 L S
384 216 M 384 217 L S
957 719 M 957 720 L S
276 417 M 276 418 L S
867 545 M 867 546 L S
586 630 M 586 631 L S
151 160 M 151 161 L S
156 290 M 156 291 L S
156 290 M 156 291 L S
592 325 M 592 326 L S
863 734 M 863 735 L S
156 290 M 156 291 L S
943 657 M 943 658 L S
378 503 M 378 504 L S
289 180 M 289 181 L S
128 201 M 128 202 L S
128 201 M 128 202 L S
787 463 M 787 464 L S
689 681 M 689 682 L S
128 201 M 128 202 L S
921 717 M 921 718 L S
208 362 M 208 363 L S
488 264 M 488 265 L S
199 172 M 199 173 L S
199 172 M 199 173 L S
921 598 M 921 599 L S
478 571 M 478 572 L S
199 172 M 199 173 L S
805 713 M 805 714 L S
118 242 M 118 243 L S
698 393 M 698 394 L S
352 210 M 352 211 L S
352 210 M 352 211 L S
962 696 M 962 697 L S
281 431 M 281 432 L S
352 210 M 352 211 L S
624 644 M 624 645 L S
130 172 M 130 173 L S
869 535 M 869 536 L S
550 306 M 550 307 L S
550 306 M 550 307 L S
899 734 M 899 735 L S
147 295 M 147 296 L S
422 527 M 422 528 L S
422 527 M 422 528 L S
239 169 M 239 170 L S
959 656 M 959 657 L S
422 527 M 422 528 L S
744 436 M 744 437 L S
749 702 M 749 703 L S
106 196 M 106 197 L S
248 392 M 248 393 L S
248 392 M 248 393 L S
421 233 M 421 234 L S
947 727 M 947 728 L S
248 392 M 248 393 L S
888 569 M 888 570 L S
547 609 M 547 610 L S
170 159 M 170 160 L S
143 270 M 143 271 L S
143 270 M 143 271 L S
631 350 M 631 351 L S
835 729 M 835 730 L S
143 270 M 143 271 L S
946 672 M 946 673 L S
342 477 M 342 478 L S
323 191 M 323 192 L S
134 191 M 134 192 L S
134 191 M 134 192 L S
818 490 M 818 491 L S
651 664 M 651 665 L S
134 191 M 134 192 L S
906 721 M 906 722 L S
185 337 M 185 338 L S
528 286 M 528 287 L S
223 174 M 223 175 L S
223 174 M 223 175 L S
936 620 M 936 621 L S
439 546 M 439 547 L S
223 174 M 223 175 L S
775 704 M 775 705 L S
113 225 M 113 226 L S
734 420 M 734 421 L S
387 224 M 387 225 L S
387 224 M 387 225 L S
958 708 M 958 709 L S
251 404 M 251 405 L S
387 224 M 387 225 L S
587 625 M 587 626 L S
143 166 M 143 167 L S
892 560 M 892 561 L S
587 625 M 587 626 L S
588 328 M 588 329 L S
877 733 M 877 734 L S
132 273 M 132 274 L S
386 503 M 386 504 L S
386 503 M 386 504 L S
269 176 M 269 177 L S
965 674 M 965 675 L S
386 503 M 386 504 L S
776 461 M 776 462 L S
714 689 M 714 690 L S
111 184 M 111 185 L S
222 367 M 222 368 L S
222 367 M 222 368 L S
460 252 M 460 253 L S
933 732 M 933 733 L S
222 367 M 222 368 L S
906 591 M 906 592 L S
507 586 M 507 587 L S
193 160 M 193 161 L S
134 251 M 134 252 L S
134 251 M 134 252 L S
669 375 M 669 376 L S
805 722 M 805 723 L S
134 251 M 134 252 L S
946 686 M 946 687 L S
308 450 M 308 451 L S
359 205 M 359 206 L S
144 183 M 144 184 L S
144 183 M 144 184 L S
846 516 M 846 517 L S
612 645 M 612 646 L S
144 183 M 144 184 L S
887 723 M 887 724 L S
164 313 M 164 314 L S
567 309 M 567 310 L S
249 179 M 249 180 L S
249 179 M 249 180 L S
948 640 M 948 641 L S
401 520 M 401 521 L S
249 179 M 249 180 L S
743 694 M 743 695 L S
111 209 M 111 210 L S
768 446 M 768 447 L S
423 240 M 423 241 L S
423 240 M 423 241 L S
950 718 M 950 719 L S
222 378 M 222 379 L S
423 240 M 423 241 L S
549 604 M 549 605 L S
161 163 M 161 164 L S
913 584 M 913 585 L S
549 604 M 549 605 L S
625 352 M 625 353 L S
851 730 M 851 731 L S
120 253 M 120 254 L S
352 477 M 352 478 L S
352 477 M 352 478 L S
301 186 M 301 187 L S
966 689 M 966 690 L S
352 477 M 352 478 L S
805 486 M 805 487 L S
677 673 M 677 674 L S
119 175 M 119 176 L S
200 343 M 200 344 L S
200 343 M 200 344 L S
499 272 M 499 273 L S
915 735 M 915 736 L S
200 343 M 200 344 L S
920 612 M 920 613 L S
468 562 M 468 563 L S
219 163 M 219 164 L S
129 234 M 129 235 L S
129 234 M 129 235 L S
706 401 M 706 402 L S
772 712 M 772 713 L S
129 234 M 129 235 L S
942 697 M 942 698 L S
276 424 M 276 425 L S
396 220 M 396 221 L S
157 177 M 157 178 L S
157 177 M 157 178 L S
871 541 M 871 542 L S
572 624 M 572 625 L S
157 177 M 157 178 L S
866 722 M 866 723 L S
147 291 M 147 292 L S
607 333 M 607 334 L S
277 186 M 277 187 L S
277 186 M 277 187 L S
956 659 M 956 660 L S
364 494 M 364 495 L S
277 186 M 277 187 L S
709 681 M 709 682 L S
113 196 M 113 197 L S
801 473 M 801 474 L S
460 258 M 460 259 L S
460 258 M 460 259 L S
938 725 M 938 726 L S
197 352 M 197 353 L S
460 258 M 460 259 L S
511 583 M 511 584 L S
181 162 M 181 163 L S
930 607 M 930 608 L S
511 583 M 511 584 L S
661 376 M 661 377 L S
823 724 M 823 725 L S
112 234 M 112 235 L S
319 452 M 319 453 L S
319 452 M 319 453 L S
335 198 M 335 199 L S
964 703 M 964 704 L S
319 452 M 319 453 L S
832 511 M 832 512 L S
639 656 M 639 657 L S
131 167 M 131 168 L S
180 320 M 180 321 L S
180 320 M 180 321 L S
538 294 M 538 295 L S
895 736 M 895 737 L S
180 320 M 180 321 L S
932 631 M 932 632 L S
430 538 M 430 539 L S
248 169 M 248 170 L S
127 219 M 127 220 L S
127 219 M 127 220 L S
741 427 M 741 428 L S
738 700 M 738 701 L S
127 219 M 127 220 L S
935 707 M 935 708 L S
246 398 M 246 399 L S
434 238 M 434 239 L S
173 174 M 173 175 L S
173 174 M 173 175 L S
894 566 M 894 567 L S
532 602 M 532 603 L S
173 174 M 173 175 L S
842 719 M 842 720 L S
133 270 M 133 271 L S
646 358 M 646 359 L S
308 195 M 308 196 L S
308 195 M 308 196 L S
960 675 M 960 676 L S
328 467 M 328 468 L S
308 195 M 308 196 L S
674 666 M 674 667 L S
118 185 M 118 186 L S
831 500 M 831 501 L S
498 277 M 498 278 L S
498 277 M 498 278 L S
923 730 M 923 731 L S
174 328 M 174 329 L S
474 560 M 474 561 L S
474 560 M 474 561 L S
204 164 M 204 165 L S
944 629 M 944 630 L S
474 560 M 474 561 L S
697 401 M 697 402 L S
793 716 M 793 717 L S
108 217 M 108 218 L S
288 427 M 288 428 L S
288 427 M 288 428 L S
371 212 M 371 213 L S
959 714 M 959 715 L S
288 427 M 288 428 L S
857 536 M 857 537 L S
600 637 M 600 638 L S
146 163 M 146 164 L S
163 298 M 163 299 L S
163 298 M 163 299 L S
578 317 M 578 318 L S
871 734 M 871 735 L S
163 298 M 163 299 L S
939 649 M 939 650 L S
392 512 M 392 513 L S
278 177 M 278 178 L S
128 206 M 128 207 L S
128 206 M 128 207 L S
774 454 M 774 455 L S
702 686 M 702 687 L S
128 206 M 128 207 L S
924 714 M 924 715 L S
219 372 M 219 373 L S
473 257 M 473 258 L S
193 173 M 193 174 L S
193 173 M 193 174 L S
913 589 M 913 590 L S
493 579 M 493 580 L S
193 173 M 193 174 L S
815 714 M 815 715 L S
123 250 M 123 251 L S
684 384 M 684 385 L S
340 206 M 340 207 L S
340 206 M 340 207 L S
961 690 M 961 691 L S
294 441 M 294 442 L S
340 206 M 340 207 L S
638 650 M 638 651 L S
127 176 M 127 177 L S
858 526 M 858 527 L S
535 298 M 535 299 L S
535 298 M 535 299 L S
905 732 M 905 733 L S
155 304 M 155 305 L S
436 536 M 436 537 L S
436 536 M 436 537 L S
230 168 M 230 169 L S
954 649 M 954 650 L S
436 536 M 436 537 L S
731 426 M 731 427 L S
760 706 M 760 707 L S
108 202 M 108 203 L S
259 401 M 259 402 L S
259 401 M 259 402 L S
408 228 M 408 229 L S
949 723 M 949 724 L S
259 401 M 259 402 L S
879 559 M 879 560 L S
561 616 M 561 617 L S
164 160 M 164 161 L S
149 278 M 149 279 L S
149 278 M 149 279 L S
617 341 M 617 342 L S
844 730 M 844 731 L S
149 278 M 149 279 L S
944 666 M 944 667 L S
356 486 M 356 487 L S
312 188 M 312 189 L S
133 195 M 133 196 L S
133 195 M 133 196 L S
806 480 M 806 481 L S
664 669 M 664 670 L S
133 195 M 133 196 L S
910 719 M 910 720 L S
195 347 M 195 348 L S
513 278 M 513 279 L S
215 174 M 215 175 L S
215 174 M 215 175 L S
929 611 M 929 612 L S
453 554 M 453 555 L S
215 174 M 215 175 L S
786 707 M 786 708 L S
116 232 M 116 233 L S
720 410 M 720 411 L S
374 220 M 374 221 L S
374 220 M 374 221 L S
958 703 M 958 704 L S
263 414 M 263 415 L S
374 220 M 374 221 L S
601 631 M 601 632 L S
140 169 M 140 170 L S
883 551 M 883 552 L S
573 320 M 573 321 L S
573 320 M 573 321 L S
884 732 M 884 733 L S
138 282 M 138 283 L S
400 512 M 400 513 L S
400 512 M 400 513 L S
259 174 M 259 175 L S
961 667 M 961 668 L S
400 512 M 400 513 L S
763 451 M 763 452 L S
726 693 M 726 694 L S
111 190 M 111 191 L S
233 377 M 233 378 L S
233 377 M 233 378 L S
446 246 M 446 247 L S
937 729 M 937 730 L S
233 377 M 233 378 L S
898 582 M 898 583 L S
522 594 M 522 595 L S
186 160 M 186 161 L S
139 259 M 139 260 L S
139 259 M 139 260 L S
655 366 M 655 367 L S
815 724 M 815 725 L S
139 259 M 139 260 L S
945 680 M 945 681 L S
321 460 M 321 461 L S
347 201 M 347 202 L S
142 187 M 142 188 L S
142 187 M 142 188 L S
835 506 M 835 507 L S
626 651 M 626 652 L S
142 187 M 142 188 L S
893 722 M 893 723 L S
173 323 M 173 324 L S
553 301 M 553 302 L S
240 178 M 240 179 L S
240 178 M 240 179 L S
942 632 M 942 633 L S
415 529 M 415 530 L S
240 178 M 240 179 L S
754 697 M 754 698 L S
113 216 M 113 217 L S
755 437 M 755 438 L S
410 235 M 410 236 L S
410 235 M 410 236 L S
951 713 M 951 714 L S
234 388 M 234 389 L S
410 235 M 410 236 L S
563 612 M 563 613 L S
156 165 M 156 166 L S
904 575 M 904 576 L S
563 612 M 563 613 L S
611 343 M 611 344 L S
860 730 M 860 731 L S
126 261 M 126 262 L S
365 487 M 365 488 L S
365 487 M 365 488 L S
290 183 M 290 184 L S
964 683 M 964 684 L S
365 487 M 365 488 L S
793 477 M 793 478 L S
690 678 M 690 679 L S
118 179 M 118 180 L S
209 352 M 209 353 L S
209 352 M 209 353 L S
485 265 M 485 266 L S
920 733 M 920 734 L S
209 352 M 209 353 L S
914 603 M 914 604 L S
483 571 M 483 572 L S
211 163 M 211 164 L S
132 241 M 132 242 L S
132 241 M 132 242 L S
692 392 M 692 393 L S
783 715 M 783 716 L S
132 241 M 132 242 L S
942 692 M 942 693 L S
289 433 M 289 434 L S
383 215 M 383 216 L S
153 180 M 153 181 L S
153 180 M 153 181 L S
861 532 M 861 533 L S
586 631 M 586 632 L S
153 180 M 153 181 L S
873 722 M 873 723 L S
155 300 M 155 301 L S
592 325 M 592 326 L S
267 184 M 267 185 L S
267 184 M 267 185 L S
951 651 M 951 652 L S
377 503 M 377 504 L S
267 184 M 267 185 L S
721 685 M 721 686 L S
113 202 M 113 203 L S
788 463 M 788 464 L S
447 252 M 447 253 L S
447 252 M 447 253 L S
941 721 M 941 722 L S
207 362 M 207 363 L S
447 252 M 447 253 L S
525 590 M 525 591 L S
175 164 M 175 165 L S
923 599 M 923 600 L S
525 590 M 525 591 L S
647 367 M 647 368 L S
833 725 M 833 726 L S
117 241 M 117 242 L S
332 461 M 332 462 L S
332 461 M 332 462 L S
324 194 M 324 195 L S
964 697 M 964 698 L S
332 461 M 332 462 L S
821 502 M 821 503 L S
652 662 M 652 663 L S
128 171 M 128 172 L S
188 329 M 188 330 L S
188 329 M 188 330 L S
524 286 M 524 287 L S
901 735 M 901 736 L S
188 329 M 188 330 L S
926 624 M 926 625 L S
444 546 M 444 547 L S
238 168 M 238 169 L S
129 226 M 129 227 L S
129 226 M 129 227 L S
727 418 M 727 419 L S
750 703 M 750 704 L S
129 226 M 129 227 L S
936 702 M 936 703 L S
258 407 M 258 408 L S
421 232 M 421 233 L S
168 176 M 168 177 L S
168 176 M 168 177 L S
884 556 M 884 557 L S
547 610 M 547 611 L S
168 176 M 168 177 L S
850 720 M 850 721 L S
140 278 M 140 279 L S
631 349 M 631 350 L S
297 192 M 297 193 L S
297 192 M 297 193 L S
957 668 M 957 669 L S
341 477 M 341 478 L S
297 192 M 297 193 L S
687 671 M 687 672 L S
118 190 M 118 191 L S
819 490 M 819 491 L S
484 271 M 484 272 L S
484 271 M 484 272 L S
927 727 M 927 728 L S
183 337 M 183 338 L S
484 271 M 484 272 L S
488 568 M 488 569 L S
197 164 M 197 165 L S
938 620 M 938 621 L S
488 568 M 488 569 L S
683 392 M 683 393 L S
803 718 M 803 719 L S
111 224 M 111 225 L S
300 436 M 300 437 L S
300 436 M 300 437 L S
359 208 M 359 209 L S
959 709 M 959 710 L S
300 436 M 300 437 L S
847 526 M 847 527 L S
614 643 M 614 644 L S
142 165 M 142 166 L S
170 307 M 170 308 L S
170 307 M 170 308 L S
563 309 M 563 310 L S
878 734 M 878 735 L S
170 307 M 170 308 L S
935 642 M 935 643 L S
406 521 M 406 522 L S
268 175 M 268 176 L S
129 212 M 129 213 L S
129 212 M 129 213 L S
761 444 M 761 445 L S
714 690 M 714 691 L S
129 212 M 129 213 L S
927 710 M 927 711 L S
230 381 M 230 382 L S
460 251 M 460 252 L S
187 174 M 187 175 L S
187 174 M 187 175 L S
905 580 M 905 581 L S
507 587 M 507 588 L S
187 174 M 187 175 L S
824 715 M 824 716 L S
128 258 M 128 259 L S
670 375 M 670 376 L S
329 203 M 329 204 L S
329 203 M 329 204 L S
959 684 M 959 685 L S
307 450 M 307 451 L S
329 203 M 329 204 L S
651 655 M 651 656 L S
125 180 M 125 181 L S
847 516 M 847 517 L S
521 291 M 521 292 L S
521 291 M 521 292 L S
911 730 M 911 731 L S
163 313 M 163 314 L S
451 545 M 451 546 L S
451 545 M 451 546 L S
222 167 M 222 168 L S
949 641 M 949 642 L S
451 545 M 451 546 L S
718 417 M 718 418 L S
771 708 M 771 709 L S
109 208 M 109 209 L S
271 411 M 271 412 L S
271 411 M 271 412 L S
395 223 M 395 224 L S
951 719 M 951 720 L S
271 411 M 271 412 L S
870 550 M 870 551 L S
575 623 M 575 624 L S
159 162 M 159 163 L S
156 286 M 156 287 L S
156 286 M 156 287 L S
602 333 M 602 334 L S
853 731 M 853 732 L S
156 286 M 156 287 L S
941 659 M 941 660 L S
370 495 M 370 496 L S
301 185 M 301 186 L S
133 200 M 133 201 L S
133 200 M 133 201 L S
794 470 M 794 471 L S
677 674 M 677 675 L S
133 200 M 133 201 L S
914 716 M 914 717 L S
205 356 M 205 357 L S
499 272 M 499 273 L S
208 175 M 208 176 L S
208 175 M 208 176 L S
922 603 M 922 604 L S
468 563 M 468 564 L S
208 175 M 208 176 L S
796 708 M 796 709 L S
120 239 M 120 240 L S
707 401 M 707 402 L S
362 215 M 362 216 L S
362 215 M 362 216 L S
957 697 M 957 698 L S
275 423 M 275 424 L S
362 215 M 362 216 L S
614 637 M 614 638 L S
136 173 M 136 174 L S
873 542 M 873 543 L S
559 312 M 559 313 L S
559 312 M 559 313 L S
890 731 M 890 732 L S
146 290 M 146 291 L S
414 521 M 414 522 L S
414 521 M 414 522 L S
250 173 M 250 174 L S
957 660 M 957 661 L S
414 521 M 414 522 L S
750 442 M 750 443 L S
738 697 M 738 698 L S
111 195 M 111 196 L S
244 386 M 244 387 L S
244 386 M 244 387 L S
433 240 M 433 241 L S
940 726 M 940 727 L S
244 386 M 244 387 L S
890 573 M 890 574 L S
536 602 M 536 603 L S
180 161 M 180 162 L S
144 266 M 144 267 L S
144 266 M 144 267 L S
641 357 M 641 358 L S
824 725 M 824 726 L S
144 266 M 144 267 L S
943 674 M 943 675 L S
334 469 M 334 470 L S
335 197 M 335 198 L S
140 191 M 140 192 L S
140 191 M 140 192 L S
823 497 M 823 498 L S
639 657 M 639 658 L S
140 191 M 140 192 L S
898 720 M 898 721 L S
182 332 M 182 333 L S
539 293 M 539 294 L S
232 178 M 232 179 L S
232 178 M 232 179 L S
936 624 M 936 625 L S
429 538 M 429 539 L S
232 178 M 232 179 L S
765 700 M 765 701 L S
116 222 M 116 223 L S
742 427 M 742 428 L S
397 230 M 397 231 L S
397 230 M 397 231 L S
952 709 M 952 710 L S
245 397 M 245 398 L S
397 230 M 397 231 L S
577 618 M 577 619 L S
151 168 M 151 169 L S
895 566 M 895 567 L S
577 618 M 577 619 L S
597 335 M 597 336 L S
867 730 M 867 731 L S
132 269 M 132 270 L S
379 496 M 379 497 L S
379 496 M 379 497 L S
280 181 M 280 182 L S
962 676 M 962 677 L S
379 496 M 379 497 L S
781 467 M 781 468 L S
702 683 M 702 684 L S
117 184 M 117 185 L S
219 362 M 219 363 L S
219 362 M 219 363 L S
471 259 M 471 260 L S
925 731 M 925 732 L S
219 362 M 219 363 L S
906 595 M 906 596 L S
497 579 M 497 580 L S
203 163 M 203 164 L S
136 248 M 136 249 L S
136 248 M 136 249 L S
678 383 M 678 384 L S
794 717 M 794 718 L S
136 248 M 136 249 L S
942 687 M 942 688 L S
301 443 M 301 444 L S
371 211 M 371 212 L S
150 184 M 150 185 L S
150 184 M 150 185 L S
850 522 M 850 523 L S
600 638 M 600 639 L S
150 184 M 150 185 L S
879 721 M 879 722 L S
163 308 M 163 309 L S
578 317 M 578 318 L S
258 183 M 258 184 L S
258 183 M 258 184 L S
947 644 M 947 645 L S
391 512 M 391 513 L S
258 183 M 258 184 L S
733 688 M 733 689 L S
115 208 M 115 209 L S
776 454 M 776 455 L S
433 246 M 433 247 L S
433 246 M 433 247 L S
943 717 M 943 718 L S
218 371 M 218 372 L S
433 246 M 433 247 L S
539 598 M 539 599 L S
169 165 M 169 166 L S
915 590 M 915 591 L S
539 598 M 539 599 L S
634 359 M 634 360 L S
841 726 M 841 727 L S
121 249 M 121 250 L S
345 471 M 345 472 L S
345 471 M 345 472 L S
313 191 M 313 192 L S
962 691 M 962 692 L S
345 471 M 345 472 L S
810 493 M 810 494 L S
665 667 M 665 668 L S
126 175 M 126 176 L S
197 338 M 197 339 L S
197 338 M 197 339 L S
510 280 M 510 281 L S
906 733 M 906 734 L S
197 338 M 197 339 L S
920 616 M 920 617 L S
458 555 M 458 556 L S
230 167 M 230 168 L S
132 232 M 132 233 L S
132 232 M 132 233 L S
714 409 M 714 410 L S
761 706 M 761 707 L S
132 232 M 132 233 L S
937 698 M 937 699 L S
270 417 M 270 418 L S
408 227 M 408 228 L S
164 178 M 164 179 L S
164 178 M 164 179 L S
875 547 M 875 548 L S
561 617 M 561 618 L S
164 178 M 164 179 L S
857 720 M 857 721 L S
146 286 M 146 287 L S
617 341 M 617 342 L S
287 190 M 287 191 L S
287 190 M 287 191 L S
954 662 M 954 663 L S
355 486 M 355 487 L S
287 190 M 287 191 L S
699 675 M 699 676 L S
117 195 M 117 196 L S
807 481 M 807 482 L S
470 264 M 470 265 L S
470 264 M 470 265 L S
931 724 M 931 725 L S
193 346 M 193 347 L S
470 264 M 470 265 L S
502 576 M 502 577 L S
190 165 M 190 166 L S
931 612 M 931 613 L S
502 576 M 502 577 L S
670 383 M 670 384 L S
813 720 M 813 721 L S
114 231 M 114 232 L S
313 445 M 313 446 L S
313 445 M 313 446 L S
347 204 M 347 205 L S
959 704 M 959 705 L S
313 445 M 313 446 L S
836 517 M 836 518 L S
627 649 M 627 650 L S
138 168 M 138 169 L S
178 315 M 178 316 L S
178 315 M 178 316 L S
549 301 M 549 302 L S
885 733 M 885 734 L S
178 315 M 178 316 L S
931 635 M 931 636 L S
420 530 M 420 531 L S
259 173 M 259 174 L S
130 218 M 130 219 L S
130 218 M 130 219 L S
749 435 M 749 436 L S
726 694 M 726 695 L S
130 218 M 130 219 L S
929 707 M 929 708 L S
241 391 M 241 392 L S
446 245 M 446 246 L S
181 176 M 181 177 L S
181 176 M 181 177 L S
896 571 M 896 572 L S
521 594 M 521 595 L S
181 176 M 181 177 L S
832 716 M 832 717 L S
134 265 M 134 266 L S
656 366 M 656 367 L S
318 200 M 318 201 L S
318 200 M 318 201 L S
957 678 M 957 679 L S
320 459 M 320 460 L S
318 200 M 318 201 L S
664 660 M 664 661 L S
124 184 M 124 185 L S
836 507 M 836 508 L S
508 284 M 508 285 L S
508 284 M 508 285 L S
915 728 M 915 729 L S
171 322 M 171 323 L S
464 553 M 464 554 L S
464 553 M 464 554 L S
214 167 M 214 168 L S
944 633 M 944 634 L S
464 553 M 464 554 L S
704 408 M 704 409 L S
782 711 M 782 712 L S
111 215 M 111 216 L S
283 420 M 283 421 L S
283 420 M 283 421 L S
383 218 M 383 219 L S
953 714 M 953 715 L S
283 420 M 283 421 L S
860 541 M 860 542 L S
589 630 M 589 631 L S
154 164 M 154 165 L S
162 294 M 162 295 L S
162 294 M 162 295 L S
588 325 M 588 326 L S
860 731 M 860 732 L S
162 294 M 162 295 L S
937 652 M 937 653 L S
383 504 M 383 505 L S
290 182 M 290 183 L S
133 205 M 133 206 L S
133 205 M 133 206 L S
781 461 M 781 462 L S
690 679 M 690 680 L S
133 205 M 133 206 L S
917 713 M 917 714 L S
215 365 M 215 366 L S
485 265 M 485 266 L S
201 175 M 201 176 L S
201 175 M 201 176 L S
915 594 M 915 595 L S
482 571 M 482 572 L S
201 175 M 201 176 L S
805 710 M 805 711 L S
124 246 M 124 247 L S
693 392 M 693 393 L S
351 212 M 351 213 L S
351 212 M 351 213 L S
957 692 M 957 693 L S
287 433 M 287 434 L S
351 212 M 351 213 L S
627 643 M 627 644 L S
134 176 M 134 177 L S
863 532 M 863 533 L S
545 305 M 545 306 L S
545 305 M 545 306 L S
896 730 M 896 731 L S
153 299 M 153 300 L S
428 529 M 428 530 L S
428 529 M 428 530 L S
241 172 M 241 173 L S
953 652 M 953 653 L S
428 529 M 428 530 L S
738 433 M 738 434 L S
749 700 M 749 701 L S
112 200 M 112 201 L S
255 395 M 255 396 L S
255 395 M 255 396 L S
420 235 M 420 236 L S
942 723 M 942 724 L S
255 395 M 255 396 L S
881 564 M 881 565 L S
550 609 M 550 610 L S
174 162 M 174 163 L S
150 274 M 150 275 L S
150 274 M 150 275 L S
627 349 M 627 350 L S
833 726 M 833 727 L S
150 274 M 150 275 L S
941 668 M 941 669 L S
348 478 M 348 479 L S
323 193 M 323 194 L S
139 195 M 139 196 L S
139 195 M 139 196 L S
812 487 M 812 488 L S
652 662 M 652 663 L S
139 195 M 139 196 L S
903 718 M 903 719 L S
191 341 M 191 342 L S
525 286 M 525 287 L S
224 177 M 224 178 L S
224 177 M 224 178 L S
930 616 M 930 617 L S
443 546 M 443 547 L S
224 177 M 224 178 L S
775 702 M 775 703 L S
119 229 M 119 230 L S
729 418 M 729 419 L S
385 225 M 385 226 L S
385 225 M 385 226 L S
953 704 M 953 705 L S
256 407 M 256 408 L S
385 225 M 385 226 L S
590 625 M 590 626 L S
147 170 M 147 171 L S
886 557 M 886 558 L S
192 176 M 192 177 L S
192 176 M 192 177 L S
906 584 M 906 585 L S
499 581 M 499 582 L S
499 581 M 499 582 L S
/Courier-Bold findfont 27 scalefont setfont
101 764 M (Zgoubi|Zpop                                                                     ) H
101 743 M (11-04-2021                                                                      ) H
/Courier-Bold findfont 26 scalefont setfont
160 85 M (* # COORDINATES  - STORAGE FILE, 11-04-2021 12:57:02 *                                                                            ) H
293 755 M (  Z'    (rad) vs.    Z     (m)                                                                                                    ) H
26 42 M (Mi-ma H/V:  -2.59593E-03  2.60398E-03/ -4.93094E-04  4.93951E-04                                                                  ) H
26 21 M (Part#  1-     3 (*); Lmnt#     1; pass#   18800-  20000, [    1];   1203 pnts                                                     ) H
[] 0 D
835 616 M 835 616 L S
835 616 M 835 616 L S
835 616 M 835 618 L S
835 618 M 835 619 L S
835 619 M 835 621 L S
835 621 M 834 623 L S
834 623 M 834 624 L S
834 624 M 834 626 L S
834 626 M 833 627 L S
833 627 M 832 628 L S
832 628 M 832 630 L S
832 630 M 831 631 L S
831 631 M 830 632 L S
830 632 M 830 633 L S
830 633 M 829 635 L S
829 635 M 828 636 L S
828 636 M 827 637 L S
827 637 M 825 638 L S
825 638 M 824 639 L S
824 639 M 823 640 L S
823 640 M 822 641 L S
822 641 M 820 641 L S
820 641 M 819 642 L S
819 642 M 817 643 L S
817 643 M 816 644 L S
816 644 M 814 644 L S
814 644 M 812 645 L S
812 645 M 810 645 L S
810 645 M 808 646 L S
808 646 M 806 646 L S
806 646 M 804 647 L S
804 647 M 802 647 L S
802 647 M 800 647 L S
800 647 M 798 648 L S
798 648 M 796 648 L S
796 648 M 793 648 L S
793 648 M 791 648 L S
791 648 M 788 648 L S
788 648 M 786 648 L S
786 648 M 783 648 L S
783 648 M 781 648 L S
781 648 M 778 648 L S
778 648 M 775 648 L S
775 648 M 772 647 L S
772 647 M 769 647 L S
769 647 M 766 647 L S
766 647 M 763 646 L S
763 646 M 760 646 L S
760 646 M 757 646 L S
757 646 M 754 645 L S
754 645 M 751 644 L S
751 644 M 747 644 L S
747 644 M 744 643 L S
744 643 M 741 642 L S
741 642 M 737 642 L S
737 642 M 734 641 L S
734 641 M 730 640 L S
730 640 M 727 639 L S
727 639 M 723 638 L S
723 638 M 719 637 L S
719 637 M 716 636 L S
716 636 M 712 635 L S
712 635 M 708 634 L S
708 634 M 704 632 L S
704 632 M 700 631 L S
700 631 M 696 630 L S
696 630 M 692 629 L S
692 629 M 688 627 L S
688 627 M 684 626 L S
684 626 M 680 624 L S
680 624 M 676 623 L S
676 623 M 672 621 L S
672 621 M 668 620 L S
668 620 M 663 618 L S
663 618 M 659 616 L S
659 616 M 655 615 L S
655 615 M 651 613 L S
651 613 M 646 611 L S
646 611 M 642 609 L S
642 609 M 637 607 L S
637 607 M 633 605 L S
633 605 M 629 603 L S
629 603 M 624 601 L S
624 601 M 620 599 L S
620 599 M 615 597 L S
615 597 M 611 595 L S
611 595 M 606 593 L S
606 593 M 601 591 L S
601 591 M 597 589 L S
597 589 M 592 586 L S
592 586 M 588 584 L S
588 584 M 583 582 L S
583 582 M 578 579 L S
578 579 M 574 577 L S
574 577 M 569 575 L S
569 575 M 564 572 L S
564 572 M 560 570 L S
560 570 M 555 567 L S
555 567 M 550 565 L S
550 565 M 546 562 L S
546 562 M 541 559 L S
541 559 M 536 557 L S
536 557 M 532 554 L S
532 554 M 527 551 L S
527 551 M 522 549 L S
522 549 M 518 546 L S
518 546 M 513 543 L S
513 543 M 508 540 L S
508 540 M 504 538 L S
504 538 M 499 535 L S
499 535 M 494 532 L S
494 532 M 490 529 L S
490 529 M 485 526 L S
485 526 M 480 523 L S
480 523 M 476 520 L S
476 520 M 471 517 L S
471 517 M 467 514 L S
467 514 M 462 511 L S
462 511 M 458 508 L S
458 508 M 453 505 L S
453 505 M 449 502 L S
449 502 M 444 499 L S
444 499 M 440 496 L S
440 496 M 435 493 L S
435 493 M 431 490 L S
431 490 M 426 487 L S
426 487 M 422 484 L S
422 484 M 418 481 L S
418 481 M 413 478 L S
413 478 M 409 475 L S
409 475 M 405 472 L S
405 472 M 401 468 L S
401 468 M 397 465 L S
397 465 M 393 462 L S
393 462 M 388 459 L S
388 459 M 384 456 L S
384 456 M 380 453 L S
380 453 M 376 450 L S
376 450 M 372 446 L S
372 446 M 369 443 L S
369 443 M 365 440 L S
365 440 M 361 437 L S
361 437 M 357 434 L S
357 434 M 353 431 L S
353 431 M 350 428 L S
350 428 M 346 424 L S
346 424 M 342 421 L S
342 421 M 339 418 L S
339 418 M 335 415 L S
335 415 M 332 412 L S
332 412 M 329 409 L S
329 409 M 325 406 L S
325 406 M 322 403 L S
322 403 M 319 400 L S
319 400 M 316 397 L S
316 397 M 312 394 L S
312 394 M 309 391 L S
309 391 M 306 388 L S
306 388 M 303 385 L S
303 385 M 300 382 L S
300 382 M 298 379 L S
298 379 M 295 376 L S
295 376 M 292 373 L S
292 373 M 289 370 L S
289 370 M 287 367 L S
287 367 M 284 364 L S
284 364 M 282 361 L S
282 361 M 279 358 L S
279 358 M 277 356 L S
277 356 M 275 353 L S
275 353 M 272 350 L S
272 350 M 270 347 L S
270 347 M 268 345 L S
268 345 M 266 342 L S
266 342 M 264 339 L S
264 339 M 262 337 L S
262 337 M 261 334 L S
261 334 M 259 331 L S
259 331 M 257 329 L S
257 329 M 255 326 L S
255 326 M 254 324 L S
254 324 M 252 321 L S
252 321 M 251 319 L S
251 319 M 250 317 L S
250 317 M 248 314 L S
248 314 M 247 312 L S
247 312 M 246 310 L S
246 310 M 245 307 L S
245 307 M 244 305 L S
244 305 M 243 303 L S
243 303 M 242 301 L S
242 301 M 241 299 L S
241 299 M 241 297 L S
241 297 M 240 294 L S
240 294 M 240 292 L S
240 292 M 239 290 L S
239 290 M 239 289 L S
239 289 M 238 287 L S
238 287 M 238 285 L S
238 285 M 238 283 L S
238 283 M 238 281 L S
238 281 M 238 279 L S
238 279 M 238 278 L S
238 278 M 238 276 L S
238 276 M 238 275 L S
238 275 M 238 273 L S
238 273 M 239 271 L S
239 271 M 239 270 L S
239 270 M 240 269 L S
240 269 M 240 267 L S
240 267 M 241 266 L S
241 266 M 241 265 L S
241 265 M 242 263 L S
242 263 M 243 262 L S
243 262 M 244 261 L S
244 261 M 245 260 L S
245 260 M 246 259 L S
246 259 M 247 258 L S
247 258 M 248 257 L S
248 257 M 250 256 L S
250 256 M 251 255 L S
251 255 M 252 254 L S
252 254 M 254 253 L S
254 253 M 255 253 L S
255 253 M 257 252 L S
257 252 M 259 251 L S
259 251 M 261 251 L S
261 251 M 262 250 L S
262 250 M 264 250 L S
264 250 M 266 249 L S
266 249 M 268 249 L S
268 249 M 270 248 L S
270 248 M 272 248 L S
272 248 M 275 248 L S
275 248 M 277 248 L S
277 248 M 279 247 L S
279 247 M 282 247 L S
282 247 M 284 247 L S
284 247 M 287 247 L S
287 247 M 289 247 L S
289 247 M 292 247 L S
292 247 M 295 248 L S
295 248 M 298 248 L S
298 248 M 300 248 L S
300 248 M 303 248 L S
303 248 M 306 249 L S
306 249 M 309 249 L S
309 249 M 312 249 L S
312 249 M 316 250 L S
316 250 M 319 251 L S
319 251 M 322 251 L S
322 251 M 325 252 L S
325 252 M 329 252 L S
329 252 M 332 253 L S
332 253 M 335 254 L S
335 254 M 339 255 L S
339 255 M 342 256 L S
342 256 M 346 257 L S
346 257 M 350 258 L S
350 258 M 353 259 L S
353 259 M 357 260 L S
357 260 M 361 261 L S
361 261 M 365 262 L S
365 262 M 369 263 L S
369 263 M 372 264 L S
372 264 M 376 266 L S
376 266 M 380 267 L S
380 267 M 384 268 L S
384 268 M 388 270 L S
388 270 M 393 271 L S
393 271 M 397 273 L S
397 273 M 401 274 L S
401 274 M 405 276 L S
405 276 M 409 278 L S
409 278 M 413 279 L S
413 279 M 418 281 L S
418 281 M 422 283 L S
422 283 M 426 285 L S
426 285 M 431 286 L S
431 286 M 435 288 L S
435 288 M 440 290 L S
440 290 M 444 292 L S
444 292 M 449 294 L S
449 294 M 453 296 L S
453 296 M 458 298 L S
458 298 M 462 300 L S
462 300 M 467 303 L S
467 303 M 471 305 L S
471 305 M 476 307 L S
476 307 M 480 309 L S
480 309 M 485 311 L S
485 311 M 490 314 L S
490 314 M 494 316 L S
494 316 M 499 319 L S
499 319 M 504 321 L S
504 321 M 508 323 L S
508 323 M 513 326 L S
513 326 M 518 328 L S
518 328 M 522 331 L S
522 331 M 527 334 L S
527 334 M 532 336 L S
532 336 M 536 339 L S
536 339 M 541 341 L S
541 341 M 546 344 L S
546 344 M 550 347 L S
550 347 M 555 350 L S
555 350 M 560 352 L S
560 352 M 564 355 L S
564 355 M 569 358 L S
569 358 M 574 361 L S
574 361 M 578 364 L S
578 364 M 583 366 L S
583 366 M 588 369 L S
588 369 M 592 372 L S
592 372 M 597 375 L S
597 375 M 601 378 L S
601 378 M 606 381 L S
606 381 M 611 384 L S
611 384 M 615 387 L S
615 387 M 620 390 L S
620 390 M 624 393 L S
624 393 M 629 396 L S
629 396 M 633 399 L S
633 399 M 637 402 L S
637 402 M 642 405 L S
642 405 M 646 408 L S
646 408 M 651 411 L S
651 411 M 655 415 L S
655 415 M 659 418 L S
659 418 M 663 421 L S
663 421 M 668 424 L S
668 424 M 672 427 L S
672 427 M 676 430 L S
676 430 M 680 433 L S
680 433 M 684 436 L S
684 436 M 688 440 L S
688 440 M 692 443 L S
692 443 M 696 446 L S
696 446 M 700 449 L S
700 449 M 704 452 L S
704 452 M 708 455 L S
708 455 M 712 459 L S
712 459 M 716 462 L S
716 462 M 719 465 L S
719 465 M 723 468 L S
723 468 M 727 471 L S
727 471 M 730 474 L S
730 474 M 734 477 L S
734 477 M 737 480 L S
737 480 M 741 484 L S
741 484 M 744 487 L S
744 487 M 747 490 L S
747 490 M 751 493 L S
751 493 M 754 496 L S
754 496 M 757 499 L S
757 499 M 760 502 L S
760 502 M 763 505 L S
763 505 M 766 508 L S
766 508 M 769 511 L S
769 511 M 772 514 L S
772 514 M 775 517 L S
775 517 M 778 520 L S
778 520 M 781 523 L S
781 523 M 783 526 L S
783 526 M 786 529 L S
786 529 M 788 531 L S
788 531 M 791 534 L S
791 534 M 793 537 L S
793 537 M 796 540 L S
796 540 M 798 543 L S
798 543 M 800 545 L S
800 545 M 802 548 L S
802 548 M 804 551 L S
804 551 M 806 554 L S
806 554 M 808 556 L S
808 556 M 810 559 L S
810 559 M 812 562 L S
812 562 M 814 564 L S
814 564 M 816 567 L S
816 567 M 817 569 L S
817 569 M 819 572 L S
819 572 M 820 574 L S
820 574 M 822 577 L S
822 577 M 823 579 L S
823 579 M 824 581 L S
824 581 M 825 584 L S
825 584 M 827 586 L S
827 586 M 828 588 L S
828 588 M 829 590 L S
829 590 M 830 593 L S
830 593 M 830 595 L S
830 595 M 831 597 L S
831 597 M 832 599 L S
832 599 M 832 601 L S
832 601 M 833 603 L S
833 603 M 834 605 L S
834 605 M 834 607 L S
834 607 M 834 609 L S
834 609 M 835 611 L S
835 611 M 835 613 L S
835 613 M 835 614 L S
835 614 M 835 616 L S
26 63 M (Eps/pi, Beta, Alpha :   3.2857E-07  9.6894E+00 -1.5443E+00                      ) H
showpage
