%!PS-Adobe-2.0 EPSF-2.0
%%Title: gnuplot_Zplt_YZ.eps
%%Creator: gnuplot 5.2 patchlevel 2
%%CreationDate: Sat Mar 19 05:26:45 2022
%%DocumentFonts: (atend)
%%BoundingBox: 50 50 410 302
%%EndComments
%%BeginProlog
/gnudict 256 dict def
gnudict begin
%
% The following true/false flags may be edited by hand if desired.
% The unit line width and grayscale image gamma correction may also be changed.
%
/Color true def
/Blacktext false def
/Solid false def
/Dashlength 1 def
/Landscape false def
/Level1 false def
/Level3 false def
/Rounded false def
/ClipToBoundingBox false def
/SuppressPDFMark false def
/TransparentPatterns false def
/gnulinewidth 5.000 def
/userlinewidth gnulinewidth def
/Gamma 1.0 def
/BackgroundColor {-1.000 -1.000 -1.000} def
%
/vshift -46 def
/dl1 {
  10.0 Dashlength userlinewidth gnulinewidth div mul mul mul
  Rounded { currentlinewidth 0.75 mul sub dup 0 le { pop 0.01 } if } if
} def
/dl2 {
  10.0 Dashlength userlinewidth gnulinewidth div mul mul mul
  Rounded { currentlinewidth 0.75 mul add } if
} def
/hpt_ 31.5 def
/vpt_ 31.5 def
/hpt hpt_ def
/vpt vpt_ def
/doclip {
  ClipToBoundingBox {
    newpath 50 50 moveto 410 50 lineto 410 302 lineto 50 302 lineto closepath
    clip
  } if
} def
%
% Gnuplot Prolog Version 5.1 (Oct 2015)
%
%/SuppressPDFMark true def
%
/M {moveto} bind def
/L {lineto} bind def
/R {rmoveto} bind def
/V {rlineto} bind def
/N {newpath moveto} bind def
/Z {closepath} bind def
/C {setrgbcolor} bind def
/f {rlineto fill} bind def
/g {setgray} bind def
/Gshow {show} def   % May be redefined later in the file to support UTF-8
/vpt2 vpt 2 mul def
/hpt2 hpt 2 mul def
/Lshow {currentpoint stroke M 0 vshift R 
	Blacktext {gsave 0 setgray textshow grestore} {textshow} ifelse} def
/Rshow {currentpoint stroke M dup stringwidth pop neg vshift R
	Blacktext {gsave 0 setgray textshow grestore} {textshow} ifelse} def
/Cshow {currentpoint stroke M dup stringwidth pop -2 div vshift R 
	Blacktext {gsave 0 setgray textshow grestore} {textshow} ifelse} def
/UP {dup vpt_ mul /vpt exch def hpt_ mul /hpt exch def
  /hpt2 hpt 2 mul def /vpt2 vpt 2 mul def} def
/DL {Color {setrgbcolor Solid {pop []} if 0 setdash}
 {pop pop pop 0 setgray Solid {pop []} if 0 setdash} ifelse} def
/BL {stroke userlinewidth 2 mul setlinewidth
	Rounded {1 setlinejoin 1 setlinecap} if} def
/AL {stroke userlinewidth 2 div setlinewidth
	Rounded {1 setlinejoin 1 setlinecap} if} def
/UL {dup gnulinewidth mul /userlinewidth exch def
	dup 1 lt {pop 1} if 10 mul /udl exch def} def
/PL {stroke userlinewidth setlinewidth
	Rounded {1 setlinejoin 1 setlinecap} if} def
3.8 setmiterlimit
% Classic Line colors (version 5.0)
/LCw {1 1 1} def
/LCb {0 0 0} def
/LCa {0 0 0} def
/LC0 {1 0 0} def
/LC1 {0 1 0} def
/LC2 {0 0 1} def
/LC3 {1 0 1} def
/LC4 {0 1 1} def
/LC5 {1 1 0} def
/LC6 {0 0 0} def
/LC7 {1 0.3 0} def
/LC8 {0.5 0.5 0.5} def
% Default dash patterns (version 5.0)
/LTB {BL [] LCb DL} def
/LTw {PL [] 1 setgray} def
/LTb {PL [] LCb DL} def
/LTa {AL [1 udl mul 2 udl mul] 0 setdash LCa setrgbcolor} def
/LT0 {PL [] LC0 DL} def
/LT1 {PL [2 dl1 3 dl2] LC1 DL} def
/LT2 {PL [1 dl1 1.5 dl2] LC2 DL} def
/LT3 {PL [6 dl1 2 dl2 1 dl1 2 dl2] LC3 DL} def
/LT4 {PL [1 dl1 2 dl2 6 dl1 2 dl2 1 dl1 2 dl2] LC4 DL} def
/LT5 {PL [4 dl1 2 dl2] LC5 DL} def
/LT6 {PL [1.5 dl1 1.5 dl2 1.5 dl1 1.5 dl2 1.5 dl1 6 dl2] LC6 DL} def
/LT7 {PL [3 dl1 3 dl2 1 dl1 3 dl2] LC7 DL} def
/LT8 {PL [2 dl1 2 dl2 2 dl1 6 dl2] LC8 DL} def
/SL {[] 0 setdash} def
/Pnt {stroke [] 0 setdash gsave 1 setlinecap M 0 0 V stroke grestore} def
/Dia {stroke [] 0 setdash 2 copy vpt add M
  hpt neg vpt neg V hpt vpt neg V
  hpt vpt V hpt neg vpt V closepath stroke
  Pnt} def
/Pls {stroke [] 0 setdash vpt sub M 0 vpt2 V
  currentpoint stroke M
  hpt neg vpt neg R hpt2 0 V stroke
 } def
/Box {stroke [] 0 setdash 2 copy exch hpt sub exch vpt add M
  0 vpt2 neg V hpt2 0 V 0 vpt2 V
  hpt2 neg 0 V closepath stroke
  Pnt} def
/Crs {stroke [] 0 setdash exch hpt sub exch vpt add M
  hpt2 vpt2 neg V currentpoint stroke M
  hpt2 neg 0 R hpt2 vpt2 V stroke} def
/TriU {stroke [] 0 setdash 2 copy vpt 1.12 mul add M
  hpt neg vpt -1.62 mul V
  hpt 2 mul 0 V
  hpt neg vpt 1.62 mul V closepath stroke
  Pnt} def
/Star {2 copy Pls Crs} def
/BoxF {stroke [] 0 setdash exch hpt sub exch vpt add M
  0 vpt2 neg V hpt2 0 V 0 vpt2 V
  hpt2 neg 0 V closepath fill} def
/TriUF {stroke [] 0 setdash vpt 1.12 mul add M
  hpt neg vpt -1.62 mul V
  hpt 2 mul 0 V
  hpt neg vpt 1.62 mul V closepath fill} def
/TriD {stroke [] 0 setdash 2 copy vpt 1.12 mul sub M
  hpt neg vpt 1.62 mul V
  hpt 2 mul 0 V
  hpt neg vpt -1.62 mul V closepath stroke
  Pnt} def
/TriDF {stroke [] 0 setdash vpt 1.12 mul sub M
  hpt neg vpt 1.62 mul V
  hpt 2 mul 0 V
  hpt neg vpt -1.62 mul V closepath fill} def
/DiaF {stroke [] 0 setdash vpt add M
  hpt neg vpt neg V hpt vpt neg V
  hpt vpt V hpt neg vpt V closepath fill} def
/Pent {stroke [] 0 setdash 2 copy gsave
  translate 0 hpt M 4 {72 rotate 0 hpt L} repeat
  closepath stroke grestore Pnt} def
/PentF {stroke [] 0 setdash gsave
  translate 0 hpt M 4 {72 rotate 0 hpt L} repeat
  closepath fill grestore} def
/Circle {stroke [] 0 setdash 2 copy
  hpt 0 360 arc stroke Pnt} def
/CircleF {stroke [] 0 setdash hpt 0 360 arc fill} def
/C0 {BL [] 0 setdash 2 copy moveto vpt 90 450 arc} bind def
/C1 {BL [] 0 setdash 2 copy moveto
	2 copy vpt 0 90 arc closepath fill
	vpt 0 360 arc closepath} bind def
/C2 {BL [] 0 setdash 2 copy moveto
	2 copy vpt 90 180 arc closepath fill
	vpt 0 360 arc closepath} bind def
/C3 {BL [] 0 setdash 2 copy moveto
	2 copy vpt 0 180 arc closepath fill
	vpt 0 360 arc closepath} bind def
/C4 {BL [] 0 setdash 2 copy moveto
	2 copy vpt 180 270 arc closepath fill
	vpt 0 360 arc closepath} bind def
/C5 {BL [] 0 setdash 2 copy moveto
	2 copy vpt 0 90 arc
	2 copy moveto
	2 copy vpt 180 270 arc closepath fill
	vpt 0 360 arc} bind def
/C6 {BL [] 0 setdash 2 copy moveto
	2 copy vpt 90 270 arc closepath fill
	vpt 0 360 arc closepath} bind def
/C7 {BL [] 0 setdash 2 copy moveto
	2 copy vpt 0 270 arc closepath fill
	vpt 0 360 arc closepath} bind def
/C8 {BL [] 0 setdash 2 copy moveto
	2 copy vpt 270 360 arc closepath fill
	vpt 0 360 arc closepath} bind def
/C9 {BL [] 0 setdash 2 copy moveto
	2 copy vpt 270 450 arc closepath fill
	vpt 0 360 arc closepath} bind def
/C10 {BL [] 0 setdash 2 copy 2 copy moveto vpt 270 360 arc closepath fill
	2 copy moveto
	2 copy vpt 90 180 arc closepath fill
	vpt 0 360 arc closepath} bind def
/C11 {BL [] 0 setdash 2 copy moveto
	2 copy vpt 0 180 arc closepath fill
	2 copy moveto
	2 copy vpt 270 360 arc closepath fill
	vpt 0 360 arc closepath} bind def
/C12 {BL [] 0 setdash 2 copy moveto
	2 copy vpt 180 360 arc closepath fill
	vpt 0 360 arc closepath} bind def
/C13 {BL [] 0 setdash 2 copy moveto
	2 copy vpt 0 90 arc closepath fill
	2 copy moveto
	2 copy vpt 180 360 arc closepath fill
	vpt 0 360 arc closepath} bind def
/C14 {BL [] 0 setdash 2 copy moveto
	2 copy vpt 90 360 arc closepath fill
	vpt 0 360 arc} bind def
/C15 {BL [] 0 setdash 2 copy vpt 0 360 arc closepath fill
	vpt 0 360 arc closepath} bind def
/Rec {newpath 4 2 roll moveto 1 index 0 rlineto 0 exch rlineto
	neg 0 rlineto closepath} bind def
/Square {dup Rec} bind def
/Bsquare {vpt sub exch vpt sub exch vpt2 Square} bind def
/S0 {BL [] 0 setdash 2 copy moveto 0 vpt rlineto BL Bsquare} bind def
/S1 {BL [] 0 setdash 2 copy vpt Square fill Bsquare} bind def
/S2 {BL [] 0 setdash 2 copy exch vpt sub exch vpt Square fill Bsquare} bind def
/S3 {BL [] 0 setdash 2 copy exch vpt sub exch vpt2 vpt Rec fill Bsquare} bind def
/S4 {BL [] 0 setdash 2 copy exch vpt sub exch vpt sub vpt Square fill Bsquare} bind def
/S5 {BL [] 0 setdash 2 copy 2 copy vpt Square fill
	exch vpt sub exch vpt sub vpt Square fill Bsquare} bind def
/S6 {BL [] 0 setdash 2 copy exch vpt sub exch vpt sub vpt vpt2 Rec fill Bsquare} bind def
/S7 {BL [] 0 setdash 2 copy exch vpt sub exch vpt sub vpt vpt2 Rec fill
	2 copy vpt Square fill Bsquare} bind def
/S8 {BL [] 0 setdash 2 copy vpt sub vpt Square fill Bsquare} bind def
/S9 {BL [] 0 setdash 2 copy vpt sub vpt vpt2 Rec fill Bsquare} bind def
/S10 {BL [] 0 setdash 2 copy vpt sub vpt Square fill 2 copy exch vpt sub exch vpt Square fill
	Bsquare} bind def
/S11 {BL [] 0 setdash 2 copy vpt sub vpt Square fill 2 copy exch vpt sub exch vpt2 vpt Rec fill
	Bsquare} bind def
/S12 {BL [] 0 setdash 2 copy exch vpt sub exch vpt sub vpt2 vpt Rec fill Bsquare} bind def
/S13 {BL [] 0 setdash 2 copy exch vpt sub exch vpt sub vpt2 vpt Rec fill
	2 copy vpt Square fill Bsquare} bind def
/S14 {BL [] 0 setdash 2 copy exch vpt sub exch vpt sub vpt2 vpt Rec fill
	2 copy exch vpt sub exch vpt Square fill Bsquare} bind def
/S15 {BL [] 0 setdash 2 copy Bsquare fill Bsquare} bind def
/D0 {gsave translate 45 rotate 0 0 S0 stroke grestore} bind def
/D1 {gsave translate 45 rotate 0 0 S1 stroke grestore} bind def
/D2 {gsave translate 45 rotate 0 0 S2 stroke grestore} bind def
/D3 {gsave translate 45 rotate 0 0 S3 stroke grestore} bind def
/D4 {gsave translate 45 rotate 0 0 S4 stroke grestore} bind def
/D5 {gsave translate 45 rotate 0 0 S5 stroke grestore} bind def
/D6 {gsave translate 45 rotate 0 0 S6 stroke grestore} bind def
/D7 {gsave translate 45 rotate 0 0 S7 stroke grestore} bind def
/D8 {gsave translate 45 rotate 0 0 S8 stroke grestore} bind def
/D9 {gsave translate 45 rotate 0 0 S9 stroke grestore} bind def
/D10 {gsave translate 45 rotate 0 0 S10 stroke grestore} bind def
/D11 {gsave translate 45 rotate 0 0 S11 stroke grestore} bind def
/D12 {gsave translate 45 rotate 0 0 S12 stroke grestore} bind def
/D13 {gsave translate 45 rotate 0 0 S13 stroke grestore} bind def
/D14 {gsave translate 45 rotate 0 0 S14 stroke grestore} bind def
/D15 {gsave translate 45 rotate 0 0 S15 stroke grestore} bind def
/DiaE {stroke [] 0 setdash vpt add M
  hpt neg vpt neg V hpt vpt neg V
  hpt vpt V hpt neg vpt V closepath stroke} def
/BoxE {stroke [] 0 setdash exch hpt sub exch vpt add M
  0 vpt2 neg V hpt2 0 V 0 vpt2 V
  hpt2 neg 0 V closepath stroke} def
/TriUE {stroke [] 0 setdash vpt 1.12 mul add M
  hpt neg vpt -1.62 mul V
  hpt 2 mul 0 V
  hpt neg vpt 1.62 mul V closepath stroke} def
/TriDE {stroke [] 0 setdash vpt 1.12 mul sub M
  hpt neg vpt 1.62 mul V
  hpt 2 mul 0 V
  hpt neg vpt -1.62 mul V closepath stroke} def
/PentE {stroke [] 0 setdash gsave
  translate 0 hpt M 4 {72 rotate 0 hpt L} repeat
  closepath stroke grestore} def
/CircE {stroke [] 0 setdash 
  hpt 0 360 arc stroke} def
/Opaque {gsave closepath 1 setgray fill grestore 0 setgray closepath} def
/DiaW {stroke [] 0 setdash vpt add M
  hpt neg vpt neg V hpt vpt neg V
  hpt vpt V hpt neg vpt V Opaque stroke} def
/BoxW {stroke [] 0 setdash exch hpt sub exch vpt add M
  0 vpt2 neg V hpt2 0 V 0 vpt2 V
  hpt2 neg 0 V Opaque stroke} def
/TriUW {stroke [] 0 setdash vpt 1.12 mul add M
  hpt neg vpt -1.62 mul V
  hpt 2 mul 0 V
  hpt neg vpt 1.62 mul V Opaque stroke} def
/TriDW {stroke [] 0 setdash vpt 1.12 mul sub M
  hpt neg vpt 1.62 mul V
  hpt 2 mul 0 V
  hpt neg vpt -1.62 mul V Opaque stroke} def
/PentW {stroke [] 0 setdash gsave
  translate 0 hpt M 4 {72 rotate 0 hpt L} repeat
  Opaque stroke grestore} def
/CircW {stroke [] 0 setdash 
  hpt 0 360 arc Opaque stroke} def
/BoxFill {gsave Rec 1 setgray fill grestore} def
/Density {
  /Fillden exch def
  currentrgbcolor
  /ColB exch def /ColG exch def /ColR exch def
  /ColR ColR Fillden mul Fillden sub 1 add def
  /ColG ColG Fillden mul Fillden sub 1 add def
  /ColB ColB Fillden mul Fillden sub 1 add def
  ColR ColG ColB setrgbcolor} def
/BoxColFill {gsave Rec PolyFill} def
/PolyFill {gsave Density fill grestore grestore} def
/h {rlineto rlineto rlineto gsave closepath fill grestore} bind def
%
% PostScript Level 1 Pattern Fill routine for rectangles
% Usage: x y w h s a XX PatternFill
%	x,y = lower left corner of box to be filled
%	w,h = width and height of box
%	  a = angle in degrees between lines and x-axis
%	 XX = 0/1 for no/yes cross-hatch
%
/PatternFill {gsave /PFa [ 9 2 roll ] def
  PFa 0 get PFa 2 get 2 div add PFa 1 get PFa 3 get 2 div add translate
  PFa 2 get -2 div PFa 3 get -2 div PFa 2 get PFa 3 get Rec
  TransparentPatterns {} {gsave 1 setgray fill grestore} ifelse
  clip
  currentlinewidth 0.5 mul setlinewidth
  /PFs PFa 2 get dup mul PFa 3 get dup mul add sqrt def
  0 0 M PFa 5 get rotate PFs -2 div dup translate
  0 1 PFs PFa 4 get div 1 add floor cvi
	{PFa 4 get mul 0 M 0 PFs V} for
  0 PFa 6 get ne {
	0 1 PFs PFa 4 get div 1 add floor cvi
	{PFa 4 get mul 0 2 1 roll M PFs 0 V} for
 } if
  stroke grestore} def
%
/languagelevel where
 {pop languagelevel} {1} ifelse
dup 2 lt
	{/InterpretLevel1 true def
	 /InterpretLevel3 false def}
	{/InterpretLevel1 Level1 def
	 2 gt
	    {/InterpretLevel3 Level3 def}
	    {/InterpretLevel3 false def}
	 ifelse }
 ifelse
%
% PostScript level 2 pattern fill definitions
%
/Level2PatternFill {
/Tile8x8 {/PaintType 2 /PatternType 1 /TilingType 1 /BBox [0 0 8 8] /XStep 8 /YStep 8}
	bind def
/KeepColor {currentrgbcolor [/Pattern /DeviceRGB] setcolorspace} bind def
<< Tile8x8
 /PaintProc {0.5 setlinewidth pop 0 0 M 8 8 L 0 8 M 8 0 L stroke} 
>> matrix makepattern
/Pat1 exch def
<< Tile8x8
 /PaintProc {0.5 setlinewidth pop 0 0 M 8 8 L 0 8 M 8 0 L stroke
	0 4 M 4 8 L 8 4 L 4 0 L 0 4 L stroke}
>> matrix makepattern
/Pat2 exch def
<< Tile8x8
 /PaintProc {0.5 setlinewidth pop 0 0 M 0 8 L
	8 8 L 8 0 L 0 0 L fill}
>> matrix makepattern
/Pat3 exch def
<< Tile8x8
 /PaintProc {0.5 setlinewidth pop -4 8 M 8 -4 L
	0 12 M 12 0 L stroke}
>> matrix makepattern
/Pat4 exch def
<< Tile8x8
 /PaintProc {0.5 setlinewidth pop -4 0 M 8 12 L
	0 -4 M 12 8 L stroke}
>> matrix makepattern
/Pat5 exch def
<< Tile8x8
 /PaintProc {0.5 setlinewidth pop -2 8 M 4 -4 L
	0 12 M 8 -4 L 4 12 M 10 0 L stroke}
>> matrix makepattern
/Pat6 exch def
<< Tile8x8
 /PaintProc {0.5 setlinewidth pop -2 0 M 4 12 L
	0 -4 M 8 12 L 4 -4 M 10 8 L stroke}
>> matrix makepattern
/Pat7 exch def
<< Tile8x8
 /PaintProc {0.5 setlinewidth pop 8 -2 M -4 4 L
	12 0 M -4 8 L 12 4 M 0 10 L stroke}
>> matrix makepattern
/Pat8 exch def
<< Tile8x8
 /PaintProc {0.5 setlinewidth pop 0 -2 M 12 4 L
	-4 0 M 12 8 L -4 4 M 8 10 L stroke}
>> matrix makepattern
/Pat9 exch def
/Pattern1 {PatternBgnd KeepColor Pat1 setpattern} bind def
/Pattern2 {PatternBgnd KeepColor Pat2 setpattern} bind def
/Pattern3 {PatternBgnd KeepColor Pat3 setpattern} bind def
/Pattern4 {PatternBgnd KeepColor Landscape {Pat5} {Pat4} ifelse setpattern} bind def
/Pattern5 {PatternBgnd KeepColor Landscape {Pat4} {Pat5} ifelse setpattern} bind def
/Pattern6 {PatternBgnd KeepColor Landscape {Pat9} {Pat6} ifelse setpattern} bind def
/Pattern7 {PatternBgnd KeepColor Landscape {Pat8} {Pat7} ifelse setpattern} bind def
} def
%
%
%End of PostScript Level 2 code
%
/PatternBgnd {
  TransparentPatterns {} {gsave 1 setgray fill grestore} ifelse
} def
%
% Substitute for Level 2 pattern fill codes with
% grayscale if Level 2 support is not selected.
%
/Level1PatternFill {
/Pattern1 {0.250 Density} bind def
/Pattern2 {0.500 Density} bind def
/Pattern3 {0.750 Density} bind def
/Pattern4 {0.125 Density} bind def
/Pattern5 {0.375 Density} bind def
/Pattern6 {0.625 Density} bind def
/Pattern7 {0.875 Density} bind def
} def
%
% Now test for support of Level 2 code
%
Level1 {Level1PatternFill} {Level2PatternFill} ifelse
%
/Symbol-Oblique /Symbol findfont [1 0 .167 1 0 0] makefont
dup length dict begin {1 index /FID eq {pop pop} {def} ifelse} forall
currentdict end definefont pop
%
/Metrics {ExtendTextBox Gswidth} def
/Lwidth {currentpoint stroke M 0 vshift R Metrics} def
/Rwidth {currentpoint stroke M dup stringwidth pop neg vshift R Metrics} def
/Cwidth {currentpoint stroke M dup stringwidth pop -2 div vshift R Metrics} def
/GLwidth {currentpoint stroke M 0 vshift R {ExtendTextBox} forall} def
/GRwidth {currentpoint stroke M dup Gwidth vshift R {ExtendTextBox} forall} def
/GCwidth {currentpoint stroke M dup Gwidth 2 div vshift R {ExtendTextBox} forall} def
/GLwidth2 {0 Gwidth AddGlyphWidth} def
/GRwidth2 {Gwidth -1 mul 0 AddGlyphWidth} def
/GCwidth2 {Gwidth 2 div dup -1 mul AddGlyphWidth} def
/AddGlyphWidth { dup TBx2 gt {userdict /TBx2 3 -1 roll put} {pop} ifelse
                 dup TBx1 lt {userdict /TBx1 3 -1 roll put} {pop} ifelse } def
/MFshow {
   { dup 5 get 3 ge
     { 5 get 3 eq {gsave} {grestore} ifelse }
     {dup dup 0 get findfont exch 1 get scalefont setfont
     [ currentpoint ] exch dup 2 get 0 exch R dup 5 get 2 ne {dup dup 6
     get exch 4 get {textshow} {Metrics pop 0 R} ifelse }if dup 5 get 0 eq
     {dup 3 get {2 get neg 0 exch R pop} {pop aload pop M} ifelse} {dup 5
     get 1 eq {dup 2 get exch dup 3 get exch 6 get Gswidth pop -2 div
     dup 0 R} {dup 6 get Gswidth pop -2 div 0 R 6 get
     textshow 2 index {aload pop M neg 3 -1 roll neg R pop pop} {pop pop pop
     pop aload pop M} ifelse }ifelse }ifelse }
     ifelse }
   forall} def
/Gswidth {dup type /stringtype eq {stringwidth} {pop (n) stringwidth} ifelse} def
/MFwidth {0 exch { dup 5 get 3 ge { 5 get 3 eq { 0 } { pop } ifelse }
 {dup 3 get{dup dup 0 get findfont exch 1 get scalefont setfont
     6 get Gswidth pop add} {pop} ifelse} ifelse} forall} def
/MLshow { currentpoint stroke M
  0 exch R
  Blacktext {gsave 0 setgray MFshow grestore} {MFshow} ifelse } bind def
/MRshow { currentpoint stroke M
  exch dup MFwidth neg 3 -1 roll R
  Blacktext {gsave 0 setgray MFshow grestore} {MFshow} ifelse } bind def
/MCshow { currentpoint stroke M
  exch dup MFwidth -2 div 3 -1 roll R
  Blacktext {gsave 0 setgray MFshow grestore} {MFshow} ifelse } bind def
/XYsave    { [( ) 1 2 true false 3 ()] } bind def
/XYrestore { [( ) 1 2 true false 4 ()] } bind def
Level1 SuppressPDFMark or 
{} {
/SDict 10 dict def
systemdict /pdfmark known not {
  userdict /pdfmark systemdict /cleartomark get put
} if
SDict begin [
  /Title (gnuplot_Zplt_YZ.eps)
  /Subject (gnuplot plot)
  /Creator (gnuplot 5.2 patchlevel 2)
%  /Producer (gnuplot)
%  /Keywords ()
  /CreationDate (Sat Mar 19 05:26:45 2022)
  /DOCINFO pdfmark
end
} ifelse
%
% Support for boxed text - Ethan A Merritt Sep 2016
%
/InitTextBox { userdict /TBy2 3 -1 roll put userdict /TBx2 3 -1 roll put
           userdict /TBy1 3 -1 roll put userdict /TBx1 3 -1 roll put
	   /Boxing true def } def
/ExtendTextBox { dup type /stringtype eq
    { Boxing { gsave dup false charpath pathbbox
      dup TBy2 gt {userdict /TBy2 3 -1 roll put} {pop} ifelse
      dup TBx2 gt {userdict /TBx2 3 -1 roll put} {pop} ifelse
      dup TBy1 lt {userdict /TBy1 3 -1 roll put} {pop} ifelse
      dup TBx1 lt {userdict /TBx1 3 -1 roll put} {pop} ifelse
      grestore } if }
    {} ifelse} def
/PopTextBox { newpath TBx1 TBxmargin sub TBy1 TBymargin sub M
               TBx1 TBxmargin sub TBy2 TBymargin add L
	       TBx2 TBxmargin add TBy2 TBymargin add L
	       TBx2 TBxmargin add TBy1 TBymargin sub L closepath } def
/DrawTextBox { PopTextBox stroke /Boxing false def} def
/FillTextBox { gsave PopTextBox fill grestore /Boxing false def} def
0 0 0 0 InitTextBox
/TBxmargin 20 def
/TBymargin 20 def
/Boxing false def
/textshow { ExtendTextBox Gshow } def
%
end
%%EndProlog
%%Page: 1 1
gnudict begin
gsave
doclip
50 50 translate
0.050 0.050 scale
0 setgray
newpath
(Helvetica) findfont 140 scalefont setfont
BackgroundColor 0 lt 3 1 roll 0 lt exch 0 lt or or not {BackgroundColor C 1.000 0 0 7200.00 5040.00 BoxColFill} if
/Helvetica findfont 140 scalefont setfont
/vshift -46 def
1.000 UL
LTb
LCb setrgbcolor
0.500 UL
LTa
LCa setrgbcolor
2198 448 M
3237 0 V
stroke
1.000 UL
LTb
LCb setrgbcolor
2198 448 M
63 0 V
3174 0 R
-63 0 V
stroke
2114 448 M
[ [(Helvetica) 140.0 0.0 true true 0 (-3.5)]
] -46.7 MRshow
1.000 UL
LTb
LCb setrgbcolor
0.500 UL
LTa
LCa setrgbcolor
2198 853 M
3237 0 V
stroke
1.000 UL
LTb
LCb setrgbcolor
2198 853 M
63 0 V
3174 0 R
-63 0 V
stroke
2114 853 M
[ [(Helvetica) 140.0 0.0 true true 0 (-3)]
] -46.7 MRshow
1.000 UL
LTb
LCb setrgbcolor
0.500 UL
LTa
LCa setrgbcolor
2198 1257 M
3237 0 V
stroke
1.000 UL
LTb
LCb setrgbcolor
2198 1257 M
63 0 V
3174 0 R
-63 0 V
stroke
2114 1257 M
[ [(Helvetica) 140.0 0.0 true true 0 (-2.5)]
] -46.7 MRshow
1.000 UL
LTb
LCb setrgbcolor
0.500 UL
LTa
LCa setrgbcolor
2198 1662 M
3237 0 V
stroke
1.000 UL
LTb
LCb setrgbcolor
2198 1662 M
63 0 V
3174 0 R
-63 0 V
stroke
2114 1662 M
[ [(Helvetica) 140.0 0.0 true true 0 (-2)]
] -46.7 MRshow
1.000 UL
LTb
LCb setrgbcolor
0.500 UL
LTa
LCa setrgbcolor
2198 2067 M
3237 0 V
stroke
1.000 UL
LTb
LCb setrgbcolor
2198 2067 M
63 0 V
3174 0 R
-63 0 V
stroke
2114 2067 M
[ [(Helvetica) 140.0 0.0 true true 0 (-1.5)]
] -46.7 MRshow
1.000 UL
LTb
LCb setrgbcolor
0.500 UL
LTa
LCa setrgbcolor
2198 2471 M
3237 0 V
stroke
1.000 UL
LTb
LCb setrgbcolor
2198 2471 M
63 0 V
3174 0 R
-63 0 V
stroke
2114 2471 M
[ [(Helvetica) 140.0 0.0 true true 0 (-1)]
] -46.7 MRshow
1.000 UL
LTb
LCb setrgbcolor
0.500 UL
LTa
LCa setrgbcolor
2198 2876 M
3237 0 V
stroke
1.000 UL
LTb
LCb setrgbcolor
2198 2876 M
63 0 V
3174 0 R
-63 0 V
stroke
2114 2876 M
[ [(Helvetica) 140.0 0.0 true true 0 (-0.5)]
] -46.7 MRshow
1.000 UL
LTb
LCb setrgbcolor
0.500 UL
LTa
LCa setrgbcolor
2198 3280 M
3237 0 V
stroke
1.000 UL
LTb
LCb setrgbcolor
2198 3280 M
63 0 V
3174 0 R
-63 0 V
stroke
2114 3280 M
[ [(Helvetica) 140.0 0.0 true true 0 ( 0)]
] -46.7 MRshow
1.000 UL
LTb
LCb setrgbcolor
0.500 UL
LTa
LCa setrgbcolor
2198 3685 M
3237 0 V
stroke
1.000 UL
LTb
LCb setrgbcolor
2198 3685 M
63 0 V
3174 0 R
-63 0 V
stroke
2114 3685 M
[ [(Helvetica) 140.0 0.0 true true 0 ( 0.5)]
] -46.7 MRshow
1.000 UL
LTb
LCb setrgbcolor
0.500 UL
LTa
LCa setrgbcolor
2198 4090 M
3237 0 V
stroke
1.000 UL
LTb
LCb setrgbcolor
2198 4090 M
63 0 V
3174 0 R
-63 0 V
stroke
2114 4090 M
[ [(Helvetica) 140.0 0.0 true true 0 ( 1)]
] -46.7 MRshow
1.000 UL
LTb
LCb setrgbcolor
0.500 UL
LTa
LCa setrgbcolor
2198 4494 M
3237 0 V
stroke
1.000 UL
LTb
LCb setrgbcolor
2198 4494 M
63 0 V
3174 0 R
-63 0 V
stroke
2114 4494 M
[ [(Helvetica) 140.0 0.0 true true 0 ( 1.5)]
] -46.7 MRshow
1.000 UL
LTb
LCb setrgbcolor
0.500 UL
LTa
LCa setrgbcolor
2198 4899 M
3237 0 V
stroke
1.000 UL
LTb
LCb setrgbcolor
2198 4899 M
63 0 V
3174 0 R
-63 0 V
stroke
2114 4899 M
[ [(Helvetica) 140.0 0.0 true true 0 ( 2)]
] -46.7 MRshow
1.000 UL
LTb
LCb setrgbcolor
0.500 UL
LTa
LCa setrgbcolor
2198 448 M
0 4248 V
0 140 R
0 63 V
stroke
1.000 UL
LTb
LCb setrgbcolor
2198 448 M
0 63 V
0 4388 R
0 -63 V
stroke
2198 308 M
[ [(Helvetica) 140.0 0.0 true true 0 (-2)]
] -46.7 MCshow
1.000 UL
LTb
LCb setrgbcolor
0.500 UL
LTa
LCa setrgbcolor
2603 448 M
0 4248 V
0 140 R
0 63 V
stroke
1.000 UL
LTb
LCb setrgbcolor
2603 448 M
0 63 V
0 4388 R
0 -63 V
stroke
2603 308 M
[ [(Helvetica) 140.0 0.0 true true 0 (-1.5)]
] -46.7 MCshow
1.000 UL
LTb
LCb setrgbcolor
0.500 UL
LTa
LCa setrgbcolor
3007 448 M
0 4248 V
0 140 R
0 63 V
stroke
1.000 UL
LTb
LCb setrgbcolor
3007 448 M
0 63 V
0 4388 R
0 -63 V
stroke
3007 308 M
[ [(Helvetica) 140.0 0.0 true true 0 (-1)]
] -46.7 MCshow
1.000 UL
LTb
LCb setrgbcolor
0.500 UL
LTa
LCa setrgbcolor
3412 448 M
0 4248 V
0 140 R
0 63 V
stroke
1.000 UL
LTb
LCb setrgbcolor
3412 448 M
0 63 V
0 4388 R
0 -63 V
stroke
3412 308 M
[ [(Helvetica) 140.0 0.0 true true 0 (-0.5)]
] -46.7 MCshow
1.000 UL
LTb
LCb setrgbcolor
0.500 UL
LTa
LCa setrgbcolor
3817 448 M
0 4248 V
0 140 R
0 63 V
stroke
1.000 UL
LTb
LCb setrgbcolor
3817 448 M
0 63 V
0 4388 R
0 -63 V
stroke
3817 308 M
[ [(Helvetica) 140.0 0.0 true true 0 ( 0)]
] -46.7 MCshow
1.000 UL
LTb
LCb setrgbcolor
0.500 UL
LTa
LCa setrgbcolor
4221 448 M
0 4248 V
0 140 R
0 63 V
stroke
1.000 UL
LTb
LCb setrgbcolor
4221 448 M
0 63 V
0 4388 R
0 -63 V
stroke
4221 308 M
[ [(Helvetica) 140.0 0.0 true true 0 ( 0.5)]
] -46.7 MCshow
1.000 UL
LTb
LCb setrgbcolor
0.500 UL
LTa
LCa setrgbcolor
4626 448 M
0 4248 V
0 140 R
0 63 V
stroke
1.000 UL
LTb
LCb setrgbcolor
4626 448 M
0 63 V
0 4388 R
0 -63 V
stroke
4626 308 M
[ [(Helvetica) 140.0 0.0 true true 0 ( 1)]
] -46.7 MCshow
1.000 UL
LTb
LCb setrgbcolor
0.500 UL
LTa
LCa setrgbcolor
5030 448 M
0 4248 V
0 140 R
0 63 V
stroke
1.000 UL
LTb
LCb setrgbcolor
5030 448 M
0 63 V
0 4388 R
0 -63 V
stroke
5030 308 M
[ [(Helvetica) 140.0 0.0 true true 0 ( 1.5)]
] -46.7 MCshow
1.000 UL
LTb
LCb setrgbcolor
0.500 UL
LTa
LCa setrgbcolor
5435 448 M
0 4451 V
stroke
1.000 UL
LTb
LCb setrgbcolor
5435 448 M
0 63 V
0 4388 R
0 -63 V
stroke
5435 308 M
[ [(Helvetica) 140.0 0.0 true true 0 ( 2)]
] -46.7 MCshow
1.000 UL
LTb
LCb setrgbcolor
1.000 UL
LTB
LCb setrgbcolor
2198 4899 N
0 -4451 V
3237 0 V
0 4451 V
-3237 0 V
Z stroke
1.000 UP
1.000 UL
LTb
LCb setrgbcolor
LCb setrgbcolor
1638 2673 M
currentpoint gsave translate -270 rotate 0 0 moveto
[ [(Helvetica) 140.0 0.0 true true 0 (Z  [m])]
] -46.7 MCshow
grestore
LTb
LCb setrgbcolor
3816 98 M
[ [(Helvetica) 140.0 0.0 true true 0 (Y  [m])]
] -46.7 MCshow
LTb
% Begin plot #1
0.400 UP
1.000 UL
LTb
0.00 0.00 0.00 C /Helvetica findfont 140 scalefont setfont
LCb setrgbcolor
4784 4766 M
('zgoubi.plt' u \($19==i &&  $14>sMin && $14<sMax ? $10 : 1/0\):\($12\)) Rshow
0.400 UP
1.000 UL
LTb
0.00 0.00 0.00 C 4868 4766 M
399 0 V
3820 2639 M
-1 0 V
-2 0 V
-4 -1 V
-4 0 V
-7 -1 V
-9 -2 V
-10 -2 V
-12 -4 V
-14 -4 V
-15 -5 V
-17 -7 V
-19 -8 V
-20 -10 V
-20 -11 V
-23 -13 V
-22 -15 V
-24 -17 V
-25 -18 V
-24 -21 V
-26 -22 V
-25 -25 V
-25 -26 V
-26 -29 V
-25 -30 V
-24 -33 V
-24 -34 V
-23 -36 V
-22 -38 V
-21 -40 V
-20 -41 V
-19 -43 V
-17 -44 V
-16 -46 V
-14 -47 V
-13 -47 V
-10 -49 V
-9 -50 V
-7 -50 V
-5 -51 V
-3 -51 V
-1 -51 V
1 -51 V
3 -51 V
6 -50 V
7 -51 V
9 -49 V
10 -49 V
13 -48 V
14 -47 V
16 -45 V
18 -44 V
19 -43 V
20 -42 V
21 -39 V
23 -38 V
23 -37 V
24 -34 V
25 -32 V
25 -31 V
26 -28 V
25 -27 V
26 -24 V
26 -23 V
25 -20 V
24 -19 V
24 -16 V
24 -15 V
22 -13 V
21 -11 V
20 -10 V
19 -8 V
17 -7 V
16 -5 V
14 -4 V
12 -4 V
11 -2 V
9 -2 V
6 -1 V
5 0 V
4 0 V
2 0 V
1 0 V
1 0 V
1 0 V
1 0 V
0 1 V
1 0 V
1 0 V
-8 -3 R
1 0 V
0 1 V
1 0 V
1 0 V
1 0 V
1 1 V
3 0 V
4 0 V
6 1 V
9 1 V
11 2 V
14 3 V
16 5 V
18 5 V
21 8 V
23 9 V
24 10 V
26 13 V
28 15 V
30 17 V
30 20 V
32 22 V
33 25 V
33 27 V
33 30 V
34 33 V
34 35 V
34 38 V
33 41 V
32 43 V
32 46 V
31 48 V
30 50 V
28 53 V
26 55 V
25 58 V
23 59 V
21 60 V
19 63 V
17 64 V
14 65 V
11 66 V
10 67 V
6 67 V
4 68 V
1 68 V
-1 68 V
-5 68 V
-6 68 V
-10 67 V
-12 66 V
-14 65 V
-17 64 V
-19 62 V
-22 61 V
-23 59 V
-25 57 V
-27 55 V
-29 53 V
-30 51 V
-31 48 V
-32 46 V
-33 43 V
-34 41 V
-34 38 V
-34 35 V
-34 33 V
-34 30 V
-33 27 V
-33 25 V
-32 22 V
-31 20 V
-30 18 V
-28 15 V
-27 13 V
-25 10 V
-23 9 V
-21 8 V
-19 6 V
-16 4 V
-14 3 V
-12 2 V
-9 2 V
-7 1 V
-5 0 V
-3 0 V
-1 1 V
-1 0 V
-1 0 V
-1 0 V
-1 1 V
-1 0 V
-1 0 V
-1 1 V
-1 0 V
-1 0 V
0 1 V
-1 0 V
-1 0 V
14 -5 R
-1 0 V
-1 1 V
-1 0 V
-1 0 V
0 1 V
-1 0 V
-1 0 V
0 1 V
-1 0 V
-1 0 V
0 1 V
-1 0 V
-1 1 V
-2 0 V
-3 0 V
-5 0 V
-7 -1 V
-9 -1 V
-11 -1 V
-14 -3 V
-17 -4 V
-19 -5 V
-20 -7 V
-23 -9 V
-25 -10 V
-27 -12 V
-28 -15 V
-30 -17 V
-31 -19 V
-32 -22 V
-33 -24 V
-33 -27 V
-34 -30 V
-35 -32 V
-34 -35 V
-34 -37 V
-33 -40 V
-33 -43 V
-32 -45 V
-32 -48 V
-30 -50 V
-28 -53 V
-27 -55 V
-25 -56 V
-24 -59 V
-21 -60 V
-19 -62 V
-17 -64 V
-15 -64 V
-12 -66 V
-9 -66 V
-7 -67 V
-4 -68 V
-2 -67 V
1 -68 V
4 -68 V
6 -67 V
10 -66 V
stroke 2953 1711 M
11 -66 V
14 -64 V
17 -64 V
18 -62 V
21 -60 V
23 -59 V
25 -56 V
27 -55 V
28 -53 V
30 -50 V
30 -48 V
32 -45 V
33 -43 V
33 -40 V
34 -38 V
33 -34 V
34 -33 V
34 -29 V
33 -27 V
33 -24 V
31 -22 V
31 -19 V
29 -17 V
28 -15 V
27 -12 V
24 -11 V
23 -8 V
21 -7 V
18 -5 V
16 -4 V
14 -3 V
11 -1 V
9 -1 V
6 0 V
5 0 V
2 0 V
1 0 V
1 1 V
0 1 V
0 1 V
1 1 V
0 1 V
1 1 V
0 1 V
1 0 V
0 1 V
-7 -12 R
0 1 V
1 0 V
0 1 V
0 1 V
1 0 V
0 1 V
1 1 V
0 1 V
1 0 V
0 1 V
1 0 V
2 1 V
4 0 V
5 1 V
7 2 V
8 2 V
11 3 V
12 3 V
14 5 V
16 6 V
17 7 V
19 8 V
20 11 V
21 11 V
23 14 V
23 15 V
24 17 V
25 19 V
25 21 V
25 23 V
26 24 V
25 27 V
26 29 V
25 31 V
25 33 V
24 35 V
23 36 V
23 39 V
21 40 V
21 42 V
19 43 V
17 45 V
16 46 V
14 47 V
13 49 V
11 49 V
9 50 V
7 50 V
5 51 V
3 52 V
1 51 V
-1 52 V
-2 51 V
-5 51 V
-7 51 V
-9 50 V
-10 49 V
-13 49 V
-14 47 V
-16 46 V
-17 45 V
-19 43 V
-20 42 V
-21 40 V
-22 38 V
-23 37 V
-24 35 V
-24 33 V
-25 31 V
-25 29 V
-26 27 V
-25 25 V
-25 22 V
-25 21 V
-25 19 V
-23 18 V
-23 15 V
-22 13 V
-21 12 V
-20 10 V
-19 9 V
-17 7 V
-15 6 V
-14 5 V
-12 3 V
-10 3 V
-9 2 V
-6 2 V
-5 1 V
-4 1 V
-2 0 V
-1 1 V
0 1 V
0 1 V
0 1 V
0 1 V
0 1 V
0 1 V
0 1 V
0 1 V
18 1243 R
-1 0 V
-1 0 V
-2 0 V
-3 -1 V
-5 0 V
-7 -1 V
-8 -2 V
-10 -2 V
-12 -4 V
-14 -4 V
-16 -5 V
-17 -7 V
-18 -8 V
-20 -10 V
-21 -11 V
-22 -13 V
-23 -15 V
-24 -17 V
-24 -18 V
-25 -21 V
-25 -22 V
-25 -25 V
-26 -26 V
-25 -29 V
-25 -30 V
-25 -33 V
-23 -34 V
-23 -36 V
-23 -38 V
-21 -40 V
-20 -41 V
-19 -43 V
-17 -44 V
-16 -46 V
-14 -47 V
-12 -48 V
-11 -48 V
-8 -50 V
-7 -50 V
-5 -51 V
-3 -51 V
-1 -51 V
1 -51 V
3 -51 V
5 -51 V
7 -50 V
9 -49 V
11 -49 V
13 -48 V
14 -47 V
16 -45 V
17 -45 V
19 -43 V
21 -41 V
21 -40 V
22 -38 V
24 -36 V
24 -34 V
24 -33 V
26 -30 V
25 -29 V
26 -26 V
25 -25 V
26 -22 V
25 -21 V
24 -18 V
24 -17 V
24 -15 V
22 -13 V
21 -11 V
20 -10 V
19 -8 V
17 -7 V
16 -5 V
14 -4 V
12 -4 V
11 -2 V
8 -2 V
7 -1 V
5 0 V
4 -1 V
2 0 V
1 0 V
1 0 V
1 0 V
1 0 V
1 0 V
1 0 V
-7 0 R
1 0 V
1 0 V
1 0 V
2 0 V
2 0 V
4 0 V
7 1 V
9 1 V
11 2 V
14 3 V
16 4 V
18 6 V
stroke 3913 1942 M
21 7 V
22 9 V
25 10 V
26 13 V
28 15 V
29 17 V
31 20 V
32 22 V
32 24 V
33 27 V
34 30 V
34 33 V
33 35 V
34 37 V
33 41 V
33 43 V
32 46 V
30 48 V
30 50 V
28 53 V
27 55 V
25 57 V
23 59 V
21 60 V
18 63 V
17 63 V
14 65 V
12 66 V
9 67 V
6 67 V
4 68 V
1 68 V
-1 68 V
-4 68 V
-7 67 V
-10 67 V
-12 66 V
-14 65 V
-17 63 V
-19 63 V
-21 60 V
-24 59 V
-25 57 V
-27 55 V
-28 53 V
-30 50 V
-31 49 V
-32 45 V
-33 43 V
-34 41 V
-34 38 V
-34 35 V
-34 32 V
-34 30 V
-34 27 V
-32 25 V
-32 22 V
-31 20 V
-30 17 V
-28 15 V
-27 12 V
-25 11 V
-23 9 V
-21 7 V
-19 6 V
-16 4 V
-14 3 V
-12 2 V
-9 1 V
-7 1 V
-5 0 V
-3 0 V
-1 0 V
-1 0 V
-1 0 V
-1 0 V
-1 0 V
-1 0 V
-1 0 V
-1 0 V
-1 0 V
-1 0 V
-1 0 V
-1 0 V
15 0 R
-1 0 V
-1 0 V
-1 0 V
-1 0 V
-1 0 V
-1 0 V
-1 0 V
-1 0 V
-1 0 V
-1 0 V
-1 0 V
-2 0 V
-3 0 V
-4 0 V
-7 -1 V
-9 -1 V
-12 -2 V
-14 -3 V
-16 -4 V
-19 -5 V
-21 -7 V
-23 -9 V
-25 -11 V
-26 -13 V
-29 -14 V
-29 -18 V
-31 -19 V
-32 -22 V
-33 -24 V
-34 -28 V
-34 -29 V
-34 -33 V
-34 -35 V
-34 -38 V
-33 -40 V
-33 -43 V
-33 -46 V
-31 -48 V
-30 -50 V
-28 -53 V
-27 -55 V
-25 -57 V
-24 -59 V
-21 -60 V
-19 -63 V
-17 -63 V
-15 -65 V
-12 -66 V
-9 -67 V
-7 -67 V
-4 -68 V
-2 -68 V
2 -67 V
3 -68 V
7 -68 V
9 -66 V
11 -66 V
15 -65 V
16 -64 V
19 -62 V
21 -60 V
23 -59 V
25 -57 V
26 -55 V
28 -53 V
30 -51 V
31 -48 V
31 -45 V
33 -43 V
33 -41 V
34 -38 V
34 -35 V
33 -32 V
34 -30 V
33 -27 V
33 -25 V
31 -22 V
31 -19 V
29 -17 V
28 -15 V
27 -13 V
24 -11 V
23 -8 V
20 -8 V
19 -5 V
16 -4 V
14 -3 V
11 -2 V
9 -1 V
6 -1 V
5 0 V
2 0 V
1 0 V
1 0 V
1 0 V
1 0 V
1 0 V
0 1 V
-7 -1 R
1 0 V
1 0 V
1 0 V
1 0 V
1 0 V
1 0 V
2 1 V
4 0 V
5 1 V
7 1 V
8 1 V
11 3 V
12 3 V
14 4 V
16 6 V
17 7 V
19 8 V
20 10 V
21 11 V
22 13 V
24 15 V
24 16 V
24 19 V
25 20 V
26 23 V
25 24 V
26 27 V
25 28 V
26 31 V
24 32 V
24 35 V
24 36 V
22 38 V
22 40 V
20 41 V
19 43 V
17 45 V
16 45 V
15 47 V
12 48 V
11 49 V
9 49 V
7 51 V
5 50 V
3 51 V
1 51 V
0 52 V
-3 51 V
-5 50 V
-7 50 V
-9 50 V
-10 49 V
-13 48 V
-14 47 V
-16 45 V
-17 45 V
-18 43 V
-20 41 V
-22 40 V
-22 38 V
-23 36 V
-24 34 V
-24 33 V
-25 30 V
-25 29 V
stroke 4154 3762 M
-26 27 V
-25 24 V
-25 23 V
-25 20 V
-24 19 V
-24 16 V
-23 15 V
-22 13 V
-21 12 V
-20 9 V
-18 9 V
-17 6 V
-16 6 V
-14 4 V
-12 4 V
-10 2 V
-8 2 V
-7 1 V
-5 1 V
-3 0 V
-2 0 V
-1 0 V
-1 0 V
0 1 V
3820 2639 Pls
3820 2639 Pls
3820 2639 Pls
3820 2639 Pls
3820 2639 Pls
3820 2639 Pls
3820 2639 Pls
3820 2639 Pls
3820 2639 Pls
3820 2639 Pls
3820 2639 Pls
3820 2639 Pls
3820 2639 Pls
3820 2639 Pls
3820 2639 Pls
3820 2639 Pls
3819 2639 Pls
3817 2639 Pls
3813 2638 Pls
3809 2638 Pls
3802 2637 Pls
3793 2635 Pls
3783 2633 Pls
3771 2629 Pls
3757 2625 Pls
3742 2620 Pls
3725 2613 Pls
3706 2605 Pls
3686 2595 Pls
3666 2584 Pls
3643 2571 Pls
3621 2556 Pls
3597 2539 Pls
3572 2521 Pls
3548 2500 Pls
3522 2478 Pls
3497 2453 Pls
3472 2427 Pls
3446 2398 Pls
3421 2368 Pls
3397 2335 Pls
3373 2301 Pls
3350 2265 Pls
3328 2227 Pls
3307 2187 Pls
3287 2146 Pls
3268 2103 Pls
3251 2059 Pls
3235 2013 Pls
3221 1966 Pls
3208 1919 Pls
3198 1870 Pls
3189 1820 Pls
3182 1770 Pls
3177 1719 Pls
3174 1668 Pls
3173 1617 Pls
3174 1566 Pls
3177 1515 Pls
3183 1465 Pls
3190 1414 Pls
3199 1365 Pls
3209 1316 Pls
3222 1268 Pls
3236 1221 Pls
3252 1176 Pls
3270 1132 Pls
3289 1089 Pls
3309 1047 Pls
3330 1008 Pls
3353 970 Pls
3376 933 Pls
3400 899 Pls
3425 867 Pls
3450 836 Pls
3476 808 Pls
3501 781 Pls
3527 757 Pls
3553 734 Pls
3578 714 Pls
3602 695 Pls
3626 679 Pls
3650 664 Pls
3672 651 Pls
3693 640 Pls
3713 630 Pls
3732 622 Pls
3749 615 Pls
3765 610 Pls
3779 606 Pls
3791 602 Pls
3802 600 Pls
3811 598 Pls
3817 597 Pls
3822 597 Pls
3826 597 Pls
3828 597 Pls
3829 597 Pls
3830 597 Pls
3830 597 Pls
3830 597 Pls
3830 597 Pls
3831 597 Pls
3831 597 Pls
3831 597 Pls
3831 597 Pls
3831 597 Pls
3832 597 Pls
3832 597 Pls
3832 598 Pls
3832 598 Pls
3833 598 Pls
3833 598 Pls
3833 598 Pls
3833 598 Pls
3833 598 Pls
3834 598 Pls
3834 598 Pls
3826 595 Pls
3827 595 Pls
3827 596 Pls
3827 596 Pls
3827 596 Pls
3828 596 Pls
3828 596 Pls
3828 596 Pls
3828 596 Pls
3828 596 Pls
3829 596 Pls
3829 596 Pls
3829 596 Pls
3829 596 Pls
3829 596 Pls
3829 596 Pls
3829 596 Pls
3829 596 Pls
3830 596 Pls
3830 596 Pls
3831 597 Pls
3834 597 Pls
3838 597 Pls
3844 598 Pls
3853 599 Pls
3864 601 Pls
3878 604 Pls
3894 609 Pls
3912 614 Pls
3933 622 Pls
3956 631 Pls
3980 641 Pls
4006 654 Pls
4034 669 Pls
4064 686 Pls
4094 706 Pls
4126 728 Pls
4159 753 Pls
4192 780 Pls
4225 810 Pls
4259 843 Pls
4293 878 Pls
4327 916 Pls
4360 957 Pls
4392 1000 Pls
4424 1046 Pls
4455 1094 Pls
4485 1144 Pls
4513 1197 Pls
4539 1252 Pls
4564 1310 Pls
4587 1369 Pls
4608 1429 Pls
4627 1492 Pls
4644 1556 Pls
4658 1621 Pls
4669 1687 Pls
4679 1754 Pls
4685 1821 Pls
4689 1889 Pls
4690 1957 Pls
4689 2025 Pls
4684 2093 Pls
4678 2161 Pls
4668 2228 Pls
4656 2294 Pls
4642 2359 Pls
4625 2423 Pls
4606 2485 Pls
4584 2546 Pls
4561 2605 Pls
4536 2662 Pls
4509 2717 Pls
4480 2770 Pls
4450 2821 Pls
4419 2869 Pls
4387 2915 Pls
4354 2958 Pls
4320 2999 Pls
4286 3037 Pls
4252 3072 Pls
4218 3105 Pls
4184 3135 Pls
4151 3162 Pls
4118 3187 Pls
4086 3209 Pls
4055 3229 Pls
4025 3247 Pls
3997 3262 Pls
3970 3275 Pls
3945 3285 Pls
3922 3294 Pls
3901 3302 Pls
3882 3308 Pls
3866 3312 Pls
3852 3315 Pls
3840 3317 Pls
3831 3319 Pls
3824 3320 Pls
3819 3320 Pls
3816 3320 Pls
3815 3321 Pls
3814 3321 Pls
3813 3321 Pls
3813 3321 Pls
3812 3321 Pls
3812 3321 Pls
3811 3322 Pls
3811 3322 Pls
3810 3322 Pls
3810 3322 Pls
3809 3322 Pls
3808 3323 Pls
3808 3323 Pls
3807 3323 Pls
3807 3323 Pls
3806 3323 Pls
3806 3324 Pls
3805 3324 Pls
3804 3324 Pls
3804 3324 Pls
3804 3324 Pls
3818 3319 Pls
3818 3319 Pls
3817 3319 Pls
3817 3319 Pls
3816 3320 Pls
3816 3320 Pls
3815 3320 Pls
3814 3320 Pls
3814 3321 Pls
3813 3321 Pls
3813 3321 Pls
3812 3321 Pls
3812 3322 Pls
3811 3322 Pls
3811 3322 Pls
3810 3322 Pls
3810 3323 Pls
3809 3323 Pls
3809 3323 Pls
3808 3324 Pls
3806 3324 Pls
3803 3324 Pls
3798 3324 Pls
3791 3323 Pls
3782 3322 Pls
3771 3321 Pls
3757 3318 Pls
3740 3314 Pls
3721 3309 Pls
3701 3302 Pls
3678 3293 Pls
3653 3283 Pls
3626 3271 Pls
3598 3256 Pls
3568 3239 Pls
3537 3220 Pls
3505 3198 Pls
3472 3174 Pls
3439 3147 Pls
3405 3117 Pls
3370 3085 Pls
3336 3050 Pls
3302 3013 Pls
3269 2973 Pls
3236 2930 Pls
3204 2885 Pls
3172 2837 Pls
3142 2787 Pls
3114 2734 Pls
3087 2679 Pls
3062 2623 Pls
3038 2564 Pls
3017 2504 Pls
2998 2442 Pls
2981 2378 Pls
2966 2314 Pls
2954 2248 Pls
2945 2182 Pls
2938 2115 Pls
2934 2047 Pls
2932 1980 Pls
2933 1912 Pls
2937 1844 Pls
2943 1777 Pls
2953 1711 Pls
2964 1645 Pls
2978 1581 Pls
2995 1517 Pls
3013 1455 Pls
3034 1395 Pls
3057 1336 Pls
3082 1280 Pls
3109 1225 Pls
3137 1172 Pls
3167 1122 Pls
3197 1074 Pls
3229 1029 Pls
3262 986 Pls
3295 946 Pls
3329 908 Pls
3362 874 Pls
3396 841 Pls
3430 812 Pls
3463 785 Pls
3496 761 Pls
3527 739 Pls
3558 720 Pls
3587 703 Pls
3615 688 Pls
3642 676 Pls
3666 665 Pls
3689 657 Pls
3710 650 Pls
3728 645 Pls
3744 641 Pls
3758 638 Pls
3769 637 Pls
3778 636 Pls
3784 636 Pls
3789 636 Pls
3791 636 Pls
3792 636 Pls
3793 637 Pls
3793 637 Pls
3793 638 Pls
3793 638 Pls
3793 638 Pls
3793 639 Pls
3793 639 Pls
3794 640 Pls
3794 640 Pls
3794 640 Pls
3794 641 Pls
3794 641 Pls
3795 642 Pls
3795 642 Pls
3795 642 Pls
3795 643 Pls
3795 643 Pls
3796 643 Pls
3796 644 Pls
3796 644 Pls
3789 632 Pls
3789 632 Pls
3789 632 Pls
3789 633 Pls
3789 633 Pls
3790 633 Pls
3790 634 Pls
3790 634 Pls
3790 635 Pls
3791 635 Pls
3791 635 Pls
3791 636 Pls
3791 636 Pls
3791 636 Pls
3792 637 Pls
3792 637 Pls
3792 637 Pls
3792 638 Pls
3793 638 Pls
3793 639 Pls
3794 639 Pls
3796 640 Pls
3800 640 Pls
3805 641 Pls
3812 643 Pls
3820 645 Pls
3831 648 Pls
3843 651 Pls
3857 656 Pls
3873 662 Pls
3890 669 Pls
3909 677 Pls
3929 688 Pls
3950 699 Pls
3973 713 Pls
3996 728 Pls
4020 745 Pls
4045 764 Pls
4070 785 Pls
4095 808 Pls
4121 832 Pls
4146 859 Pls
4172 888 Pls
4197 919 Pls
4222 952 Pls
4246 987 Pls
4269 1023 Pls
4292 1062 Pls
4313 1102 Pls
4334 1144 Pls
4353 1187 Pls
4370 1232 Pls
4386 1278 Pls
4400 1325 Pls
4413 1374 Pls
4424 1423 Pls
4433 1473 Pls
4440 1523 Pls
4445 1574 Pls
4448 1626 Pls
4449 1677 Pls
4448 1729 Pls
4446 1780 Pls
4441 1831 Pls
4434 1882 Pls
4425 1932 Pls
4415 1981 Pls
4402 2030 Pls
4388 2077 Pls
4372 2123 Pls
4355 2168 Pls
4336 2211 Pls
4316 2253 Pls
4295 2293 Pls
4273 2331 Pls
4250 2368 Pls
4226 2403 Pls
4202 2436 Pls
4177 2467 Pls
4152 2496 Pls
4126 2523 Pls
4101 2548 Pls
4076 2570 Pls
4051 2591 Pls
4026 2610 Pls
4003 2628 Pls
3980 2643 Pls
3958 2656 Pls
3937 2668 Pls
3917 2678 Pls
3898 2687 Pls
3881 2694 Pls
3866 2700 Pls
3852 2705 Pls
3840 2708 Pls
3830 2711 Pls
3821 2713 Pls
3815 2715 Pls
3810 2716 Pls
3806 2717 Pls
3804 2717 Pls
3803 2718 Pls
3803 2718 Pls
3803 2719 Pls
3803 2719 Pls
3803 2720 Pls
3803 2720 Pls
3803 2721 Pls
3803 2721 Pls
3803 2721 Pls
3803 2722 Pls
3803 2722 Pls
3803 2723 Pls
3803 2723 Pls
3803 2724 Pls
3803 2724 Pls
3803 2725 Pls
3803 2725 Pls
3803 2725 Pls
3803 2726 Pls
3803 2726 Pls
3803 2726 Pls
3821 3969 Pls
3821 3969 Pls
3821 3969 Pls
3821 3969 Pls
3821 3969 Pls
3821 3969 Pls
3821 3969 Pls
3821 3969 Pls
3821 3969 Pls
3821 3969 Pls
3821 3969 Pls
3821 3969 Pls
3821 3969 Pls
3821 3969 Pls
3821 3969 Pls
3820 3969 Pls
3819 3969 Pls
3817 3969 Pls
3814 3968 Pls
3809 3968 Pls
3802 3967 Pls
3794 3965 Pls
3784 3963 Pls
3772 3959 Pls
3758 3955 Pls
3742 3950 Pls
3725 3943 Pls
3707 3935 Pls
3687 3925 Pls
3666 3914 Pls
3644 3901 Pls
3621 3886 Pls
3597 3869 Pls
3573 3851 Pls
3548 3830 Pls
3523 3808 Pls
3498 3783 Pls
3472 3757 Pls
3447 3728 Pls
3422 3698 Pls
3397 3665 Pls
3374 3631 Pls
3351 3595 Pls
3328 3557 Pls
3307 3517 Pls
3287 3476 Pls
3268 3433 Pls
3251 3389 Pls
3235 3343 Pls
3221 3296 Pls
3209 3248 Pls
3198 3200 Pls
3190 3150 Pls
3183 3100 Pls
3178 3049 Pls
3175 2998 Pls
3174 2947 Pls
3175 2896 Pls
3178 2845 Pls
3183 2794 Pls
3190 2744 Pls
3199 2695 Pls
3210 2646 Pls
3223 2598 Pls
3237 2551 Pls
3253 2506 Pls
3270 2461 Pls
3289 2418 Pls
3310 2377 Pls
3331 2337 Pls
3353 2299 Pls
3377 2263 Pls
3401 2229 Pls
3425 2196 Pls
3451 2166 Pls
3476 2137 Pls
3502 2111 Pls
3527 2086 Pls
3553 2064 Pls
3578 2043 Pls
3602 2025 Pls
3626 2008 Pls
3650 1993 Pls
3672 1980 Pls
3693 1969 Pls
3713 1959 Pls
3732 1951 Pls
3749 1944 Pls
3765 1939 Pls
3779 1935 Pls
3791 1931 Pls
3802 1929 Pls
3810 1927 Pls
3817 1926 Pls
3822 1926 Pls
3826 1925 Pls
3828 1925 Pls
3829 1925 Pls
3830 1925 Pls
3830 1925 Pls
3830 1925 Pls
3831 1925 Pls
3831 1925 Pls
3831 1925 Pls
3831 1925 Pls
3831 1925 Pls
3832 1925 Pls
3832 1925 Pls
3832 1925 Pls
3832 1925 Pls
3833 1925 Pls
3833 1925 Pls
3833 1925 Pls
3833 1925 Pls
3833 1925 Pls
3834 1925 Pls
3834 1925 Pls
3834 1925 Pls
3827 1925 Pls
3827 1925 Pls
3827 1925 Pls
3827 1925 Pls
3827 1925 Pls
3828 1925 Pls
3828 1925 Pls
3828 1925 Pls
3828 1925 Pls
3829 1925 Pls
3829 1925 Pls
3829 1925 Pls
3829 1925 Pls
3829 1925 Pls
3829 1925 Pls
3829 1925 Pls
3830 1925 Pls
3830 1925 Pls
3830 1925 Pls
3830 1925 Pls
3832 1925 Pls
3834 1925 Pls
3838 1925 Pls
3845 1926 Pls
3854 1927 Pls
3865 1929 Pls
3879 1932 Pls
3895 1936 Pls
3913 1942 Pls
3934 1949 Pls
3956 1958 Pls
3981 1968 Pls
4007 1981 Pls
4035 1996 Pls
4064 2013 Pls
4095 2033 Pls
4127 2055 Pls
4159 2079 Pls
4192 2106 Pls
4226 2136 Pls
4260 2169 Pls
4293 2204 Pls
4327 2241 Pls
4360 2282 Pls
4393 2325 Pls
4425 2371 Pls
4455 2419 Pls
4485 2469 Pls
4513 2522 Pls
4540 2577 Pls
4565 2634 Pls
4588 2693 Pls
4609 2753 Pls
4627 2816 Pls
4644 2879 Pls
4658 2944 Pls
4670 3010 Pls
4679 3077 Pls
4685 3144 Pls
4689 3212 Pls
4690 3280 Pls
4689 3348 Pls
4685 3416 Pls
4678 3483 Pls
4668 3550 Pls
4656 3616 Pls
4642 3681 Pls
4625 3744 Pls
4606 3807 Pls
4585 3867 Pls
4561 3926 Pls
4536 3983 Pls
4509 4038 Pls
4481 4091 Pls
4451 4141 Pls
4420 4190 Pls
4388 4235 Pls
4355 4278 Pls
4321 4319 Pls
4287 4357 Pls
4253 4392 Pls
4219 4424 Pls
4185 4454 Pls
4151 4481 Pls
4119 4506 Pls
4087 4528 Pls
4056 4548 Pls
4026 4565 Pls
3998 4580 Pls
3971 4592 Pls
3946 4603 Pls
3923 4612 Pls
3902 4619 Pls
3883 4625 Pls
3867 4629 Pls
3853 4632 Pls
3841 4634 Pls
3832 4635 Pls
3825 4636 Pls
3820 4636 Pls
3817 4636 Pls
3816 4636 Pls
3815 4636 Pls
3814 4636 Pls
3814 4636 Pls
3813 4636 Pls
3813 4636 Pls
3812 4636 Pls
3812 4636 Pls
3811 4636 Pls
3811 4636 Pls
3810 4636 Pls
3810 4636 Pls
3809 4636 Pls
3809 4636 Pls
3808 4636 Pls
3807 4636 Pls
3807 4636 Pls
3806 4636 Pls
3806 4636 Pls
3805 4636 Pls
3805 4636 Pls
3820 4636 Pls
3819 4636 Pls
3818 4636 Pls
3818 4636 Pls
3817 4636 Pls
3817 4636 Pls
3816 4636 Pls
3816 4636 Pls
3815 4636 Pls
3814 4636 Pls
3814 4636 Pls
3813 4636 Pls
3813 4636 Pls
3812 4636 Pls
3812 4636 Pls
3811 4636 Pls
3811 4636 Pls
3810 4636 Pls
3810 4636 Pls
3809 4636 Pls
3807 4636 Pls
3804 4636 Pls
3800 4636 Pls
3793 4635 Pls
3784 4634 Pls
3772 4632 Pls
3758 4629 Pls
3742 4625 Pls
3723 4620 Pls
3702 4613 Pls
3679 4604 Pls
3654 4593 Pls
3628 4580 Pls
3599 4566 Pls
3570 4548 Pls
3539 4529 Pls
3507 4507 Pls
3474 4483 Pls
3440 4455 Pls
3406 4426 Pls
3372 4393 Pls
3338 4358 Pls
3304 4320 Pls
3271 4280 Pls
3238 4237 Pls
3205 4191 Pls
3174 4143 Pls
3144 4093 Pls
3116 4040 Pls
3089 3985 Pls
3064 3928 Pls
3040 3869 Pls
3019 3809 Pls
3000 3746 Pls
2983 3683 Pls
2968 3618 Pls
2956 3552 Pls
2947 3485 Pls
2940 3418 Pls
2936 3350 Pls
2934 3282 Pls
2936 3215 Pls
2939 3147 Pls
2946 3079 Pls
2955 3013 Pls
2966 2947 Pls
2981 2882 Pls
2997 2818 Pls
3016 2756 Pls
3037 2696 Pls
3060 2637 Pls
3085 2580 Pls
3111 2525 Pls
3139 2472 Pls
3169 2421 Pls
3200 2373 Pls
3231 2328 Pls
3264 2285 Pls
3297 2244 Pls
3331 2206 Pls
3365 2171 Pls
3398 2139 Pls
3432 2109 Pls
3465 2082 Pls
3498 2057 Pls
3529 2035 Pls
3560 2016 Pls
3589 1999 Pls
3617 1984 Pls
3644 1971 Pls
3668 1960 Pls
3691 1952 Pls
3711 1944 Pls
3730 1939 Pls
3746 1935 Pls
3760 1932 Pls
3771 1930 Pls
3780 1929 Pls
3786 1928 Pls
3791 1928 Pls
3793 1928 Pls
3794 1928 Pls
3795 1928 Pls
3795 1928 Pls
3795 1928 Pls
3795 1928 Pls
3796 1928 Pls
3796 1928 Pls
3796 1928 Pls
3796 1928 Pls
3796 1928 Pls
3796 1928 Pls
3797 1928 Pls
3797 1928 Pls
3797 1928 Pls
3797 1928 Pls
3798 1928 Pls
3798 1928 Pls
3798 1929 Pls
3798 1929 Pls
3798 1929 Pls
3798 1929 Pls
3791 1928 Pls
3791 1928 Pls
3791 1928 Pls
3792 1928 Pls
3792 1928 Pls
3792 1928 Pls
3792 1928 Pls
3793 1928 Pls
3793 1928 Pls
3793 1928 Pls
3793 1928 Pls
3793 1928 Pls
3794 1928 Pls
3794 1928 Pls
3794 1928 Pls
3794 1928 Pls
3795 1928 Pls
3795 1928 Pls
3795 1928 Pls
3796 1928 Pls
3797 1928 Pls
3799 1929 Pls
3803 1929 Pls
3808 1930 Pls
3815 1931 Pls
3823 1932 Pls
3834 1935 Pls
3846 1938 Pls
3860 1942 Pls
3876 1948 Pls
3893 1955 Pls
3912 1963 Pls
3932 1973 Pls
3953 1984 Pls
3975 1997 Pls
3999 2012 Pls
4023 2028 Pls
4047 2047 Pls
4072 2067 Pls
4098 2090 Pls
4123 2114 Pls
4149 2141 Pls
4174 2169 Pls
4200 2200 Pls
4224 2232 Pls
4248 2267 Pls
4272 2303 Pls
4294 2341 Pls
4316 2381 Pls
4336 2422 Pls
4355 2465 Pls
4372 2510 Pls
4388 2555 Pls
4403 2602 Pls
4415 2650 Pls
4426 2699 Pls
4435 2748 Pls
4442 2799 Pls
4447 2849 Pls
4450 2900 Pls
4451 2951 Pls
4451 3003 Pls
4448 3054 Pls
4443 3104 Pls
4436 3154 Pls
4427 3204 Pls
4417 3253 Pls
4404 3301 Pls
4390 3348 Pls
4374 3393 Pls
4357 3438 Pls
4339 3481 Pls
4319 3522 Pls
4297 3562 Pls
4275 3600 Pls
4252 3636 Pls
4228 3670 Pls
4204 3703 Pls
4179 3733 Pls
4154 3762 Pls
4128 3789 Pls
4103 3813 Pls
4078 3836 Pls
4053 3856 Pls
4029 3875 Pls
4005 3891 Pls
3982 3906 Pls
3960 3919 Pls
3939 3931 Pls
3919 3940 Pls
3901 3949 Pls
3884 3955 Pls
3868 3961 Pls
3854 3965 Pls
3842 3969 Pls
3832 3971 Pls
3824 3973 Pls
3817 3974 Pls
3812 3975 Pls
3809 3975 Pls
3807 3975 Pls
3806 3975 Pls
3805 3975 Pls
3805 3975 Pls
3805 3975 Pls
3805 3975 Pls
3805 3975 Pls
3805 3975 Pls
3805 3975 Pls
3805 3975 Pls
3805 3976 Pls
3805 3976 Pls
3805 3976 Pls
3805 3976 Pls
3805 3976 Pls
3805 3976 Pls
3805 3976 Pls
3805 3976 Pls
3805 3976 Pls
3805 3976 Pls
3805 3976 Pls
3805 3976 Pls
5067 4766 Pls
% End plot #1
2.000 UL
LTb
LCb setrgbcolor
1.000 UL
LTB
LCb setrgbcolor
2198 4899 N
0 -4451 V
3237 0 V
0 4451 V
-3237 0 V
Z stroke
1.000 UP
1.000 UL
LTb
LCb setrgbcolor
stroke
grestore
end
showpage
%%Trailer
%%DocumentFonts: Helvetica
