%!PS-Adobe-2.0 EPSF-2.0
%%Title: gnuplot_Zplt_YZ.eps
%%Creator: gnuplot 5.2 patchlevel 2
%%CreationDate: Sat Mar 19 05:30:20 2022
%%DocumentFonts: (atend)
%%BoundingBox: 50 50 410 302
%%EndComments
%%BeginProlog
/gnudict 256 dict def
gnudict begin
%
% The following true/false flags may be edited by hand if desired.
% The unit line width and grayscale image gamma correction may also be changed.
%
/Color true def
/Blacktext false def
/Solid false def
/Dashlength 1 def
/Landscape false def
/Level1 false def
/Level3 false def
/Rounded false def
/ClipToBoundingBox false def
/SuppressPDFMark false def
/TransparentPatterns false def
/gnulinewidth 5.000 def
/userlinewidth gnulinewidth def
/Gamma 1.0 def
/BackgroundColor {-1.000 -1.000 -1.000} def
%
/vshift -46 def
/dl1 {
  10.0 Dashlength userlinewidth gnulinewidth div mul mul mul
  Rounded { currentlinewidth 0.75 mul sub dup 0 le { pop 0.01 } if } if
} def
/dl2 {
  10.0 Dashlength userlinewidth gnulinewidth div mul mul mul
  Rounded { currentlinewidth 0.75 mul add } if
} def
/hpt_ 31.5 def
/vpt_ 31.5 def
/hpt hpt_ def
/vpt vpt_ def
/doclip {
  ClipToBoundingBox {
    newpath 50 50 moveto 410 50 lineto 410 302 lineto 50 302 lineto closepath
    clip
  } if
} def
%
% Gnuplot Prolog Version 5.1 (Oct 2015)
%
%/SuppressPDFMark true def
%
/M {moveto} bind def
/L {lineto} bind def
/R {rmoveto} bind def
/V {rlineto} bind def
/N {newpath moveto} bind def
/Z {closepath} bind def
/C {setrgbcolor} bind def
/f {rlineto fill} bind def
/g {setgray} bind def
/Gshow {show} def   % May be redefined later in the file to support UTF-8
/vpt2 vpt 2 mul def
/hpt2 hpt 2 mul def
/Lshow {currentpoint stroke M 0 vshift R 
	Blacktext {gsave 0 setgray textshow grestore} {textshow} ifelse} def
/Rshow {currentpoint stroke M dup stringwidth pop neg vshift R
	Blacktext {gsave 0 setgray textshow grestore} {textshow} ifelse} def
/Cshow {currentpoint stroke M dup stringwidth pop -2 div vshift R 
	Blacktext {gsave 0 setgray textshow grestore} {textshow} ifelse} def
/UP {dup vpt_ mul /vpt exch def hpt_ mul /hpt exch def
  /hpt2 hpt 2 mul def /vpt2 vpt 2 mul def} def
/DL {Color {setrgbcolor Solid {pop []} if 0 setdash}
 {pop pop pop 0 setgray Solid {pop []} if 0 setdash} ifelse} def
/BL {stroke userlinewidth 2 mul setlinewidth
	Rounded {1 setlinejoin 1 setlinecap} if} def
/AL {stroke userlinewidth 2 div setlinewidth
	Rounded {1 setlinejoin 1 setlinecap} if} def
/UL {dup gnulinewidth mul /userlinewidth exch def
	dup 1 lt {pop 1} if 10 mul /udl exch def} def
/PL {stroke userlinewidth setlinewidth
	Rounded {1 setlinejoin 1 setlinecap} if} def
3.8 setmiterlimit
% Classic Line colors (version 5.0)
/LCw {1 1 1} def
/LCb {0 0 0} def
/LCa {0 0 0} def
/LC0 {1 0 0} def
/LC1 {0 1 0} def
/LC2 {0 0 1} def
/LC3 {1 0 1} def
/LC4 {0 1 1} def
/LC5 {1 1 0} def
/LC6 {0 0 0} def
/LC7 {1 0.3 0} def
/LC8 {0.5 0.5 0.5} def
% Default dash patterns (version 5.0)
/LTB {BL [] LCb DL} def
/LTw {PL [] 1 setgray} def
/LTb {PL [] LCb DL} def
/LTa {AL [1 udl mul 2 udl mul] 0 setdash LCa setrgbcolor} def
/LT0 {PL [] LC0 DL} def
/LT1 {PL [2 dl1 3 dl2] LC1 DL} def
/LT2 {PL [1 dl1 1.5 dl2] LC2 DL} def
/LT3 {PL [6 dl1 2 dl2 1 dl1 2 dl2] LC3 DL} def
/LT4 {PL [1 dl1 2 dl2 6 dl1 2 dl2 1 dl1 2 dl2] LC4 DL} def
/LT5 {PL [4 dl1 2 dl2] LC5 DL} def
/LT6 {PL [1.5 dl1 1.5 dl2 1.5 dl1 1.5 dl2 1.5 dl1 6 dl2] LC6 DL} def
/LT7 {PL [3 dl1 3 dl2 1 dl1 3 dl2] LC7 DL} def
/LT8 {PL [2 dl1 2 dl2 2 dl1 6 dl2] LC8 DL} def
/SL {[] 0 setdash} def
/Pnt {stroke [] 0 setdash gsave 1 setlinecap M 0 0 V stroke grestore} def
/Dia {stroke [] 0 setdash 2 copy vpt add M
  hpt neg vpt neg V hpt vpt neg V
  hpt vpt V hpt neg vpt V closepath stroke
  Pnt} def
/Pls {stroke [] 0 setdash vpt sub M 0 vpt2 V
  currentpoint stroke M
  hpt neg vpt neg R hpt2 0 V stroke
 } def
/Box {stroke [] 0 setdash 2 copy exch hpt sub exch vpt add M
  0 vpt2 neg V hpt2 0 V 0 vpt2 V
  hpt2 neg 0 V closepath stroke
  Pnt} def
/Crs {stroke [] 0 setdash exch hpt sub exch vpt add M
  hpt2 vpt2 neg V currentpoint stroke M
  hpt2 neg 0 R hpt2 vpt2 V stroke} def
/TriU {stroke [] 0 setdash 2 copy vpt 1.12 mul add M
  hpt neg vpt -1.62 mul V
  hpt 2 mul 0 V
  hpt neg vpt 1.62 mul V closepath stroke
  Pnt} def
/Star {2 copy Pls Crs} def
/BoxF {stroke [] 0 setdash exch hpt sub exch vpt add M
  0 vpt2 neg V hpt2 0 V 0 vpt2 V
  hpt2 neg 0 V closepath fill} def
/TriUF {stroke [] 0 setdash vpt 1.12 mul add M
  hpt neg vpt -1.62 mul V
  hpt 2 mul 0 V
  hpt neg vpt 1.62 mul V closepath fill} def
/TriD {stroke [] 0 setdash 2 copy vpt 1.12 mul sub M
  hpt neg vpt 1.62 mul V
  hpt 2 mul 0 V
  hpt neg vpt -1.62 mul V closepath stroke
  Pnt} def
/TriDF {stroke [] 0 setdash vpt 1.12 mul sub M
  hpt neg vpt 1.62 mul V
  hpt 2 mul 0 V
  hpt neg vpt -1.62 mul V closepath fill} def
/DiaF {stroke [] 0 setdash vpt add M
  hpt neg vpt neg V hpt vpt neg V
  hpt vpt V hpt neg vpt V closepath fill} def
/Pent {stroke [] 0 setdash 2 copy gsave
  translate 0 hpt M 4 {72 rotate 0 hpt L} repeat
  closepath stroke grestore Pnt} def
/PentF {stroke [] 0 setdash gsave
  translate 0 hpt M 4 {72 rotate 0 hpt L} repeat
  closepath fill grestore} def
/Circle {stroke [] 0 setdash 2 copy
  hpt 0 360 arc stroke Pnt} def
/CircleF {stroke [] 0 setdash hpt 0 360 arc fill} def
/C0 {BL [] 0 setdash 2 copy moveto vpt 90 450 arc} bind def
/C1 {BL [] 0 setdash 2 copy moveto
	2 copy vpt 0 90 arc closepath fill
	vpt 0 360 arc closepath} bind def
/C2 {BL [] 0 setdash 2 copy moveto
	2 copy vpt 90 180 arc closepath fill
	vpt 0 360 arc closepath} bind def
/C3 {BL [] 0 setdash 2 copy moveto
	2 copy vpt 0 180 arc closepath fill
	vpt 0 360 arc closepath} bind def
/C4 {BL [] 0 setdash 2 copy moveto
	2 copy vpt 180 270 arc closepath fill
	vpt 0 360 arc closepath} bind def
/C5 {BL [] 0 setdash 2 copy moveto
	2 copy vpt 0 90 arc
	2 copy moveto
	2 copy vpt 180 270 arc closepath fill
	vpt 0 360 arc} bind def
/C6 {BL [] 0 setdash 2 copy moveto
	2 copy vpt 90 270 arc closepath fill
	vpt 0 360 arc closepath} bind def
/C7 {BL [] 0 setdash 2 copy moveto
	2 copy vpt 0 270 arc closepath fill
	vpt 0 360 arc closepath} bind def
/C8 {BL [] 0 setdash 2 copy moveto
	2 copy vpt 270 360 arc closepath fill
	vpt 0 360 arc closepath} bind def
/C9 {BL [] 0 setdash 2 copy moveto
	2 copy vpt 270 450 arc closepath fill
	vpt 0 360 arc closepath} bind def
/C10 {BL [] 0 setdash 2 copy 2 copy moveto vpt 270 360 arc closepath fill
	2 copy moveto
	2 copy vpt 90 180 arc closepath fill
	vpt 0 360 arc closepath} bind def
/C11 {BL [] 0 setdash 2 copy moveto
	2 copy vpt 0 180 arc closepath fill
	2 copy moveto
	2 copy vpt 270 360 arc closepath fill
	vpt 0 360 arc closepath} bind def
/C12 {BL [] 0 setdash 2 copy moveto
	2 copy vpt 180 360 arc closepath fill
	vpt 0 360 arc closepath} bind def
/C13 {BL [] 0 setdash 2 copy moveto
	2 copy vpt 0 90 arc closepath fill
	2 copy moveto
	2 copy vpt 180 360 arc closepath fill
	vpt 0 360 arc closepath} bind def
/C14 {BL [] 0 setdash 2 copy moveto
	2 copy vpt 90 360 arc closepath fill
	vpt 0 360 arc} bind def
/C15 {BL [] 0 setdash 2 copy vpt 0 360 arc closepath fill
	vpt 0 360 arc closepath} bind def
/Rec {newpath 4 2 roll moveto 1 index 0 rlineto 0 exch rlineto
	neg 0 rlineto closepath} bind def
/Square {dup Rec} bind def
/Bsquare {vpt sub exch vpt sub exch vpt2 Square} bind def
/S0 {BL [] 0 setdash 2 copy moveto 0 vpt rlineto BL Bsquare} bind def
/S1 {BL [] 0 setdash 2 copy vpt Square fill Bsquare} bind def
/S2 {BL [] 0 setdash 2 copy exch vpt sub exch vpt Square fill Bsquare} bind def
/S3 {BL [] 0 setdash 2 copy exch vpt sub exch vpt2 vpt Rec fill Bsquare} bind def
/S4 {BL [] 0 setdash 2 copy exch vpt sub exch vpt sub vpt Square fill Bsquare} bind def
/S5 {BL [] 0 setdash 2 copy 2 copy vpt Square fill
	exch vpt sub exch vpt sub vpt Square fill Bsquare} bind def
/S6 {BL [] 0 setdash 2 copy exch vpt sub exch vpt sub vpt vpt2 Rec fill Bsquare} bind def
/S7 {BL [] 0 setdash 2 copy exch vpt sub exch vpt sub vpt vpt2 Rec fill
	2 copy vpt Square fill Bsquare} bind def
/S8 {BL [] 0 setdash 2 copy vpt sub vpt Square fill Bsquare} bind def
/S9 {BL [] 0 setdash 2 copy vpt sub vpt vpt2 Rec fill Bsquare} bind def
/S10 {BL [] 0 setdash 2 copy vpt sub vpt Square fill 2 copy exch vpt sub exch vpt Square fill
	Bsquare} bind def
/S11 {BL [] 0 setdash 2 copy vpt sub vpt Square fill 2 copy exch vpt sub exch vpt2 vpt Rec fill
	Bsquare} bind def
/S12 {BL [] 0 setdash 2 copy exch vpt sub exch vpt sub vpt2 vpt Rec fill Bsquare} bind def
/S13 {BL [] 0 setdash 2 copy exch vpt sub exch vpt sub vpt2 vpt Rec fill
	2 copy vpt Square fill Bsquare} bind def
/S14 {BL [] 0 setdash 2 copy exch vpt sub exch vpt sub vpt2 vpt Rec fill
	2 copy exch vpt sub exch vpt Square fill Bsquare} bind def
/S15 {BL [] 0 setdash 2 copy Bsquare fill Bsquare} bind def
/D0 {gsave translate 45 rotate 0 0 S0 stroke grestore} bind def
/D1 {gsave translate 45 rotate 0 0 S1 stroke grestore} bind def
/D2 {gsave translate 45 rotate 0 0 S2 stroke grestore} bind def
/D3 {gsave translate 45 rotate 0 0 S3 stroke grestore} bind def
/D4 {gsave translate 45 rotate 0 0 S4 stroke grestore} bind def
/D5 {gsave translate 45 rotate 0 0 S5 stroke grestore} bind def
/D6 {gsave translate 45 rotate 0 0 S6 stroke grestore} bind def
/D7 {gsave translate 45 rotate 0 0 S7 stroke grestore} bind def
/D8 {gsave translate 45 rotate 0 0 S8 stroke grestore} bind def
/D9 {gsave translate 45 rotate 0 0 S9 stroke grestore} bind def
/D10 {gsave translate 45 rotate 0 0 S10 stroke grestore} bind def
/D11 {gsave translate 45 rotate 0 0 S11 stroke grestore} bind def
/D12 {gsave translate 45 rotate 0 0 S12 stroke grestore} bind def
/D13 {gsave translate 45 rotate 0 0 S13 stroke grestore} bind def
/D14 {gsave translate 45 rotate 0 0 S14 stroke grestore} bind def
/D15 {gsave translate 45 rotate 0 0 S15 stroke grestore} bind def
/DiaE {stroke [] 0 setdash vpt add M
  hpt neg vpt neg V hpt vpt neg V
  hpt vpt V hpt neg vpt V closepath stroke} def
/BoxE {stroke [] 0 setdash exch hpt sub exch vpt add M
  0 vpt2 neg V hpt2 0 V 0 vpt2 V
  hpt2 neg 0 V closepath stroke} def
/TriUE {stroke [] 0 setdash vpt 1.12 mul add M
  hpt neg vpt -1.62 mul V
  hpt 2 mul 0 V
  hpt neg vpt 1.62 mul V closepath stroke} def
/TriDE {stroke [] 0 setdash vpt 1.12 mul sub M
  hpt neg vpt 1.62 mul V
  hpt 2 mul 0 V
  hpt neg vpt -1.62 mul V closepath stroke} def
/PentE {stroke [] 0 setdash gsave
  translate 0 hpt M 4 {72 rotate 0 hpt L} repeat
  closepath stroke grestore} def
/CircE {stroke [] 0 setdash 
  hpt 0 360 arc stroke} def
/Opaque {gsave closepath 1 setgray fill grestore 0 setgray closepath} def
/DiaW {stroke [] 0 setdash vpt add M
  hpt neg vpt neg V hpt vpt neg V
  hpt vpt V hpt neg vpt V Opaque stroke} def
/BoxW {stroke [] 0 setdash exch hpt sub exch vpt add M
  0 vpt2 neg V hpt2 0 V 0 vpt2 V
  hpt2 neg 0 V Opaque stroke} def
/TriUW {stroke [] 0 setdash vpt 1.12 mul add M
  hpt neg vpt -1.62 mul V
  hpt 2 mul 0 V
  hpt neg vpt 1.62 mul V Opaque stroke} def
/TriDW {stroke [] 0 setdash vpt 1.12 mul sub M
  hpt neg vpt 1.62 mul V
  hpt 2 mul 0 V
  hpt neg vpt -1.62 mul V Opaque stroke} def
/PentW {stroke [] 0 setdash gsave
  translate 0 hpt M 4 {72 rotate 0 hpt L} repeat
  Opaque stroke grestore} def
/CircW {stroke [] 0 setdash 
  hpt 0 360 arc Opaque stroke} def
/BoxFill {gsave Rec 1 setgray fill grestore} def
/Density {
  /Fillden exch def
  currentrgbcolor
  /ColB exch def /ColG exch def /ColR exch def
  /ColR ColR Fillden mul Fillden sub 1 add def
  /ColG ColG Fillden mul Fillden sub 1 add def
  /ColB ColB Fillden mul Fillden sub 1 add def
  ColR ColG ColB setrgbcolor} def
/BoxColFill {gsave Rec PolyFill} def
/PolyFill {gsave Density fill grestore grestore} def
/h {rlineto rlineto rlineto gsave closepath fill grestore} bind def
%
% PostScript Level 1 Pattern Fill routine for rectangles
% Usage: x y w h s a XX PatternFill
%	x,y = lower left corner of box to be filled
%	w,h = width and height of box
%	  a = angle in degrees between lines and x-axis
%	 XX = 0/1 for no/yes cross-hatch
%
/PatternFill {gsave /PFa [ 9 2 roll ] def
  PFa 0 get PFa 2 get 2 div add PFa 1 get PFa 3 get 2 div add translate
  PFa 2 get -2 div PFa 3 get -2 div PFa 2 get PFa 3 get Rec
  TransparentPatterns {} {gsave 1 setgray fill grestore} ifelse
  clip
  currentlinewidth 0.5 mul setlinewidth
  /PFs PFa 2 get dup mul PFa 3 get dup mul add sqrt def
  0 0 M PFa 5 get rotate PFs -2 div dup translate
  0 1 PFs PFa 4 get div 1 add floor cvi
	{PFa 4 get mul 0 M 0 PFs V} for
  0 PFa 6 get ne {
	0 1 PFs PFa 4 get div 1 add floor cvi
	{PFa 4 get mul 0 2 1 roll M PFs 0 V} for
 } if
  stroke grestore} def
%
/languagelevel where
 {pop languagelevel} {1} ifelse
dup 2 lt
	{/InterpretLevel1 true def
	 /InterpretLevel3 false def}
	{/InterpretLevel1 Level1 def
	 2 gt
	    {/InterpretLevel3 Level3 def}
	    {/InterpretLevel3 false def}
	 ifelse }
 ifelse
%
% PostScript level 2 pattern fill definitions
%
/Level2PatternFill {
/Tile8x8 {/PaintType 2 /PatternType 1 /TilingType 1 /BBox [0 0 8 8] /XStep 8 /YStep 8}
	bind def
/KeepColor {currentrgbcolor [/Pattern /DeviceRGB] setcolorspace} bind def
<< Tile8x8
 /PaintProc {0.5 setlinewidth pop 0 0 M 8 8 L 0 8 M 8 0 L stroke} 
>> matrix makepattern
/Pat1 exch def
<< Tile8x8
 /PaintProc {0.5 setlinewidth pop 0 0 M 8 8 L 0 8 M 8 0 L stroke
	0 4 M 4 8 L 8 4 L 4 0 L 0 4 L stroke}
>> matrix makepattern
/Pat2 exch def
<< Tile8x8
 /PaintProc {0.5 setlinewidth pop 0 0 M 0 8 L
	8 8 L 8 0 L 0 0 L fill}
>> matrix makepattern
/Pat3 exch def
<< Tile8x8
 /PaintProc {0.5 setlinewidth pop -4 8 M 8 -4 L
	0 12 M 12 0 L stroke}
>> matrix makepattern
/Pat4 exch def
<< Tile8x8
 /PaintProc {0.5 setlinewidth pop -4 0 M 8 12 L
	0 -4 M 12 8 L stroke}
>> matrix makepattern
/Pat5 exch def
<< Tile8x8
 /PaintProc {0.5 setlinewidth pop -2 8 M 4 -4 L
	0 12 M 8 -4 L 4 12 M 10 0 L stroke}
>> matrix makepattern
/Pat6 exch def
<< Tile8x8
 /PaintProc {0.5 setlinewidth pop -2 0 M 4 12 L
	0 -4 M 8 12 L 4 -4 M 10 8 L stroke}
>> matrix makepattern
/Pat7 exch def
<< Tile8x8
 /PaintProc {0.5 setlinewidth pop 8 -2 M -4 4 L
	12 0 M -4 8 L 12 4 M 0 10 L stroke}
>> matrix makepattern
/Pat8 exch def
<< Tile8x8
 /PaintProc {0.5 setlinewidth pop 0 -2 M 12 4 L
	-4 0 M 12 8 L -4 4 M 8 10 L stroke}
>> matrix makepattern
/Pat9 exch def
/Pattern1 {PatternBgnd KeepColor Pat1 setpattern} bind def
/Pattern2 {PatternBgnd KeepColor Pat2 setpattern} bind def
/Pattern3 {PatternBgnd KeepColor Pat3 setpattern} bind def
/Pattern4 {PatternBgnd KeepColor Landscape {Pat5} {Pat4} ifelse setpattern} bind def
/Pattern5 {PatternBgnd KeepColor Landscape {Pat4} {Pat5} ifelse setpattern} bind def
/Pattern6 {PatternBgnd KeepColor Landscape {Pat9} {Pat6} ifelse setpattern} bind def
/Pattern7 {PatternBgnd KeepColor Landscape {Pat8} {Pat7} ifelse setpattern} bind def
} def
%
%
%End of PostScript Level 2 code
%
/PatternBgnd {
  TransparentPatterns {} {gsave 1 setgray fill grestore} ifelse
} def
%
% Substitute for Level 2 pattern fill codes with
% grayscale if Level 2 support is not selected.
%
/Level1PatternFill {
/Pattern1 {0.250 Density} bind def
/Pattern2 {0.500 Density} bind def
/Pattern3 {0.750 Density} bind def
/Pattern4 {0.125 Density} bind def
/Pattern5 {0.375 Density} bind def
/Pattern6 {0.625 Density} bind def
/Pattern7 {0.875 Density} bind def
} def
%
% Now test for support of Level 2 code
%
Level1 {Level1PatternFill} {Level2PatternFill} ifelse
%
/Symbol-Oblique /Symbol findfont [1 0 .167 1 0 0] makefont
dup length dict begin {1 index /FID eq {pop pop} {def} ifelse} forall
currentdict end definefont pop
%
/Metrics {ExtendTextBox Gswidth} def
/Lwidth {currentpoint stroke M 0 vshift R Metrics} def
/Rwidth {currentpoint stroke M dup stringwidth pop neg vshift R Metrics} def
/Cwidth {currentpoint stroke M dup stringwidth pop -2 div vshift R Metrics} def
/GLwidth {currentpoint stroke M 0 vshift R {ExtendTextBox} forall} def
/GRwidth {currentpoint stroke M dup Gwidth vshift R {ExtendTextBox} forall} def
/GCwidth {currentpoint stroke M dup Gwidth 2 div vshift R {ExtendTextBox} forall} def
/GLwidth2 {0 Gwidth AddGlyphWidth} def
/GRwidth2 {Gwidth -1 mul 0 AddGlyphWidth} def
/GCwidth2 {Gwidth 2 div dup -1 mul AddGlyphWidth} def
/AddGlyphWidth { dup TBx2 gt {userdict /TBx2 3 -1 roll put} {pop} ifelse
                 dup TBx1 lt {userdict /TBx1 3 -1 roll put} {pop} ifelse } def
/MFshow {
   { dup 5 get 3 ge
     { 5 get 3 eq {gsave} {grestore} ifelse }
     {dup dup 0 get findfont exch 1 get scalefont setfont
     [ currentpoint ] exch dup 2 get 0 exch R dup 5 get 2 ne {dup dup 6
     get exch 4 get {textshow} {Metrics pop 0 R} ifelse }if dup 5 get 0 eq
     {dup 3 get {2 get neg 0 exch R pop} {pop aload pop M} ifelse} {dup 5
     get 1 eq {dup 2 get exch dup 3 get exch 6 get Gswidth pop -2 div
     dup 0 R} {dup 6 get Gswidth pop -2 div 0 R 6 get
     textshow 2 index {aload pop M neg 3 -1 roll neg R pop pop} {pop pop pop
     pop aload pop M} ifelse }ifelse }ifelse }
     ifelse }
   forall} def
/Gswidth {dup type /stringtype eq {stringwidth} {pop (n) stringwidth} ifelse} def
/MFwidth {0 exch { dup 5 get 3 ge { 5 get 3 eq { 0 } { pop } ifelse }
 {dup 3 get{dup dup 0 get findfont exch 1 get scalefont setfont
     6 get Gswidth pop add} {pop} ifelse} ifelse} forall} def
/MLshow { currentpoint stroke M
  0 exch R
  Blacktext {gsave 0 setgray MFshow grestore} {MFshow} ifelse } bind def
/MRshow { currentpoint stroke M
  exch dup MFwidth neg 3 -1 roll R
  Blacktext {gsave 0 setgray MFshow grestore} {MFshow} ifelse } bind def
/MCshow { currentpoint stroke M
  exch dup MFwidth -2 div 3 -1 roll R
  Blacktext {gsave 0 setgray MFshow grestore} {MFshow} ifelse } bind def
/XYsave    { [( ) 1 2 true false 3 ()] } bind def
/XYrestore { [( ) 1 2 true false 4 ()] } bind def
Level1 SuppressPDFMark or 
{} {
/SDict 10 dict def
systemdict /pdfmark known not {
  userdict /pdfmark systemdict /cleartomark get put
} if
SDict begin [
  /Title (gnuplot_Zplt_YZ.eps)
  /Subject (gnuplot plot)
  /Creator (gnuplot 5.2 patchlevel 2)
%  /Producer (gnuplot)
%  /Keywords ()
  /CreationDate (Sat Mar 19 05:30:20 2022)
  /DOCINFO pdfmark
end
} ifelse
%
% Support for boxed text - Ethan A Merritt Sep 2016
%
/InitTextBox { userdict /TBy2 3 -1 roll put userdict /TBx2 3 -1 roll put
           userdict /TBy1 3 -1 roll put userdict /TBx1 3 -1 roll put
	   /Boxing true def } def
/ExtendTextBox { dup type /stringtype eq
    { Boxing { gsave dup false charpath pathbbox
      dup TBy2 gt {userdict /TBy2 3 -1 roll put} {pop} ifelse
      dup TBx2 gt {userdict /TBx2 3 -1 roll put} {pop} ifelse
      dup TBy1 lt {userdict /TBy1 3 -1 roll put} {pop} ifelse
      dup TBx1 lt {userdict /TBx1 3 -1 roll put} {pop} ifelse
      grestore } if }
    {} ifelse} def
/PopTextBox { newpath TBx1 TBxmargin sub TBy1 TBymargin sub M
               TBx1 TBxmargin sub TBy2 TBymargin add L
	       TBx2 TBxmargin add TBy2 TBymargin add L
	       TBx2 TBxmargin add TBy1 TBymargin sub L closepath } def
/DrawTextBox { PopTextBox stroke /Boxing false def} def
/FillTextBox { gsave PopTextBox fill grestore /Boxing false def} def
0 0 0 0 InitTextBox
/TBxmargin 20 def
/TBymargin 20 def
/Boxing false def
/textshow { ExtendTextBox Gshow } def
%
end
%%EndProlog
%%Page: 1 1
gnudict begin
gsave
doclip
50 50 translate
0.050 0.050 scale
0 setgray
newpath
(Helvetica) findfont 140 scalefont setfont
BackgroundColor 0 lt 3 1 roll 0 lt exch 0 lt or or not {BackgroundColor C 1.000 0 0 7200.00 5040.00 BoxColFill} if
/Helvetica findfont 140 scalefont setfont
/vshift -46 def
1.000 UL
LTb
LCb setrgbcolor
0.500 UL
LTa
LCa setrgbcolor
2249 448 M
2967 0 V
stroke
1.000 UL
LTb
LCb setrgbcolor
2249 448 M
63 0 V
2904 0 R
-63 0 V
stroke
2165 448 M
[ [(Helvetica) 140.0 0.0 true true 0 (-2)]
] -46.7 MRshow
1.000 UL
LTb
LCb setrgbcolor
0.500 UL
LTa
LCa setrgbcolor
2249 1190 M
2967 0 V
stroke
1.000 UL
LTb
LCb setrgbcolor
2249 1190 M
63 0 V
2904 0 R
-63 0 V
stroke
2165 1190 M
[ [(Helvetica) 140.0 0.0 true true 0 (-1)]
] -46.7 MRshow
1.000 UL
LTb
LCb setrgbcolor
0.500 UL
LTa
LCa setrgbcolor
2249 1932 M
2967 0 V
stroke
1.000 UL
LTb
LCb setrgbcolor
2249 1932 M
63 0 V
2904 0 R
-63 0 V
stroke
2165 1932 M
[ [(Helvetica) 140.0 0.0 true true 0 ( 0)]
] -46.7 MRshow
1.000 UL
LTb
LCb setrgbcolor
0.500 UL
LTa
LCa setrgbcolor
2249 2674 M
2967 0 V
stroke
1.000 UL
LTb
LCb setrgbcolor
2249 2674 M
63 0 V
2904 0 R
-63 0 V
stroke
2165 2674 M
[ [(Helvetica) 140.0 0.0 true true 0 ( 1)]
] -46.7 MRshow
1.000 UL
LTb
LCb setrgbcolor
0.500 UL
LTa
LCa setrgbcolor
2249 3415 M
2967 0 V
stroke
1.000 UL
LTb
LCb setrgbcolor
2249 3415 M
63 0 V
2904 0 R
-63 0 V
stroke
2165 3415 M
[ [(Helvetica) 140.0 0.0 true true 0 ( 2)]
] -46.7 MRshow
1.000 UL
LTb
LCb setrgbcolor
0.500 UL
LTa
LCa setrgbcolor
2249 4157 M
2967 0 V
stroke
1.000 UL
LTb
LCb setrgbcolor
2249 4157 M
63 0 V
2904 0 R
-63 0 V
stroke
2165 4157 M
[ [(Helvetica) 140.0 0.0 true true 0 ( 3)]
] -46.7 MRshow
1.000 UL
LTb
LCb setrgbcolor
0.500 UL
LTa
LCa setrgbcolor
2249 4899 M
2967 0 V
stroke
1.000 UL
LTb
LCb setrgbcolor
2249 4899 M
63 0 V
2904 0 R
-63 0 V
stroke
2165 4899 M
[ [(Helvetica) 140.0 0.0 true true 0 ( 4)]
] -46.7 MRshow
1.000 UL
LTb
LCb setrgbcolor
0.500 UL
LTa
LCa setrgbcolor
2249 448 M
0 4248 V
0 140 R
0 63 V
stroke
1.000 UL
LTb
LCb setrgbcolor
2249 448 M
0 63 V
0 4388 R
0 -63 V
stroke
2249 308 M
[ [(Helvetica) 140.0 0.0 true true 0 (-2)]
] -46.7 MCshow
1.000 UL
LTb
LCb setrgbcolor
0.500 UL
LTa
LCa setrgbcolor
2620 448 M
0 4248 V
0 140 R
0 63 V
stroke
1.000 UL
LTb
LCb setrgbcolor
2620 448 M
0 63 V
0 4388 R
0 -63 V
stroke
2620 308 M
[ [(Helvetica) 140.0 0.0 true true 0 (-1.5)]
] -46.7 MCshow
1.000 UL
LTb
LCb setrgbcolor
0.500 UL
LTa
LCa setrgbcolor
2991 448 M
0 4248 V
0 140 R
0 63 V
stroke
1.000 UL
LTb
LCb setrgbcolor
2991 448 M
0 63 V
0 4388 R
0 -63 V
stroke
2991 308 M
[ [(Helvetica) 140.0 0.0 true true 0 (-1)]
] -46.7 MCshow
1.000 UL
LTb
LCb setrgbcolor
0.500 UL
LTa
LCa setrgbcolor
3362 448 M
0 4248 V
0 140 R
0 63 V
stroke
1.000 UL
LTb
LCb setrgbcolor
3362 448 M
0 63 V
0 4388 R
0 -63 V
stroke
3362 308 M
[ [(Helvetica) 140.0 0.0 true true 0 (-0.5)]
] -46.7 MCshow
1.000 UL
LTb
LCb setrgbcolor
0.500 UL
LTa
LCa setrgbcolor
3733 448 M
0 4248 V
0 140 R
0 63 V
stroke
1.000 UL
LTb
LCb setrgbcolor
3733 448 M
0 63 V
0 4388 R
0 -63 V
stroke
3733 308 M
[ [(Helvetica) 140.0 0.0 true true 0 ( 0)]
] -46.7 MCshow
1.000 UL
LTb
LCb setrgbcolor
0.500 UL
LTa
LCa setrgbcolor
4103 448 M
0 4248 V
0 140 R
0 63 V
stroke
1.000 UL
LTb
LCb setrgbcolor
4103 448 M
0 63 V
0 4388 R
0 -63 V
stroke
4103 308 M
[ [(Helvetica) 140.0 0.0 true true 0 ( 0.5)]
] -46.7 MCshow
1.000 UL
LTb
LCb setrgbcolor
0.500 UL
LTa
LCa setrgbcolor
4474 448 M
0 4248 V
0 140 R
0 63 V
stroke
1.000 UL
LTb
LCb setrgbcolor
4474 448 M
0 63 V
0 4388 R
0 -63 V
stroke
4474 308 M
[ [(Helvetica) 140.0 0.0 true true 0 ( 1)]
] -46.7 MCshow
1.000 UL
LTb
LCb setrgbcolor
0.500 UL
LTa
LCa setrgbcolor
4845 448 M
0 4248 V
0 140 R
0 63 V
stroke
1.000 UL
LTb
LCb setrgbcolor
4845 448 M
0 63 V
0 4388 R
0 -63 V
stroke
4845 308 M
[ [(Helvetica) 140.0 0.0 true true 0 ( 1.5)]
] -46.7 MCshow
1.000 UL
LTb
LCb setrgbcolor
0.500 UL
LTa
LCa setrgbcolor
5216 448 M
0 4451 V
stroke
1.000 UL
LTb
LCb setrgbcolor
5216 448 M
0 63 V
0 4388 R
0 -63 V
stroke
5216 308 M
[ [(Helvetica) 140.0 0.0 true true 0 ( 2)]
] -46.7 MCshow
1.000 UL
LTb
LCb setrgbcolor
1.000 UL
LTB
LCb setrgbcolor
2249 4899 N
0 -4451 V
2967 0 V
0 4451 V
-2967 0 V
Z stroke
1.000 UP
1.000 UL
LTb
LCb setrgbcolor
LCb setrgbcolor
1857 2673 M
currentpoint gsave translate -270 rotate 0 0 moveto
[ [(Helvetica) 140.0 0.0 true true 0 (Z  [m])]
] -46.7 MCshow
grestore
LTb
LCb setrgbcolor
3732 98 M
[ [(Helvetica) 140.0 0.0 true true 0 (Y  [m])]
] -46.7 MCshow
LTb
% Begin plot #1
0.400 UP
1.000 UL
LTb
0.00 0.00 0.00 C /Helvetica findfont 140 scalefont setfont
LCb setrgbcolor
4565 4766 M
('zgoubi.plt' u \($19==i &&  $14>sMin && $14<sMax ? $10 : 1/0\):\($12\)) Rshow
0.400 UP
1.000 UL
LTb
0.00 0.00 0.00 C 4649 4766 M
399 0 V
3733 2520 M
1 0 V
2 0 V
4 0 V
5 1 V
7 1 V
8 2 V
11 2 V
12 4 V
15 4 V
15 6 V
18 7 V
19 8 V
20 10 V
22 11 V
22 14 V
24 15 V
24 17 V
25 19 V
26 21 V
26 23 V
26 25 V
26 27 V
26 30 V
25 31 V
25 33 V
25 35 V
24 38 V
22 39 V
22 40 V
21 43 V
19 44 V
17 45 V
17 47 V
14 48 V
13 49 V
11 50 V
9 51 V
7 52 V
5 51 V
3 53 V
1 52 V
-1 53 V
-4 52 V
-5 52 V
-7 51 V
-9 51 V
-11 50 V
-13 50 V
-15 48 V
-16 46 V
-18 46 V
-20 44 V
-21 42 V
-21 41 V
-24 39 V
-24 37 V
-24 36 V
-26 33 V
-26 31 V
-26 29 V
-26 28 V
-26 25 V
-27 23 V
-25 21 V
-26 19 V
-25 17 V
-23 15 V
-23 13 V
-22 12 V
-21 9 V
-19 9 V
-18 7 V
-16 5 V
-14 5 V
-13 3 V
-11 2 V
-9 2 V
-7 1 V
-5 0 V
-3 1 V
-2 0 V
-2 0 V
-1 -1 V
-1 0 V
-1 -1 V
-1 0 V
7 3 R
-1 0 V
0 -1 V
-1 0 V
-1 0 V
-1 0 V
-1 0 V
-2 -1 V
-3 0 V
-5 -1 V
-8 -1 V
-9 -2 V
-11 -2 V
-14 -4 V
-15 -5 V
-17 -6 V
-19 -7 V
-21 -9 V
-22 -11 V
-23 -12 V
-24 -15 V
-26 -16 V
-26 -19 V
-27 -20 V
-28 -23 V
-28 -25 V
-28 -27 V
-28 -29 V
-28 -32 V
-28 -34 V
-27 -36 V
-26 -38 V
-26 -40 V
-25 -42 V
-23 -44 V
-22 -46 V
-21 -47 V
-19 -49 V
-18 -51 V
-15 -52 V
-14 -53 V
-12 -54 V
-10 -55 V
-7 -55 V
-6 -57 V
-3 -56 V
-1 -57 V
1 -56 V
4 -57 V
5 -56 V
8 -56 V
10 -55 V
12 -54 V
14 -53 V
16 -52 V
18 -50 V
19 -50 V
21 -47 V
22 -46 V
24 -44 V
25 -42 V
26 -40 V
26 -38 V
28 -36 V
28 -34 V
28 -32 V
28 -29 V
29 -27 V
28 -25 V
28 -23 V
27 -21 V
26 -18 V
26 -17 V
25 -14 V
23 -13 V
22 -11 V
21 -9 V
19 -7 V
17 -6 V
16 -5 V
14 -4 V
11 -3 V
10 -1 V
8 -2 V
5 0 V
4 -1 V
2 0 V
2 0 V
1 -1 V
1 0 V
1 -1 V
1 0 V
1 -1 V
1 0 V
0 -1 V
1 0 V
1 0 V
0 -1 V
-11 6 R
1 0 V
1 -1 V
1 0 V
0 -1 V
1 0 V
1 0 V
0 -1 V
1 0 V
1 -1 V
1 -1 V
2 0 V
2 0 V
4 0 V
5 0 V
8 1 V
10 2 V
11 2 V
14 3 V
15 4 V
18 6 V
19 7 V
20 9 V
23 10 V
23 12 V
25 14 V
25 16 V
27 18 V
27 20 V
28 22 V
28 25 V
28 26 V
29 29 V
28 31 V
28 34 V
27 35 V
27 38 V
26 39 V
25 42 V
23 44 V
23 45 V
21 47 V
19 49 V
18 50 V
16 51 V
14 53 V
12 53 V
10 55 V
8 55 V
5 56 V
4 56 V
1 56 V
-1 56 V
-3 56 V
-6 56 V
-7 55 V
-10 54 V
-12 54 V
-13 53 V
-16 51 V
-17 50 V
-20 49 V
-20 47 V
stroke 4338 4041 M
-22 45 V
-24 44 V
-24 41 V
-26 40 V
-27 38 V
-27 35 V
-27 33 V
-28 32 V
-28 28 V
-29 27 V
-28 25 V
-27 22 V
-27 20 V
-27 18 V
-25 16 V
-25 14 V
-23 12 V
-22 10 V
-20 9 V
-19 7 V
-17 5 V
-16 5 V
-13 3 V
-12 2 V
-9 1 V
-7 1 V
-6 0 V
-3 0 V
-2 0 V
-1 -1 V
-1 -1 V
0 -1 V
0 -1 V
-1 0 V
0 -1 V
0 -1 V
-1 0 V
0 -1 V
0 -1 V
-1 0 V
7 12 R
0 -1 V
-1 -1 V
0 -1 V
-1 0 V
0 -1 V
0 -1 V
-1 0 V
0 -1 V
-1 -1 V
-1 0 V
-2 -1 V
-4 -1 V
-5 -1 V
-7 -1 V
-9 -2 V
-11 -3 V
-12 -4 V
-15 -5 V
-16 -6 V
-18 -7 V
-19 -9 V
-20 -10 V
-22 -12 V
-23 -14 V
-24 -16 V
-24 -17 V
-26 -20 V
-26 -21 V
-26 -24 V
-26 -25 V
-26 -28 V
-27 -29 V
-25 -32 V
-26 -34 V
-25 -36 V
-24 -37 V
-23 -40 V
-22 -41 V
-20 -43 V
-20 -44 V
-18 -46 V
-16 -48 V
-15 -48 V
-13 -50 V
-11 -50 V
-9 -51 V
-8 -52 V
-5 -53 V
-3 -53 V
-1 -53 V
1 -53 V
3 -52 V
5 -53 V
7 -52 V
9 -51 V
11 -51 V
12 -49 V
15 -49 V
16 -47 V
18 -46 V
19 -44 V
21 -43 V
21 -42 V
23 -39 V
24 -38 V
24 -35 V
25 -34 V
26 -32 V
26 -30 V
26 -27 V
26 -26 V
26 -24 V
25 -21 V
25 -20 V
25 -17 V
23 -16 V
23 -14 V
22 -12 V
20 -10 V
19 -9 V
17 -7 V
16 -7 V
15 -4 V
12 -4 V
11 -3 V
8 -2 V
7 -2 V
5 -1 V
4 -1 V
2 -1 V
1 0 V
0 -1 V
0 -1 V
0 -1 V
1 0 V
0 -1 V
0 -1 V
0 -1 V
0 -1 V
0 -1 V
0 -1 V
3733 958 M
1 0 V
1 1 V
2 0 V
3 0 V
5 1 V
7 1 V
9 1 V
10 3 V
13 3 V
14 5 V
16 5 V
17 7 V
19 9 V
20 10 V
22 11 V
23 14 V
23 15 V
25 17 V
25 19 V
25 21 V
26 23 V
26 25 V
26 27 V
26 29 V
26 32 V
25 33 V
24 35 V
24 37 V
23 40 V
21 40 V
21 43 V
19 44 V
18 45 V
16 47 V
14 48 V
13 49 V
11 50 V
9 51 V
7 52 V
5 52 V
3 52 V
1 52 V
-1 53 V
-3 52 V
-5 52 V
-8 52 V
-9 51 V
-11 50 V
-13 49 V
-15 48 V
-16 47 V
-18 45 V
-19 44 V
-21 43 V
-22 41 V
-23 39 V
-24 37 V
-25 35 V
-25 33 V
-26 32 V
-26 29 V
-26 27 V
-26 25 V
-26 23 V
-26 22 V
-25 19 V
-25 17 V
-24 15 V
-23 13 V
-22 12 V
-20 10 V
-19 8 V
-18 7 V
-16 6 V
-14 4 V
-13 4 V
-11 2 V
-9 2 V
-7 1 V
-5 0 V
-4 1 V
-2 0 V
-1 0 V
-1 0 V
-1 0 V
-1 0 V
-1 0 V
-1 0 V
7 0 R
-1 0 V
-1 0 V
-1 0 V
-1 0 V
-1 0 V
-2 0 V
-4 0 V
-5 0 V
-7 -2 V
-10 -1 V
-11 -3 V
-14 -3 V
-15 -5 V
-17 -6 V
-19 -7 V
-20 -9 V
-22 -10 V
stroke 3576 3011 M
-23 -13 V
-25 -14 V
-25 -16 V
-27 -18 V
-27 -21 V
-27 -22 V
-28 -25 V
-28 -27 V
-28 -29 V
-28 -31 V
-28 -34 V
-27 -36 V
-27 -38 V
-25 -40 V
-25 -42 V
-23 -43 V
-22 -46 V
-21 -47 V
-19 -49 V
-18 -51 V
-15 -51 V
-14 -53 V
-12 -54 V
-10 -55 V
-7 -55 V
-6 -56 V
-3 -57 V
-1 -56 V
1 -56 V
4 -57 V
5 -56 V
8 -55 V
10 -55 V
12 -54 V
14 -53 V
16 -51 V
17 -51 V
20 -49 V
21 -47 V
22 -46 V
24 -44 V
24 -42 V
26 -39 V
27 -38 V
27 -36 V
28 -34 V
28 -31 V
28 -29 V
29 -27 V
28 -25 V
28 -23 V
27 -20 V
26 -18 V
26 -17 V
25 -14 V
23 -12 V
22 -11 V
21 -9 V
19 -7 V
17 -6 V
16 -5 V
14 -3 V
11 -2 V
10 -2 V
7 -1 V
6 -1 V
4 0 V
2 0 V
2 0 V
1 0 V
1 0 V
1 0 V
1 0 V
1 0 V
1 0 V
1 0 V
-10 0 R
1 0 V
1 0 V
1 0 V
1 0 V
1 0 V
1 0 V
1 0 V
1 0 V
1 0 V
2 0 V
4 0 V
6 1 V
7 1 V
10 1 V
11 3 V
14 3 V
16 5 V
17 6 V
19 7 V
21 9 V
22 10 V
23 13 V
25 14 V
25 16 V
27 18 V
27 21 V
28 22 V
28 25 V
28 27 V
29 29 V
28 32 V
28 33 V
27 36 V
27 38 V
26 40 V
24 42 V
24 43 V
22 46 V
21 47 V
20 49 V
17 51 V
16 51 V
14 53 V
12 54 V
10 55 V
8 55 V
6 56 V
3 56 V
1 57 V
-1 56 V
-3 57 V
-5 56 V
-8 55 V
-10 55 V
-11 54 V
-14 52 V
-16 52 V
-17 51 V
-19 48 V
-21 48 V
-22 45 V
-24 44 V
-24 42 V
-26 40 V
-26 38 V
-27 36 V
-28 34 V
-28 31 V
-28 29 V
-28 27 V
-28 25 V
-28 22 V
-27 21 V
-26 18 V
-25 16 V
-25 15 V
-23 12 V
-22 10 V
-20 9 V
-19 8 V
-17 6 V
-16 4 V
-13 4 V
-12 2 V
-9 2 V
-7 1 V
-6 0 V
-3 1 V
-3 0 V
-1 0 V
0 -1 V
-1 0 V
-1 0 V
-1 0 V
-1 0 V
8 0 R
-1 0 V
-1 0 V
-1 0 V
-1 0 V
-1 0 V
-1 0 V
-3 0 V
-3 0 V
-5 -1 V
-7 -1 V
-9 -2 V
-11 -2 V
-13 -4 V
-14 -4 V
-16 -6 V
-18 -7 V
-19 -8 V
-21 -10 V
-21 -12 V
-23 -13 V
-24 -15 V
-25 -17 V
-25 -19 V
-26 -21 V
-26 -24 V
-26 -25 V
-26 -27 V
-26 -29 V
-26 -31 V
-25 -34 V
-25 -35 V
-24 -37 V
-23 -39 V
-22 -41 V
-21 -42 V
-19 -44 V
-18 -46 V
-17 -47 V
-14 -48 V
-13 -49 V
-11 -50 V
-10 -51 V
-7 -52 V
-5 -52 V
-3 -52 V
-1 -52 V
1 -53 V
3 -52 V
5 -52 V
7 -52 V
9 -51 V
10 -50 V
13 -49 V
15 -48 V
16 -47 V
17 -45 V
20 -44 V
20 -43 V
22 -41 V
23 -39 V
23 -37 V
25 -35 V
25 -34 V
26 -31 V
25 -29 V
27 -27 V
26 -25 V
25 -24 V
26 -21 V
25 -19 V
24 -17 V
24 -15 V
23 -13 V
21 -12 V
20 -10 V
19 -8 V
stroke 3637 984 M
18 -7 V
16 -6 V
14 -4 V
13 -4 V
10 -2 V
9 -2 V
7 -1 V
5 -1 V
3 0 V
2 0 V
1 0 V
1 0 V
0 -1 V
3733 2520 Pls
3733 2520 Pls
3733 2520 Pls
3733 2520 Pls
3733 2520 Pls
3733 2520 Pls
3733 2520 Pls
3733 2520 Pls
3733 2520 Pls
3733 2520 Pls
3733 2520 Pls
3733 2520 Pls
3733 2520 Pls
3733 2520 Pls
3733 2520 Pls
3733 2520 Pls
3733 2520 Pls
3733 2520 Pls
3734 2520 Pls
3736 2520 Pls
3740 2520 Pls
3745 2521 Pls
3752 2522 Pls
3760 2524 Pls
3771 2526 Pls
3783 2530 Pls
3798 2534 Pls
3813 2540 Pls
3831 2547 Pls
3850 2555 Pls
3870 2565 Pls
3892 2576 Pls
3914 2590 Pls
3938 2605 Pls
3962 2622 Pls
3987 2641 Pls
4013 2662 Pls
4039 2685 Pls
4065 2710 Pls
4091 2737 Pls
4117 2767 Pls
4142 2798 Pls
4167 2831 Pls
4192 2866 Pls
4216 2904 Pls
4238 2943 Pls
4260 2983 Pls
4281 3026 Pls
4300 3070 Pls
4317 3115 Pls
4334 3162 Pls
4348 3210 Pls
4361 3259 Pls
4372 3309 Pls
4381 3360 Pls
4388 3412 Pls
4393 3463 Pls
4396 3516 Pls
4397 3568 Pls
4396 3621 Pls
4392 3673 Pls
4387 3725 Pls
4380 3776 Pls
4371 3827 Pls
4360 3877 Pls
4347 3927 Pls
4332 3975 Pls
4316 4021 Pls
4298 4067 Pls
4278 4111 Pls
4257 4153 Pls
4236 4194 Pls
4212 4233 Pls
4188 4270 Pls
4164 4306 Pls
4138 4339 Pls
4112 4370 Pls
4086 4399 Pls
4060 4427 Pls
4034 4452 Pls
4007 4475 Pls
3982 4496 Pls
3956 4515 Pls
3931 4532 Pls
3908 4547 Pls
3885 4560 Pls
3863 4572 Pls
3842 4581 Pls
3823 4590 Pls
3805 4597 Pls
3789 4602 Pls
3775 4607 Pls
3762 4610 Pls
3751 4612 Pls
3742 4614 Pls
3735 4615 Pls
3730 4615 Pls
3727 4616 Pls
3725 4616 Pls
3723 4616 Pls
3723 4616 Pls
3723 4616 Pls
3722 4615 Pls
3722 4615 Pls
3722 4615 Pls
3722 4615 Pls
3721 4615 Pls
3721 4615 Pls
3721 4615 Pls
3721 4615 Pls
3721 4615 Pls
3720 4614 Pls
3720 4614 Pls
3720 4614 Pls
3720 4614 Pls
3719 4614 Pls
3719 4614 Pls
3719 4614 Pls
3719 4614 Pls
3719 4614 Pls
3726 4617 Pls
3726 4617 Pls
3726 4617 Pls
3725 4617 Pls
3725 4617 Pls
3725 4617 Pls
3725 4617 Pls
3725 4616 Pls
3724 4616 Pls
3724 4616 Pls
3724 4616 Pls
3724 4616 Pls
3724 4616 Pls
3723 4616 Pls
3723 4616 Pls
3723 4616 Pls
3723 4616 Pls
3723 4616 Pls
3723 4616 Pls
3722 4616 Pls
3721 4616 Pls
3719 4615 Pls
3716 4615 Pls
3711 4614 Pls
3703 4613 Pls
3694 4611 Pls
3683 4609 Pls
3669 4605 Pls
3654 4600 Pls
3637 4594 Pls
3618 4587 Pls
3597 4578 Pls
3575 4567 Pls
3552 4555 Pls
3528 4540 Pls
3502 4524 Pls
3476 4505 Pls
3449 4485 Pls
3421 4462 Pls
3393 4437 Pls
3365 4410 Pls
3337 4381 Pls
3309 4349 Pls
3281 4315 Pls
3254 4279 Pls
3228 4241 Pls
3202 4201 Pls
3177 4159 Pls
3154 4115 Pls
3132 4069 Pls
3111 4022 Pls
3092 3973 Pls
3074 3922 Pls
3059 3870 Pls
3045 3817 Pls
3033 3763 Pls
3023 3708 Pls
3016 3653 Pls
3010 3596 Pls
3007 3540 Pls
3006 3483 Pls
3007 3427 Pls
3011 3370 Pls
3016 3314 Pls
3024 3258 Pls
3034 3203 Pls
3046 3149 Pls
3060 3096 Pls
3076 3044 Pls
3094 2994 Pls
3113 2944 Pls
3134 2897 Pls
3156 2851 Pls
3180 2807 Pls
3205 2765 Pls
3231 2725 Pls
3257 2687 Pls
3285 2651 Pls
3313 2617 Pls
3341 2585 Pls
3369 2556 Pls
3398 2529 Pls
3426 2504 Pls
3454 2481 Pls
3481 2460 Pls
3507 2442 Pls
3533 2425 Pls
3558 2411 Pls
3581 2398 Pls
3603 2387 Pls
3624 2378 Pls
3643 2371 Pls
3660 2365 Pls
3676 2360 Pls
3690 2356 Pls
3701 2353 Pls
3711 2352 Pls
3719 2350 Pls
3724 2350 Pls
3728 2349 Pls
3730 2349 Pls
3732 2349 Pls
3733 2348 Pls
3733 2348 Pls
3733 2348 Pls
3734 2348 Pls
3734 2348 Pls
3735 2347 Pls
3735 2347 Pls
3735 2347 Pls
3736 2347 Pls
3736 2347 Pls
3737 2346 Pls
3737 2346 Pls
3737 2346 Pls
3738 2346 Pls
3738 2345 Pls
3739 2345 Pls
3739 2345 Pls
3740 2345 Pls
3740 2344 Pls
3740 2344 Pls
3729 2350 Pls
3729 2350 Pls
3730 2350 Pls
3730 2350 Pls
3731 2349 Pls
3731 2349 Pls
3732 2349 Pls
3732 2349 Pls
3732 2348 Pls
3733 2348 Pls
3733 2348 Pls
3734 2348 Pls
3734 2347 Pls
3735 2347 Pls
3735 2347 Pls
3735 2347 Pls
3736 2346 Pls
3736 2346 Pls
3736 2346 Pls
3737 2345 Pls
3739 2345 Pls
3741 2345 Pls
3745 2345 Pls
3750 2345 Pls
3758 2346 Pls
3768 2348 Pls
3779 2350 Pls
3793 2353 Pls
3808 2357 Pls
3826 2363 Pls
3845 2370 Pls
3865 2379 Pls
3888 2389 Pls
3911 2401 Pls
3936 2415 Pls
3961 2431 Pls
3988 2449 Pls
4015 2469 Pls
4043 2491 Pls
4071 2516 Pls
4099 2542 Pls
4128 2571 Pls
4156 2602 Pls
4184 2636 Pls
4211 2671 Pls
4238 2709 Pls
4264 2748 Pls
4289 2790 Pls
4312 2834 Pls
4335 2879 Pls
4356 2926 Pls
4375 2975 Pls
4393 3025 Pls
4409 3076 Pls
4423 3129 Pls
4435 3182 Pls
4445 3237 Pls
4453 3292 Pls
4458 3348 Pls
4462 3404 Pls
4463 3460 Pls
4462 3516 Pls
4459 3572 Pls
4453 3628 Pls
4446 3683 Pls
4436 3737 Pls
4424 3791 Pls
4411 3844 Pls
4395 3895 Pls
4378 3945 Pls
4358 3994 Pls
4338 4041 Pls
4316 4086 Pls
4292 4130 Pls
4268 4171 Pls
4242 4211 Pls
4215 4249 Pls
4188 4284 Pls
4161 4317 Pls
4133 4349 Pls
4105 4377 Pls
4076 4404 Pls
4048 4429 Pls
4021 4451 Pls
3994 4471 Pls
3967 4489 Pls
3942 4505 Pls
3917 4519 Pls
3894 4531 Pls
3872 4541 Pls
3852 4550 Pls
3833 4557 Pls
3816 4562 Pls
3800 4567 Pls
3787 4570 Pls
3775 4572 Pls
3766 4573 Pls
3759 4574 Pls
3753 4574 Pls
3750 4574 Pls
3748 4574 Pls
3747 4573 Pls
3747 4573 Pls
3746 4572 Pls
3746 4572 Pls
3746 4572 Pls
3746 4571 Pls
3746 4571 Pls
3746 4570 Pls
3746 4570 Pls
3745 4570 Pls
3745 4569 Pls
3745 4569 Pls
3745 4568 Pls
3745 4568 Pls
3744 4568 Pls
3744 4567 Pls
3744 4567 Pls
3744 4566 Pls
3744 4566 Pls
3743 4566 Pls
3743 4566 Pls
3750 4578 Pls
3750 4578 Pls
3750 4577 Pls
3750 4577 Pls
3750 4577 Pls
3749 4576 Pls
3749 4576 Pls
3749 4575 Pls
3749 4575 Pls
3748 4575 Pls
3748 4574 Pls
3748 4574 Pls
3748 4574 Pls
3748 4573 Pls
3747 4573 Pls
3747 4572 Pls
3747 4572 Pls
3747 4572 Pls
3746 4571 Pls
3746 4571 Pls
3745 4571 Pls
3743 4570 Pls
3739 4569 Pls
3734 4568 Pls
3727 4567 Pls
3718 4565 Pls
3707 4562 Pls
3695 4558 Pls
3680 4553 Pls
3664 4547 Pls
3646 4540 Pls
3627 4531 Pls
3607 4521 Pls
3585 4509 Pls
3562 4495 Pls
3538 4479 Pls
3514 4462 Pls
3488 4442 Pls
3462 4421 Pls
3436 4397 Pls
3410 4372 Pls
3384 4344 Pls
3357 4315 Pls
3332 4283 Pls
3306 4249 Pls
3281 4213 Pls
3257 4176 Pls
3234 4136 Pls
3212 4095 Pls
3192 4052 Pls
3172 4008 Pls
3154 3962 Pls
3138 3914 Pls
3123 3866 Pls
3110 3816 Pls
3099 3766 Pls
3090 3715 Pls
3082 3663 Pls
3077 3610 Pls
3074 3557 Pls
3073 3504 Pls
3074 3451 Pls
3077 3399 Pls
3082 3346 Pls
3089 3294 Pls
3098 3243 Pls
3109 3192 Pls
3121 3143 Pls
3136 3094 Pls
3152 3047 Pls
3170 3001 Pls
3189 2957 Pls
3210 2914 Pls
3231 2872 Pls
3254 2833 Pls
3278 2795 Pls
3302 2760 Pls
3327 2726 Pls
3353 2694 Pls
3379 2664 Pls
3405 2637 Pls
3431 2611 Pls
3457 2587 Pls
3482 2566 Pls
3507 2546 Pls
3532 2529 Pls
3555 2513 Pls
3578 2499 Pls
3600 2487 Pls
3620 2477 Pls
3639 2468 Pls
3656 2461 Pls
3672 2454 Pls
3687 2450 Pls
3699 2446 Pls
3710 2443 Pls
3718 2441 Pls
3725 2439 Pls
3730 2438 Pls
3734 2437 Pls
3736 2436 Pls
3737 2436 Pls
3737 2435 Pls
3737 2435 Pls
3737 2434 Pls
3737 2434 Pls
3737 2433 Pls
3737 2433 Pls
3738 2433 Pls
3738 2432 Pls
3738 2432 Pls
3738 2431 Pls
3738 2431 Pls
3738 2430 Pls
3738 2430 Pls
3738 2429 Pls
3738 2429 Pls
3738 2428 Pls
3738 2428 Pls
3738 2427 Pls
3738 2427 Pls
3738 2427 Pls
3733 958 Pls
3733 958 Pls
3733 958 Pls
3733 958 Pls
3733 958 Pls
3733 958 Pls
3733 958 Pls
3733 958 Pls
3733 958 Pls
3733 958 Pls
3733 958 Pls
3733 958 Pls
3733 958 Pls
3733 958 Pls
3733 958 Pls
3733 958 Pls
3733 958 Pls
3734 958 Pls
3735 959 Pls
3737 959 Pls
3740 959 Pls
3745 960 Pls
3752 961 Pls
3761 962 Pls
3771 965 Pls
3784 968 Pls
3798 973 Pls
3814 978 Pls
3831 985 Pls
3850 994 Pls
3870 1004 Pls
3892 1015 Pls
3915 1029 Pls
3938 1044 Pls
3963 1061 Pls
3988 1080 Pls
4013 1101 Pls
4039 1124 Pls
4065 1149 Pls
4091 1176 Pls
4117 1205 Pls
4143 1237 Pls
4168 1270 Pls
4192 1305 Pls
4216 1342 Pls
4239 1382 Pls
4260 1422 Pls
4281 1465 Pls
4300 1509 Pls
4318 1554 Pls
4334 1601 Pls
4348 1649 Pls
4361 1698 Pls
4372 1748 Pls
4381 1799 Pls
4388 1851 Pls
4393 1903 Pls
4396 1955 Pls
4397 2007 Pls
4396 2060 Pls
4393 2112 Pls
4388 2164 Pls
4380 2216 Pls
4371 2267 Pls
4360 2317 Pls
4347 2366 Pls
4332 2414 Pls
4316 2461 Pls
4298 2506 Pls
4279 2550 Pls
4258 2593 Pls
4236 2634 Pls
4213 2673 Pls
4189 2710 Pls
4164 2745 Pls
4139 2778 Pls
4113 2810 Pls
4087 2839 Pls
4061 2866 Pls
4035 2891 Pls
4009 2914 Pls
3983 2936 Pls
3958 2955 Pls
3933 2972 Pls
3909 2987 Pls
3886 3000 Pls
3864 3012 Pls
3844 3022 Pls
3825 3030 Pls
3807 3037 Pls
3791 3043 Pls
3777 3047 Pls
3764 3051 Pls
3753 3053 Pls
3744 3055 Pls
3737 3056 Pls
3732 3056 Pls
3728 3057 Pls
3726 3057 Pls
3725 3057 Pls
3724 3057 Pls
3724 3057 Pls
3723 3057 Pls
3723 3057 Pls
3723 3057 Pls
3723 3057 Pls
3723 3057 Pls
3722 3057 Pls
3722 3057 Pls
3722 3057 Pls
3722 3057 Pls
3721 3057 Pls
3721 3057 Pls
3721 3057 Pls
3721 3057 Pls
3720 3057 Pls
3720 3057 Pls
3720 3057 Pls
3720 3057 Pls
3720 3057 Pls
3727 3057 Pls
3727 3057 Pls
3727 3057 Pls
3727 3057 Pls
3726 3057 Pls
3726 3057 Pls
3726 3057 Pls
3726 3057 Pls
3725 3057 Pls
3725 3057 Pls
3725 3057 Pls
3725 3057 Pls
3725 3057 Pls
3725 3057 Pls
3724 3057 Pls
3724 3057 Pls
3724 3057 Pls
3724 3057 Pls
3724 3057 Pls
3723 3057 Pls
3722 3057 Pls
3720 3057 Pls
3716 3057 Pls
3711 3057 Pls
3704 3055 Pls
3694 3054 Pls
3683 3051 Pls
3669 3048 Pls
3654 3043 Pls
3637 3037 Pls
3618 3030 Pls
3598 3021 Pls
3576 3011 Pls
3553 2998 Pls
3528 2984 Pls
3503 2968 Pls
3476 2950 Pls
3449 2929 Pls
3422 2907 Pls
3394 2882 Pls
3366 2855 Pls
3338 2826 Pls
3310 2795 Pls
3282 2761 Pls
3255 2725 Pls
3228 2687 Pls
3203 2647 Pls
3178 2605 Pls
3155 2562 Pls
3133 2516 Pls
3112 2469 Pls
3093 2420 Pls
3075 2369 Pls
3060 2318 Pls
3046 2265 Pls
3034 2211 Pls
3024 2156 Pls
3017 2101 Pls
3011 2045 Pls
3008 1988 Pls
3007 1932 Pls
3008 1876 Pls
3012 1819 Pls
3017 1763 Pls
3025 1708 Pls
3035 1653 Pls
3047 1599 Pls
3061 1546 Pls
3077 1495 Pls
3094 1444 Pls
3114 1395 Pls
3135 1348 Pls
3157 1302 Pls
3181 1258 Pls
3205 1216 Pls
3231 1177 Pls
3258 1139 Pls
3285 1103 Pls
3313 1069 Pls
3341 1038 Pls
3369 1009 Pls
3398 982 Pls
3426 957 Pls
3454 934 Pls
3481 914 Pls
3507 896 Pls
3533 879 Pls
3558 865 Pls
3581 853 Pls
3603 842 Pls
3624 833 Pls
3643 826 Pls
3660 820 Pls
3676 815 Pls
3690 812 Pls
3701 810 Pls
3711 808 Pls
3718 807 Pls
3724 806 Pls
3728 806 Pls
3730 806 Pls
3732 806 Pls
3732 806 Pls
3733 806 Pls
3733 806 Pls
3733 806 Pls
3734 806 Pls
3734 806 Pls
3734 806 Pls
3735 806 Pls
3735 806 Pls
3736 806 Pls
3736 806 Pls
3737 806 Pls
3737 806 Pls
3737 806 Pls
3738 806 Pls
3738 806 Pls
3739 806 Pls
3739 806 Pls
3739 806 Pls
3739 806 Pls
3729 806 Pls
3729 806 Pls
3730 806 Pls
3730 806 Pls
3730 806 Pls
3731 806 Pls
3731 806 Pls
3732 806 Pls
3732 806 Pls
3732 806 Pls
3733 806 Pls
3733 806 Pls
3734 806 Pls
3734 806 Pls
3734 806 Pls
3735 806 Pls
3735 806 Pls
3735 806 Pls
3736 806 Pls
3737 806 Pls
3738 806 Pls
3740 806 Pls
3744 806 Pls
3750 807 Pls
3757 808 Pls
3767 809 Pls
3778 812 Pls
3792 815 Pls
3808 820 Pls
3825 826 Pls
3844 833 Pls
3865 842 Pls
3887 852 Pls
3910 865 Pls
3935 879 Pls
3960 895 Pls
3987 913 Pls
4014 934 Pls
4042 956 Pls
4070 981 Pls
4098 1008 Pls
4127 1037 Pls
4155 1069 Pls
4183 1102 Pls
4210 1138 Pls
4237 1176 Pls
4263 1216 Pls
4287 1258 Pls
4311 1301 Pls
4333 1347 Pls
4354 1394 Pls
4374 1443 Pls
4391 1494 Pls
4407 1545 Pls
4421 1598 Pls
4433 1652 Pls
4443 1707 Pls
4451 1762 Pls
4457 1818 Pls
4460 1874 Pls
4461 1931 Pls
4460 1987 Pls
4457 2044 Pls
4452 2100 Pls
4444 2155 Pls
4434 2210 Pls
4423 2264 Pls
4409 2316 Pls
4393 2368 Pls
4376 2419 Pls
4357 2467 Pls
4336 2515 Pls
4314 2560 Pls
4290 2604 Pls
4266 2646 Pls
4240 2686 Pls
4214 2724 Pls
4187 2760 Pls
4159 2794 Pls
4131 2825 Pls
4103 2854 Pls
4075 2881 Pls
4047 2906 Pls
4019 2928 Pls
3992 2949 Pls
3966 2967 Pls
3941 2983 Pls
3916 2998 Pls
3893 3010 Pls
3871 3020 Pls
3851 3029 Pls
3832 3037 Pls
3815 3043 Pls
3799 3047 Pls
3786 3051 Pls
3774 3053 Pls
3765 3055 Pls
3758 3056 Pls
3752 3056 Pls
3749 3057 Pls
3746 3057 Pls
3745 3057 Pls
3745 3056 Pls
3745 3056 Pls
3744 3056 Pls
3744 3056 Pls
3744 3056 Pls
3744 3056 Pls
3744 3056 Pls
3744 3056 Pls
3744 3056 Pls
3743 3056 Pls
3743 3056 Pls
3743 3056 Pls
3743 3056 Pls
3743 3056 Pls
3742 3056 Pls
3742 3056 Pls
3742 3056 Pls
3742 3056 Pls
3741 3056 Pls
3741 3056 Pls
3749 3056 Pls
3748 3056 Pls
3748 3056 Pls
3748 3056 Pls
3748 3056 Pls
3748 3056 Pls
3747 3056 Pls
3747 3056 Pls
3747 3056 Pls
3747 3056 Pls
3746 3056 Pls
3746 3056 Pls
3746 3056 Pls
3746 3056 Pls
3746 3056 Pls
3745 3056 Pls
3745 3056 Pls
3745 3056 Pls
3744 3056 Pls
3744 3056 Pls
3743 3056 Pls
3740 3056 Pls
3737 3056 Pls
3732 3055 Pls
3725 3054 Pls
3716 3052 Pls
3705 3050 Pls
3692 3046 Pls
3678 3042 Pls
3662 3036 Pls
3644 3029 Pls
3625 3021 Pls
3604 3011 Pls
3583 2999 Pls
3560 2986 Pls
3536 2971 Pls
3511 2954 Pls
3486 2935 Pls
3460 2914 Pls
3434 2890 Pls
3408 2865 Pls
3382 2838 Pls
3356 2809 Pls
3330 2778 Pls
3305 2744 Pls
3280 2709 Pls
3256 2672 Pls
3233 2633 Pls
3211 2592 Pls
3190 2550 Pls
3171 2506 Pls
3153 2460 Pls
3136 2413 Pls
3122 2365 Pls
3109 2316 Pls
3098 2266 Pls
3088 2215 Pls
3081 2163 Pls
3076 2111 Pls
3073 2059 Pls
3072 2007 Pls
3073 1954 Pls
3076 1902 Pls
3081 1850 Pls
3088 1798 Pls
3097 1747 Pls
3107 1697 Pls
3120 1648 Pls
3135 1600 Pls
3151 1553 Pls
3168 1508 Pls
3188 1464 Pls
3208 1421 Pls
3230 1380 Pls
3253 1341 Pls
3276 1304 Pls
3301 1269 Pls
3326 1235 Pls
3352 1204 Pls
3377 1175 Pls
3404 1148 Pls
3430 1123 Pls
3455 1099 Pls
3481 1078 Pls
3506 1059 Pls
3530 1042 Pls
3554 1027 Pls
3577 1014 Pls
3598 1002 Pls
3618 992 Pls
3637 984 Pls
3655 977 Pls
3671 971 Pls
3685 967 Pls
3698 963 Pls
3708 961 Pls
3717 959 Pls
3724 958 Pls
3729 957 Pls
3732 957 Pls
3734 957 Pls
3735 957 Pls
3736 957 Pls
3736 957 Pls
3736 957 Pls
3736 957 Pls
3736 957 Pls
3736 957 Pls
3736 957 Pls
3736 956 Pls
3736 956 Pls
3736 956 Pls
3736 956 Pls
3736 956 Pls
3736 956 Pls
3736 956 Pls
3736 956 Pls
3736 956 Pls
3736 956 Pls
3736 956 Pls
3736 956 Pls
3736 956 Pls
4848 4766 Pls
% End plot #1
2.000 UL
LTb
LCb setrgbcolor
1.000 UL
LTB
LCb setrgbcolor
2249 4899 N
0 -4451 V
2967 0 V
0 4451 V
-2967 0 V
Z stroke
1.000 UP
1.000 UL
LTb
LCb setrgbcolor
stroke
grestore
end
showpage
%%Trailer
%%DocumentFonts: Helvetica
