%!PS-Adobe-2.0 EPSF-2.0
%%Title: gnuplot_TWISS_btxy.eps
%%Creator: gnuplot 5.2 patchlevel 2
%%CreationDate: Fri Mar 18 10:11:03 2022
%%DocumentFonts: (atend)
%%BoundingBox: 50 50 285 191
%%EndComments
%%BeginProlog
/gnudict 256 dict def
gnudict begin
%
% The following true/false flags may be edited by hand if desired.
% The unit line width and grayscale image gamma correction may also be changed.
%
/Color true def
/Blacktext true def
/Solid false def
/Dashlength 1 def
/Landscape false def
/Level1 false def
/Level3 false def
/Rounded false def
/ClipToBoundingBox false def
/SuppressPDFMark false def
/TransparentPatterns false def
/gnulinewidth 5.000 def
/userlinewidth gnulinewidth def
/Gamma 1.0 def
/BackgroundColor {-1.000 -1.000 -1.000} def
%
/vshift -40 def
/dl1 {
  10.0 Dashlength userlinewidth gnulinewidth div mul mul mul
  Rounded { currentlinewidth 0.75 mul sub dup 0 le { pop 0.01 } if } if
} def
/dl2 {
  10.0 Dashlength userlinewidth gnulinewidth div mul mul mul
  Rounded { currentlinewidth 0.75 mul add } if
} def
/hpt_ 31.5 def
/vpt_ 31.5 def
/hpt hpt_ def
/vpt vpt_ def
/doclip {
  ClipToBoundingBox {
    newpath 50 50 moveto 285 50 lineto 285 191 lineto 50 191 lineto closepath
    clip
  } if
} def
%
% Gnuplot Prolog Version 5.1 (Oct 2015)
%
%/SuppressPDFMark true def
%
/M {moveto} bind def
/L {lineto} bind def
/R {rmoveto} bind def
/V {rlineto} bind def
/N {newpath moveto} bind def
/Z {closepath} bind def
/C {setrgbcolor} bind def
/f {rlineto fill} bind def
/g {setgray} bind def
/Gshow {show} def   % May be redefined later in the file to support UTF-8
/vpt2 vpt 2 mul def
/hpt2 hpt 2 mul def
/Lshow {currentpoint stroke M 0 vshift R 
	Blacktext {gsave 0 setgray textshow grestore} {textshow} ifelse} def
/Rshow {currentpoint stroke M dup stringwidth pop neg vshift R
	Blacktext {gsave 0 setgray textshow grestore} {textshow} ifelse} def
/Cshow {currentpoint stroke M dup stringwidth pop -2 div vshift R 
	Blacktext {gsave 0 setgray textshow grestore} {textshow} ifelse} def
/UP {dup vpt_ mul /vpt exch def hpt_ mul /hpt exch def
  /hpt2 hpt 2 mul def /vpt2 vpt 2 mul def} def
/DL {Color {setrgbcolor Solid {pop []} if 0 setdash}
 {pop pop pop 0 setgray Solid {pop []} if 0 setdash} ifelse} def
/BL {stroke userlinewidth 2 mul setlinewidth
	Rounded {1 setlinejoin 1 setlinecap} if} def
/AL {stroke userlinewidth 2 div setlinewidth
	Rounded {1 setlinejoin 1 setlinecap} if} def
/UL {dup gnulinewidth mul /userlinewidth exch def
	dup 1 lt {pop 1} if 10 mul /udl exch def} def
/PL {stroke userlinewidth setlinewidth
	Rounded {1 setlinejoin 1 setlinecap} if} def
3.8 setmiterlimit
% Classic Line colors (version 5.0)
/LCw {1 1 1} def
/LCb {0 0 0} def
/LCa {0 0 0} def
/LC0 {1 0 0} def
/LC1 {0 1 0} def
/LC2 {0 0 1} def
/LC3 {1 0 1} def
/LC4 {0 1 1} def
/LC5 {1 1 0} def
/LC6 {0 0 0} def
/LC7 {1 0.3 0} def
/LC8 {0.5 0.5 0.5} def
% Default dash patterns (version 5.0)
/LTB {BL [] LCb DL} def
/LTw {PL [] 1 setgray} def
/LTb {PL [] LCb DL} def
/LTa {AL [1 udl mul 2 udl mul] 0 setdash LCa setrgbcolor} def
/LT0 {PL [] LC0 DL} def
/LT1 {PL [2 dl1 3 dl2] LC1 DL} def
/LT2 {PL [1 dl1 1.5 dl2] LC2 DL} def
/LT3 {PL [6 dl1 2 dl2 1 dl1 2 dl2] LC3 DL} def
/LT4 {PL [1 dl1 2 dl2 6 dl1 2 dl2 1 dl1 2 dl2] LC4 DL} def
/LT5 {PL [4 dl1 2 dl2] LC5 DL} def
/LT6 {PL [1.5 dl1 1.5 dl2 1.5 dl1 1.5 dl2 1.5 dl1 6 dl2] LC6 DL} def
/LT7 {PL [3 dl1 3 dl2 1 dl1 3 dl2] LC7 DL} def
/LT8 {PL [2 dl1 2 dl2 2 dl1 6 dl2] LC8 DL} def
/SL {[] 0 setdash} def
/Pnt {stroke [] 0 setdash gsave 1 setlinecap M 0 0 V stroke grestore} def
/Dia {stroke [] 0 setdash 2 copy vpt add M
  hpt neg vpt neg V hpt vpt neg V
  hpt vpt V hpt neg vpt V closepath stroke
  Pnt} def
/Pls {stroke [] 0 setdash vpt sub M 0 vpt2 V
  currentpoint stroke M
  hpt neg vpt neg R hpt2 0 V stroke
 } def
/Box {stroke [] 0 setdash 2 copy exch hpt sub exch vpt add M
  0 vpt2 neg V hpt2 0 V 0 vpt2 V
  hpt2 neg 0 V closepath stroke
  Pnt} def
/Crs {stroke [] 0 setdash exch hpt sub exch vpt add M
  hpt2 vpt2 neg V currentpoint stroke M
  hpt2 neg 0 R hpt2 vpt2 V stroke} def
/TriU {stroke [] 0 setdash 2 copy vpt 1.12 mul add M
  hpt neg vpt -1.62 mul V
  hpt 2 mul 0 V
  hpt neg vpt 1.62 mul V closepath stroke
  Pnt} def
/Star {2 copy Pls Crs} def
/BoxF {stroke [] 0 setdash exch hpt sub exch vpt add M
  0 vpt2 neg V hpt2 0 V 0 vpt2 V
  hpt2 neg 0 V closepath fill} def
/TriUF {stroke [] 0 setdash vpt 1.12 mul add M
  hpt neg vpt -1.62 mul V
  hpt 2 mul 0 V
  hpt neg vpt 1.62 mul V closepath fill} def
/TriD {stroke [] 0 setdash 2 copy vpt 1.12 mul sub M
  hpt neg vpt 1.62 mul V
  hpt 2 mul 0 V
  hpt neg vpt -1.62 mul V closepath stroke
  Pnt} def
/TriDF {stroke [] 0 setdash vpt 1.12 mul sub M
  hpt neg vpt 1.62 mul V
  hpt 2 mul 0 V
  hpt neg vpt -1.62 mul V closepath fill} def
/DiaF {stroke [] 0 setdash vpt add M
  hpt neg vpt neg V hpt vpt neg V
  hpt vpt V hpt neg vpt V closepath fill} def
/Pent {stroke [] 0 setdash 2 copy gsave
  translate 0 hpt M 4 {72 rotate 0 hpt L} repeat
  closepath stroke grestore Pnt} def
/PentF {stroke [] 0 setdash gsave
  translate 0 hpt M 4 {72 rotate 0 hpt L} repeat
  closepath fill grestore} def
/Circle {stroke [] 0 setdash 2 copy
  hpt 0 360 arc stroke Pnt} def
/CircleF {stroke [] 0 setdash hpt 0 360 arc fill} def
/C0 {BL [] 0 setdash 2 copy moveto vpt 90 450 arc} bind def
/C1 {BL [] 0 setdash 2 copy moveto
	2 copy vpt 0 90 arc closepath fill
	vpt 0 360 arc closepath} bind def
/C2 {BL [] 0 setdash 2 copy moveto
	2 copy vpt 90 180 arc closepath fill
	vpt 0 360 arc closepath} bind def
/C3 {BL [] 0 setdash 2 copy moveto
	2 copy vpt 0 180 arc closepath fill
	vpt 0 360 arc closepath} bind def
/C4 {BL [] 0 setdash 2 copy moveto
	2 copy vpt 180 270 arc closepath fill
	vpt 0 360 arc closepath} bind def
/C5 {BL [] 0 setdash 2 copy moveto
	2 copy vpt 0 90 arc
	2 copy moveto
	2 copy vpt 180 270 arc closepath fill
	vpt 0 360 arc} bind def
/C6 {BL [] 0 setdash 2 copy moveto
	2 copy vpt 90 270 arc closepath fill
	vpt 0 360 arc closepath} bind def
/C7 {BL [] 0 setdash 2 copy moveto
	2 copy vpt 0 270 arc closepath fill
	vpt 0 360 arc closepath} bind def
/C8 {BL [] 0 setdash 2 copy moveto
	2 copy vpt 270 360 arc closepath fill
	vpt 0 360 arc closepath} bind def
/C9 {BL [] 0 setdash 2 copy moveto
	2 copy vpt 270 450 arc closepath fill
	vpt 0 360 arc closepath} bind def
/C10 {BL [] 0 setdash 2 copy 2 copy moveto vpt 270 360 arc closepath fill
	2 copy moveto
	2 copy vpt 90 180 arc closepath fill
	vpt 0 360 arc closepath} bind def
/C11 {BL [] 0 setdash 2 copy moveto
	2 copy vpt 0 180 arc closepath fill
	2 copy moveto
	2 copy vpt 270 360 arc closepath fill
	vpt 0 360 arc closepath} bind def
/C12 {BL [] 0 setdash 2 copy moveto
	2 copy vpt 180 360 arc closepath fill
	vpt 0 360 arc closepath} bind def
/C13 {BL [] 0 setdash 2 copy moveto
	2 copy vpt 0 90 arc closepath fill
	2 copy moveto
	2 copy vpt 180 360 arc closepath fill
	vpt 0 360 arc closepath} bind def
/C14 {BL [] 0 setdash 2 copy moveto
	2 copy vpt 90 360 arc closepath fill
	vpt 0 360 arc} bind def
/C15 {BL [] 0 setdash 2 copy vpt 0 360 arc closepath fill
	vpt 0 360 arc closepath} bind def
/Rec {newpath 4 2 roll moveto 1 index 0 rlineto 0 exch rlineto
	neg 0 rlineto closepath} bind def
/Square {dup Rec} bind def
/Bsquare {vpt sub exch vpt sub exch vpt2 Square} bind def
/S0 {BL [] 0 setdash 2 copy moveto 0 vpt rlineto BL Bsquare} bind def
/S1 {BL [] 0 setdash 2 copy vpt Square fill Bsquare} bind def
/S2 {BL [] 0 setdash 2 copy exch vpt sub exch vpt Square fill Bsquare} bind def
/S3 {BL [] 0 setdash 2 copy exch vpt sub exch vpt2 vpt Rec fill Bsquare} bind def
/S4 {BL [] 0 setdash 2 copy exch vpt sub exch vpt sub vpt Square fill Bsquare} bind def
/S5 {BL [] 0 setdash 2 copy 2 copy vpt Square fill
	exch vpt sub exch vpt sub vpt Square fill Bsquare} bind def
/S6 {BL [] 0 setdash 2 copy exch vpt sub exch vpt sub vpt vpt2 Rec fill Bsquare} bind def
/S7 {BL [] 0 setdash 2 copy exch vpt sub exch vpt sub vpt vpt2 Rec fill
	2 copy vpt Square fill Bsquare} bind def
/S8 {BL [] 0 setdash 2 copy vpt sub vpt Square fill Bsquare} bind def
/S9 {BL [] 0 setdash 2 copy vpt sub vpt vpt2 Rec fill Bsquare} bind def
/S10 {BL [] 0 setdash 2 copy vpt sub vpt Square fill 2 copy exch vpt sub exch vpt Square fill
	Bsquare} bind def
/S11 {BL [] 0 setdash 2 copy vpt sub vpt Square fill 2 copy exch vpt sub exch vpt2 vpt Rec fill
	Bsquare} bind def
/S12 {BL [] 0 setdash 2 copy exch vpt sub exch vpt sub vpt2 vpt Rec fill Bsquare} bind def
/S13 {BL [] 0 setdash 2 copy exch vpt sub exch vpt sub vpt2 vpt Rec fill
	2 copy vpt Square fill Bsquare} bind def
/S14 {BL [] 0 setdash 2 copy exch vpt sub exch vpt sub vpt2 vpt Rec fill
	2 copy exch vpt sub exch vpt Square fill Bsquare} bind def
/S15 {BL [] 0 setdash 2 copy Bsquare fill Bsquare} bind def
/D0 {gsave translate 45 rotate 0 0 S0 stroke grestore} bind def
/D1 {gsave translate 45 rotate 0 0 S1 stroke grestore} bind def
/D2 {gsave translate 45 rotate 0 0 S2 stroke grestore} bind def
/D3 {gsave translate 45 rotate 0 0 S3 stroke grestore} bind def
/D4 {gsave translate 45 rotate 0 0 S4 stroke grestore} bind def
/D5 {gsave translate 45 rotate 0 0 S5 stroke grestore} bind def
/D6 {gsave translate 45 rotate 0 0 S6 stroke grestore} bind def
/D7 {gsave translate 45 rotate 0 0 S7 stroke grestore} bind def
/D8 {gsave translate 45 rotate 0 0 S8 stroke grestore} bind def
/D9 {gsave translate 45 rotate 0 0 S9 stroke grestore} bind def
/D10 {gsave translate 45 rotate 0 0 S10 stroke grestore} bind def
/D11 {gsave translate 45 rotate 0 0 S11 stroke grestore} bind def
/D12 {gsave translate 45 rotate 0 0 S12 stroke grestore} bind def
/D13 {gsave translate 45 rotate 0 0 S13 stroke grestore} bind def
/D14 {gsave translate 45 rotate 0 0 S14 stroke grestore} bind def
/D15 {gsave translate 45 rotate 0 0 S15 stroke grestore} bind def
/DiaE {stroke [] 0 setdash vpt add M
  hpt neg vpt neg V hpt vpt neg V
  hpt vpt V hpt neg vpt V closepath stroke} def
/BoxE {stroke [] 0 setdash exch hpt sub exch vpt add M
  0 vpt2 neg V hpt2 0 V 0 vpt2 V
  hpt2 neg 0 V closepath stroke} def
/TriUE {stroke [] 0 setdash vpt 1.12 mul add M
  hpt neg vpt -1.62 mul V
  hpt 2 mul 0 V
  hpt neg vpt 1.62 mul V closepath stroke} def
/TriDE {stroke [] 0 setdash vpt 1.12 mul sub M
  hpt neg vpt 1.62 mul V
  hpt 2 mul 0 V
  hpt neg vpt -1.62 mul V closepath stroke} def
/PentE {stroke [] 0 setdash gsave
  translate 0 hpt M 4 {72 rotate 0 hpt L} repeat
  closepath stroke grestore} def
/CircE {stroke [] 0 setdash 
  hpt 0 360 arc stroke} def
/Opaque {gsave closepath 1 setgray fill grestore 0 setgray closepath} def
/DiaW {stroke [] 0 setdash vpt add M
  hpt neg vpt neg V hpt vpt neg V
  hpt vpt V hpt neg vpt V Opaque stroke} def
/BoxW {stroke [] 0 setdash exch hpt sub exch vpt add M
  0 vpt2 neg V hpt2 0 V 0 vpt2 V
  hpt2 neg 0 V Opaque stroke} def
/TriUW {stroke [] 0 setdash vpt 1.12 mul add M
  hpt neg vpt -1.62 mul V
  hpt 2 mul 0 V
  hpt neg vpt 1.62 mul V Opaque stroke} def
/TriDW {stroke [] 0 setdash vpt 1.12 mul sub M
  hpt neg vpt 1.62 mul V
  hpt 2 mul 0 V
  hpt neg vpt -1.62 mul V Opaque stroke} def
/PentW {stroke [] 0 setdash gsave
  translate 0 hpt M 4 {72 rotate 0 hpt L} repeat
  Opaque stroke grestore} def
/CircW {stroke [] 0 setdash 
  hpt 0 360 arc Opaque stroke} def
/BoxFill {gsave Rec 1 setgray fill grestore} def
/Density {
  /Fillden exch def
  currentrgbcolor
  /ColB exch def /ColG exch def /ColR exch def
  /ColR ColR Fillden mul Fillden sub 1 add def
  /ColG ColG Fillden mul Fillden sub 1 add def
  /ColB ColB Fillden mul Fillden sub 1 add def
  ColR ColG ColB setrgbcolor} def
/BoxColFill {gsave Rec PolyFill} def
/PolyFill {gsave Density fill grestore grestore} def
/h {rlineto rlineto rlineto gsave closepath fill grestore} bind def
%
% PostScript Level 1 Pattern Fill routine for rectangles
% Usage: x y w h s a XX PatternFill
%	x,y = lower left corner of box to be filled
%	w,h = width and height of box
%	  a = angle in degrees between lines and x-axis
%	 XX = 0/1 for no/yes cross-hatch
%
/PatternFill {gsave /PFa [ 9 2 roll ] def
  PFa 0 get PFa 2 get 2 div add PFa 1 get PFa 3 get 2 div add translate
  PFa 2 get -2 div PFa 3 get -2 div PFa 2 get PFa 3 get Rec
  TransparentPatterns {} {gsave 1 setgray fill grestore} ifelse
  clip
  currentlinewidth 0.5 mul setlinewidth
  /PFs PFa 2 get dup mul PFa 3 get dup mul add sqrt def
  0 0 M PFa 5 get rotate PFs -2 div dup translate
  0 1 PFs PFa 4 get div 1 add floor cvi
	{PFa 4 get mul 0 M 0 PFs V} for
  0 PFa 6 get ne {
	0 1 PFs PFa 4 get div 1 add floor cvi
	{PFa 4 get mul 0 2 1 roll M PFs 0 V} for
 } if
  stroke grestore} def
%
/languagelevel where
 {pop languagelevel} {1} ifelse
dup 2 lt
	{/InterpretLevel1 true def
	 /InterpretLevel3 false def}
	{/InterpretLevel1 Level1 def
	 2 gt
	    {/InterpretLevel3 Level3 def}
	    {/InterpretLevel3 false def}
	 ifelse }
 ifelse
%
% PostScript level 2 pattern fill definitions
%
/Level2PatternFill {
/Tile8x8 {/PaintType 2 /PatternType 1 /TilingType 1 /BBox [0 0 8 8] /XStep 8 /YStep 8}
	bind def
/KeepColor {currentrgbcolor [/Pattern /DeviceRGB] setcolorspace} bind def
<< Tile8x8
 /PaintProc {0.5 setlinewidth pop 0 0 M 8 8 L 0 8 M 8 0 L stroke} 
>> matrix makepattern
/Pat1 exch def
<< Tile8x8
 /PaintProc {0.5 setlinewidth pop 0 0 M 8 8 L 0 8 M 8 0 L stroke
	0 4 M 4 8 L 8 4 L 4 0 L 0 4 L stroke}
>> matrix makepattern
/Pat2 exch def
<< Tile8x8
 /PaintProc {0.5 setlinewidth pop 0 0 M 0 8 L
	8 8 L 8 0 L 0 0 L fill}
>> matrix makepattern
/Pat3 exch def
<< Tile8x8
 /PaintProc {0.5 setlinewidth pop -4 8 M 8 -4 L
	0 12 M 12 0 L stroke}
>> matrix makepattern
/Pat4 exch def
<< Tile8x8
 /PaintProc {0.5 setlinewidth pop -4 0 M 8 12 L
	0 -4 M 12 8 L stroke}
>> matrix makepattern
/Pat5 exch def
<< Tile8x8
 /PaintProc {0.5 setlinewidth pop -2 8 M 4 -4 L
	0 12 M 8 -4 L 4 12 M 10 0 L stroke}
>> matrix makepattern
/Pat6 exch def
<< Tile8x8
 /PaintProc {0.5 setlinewidth pop -2 0 M 4 12 L
	0 -4 M 8 12 L 4 -4 M 10 8 L stroke}
>> matrix makepattern
/Pat7 exch def
<< Tile8x8
 /PaintProc {0.5 setlinewidth pop 8 -2 M -4 4 L
	12 0 M -4 8 L 12 4 M 0 10 L stroke}
>> matrix makepattern
/Pat8 exch def
<< Tile8x8
 /PaintProc {0.5 setlinewidth pop 0 -2 M 12 4 L
	-4 0 M 12 8 L -4 4 M 8 10 L stroke}
>> matrix makepattern
/Pat9 exch def
/Pattern1 {PatternBgnd KeepColor Pat1 setpattern} bind def
/Pattern2 {PatternBgnd KeepColor Pat2 setpattern} bind def
/Pattern3 {PatternBgnd KeepColor Pat3 setpattern} bind def
/Pattern4 {PatternBgnd KeepColor Landscape {Pat5} {Pat4} ifelse setpattern} bind def
/Pattern5 {PatternBgnd KeepColor Landscape {Pat4} {Pat5} ifelse setpattern} bind def
/Pattern6 {PatternBgnd KeepColor Landscape {Pat9} {Pat6} ifelse setpattern} bind def
/Pattern7 {PatternBgnd KeepColor Landscape {Pat8} {Pat7} ifelse setpattern} bind def
} def
%
%
%End of PostScript Level 2 code
%
/PatternBgnd {
  TransparentPatterns {} {gsave 1 setgray fill grestore} ifelse
} def
%
% Substitute for Level 2 pattern fill codes with
% grayscale if Level 2 support is not selected.
%
/Level1PatternFill {
/Pattern1 {0.250 Density} bind def
/Pattern2 {0.500 Density} bind def
/Pattern3 {0.750 Density} bind def
/Pattern4 {0.125 Density} bind def
/Pattern5 {0.375 Density} bind def
/Pattern6 {0.625 Density} bind def
/Pattern7 {0.875 Density} bind def
} def
%
% Now test for support of Level 2 code
%
Level1 {Level1PatternFill} {Level2PatternFill} ifelse
%
/Symbol-Oblique /Symbol findfont [1 0 .167 1 0 0] makefont
dup length dict begin {1 index /FID eq {pop pop} {def} ifelse} forall
currentdict end definefont pop
%
/Metrics {ExtendTextBox Gswidth} def
/Lwidth {currentpoint stroke M 0 vshift R Metrics} def
/Rwidth {currentpoint stroke M dup stringwidth pop neg vshift R Metrics} def
/Cwidth {currentpoint stroke M dup stringwidth pop -2 div vshift R Metrics} def
/GLwidth {currentpoint stroke M 0 vshift R {ExtendTextBox} forall} def
/GRwidth {currentpoint stroke M dup Gwidth vshift R {ExtendTextBox} forall} def
/GCwidth {currentpoint stroke M dup Gwidth 2 div vshift R {ExtendTextBox} forall} def
/GLwidth2 {0 Gwidth AddGlyphWidth} def
/GRwidth2 {Gwidth -1 mul 0 AddGlyphWidth} def
/GCwidth2 {Gwidth 2 div dup -1 mul AddGlyphWidth} def
/AddGlyphWidth { dup TBx2 gt {userdict /TBx2 3 -1 roll put} {pop} ifelse
                 dup TBx1 lt {userdict /TBx1 3 -1 roll put} {pop} ifelse } def
/MFshow {
   { dup 5 get 3 ge
     { 5 get 3 eq {gsave} {grestore} ifelse }
     {dup dup 0 get findfont exch 1 get scalefont setfont
     [ currentpoint ] exch dup 2 get 0 exch R dup 5 get 2 ne {dup dup 6
     get exch 4 get {textshow} {Metrics pop 0 R} ifelse }if dup 5 get 0 eq
     {dup 3 get {2 get neg 0 exch R pop} {pop aload pop M} ifelse} {dup 5
     get 1 eq {dup 2 get exch dup 3 get exch 6 get Gswidth pop -2 div
     dup 0 R} {dup 6 get Gswidth pop -2 div 0 R 6 get
     textshow 2 index {aload pop M neg 3 -1 roll neg R pop pop} {pop pop pop
     pop aload pop M} ifelse }ifelse }ifelse }
     ifelse }
   forall} def
/Gswidth {dup type /stringtype eq {stringwidth} {pop (n) stringwidth} ifelse} def
/MFwidth {0 exch { dup 5 get 3 ge { 5 get 3 eq { 0 } { pop } ifelse }
 {dup 3 get{dup dup 0 get findfont exch 1 get scalefont setfont
     6 get Gswidth pop add} {pop} ifelse} ifelse} forall} def
/MLshow { currentpoint stroke M
  0 exch R
  Blacktext {gsave 0 setgray MFshow grestore} {MFshow} ifelse } bind def
/MRshow { currentpoint stroke M
  exch dup MFwidth neg 3 -1 roll R
  Blacktext {gsave 0 setgray MFshow grestore} {MFshow} ifelse } bind def
/MCshow { currentpoint stroke M
  exch dup MFwidth -2 div 3 -1 roll R
  Blacktext {gsave 0 setgray MFshow grestore} {MFshow} ifelse } bind def
/XYsave    { [( ) 1 2 true false 3 ()] } bind def
/XYrestore { [( ) 1 2 true false 4 ()] } bind def
Level1 SuppressPDFMark or 
{} {
/SDict 10 dict def
systemdict /pdfmark known not {
  userdict /pdfmark systemdict /cleartomark get put
} if
SDict begin [
  /Title (gnuplot_TWISS_btxy.eps)
  /Subject (gnuplot plot)
  /Creator (gnuplot 5.2 patchlevel 2)
%  /Producer (gnuplot)
%  /Keywords ()
  /CreationDate (Fri Mar 18 10:11:03 2022)
  /DOCINFO pdfmark
end
} ifelse
%
% Support for boxed text - Ethan A Merritt Sep 2016
%
/InitTextBox { userdict /TBy2 3 -1 roll put userdict /TBx2 3 -1 roll put
           userdict /TBy1 3 -1 roll put userdict /TBx1 3 -1 roll put
	   /Boxing true def } def
/ExtendTextBox { dup type /stringtype eq
    { Boxing { gsave dup false charpath pathbbox
      dup TBy2 gt {userdict /TBy2 3 -1 roll put} {pop} ifelse
      dup TBx2 gt {userdict /TBx2 3 -1 roll put} {pop} ifelse
      dup TBy1 lt {userdict /TBy1 3 -1 roll put} {pop} ifelse
      dup TBx1 lt {userdict /TBx1 3 -1 roll put} {pop} ifelse
      grestore } if }
    {} ifelse} def
/PopTextBox { newpath TBx1 TBxmargin sub TBy1 TBymargin sub M
               TBx1 TBxmargin sub TBy2 TBymargin add L
	       TBx2 TBxmargin add TBy2 TBymargin add L
	       TBx2 TBxmargin add TBy1 TBymargin sub L closepath } def
/DrawTextBox { PopTextBox stroke /Boxing false def} def
/FillTextBox { gsave PopTextBox fill grestore /Boxing false def} def
0 0 0 0 InitTextBox
/TBxmargin 20 def
/TBymargin 20 def
/Boxing false def
/textshow { ExtendTextBox Gshow } def
%
end
%%EndProlog
%%Page: 1 1
gnudict begin
gsave
doclip
50 50 translate
0.050 0.050 scale
0 setgray
newpath
(Times-Roman) findfont 120 scalefont setfont
BackgroundColor 0 lt 3 1 roll 0 lt exch 0 lt or or not {BackgroundColor C 1.000 0 0 4704.00 2834.00 BoxColFill} if
1.000 UL
LTb
LCb setrgbcolor
588 384 M
63 0 V
stroke
516 384 M
[ [(roman) 120.0 0.0 true true 0 ( 0)]
] -40.0 MRshow
1.000 UL
LTb
LCb setrgbcolor
588 598 M
63 0 V
stroke
516 598 M
[ [(roman) 120.0 0.0 true true 0 ( 20)]
] -40.0 MRshow
1.000 UL
LTb
LCb setrgbcolor
588 813 M
63 0 V
stroke
516 813 M
[ [(roman) 120.0 0.0 true true 0 ( 40)]
] -40.0 MRshow
1.000 UL
LTb
LCb setrgbcolor
588 1027 M
63 0 V
stroke
516 1027 M
[ [(roman) 120.0 0.0 true true 0 ( 60)]
] -40.0 MRshow
1.000 UL
LTb
LCb setrgbcolor
588 1241 M
63 0 V
stroke
516 1241 M
[ [(roman) 120.0 0.0 true true 0 ( 80)]
] -40.0 MRshow
1.000 UL
LTb
LCb setrgbcolor
588 1456 M
63 0 V
stroke
516 1456 M
[ [(roman) 120.0 0.0 true true 0 ( 100)]
] -40.0 MRshow
1.000 UL
LTb
LCb setrgbcolor
588 1670 M
63 0 V
stroke
516 1670 M
[ [(roman) 120.0 0.0 true true 0 ( 120)]
] -40.0 MRshow
1.000 UL
LTb
LCb setrgbcolor
588 1884 M
63 0 V
stroke
516 1884 M
[ [(roman) 120.0 0.0 true true 0 ( 140)]
] -40.0 MRshow
1.000 UL
LTb
LCb setrgbcolor
588 2099 M
63 0 V
stroke
516 2099 M
[ [(roman) 120.0 0.0 true true 0 ( 160)]
] -40.0 MRshow
1.000 UL
LTb
LCb setrgbcolor
588 2313 M
63 0 V
stroke
516 2313 M
[ [(roman) 120.0 0.0 true true 0 ( 180)]
] -40.0 MRshow
1.000 UL
LTb
LCb setrgbcolor
588 384 M
0 63 V
stroke
588 264 M
[ [(roman) 120.0 0.0 true true 0 ( 0)]
] -40.0 MCshow
1.000 UL
LTb
LCb setrgbcolor
1006 384 M
0 63 V
stroke
1006 264 M
[ [(roman) 120.0 0.0 true true 0 ( 500)]
] -40.0 MCshow
1.000 UL
LTb
LCb setrgbcolor
1425 384 M
0 63 V
stroke
1425 264 M
[ [(roman) 120.0 0.0 true true 0 ( 1000)]
] -40.0 MCshow
1.000 UL
LTb
LCb setrgbcolor
1843 384 M
0 63 V
stroke
1843 264 M
[ [(roman) 120.0 0.0 true true 0 ( 1500)]
] -40.0 MCshow
1.000 UL
LTb
LCb setrgbcolor
2262 384 M
0 63 V
stroke
2262 264 M
[ [(roman) 120.0 0.0 true true 0 ( 2000)]
] -40.0 MCshow
1.000 UL
LTb
LCb setrgbcolor
2680 384 M
0 63 V
stroke
2680 264 M
[ [(roman) 120.0 0.0 true true 0 ( 2500)]
] -40.0 MCshow
1.000 UL
LTb
LCb setrgbcolor
3098 384 M
0 63 V
stroke
3098 264 M
[ [(roman) 120.0 0.0 true true 0 ( 3000)]
] -40.0 MCshow
1.000 UL
LTb
LCb setrgbcolor
3517 384 M
0 63 V
stroke
3517 264 M
[ [(roman) 120.0 0.0 true true 0 ( 3500)]
] -40.0 MCshow
1.000 UL
LTb
LCb setrgbcolor
3935 384 M
0 63 V
stroke
3935 264 M
[ [(roman) 120.0 0.0 true true 0 ( 4000)]
] -40.0 MCshow
1.000 UL
LTb
LCb setrgbcolor
3935 384 M
-63 0 V
stroke
4007 384 M
[ [(roman) 120.0 0.0 true true 0 (-0.5)]
] -40.0 MLshow
1.000 UL
LTb
LCb setrgbcolor
3935 770 M
-63 0 V
stroke
4007 770 M
[ [(roman) 120.0 0.0 true true 0 ( 0)]
] -40.0 MLshow
1.000 UL
LTb
LCb setrgbcolor
3935 1156 M
-63 0 V
stroke
4007 1156 M
[ [(roman) 120.0 0.0 true true 0 ( 0.5)]
] -40.0 MLshow
1.000 UL
LTb
LCb setrgbcolor
3935 1541 M
-63 0 V
stroke
4007 1541 M
[ [(roman) 120.0 0.0 true true 0 ( 1)]
] -40.0 MLshow
1.000 UL
LTb
LCb setrgbcolor
3935 1927 M
-63 0 V
stroke
4007 1927 M
[ [(roman) 120.0 0.0 true true 0 ( 1.5)]
] -40.0 MLshow
1.000 UL
LTb
LCb setrgbcolor
3935 2313 M
-63 0 V
stroke
4007 2313 M
[ [(roman) 120.0 0.0 true true 0 ( 2)]
] -40.0 MLshow
1.000 UL
LTb
LCb setrgbcolor
588 2313 M
0 -63 V
588 384 M
0 63 V
stroke
588 2433 M
[ [(roman) 120.0 0.0 true true 0 ( 0)]
] -40.0 MCshow
1.000 UL
LTb
LCb setrgbcolor
1006 2313 M
0 -63 V
0 -1866 R
0 63 V
stroke
1006 2433 M
[ [(roman) 120.0 0.0 true true 0 ( 500)]
] -40.0 MCshow
1.000 UL
LTb
LCb setrgbcolor
1425 2313 M
0 -63 V
0 -1866 R
0 63 V
stroke
1425 2433 M
[ [(roman) 120.0 0.0 true true 0 ( 1000)]
] -40.0 MCshow
1.000 UL
LTb
LCb setrgbcolor
1843 2313 M
0 -63 V
0 -1866 R
0 63 V
stroke
1843 2433 M
[ [(roman) 120.0 0.0 true true 0 ( 1500)]
] -40.0 MCshow
1.000 UL
LTb
LCb setrgbcolor
2262 2313 M
0 -63 V
0 -1866 R
0 63 V
stroke
2262 2433 M
[ [(roman) 120.0 0.0 true true 0 ( 2000)]
] -40.0 MCshow
1.000 UL
LTb
LCb setrgbcolor
2680 2313 M
0 -63 V
0 -1866 R
0 63 V
stroke
2680 2433 M
[ [(roman) 120.0 0.0 true true 0 ( 2500)]
] -40.0 MCshow
1.000 UL
LTb
LCb setrgbcolor
3098 2313 M
0 -63 V
0 -1866 R
0 63 V
stroke
3098 2433 M
[ [(roman) 120.0 0.0 true true 0 ( 3000)]
] -40.0 MCshow
1.000 UL
LTb
LCb setrgbcolor
3517 2313 M
0 -63 V
0 -1866 R
0 63 V
stroke
3517 2433 M
[ [(roman) 120.0 0.0 true true 0 ( 3500)]
] -40.0 MCshow
1.000 UL
LTb
LCb setrgbcolor
3935 2313 M
0 -63 V
0 -1866 R
0 63 V
stroke
3935 2433 M
[ [(roman) 120.0 0.0 true true 0 ( 4000)]
] -40.0 MCshow
1.000 UL
LTb
LCb setrgbcolor
1.000 UL
LTB
LCb setrgbcolor
588 2313 N
588 384 L
3347 0 V
0 1929 V
-3347 0 V
Z stroke
1.000 UP
1.000 UL
LTb
LCb setrgbcolor
LCb setrgbcolor
108 1348 M
currentpoint gsave translate -270 rotate 0 0 moveto
[ [(Symbol) 130.0 0.0 true true 0 (b)]
[(roman) 104.0 -39.0 true true 0 (x)]
[(roman) 130.0 0.0 true true 0 (, )]
[(Symbol) 130.0 0.0 true true 0 (b)]
[(roman) 104.0 -39.0 true true 0 (y)]
[(roman) 130.0 0.0 true true 0 ( [m])]
] -30.3 MCshow
grestore
LTb
LCb setrgbcolor
4511 1348 M
currentpoint gsave translate -270 rotate 0 0 moveto
[ [(Symbol) 130.0 0.0 true true 0 (h)]
[(roman) 104.0 -39.0 true true 0 (x)]
[(roman) 130.0 0.0 true true 0 (, )]
[(Symbol) 130.0 0.0 true true 0 (h)]
[(roman) 104.0 -39.0 true true 0 (y)]
] -30.3 MCshow
grestore
LTb
LCb setrgbcolor
2261 84 M
[ [(roman) 160.0 0.0 true true 0 (s [m])]
] -53.3 MCshow
LTb
LCb setrgbcolor
2261 2653 M
[ [(roman) 160.0 0.0 true true 0 (Optical functions, from zgoubi.TWISS.out)]
] -53.3 MCshow
% Begin plot #1
1.000 UL
LTb
1.00 0.00 0.00 C LCb setrgbcolor
1211 2180 M
[ [(Symbol) 140.0 0.0 true true 0 (b)]
[(roman) 112.0 -42.0 true true 0 (x)]
] -32.7 MRshow
1.000 UL
LTb
1.00 0.00 0.00 C 1295 2180 M
147 0 V
588 491 M
7 107 V
1 34 V
3 108 V
2 82 V
2 73 V
2 133 V
3 189 V
1 53 V
0 20 V
1 212 V
1 312 V
1 142 V
3 -97 V
1 -426 V
0 -135 V
2 -320 V
0 -38 V
1 -28 V
2 -117 V
635 463 L
2 37 V
7 321 V
5 432 V
0 18 V
1 81 V
0 18 V
2 -59 V
0 -104 V
4 -609 V
0 -20 V
1 -59 V
0 -9 V
1 -51 V
0 -16 V
2 -32 V
7 291 V
1 113 V
0 20 V
1 60 V
0 9 V
1 16 V
1 -23 V
6 -262 V
3 -62 V
1 -26 V
1 -8 V
1 5 V
9 296 V
2 77 V
0 13 V
1 -5 V
0 -27 V
1 -75 V
8 -298 V
2 -26 V
0 -7 V
1 -2 V
0 3 V
2 16 V
0 12 V
1 11 V
0 14 V
1 13 V
1 18 V
0 15 V
1 21 V
1 50 V
3 103 V
1 41 V
0 9 V
0 32 V
1 6 V
1 1 V
0 -23 V
1 -61 V
8 -244 V
1 -14 V
0 -2 V
1 -9 V
0 -1 V
1 3 V
0 9 V
2 30 V
8 329 V
0 52 V
1 12 V
0 39 V
0 7 V
1 0 V
1 -30 V
1 -81 V
8 -331 V
1 -21 V
0 -4 V
1 -12 V
0 -2 V
1 -3 V
0 5 V
2 20 V
7 242 V
1 39 V
0 9 V
1 31 V
0 5 V
1 0 V
1 -23 V
1 -63 V
8 -245 V
1 -14 V
0 -2 V
1 -8 V
0 -1 V
1 3 V
0 8 V
1 30 V
8 329 V
1 52 V
0 12 V
1 40 V
0 8 V
1 1 V
0 -29 V
2 -78 V
8 -322 V
1 -21 V
0 -4 V
0 -12 V
0 -2 V
1 -3 V
1 6 V
1 22 V
8 249 V
1 40 V
0 9 V
1 31 V
0 5 V
1 -1 V
0 -25 V
2 -67 V
7 -260 V
1 -14 V
1 -3 V
0 -8 V
0 -1 V
1 1 V
1 8 V
1 27 V
8 316 V
1 50 V
0 12 V
1 39 V
0 7 V
1 2 V
0 -26 V
1 -74 V
8 -303 V
1 -19 V
0 -4 V
1 -11 V
0 -2 V
1 -1 V
0 6 V
2 25 V
8 267 V
1 42 V
0 9 V
0 33 V
0 6 V
1 -3 V
1 -26 V
1 -73 V
8 -281 V
1 -16 V
0 -3 V
1 -9 V
0 -1 V
1 0 V
0 7 V
2 24 V
7 294 V
1 47 V
1 11 V
0 37 V
0 7 V
1 3 V
1 -25 V
1 -68 V
8 -278 V
1 -18 V
0 -3 V
1 -11 V
0 -1 V
1 0 V
0 8 V
1 27 V
8 291 V
1 46 V
0 10 V
1 35 V
0 6 V
1 -2 V
0 -29 V
2 -77 V
8 -306 V
1 -18 V
0 -3 V
0 -11 V
1 -1 V
0 -2 V
1 6 V
1 22 V
8 269 V
1 44 V
0 11 V
1 34 V
0 6 V
1 2 V
0 -23 V
2 -64 V
8 -256 V
0 -16 V
1 -3 V
0 -9 V
0 -1 V
1 2 V
1 8 V
1 30 V
8 314 V
1 49 V
0 11 V
1 37 V
0 7 V
1 -1 V
0 -30 V
1 -80 V
8 -324 V
1 -20 V
0 -4 V
1 -11 V
0 -2 V
1 -3 V
1 6 V
1 20 V
8 250 V
1 41 V
0 10 V
0 31 V
1 6 V
0 1 V
1 -23 V
1 -62 V
3 -99 V
6 -160 V
0 -3 V
1 -8 V
0 -1 V
1 2 V
0 8 V
2 28 V
8 308 V
1 76 V
0 28 V
1 4 V
1 -13 V
11 -392 V
0 -5 V
1 -1 V
0 7 V
1 24 V
stroke 1031 574 M
3 58 V
7 246 V
0 21 V
1 -15 V
0 -8 V
1 -56 V
0 -19 V
1 -106 V
7 -283 V
2 26 V
0 12 V
1 45 V
0 8 V
1 50 V
0 18 V
4 533 V
0 91 V
2 58 V
0 -15 V
1 -69 V
0 -18 V
27 -404 V
1 60 V
2 114 V
1 28 V
0 36 V
2 314 V
0 132 V
1 418 V
3 90 V
1 -140 V
1 -308 V
1 -211 V
0 -20 V
1 -53 V
3 -190 V
6 -287 V
3 -107 V
8 -135 V
1 -1 V
1 0 V
1 5 V
4 53 V
1 24 V
3 86 V
6 249 V
3 169 V
1 49 V
0 18 V
1 -9 V
1 -76 V
1 -31 V
3 206 V
1 307 V
0 122 V
2 232 V
1 -30 V
0 -23 V
2 -101 V
23 -919 V
1 -24 V
2 -49 V
2 -39 V
0 -3 V
1 -18 V
0 -4 V
2 31 V
0 40 V
4 411 V
0 26 V
1 84 V
0 14 V
1 18 V
0 -43 V
3 -205 V
0 1 V
5 -376 V
2 -85 V
0 -8 V
1 -22 V
0 -3 V
1 -9 V
1 6 V
6 148 V
3 82 V
1 49 V
1 18 V
0 -5 V
1 -13 V
1 -56 V
-1 33 V
0 -7 V
3 -136 V
-1 34 V
3 -110 V
0 10 V
0 10 V
3 -81 V
-1 19 V
3 -58 V
0 -2 V
-1 9 V
2 -15 V
0 -2 V
1 2 V
0 7 V
1 27 V
8 311 V
2 77 V
0 28 V
1 4 V
0 -7 V
1 -34 V
0 -10 V
6 -267 V
3 -67 V
1 -28 V
1 -8 V
0 -1 V
1 2 V
0 12 V
0 3 V
1 18 V
8 283 V
1 68 V
1 24 V
1 -4 V
0 -7 V
1 -39 V
0 -12 V
1 -49 V
8 -309 V
1 -25 V
0 -7 V
1 -1 V
0 1 V
1 8 V
0 3 V
1 14 V
8 274 V
1 70 V
1 26 V
1 5 V
0 -6 V
0 -30 V
1 -9 V
0 -38 V
8 -250 V
2 -23 V
0 -6 V
1 2 V
0 3 V
1 13 V
0 4 V
1 21 V
8 325 V
1 78 V
0 28 V
1 -4 V
0 -7 V
1 -43 V
0 -12 V
1 -54 V
8 -345 V
1 -30 V
1 -8 V
1 -4 V
0 1 V
0 7 V
1 2 V
1 12 V
7 237 V
2 61 V
0 23 V
1 2 V
0 -5 V
1 -28 V
0 -8 V
1 -36 V
8 -224 V
1 -18 V
1 -5 V
1 4 V
0 2 V
0 14 V
0 5 V
1 22 V
8 353 V
2 84 V
0 31 V
1 0 V
0 -8 V
1 -43 V
0 -13 V
1 -54 V
8 -357 V
1 -33 V
0 -10 V
1 -4 V
0 1 V
1 6 V
0 3 V
1 11 V
8 221 V
1 57 V
1 21 V
1 -1 V
0 -5 V
0 -29 V
1 -9 V
0 -37 V
8 -225 V
2 -17 V
0 -5 V
1 5 V
0 2 V
1 13 V
0 4 V
1 22 V
8 354 V
1 87 V
0 31 V
1 3 V
1 -8 V
0 -40 V
0 -12 V
1 -52 V
8 -341 V
1 -33 V
1 -10 V
1 -4 V
0 2 V
1 8 V
0 3 V
1 14 V
7 233 V
2 58 V
0 21 V
1 -3 V
0 -6 V
1 -33 V
0 -9 V
1 -42 V
8 -254 V
1 -18 V
1 -5 V
1 2 V
0 2 V
0 11 V
stroke 1453 496 M
0 4 V
1 19 V
8 329 V
2 82 V
0 31 V
1 4 V
0 -7 V
1 -36 V
0 -10 V
1 -46 V
8 -305 V
1 -29 V
0 -9 V
1 -1 V
0 2 V
1 10 V
0 4 V
1 17 V
8 269 V
1 64 V
1 24 V
1 -5 V
0 -6 V
0 -38 V
1 -11 V
0 -48 V
8 -296 V
2 -23 V
0 -6 V
1 0 V
0 1 V
1 9 V
0 3 V
1 15 V
8 287 V
1 74 V
1 27 V
0 5 V
1 -6 V
0 -31 V
0 -10 V
1 -40 V
8 -262 V
1 -24 V
1 -7 V
1 2 V
0 2 V
1 13 V
0 4 V
1 20 V
2 73 V
6 287 V
1 55 V
1 -2 V
1 -28 V
1 -78 V
8 -322 V
1 -30 V
1 -8 V
1 -4 V
0 3 V
11 312 V
0 12 V
1 1 V
0 -20 V
2 -54 V
2 -87 V
7 -149 V
0 -5 V
1 7 V
0 2 V
1 19 V
0 6 V
2 72 V
6 337 V
2 189 V
1 39 V
1 -12 V
0 -13 V
0 -76 V
1 -25 V
3 -382 V
1 -36 V
1 -35 V
0 2 V
1 12 V
0 2 V
3 49 V
1 11 V
1 12 V
0 12 V
2 46 V
1 13 V
0 13 V
1 21 V
1 14 V
6 202 V
2 66 V
2 80 V
1 76 V
4 183 V
1 65 V
1 39 V
0 18 V
2 84 V
1 106 V
1 24 V
0 31 V
2 -214 V
1 -115 V
1 -290 V
2 -189 V
1 30 V
1 77 V
1 11 V
0 -17 V
1 -45 V
3 -160 V
6 -233 V
3 -80 V
2 -29 V
6 -42 V
7 95 V
2 40 V
3 104 V
3 170 V
2 108 V
3 183 V
1 52 V
1 19 V
1 206 V
1 300 V
0 137 V
3 -98 V
1 -413 V
1 -131 V
1 -311 V
1 -36 V
0 -28 V
4 -237 V
0 -7 V
2 -81 V
1 -13 V
2 -69 V
3 -35 V
2 0 V
3 35 V
2 69 V
3 99 V
0 19 V
1 66 V
2 111 V
1 23 V
5 401 V
0 20 V
0 83 V
0 19 V
2 -59 V
0 -107 V
4 -623 V
0 -21 V
1 -61 V
0 -9 V
1 -53 V
0 -16 V
2 -34 V
7 292 V
2 114 V
0 20 V
0 60 V
0 9 V
1 17 V
1 -23 V
7 -261 V
2 -63 V
1 -26 V
1 -8 V
1 1 V
0 4 V
11 377 V
0 13 V
1 -5 V
0 -27 V
2 -77 V
8 -303 V
1 -26 V
1 -7 V
0 -2 V
1 11 V
7 159 V
2 102 V
1 40 V
0 10 V
1 31 V
0 6 V
1 1 V
0 -22 V
2 -61 V
8 -240 V
0 -13 V
1 -3 V
0 -8 V
0 -1 V
1 3 V
1 9 V
1 31 V
8 333 V
1 52 V
0 12 V
1 40 V
0 7 V
1 0 V
0 -30 V
1 -82 V
8 -336 V
1 -20 V
0 -4 V
1 -13 V
0 -2 V
1 -3 V
1 5 V
1 19 V
8 239 V
1 39 V
0 9 V
0 30 V
1 6 V
0 -1 V
1 -23 V
1 -62 V
8 -243 V
1 -14 V
0 -2 V
1 -8 V
0 -1 V
1 3 V
0 9 V
2 29 V
8 333 V
0 52 V
1 12 V
0 41 V
0 7 V
1 2 V
1 -29 V
1 -78 V
8 -323 V
1 -21 V
0 -4 V
stroke 1874 525 M
1 -12 V
0 -2 V
1 -3 V
0 6 V
1 22 V
8 249 V
1 40 V
0 9 V
1 31 V
0 5 V
1 -2 V
1 -25 V
1 -68 V
8 -264 V
1 -14 V
0 -3 V
0 -8 V
1 -1 V
0 2 V
1 7 V
1 27 V
8 313 V
1 51 V
0 11 V
1 40 V
0 7 V
1 3 V
0 -26 V
2 -72 V
8 -297 V
0 -19 V
1 -3 V
0 -12 V
0 -2 V
1 -1 V
1 8 V
1 25 V
8 275 V
1 42 V
0 10 V
1 33 V
0 6 V
1 -3 V
0 -27 V
2 -75 V
7 -293 V
1 -17 V
0 -3 V
1 -9 V
0 -2 V
1 0 V
1 6 V
1 23 V
8 284 V
1 46 V
0 11 V
1 36 V
0 7 V
1 3 V
0 -24 V
1 -65 V
8 -267 V
1 -16 V
0 -3 V
1 -10 V
0 -2 V
1 1 V
0 9 V
2 29 V
8 304 V
0 47 V
1 11 V
0 36 V
0 7 V
1 -3 V
1 -29 V
1 -81 V
8 -320 V
1 -19 V
0 -3 V
1 -11 V
0 -2 V
1 -2 V
0 5 V
2 20 V
7 256 V
1 43 V
1 9 V
0 33 V
0 6 V
1 2 V
1 -22 V
1 -62 V
8 -245 V
1 -14 V
0 -3 V
1 -8 V
0 -2 V
1 3 V
0 9 V
1 31 V
8 327 V
1 51 V
0 12 V
1 39 V
0 7 V
1 -1 V
0 -30 V
2 -83 V
8 -333 V
1 -21 V
0 -4 V
0 -12 V
0 -2 V
1 -3 V
1 5 V
1 19 V
8 241 V
1 40 V
0 9 V
1 30 V
0 6 V
1 0 V
0 -23 V
2 -61 V
2 -98 V
6 -156 V
1 -2 V
0 -8 V
0 -1 V
1 2 V
1 8 V
1 28 V
8 314 V
1 78 V
1 28 V
1 5 V
0 -13 V
11 -392 V
0 -4 V
1 -1 V
0 7 V
2 25 V
2 59 V
7 248 V
0 21 V
1 -16 V
0 -8 V
1 -58 V
0 -19 V
1 -108 V
8 -288 V
1 26 V
1 13 V
1 46 V
0 8 V
0 52 V
1 18 V
3 545 V
1 93 V
1 60 V
0 -16 V
1 -70 V
0 -18 V
2 -134 V
0 -32 V
1 -86 V
17 -450 V
4 103 V
4 188 V
1 44 V
2 113 V
0 28 V
0 36 V
2 313 V
1 132 V
1 417 V
3 91 V
0 -139 V
1 -305 V
1 -209 V
0 -20 V
1 -53 V
3 -189 V
6 -285 V
3 -106 V
1 -35 V
6 -92 V
0 -2 V
1 -7 V
7 52 V
2 25 V
3 84 V
6 243 V
3 166 V
0 48 V
1 18 V
1 -10 V
1 -76 V
0 -30 V
3 198 V
1 299 V
1 118 V
1 225 V
1 -29 V
0 -23 V
2 -98 V
24 -920 V
1 -25 V
2 -23 V
2 -32 V
0 -3 V
0 -17 V
1 -4 V
1 33 V
1 40 V
3 418 V
0 26 V
1 85 V
0 14 V
1 17 V
0 -43 V
3 -207 V
6 -378 V
2 -86 V
0 -7 V
0 -23 V
0 -3 V
1 -9 V
1 5 V
7 143 V
2 79 V
1 48 V
1 17 V
1 -5 V
0 -12 V
11 -339 V
0 -2 V
1 2 V
1 8 V
1 27 V
8 316 V
1 79 V
0 29 V
1 3 V
1 -6 V
0 -34 V
0 -11 V
7 -269 V
stroke 2319 631 M
2 -69 V
1 -28 V
1 -9 V
1 0 V
0 2 V
1 11 V
0 4 V
1 18 V
7 282 V
2 67 V
0 25 V
1 -5 V
0 -7 V
1 -40 V
0 -12 V
1 -49 V
8 -311 V
1 -25 V
1 -7 V
1 -1 V
0 1 V
0 8 V
0 3 V
1 14 V
8 275 V
2 71 V
0 26 V
1 5 V
0 -6 V
1 -30 V
0 -9 V
1 -38 V
8 -248 V
1 -22 V
0 -7 V
1 3 V
0 2 V
1 14 V
0 4 V
1 21 V
8 328 V
1 78 V
1 28 V
1 -3 V
0 -8 V
0 -43 V
1 -13 V
0 -54 V
8 -350 V
2 -30 V
0 -9 V
1 -4 V
0 1 V
1 7 V
0 2 V
1 11 V
8 234 V
1 61 V
1 23 V
0 2 V
1 -5 V
0 -27 V
0 -9 V
1 -34 V
8 -220 V
1 -18 V
1 -5 V
1 5 V
0 2 V
1 15 V
0 4 V
1 23 V
8 359 V
1 86 V
0 31 V
1 0 V
0 -8 V
1 -44 V
0 -13 V
1 -56 V
8 -365 V
1 -33 V
1 -10 V
1 -5 V
0 1 V
0 6 V
1 2 V
0 12 V
8 216 V
2 55 V
0 21 V
1 -1 V
0 -5 V
1 -29 V
0 -8 V
1 -36 V
8 -220 V
1 -16 V
0 -4 V
1 5 V
0 2 V
1 13 V
0 5 V
1 22 V
8 362 V
1 89 V
1 32 V
1 2 V
0 -7 V
0 -42 V
1 -12 V
1 -52 V
7 -350 V
2 -34 V
0 -10 V
1 -4 V
0 1 V
1 8 V
0 3 V
1 13 V
8 228 V
1 56 V
1 21 V
0 -3 V
1 -6 V
0 -33 V
0 -9 V
1 -41 V
8 -248 V
1 -18 V
1 -5 V
1 3 V
0 2 V
1 11 V
0 4 V
1 19 V
8 337 V
1 84 V
0 31 V
1 4 V
0 -6 V
1 -37 V
0 -10 V
1 -47 V
8 -311 V
1 -30 V
1 -9 V
1 -1 V
0 1 V
0 11 V
1 3 V
0 17 V
8 266 V
2 63 V
0 24 V
1 -5 V
0 -7 V
1 -38 V
0 -11 V
1 -48 V
8 -294 V
1 -23 V
0 -6 V
1 0 V
0 1 V
1 9 V
0 3 V
1 15 V
8 291 V
1 75 V
1 28 V
1 5 V
0 -6 V
0 -31 V
1 -10 V
1 -40 V
7 -262 V
2 -25 V
0 -7 V
1 2 V
0 2 V
1 13 V
0 4 V
1 20 V
2 74 V
7 288 V
1 54 V
1 -1 V
0 -27 V
1 -76 V
8 -318 V
2 -30 V
0 -9 V
1 -3 V
0 2 V
11 311 V
0 11 V
1 -1 V
1 -22 V
1 -58 V
2 -95 V
7 -157 V
1 -5 V
1 5 V
0 2 V
0 17 V
0 5 V
2 67 V
6 322 V
3 183 V
0 39 V
1 -9 V
0 -12 V
1 -73 V
0 -24 V
4 -373 V
0 -34 V
1 -38 V
1 2 V
0 6 V
0 1 V
23 501 V
8 390 V
0 21 V
1 28 V
1 -164 V
1 -92 V
1 -231 V
3 -139 V
0 28 V
1 73 V
1 18 V
1 -13 V
0 -35 V
3 -123 V
6 -183 V
3 -65 V
2 -20 V
3 -40 V
1 -4 V
1 -3 V
2 -4 V
2 7 V
0 3 V
1 5 V
4 43 V
1 22 V
3 69 V
6 189 V
stroke 2744 869 M
3 126 V
1 36 V
0 13 V
1 149 V
1 221 V
0 101 V
3 -81 V
1 -308 V
1 -97 V
2 -233 V
0 -28 V
1 -21 V
1 -90 V
1 -42 V
1 -5 V
1 -37 V
0 -4 V
1 -31 V
0 -4 V
1 -26 V
0 -2 V
1 -21 V
1 -14 V
4 -14 V
18 876 V
0 19 V
1 84 V
0 20 V
1 -66 V
1 -114 V
3 -664 V
1 -22 V
0 -63 V
0 -10 V
1 -55 V
1 -17 V
1 -35 V
8 305 V
1 119 V
0 22 V
1 63 V
0 9 V
1 18 V
0 -24 V
7 -273 V
2 -65 V
2 -28 V
0 -9 V
1 0 V
0 4 V
1 21 V
0 -13 V
0 3 V
3 71 V
-1 -22 V
3 91 V
0 -11 V
-1 -10 V
3 113 V
0 -34 V
3 135 V
0 6 V
0 2 V
-1 -32 V
1 54 V
0 13 V
1 -5 V
1 -28 V
1 -77 V
8 -304 V
1 -26 V
1 -7 V
1 -2 V
1 11 V
6 158 V
2 101 V
1 41 V
0 9 V
1 32 V
0 6 V
1 1 V
1 -22 V
1 -60 V
8 -238 V
1 -13 V
0 -3 V
1 -8 V
0 -1 V
1 3 V
0 9 V
1 31 V
8 336 V
1 52 V
0 12 V
1 40 V
0 7 V
1 0 V
0 -31 V
2 -83 V
8 -339 V
1 -21 V
0 -4 V
0 -12 V
0 -2 V
1 -4 V
1 5 V
1 19 V
8 236 V
1 39 V
0 9 V
1 30 V
0 5 V
1 0 V
0 -23 V
2 -61 V
7 -239 V
1 -13 V
1 -2 V
0 -7 V
0 -2 V
1 4 V
1 9 V
1 30 V
8 338 V
1 53 V
0 12 V
1 41 V
0 8 V
1 1 V
0 -29 V
1 -80 V
8 -330 V
1 -21 V
0 -4 V
1 -13 V
0 -2 V
1 -3 V
0 5 V
2 21 V
8 243 V
1 39 V
0 9 V
0 30 V
0 6 V
1 -3 V
1 -24 V
1 -66 V
8 -257 V
1 -13 V
0 -3 V
1 -8 V
0 -1 V
1 2 V
0 8 V
2 28 V
8 322 V
0 51 V
1 12 V
0 40 V
0 7 V
1 3 V
1 -27 V
1 -73 V
8 -305 V
1 -19 V
0 -4 V
1 -12 V
0 -2 V
1 -1 V
0 7 V
1 24 V
8 268 V
1 41 V
0 10 V
1 32 V
0 6 V
1 -3 V
1 -27 V
1 -74 V
8 -287 V
1 -16 V
0 -3 V
0 -9 V
1 -1 V
1 6 V
1 24 V
8 292 V
1 47 V
0 11 V
1 37 V
0 7 V
1 3 V
0 -24 V
2 -66 V
8 -272 V
0 -17 V
1 -4 V
0 -10 V
0 -2 V
1 1 V
1 8 V
1 29 V
8 300 V
1 46 V
0 10 V
1 36 V
0 6 V
1 -3 V
0 -29 V
1 -80 V
8 -318 V
1 -18 V
0 -4 V
1 -11 V
0 -1 V
1 -2 V
1 5 V
1 20 V
8 260 V
1 43 V
0 10 V
0 34 V
1 6 V
0 2 V
1 -22 V
1 -62 V
8 -245 V
1 -15 V
0 -3 V
1 -8 V
0 -2 V
1 3 V
0 9 V
2 31 V
8 327 V
0 50 V
1 12 V
0 39 V
0 7 V
1 -2 V
1 -30 V
1 -83 V
8 -336 V
1 -21 V
0 -4 V
1 -12 V
0 -2 V
1 -3 V
0 5 V
stroke 3119 498 M
2 19 V
7 239 V
1 40 V
0 9 V
1 30 V
0 6 V
1 0 V
1 -22 V
1 -60 V
2 -97 V
7 -153 V
0 -3 V
0 -7 V
1 -1 V
1 3 V
0 8 V
1 29 V
8 318 V
2 79 V
0 29 V
1 4 V
0 -13 V
11 -400 V
0 -4 V
1 -2 V
1 8 V
1 24 V
2 58 V
7 244 V
1 21 V
1 -16 V
0 -8 V
0 -57 V
0 -19 V
2 -108 V
7 -284 V
2 27 V
0 13 V
1 46 V
0 8 V
1 52 V
0 18 V
4 547 V
0 94 V
2 59 V
0 -15 V
0 -71 V
0 -17 V
6 -398 V
10 -323 V
13 371 V
2 106 V
0 28 V
1 37 V
1 320 V
1 135 V
1 426 V
3 93 V
0 -143 V
1 -313 V
1 -214 V
1 -20 V
1 -55 V
3 -192 V
5 -293 V
4 -109 V
1 -35 V
7 -106 V
7 51 V
1 25 V
3 85 V
6 246 V
3 169 V
1 48 V
0 19 V
1 -9 V
1 -74 V
1 -30 V
2 207 V
2 305 V
0 121 V
2 232 V
0 -29 V
1 -24 V
1 -99 V
2 -93 V
0 -24 V
8 -365 V
1 -19 V
4 -179 V
1 -15 V
0 -14 V
1 -15 V
6 -191 V
6 -107 V
0 -3 V
1 -18 V
0 -4 V
1 31 V
1 40 V
4 417 V
0 26 V
0 85 V
0 14 V
1 18 V
1 -43 V
2 -207 V
6 -380 V
2 -86 V
0 -8 V
1 -22 V
0 -4 V
1 -9 V
0 6 V
7 146 V
2 81 V
2 48 V
0 18 V
1 -5 V
0 -14 V
11 -349 V
0 -3 V
1 2 V
1 7 V
1 26 V
8 311 V
1 78 V
1 29 V
1 4 V
0 -6 V
0 -34 V
1 -10 V
6 -263 V
2 -67 V
2 -27 V
0 -8 V
1 0 V
0 2 V
1 11 V
0 4 V
1 19 V
8 290 V
1 68 V
1 25 V
1 -4 V
0 -8 V
0 -40 V
0 -12 V
1 -51 V
8 -318 V
2 -26 V
0 -7 V
1 -1 V
0 1 V
1 7 V
0 3 V
1 13 V
8 268 V
1 69 V
0 25 V
1 5 V
0 -5 V
1 -30 V
0 -9 V
1 -37 V
8 -242 V
1 -22 V
1 -6 V
1 3 V
0 3 V
0 13 V
1 5 V
0 21 V
8 335 V
2 79 V
0 29 V
1 -3 V
0 -8 V
1 -43 V
0 -13 V
1 -55 V
8 -354 V
1 -31 V
0 -9 V
1 -4 V
1 1 V
0 6 V
0 3 V
1 11 V
8 229 V
1 60 V
1 22 V
1 2 V
0 -5 V
1 -27 V
0 -8 V
1 -35 V
7 -218 V
2 -18 V
0 -4 V
1 5 V
0 2 V
1 14 V
0 5 V
1 23 V
8 361 V
1 87 V
1 31 V
1 0 V
0 -8 V
0 -43 V
0 -13 V
1 -56 V
8 -364 V
2 -33 V
0 -10 V
1 -5 V
0 1 V
1 6 V
0 2 V
1 12 V
8 216 V
1 55 V
0 21 V
1 -1 V
0 -6 V
1 -29 V
0 -8 V
1 -37 V
8 -223 V
1 -17 V
1 -4 V
1 5 V
0 2 V
0 13 V
1 4 V
0 22 V
8 359 V
2 88 V
0 32 V
1 3 V
0 -7 V
1 -41 V
0 -12 V
1 -51 V
8 -344 V
1 -33 V
1 -10 V
0 -3 V
stroke 3566 516 M
1 1 V
0 8 V
0 3 V
1 14 V
8 234 V
1 57 V
1 21 V
1 -3 V
0 -6 V
1 -34 V
0 -10 V
1 -42 V
7 -256 V
2 -19 V
0 -5 V
1 2 V
0 2 V
1 11 V
0 4 V
1 18 V
8 328 V
1 82 V
1 31 V
1 4 V
0 -6 V
0 -35 V
0 -11 V
1 -45 V
8 -301 V
2 -29 V
0 -9 V
1 -1 V
0 2 V
1 11 V
0 4 V
1 17 V
8 274 V
1 66 V
0 24 V
1 -5 V
0 -7 V
1 -39 V
0 -11 V
1 -49 V
8 -303 V
1 -24 V
1 -6 V
1 -1 V
0 1 V
0 9 V
1 3 V
0 14 V
8 282 V
2 73 V
0 27 V
1 4 V
0 -5 V
1 -31 V
0 -9 V
1 -39 V
8 -254 V
1 -24 V
1 -7 V
0 3 V
1 2 V
0 13 V
0 4 V
1 21 V
3 76 V
6 295 V
1 55 V
1 -1 V
0 -29 V
2 -79 V
8 -331 V
1 -31 V
0 -9 V
1 -4 V
0 3 V
11 301 V
1 12 V
1 -19 V
1 -54 V
3 -86 V
6 -144 V
1 -5 V
1 7 V
0 3 V
1 18 V
0 6 V
2 73 V
5 341 V
3 192 V
0 40 V
1 -12 V
0 -12 V
1 -77 V
0 -24 V
4 -384 V
0 -37 V
2 -34 V
0 2 V
1 13 V
0 2 V
5 94 V
23 939 V
2 108 V
0 24 V
1 32 V
2 -221 V
0 -118 V
1 -298 V
3 -196 V
1 30 V
1 77 V
1 11 V
0 -17 V
1 -47 V
3 -164 V
6 -239 V
3 -82 V
1 -29 V
7 -44 V
% End plot #1
% Begin plot #2
stroke
LTb
0.00 0.00 1.00 C LCb setrgbcolor
1946 2180 M
[ [(Symbol) 140.0 0.0 true true 0 (b)]
[(roman) 112.0 -42.0 true true 0 (y)]
] -32.7 MRshow
1.000 UL
LTb
0.00 0.00 1.00 C 2030 2180 M
147 0 V
588 487 M
7 117 V
1 38 V
3 117 V
2 88 V
2 78 V
2 142 V
3 202 V
1 57 V
0 21 V
1 -28 V
1 -116 V
1 -46 V
3 211 V
1 361 V
0 142 V
2 262 V
0 -41 V
1 -32 V
2 -139 V
14 -870 V
2 -85 V
7 -256 V
5 -118 V
0 -3 V
1 -13 V
0 -3 V
2 20 V
0 27 V
4 282 V
0 18 V
1 56 V
0 9 V
1 6 V
0 -31 V
2 -105 V
7 -319 V
1 -28 V
0 -4 V
1 -10 V
0 -1 V
1 4 V
1 9 V
6 254 V
3 145 V
1 90 V
1 33 V
0 6 V
1 -15 V
9 -405 V
2 -42 V
0 -5 V
1 -3 V
0 8 V
1 25 V
8 244 V
2 57 V
0 21 V
1 -11 V
0 -16 V
2 -74 V
0 -39 V
1 -31 V
0 -35 V
1 -27 V
1 -31 V
0 -24 V
1 -27 V
1 -52 V
3 -63 V
1 -15 V
0 -3 V
0 -8 V
1 -1 V
1 0 V
0 5 V
1 21 V
8 302 V
1 51 V
0 12 V
1 40 V
0 7 V
1 6 V
0 -24 V
2 -66 V
8 -271 V
0 -17 V
1 -3 V
0 -10 V
0 -2 V
1 1 V
1 7 V
1 26 V
8 280 V
1 43 V
0 10 V
1 34 V
0 6 V
1 -6 V
0 -30 V
2 -83 V
7 -311 V
1 -15 V
0 -3 V
1 -8 V
0 -1 V
1 -1 V
1 5 V
1 21 V
8 297 V
1 50 V
0 12 V
1 40 V
0 7 V
1 6 V
0 -24 V
1 -66 V
8 -266 V
1 -17 V
0 -3 V
1 -10 V
0 -1 V
1 0 V
0 8 V
2 26 V
8 285 V
1 44 V
0 10 V
0 34 V
0 6 V
1 -5 V
1 -31 V
1 -84 V
8 -315 V
1 -15 V
0 -3 V
1 -9 V
0 -1 V
1 -1 V
0 5 V
2 20 V
7 292 V
1 50 V
1 12 V
0 39 V
0 7 V
1 6 V
1 -24 V
1 -65 V
8 -262 V
1 -16 V
0 -3 V
1 -10 V
0 -2 V
1 1 V
0 8 V
1 27 V
8 288 V
1 45 V
0 11 V
1 34 V
0 7 V
1 -6 V
0 -31 V
2 -84 V
8 -318 V
1 -16 V
0 -3 V
0 -9 V
0 -1 V
1 -1 V
1 5 V
1 19 V
8 288 V
1 49 V
0 11 V
1 39 V
0 7 V
1 5 V
0 -23 V
2 -64 V
7 -259 V
1 -15 V
1 -3 V
0 -10 V
0 -1 V
1 1 V
1 8 V
1 27 V
8 292 V
1 45 V
0 10 V
1 36 V
0 6 V
1 -6 V
0 -31 V
1 -85 V
8 -320 V
1 -16 V
0 -3 V
1 -9 V
0 -2 V
1 -1 V
0 5 V
2 19 V
8 284 V
1 48 V
0 12 V
0 38 V
1 7 V
0 5 V
1 -23 V
1 -64 V
8 -255 V
1 -16 V
0 -3 V
1 -9 V
0 -2 V
1 2 V
0 8 V
2 27 V
8 294 V
0 46 V
1 11 V
0 35 V
0 7 V
1 -6 V
1 -31 V
1 -85 V
8 -322 V
1 -17 V
0 -3 V
1 -9 V
0 -1 V
1 -1 V
0 4 V
1 19 V
8 281 V
1 48 V
0 11 V
1 38 V
0 7 V
1 5 V
1 -23 V
1 -63 V
8 -253 V
1 -15 V
0 -3 V
stroke 991 520 M
0 -9 V
1 -2 V
0 2 V
1 8 V
1 27 V
3 69 V
6 275 V
0 10 V
1 36 V
0 7 V
1 -3 V
0 -28 V
2 -79 V
8 -311 V
1 -26 V
0 -8 V
1 -3 V
1 3 V
11 320 V
0 12 V
1 5 V
0 -17 V
1 -46 V
3 -76 V
7 -133 V
0 -5 V
1 9 V
0 4 V
1 25 V
0 10 V
1 63 V
7 622 V
2 194 V
0 57 V
1 -13 V
0 -17 V
1 -106 V
0 -34 V
4 -544 V
0 -52 V
2 -53 V
0 4 V
1 15 V
0 3 V
27 908 V
1 54 V
2 93 V
1 21 V
0 28 V
2 -236 V
0 -120 V
1 -304 V
3 -199 V
1 31 V
1 78 V
1 11 V
0 -19 V
1 -48 V
3 -168 V
6 -241 V
3 -80 V
8 -56 V
1 5 V
1 12 V
0 2 V
1 17 V
4 99 V
1 37 V
3 125 V
6 324 V
3 210 V
1 60 V
0 22 V
1 226 V
1 327 V
1 148 V
3 -76 V
1 -435 V
0 -139 V
2 -318 V
1 -30 V
0 -24 V
2 -98 V
23 -453 V
1 17 V
2 49 V
2 60 V
0 7 V
1 28 V
0 6 V
2 -5 V
0 -30 V
4 -174 V
0 -6 V
1 -18 V
0 -2 V
1 -11 V
3 17 V
0 1 V
5 159 V
0 1 V
2 89 V
0 9 V
1 33 V
0 5 V
1 3 V
1 -20 V
6 -210 V
3 -38 V
1 -12 V
1 -2 V
0 4 V
1 5 V
1 23 V
-1 -14 V
0 3 V
3 85 V
-1 -27 V
3 109 V
0 -13 V
0 -12 V
3 125 V
-1 -35 V
3 136 V
0 7 V
0 1 V
-1 -32 V
2 55 V
0 13 V
1 -5 V
0 -29 V
1 -78 V
8 -302 V
2 -24 V
0 -6 V
1 -1 V
0 1 V
1 8 V
0 2 V
6 171 V
3 112 V
1 71 V
1 26 V
0 3 V
1 -6 V
0 -32 V
0 -9 V
1 -41 V
8 -255 V
1 -21 V
1 -5 V
1 1 V
0 2 V
1 10 V
0 4 V
1 17 V
8 296 V
1 73 V
0 27 V
1 -3 V
0 -7 V
1 -40 V
0 -12 V
1 -50 V
8 -311 V
1 -24 V
1 -7 V
1 -1 V
0 1 V
0 7 V
1 2 V
0 13 V
8 268 V
2 70 V
0 26 V
1 3 V
0 -5 V
1 -32 V
0 -10 V
1 -40 V
8 -252 V
1 -21 V
0 -6 V
1 2 V
0 1 V
1 11 V
0 4 V
1 17 V
8 299 V
1 74 V
1 27 V
1 -3 V
0 -7 V
0 -40 V
1 -12 V
1 -51 V
7 -313 V
2 -25 V
0 -6 V
1 -2 V
0 1 V
1 7 V
0 3 V
1 13 V
8 265 V
1 69 V
1 26 V
1 3 V
0 -6 V
0 -31 V
0 -10 V
1 -40 V
8 -250 V
2 -21 V
0 -6 V
1 2 V
0 2 V
1 11 V
0 3 V
1 18 V
8 301 V
1 74 V
0 28 V
1 -3 V
0 -7 V
1 -40 V
0 -12 V
1 -51 V
8 -315 V
1 -24 V
1 -7 V
1 -2 V
0 1 V
0 7 V
1 3 V
0 12 V
8 262 V
2 69 V
0 25 V
1 3 V
0 -6 V
1 -31 V
0 -10 V
1 -39 V
8 -249 V
1 -20 V
0 -6 V
1 2 V
1 2 V
stroke 1416 499 M
0 11 V
0 4 V
1 17 V
8 304 V
1 75 V
1 28 V
1 -3 V
0 -7 V
1 -40 V
0 -12 V
1 -51 V
7 -317 V
2 -25 V
0 -7 V
1 -2 V
0 1 V
1 7 V
0 3 V
1 12 V
8 260 V
1 68 V
1 25 V
1 3 V
0 -6 V
0 -31 V
0 -10 V
1 -39 V
8 -248 V
2 -19 V
0 -6 V
1 2 V
0 2 V
1 11 V
0 4 V
1 18 V
8 306 V
1 75 V
0 28 V
1 -2 V
0 -7 V
1 -41 V
0 -12 V
1 -51 V
8 -317 V
1 -26 V
1 -7 V
1 -2 V
0 1 V
0 7 V
1 3 V
0 12 V
8 257 V
2 67 V
0 25 V
1 2 V
0 -5 V
1 -32 V
0 -9 V
1 -39 V
8 -246 V
1 -20 V
1 -5 V
0 2 V
1 2 V
0 11 V
0 3 V
1 18 V
8 309 V
1 76 V
1 28 V
1 -2 V
0 -7 V
1 -40 V
0 -12 V
1 -52 V
2 -130 V
6 -206 V
1 -15 V
1 -3 V
1 5 V
1 17 V
8 246 V
1 65 V
1 24 V
1 5 V
0 -10 V
11 -294 V
0 -3 V
1 3 V
0 9 V
2 32 V
2 76 V
7 320 V
0 27 V
1 -15 V
0 -10 V
1 -59 V
0 -19 V
2 -163 V
6 -286 V
2 -26 V
1 1 V
1 13 V
0 3 V
0 19 V
1 8 V
3 236 V
1 43 V
1 31 V
0 -6 V
1 -29 V
0 -7 V
3 -94 V
1 -15 V
1 -13 V
0 -13 V
2 -35 V
1 -7 V
0 -6 V
1 -9 V
1 -5 V
6 -6 V
2 14 V
2 25 V
1 29 V
4 88 V
1 36 V
1 23 V
0 10 V
2 52 V
1 69 V
1 17 V
0 21 V
2 231 V
1 101 V
1 317 V
2 50 V
1 -110 V
1 -242 V
1 -167 V
0 -17 V
1 -45 V
3 -156 V
6 -228 V
3 -79 V
2 -28 V
6 -43 V
7 91 V
2 39 V
3 102 V
3 165 V
2 105 V
3 178 V
1 51 V
1 19 V
1 -26 V
1 -102 V
0 -41 V
3 193 V
1 326 V
1 130 V
1 238 V
1 -37 V
0 -29 V
4 -276 V
0 -11 V
2 -121 V
1 -22 V
2 -145 V
3 -132 V
2 -120 V
3 -108 V
2 -95 V
3 -79 V
0 -12 V
1 -35 V
2 -47 V
1 -7 V
5 -90 V
0 -3 V
0 -12 V
0 -3 V
2 25 V
0 29 V
4 307 V
0 20 V
1 61 V
0 10 V
1 9 V
0 -33 V
2 -111 V
7 -342 V
2 -33 V
0 -4 V
0 -12 V
0 -1 V
1 3 V
1 9 V
7 247 V
2 138 V
1 86 V
1 31 V
1 3 V
0 -15 V
11 -452 V
0 -5 V
1 -4 V
0 6 V
2 22 V
8 225 V
1 54 V
1 19 V
0 -8 V
1 -53 V
7 -265 V
2 -56 V
1 -13 V
0 -2 V
1 -7 V
0 -1 V
1 2 V
0 6 V
2 24 V
8 319 V
0 53 V
1 12 V
0 42 V
0 7 V
1 5 V
1 -27 V
1 -73 V
8 -296 V
1 -18 V
0 -4 V
1 -11 V
0 -2 V
1 -1 V
0 6 V
1 22 V
8 254 V
1 40 V
0 10 V
1 31 V
0 6 V
1 -5 V
1 -27 V
1 -74 V
8 -278 V
1 -13 V
stroke 1837 477 M
0 -2 V
0 -7 V
1 -1 V
0 1 V
1 6 V
1 24 V
8 317 V
1 53 V
0 12 V
1 41 V
0 8 V
1 4 V
0 -26 V
2 -73 V
8 -293 V
0 -18 V
1 -4 V
0 -11 V
0 -2 V
1 -1 V
1 6 V
1 23 V
8 256 V
1 41 V
0 9 V
1 32 V
0 6 V
1 -5 V
0 -28 V
1 -75 V
8 -280 V
1 -13 V
0 -3 V
1 -7 V
0 -1 V
1 1 V
1 7 V
1 23 V
8 315 V
1 53 V
0 12 V
0 41 V
1 7 V
0 5 V
1 -26 V
1 -72 V
8 -291 V
1 -18 V
0 -3 V
1 -11 V
0 -2 V
1 -1 V
0 6 V
2 23 V
8 259 V
0 41 V
1 9 V
0 32 V
0 6 V
1 -5 V
1 -28 V
1 -76 V
8 -283 V
1 -13 V
0 -3 V
1 -7 V
0 -1 V
1 1 V
0 6 V
2 23 V
7 313 V
1 52 V
0 12 V
1 41 V
0 8 V
1 4 V
1 -25 V
1 -71 V
8 -289 V
1 -17 V
0 -4 V
1 -11 V
0 -1 V
1 -1 V
0 6 V
1 23 V
8 261 V
1 42 V
0 9 V
1 32 V
0 6 V
1 -5 V
0 -28 V
2 -76 V
8 -286 V
0 -14 V
1 -3 V
0 -7 V
0 -1 V
1 1 V
1 6 V
1 22 V
8 310 V
1 53 V
0 11 V
1 41 V
0 7 V
1 5 V
0 -25 V
2 -71 V
7 -285 V
1 -18 V
1 -3 V
0 -11 V
0 -2 V
1 0 V
1 6 V
1 24 V
8 264 V
1 42 V
0 9 V
1 33 V
0 5 V
1 -4 V
0 -29 V
1 -77 V
8 -289 V
1 -14 V
0 -2 V
1 -8 V
0 -1 V
1 1 V
0 5 V
2 23 V
8 307 V
1 52 V
0 11 V
0 41 V
0 7 V
1 5 V
1 -26 V
1 -70 V
8 -282 V
1 -18 V
0 -3 V
1 -10 V
0 -2 V
1 -1 V
0 7 V
2 24 V
2 60 V
6 248 V
1 10 V
0 33 V
0 6 V
1 -2 V
1 -26 V
1 -71 V
8 -277 V
1 -22 V
1 -7 V
1 0 V
0 3 V
11 357 V
0 14 V
1 5 V
0 -19 V
2 -52 V
2 -84 V
7 -154 V
0 -6 V
1 7 V
0 4 V
1 24 V
0 9 V
1 60 V
8 585 V
1 182 V
1 54 V
1 -15 V
0 -16 V
0 -102 V
1 -33 V
3 -519 V
1 -49 V
1 -52 V
0 4 V
1 13 V
0 3 V
2 24 V
0 7 V
1 20 V
17 455 V
4 174 V
4 191 V
1 38 V
2 90 V
0 20 V
0 27 V
2 -221 V
1 -114 V
1 -286 V
3 -186 V
0 30 V
1 75 V
1 12 V
0 -17 V
1 -45 V
3 -157 V
6 -225 V
3 -75 V
1 -22 V
6 -38 V
1 6 V
7 120 V
2 37 V
3 115 V
6 298 V
3 195 V
0 55 V
1 21 V
1 211 V
1 307 V
0 139 V
3 -71 V
1 -409 V
1 -130 V
1 -300 V
1 -29 V
0 -22 V
2 -93 V
24 -376 V
1 26 V
2 31 V
2 57 V
0 7 V
0 30 V
1 6 V
1 -9 V
1 -32 V
3 -191 V
0 -7 V
1 -19 V
0 -3 V
1 -12 V
0 -1 V
3 14 V
6 159 V
2 91 V
stroke 2273 710 M
0 10 V
0 33 V
0 6 V
1 5 V
1 -18 V
7 -197 V
2 -37 V
1 -12 V
1 -3 V
1 5 V
0 5 V
11 485 V
0 17 V
1 1 V
1 -30 V
1 -83 V
8 -345 V
1 -33 V
0 -9 V
1 -5 V
1 1 V
0 6 V
0 3 V
7 133 V
2 86 V
1 53 V
1 20 V
1 -5 V
0 -6 V
1 -32 V
0 -9 V
1 -40 V
7 -232 V
2 -13 V
0 -3 V
1 5 V
0 2 V
1 12 V
0 4 V
1 20 V
8 372 V
1 94 V
1 35 V
1 4 V
0 -7 V
0 -42 V
0 -12 V
1 -53 V
8 -348 V
2 -32 V
0 -10 V
1 -5 V
0 1 V
1 7 V
0 2 V
1 11 V
8 212 V
1 53 V
0 20 V
1 -5 V
0 -5 V
1 -33 V
0 -10 V
1 -41 V
8 -235 V
1 -14 V
1 -3 V
1 5 V
0 2 V
0 11 V
1 4 V
0 20 V
8 369 V
2 93 V
0 35 V
1 5 V
0 -7 V
1 -41 V
0 -12 V
1 -53 V
8 -343 V
1 -32 V
1 -10 V
0 -4 V
1 1 V
0 7 V
0 2 V
1 12 V
8 214 V
1 55 V
1 20 V
1 -5 V
0 -6 V
1 -34 V
0 -9 V
1 -42 V
8 -241 V
1 -14 V
0 -3 V
1 4 V
0 2 V
1 11 V
0 4 V
1 20 V
8 365 V
1 93 V
0 1 V
1 34 V
1 5 V
0 -7 V
0 -41 V
1 -11 V
0 -52 V
8 -339 V
2 -32 V
0 -9 V
1 -4 V
0 1 V
1 7 V
0 2 V
1 13 V
8 218 V
1 55 V
0 20 V
1 -6 V
0 -6 V
1 -34 V
0 -10 V
1 -42 V
8 -245 V
1 -15 V
1 -3 V
1 4 V
0 2 V
0 11 V
1 4 V
1 19 V
7 362 V
2 93 V
0 34 V
1 6 V
0 -7 V
1 -40 V
0 -12 V
1 -51 V
8 -334 V
1 -32 V
1 -9 V
0 -4 V
1 1 V
0 8 V
0 2 V
1 13 V
8 221 V
1 56 V
1 20 V
1 -5 V
0 -6 V
1 -35 V
0 -10 V
1 -43 V
8 -251 V
1 -15 V
0 -3 V
1 4 V
0 2 V
1 10 V
0 4 V
1 19 V
8 358 V
1 92 V
1 34 V
1 6 V
0 -7 V
0 -39 V
1 -12 V
0 -50 V
8 -330 V
2 -31 V
0 -9 V
1 -4 V
0 2 V
1 7 V
0 3 V
1 13 V
8 225 V
1 56 V
0 21 V
1 -6 V
0 -6 V
1 -35 V
0 -10 V
1 -44 V
8 -254 V
1 -16 V
1 -3 V
1 3 V
0 2 V
0 11 V
1 3 V
1 19 V
7 354 V
2 91 V
0 34 V
1 5 V
0 -6 V
1 -39 V
0 -12 V
1 -49 V
2 -127 V
7 -218 V
1 -19 V
1 -5 V
0 5 V
1 17 V
8 210 V
2 53 V
0 20 V
1 -2 V
0 -11 V
11 -305 V
0 -2 V
1 3 V
1 8 V
1 28 V
2 71 V
7 320 V
1 29 V
1 -9 V
0 -8 V
0 -53 V
0 -17 V
2 -150 V
6 -267 V
3 -27 V
1 11 V
0 3 V
1 17 V
0 7 V
4 217 V
0 39 V
1 27 V
1 -6 V
0 -26 V
0 -6 V
23 -71 V
8 244 V
0 16 V
1 20 V
stroke 2697 915 M
1 223 V
1 98 V
1 308 V
3 47 V
0 -106 V
1 -234 V
1 -163 V
1 -16 V
0 -43 V
3 -152 V
6 -221 V
3 -79 V
2 -23 V
3 -44 V
1 -5 V
1 -3 V
2 -1 V
2 11 V
0 6 V
1 7 V
4 61 V
1 29 V
3 92 V
6 249 V
3 165 V
1 46 V
0 18 V
1 -24 V
1 -96 V
0 -39 V
3 179 V
1 302 V
1 120 V
2 223 V
0 -33 V
1 -26 V
1 -119 V
1 -62 V
1 -7 V
1 -61 V
0 -6 V
1 -59 V
0 -6 V
1 -57 V
0 -6 V
1 -54 V
1 -50 V
4 -190 V
18 -500 V
0 -3 V
1 -12 V
0 -3 V
1 26 V
1 31 V
3 330 V
1 21 V
0 64 V
0 10 V
1 2 V
1 -39 V
1 -129 V
8 -384 V
1 -33 V
0 -5 V
1 -12 V
0 -1 V
1 -1 V
0 7 V
7 200 V
2 123 V
2 78 V
0 28 V
1 7 V
0 -11 V
1 -48 V
0 28 V
0 -6 V
3 -118 V
-1 30 V
3 -112 V
0 11 V
-1 12 V
3 -104 V
0 27 V
3 -87 V
0 -3 V
0 -1 V
-1 16 V
1 -25 V
0 -5 V
1 -5 V
1 5 V
1 18 V
8 208 V
1 52 V
1 19 V
1 -3 V
1 -44 V
6 -220 V
2 -48 V
1 -11 V
0 -2 V
1 -6 V
0 -1 V
1 3 V
1 8 V
1 29 V
8 335 V
1 53 V
0 13 V
1 41 V
0 8 V
1 0 V
0 -31 V
1 -85 V
8 -335 V
1 -20 V
0 -4 V
1 -11 V
0 -2 V
1 -4 V
0 4 V
2 17 V
8 233 V
1 39 V
0 9 V
0 31 V
0 5 V
1 0 V
1 -22 V
1 -62 V
8 -232 V
1 -11 V
0 -3 V
1 -6 V
0 -1 V
1 4 V
0 8 V
2 29 V
7 334 V
1 54 V
1 12 V
0 41 V
0 8 V
1 0 V
1 -31 V
1 -84 V
8 -335 V
1 -20 V
0 -4 V
1 -11 V
0 -2 V
1 -4 V
0 5 V
1 16 V
8 233 V
1 40 V
0 9 V
1 30 V
0 6 V
1 0 V
0 -23 V
2 -62 V
8 -232 V
1 -12 V
0 -2 V
0 -6 V
0 -1 V
1 3 V
1 8 V
1 29 V
8 335 V
1 54 V
0 12 V
1 42 V
0 7 V
1 0 V
0 -31 V
2 -84 V
8 -334 V
0 -20 V
1 -4 V
0 -11 V
0 -2 V
1 -4 V
1 4 V
1 17 V
8 232 V
1 40 V
0 8 V
1 31 V
0 6 V
1 -1 V
0 -22 V
1 -62 V
8 -233 V
1 -12 V
0 -2 V
1 -6 V
0 -1 V
1 3 V
1 8 V
1 29 V
8 336 V
1 53 V
0 13 V
0 41 V
1 8 V
1 -31 V
1 -83 V
8 -335 V
1 -19 V
0 -4 V
1 -12 V
0 -2 V
1 -3 V
0 4 V
2 17 V
8 232 V
0 39 V
1 9 V
0 30 V
0 6 V
1 0 V
1 -23 V
1 -62 V
8 -234 V
1 -11 V
0 -3 V
1 -6 V
0 -1 V
1 4 V
0 8 V
1 28 V
8 336 V
1 54 V
0 12 V
1 42 V
0 7 V
1 1 V
1 -31 V
1 -83 V
8 -334 V
1 -19 V
0 -4 V
0 -12 V
1 -2 V
0 -3 V
1 4 V
stroke 3082 490 M
1 17 V
8 232 V
1 39 V
0 9 V
1 30 V
0 5 V
1 0 V
0 -23 V
2 -62 V
8 -235 V
0 -11 V
1 -2 V
0 -7 V
1 3 V
1 8 V
1 29 V
8 335 V
1 54 V
0 12 V
1 42 V
0 7 V
1 1 V
0 -30 V
2 -84 V
7 -332 V
1 -20 V
0 -3 V
1 -12 V
0 -2 V
1 -4 V
1 5 V
1 17 V
2 48 V
7 222 V
0 9 V
0 30 V
1 6 V
1 2 V
0 -21 V
1 -57 V
8 -222 V
2 -18 V
0 -5 V
1 3 V
0 5 V
11 426 V
0 15 V
1 3 V
1 -24 V
1 -65 V
2 -108 V
7 -200 V
1 -9 V
1 3 V
0 2 V
0 20 V
0 7 V
2 49 V
7 479 V
2 149 V
0 44 V
1 -15 V
0 -14 V
1 -87 V
0 -27 V
4 -439 V
0 -41 V
2 -44 V
0 2 V
0 11 V
0 2 V
6 77 V
10 250 V
13 560 V
2 84 V
0 21 V
1 27 V
1 -198 V
1 -105 V
1 -265 V
3 -161 V
0 32 V
1 80 V
1 18 V
1 -15 V
1 -42 V
3 -144 V
5 -212 V
4 -75 V
1 -23 V
7 -51 V
7 79 V
1 28 V
3 87 V
6 236 V
3 156 V
1 45 V
0 16 V
1 171 V
1 246 V
1 112 V
2 -58 V
2 -328 V
0 -105 V
2 -240 V
0 -22 V
1 -17 V
1 -73 V
2 -63 V
0 -15 V
8 -191 V
1 -7 V
4 -41 V
1 -1 V
0 -1 V
1 0 V
6 55 V
6 125 V
0 6 V
1 28 V
0 7 V
1 -16 V
1 -36 V
4 -209 V
0 -7 V
0 -20 V
0 -3 V
1 -14 V
1 -1 V
2 13 V
6 183 V
2 107 V
0 12 V
1 39 V
0 6 V
1 10 V
0 -18 V
7 -206 V
2 -44 V
2 -16 V
0 -5 V
1 4 V
0 5 V
11 450 V
0 15 V
1 -3 V
1 -32 V
1 -86 V
8 -345 V
1 -30 V
1 -8 V
1 -5 V
0 1 V
0 6 V
1 2 V
6 138 V
2 93 V
2 59 V
0 22 V
1 1 V
0 -6 V
1 -29 V
0 -8 V
1 -37 V
8 -219 V
1 -16 V
1 -3 V
1 4 V
0 2 V
0 13 V
0 4 V
1 20 V
8 349 V
2 86 V
0 31 V
1 0 V
0 -8 V
1 -43 V
0 -13 V
1 -54 V
8 -350 V
1 -31 V
0 -8 V
1 -5 V
0 1 V
1 6 V
0 2 V
1 10 V
8 221 V
1 59 V
1 21 V
1 1 V
0 -6 V
0 -29 V
1 -9 V
0 -36 V
8 -220 V
2 -16 V
0 -3 V
1 4 V
0 2 V
1 12 V
0 5 V
1 20 V
8 349 V
1 87 V
0 31 V
1 0 V
1 -7 V
0 -44 V
0 -12 V
1 -55 V
8 -349 V
1 -31 V
1 -8 V
1 -5 V
0 1 V
1 6 V
0 2 V
1 10 V
7 220 V
2 59 V
0 21 V
1 0 V
0 -5 V
1 -30 V
0 -8 V
1 -37 V
8 -221 V
1 -15 V
1 -3 V
1 4 V
0 2 V
0 12 V
0 4 V
1 21 V
8 350 V
2 86 V
0 32 V
1 1 V
0 -8 V
1 -43 V
0 -13 V
1 -54 V
8 -349 V
1 -30 V
0 -9 V
1 -4 V
1 6 V
stroke 3530 492 M
0 2 V
1 11 V
8 219 V
1 58 V
1 22 V
1 -1 V
0 -5 V
0 -29 V
1 -9 V
0 -37 V
8 -222 V
2 -15 V
0 -3 V
1 4 V
0 2 V
1 12 V
0 5 V
1 20 V
8 350 V
1 87 V
1 32 V
1 -8 V
0 -42 V
0 -13 V
1 -54 V
8 -348 V
1 -31 V
1 -8 V
1 -5 V
0 1 V
1 6 V
0 2 V
1 11 V
7 219 V
2 58 V
0 21 V
1 0 V
0 -6 V
1 -29 V
0 -9 V
1 -37 V
8 -223 V
1 -15 V
1 -3 V
1 4 V
0 2 V
0 12 V
0 4 V
1 21 V
8 350 V
2 87 V
0 32 V
1 1 V
0 -8 V
1 -43 V
0 -12 V
1 -54 V
8 -347 V
1 -30 V
0 -9 V
1 -4 V
1 6 V
0 2 V
1 11 V
8 219 V
1 58 V
1 21 V
1 -1 V
0 -5 V
0 -30 V
1 -9 V
0 -37 V
8 -224 V
2 -15 V
0 -3 V
1 4 V
0 2 V
1 12 V
0 4 V
1 20 V
8 351 V
1 87 V
1 32 V
0 1 V
1 -8 V
0 -42 V
0 -13 V
1 -53 V
3 -139 V
6 -227 V
1 -19 V
1 -5 V
0 4 V
2 14 V
8 209 V
1 56 V
0 20 V
1 3 V
0 -10 V
11 -270 V
1 -2 V
0 4 V
1 10 V
1 32 V
3 79 V
6 340 V
1 29 V
1 -12 V
0 -10 V
1 -58 V
0 -18 V
2 -163 V
5 -292 V
3 -32 V
0 -1 V
1 10 V
0 2 V
1 17 V
0 6 V
4 206 V
0 37 V
2 28 V
0 -5 V
1 -25 V
0 -5 V
5 -117 V
23 274 V
2 71 V
0 17 V
1 22 V
2 245 V
0 108 V
1 339 V
3 46 V
1 -119 V
1 -260 V
1 -181 V
0 -19 V
1 -50 V
3 -174 V
6 -252 V
3 -86 V
1 -30 V
7 -40 V
% End plot #2
% Begin plot #3
stroke
LTb
0.00 0.00 0.00 C LCb setrgbcolor
2681 2180 M
[ [(Symbol) 140.0 0.0 true true 0 (h)]
[(roman) 112.0 -42.0 true true 0 (x)]
] -32.7 MRshow
1.000 UL
LTb
0.00 0.00 0.00 C 2765 2180 M
147 0 V
588 797 M
7 18 V
1 3 V
3 -19 V
2 -28 V
2 -22 V
2 -36 V
3 -24 V
1 0 V
1 -6 V
1 -10 V
1 -4 V
3 8 V
1 17 V
0 6 V
2 18 V
0 3 V
1 3 V
2 11 V
14 90 V
2 12 V
7 46 V
5 36 V
0 1 V
1 5 V
0 2 V
2 -7 V
0 -10 V
4 -75 V
0 -4 V
1 -13 V
0 -2 V
1 -16 V
0 -7 V
2 -25 V
7 11 V
1 21 V
0 3 V
1 11 V
0 2 V
1 13 V
1 4 V
6 68 V
3 39 V
1 29 V
1 9 V
0 25 V
1 11 V
9 409 V
2 70 V
0 11 V
1 5 V
0 -15 V
1 -43 V
8 -118 V
2 4 V
0 2 V
1 31 V
0 16 V
2 75 V
0 44 V
1 35 V
0 43 V
1 36 V
1 43 V
0 35 V
1 44 V
1 95 V
3 173 V
1 65 V
0 14 V
0 48 V
1 8 V
1 1 V
0 -35 V
1 -100 V
8 -451 V
1 -34 V
0 -8 V
1 -24 V
0 -5 V
1 2 V
0 19 V
2 57 V
8 479 V
0 67 V
1 15 V
0 49 V
0 9 V
1 1 V
1 -36 V
1 -102 V
8 -469 V
1 -35 V
0 -8 V
1 -26 V
0 -5 V
1 1 V
0 19 V
2 56 V
7 476 V
1 67 V
0 15 V
1 49 V
0 8 V
1 0 V
1 -36 V
1 -104 V
8 -480 V
1 -37 V
0 -8 V
1 -27 V
0 -4 V
1 -2 V
0 19 V
1 53 V
8 459 V
1 66 V
0 14 V
1 48 V
0 8 V
1 -1 V
0 -35 V
2 -103 V
8 -472 V
1 -36 V
0 -8 V
0 -26 V
0 -4 V
1 -2 V
1 18 V
1 52 V
8 449 V
1 65 V
0 14 V
1 47 V
0 8 V
1 0 V
0 -34 V
2 -99 V
7 -448 V
1 -34 V
1 -7 V
0 -24 V
0 -5 V
1 2 V
1 19 V
1 57 V
8 475 V
1 68 V
0 15 V
1 49 V
0 8 V
1 1 V
0 -35 V
1 -102 V
8 -462 V
1 -36 V
0 -7 V
1 -26 V
0 -4 V
1 1 V
0 19 V
2 57 V
8 478 V
1 68 V
0 15 V
0 49 V
0 9 V
1 0 V
1 -36 V
1 -105 V
8 -479 V
1 -37 V
0 -8 V
1 -26 V
0 -5 V
1 -1 V
0 18 V
2 54 V
7 462 V
1 66 V
1 14 V
0 48 V
0 9 V
1 -1 V
1 -35 V
1 -104 V
8 -472 V
1 -36 V
0 -8 V
1 -26 V
0 -4 V
1 -2 V
0 18 V
1 53 V
8 454 V
1 65 V
0 14 V
1 47 V
0 8 V
1 0 V
0 -34 V
2 -101 V
8 -456 V
1 -34 V
0 -8 V
0 -25 V
1 -4 V
0 1 V
1 18 V
1 55 V
8 468 V
1 66 V
0 15 V
1 48 V
0 9 V
1 0 V
0 -34 V
2 -101 V
8 -456 V
0 -34 V
1 -8 V
0 -25 V
0 -4 V
1 1 V
1 20 V
1 58 V
8 483 V
1 68 V
0 15 V
1 49 V
0 9 V
1 0 V
0 -35 V
1 -104 V
8 -477 V
1 -37 V
0 -8 V
1 -26 V
0 -5 V
1 0 V
1 19 V
1 56 V
8 471 V
1 67 V
0 15 V
0 48 V
stroke 991 2186 M
1 9 V
0 -1 V
1 -36 V
1 -104 V
3 -181 V
6 -425 V
0 -13 V
1 -42 V
0 -8 V
1 -32 V
0 -1 V
2 -4 V
8 121 V
1 44 V
0 15 V
1 -5 V
1 -11 V
11 -479 V
0 -10 V
1 -25 V
0 -9 V
1 -26 V
3 -35 V
7 -58 V
0 -4 V
1 -13 V
0 -2 V
1 -13 V
0 -4 V
1 -26 V
7 -39 V
2 18 V
0 5 V
1 12 V
0 1 V
1 10 V
0 3 V
4 55 V
0 7 V
2 6 V
0 -1 V
1 -4 V
0 -1 V
27 -135 V
1 -5 V
2 -9 V
1 -2 V
0 -2 V
2 -14 V
0 -5 V
1 -14 V
3 -5 V
1 3 V
1 7 V
1 6 V
1 0 V
3 24 V
6 87 V
3 19 V
8 -21 V
1 -2 V
1 -2 V
0 -1 V
1 -3 V
4 -10 V
1 -3 V
3 19 V
6 87 V
3 23 V
1 1 V
1 -8 V
1 -13 V
1 -6 V
3 -1 V
1 15 V
0 5 V
2 5 V
1 -4 V
0 -3 V
2 -13 V
23 -166 V
1 -8 V
2 -17 V
2 -16 V
0 -2 V
1 -3 V
0 -1 V
2 -19 V
0 -10 V
4 -80 V
0 -4 V
1 -13 V
0 -2 V
1 -7 V
0 3 V
3 15 V
5 113 V
2 62 V
0 7 V
1 20 V
0 4 V
1 31 V
1 16 V
6 238 V
3 100 V
1 62 V
1 21 V
0 17 V
1 0 V
1 -2 V
-1 1 V
3 -6 V
-1 2 V
3 -5 V
0 1 V
3 -4 V
-1 1 V
3 -3 V
-1 1 V
2 -2 V
1 23 V
0 24 V
1 68 V
8 549 V
2 115 V
0 40 V
1 16 V
0 -6 V
1 -33 V
0 -10 V
6 -334 V
3 -117 V
1 -56 V
1 -19 V
1 5 V
0 26 V
0 8 V
1 36 V
8 472 V
1 102 V
1 35 V
1 0 V
0 -9 V
1 -49 V
0 -14 V
1 -67 V
8 -476 V
1 -56 V
0 -19 V
1 -1 V
0 4 V
1 26 V
0 7 V
1 35 V
8 461 V
1 101 V
1 34 V
1 0 V
0 -8 V
0 -49 V
1 -14 V
0 -65 V
8 -467 V
2 -54 V
0 -19 V
1 0 V
0 4 V
1 26 V
0 8 V
1 34 V
8 464 V
1 101 V
0 35 V
1 0 V
0 -8 V
1 -48 V
0 -14 V
1 -65 V
8 -461 V
1 -54 V
1 -18 V
1 1 V
0 4 V
0 26 V
1 8 V
1 36 V
7 473 V
2 102 V
0 36 V
1 0 V
0 -8 V
1 -49 V
0 -14 V
1 -66 V
8 -468 V
1 -54 V
1 -19 V
1 0 V
0 5 V
0 26 V
0 8 V
1 36 V
8 473 V
2 102 V
0 36 V
1 0 V
0 -9 V
1 -49 V
0 -14 V
1 -66 V
8 -474 V
1 -55 V
0 -20 V
1 0 V
0 5 V
1 25 V
0 8 V
1 35 V
8 466 V
1 101 V
1 35 V
1 0 V
0 -9 V
0 -48 V
1 -15 V
0 -65 V
8 -471 V
2 -55 V
0 -19 V
1 0 V
0 4 V
1 26 V
0 7 V
1 35 V
8 463 V
1 100 V
0 35 V
1 0 V
1 -8 V
0 -48 V
0 -15 V
1 -65 V
8 -463 V
1 -54 V
1 -19 V
1 0 V
0 5 V
1 26 V
0 8 V
stroke 1429 1531 M
1 35 V
7 468 V
2 102 V
0 35 V
1 0 V
0 -8 V
1 -48 V
0 -15 V
1 -65 V
8 -464 V
1 -54 V
1 -19 V
1 1 V
0 4 V
0 27 V
0 8 V
1 36 V
8 474 V
2 102 V
0 36 V
1 0 V
0 -9 V
1 -48 V
0 -15 V
1 -66 V
8 -471 V
1 -55 V
0 -19 V
1 0 V
0 5 V
1 26 V
0 8 V
1 35 V
8 471 V
1 102 V
1 35 V
1 0 V
0 -9 V
0 -48 V
1 -15 V
0 -66 V
8 -473 V
2 -55 V
0 -20 V
1 0 V
0 5 V
1 25 V
0 8 V
1 35 V
8 467 V
1 101 V
1 35 V
1 -9 V
0 -48 V
0 -15 V
1 -65 V
8 -470 V
1 -55 V
1 -19 V
1 0 V
0 4 V
1 26 V
0 8 V
1 34 V
2 115 V
6 328 V
1 49 V
1 -15 V
1 -37 V
1 -109 V
8 -512 V
1 -62 V
1 -21 V
1 -18 V
0 2 V
11 92 V
0 2 V
1 -18 V
0 -24 V
2 -70 V
2 -117 V
7 -282 V
0 -19 V
1 -35 V
0 -4 V
1 -21 V
0 -6 V
2 -64 V
6 -119 V
2 -17 V
1 -4 V
1 5 V
0 1 V
0 12 V
1 3 V
3 71 V
1 8 V
1 17 V
1 2 V
0 2 V
3 17 V
1 3 V
1 4 V
0 3 V
2 11 V
1 3 V
0 2 V
1 4 V
1 3 V
6 32 V
2 9 V
2 10 V
1 9 V
4 19 V
1 6 V
1 4 V
0 2 V
2 7 V
1 10 V
1 2 V
0 2 V
2 -2 V
1 -3 V
1 -9 V
2 3 V
1 4 V
1 9 V
1 6 V
1 0 V
3 -22 V
6 -83 V
3 -17 V
2 5 V
6 22 V
7 21 V
2 5 V
3 -17 V
3 -54 V
2 -29 V
3 -22 V
1 0 V
1 0 V
1 -6 V
1 -9 V
0 -4 V
3 10 V
1 19 V
1 6 V
1 21 V
1 4 V
0 3 V
4 31 V
0 1 V
2 15 V
1 3 V
2 20 V
3 19 V
2 20 V
3 19 V
2 20 V
3 19 V
0 3 V
1 9 V
2 14 V
1 3 V
5 38 V
0 2 V
0 7 V
0 1 V
2 -9 V
0 -12 V
4 -96 V
0 -5 V
1 -16 V
0 -3 V
1 -21 V
0 -8 V
2 -32 V
7 -22 V
2 16 V
0 3 V
0 8 V
0 2 V
1 12 V
1 6 V
7 85 V
2 44 V
1 32 V
1 11 V
1 26 V
0 11 V
11 490 V
0 11 V
1 6 V
0 -14 V
2 -42 V
8 -106 V
1 6 V
1 2 V
0 34 V
1 63 V
7 427 V
2 182 V
1 67 V
0 15 V
1 50 V
0 9 V
1 0 V
0 -35 V
2 -104 V
8 -472 V
0 -36 V
1 -8 V
0 -26 V
0 -5 V
1 1 V
1 19 V
1 57 V
8 480 V
1 67 V
0 15 V
1 49 V
0 9 V
1 -1 V
0 -36 V
1 -106 V
8 -488 V
1 -37 V
0 -9 V
1 -27 V
0 -5 V
1 -2 V
1 18 V
1 52 V
8 453 V
1 65 V
0 14 V
0 47 V
1 8 V
0 -1 V
1 -35 V
1 -103 V
8 -467 V
1 -36 V
0 -8 V
1 -26 V
0 -4 V
1 -1 V
0 18 V
stroke 1851 1494 M
2 52 V
8 451 V
0 64 V
1 14 V
0 47 V
0 9 V
1 0 V
1 -34 V
1 -99 V
8 -447 V
1 -33 V
0 -8 V
1 -24 V
0 -4 V
1 2 V
0 19 V
1 57 V
8 477 V
1 67 V
0 15 V
1 49 V
0 9 V
1 1 V
1 -35 V
1 -102 V
8 -461 V
1 -34 V
0 -8 V
0 -26 V
1 -4 V
0 1 V
1 20 V
1 58 V
8 486 V
1 69 V
0 15 V
1 49 V
0 9 V
1 0 V
0 -36 V
2 -106 V
8 -484 V
0 -38 V
1 -8 V
0 -27 V
0 -5 V
1 -1 V
1 18 V
1 55 V
8 464 V
1 66 V
0 15 V
1 48 V
0 8 V
1 -1 V
0 -36 V
2 -104 V
7 -479 V
1 -37 V
0 -8 V
1 -26 V
0 -5 V
1 -2 V
1 18 V
1 52 V
8 448 V
1 65 V
0 14 V
1 47 V
0 8 V
1 -1 V
0 -34 V
1 -100 V
8 -455 V
1 -34 V
0 -7 V
1 -25 V
0 -5 V
1 1 V
0 19 V
2 54 V
8 465 V
0 66 V
1 14 V
0 48 V
0 9 V
1 0 V
1 -34 V
1 -100 V
8 -452 V
1 -34 V
0 -8 V
1 -24 V
0 -5 V
1 2 V
0 20 V
2 58 V
7 484 V
1 69 V
1 15 V
0 49 V
0 9 V
1 0 V
1 -35 V
1 -104 V
8 -476 V
1 -36 V
0 -8 V
1 -27 V
0 -5 V
1 0 V
0 19 V
1 56 V
8 474 V
1 67 V
0 15 V
1 49 V
0 8 V
1 -1 V
0 -36 V
2 -105 V
8 -483 V
1 -37 V
0 -8 V
0 -28 V
0 -4 V
1 -2 V
1 18 V
1 52 V
8 453 V
1 65 V
0 14 V
1 47 V
0 8 V
1 -1 V
0 -34 V
2 -102 V
2 -175 V
6 -411 V
1 -12 V
0 -41 V
0 -8 V
1 -31 V
1 -1 V
1 -3 V
8 121 V
1 45 V
1 15 V
1 -4 V
0 -11 V
11 -462 V
0 -10 V
1 -23 V
0 -9 V
2 -23 V
2 -31 V
7 -45 V
0 -3 V
1 -13 V
0 -2 V
1 -14 V
0 -5 V
1 -28 V
8 -56 V
1 14 V
1 4 V
1 10 V
0 2 V
0 8 V
1 2 V
3 48 V
1 5 V
1 5 V
0 -1 V
1 -4 V
0 -1 V
2 -8 V
0 -2 V
1 -6 V
17 -80 V
4 -21 V
4 -20 V
1 -4 V
2 -8 V
0 -2 V
0 -3 V
2 -16 V
1 -5 V
1 -16 V
3 -5 V
0 4 V
1 10 V
1 8 V
1 2 V
3 27 V
6 94 V
3 23 V
1 -2 V
6 -7 V
1 -2 V
7 -9 V
2 -2 V
3 23 V
6 94 V
3 27 V
0 2 V
1 1 V
1 -9 V
1 -16 V
0 -7 V
3 2 V
1 20 V
1 7 V
1 8 V
1 -4 V
0 -3 V
2 -16 V
24 -210 V
1 -11 V
2 -11 V
2 -17 V
0 -2 V
0 -4 V
1 -1 V
1 -21 V
1 -11 V
3 -85 V
0 -4 V
1 -14 V
0 -2 V
1 -8 V
0 3 V
3 15 V
6 111 V
2 62 V
0 6 V
0 20 V
0 4 V
1 30 V
1 15 V
7 227 V
2 97 V
1 60 V
1 20 V
1 17 V
11 -4 V
1 23 V
1 23 V
1 66 V
stroke 2301 1340 M
8 539 V
1 113 V
0 39 V
1 17 V
1 -6 V
0 -31 V
0 -10 V
7 -318 V
2 -111 V
1 -52 V
1 -18 V
1 2 V
0 5 V
1 28 V
0 8 V
1 38 V
7 489 V
2 105 V
0 37 V
1 0 V
0 -8 V
1 -50 V
0 -14 V
1 -67 V
8 -480 V
1 -57 V
1 -20 V
1 0 V
0 5 V
0 26 V
0 8 V
1 36 V
8 475 V
2 103 V
0 36 V
1 -1 V
0 -9 V
1 -50 V
0 -15 V
1 -67 V
8 -488 V
1 -58 V
0 -20 V
1 -2 V
0 4 V
1 25 V
0 7 V
1 34 V
8 449 V
1 99 V
1 34 V
1 -1 V
0 -8 V
0 -48 V
1 -15 V
0 -65 V
8 -463 V
2 -53 V
0 -19 V
1 0 V
0 4 V
1 25 V
0 7 V
1 34 V
8 455 V
1 99 V
1 35 V
1 -8 V
0 -46 V
0 -15 V
1 -63 V
8 -446 V
0 -1 V
1 -51 V
1 -17 V
1 2 V
0 5 V
1 27 V
0 8 V
1 37 V
8 483 V
1 104 V
0 36 V
1 1 V
0 -9 V
1 -48 V
0 -15 V
1 -65 V
8 -467 V
1 -55 V
1 -19 V
1 1 V
0 5 V
0 27 V
1 8 V
0 37 V
8 485 V
2 104 V
0 36 V
1 0 V
0 -9 V
1 -50 V
0 -15 V
1 -67 V
8 -487 V
1 -58 V
0 -20 V
1 -2 V
0 5 V
1 25 V
0 8 V
1 34 V
8 461 V
1 101 V
1 34 V
1 0 V
0 -9 V
0 -49 V
1 -15 V
1 -66 V
7 -477 V
2 -56 V
0 -20 V
1 -1 V
0 4 V
1 24 V
0 8 V
1 33 V
8 448 V
1 98 V
1 34 V
1 -8 V
0 -47 V
0 -15 V
1 -63 V
8 -452 V
1 -51 V
1 -18 V
1 1 V
0 4 V
1 26 V
0 8 V
1 35 V
8 469 V
1 102 V
0 35 V
1 1 V
0 -8 V
1 -48 V
0 -14 V
1 -64 V
8 -453 V
1 -52 V
1 -18 V
1 2 V
0 5 V
0 27 V
1 9 V
0 37 V
8 490 V
2 106 V
0 36 V
1 0 V
0 -8 V
1 -50 V
0 -14 V
1 -67 V
8 -481 V
1 -57 V
0 -19 V
1 -1 V
0 5 V
1 26 V
0 8 V
1 36 V
8 475 V
1 103 V
1 36 V
1 -1 V
0 -9 V
0 -50 V
1 -15 V
1 -68 V
7 -488 V
2 -58 V
0 -20 V
1 -2 V
0 4 V
1 25 V
0 7 V
1 33 V
2 110 V
7 316 V
1 46 V
1 -13 V
0 -37 V
1 -104 V
8 -486 V
2 -58 V
0 -20 V
1 -14 V
0 3 V
11 139 V
0 3 V
1 -17 V
1 -26 V
1 -75 V
2 -125 V
7 -307 V
1 -21 V
1 -36 V
0 -4 V
0 -21 V
0 -6 V
2 -64 V
6 -116 V
3 -17 V
0 -3 V
1 3 V
0 1 V
1 10 V
0 3 V
4 58 V
0 8 V
1 13 V
1 1 V
0 2 V
0 1 V
23 103 V
8 38 V
0 2 V
1 2 V
1 -2 V
1 -3 V
1 -9 V
3 2 V
0 4 V
1 8 V
1 5 V
1 0 V
3 -22 V
6 -84 V
3 -17 V
2 4 V
3 11 V
1 2 V
1 2 V
2 6 V
2 7 V
stroke 2729 771 M
0 2 V
1 2 V
4 11 V
1 4 V
3 -17 V
6 -84 V
3 -22 V
1 0 V
1 -7 V
1 -11 V
0 -5 V
3 12 V
1 21 V
1 8 V
2 24 V
0 4 V
1 4 V
1 16 V
1 9 V
1 1 V
1 9 V
0 1 V
1 10 V
0 1 V
1 9 V
0 1 V
1 9 V
1 8 V
4 36 V
18 160 V
0 2 V
1 8 V
0 2 V
1 -9 V
1 -14 V
3 -109 V
1 -5 V
0 -18 V
0 -3 V
1 -23 V
1 -9 V
1 -34 V
8 -30 V
1 14 V
0 2 V
1 8 V
0 2 V
1 11 V
0 5 V
7 80 V
2 42 V
2 31 V
0 10 V
1 26 V
0 10 V
1 47 V
0 -28 V
0 6 V
3 128 V
-1 -35 V
3 128 V
0 -13 V
-1 -14 V
3 129 V
0 -36 V
3 131 V
0 5 V
0 2 V
-1 -28 V
1 47 V
0 11 V
1 6 V
1 -13 V
1 -39 V
8 -89 V
1 9 V
1 3 V
1 35 V
1 64 V
6 432 V
2 183 V
1 68 V
0 15 V
1 51 V
0 8 V
1 2 V
1 -36 V
1 -102 V
8 -468 V
1 -36 V
0 -8 V
1 -26 V
0 -4 V
1 1 V
0 20 V
1 59 V
8 490 V
1 69 V
0 15 V
1 50 V
0 9 V
1 0 V
0 -37 V
2 -108 V
8 -499 V
1 -39 V
0 -9 V
0 -28 V
0 -5 V
1 -3 V
1 18 V
1 51 V
8 447 V
1 64 V
0 14 V
1 47 V
0 8 V
1 -1 V
0 -36 V
2 -103 V
7 -471 V
1 -36 V
1 -8 V
0 -26 V
0 -4 V
1 -2 V
1 17 V
1 51 V
8 440 V
1 63 V
0 14 V
1 46 V
0 9 V
1 0 V
0 -34 V
1 -98 V
8 -438 V
1 -32 V
0 -7 V
1 -24 V
0 -4 V
1 2 V
0 19 V
2 57 V
8 476 V
1 67 V
0 15 V
0 49 V
0 8 V
1 2 V
1 -35 V
1 -100 V
8 -453 V
1 -34 V
0 -8 V
1 -24 V
0 -5 V
1 3 V
0 20 V
2 60 V
8 493 V
0 70 V
1 15 V
0 50 V
0 9 V
1 0 V
1 -36 V
1 -106 V
8 -488 V
1 -38 V
0 -8 V
1 -28 V
0 -4 V
1 -1 V
0 18 V
1 56 V
8 468 V
1 66 V
0 15 V
1 48 V
0 9 V
1 -1 V
1 -37 V
1 -106 V
8 -487 V
1 -38 V
0 -8 V
0 -27 V
1 -5 V
0 -3 V
1 17 V
1 51 V
8 441 V
1 63 V
0 14 V
1 47 V
0 8 V
1 -1 V
0 -34 V
2 -101 V
8 -453 V
0 -34 V
1 -7 V
0 -25 V
0 -4 V
1 0 V
1 18 V
1 54 V
8 457 V
1 66 V
0 14 V
1 48 V
0 8 V
1 1 V
0 -34 V
1 -98 V
8 -442 V
1 -33 V
0 -7 V
1 -24 V
0 -4 V
1 3 V
1 20 V
1 59 V
8 491 V
1 69 V
0 15 V
0 50 V
1 9 V
0 1 V
1 -36 V
1 -103 V
8 -475 V
1 -36 V
0 -8 V
1 -27 V
0 -4 V
1 0 V
0 20 V
2 58 V
8 482 V
0 68 V
1 15 V
0 50 V
0 9 V
1 -1 V
1 -37 V
1 -107 V
8 -492 V
stroke 3116 1585 M
1 -39 V
0 -8 V
1 -28 V
0 -5 V
1 -2 V
0 17 V
2 53 V
7 449 V
1 65 V
0 14 V
1 47 V
0 8 V
1 -1 V
1 -35 V
1 -103 V
2 -177 V
7 -415 V
0 -13 V
0 -41 V
1 -8 V
1 -32 V
0 -1 V
1 -5 V
8 114 V
2 43 V
0 14 V
1 -4 V
0 -10 V
11 -452 V
0 -10 V
1 -23 V
1 -8 V
1 -23 V
2 -30 V
7 -42 V
1 -3 V
1 -12 V
0 -3 V
0 -14 V
0 -4 V
2 -28 V
7 -51 V
2 16 V
0 4 V
1 11 V
0 1 V
1 9 V
0 3 V
4 53 V
0 7 V
2 4 V
0 -1 V
0 -5 V
0 -1 V
6 -33 V
10 -59 V
13 -80 V
2 -9 V
0 -3 V
1 -3 V
1 -20 V
1 -7 V
1 -20 V
3 -6 V
0 6 V
1 13 V
1 10 V
1 1 V
1 3 V
3 30 V
5 100 V
4 26 V
1 0 V
7 -2 V
7 -2 V
1 0 V
3 26 V
6 100 V
3 30 V
1 3 V
0 1 V
1 -9 V
1 -17 V
1 -7 V
2 6 V
2 24 V
0 9 V
2 11 V
0 -5 V
1 -3 V
1 -17 V
2 -15 V
0 -5 V
8 -71 V
1 -4 V
4 -44 V
1 -4 V
0 -4 V
1 -4 V
6 -63 V
6 -51 V
0 -2 V
1 -5 V
1 -21 V
1 -10 V
4 -78 V
0 -4 V
0 -13 V
0 -2 V
1 -8 V
1 2 V
2 11 V
6 102 V
2 59 V
0 6 V
1 19 V
0 3 V
1 30 V
0 14 V
7 221 V
2 95 V
2 58 V
0 20 V
1 17 V
0 -1 V
11 -9 V
1 22 V
1 22 V
1 64 V
8 526 V
1 111 V
1 39 V
1 16 V
0 -5 V
0 -31 V
1 -10 V
6 -309 V
2 -108 V
2 -50 V
0 -18 V
1 3 V
0 5 V
1 27 V
0 8 V
1 38 V
8 486 V
1 104 V
1 36 V
1 2 V
0 -9 V
0 -48 V
0 -15 V
1 -65 V
8 -465 V
2 -54 V
0 -19 V
1 2 V
0 5 V
1 28 V
0 8 V
1 38 V
8 492 V
1 106 V
0 36 V
1 0 V
0 -9 V
1 -50 V
0 -16 V
1 -68 V
8 -496 V
1 -59 V
1 -20 V
1 -3 V
0 5 V
0 25 V
1 7 V
0 34 V
8 457 V
2 100 V
0 34 V
1 -1 V
0 -9 V
1 -49 V
0 -15 V
1 -66 V
8 -479 V
1 -57 V
0 -20 V
1 -2 V
1 4 V
0 24 V
0 7 V
1 33 V
8 440 V
1 97 V
1 34 V
1 -1 V
0 -8 V
1 -46 V
0 -14 V
1 -63 V
7 -443 V
2 -51 V
0 -17 V
1 2 V
0 4 V
1 26 V
0 8 V
1 36 V
8 472 V
1 103 V
1 35 V
1 1 V
0 -8 V
0 -47 V
0 -14 V
1 -63 V
8 -451 V
2 -51 V
0 -18 V
1 3 V
0 5 V
1 28 V
0 8 V
1 39 V
8 497 V
1 107 V
0 37 V
1 0 V
0 -9 V
1 -50 V
0 -15 V
1 -67 V
8 -488 V
1 -58 V
1 -20 V
1 -1 V
0 5 V
0 26 V
1 8 V
0 36 V
8 472 V
2 103 V
0 35 V
1 -1 V
0 -9 V
1 -50 V
0 -15 V
1 -68 V
stroke 3556 2066 M
8 -492 V
1 -59 V
1 -20 V
0 -3 V
1 4 V
0 24 V
0 7 V
1 32 V
8 441 V
1 97 V
1 34 V
1 -1 V
0 -8 V
1 -48 V
0 -14 V
1 -64 V
7 -456 V
2 -52 V
0 -19 V
1 0 V
0 5 V
1 25 V
0 7 V
1 34 V
8 456 V
1 99 V
1 35 V
1 1 V
0 -8 V
0 -47 V
0 -13 V
1 -63 V
8 -441 V
2 -50 V
0 -18 V
1 3 V
0 5 V
1 28 V
0 8 V
1 38 V
8 491 V
1 105 V
0 37 V
1 1 V
0 -8 V
1 -49 V
0 -15 V
1 -66 V
8 -471 V
1 -55 V
1 -19 V
1 1 V
0 5 V
0 27 V
1 9 V
0 37 V
8 489 V
2 105 V
0 37 V
1 -1 V
0 -9 V
1 -50 V
0 -16 V
1 -68 V
8 -497 V
1 -60 V
1 -20 V
0 -3 V
1 5 V
0 24 V
0 8 V
1 33 V
3 111 V
6 319 V
1 47 V
1 -16 V
0 -38 V
2 -110 V
8 -519 V
1 -64 V
0 -21 V
1 -20 V
0 2 V
11 63 V
1 1 V
0 -17 V
1 -24 V
1 -67 V
3 -112 V
6 -269 V
1 -18 V
1 -34 V
0 -4 V
1 -22 V
0 -6 V
2 -66 V
5 -124 V
3 -20 V
0 -3 V
1 5 V
0 2 V
1 13 V
0 5 V
4 83 V
0 10 V
2 20 V
1 4 V
0 1 V
5 37 V
23 155 V
2 12 V
0 2 V
1 4 V
2 -5 V
0 -4 V
1 -13 V
3 1 V
1 5 V
1 12 V
1 7 V
1 0 V
3 -24 V
6 -87 V
3 -18 V
1 4 V
7 17 V
% End plot #3
% Begin plot #4
stroke
LTb
0.00 1.00 0.00 C LCb setrgbcolor
3416 2180 M
[ [(Symbol) 140.0 0.0 true true 0 (h)]
[(roman) 112.0 -42.0 true true 0 (y)]
] -32.7 MRshow
1.000 UL
LTb
0.00 1.00 0.00 C 3500 2180 M
147 0 V
588 763 M
7 13 V
1 2 V
3 5 V
2 4 V
2 3 V
2 4 V
3 6 V
1 1 V
0 1 V
1 0 V
1 -2 V
1 0 V
3 5 V
1 7 V
0 2 V
2 5 V
1 -1 V
2 -1 V
14 -11 V
2 -2 V
7 -5 V
5 -4 V
0 -1 V
1 0 V
2 1 V
0 1 V
4 12 V
0 1 V
1 2 V
1 0 V
0 -1 V
2 -5 V
7 -19 V
1 -3 V
1 -2 V
1 -1 V
1 -1 V
6 -6 V
3 -2 V
1 -1 V
1 0 V
0 -1 V
1 0 V
9 -8 V
2 -1 V
1 -2 V
0 -1 V
1 -2 V
8 -16 V
2 -2 V
0 -1 V
1 0 V
2 2 V
0 1 V
1 1 V
0 1 V
1 1 V
1 1 V
0 1 V
1 1 V
1 3 V
3 4 V
1 2 V
0 1 V
1 0 V
1 1 V
1 0 V
8 2 V
1 0 V
1 0 V
1 1 V
2 2 V
8 12 V
0 1 V
1 1 V
0 1 V
1 2 V
1 1 V
1 3 V
8 17 V
1 2 V
0 1 V
1 1 V
1 1 V
0 -1 V
2 -2 V
7 -13 V
1 -2 V
1 -1 V
1 -1 V
1 0 V
1 0 V
8 -1 V
1 0 V
1 0 V
1 -1 V
0 -1 V
1 -2 V
8 -12 V
1 -2 V
1 -1 V
1 -2 V
0 -1 V
2 -3 V
8 -18 V
1 -1 V
0 -1 V
0 -1 V
0 -1 V
1 0 V
1 1 V
1 2 V
8 13 V
1 1 V
0 1 V
1 1 V
1 1 V
2 0 V
7 0 V
1 0 V
1 0 V
1 1 V
1 1 V
1 2 V
8 12 V
1 2 V
1 1 V
1 2 V
0 1 V
1 3 V
8 18 V
1 2 V
1 2 V
1 0 V
2 -3 V
8 -12 V
1 -2 V
0 -1 V
1 -1 V
1 0 V
1 0 V
8 0 V
1 0 V
1 0 V
1 -1 V
0 -1 V
2 -2 V
7 -12 V
1 -2 V
1 0 V
0 -1 V
1 -2 V
1 -1 V
1 -3 V
8 -18 V
1 -2 V
1 -2 V
1 0 V
1 2 V
8 13 V
1 1 V
1 1 V
0 1 V
1 0 V
2 0 V
8 0 V
1 0 V
1 0 V
0 1 V
1 0 V
1 3 V
8 13 V
1 1 V
1 1 V
0 1 V
1 1 V
0 1 V
2 4 V
8 17 V
0 2 V
1 1 V
0 1 V
0 1 V
1 0 V
1 -1 V
1 -2 V
8 -12 V
1 -1 V
0 -1 V
1 -1 V
1 -1 V
1 1 V
8 0 V
1 0 V
1 0 V
1 -1 V
1 0 V
1 -3 V
8 -13 V
1 -1 V
0 -1 V
0 -1 V
1 0 V
0 -2 V
1 -1 V
1 -3 V
3 -5 V
6 -15 V
1 -1 V
0 -1 V
1 0 V
0 1 V
2 1 V
8 11 V
1 2 V
1 1 V
1 0 V
11 -5 V
1 0 V
0 1 V
1 3 V
3 4 V
7 12 V
0 1 V
1 1 V
1 2 V
1 2 V
7 13 V
2 3 V
1 1 V
1 -1 V
4 -4 V
0 -1 V
2 0 V
0 1 V
1 1 V
27 38 V
1 1 V
2 3 V
1 0 V
0 1 V
2 -5 V
0 -2 V
1 -8 V
3 -5 V
1 1 V
1 3 V
stroke 1101 814 M
1 0 V
1 -2 V
3 -5 V
6 -10 V
3 -6 V
8 -15 V
1 -1 V
1 -2 V
1 -2 V
4 -7 V
1 -2 V
3 -6 V
6 -10 V
3 -6 V
1 -1 V
0 -1 V
1 -4 V
1 -5 V
1 -2 V
3 0 V
1 6 V
0 2 V
2 4 V
1 1 V
2 1 V
23 14 V
1 1 V
2 2 V
2 1 V
1 0 V
2 2 V
0 1 V
4 10 V
1 2 V
1 4 V
0 1 V
3 9 V
5 23 V
2 7 V
0 1 V
1 2 V
0 1 V
1 -1 V
1 -2 V
6 -30 V
3 -12 V
1 -6 V
1 -2 V
0 -3 V
1 -1 V
1 -5 V
-1 3 V
0 -1 V
3 0 V
-1 3 V
3 -47 V
0 1 V
0 2 V
3 25 V
-1 3 V
3 -23 V
0 -1 V
-1 3 V
2 -5 V
0 -1 V
1 -1 V
1 2 V
8 7 V
2 1 V
0 1 V
1 -1 V
1 -2 V
0 -1 V
6 -21 V
3 -8 V
1 -4 V
1 -2 V
0 1 V
1 1 V
0 3 V
0 2 V
1 4 V
8 45 V
1 7 V
1 3 V
1 5 V
1 3 V
0 1 V
1 4 V
8 37 V
1 6 V
0 2 V
1 2 V
1 -1 V
1 0 V
8 -8 V
1 -1 V
1 0 V
1 1 V
0 2 V
1 1 V
0 3 V
8 26 V
2 4 V
0 2 V
1 -1 V
0 -1 V
1 -4 V
0 -1 V
1 -4 V
8 -45 V
1 -8 V
0 -2 V
1 -5 V
1 -3 V
0 -1 V
1 -4 V
8 -37 V
1 -6 V
1 -2 V
1 -2 V
0 1 V
1 0 V
1 1 V
7 6 V
2 1 V
1 -1 V
1 -2 V
0 -1 V
1 -3 V
8 -27 V
1 -5 V
1 -1 V
1 1 V
0 4 V
0 1 V
1 5 V
8 45 V
2 7 V
0 3 V
1 4 V
0 1 V
1 3 V
0 1 V
1 3 V
8 36 V
1 6 V
0 2 V
1 2 V
1 -1 V
1 0 V
8 -5 V
1 -1 V
1 0 V
1 1 V
0 1 V
0 2 V
1 1 V
0 3 V
8 28 V
2 5 V
0 2 V
1 -1 V
0 -1 V
1 -4 V
0 -1 V
1 -5 V
8 -45 V
1 -7 V
0 -3 V
1 -4 V
1 -1 V
0 -3 V
0 -1 V
1 -3 V
8 -35 V
1 -6 V
1 -2 V
1 -2 V
1 0 V
1 1 V
7 3 V
2 1 V
1 -2 V
1 -2 V
0 -1 V
1 -3 V
8 -30 V
1 -4 V
1 -2 V
1 1 V
0 4 V
0 1 V
1 5 V
8 45 V
2 8 V
0 2 V
1 5 V
0 1 V
1 2 V
0 1 V
1 4 V
8 34 V
1 6 V
0 2 V
1 2 V
1 -1 V
1 0 V
8 -2 V
1 -1 V
1 0 V
1 2 V
0 3 V
1 1 V
0 3 V
8 30 V
2 5 V
0 2 V
1 -1 V
0 -1 V
1 -3 V
0 -1 V
1 -5 V
8 -46 V
1 -7 V
1 -3 V
0 -5 V
1 0 V
0 -3 V
0 -1 V
1 -3 V
8 -34 V
1 -5 V
1 -2 V
1 -2 V
1 0 V
1 0 V
2 0 V
6 1 V
1 1 V
1 -2 V
1 -2 V
1 -5 V
8 -30 V
1 -5 V
1 -1 V
1 0 V
0 2 V
11 55 V
stroke 1563 745 M
0 1 V
1 3 V
0 1 V
2 4 V
2 6 V
7 19 V
0 1 V
1 2 V
1 1 V
2 3 V
6 6 V
2 3 V
1 1 V
1 2 V
0 1 V
0 3 V
1 1 V
3 18 V
1 2 V
1 0 V
0 -1 V
1 -4 V
0 -1 V
3 -15 V
1 -3 V
1 -3 V
0 -3 V
2 -9 V
1 -3 V
0 -2 V
1 -4 V
1 -2 V
6 -29 V
2 -7 V
2 -9 V
1 -8 V
4 -17 V
1 -5 V
1 -4 V
0 -1 V
2 -7 V
1 -8 V
1 -2 V
0 -2 V
2 -20 V
1 -8 V
1 -21 V
2 -4 V
1 7 V
1 16 V
1 12 V
0 1 V
1 4 V
3 13 V
6 27 V
3 14 V
2 6 V
6 31 V
7 30 V
2 7 V
3 14 V
3 17 V
2 9 V
3 14 V
1 3 V
1 1 V
1 1 V
1 -4 V
0 -1 V
3 15 V
1 16 V
1 6 V
1 11 V
1 -1 V
0 -1 V
4 -7 V
2 -4 V
1 -1 V
2 -4 V
3 -5 V
2 -5 V
3 -4 V
2 -5 V
3 -5 V
1 -3 V
2 -3 V
1 -1 V
5 -9 V
0 -2 V
0 -1 V
2 4 V
0 3 V
4 31 V
0 2 V
1 4 V
0 1 V
1 0 V
0 -3 V
2 -11 V
7 -47 V
2 -8 V
0 -1 V
0 -4 V
0 -1 V
1 -3 V
1 -1 V
7 -13 V
2 -5 V
1 -2 V
1 -1 V
1 -2 V
11 -26 V
0 -1 V
1 -3 V
0 -2 V
2 -7 V
8 -39 V
1 -6 V
1 -3 V
1 4 V
7 25 V
2 10 V
1 4 V
0 1 V
1 2 V
0 1 V
1 2 V
2 0 V
8 1 V
0 1 V
1 0 V
1 2 V
1 1 V
1 6 V
8 30 V
1 4 V
0 1 V
1 2 V
1 5 V
0 2 V
1 8 V
8 44 V
1 5 V
0 1 V
1 4 V
1 1 V
1 -2 V
1 -5 V
8 -32 V
1 -3 V
0 -1 V
0 -2 V
1 -1 V
0 -2 V
1 0 V
1 0 V
8 -1 V
1 0 V
1 0 V
1 -2 V
0 -1 V
2 -6 V
8 -31 V
0 -4 V
1 0 V
0 -3 V
1 -5 V
1 -2 V
1 -8 V
8 -44 V
1 -5 V
0 -1 V
1 -3 V
0 -1 V
1 -1 V
0 2 V
1 5 V
8 31 V
1 4 V
1 3 V
1 2 V
1 0 V
1 0 V
8 0 V
1 0 V
1 0 V
0 2 V
1 2 V
1 5 V
8 32 V
1 3 V
0 1 V
1 3 V
1 5 V
0 2 V
2 8 V
8 44 V
0 5 V
1 1 V
0 3 V
0 1 V
1 1 V
1 -2 V
1 -5 V
8 -31 V
1 -3 V
0 -1 V
1 -2 V
0 -1 V
1 -1 V
2 0 V
7 1 V
1 0 V
1 0 V
1 -2 V
1 -2 V
1 -5 V
8 -32 V
1 -4 V
0 -1 V
1 -2 V
0 -1 V
1 -4 V
0 -3 V
1 -7 V
8 -45 V
1 -4 V
0 -1 V
1 -4 V
0 -1 V
1 0 V
0 1 V
2 5 V
8 30 V
0 3 V
1 1 V
0 2 V
0 1 V
1 1 V
1 0 V
1 0 V
8 -2 V
1 0 V
1 0 V
1 2 V
0 2 V
2 5 V
7 33 V
1 4 V
stroke 2010 777 M
1 1 V
0 2 V
0 1 V
1 4 V
1 3 V
1 7 V
8 44 V
1 5 V
0 1 V
1 4 V
1 1 V
0 -1 V
1 -5 V
8 -29 V
1 -4 V
1 -3 V
1 -2 V
0 1 V
2 0 V
8 3 V
1 0 V
1 -1 V
1 -2 V
1 -6 V
8 -34 V
1 -3 V
0 -1 V
1 -3 V
1 -5 V
0 -2 V
2 -8 V
2 -14 V
6 -35 V
1 -1 V
0 -3 V
0 -1 V
1 -1 V
1 1 V
1 4 V
8 25 V
1 4 V
1 2 V
1 0 V
11 -14 V
1 1 V
0 2 V
2 6 V
2 11 V
7 30 V
0 2 V
1 4 V
0 1 V
1 2 V
0 1 V
1 5 V
8 29 V
1 7 V
1 2 V
1 1 V
0 -1 V
0 -1 V
1 0 V
3 -9 V
1 -1 V
1 2 V
1 3 V
2 6 V
0 2 V
1 4 V
17 56 V
4 14 V
4 15 V
1 2 V
2 6 V
0 2 V
0 1 V
2 -11 V
1 -7 V
1 -18 V
3 -13 V
0 3 V
1 7 V
1 1 V
0 -1 V
1 -3 V
3 -13 V
6 -25 V
3 -14 V
1 -5 V
6 -23 V
0 -2 V
1 -5 V
7 -30 V
2 -6 V
3 -13 V
6 -25 V
3 -13 V
0 -3 V
1 -2 V
1 -9 V
1 -12 V
0 -5 V
3 0 V
1 13 V
1 4 V
1 11 V
1 1 V
2 3 V
24 32 V
1 2 V
2 2 V
2 2 V
0 1 V
1 0 V
1 5 V
1 2 V
3 21 V
0 1 V
1 3 V
0 1 V
1 6 V
0 3 V
3 15 V
6 37 V
2 13 V
0 1 V
0 4 V
0 1 V
1 0 V
1 -2 V
7 -31 V
2 -11 V
1 -6 V
1 -2 V
1 -3 V
11 -17 V
0 -1 V
1 -2 V
1 -1 V
1 -3 V
8 -22 V
1 -4 V
0 -1 V
1 -3 V
1 -1 V
0 -3 V
0 -1 V
7 -33 V
2 -13 V
1 -7 V
1 -2 V
1 0 V
1 3 V
0 1 V
1 4 V
7 37 V
2 6 V
0 2 V
1 3 V
1 1 V
1 1 V
8 11 V
1 2 V
1 0 V
1 2 V
0 1 V
0 1 V
0 1 V
1 2 V
8 23 V
2 3 V
0 2 V
1 3 V
0 1 V
1 3 V
0 1 V
1 5 V
8 41 V
1 7 V
0 2 V
1 1 V
0 -1 V
1 -3 V
0 -1 V
1 -4 V
8 -36 V
1 -6 V
1 -2 V
1 -2 V
0 -1 V
1 -1 V
0 -1 V
8 -9 V
2 -2 V
1 -2 V
0 -1 V
1 -1 V
0 -1 V
1 -3 V
8 -23 V
1 -4 V
1 -1 V
0 -4 V
1 0 V
0 -4 V
0 -1 V
1 -4 V
8 -42 V
1 -7 V
1 -2 V
1 0 V
1 3 V
0 1 V
1 3 V
8 36 V
1 6 V
0 2 V
1 2 V
1 1 V
1 1 V
8 9 V
1 1 V
1 1 V
1 1 V
0 1 V
0 2 V
1 0 V
0 3 V
8 24 V
2 4 V
0 2 V
1 3 V
0 1 V
1 3 V
0 1 V
1 5 V
8 42 V
1 7 V
0 2 V
1 1 V
0 -1 V
1 -3 V
1 -4 V
8 -35 V
1 -6 V
1 -2 V
1 -2 V
0 -1 V
1 0 V
stroke 2486 800 M
1 -1 V
7 -7 V
2 -1 V
0 -1 V
1 -2 V
1 -2 V
0 -1 V
1 -2 V
8 -25 V
1 -5 V
1 -1 V
0 -4 V
1 -1 V
0 -3 V
0 -1 V
1 -4 V
8 -43 V
1 -7 V
1 -2 V
1 0 V
1 3 V
0 1 V
1 3 V
8 34 V
1 6 V
0 2 V
1 2 V
1 1 V
1 1 V
8 6 V
1 1 V
1 0 V
1 2 V
0 2 V
1 1 V
0 3 V
8 26 V
2 4 V
0 2 V
1 4 V
1 4 V
0 1 V
1 4 V
8 43 V
1 7 V
0 2 V
1 1 V
0 -1 V
1 -2 V
0 -1 V
1 -4 V
8 -33 V
1 -6 V
1 -2 V
1 -2 V
1 -1 V
1 0 V
7 -5 V
2 -1 V
1 -2 V
1 -3 V
1 -3 V
2 -9 V
7 -21 V
1 -3 V
1 -4 V
0 -3 V
1 -7 V
8 -41 V
2 -7 V
0 -2 V
1 -1 V
11 36 V
0 1 V
1 1 V
1 0 V
1 -2 V
2 -3 V
7 -7 V
1 -1 V
1 2 V
0 1 V
0 4 V
0 1 V
2 12 V
6 38 V
3 15 V
0 3 V
1 8 V
0 1 V
1 6 V
0 2 V
4 37 V
0 4 V
1 3 V
1 -1 V
0 -3 V
0 -1 V
23 -84 V
8 -31 V
0 -2 V
1 -1 V
1 -13 V
1 -4 V
1 -11 V
3 -5 V
0 2 V
1 7 V
1 5 V
1 0 V
3 3 V
6 4 V
3 2 V
2 1 V
3 3 V
1 0 V
1 1 V
2 1 V
2 2 V
1 1 V
4 2 V
1 1 V
3 3 V
6 4 V
3 2 V
1 1 V
1 3 V
1 3 V
0 2 V
3 4 V
1 -1 V
1 0 V
2 1 V
0 1 V
1 0 V
1 4 V
1 2 V
1 0 V
1 2 V
1 2 V
1 2 V
1 2 V
1 2 V
4 7 V
18 34 V
1 1 V
1 7 V
1 4 V
3 33 V
1 2 V
0 5 V
0 1 V
1 1 V
1 -2 V
1 -8 V
8 -35 V
1 -5 V
0 -1 V
1 -3 V
1 -1 V
7 8 V
2 3 V
2 1 V
0 1 V
1 -2 V
1 -4 V
0 2 V
0 -1 V
3 -22 V
-1 3 V
3 26 V
0 1 V
-1 1 V
3 -47 V
0 4 V
3 -1 V
0 -1 V
-1 3 V
1 -4 V
0 -2 V
1 -3 V
1 -2 V
1 -6 V
8 -32 V
1 -5 V
1 -2 V
1 -1 V
1 2 V
6 14 V
2 7 V
1 2 V
1 2 V
0 1 V
1 2 V
1 1 V
1 3 V
8 17 V
1 1 V
0 1 V
1 1 V
1 1 V
0 1 V
1 0 V
8 1 V
1 0 V
1 0 V
1 1 V
0 1 V
2 2 V
8 13 V
1 2 V
0 1 V
1 0 V
1 -1 V
1 -3 V
8 -18 V
1 -2 V
0 -1 V
1 -1 V
1 -2 V
0 -1 V
2 -2 V
7 -12 V
1 -1 V
1 0 V
0 -1 V
1 -1 V
1 0 V
1 -1 V
8 -1 V
1 0 V
1 0 V
1 -1 V
0 -1 V
1 -2 V
8 -14 V
1 -1 V
0 -1 V
1 -1 V
1 0 V
0 1 V
2 3 V
8 18 V
1 2 V
0 1 V
0 1 V
0 1 V
1 1 V
1 1 V
stroke 2958 764 M
1 2 V
8 12 V
1 1 V
1 1 V
1 1 V
2 1 V
8 1 V
1 0 V
0 1 V
1 1 V
1 0 V
1 3 V
8 14 V
1 1 V
1 1 V
0 1 V
1 -1 V
0 -1 V
1 -3 V
8 -18 V
1 -2 V
1 -2 V
1 -1 V
1 -1 V
1 -2 V
8 -12 V
1 -1 V
0 -1 V
1 0 V
0 -1 V
1 0 V
1 -1 V
8 -1 V
1 -1 V
1 0 V
1 -1 V
0 -1 V
2 -2 V
8 -14 V
0 -2 V
1 0 V
0 -1 V
1 0 V
1 1 V
1 3 V
8 18 V
1 2 V
1 2 V
1 2 V
1 2 V
8 12 V
1 1 V
1 1 V
1 1 V
1 0 V
1 1 V
8 2 V
1 0 V
1 0 V
0 1 V
1 1 V
1 3 V
8 14 V
1 1 V
0 1 V
1 1 V
1 0 V
0 -1 V
2 -3 V
8 -18 V
0 -2 V
1 -1 V
0 -1 V
1 -2 V
1 -1 V
1 -1 V
8 -12 V
1 -1 V
1 -1 V
1 -1 V
2 0 V
7 -3 V
1 0 V
1 -1 V
1 -1 V
1 0 V
1 -3 V
2 -4 V
7 -12 V
0 -1 V
1 -1 V
1 0 V
0 1 V
1 3 V
8 16 V
2 3 V
0 1 V
1 2 V
11 11 V
1 0 V
1 1 V
1 1 V
2 2 V
7 6 V
1 0 V
1 2 V
0 1 V
0 1 V
2 3 V
7 20 V
2 5 V
0 1 V
1 0 V
0 -1 V
1 -1 V
0 -1 V
4 -13 V
0 -1 V
2 -2 V
0 1 V
6 5 V
10 10 V
13 12 V
2 1 V
0 1 V
1 0 V
1 -5 V
1 -2 V
1 -8 V
3 -6 V
0 1 V
1 2 V
1 0 V
1 -1 V
1 -1 V
3 -6 V
5 -12 V
4 -6 V
1 -2 V
7 -14 V
7 -14 V
1 -2 V
3 -6 V
6 -12 V
3 -5 V
1 -2 V
0 -1 V
1 -5 V
1 -6 V
1 -3 V
2 1 V
2 9 V
0 3 V
2 7 V
0 1 V
1 1 V
1 2 V
2 3 V
8 12 V
1 1 V
4 7 V
1 1 V
1 1 V
6 10 V
6 8 V
0 1 V
1 1 V
1 1 V
1 0 V
4 0 V
1 1 V
1 1 V
2 3 V
6 7 V
2 2 V
0 1 V
1 0 V
0 1 V
1 -1 V
0 -1 V
7 -13 V
2 -5 V
2 -2 V
0 -1 V
1 -2 V
11 -21 V
1 -1 V
1 0 V
1 1 V
8 4 V
1 1 V
1 0 V
1 -1 V
1 -1 V
6 -7 V
2 -3 V
2 -2 V
0 -1 V
1 1 V
1 1 V
0 1 V
1 2 V
8 18 V
1 3 V
1 1 V
1 2 V
0 1 V
0 1 V
1 1 V
8 16 V
2 2 V
0 1 V
1 1 V
1 0 V
0 -1 V
1 0 V
8 -3 V
1 -1 V
1 0 V
1 1 V
1 1 V
8 11 V
1 1 V
1 1 V
1 -1 V
0 -1 V
1 -1 V
0 -2 V
8 -18 V
2 -3 V
0 -1 V
1 -2 V
1 -1 V
0 -1 V
1 -1 V
8 -15 V
1 -3 V
0 -1 V
1 0 V
1 0 V
1 0 V
8 3 V
1 1 V
1 0 V
1 0 V
0 -1 V
1 0 V
0 -1 V
1 -1 V
stroke 3482 751 M
7 -10 V
2 -2 V
0 -1 V
1 1 V
1 1 V
0 1 V
1 2 V
8 18 V
1 3 V
1 1 V
1 2 V
0 1 V
0 1 V
1 1 V
8 15 V
2 3 V
0 1 V
1 0 V
1 0 V
1 0 V
8 -3 V
1 0 V
0 -1 V
1 1 V
1 1 V
1 1 V
8 11 V
1 2 V
1 1 V
1 -1 V
0 -1 V
1 -1 V
0 -2 V
8 -18 V
2 -3 V
0 -1 V
1 -2 V
1 -1 V
0 -1 V
1 -1 V
8 -15 V
1 -2 V
1 -1 V
0 -1 V
1 0 V
0 1 V
1 0 V
8 2 V
1 0 V
1 0 V
1 0 V
1 -1 V
0 -1 V
1 -1 V
7 -11 V
2 -2 V
0 -1 V
1 1 V
1 1 V
0 1 V
1 2 V
8 18 V
1 3 V
1 1 V
1 2 V
0 1 V
0 1 V
1 1 V
8 14 V
2 3 V
0 1 V
1 0 V
1 0 V
1 0 V
8 -2 V
1 0 V
1 1 V
1 1 V
1 1 V
8 12 V
1 2 V
1 1 V
1 -1 V
0 -1 V
1 -1 V
0 -2 V
8 -18 V
2 -3 V
0 -1 V
1 -2 V
1 -1 V
0 -1 V
1 -1 V
8 -14 V
1 -2 V
1 -1 V
0 -1 V
1 0 V
1 0 V
3 1 V
6 1 V
1 0 V
1 -1 V
0 -1 V
2 -2 V
8 -11 V
1 -2 V
0 -1 V
1 0 V
0 1 V
11 22 V
1 0 V
0 2 V
1 0 V
1 2 V
3 3 V
6 7 V
1 1 V
1 0 V
1 1 V
2 1 V
5 2 V
3 1 V
1 1 V
1 1 V
0 1 V
4 7 V
0 1 V
2 -1 V
1 -1 V
0 -1 V
5 -10 V
23 -42 V
2 -3 V
0 -1 V
1 -1 V
2 -8 V
0 -3 V
1 -8 V
3 -2 V
1 3 V
1 6 V
1 5 V
0 1 V
1 1 V
3 6 V
6 10 V
3 6 V
1 3 V
7 12 V
% End plot #4
stroke
2.000 UL
LTb
LCb setrgbcolor
1.000 UL
LTB
LCb setrgbcolor
588 2313 N
588 384 L
3347 0 V
0 1929 V
-3347 0 V
Z stroke
1.000 UP
1.000 UL
LTb
LCb setrgbcolor
stroke
grestore
end
showpage
%%Trailer
%%DocumentFonts: Symbol roman Times-Roman
