%!PS-Adobe-2.0 EPSF-2.0
%%Title: gnuplot_TWISS_btxy.eps
%%Creator: gnuplot 5.2 patchlevel 2
%%CreationDate: Sat Mar 19 06:38:09 2022
%%DocumentFonts: (atend)
%%BoundingBox: 50 50 285 191
%%EndComments
%%BeginProlog
/gnudict 256 dict def
gnudict begin
%
% The following true/false flags may be edited by hand if desired.
% The unit line width and grayscale image gamma correction may also be changed.
%
/Color true def
/Blacktext true def
/Solid false def
/Dashlength 1 def
/Landscape false def
/Level1 false def
/Level3 false def
/Rounded false def
/ClipToBoundingBox false def
/SuppressPDFMark false def
/TransparentPatterns false def
/gnulinewidth 5.000 def
/userlinewidth gnulinewidth def
/Gamma 1.0 def
/BackgroundColor {-1.000 -1.000 -1.000} def
%
/vshift -40 def
/dl1 {
  10.0 Dashlength userlinewidth gnulinewidth div mul mul mul
  Rounded { currentlinewidth 0.75 mul sub dup 0 le { pop 0.01 } if } if
} def
/dl2 {
  10.0 Dashlength userlinewidth gnulinewidth div mul mul mul
  Rounded { currentlinewidth 0.75 mul add } if
} def
/hpt_ 31.5 def
/vpt_ 31.5 def
/hpt hpt_ def
/vpt vpt_ def
/doclip {
  ClipToBoundingBox {
    newpath 50 50 moveto 285 50 lineto 285 191 lineto 50 191 lineto closepath
    clip
  } if
} def
%
% Gnuplot Prolog Version 5.1 (Oct 2015)
%
%/SuppressPDFMark true def
%
/M {moveto} bind def
/L {lineto} bind def
/R {rmoveto} bind def
/V {rlineto} bind def
/N {newpath moveto} bind def
/Z {closepath} bind def
/C {setrgbcolor} bind def
/f {rlineto fill} bind def
/g {setgray} bind def
/Gshow {show} def   % May be redefined later in the file to support UTF-8
/vpt2 vpt 2 mul def
/hpt2 hpt 2 mul def
/Lshow {currentpoint stroke M 0 vshift R 
	Blacktext {gsave 0 setgray textshow grestore} {textshow} ifelse} def
/Rshow {currentpoint stroke M dup stringwidth pop neg vshift R
	Blacktext {gsave 0 setgray textshow grestore} {textshow} ifelse} def
/Cshow {currentpoint stroke M dup stringwidth pop -2 div vshift R 
	Blacktext {gsave 0 setgray textshow grestore} {textshow} ifelse} def
/UP {dup vpt_ mul /vpt exch def hpt_ mul /hpt exch def
  /hpt2 hpt 2 mul def /vpt2 vpt 2 mul def} def
/DL {Color {setrgbcolor Solid {pop []} if 0 setdash}
 {pop pop pop 0 setgray Solid {pop []} if 0 setdash} ifelse} def
/BL {stroke userlinewidth 2 mul setlinewidth
	Rounded {1 setlinejoin 1 setlinecap} if} def
/AL {stroke userlinewidth 2 div setlinewidth
	Rounded {1 setlinejoin 1 setlinecap} if} def
/UL {dup gnulinewidth mul /userlinewidth exch def
	dup 1 lt {pop 1} if 10 mul /udl exch def} def
/PL {stroke userlinewidth setlinewidth
	Rounded {1 setlinejoin 1 setlinecap} if} def
3.8 setmiterlimit
% Classic Line colors (version 5.0)
/LCw {1 1 1} def
/LCb {0 0 0} def
/LCa {0 0 0} def
/LC0 {1 0 0} def
/LC1 {0 1 0} def
/LC2 {0 0 1} def
/LC3 {1 0 1} def
/LC4 {0 1 1} def
/LC5 {1 1 0} def
/LC6 {0 0 0} def
/LC7 {1 0.3 0} def
/LC8 {0.5 0.5 0.5} def
% Default dash patterns (version 5.0)
/LTB {BL [] LCb DL} def
/LTw {PL [] 1 setgray} def
/LTb {PL [] LCb DL} def
/LTa {AL [1 udl mul 2 udl mul] 0 setdash LCa setrgbcolor} def
/LT0 {PL [] LC0 DL} def
/LT1 {PL [2 dl1 3 dl2] LC1 DL} def
/LT2 {PL [1 dl1 1.5 dl2] LC2 DL} def
/LT3 {PL [6 dl1 2 dl2 1 dl1 2 dl2] LC3 DL} def
/LT4 {PL [1 dl1 2 dl2 6 dl1 2 dl2 1 dl1 2 dl2] LC4 DL} def
/LT5 {PL [4 dl1 2 dl2] LC5 DL} def
/LT6 {PL [1.5 dl1 1.5 dl2 1.5 dl1 1.5 dl2 1.5 dl1 6 dl2] LC6 DL} def
/LT7 {PL [3 dl1 3 dl2 1 dl1 3 dl2] LC7 DL} def
/LT8 {PL [2 dl1 2 dl2 2 dl1 6 dl2] LC8 DL} def
/SL {[] 0 setdash} def
/Pnt {stroke [] 0 setdash gsave 1 setlinecap M 0 0 V stroke grestore} def
/Dia {stroke [] 0 setdash 2 copy vpt add M
  hpt neg vpt neg V hpt vpt neg V
  hpt vpt V hpt neg vpt V closepath stroke
  Pnt} def
/Pls {stroke [] 0 setdash vpt sub M 0 vpt2 V
  currentpoint stroke M
  hpt neg vpt neg R hpt2 0 V stroke
 } def
/Box {stroke [] 0 setdash 2 copy exch hpt sub exch vpt add M
  0 vpt2 neg V hpt2 0 V 0 vpt2 V
  hpt2 neg 0 V closepath stroke
  Pnt} def
/Crs {stroke [] 0 setdash exch hpt sub exch vpt add M
  hpt2 vpt2 neg V currentpoint stroke M
  hpt2 neg 0 R hpt2 vpt2 V stroke} def
/TriU {stroke [] 0 setdash 2 copy vpt 1.12 mul add M
  hpt neg vpt -1.62 mul V
  hpt 2 mul 0 V
  hpt neg vpt 1.62 mul V closepath stroke
  Pnt} def
/Star {2 copy Pls Crs} def
/BoxF {stroke [] 0 setdash exch hpt sub exch vpt add M
  0 vpt2 neg V hpt2 0 V 0 vpt2 V
  hpt2 neg 0 V closepath fill} def
/TriUF {stroke [] 0 setdash vpt 1.12 mul add M
  hpt neg vpt -1.62 mul V
  hpt 2 mul 0 V
  hpt neg vpt 1.62 mul V closepath fill} def
/TriD {stroke [] 0 setdash 2 copy vpt 1.12 mul sub M
  hpt neg vpt 1.62 mul V
  hpt 2 mul 0 V
  hpt neg vpt -1.62 mul V closepath stroke
  Pnt} def
/TriDF {stroke [] 0 setdash vpt 1.12 mul sub M
  hpt neg vpt 1.62 mul V
  hpt 2 mul 0 V
  hpt neg vpt -1.62 mul V closepath fill} def
/DiaF {stroke [] 0 setdash vpt add M
  hpt neg vpt neg V hpt vpt neg V
  hpt vpt V hpt neg vpt V closepath fill} def
/Pent {stroke [] 0 setdash 2 copy gsave
  translate 0 hpt M 4 {72 rotate 0 hpt L} repeat
  closepath stroke grestore Pnt} def
/PentF {stroke [] 0 setdash gsave
  translate 0 hpt M 4 {72 rotate 0 hpt L} repeat
  closepath fill grestore} def
/Circle {stroke [] 0 setdash 2 copy
  hpt 0 360 arc stroke Pnt} def
/CircleF {stroke [] 0 setdash hpt 0 360 arc fill} def
/C0 {BL [] 0 setdash 2 copy moveto vpt 90 450 arc} bind def
/C1 {BL [] 0 setdash 2 copy moveto
	2 copy vpt 0 90 arc closepath fill
	vpt 0 360 arc closepath} bind def
/C2 {BL [] 0 setdash 2 copy moveto
	2 copy vpt 90 180 arc closepath fill
	vpt 0 360 arc closepath} bind def
/C3 {BL [] 0 setdash 2 copy moveto
	2 copy vpt 0 180 arc closepath fill
	vpt 0 360 arc closepath} bind def
/C4 {BL [] 0 setdash 2 copy moveto
	2 copy vpt 180 270 arc closepath fill
	vpt 0 360 arc closepath} bind def
/C5 {BL [] 0 setdash 2 copy moveto
	2 copy vpt 0 90 arc
	2 copy moveto
	2 copy vpt 180 270 arc closepath fill
	vpt 0 360 arc} bind def
/C6 {BL [] 0 setdash 2 copy moveto
	2 copy vpt 90 270 arc closepath fill
	vpt 0 360 arc closepath} bind def
/C7 {BL [] 0 setdash 2 copy moveto
	2 copy vpt 0 270 arc closepath fill
	vpt 0 360 arc closepath} bind def
/C8 {BL [] 0 setdash 2 copy moveto
	2 copy vpt 270 360 arc closepath fill
	vpt 0 360 arc closepath} bind def
/C9 {BL [] 0 setdash 2 copy moveto
	2 copy vpt 270 450 arc closepath fill
	vpt 0 360 arc closepath} bind def
/C10 {BL [] 0 setdash 2 copy 2 copy moveto vpt 270 360 arc closepath fill
	2 copy moveto
	2 copy vpt 90 180 arc closepath fill
	vpt 0 360 arc closepath} bind def
/C11 {BL [] 0 setdash 2 copy moveto
	2 copy vpt 0 180 arc closepath fill
	2 copy moveto
	2 copy vpt 270 360 arc closepath fill
	vpt 0 360 arc closepath} bind def
/C12 {BL [] 0 setdash 2 copy moveto
	2 copy vpt 180 360 arc closepath fill
	vpt 0 360 arc closepath} bind def
/C13 {BL [] 0 setdash 2 copy moveto
	2 copy vpt 0 90 arc closepath fill
	2 copy moveto
	2 copy vpt 180 360 arc closepath fill
	vpt 0 360 arc closepath} bind def
/C14 {BL [] 0 setdash 2 copy moveto
	2 copy vpt 90 360 arc closepath fill
	vpt 0 360 arc} bind def
/C15 {BL [] 0 setdash 2 copy vpt 0 360 arc closepath fill
	vpt 0 360 arc closepath} bind def
/Rec {newpath 4 2 roll moveto 1 index 0 rlineto 0 exch rlineto
	neg 0 rlineto closepath} bind def
/Square {dup Rec} bind def
/Bsquare {vpt sub exch vpt sub exch vpt2 Square} bind def
/S0 {BL [] 0 setdash 2 copy moveto 0 vpt rlineto BL Bsquare} bind def
/S1 {BL [] 0 setdash 2 copy vpt Square fill Bsquare} bind def
/S2 {BL [] 0 setdash 2 copy exch vpt sub exch vpt Square fill Bsquare} bind def
/S3 {BL [] 0 setdash 2 copy exch vpt sub exch vpt2 vpt Rec fill Bsquare} bind def
/S4 {BL [] 0 setdash 2 copy exch vpt sub exch vpt sub vpt Square fill Bsquare} bind def
/S5 {BL [] 0 setdash 2 copy 2 copy vpt Square fill
	exch vpt sub exch vpt sub vpt Square fill Bsquare} bind def
/S6 {BL [] 0 setdash 2 copy exch vpt sub exch vpt sub vpt vpt2 Rec fill Bsquare} bind def
/S7 {BL [] 0 setdash 2 copy exch vpt sub exch vpt sub vpt vpt2 Rec fill
	2 copy vpt Square fill Bsquare} bind def
/S8 {BL [] 0 setdash 2 copy vpt sub vpt Square fill Bsquare} bind def
/S9 {BL [] 0 setdash 2 copy vpt sub vpt vpt2 Rec fill Bsquare} bind def
/S10 {BL [] 0 setdash 2 copy vpt sub vpt Square fill 2 copy exch vpt sub exch vpt Square fill
	Bsquare} bind def
/S11 {BL [] 0 setdash 2 copy vpt sub vpt Square fill 2 copy exch vpt sub exch vpt2 vpt Rec fill
	Bsquare} bind def
/S12 {BL [] 0 setdash 2 copy exch vpt sub exch vpt sub vpt2 vpt Rec fill Bsquare} bind def
/S13 {BL [] 0 setdash 2 copy exch vpt sub exch vpt sub vpt2 vpt Rec fill
	2 copy vpt Square fill Bsquare} bind def
/S14 {BL [] 0 setdash 2 copy exch vpt sub exch vpt sub vpt2 vpt Rec fill
	2 copy exch vpt sub exch vpt Square fill Bsquare} bind def
/S15 {BL [] 0 setdash 2 copy Bsquare fill Bsquare} bind def
/D0 {gsave translate 45 rotate 0 0 S0 stroke grestore} bind def
/D1 {gsave translate 45 rotate 0 0 S1 stroke grestore} bind def
/D2 {gsave translate 45 rotate 0 0 S2 stroke grestore} bind def
/D3 {gsave translate 45 rotate 0 0 S3 stroke grestore} bind def
/D4 {gsave translate 45 rotate 0 0 S4 stroke grestore} bind def
/D5 {gsave translate 45 rotate 0 0 S5 stroke grestore} bind def
/D6 {gsave translate 45 rotate 0 0 S6 stroke grestore} bind def
/D7 {gsave translate 45 rotate 0 0 S7 stroke grestore} bind def
/D8 {gsave translate 45 rotate 0 0 S8 stroke grestore} bind def
/D9 {gsave translate 45 rotate 0 0 S9 stroke grestore} bind def
/D10 {gsave translate 45 rotate 0 0 S10 stroke grestore} bind def
/D11 {gsave translate 45 rotate 0 0 S11 stroke grestore} bind def
/D12 {gsave translate 45 rotate 0 0 S12 stroke grestore} bind def
/D13 {gsave translate 45 rotate 0 0 S13 stroke grestore} bind def
/D14 {gsave translate 45 rotate 0 0 S14 stroke grestore} bind def
/D15 {gsave translate 45 rotate 0 0 S15 stroke grestore} bind def
/DiaE {stroke [] 0 setdash vpt add M
  hpt neg vpt neg V hpt vpt neg V
  hpt vpt V hpt neg vpt V closepath stroke} def
/BoxE {stroke [] 0 setdash exch hpt sub exch vpt add M
  0 vpt2 neg V hpt2 0 V 0 vpt2 V
  hpt2 neg 0 V closepath stroke} def
/TriUE {stroke [] 0 setdash vpt 1.12 mul add M
  hpt neg vpt -1.62 mul V
  hpt 2 mul 0 V
  hpt neg vpt 1.62 mul V closepath stroke} def
/TriDE {stroke [] 0 setdash vpt 1.12 mul sub M
  hpt neg vpt 1.62 mul V
  hpt 2 mul 0 V
  hpt neg vpt -1.62 mul V closepath stroke} def
/PentE {stroke [] 0 setdash gsave
  translate 0 hpt M 4 {72 rotate 0 hpt L} repeat
  closepath stroke grestore} def
/CircE {stroke [] 0 setdash 
  hpt 0 360 arc stroke} def
/Opaque {gsave closepath 1 setgray fill grestore 0 setgray closepath} def
/DiaW {stroke [] 0 setdash vpt add M
  hpt neg vpt neg V hpt vpt neg V
  hpt vpt V hpt neg vpt V Opaque stroke} def
/BoxW {stroke [] 0 setdash exch hpt sub exch vpt add M
  0 vpt2 neg V hpt2 0 V 0 vpt2 V
  hpt2 neg 0 V Opaque stroke} def
/TriUW {stroke [] 0 setdash vpt 1.12 mul add M
  hpt neg vpt -1.62 mul V
  hpt 2 mul 0 V
  hpt neg vpt 1.62 mul V Opaque stroke} def
/TriDW {stroke [] 0 setdash vpt 1.12 mul sub M
  hpt neg vpt 1.62 mul V
  hpt 2 mul 0 V
  hpt neg vpt -1.62 mul V Opaque stroke} def
/PentW {stroke [] 0 setdash gsave
  translate 0 hpt M 4 {72 rotate 0 hpt L} repeat
  Opaque stroke grestore} def
/CircW {stroke [] 0 setdash 
  hpt 0 360 arc Opaque stroke} def
/BoxFill {gsave Rec 1 setgray fill grestore} def
/Density {
  /Fillden exch def
  currentrgbcolor
  /ColB exch def /ColG exch def /ColR exch def
  /ColR ColR Fillden mul Fillden sub 1 add def
  /ColG ColG Fillden mul Fillden sub 1 add def
  /ColB ColB Fillden mul Fillden sub 1 add def
  ColR ColG ColB setrgbcolor} def
/BoxColFill {gsave Rec PolyFill} def
/PolyFill {gsave Density fill grestore grestore} def
/h {rlineto rlineto rlineto gsave closepath fill grestore} bind def
%
% PostScript Level 1 Pattern Fill routine for rectangles
% Usage: x y w h s a XX PatternFill
%	x,y = lower left corner of box to be filled
%	w,h = width and height of box
%	  a = angle in degrees between lines and x-axis
%	 XX = 0/1 for no/yes cross-hatch
%
/PatternFill {gsave /PFa [ 9 2 roll ] def
  PFa 0 get PFa 2 get 2 div add PFa 1 get PFa 3 get 2 div add translate
  PFa 2 get -2 div PFa 3 get -2 div PFa 2 get PFa 3 get Rec
  TransparentPatterns {} {gsave 1 setgray fill grestore} ifelse
  clip
  currentlinewidth 0.5 mul setlinewidth
  /PFs PFa 2 get dup mul PFa 3 get dup mul add sqrt def
  0 0 M PFa 5 get rotate PFs -2 div dup translate
  0 1 PFs PFa 4 get div 1 add floor cvi
	{PFa 4 get mul 0 M 0 PFs V} for
  0 PFa 6 get ne {
	0 1 PFs PFa 4 get div 1 add floor cvi
	{PFa 4 get mul 0 2 1 roll M PFs 0 V} for
 } if
  stroke grestore} def
%
/languagelevel where
 {pop languagelevel} {1} ifelse
dup 2 lt
	{/InterpretLevel1 true def
	 /InterpretLevel3 false def}
	{/InterpretLevel1 Level1 def
	 2 gt
	    {/InterpretLevel3 Level3 def}
	    {/InterpretLevel3 false def}
	 ifelse }
 ifelse
%
% PostScript level 2 pattern fill definitions
%
/Level2PatternFill {
/Tile8x8 {/PaintType 2 /PatternType 1 /TilingType 1 /BBox [0 0 8 8] /XStep 8 /YStep 8}
	bind def
/KeepColor {currentrgbcolor [/Pattern /DeviceRGB] setcolorspace} bind def
<< Tile8x8
 /PaintProc {0.5 setlinewidth pop 0 0 M 8 8 L 0 8 M 8 0 L stroke} 
>> matrix makepattern
/Pat1 exch def
<< Tile8x8
 /PaintProc {0.5 setlinewidth pop 0 0 M 8 8 L 0 8 M 8 0 L stroke
	0 4 M 4 8 L 8 4 L 4 0 L 0 4 L stroke}
>> matrix makepattern
/Pat2 exch def
<< Tile8x8
 /PaintProc {0.5 setlinewidth pop 0 0 M 0 8 L
	8 8 L 8 0 L 0 0 L fill}
>> matrix makepattern
/Pat3 exch def
<< Tile8x8
 /PaintProc {0.5 setlinewidth pop -4 8 M 8 -4 L
	0 12 M 12 0 L stroke}
>> matrix makepattern
/Pat4 exch def
<< Tile8x8
 /PaintProc {0.5 setlinewidth pop -4 0 M 8 12 L
	0 -4 M 12 8 L stroke}
>> matrix makepattern
/Pat5 exch def
<< Tile8x8
 /PaintProc {0.5 setlinewidth pop -2 8 M 4 -4 L
	0 12 M 8 -4 L 4 12 M 10 0 L stroke}
>> matrix makepattern
/Pat6 exch def
<< Tile8x8
 /PaintProc {0.5 setlinewidth pop -2 0 M 4 12 L
	0 -4 M 8 12 L 4 -4 M 10 8 L stroke}
>> matrix makepattern
/Pat7 exch def
<< Tile8x8
 /PaintProc {0.5 setlinewidth pop 8 -2 M -4 4 L
	12 0 M -4 8 L 12 4 M 0 10 L stroke}
>> matrix makepattern
/Pat8 exch def
<< Tile8x8
 /PaintProc {0.5 setlinewidth pop 0 -2 M 12 4 L
	-4 0 M 12 8 L -4 4 M 8 10 L stroke}
>> matrix makepattern
/Pat9 exch def
/Pattern1 {PatternBgnd KeepColor Pat1 setpattern} bind def
/Pattern2 {PatternBgnd KeepColor Pat2 setpattern} bind def
/Pattern3 {PatternBgnd KeepColor Pat3 setpattern} bind def
/Pattern4 {PatternBgnd KeepColor Landscape {Pat5} {Pat4} ifelse setpattern} bind def
/Pattern5 {PatternBgnd KeepColor Landscape {Pat4} {Pat5} ifelse setpattern} bind def
/Pattern6 {PatternBgnd KeepColor Landscape {Pat9} {Pat6} ifelse setpattern} bind def
/Pattern7 {PatternBgnd KeepColor Landscape {Pat8} {Pat7} ifelse setpattern} bind def
} def
%
%
%End of PostScript Level 2 code
%
/PatternBgnd {
  TransparentPatterns {} {gsave 1 setgray fill grestore} ifelse
} def
%
% Substitute for Level 2 pattern fill codes with
% grayscale if Level 2 support is not selected.
%
/Level1PatternFill {
/Pattern1 {0.250 Density} bind def
/Pattern2 {0.500 Density} bind def
/Pattern3 {0.750 Density} bind def
/Pattern4 {0.125 Density} bind def
/Pattern5 {0.375 Density} bind def
/Pattern6 {0.625 Density} bind def
/Pattern7 {0.875 Density} bind def
} def
%
% Now test for support of Level 2 code
%
Level1 {Level1PatternFill} {Level2PatternFill} ifelse
%
/Symbol-Oblique /Symbol findfont [1 0 .167 1 0 0] makefont
dup length dict begin {1 index /FID eq {pop pop} {def} ifelse} forall
currentdict end definefont pop
%
/Metrics {ExtendTextBox Gswidth} def
/Lwidth {currentpoint stroke M 0 vshift R Metrics} def
/Rwidth {currentpoint stroke M dup stringwidth pop neg vshift R Metrics} def
/Cwidth {currentpoint stroke M dup stringwidth pop -2 div vshift R Metrics} def
/GLwidth {currentpoint stroke M 0 vshift R {ExtendTextBox} forall} def
/GRwidth {currentpoint stroke M dup Gwidth vshift R {ExtendTextBox} forall} def
/GCwidth {currentpoint stroke M dup Gwidth 2 div vshift R {ExtendTextBox} forall} def
/GLwidth2 {0 Gwidth AddGlyphWidth} def
/GRwidth2 {Gwidth -1 mul 0 AddGlyphWidth} def
/GCwidth2 {Gwidth 2 div dup -1 mul AddGlyphWidth} def
/AddGlyphWidth { dup TBx2 gt {userdict /TBx2 3 -1 roll put} {pop} ifelse
                 dup TBx1 lt {userdict /TBx1 3 -1 roll put} {pop} ifelse } def
/MFshow {
   { dup 5 get 3 ge
     { 5 get 3 eq {gsave} {grestore} ifelse }
     {dup dup 0 get findfont exch 1 get scalefont setfont
     [ currentpoint ] exch dup 2 get 0 exch R dup 5 get 2 ne {dup dup 6
     get exch 4 get {textshow} {Metrics pop 0 R} ifelse }if dup 5 get 0 eq
     {dup 3 get {2 get neg 0 exch R pop} {pop aload pop M} ifelse} {dup 5
     get 1 eq {dup 2 get exch dup 3 get exch 6 get Gswidth pop -2 div
     dup 0 R} {dup 6 get Gswidth pop -2 div 0 R 6 get
     textshow 2 index {aload pop M neg 3 -1 roll neg R pop pop} {pop pop pop
     pop aload pop M} ifelse }ifelse }ifelse }
     ifelse }
   forall} def
/Gswidth {dup type /stringtype eq {stringwidth} {pop (n) stringwidth} ifelse} def
/MFwidth {0 exch { dup 5 get 3 ge { 5 get 3 eq { 0 } { pop } ifelse }
 {dup 3 get{dup dup 0 get findfont exch 1 get scalefont setfont
     6 get Gswidth pop add} {pop} ifelse} ifelse} forall} def
/MLshow { currentpoint stroke M
  0 exch R
  Blacktext {gsave 0 setgray MFshow grestore} {MFshow} ifelse } bind def
/MRshow { currentpoint stroke M
  exch dup MFwidth neg 3 -1 roll R
  Blacktext {gsave 0 setgray MFshow grestore} {MFshow} ifelse } bind def
/MCshow { currentpoint stroke M
  exch dup MFwidth -2 div 3 -1 roll R
  Blacktext {gsave 0 setgray MFshow grestore} {MFshow} ifelse } bind def
/XYsave    { [( ) 1 2 true false 3 ()] } bind def
/XYrestore { [( ) 1 2 true false 4 ()] } bind def
Level1 SuppressPDFMark or 
{} {
/SDict 10 dict def
systemdict /pdfmark known not {
  userdict /pdfmark systemdict /cleartomark get put
} if
SDict begin [
  /Title (gnuplot_TWISS_btxy.eps)
  /Subject (gnuplot plot)
  /Creator (gnuplot 5.2 patchlevel 2)
%  /Producer (gnuplot)
%  /Keywords ()
  /CreationDate (Sat Mar 19 06:38:09 2022)
  /DOCINFO pdfmark
end
} ifelse
%
% Support for boxed text - Ethan A Merritt Sep 2016
%
/InitTextBox { userdict /TBy2 3 -1 roll put userdict /TBx2 3 -1 roll put
           userdict /TBy1 3 -1 roll put userdict /TBx1 3 -1 roll put
	   /Boxing true def } def
/ExtendTextBox { dup type /stringtype eq
    { Boxing { gsave dup false charpath pathbbox
      dup TBy2 gt {userdict /TBy2 3 -1 roll put} {pop} ifelse
      dup TBx2 gt {userdict /TBx2 3 -1 roll put} {pop} ifelse
      dup TBy1 lt {userdict /TBy1 3 -1 roll put} {pop} ifelse
      dup TBx1 lt {userdict /TBx1 3 -1 roll put} {pop} ifelse
      grestore } if }
    {} ifelse} def
/PopTextBox { newpath TBx1 TBxmargin sub TBy1 TBymargin sub M
               TBx1 TBxmargin sub TBy2 TBymargin add L
	       TBx2 TBxmargin add TBy2 TBymargin add L
	       TBx2 TBxmargin add TBy1 TBymargin sub L closepath } def
/DrawTextBox { PopTextBox stroke /Boxing false def} def
/FillTextBox { gsave PopTextBox fill grestore /Boxing false def} def
0 0 0 0 InitTextBox
/TBxmargin 20 def
/TBymargin 20 def
/Boxing false def
/textshow { ExtendTextBox Gshow } def
%
end
%%EndProlog
%%Page: 1 1
gnudict begin
gsave
doclip
50 50 translate
0.050 0.050 scale
0 setgray
newpath
(Times-Roman) findfont 120 scalefont setfont
BackgroundColor 0 lt 3 1 roll 0 lt exch 0 lt or or not {BackgroundColor C 1.000 0 0 4704.00 2834.00 BoxColFill} if
1.000 UL
LTb
LCb setrgbcolor
588 384 M
63 0 V
stroke
516 384 M
[ [(roman) 120.0 0.0 true true 0 ( 0)]
] -40.0 MRshow
1.000 UL
LTb
LCb setrgbcolor
588 625 M
63 0 V
stroke
516 625 M
[ [(roman) 120.0 0.0 true true 0 ( 20)]
] -40.0 MRshow
1.000 UL
LTb
LCb setrgbcolor
588 866 M
63 0 V
stroke
516 866 M
[ [(roman) 120.0 0.0 true true 0 ( 40)]
] -40.0 MRshow
1.000 UL
LTb
LCb setrgbcolor
588 1107 M
63 0 V
stroke
516 1107 M
[ [(roman) 120.0 0.0 true true 0 ( 60)]
] -40.0 MRshow
1.000 UL
LTb
LCb setrgbcolor
588 1349 M
63 0 V
stroke
516 1349 M
[ [(roman) 120.0 0.0 true true 0 ( 80)]
] -40.0 MRshow
1.000 UL
LTb
LCb setrgbcolor
588 1590 M
63 0 V
stroke
516 1590 M
[ [(roman) 120.0 0.0 true true 0 ( 100)]
] -40.0 MRshow
1.000 UL
LTb
LCb setrgbcolor
588 1831 M
63 0 V
stroke
516 1831 M
[ [(roman) 120.0 0.0 true true 0 ( 120)]
] -40.0 MRshow
1.000 UL
LTb
LCb setrgbcolor
588 2072 M
63 0 V
stroke
516 2072 M
[ [(roman) 120.0 0.0 true true 0 ( 140)]
] -40.0 MRshow
1.000 UL
LTb
LCb setrgbcolor
588 2313 M
63 0 V
stroke
516 2313 M
[ [(roman) 120.0 0.0 true true 0 ( 160)]
] -40.0 MRshow
1.000 UL
LTb
LCb setrgbcolor
588 384 M
0 63 V
stroke
588 264 M
[ [(roman) 120.0 0.0 true true 0 ( 0)]
] -40.0 MCshow
1.000 UL
LTb
LCb setrgbcolor
1006 384 M
0 63 V
stroke
1006 264 M
[ [(roman) 120.0 0.0 true true 0 ( 500)]
] -40.0 MCshow
1.000 UL
LTb
LCb setrgbcolor
1425 384 M
0 63 V
stroke
1425 264 M
[ [(roman) 120.0 0.0 true true 0 ( 1000)]
] -40.0 MCshow
1.000 UL
LTb
LCb setrgbcolor
1843 384 M
0 63 V
stroke
1843 264 M
[ [(roman) 120.0 0.0 true true 0 ( 1500)]
] -40.0 MCshow
1.000 UL
LTb
LCb setrgbcolor
2262 384 M
0 63 V
stroke
2262 264 M
[ [(roman) 120.0 0.0 true true 0 ( 2000)]
] -40.0 MCshow
1.000 UL
LTb
LCb setrgbcolor
2680 384 M
0 63 V
stroke
2680 264 M
[ [(roman) 120.0 0.0 true true 0 ( 2500)]
] -40.0 MCshow
1.000 UL
LTb
LCb setrgbcolor
3098 384 M
0 63 V
stroke
3098 264 M
[ [(roman) 120.0 0.0 true true 0 ( 3000)]
] -40.0 MCshow
1.000 UL
LTb
LCb setrgbcolor
3517 384 M
0 63 V
stroke
3517 264 M
[ [(roman) 120.0 0.0 true true 0 ( 3500)]
] -40.0 MCshow
1.000 UL
LTb
LCb setrgbcolor
3935 384 M
0 63 V
stroke
3935 264 M
[ [(roman) 120.0 0.0 true true 0 ( 4000)]
] -40.0 MCshow
1.000 UL
LTb
LCb setrgbcolor
3935 384 M
-63 0 V
stroke
4007 384 M
[ [(roman) 120.0 0.0 true true 0 (-0.5)]
] -40.0 MLshow
1.000 UL
LTb
LCb setrgbcolor
3935 770 M
-63 0 V
stroke
4007 770 M
[ [(roman) 120.0 0.0 true true 0 ( 0)]
] -40.0 MLshow
1.000 UL
LTb
LCb setrgbcolor
3935 1156 M
-63 0 V
stroke
4007 1156 M
[ [(roman) 120.0 0.0 true true 0 ( 0.5)]
] -40.0 MLshow
1.000 UL
LTb
LCb setrgbcolor
3935 1541 M
-63 0 V
stroke
4007 1541 M
[ [(roman) 120.0 0.0 true true 0 ( 1)]
] -40.0 MLshow
1.000 UL
LTb
LCb setrgbcolor
3935 1927 M
-63 0 V
stroke
4007 1927 M
[ [(roman) 120.0 0.0 true true 0 ( 1.5)]
] -40.0 MLshow
1.000 UL
LTb
LCb setrgbcolor
3935 2313 M
-63 0 V
stroke
4007 2313 M
[ [(roman) 120.0 0.0 true true 0 ( 2)]
] -40.0 MLshow
1.000 UL
LTb
LCb setrgbcolor
588 2313 M
0 -63 V
588 384 M
0 63 V
stroke
588 2433 M
[ [(roman) 120.0 0.0 true true 0 ( 0)]
] -40.0 MCshow
1.000 UL
LTb
LCb setrgbcolor
1006 2313 M
0 -63 V
0 -1866 R
0 63 V
stroke
1006 2433 M
[ [(roman) 120.0 0.0 true true 0 ( 500)]
] -40.0 MCshow
1.000 UL
LTb
LCb setrgbcolor
1425 2313 M
0 -63 V
0 -1866 R
0 63 V
stroke
1425 2433 M
[ [(roman) 120.0 0.0 true true 0 ( 1000)]
] -40.0 MCshow
1.000 UL
LTb
LCb setrgbcolor
1843 2313 M
0 -63 V
0 -1866 R
0 63 V
stroke
1843 2433 M
[ [(roman) 120.0 0.0 true true 0 ( 1500)]
] -40.0 MCshow
1.000 UL
LTb
LCb setrgbcolor
2262 2313 M
0 -63 V
0 -1866 R
0 63 V
stroke
2262 2433 M
[ [(roman) 120.0 0.0 true true 0 ( 2000)]
] -40.0 MCshow
1.000 UL
LTb
LCb setrgbcolor
2680 2313 M
0 -63 V
0 -1866 R
0 63 V
stroke
2680 2433 M
[ [(roman) 120.0 0.0 true true 0 ( 2500)]
] -40.0 MCshow
1.000 UL
LTb
LCb setrgbcolor
3098 2313 M
0 -63 V
0 -1866 R
0 63 V
stroke
3098 2433 M
[ [(roman) 120.0 0.0 true true 0 ( 3000)]
] -40.0 MCshow
1.000 UL
LTb
LCb setrgbcolor
3517 2313 M
0 -63 V
0 -1866 R
0 63 V
stroke
3517 2433 M
[ [(roman) 120.0 0.0 true true 0 ( 3500)]
] -40.0 MCshow
1.000 UL
LTb
LCb setrgbcolor
3935 2313 M
0 -63 V
0 -1866 R
0 63 V
stroke
3935 2433 M
[ [(roman) 120.0 0.0 true true 0 ( 4000)]
] -40.0 MCshow
1.000 UL
LTb
LCb setrgbcolor
1.000 UL
LTB
LCb setrgbcolor
588 2313 N
588 384 L
3347 0 V
0 1929 V
-3347 0 V
Z stroke
1.000 UP
1.000 UL
LTb
LCb setrgbcolor
LCb setrgbcolor
108 1348 M
currentpoint gsave translate -270 rotate 0 0 moveto
[ [(Symbol) 130.0 0.0 true true 0 (b)]
[(roman) 104.0 -39.0 true true 0 (x)]
[(roman) 130.0 0.0 true true 0 (, )]
[(Symbol) 130.0 0.0 true true 0 (b)]
[(roman) 104.0 -39.0 true true 0 (y)]
[(roman) 130.0 0.0 true true 0 ( [m])]
] -30.3 MCshow
grestore
LTb
LCb setrgbcolor
4511 1348 M
currentpoint gsave translate -270 rotate 0 0 moveto
[ [(Symbol) 130.0 0.0 true true 0 (h)]
[(roman) 104.0 -39.0 true true 0 (x)]
[(roman) 130.0 0.0 true true 0 (, )]
[(Symbol) 130.0 0.0 true true 0 (h)]
[(roman) 104.0 -39.0 true true 0 (y)]
] -30.3 MCshow
grestore
LTb
LCb setrgbcolor
2261 84 M
[ [(roman) 160.0 0.0 true true 0 (s [m])]
] -53.3 MCshow
LTb
LCb setrgbcolor
2261 2653 M
[ [(roman) 160.0 0.0 true true 0 (Optical functions, from zgoubi.TWISS.out)]
] -53.3 MCshow
% Begin plot #1
1.000 UL
LTb
1.00 0.00 0.00 C LCb setrgbcolor
1211 2180 M
[ [(Symbol) 140.0 0.0 true true 0 (b)]
[(roman) 112.0 -42.0 true true 0 (x)]
] -32.7 MRshow
1.000 UL
LTb
1.00 0.00 0.00 C 1295 2180 M
147 0 V
588 505 M
7 119 V
1 39 V
3 122 V
2 92 V
2 82 V
2 150 V
3 213 V
1 60 V
0 23 V
1 239 V
1 351 V
1 160 V
3 -109 V
1 -480 V
0 -152 V
2 -361 V
0 -42 V
1 -32 V
2 -132 V
635 473 L
2 41 V
7 361 V
5 486 V
0 20 V
1 91 V
0 21 V
2 -66 V
0 -117 V
4 -685 V
0 -23 V
1 -66 V
0 -10 V
1 -58 V
0 -17 V
2 -36 V
7 327 V
1 127 V
0 22 V
1 67 V
0 10 V
1 18 V
1 -25 V
6 -295 V
3 -70 V
1 -29 V
1 -9 V
0 1 V
1 5 V
9 334 V
2 87 V
0 14 V
1 -5 V
0 -31 V
1 -84 V
8 -336 V
2 -29 V
0 -8 V
1 -2 V
0 3 V
2 18 V
0 13 V
1 12 V
0 16 V
1 15 V
1 20 V
0 17 V
1 23 V
1 57 V
3 115 V
1 46 V
0 10 V
0 36 V
1 7 V
1 1 V
0 -25 V
1 -70 V
8 -273 V
1 -16 V
0 -3 V
1 -9 V
0 -1 V
1 3 V
0 10 V
2 34 V
8 371 V
0 58 V
1 13 V
0 45 V
0 8 V
1 0 V
1 -34 V
1 -91 V
8 -373 V
1 -23 V
0 -5 V
1 -14 V
0 -2 V
1 -4 V
0 6 V
2 23 V
7 271 V
1 44 V
0 10 V
1 35 V
0 6 V
1 -1 V
1 -26 V
1 -70 V
8 -276 V
1 -15 V
0 -3 V
1 -8 V
0 -2 V
1 4 V
0 9 V
1 33 V
8 371 V
1 59 V
0 13 V
1 45 V
0 9 V
1 1 V
0 -32 V
2 -88 V
8 -363 V
1 -23 V
0 -4 V
0 -14 V
0 -2 V
1 -3 V
1 7 V
1 24 V
8 280 V
1 45 V
0 10 V
1 35 V
0 6 V
1 -2 V
0 -28 V
2 -75 V
7 -293 V
1 -16 V
1 -3 V
0 -9 V
0 -2 V
1 2 V
1 9 V
1 30 V
8 355 V
1 57 V
0 13 V
1 44 V
0 8 V
1 3 V
0 -30 V
1 -83 V
8 -340 V
1 -22 V
0 -4 V
1 -13 V
0 -2 V
1 -1 V
0 7 V
2 27 V
8 301 V
1 48 V
0 10 V
0 37 V
0 7 V
1 -3 V
1 -30 V
1 -81 V
8 -318 V
1 -18 V
0 -3 V
1 -10 V
0 -2 V
1 1 V
0 7 V
2 27 V
7 330 V
1 54 V
1 12 V
0 42 V
0 7 V
1 3 V
1 -27 V
1 -77 V
8 -312 V
1 -20 V
0 -4 V
1 -11 V
0 -2 V
1 0 V
0 9 V
1 31 V
8 328 V
1 51 V
0 12 V
1 39 V
0 7 V
1 -3 V
0 -32 V
2 -87 V
8 -345 V
1 -20 V
0 -4 V
0 -11 V
1 -2 V
0 -2 V
1 7 V
1 24 V
8 303 V
1 49 V
0 11 V
1 39 V
0 7 V
1 2 V
0 -26 V
2 -71 V
8 -288 V
0 -18 V
1 -3 V
0 -10 V
0 -2 V
1 2 V
1 10 V
1 33 V
8 354 V
1 55 V
0 13 V
1 42 V
0 8 V
1 -2 V
0 -33 V
1 -91 V
8 -365 V
1 -22 V
0 -4 V
1 -13 V
0 -2 V
1 -3 V
1 6 V
1 23 V
8 281 V
1 46 V
0 10 V
0 36 V
1 6 V
0 1 V
1 -25 V
1 -70 V
3 -112 V
6 -179 V
0 -3 V
1 -9 V
0 -2 V
1 3 V
0 9 V
2 31 V
8 347 V
1 86 V
0 31 V
1 5 V
1 -15 V
11 -442 V
0 -5 V
1 -1 V
0 8 V
stroke 1030 571 M
1 27 V
3 66 V
7 276 V
0 24 V
1 -17 V
0 -10 V
1 -63 V
0 -21 V
1 -119 V
7 -318 V
2 28 V
0 15 V
1 50 V
0 9 V
1 57 V
0 20 V
4 600 V
0 103 V
2 65 V
0 -17 V
1 -78 V
0 -20 V
27 -456 V
1 69 V
2 128 V
1 31 V
0 40 V
2 354 V
0 149 V
1 471 V
3 101 V
1 -158 V
1 -347 V
1 -236 V
0 -23 V
1 -60 V
3 -214 V
6 -323 V
3 -121 V
8 -152 V
1 -2 V
1 1 V
1 6 V
4 59 V
1 26 V
3 98 V
6 279 V
3 191 V
1 54 V
0 21 V
1 -11 V
1 -85 V
1 -35 V
3 232 V
1 345 V
0 137 V
2 261 V
1 -33 V
0 -26 V
2 -114 V
1179 873 L
1 -27 V
2 -56 V
2 -43 V
0 -4 V
1 -20 V
0 -5 V
2 35 V
0 45 V
4 464 V
0 29 V
1 95 V
0 16 V
1 19 V
0 -48 V
3 -230 V
0 -1 V
5 -423 V
2 -96 V
0 -8 V
1 -26 V
0 -4 V
1 -9 V
1 7 V
6 165 V
3 91 V
1 55 V
1 21 V
0 -6 V
1 -15 V
1 -63 V
-1 37 V
0 -8 V
3 -151 V
-1 37 V
3 -123 V
0 11 V
0 11 V
3 -92 V
-1 21 V
3 -64 V
0 -2 V
-1 10 V
2 -16 V
0 -3 V
1 2 V
0 9 V
1 29 V
8 351 V
2 88 V
0 32 V
1 4 V
0 -7 V
1 -39 V
0 -11 V
6 -300 V
3 -76 V
1 -32 V
1 -9 V
1 2 V
0 13 V
0 4 V
1 20 V
8 319 V
1 76 V
1 27 V
1 -5 V
0 -7 V
1 -45 V
0 -13 V
1 -55 V
8 -348 V
1 -28 V
0 -8 V
1 -1 V
0 1 V
1 9 V
0 3 V
1 16 V
8 308 V
1 79 V
1 29 V
1 5 V
0 -6 V
0 -34 V
1 -10 V
0 -43 V
8 -281 V
2 -25 V
0 -7 V
1 3 V
0 2 V
1 15 V
0 5 V
1 23 V
8 367 V
1 87 V
0 31 V
1 -3 V
0 -9 V
1 -48 V
0 -14 V
1 -61 V
8 -388 V
1 -33 V
1 -10 V
1 -4 V
0 1 V
0 8 V
1 2 V
1 14 V
7 265 V
2 70 V
0 25 V
1 3 V
0 -6 V
1 -32 V
0 -9 V
1 -40 V
8 -252 V
1 -21 V
1 -5 V
1 5 V
0 2 V
0 16 V
0 5 V
1 25 V
8 397 V
2 96 V
0 35 V
1 -1 V
0 -9 V
1 -48 V
0 -14 V
1 -62 V
8 -402 V
1 -37 V
0 -11 V
1 -5 V
0 1 V
1 8 V
0 2 V
1 14 V
8 248 V
1 63 V
1 24 V
1 -1 V
0 -6 V
0 -33 V
1 -9 V
0 -42 V
8 -253 V
2 -19 V
0 -5 V
1 5 V
0 2 V
1 15 V
0 5 V
1 24 V
8 399 V
1 97 V
0 36 V
1 2 V
1 -8 V
0 -45 V
0 -14 V
1 -58 V
8 -384 V
1 -37 V
1 -11 V
1 -4 V
0 1 V
1 10 V
0 3 V
1 15 V
7 263 V
2 65 V
0 24 V
1 -4 V
0 -7 V
1 -37 V
0 -11 V
1 -46 V
8 -286 V
1 -21 V
1 -5 V
1 3 V
0 2 V
0 12 V
0 4 V
1 21 V
8 371 V
2 93 V
0 34 V
1 4 V
0 -7 V
1 -40 V
0 -12 V
1 -52 V
8 -343 V
1 -33 V
0 -9 V
1 -2 V
0 2 V
1 12 V
0 4 V
1 19 V
8 303 V
1 73 V
1 26 V
1 -5 V
0 -7 V
0 -43 V
1 -12 V
0 -54 V
8 -333 V
2 -26 V
0 -7 V
1 -1 V
0 2 V
1 10 V
0 3 V
1 17 V
8 323 V
1 83 V
1 31 V
0 5 V
1 -7 V
0 -35 V
0 -10 V
1 -45 V
8 -295 V
1 -27 V
1 -8 V
1 2 V
0 2 V
1 15 V
0 4 V
1 23 V
2 83 V
6 323 V
1 61 V
1 -1 V
1 -33 V
1 -87 V
8 -363 V
1 -33 V
1 -10 V
1 -4 V
0 3 V
stroke 1552 522 M
11 351 V
0 13 V
1 1 V
0 -22 V
2 -61 V
2 -98 V
7 -167 V
0 -5 V
1 7 V
0 3 V
1 21 V
0 7 V
2 81 V
6 379 V
2 213 V
1 44 V
1 -14 V
0 -14 V
0 -86 V
1 -28 V
3 -430 V
1 -41 V
1 -39 V
0 3 V
1 13 V
0 3 V
3 55 V
1 12 V
1 13 V
0 14 V
2 52 V
1 14 V
0 15 V
1 24 V
1 16 V
6 227 V
2 74 V
2 90 V
1 85 V
4 206 V
1 73 V
1 45 V
0 20 V
2 94 V
1 119 V
1 28 V
0 35 V
2 -242 V
1 -129 V
1 -326 V
2 -213 V
1 34 V
1 86 V
1 13 V
0 -19 V
1 -52 V
3 -180 V
6 -262 V
3 -90 V
2 -32 V
6 -48 V
7 107 V
2 45 V
3 118 V
3 192 V
2 121 V
3 207 V
1 58 V
1 22 V
1 231 V
1 338 V
0 154 V
3 -110 V
1 -465 V
1 -147 V
1 -351 V
1 -41 V
0 -31 V
4 -267 V
0 -8 V
2 -91 V
1 -14 V
2 -79 V
3 -39 V
2 0 V
3 39 V
2 78 V
3 112 V
0 21 V
1 74 V
2 125 V
1 26 V
5 452 V
0 22 V
0 93 V
0 21 V
2 -66 V
0 -120 V
4 -701 V
0 -24 V
1 -68 V
0 -10 V
1 -60 V
0 -18 V
2 -38 V
7 327 V
2 129 V
0 22 V
0 68 V
0 10 V
1 19 V
1 -25 V
7 -295 V
2 -70 V
1 -29 V
1 -9 V
1 1 V
0 5 V
11 425 V
0 14 V
1 -6 V
0 -31 V
2 -86 V
8 -341 V
1 -29 V
1 -9 V
0 -2 V
1 13 V
7 179 V
2 114 V
1 45 V
0 10 V
1 36 V
0 6 V
1 2 V
0 -25 V
2 -68 V
8 -270 V
0 -15 V
1 -3 V
0 -9 V
0 -2 V
1 4 V
1 10 V
1 35 V
8 375 V
1 59 V
0 13 V
1 45 V
0 8 V
1 0 V
0 -34 V
1 -92 V
8 -378 V
1 -23 V
0 -5 V
1 -14 V
0 -2 V
1 -4 V
1 6 V
1 22 V
8 268 V
1 44 V
0 10 V
0 34 V
1 6 V
0 -1 V
1 -25 V
1 -71 V
8 -273 V
1 -15 V
0 -3 V
1 -8 V
0 -1 V
1 3 V
0 10 V
2 33 V
8 374 V
0 59 V
1 14 V
0 46 V
0 8 V
1 2 V
1 -32 V
1 -89 V
8 -363 V
1 -23 V
0 -5 V
1 -14 V
0 -2 V
1 -3 V
0 7 V
1 24 V
8 280 V
1 45 V
0 10 V
1 35 V
0 6 V
1 -3 V
1 -28 V
1 -77 V
8 -296 V
1 -16 V
0 -3 V
0 -9 V
1 -1 V
0 2 V
1 8 V
1 30 V
8 353 V
1 57 V
0 13 V
1 44 V
0 8 V
1 3 V
0 -29 V
2 -81 V
8 -334 V
0 -21 V
1 -4 V
0 -13 V
0 -2 V
1 -1 V
1 8 V
1 29 V
8 308 V
1 49 V
0 11 V
1 37 V
0 6 V
1 -3 V
0 -31 V
2 -84 V
7 -330 V
1 -19 V
0 -3 V
1 -11 V
0 -2 V
1 0 V
1 7 V
1 26 V
8 319 V
1 53 V
0 12 V
1 40 V
0 8 V
1 3 V
0 -27 V
1 -73 V
stroke 1964 864 M
8 -299 V
1 -19 V
0 -4 V
1 -11 V
0 -2 V
1 2 V
0 9 V
2 33 V
8 343 V
0 53 V
1 12 V
0 41 V
0 7 V
1 -3 V
1 -33 V
1 -91 V
8 -360 V
1 -21 V
0 -5 V
1 -12 V
0 -2 V
1 -3 V
0 6 V
2 23 V
7 288 V
1 48 V
1 10 V
0 37 V
0 7 V
1 2 V
1 -25 V
1 -69 V
8 -275 V
1 -16 V
0 -3 V
1 -10 V
0 -1 V
1 3 V
0 10 V
1 34 V
8 369 V
1 57 V
0 13 V
1 45 V
0 8 V
1 -2 V
0 -33 V
2 -93 V
8 -376 V
1 -23 V
0 -5 V
0 -14 V
0 -2 V
1 -3 V
1 5 V
1 22 V
8 271 V
1 44 V
0 10 V
1 35 V
0 6 V
1 0 V
0 -25 V
2 -69 V
2 -111 V
6 -174 V
1 -3 V
0 -9 V
0 -1 V
1 3 V
1 9 V
1 31 V
8 353 V
1 88 V
1 32 V
1 5 V
0 -15 V
11 -440 V
0 -5 V
1 -2 V
0 9 V
2 28 V
2 66 V
7 279 V
0 24 V
1 -18 V
0 -10 V
1 -64 V
0 -22 V
1 -122 V
8 -324 V
1 30 V
1 15 V
1 51 V
0 9 V
0 59 V
1 20 V
3 614 V
1 105 V
1 67 V
0 -18 V
1 -79 V
0 -21 V
2 -150 V
0 -36 V
1 -97 V
17 -507 V
4 117 V
4 211 V
1 50 V
2 127 V
0 31 V
0 41 V
2 353 V
1 148 V
1 469 V
3 103 V
0 -156 V
1 -344 V
1 -236 V
0 -22 V
1 -60 V
3 -212 V
6 -321 V
3 -120 V
1 -38 V
6 -105 V
0 -2 V
1 -8 V
7 58 V
2 28 V
3 95 V
6 274 V
3 187 V
0 53 V
1 20 V
1 -11 V
1 -85 V
0 -34 V
3 223 V
1 336 V
1 133 V
1 254 V
1 -33 V
0 -26 V
2 -111 V
2249 830 L
1 -29 V
2 -25 V
2 -36 V
0 -4 V
0 -19 V
1 -4 V
1 37 V
1 45 V
3 471 V
0 29 V
1 96 V
0 16 V
1 19 V
0 -49 V
3 -233 V
6 -426 V
2 -96 V
0 -9 V
0 -25 V
0 -4 V
1 -10 V
1 6 V
7 160 V
2 89 V
1 54 V
1 20 V
1 -6 V
0 -14 V
11 -381 V
0 -2 V
1 2 V
1 9 V
1 30 V
8 356 V
1 89 V
0 33 V
1 4 V
1 -7 V
0 -39 V
0 -12 V
7 -303 V
2 -77 V
1 -32 V
1 -10 V
1 0 V
0 2 V
1 13 V
0 4 V
1 20 V
7 317 V
2 76 V
0 27 V
1 -5 V
0 -8 V
1 -45 V
0 -13 V
1 -56 V
8 -350 V
1 -27 V
1 -8 V
1 -1 V
0 1 V
0 9 V
0 3 V
1 16 V
8 309 V
2 80 V
0 29 V
1 5 V
0 -6 V
1 -33 V
0 -10 V
1 -43 V
8 -279 V
1 -25 V
0 -8 V
1 3 V
0 3 V
1 15 V
0 5 V
1 24 V
8 369 V
1 88 V
1 32 V
1 -4 V
0 -9 V
0 -49 V
1 -14 V
0 -62 V
8 -393 V
2 -34 V
0 -10 V
1 -4 V
0 1 V
1 7 V
0 2 V
1 13 V
8 263 V
1 69 V
1 25 V
0 3 V
1 -6 V
0 -31 V
0 -9 V
1 -39 V
8 -247 V
1 -20 V
1 -5 V
1 5 V
0 3 V
1 16 V
0 5 V
1 26 V
8 404 V
1 97 V
0 35 V
1 -1 V
0 -9 V
1 -49 V
0 -15 V
1 -62 V
8 -411 V
1 -38 V
1 -11 V
1 -6 V
0 1 V
0 7 V
1 3 V
0 12 V
8 243 V
2 63 V
0 23 V
1 -1 V
0 -6 V
1 -32 V
0 -9 V
1 -41 V
8 -247 V
1 -18 V
0 -5 V
1 6 V
0 2 V
1 16 V
0 5 V
1 24 V
8 408 V
1 100 V
1 37 V
1 2 V
0 -8 V
0 -47 V
1 -14 V
1 -59 V
7 -394 V
2 -38 V
0 -11 V
1 -5 V
0 1 V
1 9 V
0 3 V
1 15 V
8 256 V
1 64 V
1 23 V
0 -4 V
1 -6 V
0 -37 V
0 -11 V
1 -46 V
8 -279 V
1 -20 V
1 -5 V
1 3 V
0 3 V
1 12 V
0 5 V
1 21 V
8 379 V
1 95 V
0 35 V
1 5 V
0 -8 V
1 -41 V
0 -12 V
1 -52 V
8 -350 V
1 -34 V
1 -10 V
1 -2 V
0 2 V
0 12 V
1 4 V
0 19 V
8 298 V
2 72 V
0 26 V
1 -5 V
0 -8 V
1 -43 V
0 -12 V
1 -54 V
8 -331 V
1 -26 V
0 -7 V
1 0 V
0 2 V
1 10 V
0 3 V
1 17 V
8 328 V
1 84 V
1 31 V
1 6 V
0 -7 V
0 -35 V
1 -10 V
1 -45 V
7 -296 V
2 -27 V
0 -8 V
1 2 V
0 2 V
1 14 V
0 5 V
1 23 V
2 83 V
7 324 V
1 61 V
1 -1 V
0 -31 V
1 -85 V
8 -358 V
2 -34 V
0 -10 V
1 -4 V
0 3 V
11 349 V
0 13 V
1 -2 V
1 -24 V
1 -66 V
2 -106 V
7 -176 V
1 -6 V
1 5 V
0 3 V
0 18 V
0 7 V
2 75 V
stroke 2648 625 M
6 363 V
3 206 V
0 44 V
1 -11 V
0 -13 V
1 -82 V
0 -27 V
4 -420 V
0 -39 V
1 -43 V
1 2 V
0 8 V
0 1 V
23 562 V
8 439 V
0 24 V
1 31 V
1 -185 V
1 -102 V
1 -260 V
3 -157 V
0 32 V
1 81 V
1 21 V
1 -15 V
0 -39 V
3 -139 V
6 -205 V
3 -73 V
2 -23 V
3 -44 V
1 -4 V
1 -4 V
2 -4 V
2 7 V
0 4 V
1 6 V
4 48 V
1 24 V
3 78 V
6 213 V
3 142 V
1 40 V
0 15 V
1 168 V
1 249 V
0 113 V
3 -91 V
1 -347 V
1 -109 V
2 -262 V
0 -32 V
1 -23 V
1 -102 V
1 -48 V
1 -5 V
1 -41 V
0 -5 V
1 -35 V
0 -4 V
1 -29 V
0 -3 V
1 -23 V
1 -17 V
4 -15 V
18 986 V
0 22 V
1 95 V
0 22 V
1 -75 V
1 -128 V
3 -747 V
1 -25 V
0 -71 V
0 -11 V
1 -62 V
1 -19 V
1 -39 V
8 343 V
1 134 V
0 24 V
1 71 V
0 10 V
1 20 V
0 -26 V
7 -307 V
2 -74 V
2 -32 V
0 -9 V
1 -1 V
0 5 V
1 24 V
0 -15 V
0 3 V
3 80 V
-1 -25 V
3 102 V
0 -12 V
-1 -12 V
3 126 V
0 -38 V
3 148 V
0 7 V
0 2 V
-1 -35 V
1 59 V
0 14 V
1 -6 V
1 -31 V
1 -86 V
0 1 V
8 -340 V
1 -29 V
1 -8 V
1 -2 V
1 12 V
6 180 V
2 115 V
1 46 V
0 10 V
1 37 V
0 6 V
1 2 V
1 -25 V
1 -67 V
8 -268 V
1 -15 V
0 -3 V
1 -9 V
0 -2 V
1 4 V
0 10 V
1 36 V
8 379 V
1 59 V
0 14 V
1 45 V
0 8 V
1 -1 V
0 -34 V
2 -94 V
8 -384 V
1 -24 V
0 -4 V
0 -15 V
0 -2 V
1 -4 V
1 5 V
1 22 V
8 263 V
1 43 V
0 10 V
1 34 V
0 6 V
1 -1 V
0 -25 V
2 -68 V
7 -266 V
1 -15 V
1 -2 V
0 -9 V
0 -1 V
1 4 V
1 10 V
1 35 V
8 382 V
1 61 V
0 13 V
1 47 V
0 8 V
1 2 V
0 -33 V
1 -91 V
8 -374 V
1 -24 V
0 -4 V
1 -15 V
0 -2 V
1 -4 V
0 7 V
2 23 V
8 271 V
1 44 V
0 10 V
0 33 V
0 6 V
1 -2 V
1 -28 V
1 -74 V
8 -287 V
1 -15 V
0 -3 V
1 -8 V
0 -2 V
1 3 V
0 9 V
2 31 V
8 364 V
0 59 V
1 13 V
0 46 V
0 8 V
1 3 V
1 -30 V
1 -83 V
8 -344 V
1 -23 V
0 -4 V
1 -14 V
0 -2 V
1 -1 V
0 8 V
1 27 V
8 300 V
1 46 V
0 11 V
1 36 V
0 7 V
1 -4 V
1 -31 V
1 -83 V
8 -322 V
1 -18 V
0 -3 V
0 -10 V
1 -2 V
1 8 V
1 26 V
8 330 V
1 54 V
0 12 V
1 42 V
0 7 V
1 4 V
0 -27 V
2 -75 V
8 -306 V
0 -19 V
1 -4 V
0 -12 V
0 -1 V
1 1 V
1 9 V
1 32 V
8 337 V
1 52 V
0 12 V
1 40 V
0 8 V
stroke 3056 1024 M
1 -4 V
0 -33 V
1 -91 V
8 -358 V
1 -21 V
0 -4 V
1 -12 V
0 -2 V
1 -2 V
1 6 V
1 22 V
8 293 V
1 48 V
0 11 V
0 37 V
1 7 V
0 3 V
1 -25 V
1 -69 V
8 -275 V
1 -16 V
0 -3 V
1 -10 V
0 -2 V
1 4 V
0 10 V
2 35 V
8 369 V
0 57 V
1 13 V
0 44 V
0 8 V
1 -2 V
1 -34 V
1 -94 V
8 -381 V
1 -23 V
0 -4 V
1 -14 V
0 -2 V
1 -4 V
0 5 V
2 21 V
7 268 V
1 45 V
0 10 V
1 34 V
0 6 V
1 1 V
1 -25 V
1 -67 V
2 -108 V
7 -171 V
0 -3 V
0 -8 V
1 -2 V
1 4 V
0 9 V
1 33 V
8 361 V
2 89 V
0 32 V
1 5 V
0 -15 V
11 -453 V
0 -5 V
1 -2 V
1 8 V
1 28 V
2 65 V
7 272 V
1 24 V
1 -18 V
0 -10 V
0 -64 V
0 -21 V
2 -120 V
7 -318 V
2 30 V
0 15 V
1 52 V
0 9 V
1 58 V
0 21 V
4 616 V
0 106 V
2 66 V
0 -17 V
0 -81 V
0 -18 V
6 -449 V
10 -364 V
13 421 V
2 120 V
0 32 V
1 42 V
1 362 V
1 153 V
1 482 V
3 105 V
0 -162 V
1 -355 V
1 -242 V
1 -23 V
1 -61 V
3 -218 V
5 -332 V
4 -124 V
1 -39 V
7 -120 V
7 57 V
1 28 V
3 96 V
6 278 V
3 191 V
1 55 V
0 20 V
1 -9 V
1 -84 V
1 -33 V
2 233 V
2 346 V
0 137 V
2 262 V
0 -33 V
1 -26 V
1 -113 V
2 -105 V
0 -27 V
8 -412 V
1 -21 V
4 -202 V
1 -18 V
0 -15 V
1 -17 V
6 -215 V
6 -122 V
0 -4 V
1 -20 V
0 -5 V
1 35 V
1 46 V
4 470 V
0 29 V
0 96 V
0 16 V
1 20 V
1 -48 V
2 -234 V
6 -429 V
2 -98 V
0 -9 V
1 -25 V
0 -4 V
1 -10 V
0 6 V
7 163 V
2 89 V
2 55 V
0 20 V
1 -6 V
0 -15 V
11 -391 V
0 -3 V
1 3 V
1 8 V
1 30 V
8 352 V
1 88 V
1 33 V
1 4 V
0 -6 V
0 -39 V
1 -11 V
6 -298 V
2 -76 V
2 -31 V
0 -9 V
1 0 V
0 2 V
1 13 V
0 5 V
1 20 V
8 325 V
1 77 V
1 28 V
1 -6 V
0 -8 V
0 -45 V
0 -14 V
1 -57 V
8 -357 V
2 -29 V
0 -7 V
1 -2 V
0 1 V
1 9 V
0 3 V
1 15 V
8 302 V
1 78 V
0 29 V
1 5 V
0 -6 V
1 -33 V
0 -9 V
1 -42 V
8 -273 V
1 -25 V
1 -7 V
1 3 V
0 3 V
0 15 V
1 5 V
0 25 V
8 376 V
2 89 V
0 32 V
1 -4 V
0 -8 V
1 -49 V
0 -15 V
1 -62 V
8 -398 V
1 -35 V
0 -10 V
1 -5 V
1 1 V
0 7 V
0 3 V
1 12 V
8 259 V
1 67 V
1 25 V
1 3 V
0 -6 V
1 -31 V
0 -9 V
1 -39 V
7 -244 V
2 -20 V
0 -6 V
1 6 V
0 3 V
1 16 V
0 5 V
1 26 V
8 408 V
1 97 V
stroke 3503 1081 M
1 36 V
1 0 V
0 -9 V
0 -50 V
0 -14 V
1 -63 V
8 -411 V
2 -38 V
0 -12 V
1 -5 V
0 1 V
1 7 V
0 3 V
1 12 V
8 242 V
1 62 V
0 23 V
1 -1 V
0 -6 V
1 -33 V
0 -9 V
1 -41 V
8 -249 V
1 -19 V
1 -4 V
1 5 V
0 3 V
0 15 V
1 4 V
0 25 V
8 406 V
2 99 V
0 37 V
1 3 V
0 -8 V
1 -46 V
0 -14 V
1 -58 V
8 -389 V
1 -38 V
1 -11 V
0 -4 V
1 1 V
0 10 V
0 3 V
1 15 V
8 261 V
1 64 V
1 24 V
1 -4 V
0 -7 V
1 -38 V
0 -10 V
1 -48 V
7 -286 V
2 -21 V
0 -5 V
1 3 V
0 2 V
1 12 V
0 4 V
1 21 V
8 372 V
1 93 V
1 34 V
1 6 V
0 -7 V
0 -41 V
0 -11 V
1 -52 V
8 -341 V
2 -33 V
0 -9 V
1 -2 V
0 2 V
1 13 V
0 4 V
1 19 V
8 307 V
1 73 V
0 27 V
1 -6 V
0 -8 V
1 -43 V
0 -13 V
1 -55 V
8 -339 V
1 -27 V
1 -7 V
1 -1 V
0 2 V
0 9 V
1 3 V
0 17 V
8 319 V
2 82 V
0 31 V
1 5 V
0 -6 V
1 -34 V
0 -11 V
1 -43 V
8 -288 V
1 -27 V
1 -8 V
0 3 V
1 2 V
0 15 V
0 5 V
1 24 V
3 85 V
6 330 V
1 63 V
1 -2 V
0 -33 V
2 -89 V
8 -372 V
1 -35 V
0 -10 V
1 -4 V
0 3 V
11 339 V
1 12 V
0 1 V
1 -22 V
1 -59 V
3 -97 V
6 -161 V
1 -6 V
1 8 V
0 3 V
1 21 V
0 7 V
2 83 V
5 385 V
3 216 V
0 46 V
1 -14 V
0 -14 V
1 -86 V
0 -28 V
4 -434 V
0 -41 V
2 -40 V
0 3 V
1 14 V
0 3 V
5 104 V
23 1050 V
2 120 V
0 27 V
1 36 V
2 -248 V
0 -132 V
1 -334 V
3 -219 V
1 34 V
1 86 V
1 12 V
0 -19 V
1 -53 V
3 -183 V
6 -266 V
3 -92 V
1 -33 V
7 -48 V
% End plot #1
% Begin plot #2
stroke
LTb
0.00 0.00 1.00 C LCb setrgbcolor
1946 2180 M
[ [(Symbol) 140.0 0.0 true true 0 (b)]
[(roman) 112.0 -42.0 true true 0 (y)]
] -32.7 MRshow
1.000 UL
LTb
0.00 0.00 1.00 C 2030 2180 M
147 0 V
588 498 M
7 119 V
1 39 V
3 125 V
2 94 V
2 84 V
2 154 V
3 219 V
1 62 V
0 23 V
1 -29 V
1 -124 V
1 -49 V
3 232 V
1 392 V
0 155 V
2 286 V
0 -44 V
1 -34 V
2 -149 V
14 -929 V
2 -91 V
7 -275 V
5 -128 V
0 -4 V
1 -15 V
0 -3 V
2 26 V
0 32 V
4 339 V
0 21 V
1 68 V
0 11 V
1 7 V
0 -37 V
2 -127 V
7 -384 V
1 -36 V
0 -5 V
1 -12 V
0 -2 V
1 3 V
1 10 V
6 267 V
3 153 V
1 94 V
1 35 V
0 5 V
1 -16 V
9 -433 V
2 -44 V
0 -5 V
1 -3 V
0 9 V
1 29 V
8 280 V
2 66 V
0 24 V
1 -10 V
0 -18 V
2 -82 V
0 -43 V
1 -33 V
0 -39 V
1 -30 V
1 -34 V
0 -27 V
1 -30 V
1 -57 V
3 -71 V
1 -17 V
0 -4 V
0 -9 V
1 -2 V
1 0 V
0 6 V
1 23 V
8 327 V
1 56 V
0 12 V
1 44 V
0 7 V
1 5 V
0 -27 V
2 -75 V
8 -301 V
0 -18 V
1 -3 V
0 -11 V
0 -2 V
1 1 V
1 8 V
1 29 V
8 318 V
1 50 V
0 11 V
1 39 V
0 7 V
1 -5 V
0 -33 V
2 -91 V
7 -344 V
1 -17 V
0 -4 V
1 -9 V
0 -2 V
1 0 V
1 5 V
1 23 V
8 323 V
1 55 V
0 12 V
1 43 V
0 8 V
1 5 V
0 -27 V
1 -75 V
8 -297 V
1 -18 V
0 -3 V
1 -11 V
0 -1 V
1 1 V
0 8 V
2 29 V
8 322 V
1 51 V
0 11 V
0 39 V
0 7 V
1 -5 V
1 -33 V
1 -91 V
8 -348 V
1 -18 V
0 -3 V
1 -10 V
0 -1 V
1 -1 V
0 5 V
2 23 V
7 318 V
1 55 V
1 12 V
0 42 V
0 8 V
1 5 V
1 -27 V
1 -74 V
8 -294 V
1 -17 V
0 -4 V
1 -10 V
0 -2 V
1 2 V
0 8 V
1 29 V
8 326 V
1 51 V
0 12 V
1 40 V
0 7 V
1 -5 V
0 -33 V
2 -92 V
8 -350 V
1 -18 V
0 -4 V
0 -10 V
0 -1 V
1 -2 V
1 6 V
1 22 V
8 315 V
1 53 V
0 12 V
1 42 V
0 7 V
1 5 V
0 -26 V
2 -73 V
7 -291 V
1 -17 V
1 -4 V
0 -10 V
0 -1 V
1 1 V
1 8 V
1 30 V
8 329 V
1 51 V
0 12 V
1 40 V
0 7 V
1 -4 V
0 -34 V
1 -92 V
8 -352 V
1 -18 V
0 -4 V
1 -10 V
0 -2 V
1 -1 V
0 5 V
2 22 V
8 311 V
1 53 V
0 12 V
0 42 V
1 7 V
0 5 V
1 -27 V
1 -72 V
8 -289 V
1 -17 V
0 -3 V
1 -10 V
0 -2 V
1 2 V
0 8 V
2 30 V
8 331 V
0 52 V
1 12 V
0 40 V
0 7 V
1 -4 V
1 -34 V
1 -92 V
8 -353 V
1 -19 V
0 -3 V
1 -11 V
0 -1 V
1 -2 V
0 6 V
1 21 V
8 309 V
1 53 V
0 12 V
1 41 V
0 7 V
1 5 V
1 -27 V
1 -72 V
8 -286 V
1 -17 V
0 -3 V
stroke 991 528 M
0 -10 V
1 -2 V
0 2 V
1 8 V
1 30 V
3 76 V
6 310 V
0 12 V
1 40 V
0 7 V
1 -1 V
0 -30 V
2 -85 V
8 -339 V
1 -30 V
0 -8 V
1 -3 V
1 3 V
11 364 V
0 13 V
1 4 V
0 -20 V
1 -55 V
3 -90 V
7 -159 V
0 -6 V
1 10 V
0 4 V
1 26 V
0 10 V
1 66 V
7 655 V
2 206 V
0 61 V
1 -14 V
0 -18 V
1 -112 V
0 -36 V
4 -573 V
0 -55 V
2 -55 V
0 4 V
1 17 V
0 3 V
27 1054 V
1 63 V
2 109 V
1 25 V
0 32 V
2 -266 V
0 -136 V
1 -346 V
3 -222 V
1 37 V
1 91 V
1 14 V
0 -20 V
1 -55 V
3 -192 V
6 -276 V
3 -94 V
8 -76 V
1 4 V
1 11 V
0 2 V
1 17 V
4 103 V
1 39 V
3 132 V
6 348 V
3 228 V
1 64 V
0 24 V
1 244 V
1 351 V
1 159 V
3 -78 V
1 -466 V
0 -149 V
2 -341 V
1 -32 V
0 -24 V
2 -104 V
23 -479 V
1 17 V
2 52 V
2 64 V
0 7 V
1 30 V
0 7 V
2 -9 V
0 -33 V
4 -194 V
0 -7 V
1 -19 V
0 -3 V
1 -11 V
3 21 V
5 194 V
2 107 V
0 12 V
1 39 V
0 7 V
1 4 V
1 -23 V
6 -247 V
3 -47 V
1 -15 V
1 -4 V
0 4 V
1 5 V
1 25 V
-1 -16 V
0 4 V
3 90 V
-1 -29 V
3 116 V
0 -13 V
0 -14 V
3 140 V
-1 -40 V
3 157 V
0 8 V
0 2 V
-1 -37 V
2 63 V
0 15 V
1 -5 V
0 -32 V
1 -85 V
8 -335 V
2 -27 V
0 -7 V
1 -1 V
0 1 V
1 9 V
0 3 V
6 192 V
3 124 V
1 79 V
1 29 V
0 1 V
1 -6 V
0 -38 V
0 -10 V
1 -47 V
8 -293 V
1 -23 V
1 -7 V
1 2 V
0 2 V
1 11 V
0 4 V
1 19 V
8 331 V
1 83 V
0 30 V
1 -2 V
0 -8 V
1 -43 V
0 -13 V
1 -54 V
8 -341 V
1 -27 V
1 -7 V
1 -1 V
0 1 V
0 9 V
1 3 V
0 15 V
8 299 V
2 78 V
0 29 V
1 2 V
0 -7 V
1 -37 V
0 -11 V
1 -46 V
8 -291 V
1 -24 V
0 -6 V
1 1 V
0 2 V
1 12 V
0 4 V
1 19 V
8 333 V
1 83 V
1 30 V
1 -1 V
0 -8 V
0 -44 V
1 -12 V
1 -55 V
7 -342 V
2 -27 V
0 -7 V
1 -2 V
0 1 V
1 9 V
0 3 V
1 15 V
8 298 V
1 78 V
1 28 V
1 2 V
0 -7 V
0 -37 V
0 -10 V
1 -47 V
8 -290 V
2 -23 V
0 -6 V
1 1 V
0 2 V
1 11 V
0 4 V
1 19 V
8 335 V
1 83 V
0 31 V
1 -2 V
0 -8 V
1 -43 V
0 -13 V
1 -55 V
8 -341 V
1 -28 V
1 -7 V
1 -2 V
0 2 V
0 8 V
1 3 V
0 15 V
8 296 V
2 77 V
0 28 V
1 2 V
0 -7 V
1 -37 V
0 -11 V
1 -46 V
8 -289 V
1 -23 V
0 -6 V
1 1 V
1 2 V
0 11 V
0 4 V
stroke 1416 521 M
1 19 V
8 337 V
1 83 V
1 31 V
1 -1 V
0 -8 V
1 -43 V
0 -13 V
1 -55 V
7 -343 V
2 -27 V
0 -8 V
1 -2 V
0 2 V
1 8 V
0 3 V
1 15 V
8 295 V
1 77 V
1 28 V
1 1 V
0 -7 V
0 -37 V
0 -10 V
1 -47 V
8 -289 V
2 -22 V
0 -7 V
1 2 V
0 2 V
1 12 V
0 3 V
1 20 V
8 337 V
1 84 V
0 31 V
1 -1 V
0 -8 V
1 -43 V
0 -13 V
1 -55 V
8 -342 V
1 -28 V
1 -8 V
1 -1 V
0 1 V
0 8 V
1 3 V
0 15 V
8 293 V
2 76 V
0 28 V
1 1 V
0 -6 V
1 -37 V
0 -11 V
1 -47 V
8 -288 V
1 -23 V
1 -6 V
0 2 V
1 2 V
0 11 V
0 4 V
1 19 V
8 339 V
1 85 V
1 32 V
1 -1 V
0 -8 V
1 -43 V
0 -13 V
1 -55 V
2 -140 V
6 -222 V
1 -17 V
1 -2 V
1 5 V
1 21 V
8 281 V
1 73 V
1 27 V
1 5 V
0 -12 V
11 -349 V
0 -3 V
1 2 V
0 10 V
2 33 V
2 80 V
7 343 V
0 29 V
1 -15 V
0 -11 V
1 -63 V
0 -19 V
2 -173 V
6 -304 V
2 -27 V
1 1 V
1 14 V
0 3 V
0 22 V
1 8 V
3 258 V
1 46 V
1 32 V
0 -7 V
1 -32 V
0 -8 V
3 -107 V
1 -16 V
1 -15 V
0 -14 V
2 -39 V
1 -7 V
0 -7 V
1 -9 V
1 -5 V
6 0 V
2 19 V
2 31 V
1 36 V
4 107 V
1 44 V
1 28 V
0 13 V
2 62 V
1 84 V
1 20 V
0 26 V
2 275 V
1 121 V
1 379 V
2 59 V
1 -131 V
1 -288 V
1 -200 V
0 -20 V
1 -53 V
3 -187 V
6 -275 V
3 -97 V
2 -35 V
6 -58 V
7 98 V
2 44 V
3 115 V
3 189 V
2 121 V
3 205 V
1 58 V
1 22 V
1 -27 V
1 -114 V
0 -46 V
3 225 V
1 375 V
1 148 V
1 275 V
1 -41 V
0 -32 V
4 -311 V
0 -12 V
2 -136 V
1 -25 V
2 -164 V
3 -149 V
2 -137 V
3 -122 V
2 -109 V
3 -91 V
0 -13 V
1 -41 V
2 -54 V
1 -9 V
5 -107 V
0 -3 V
0 -15 V
0 -3 V
2 27 V
0 34 V
4 358 V
0 23 V
1 71 V
0 12 V
1 9 V
0 -39 V
2 -132 V
7 -405 V
2 -39 V
0 -5 V
0 -14 V
0 -2 V
1 2 V
1 10 V
7 258 V
2 148 V
1 90 V
1 33 V
1 4 V
0 -16 V
11 -473 V
0 -6 V
1 -3 V
0 8 V
2 27 V
8 272 V
1 65 V
1 24 V
0 -9 V
1 -62 V
7 -311 V
2 -67 V
1 -16 V
0 -3 V
1 -9 V
0 -1 V
1 0 V
0 7 V
2 25 V
8 335 V
0 55 V
1 13 V
0 44 V
0 8 V
1 4 V
1 -29 V
1 -78 V
8 -313 V
1 -19 V
0 -4 V
1 -11 V
0 -2 V
1 0 V
0 7 V
1 27 V
8 305 V
1 49 V
0 11 V
1 37 V
0 7 V
1 -4 V
1 -32 V
1 -86 V
8 -327 V
1 -16 V
0 -3 V
0 -9 V
stroke 1837 482 M
1 -2 V
0 1 V
1 6 V
1 25 V
8 333 V
1 55 V
0 13 V
1 44 V
0 8 V
1 4 V
0 -29 V
2 -77 V
8 -312 V
0 -18 V
1 -4 V
0 -11 V
0 -2 V
1 0 V
1 8 V
1 27 V
8 307 V
1 49 V
0 11 V
1 38 V
0 7 V
1 -5 V
0 -32 V
1 -87 V
8 -328 V
1 -17 V
0 -3 V
1 -9 V
0 -2 V
1 0 V
1 7 V
1 24 V
8 331 V
1 56 V
0 12 V
0 44 V
1 8 V
0 4 V
1 -28 V
1 -77 V
8 -309 V
1 -19 V
0 -3 V
1 -11 V
0 -2 V
1 0 V
0 7 V
2 28 V
8 309 V
0 49 V
1 11 V
0 38 V
0 7 V
1 -4 V
1 -32 V
1 -88 V
8 -331 V
1 -17 V
0 -3 V
1 -10 V
0 -1 V
1 0 V
0 6 V
2 24 V
7 329 V
1 56 V
0 12 V
1 43 V
0 8 V
1 5 V
1 -28 V
1 -77 V
8 -306 V
1 -19 V
0 -3 V
1 -11 V
0 -2 V
1 0 V
0 8 V
1 28 V
8 311 V
1 50 V
0 11 V
1 38 V
0 7 V
1 -4 V
0 -32 V
2 -89 V
8 -334 V
0 -17 V
1 -3 V
0 -9 V
0 -2 V
1 0 V
1 6 V
1 24 V
8 326 V
1 55 V
0 13 V
1 43 V
0 7 V
1 5 V
0 -28 V
2 -76 V
7 -304 V
1 -18 V
1 -4 V
0 -10 V
0 -2 V
1 0 V
1 8 V
1 28 V
8 314 V
1 50 V
0 12 V
1 38 V
0 7 V
1 -4 V
0 -32 V
1 -89 V
8 -337 V
1 -17 V
0 -4 V
1 -9 V
0 -2 V
1 0 V
0 6 V
2 23 V
8 324 V
1 55 V
0 12 V
0 43 V
0 7 V
1 5 V
1 -28 V
1 -76 V
8 -301 V
1 -18 V
0 -3 V
1 -11 V
0 -2 V
1 1 V
0 8 V
2 28 V
2 71 V
6 296 V
1 11 V
0 39 V
0 7 V
1 -1 V
1 -29 V
1 -81 V
8 -322 V
1 -27 V
1 -8 V
1 -2 V
0 4 V
11 382 V
0 14 V
1 5 V
0 -21 V
2 -58 V
2 -95 V
7 -169 V
0 -6 V
1 8 V
0 4 V
1 26 V
0 9 V
1 65 V
8 638 V
1 200 V
1 59 V
1 -15 V
0 -18 V
0 -109 V
1 -36 V
3 -561 V
1 -54 V
1 -54 V
0 4 V
1 16 V
0 4 V
2 29 V
0 8 V
1 25 V
17 552 V
4 209 V
4 230 V
1 45 V
2 108 V
0 25 V
0 32 V
2 -261 V
1 -134 V
1 -340 V
3 -218 V
0 36 V
1 90 V
1 14 V
0 -20 V
1 -54 V
3 -186 V
6 -270 V
3 -92 V
1 -27 V
6 -52 V
1 4 V
7 130 V
2 41 V
3 129 V
6 338 V
3 222 V
0 63 V
1 23 V
1 239 V
1 346 V
0 157 V
3 -77 V
1 -457 V
1 -146 V
1 -335 V
1 -32 V
0 -25 V
2 -103 V
24 -436 V
1 27 V
2 32 V
2 60 V
0 7 V
0 31 V
1 7 V
1 -11 V
1 -35 V
3 -203 V
0 -7 V
1 -20 V
0 -3 V
1 -12 V
3 19 V
6 193 V
2 109 V
0 12 V
0 39 V
0 7 V
stroke 2273 831 M
1 6 V
1 -22 V
7 -240 V
2 -46 V
1 -16 V
1 -4 V
1 4 V
0 5 V
11 511 V
0 18 V
1 1 V
1 -32 V
1 -88 V
8 -362 V
1 -33 V
0 -10 V
1 -4 V
1 1 V
0 8 V
0 3 V
7 165 V
2 103 V
1 64 V
1 24 V
1 -5 V
0 -7 V
1 -38 V
0 -11 V
1 -48 V
7 -279 V
2 -17 V
0 -4 V
1 4 V
0 1 V
1 13 V
0 4 V
1 20 V
8 392 V
1 100 V
1 37 V
1 4 V
0 -7 V
0 -44 V
0 -13 V
1 -56 V
8 -366 V
2 -34 V
0 -9 V
1 -4 V
0 1 V
1 9 V
0 2 V
1 15 V
8 257 V
1 65 V
0 24 V
1 -5 V
0 -7 V
1 -39 V
0 -11 V
1 -48 V
8 -284 V
1 -18 V
1 -4 V
1 4 V
0 2 V
0 11 V
1 4 V
0 21 V
8 387 V
2 100 V
0 36 V
1 5 V
0 -7 V
1 -44 V
0 -12 V
1 -56 V
8 -360 V
1 -34 V
1 -9 V
0 -4 V
1 2 V
0 8 V
0 3 V
1 15 V
8 261 V
1 66 V
1 24 V
1 -6 V
0 -7 V
1 -39 V
0 -11 V
1 -49 V
8 -289 V
1 -19 V
0 -4 V
1 3 V
0 2 V
1 12 V
0 4 V
1 20 V
8 384 V
1 98 V
1 37 V
1 5 V
0 -7 V
0 -43 V
1 -13 V
0 -54 V
8 -356 V
2 -33 V
0 -10 V
1 -3 V
0 1 V
1 9 V
0 3 V
1 15 V
8 265 V
1 67 V
0 24 V
1 -5 V
0 -8 V
1 -39 V
0 -12 V
1 -50 V
8 -293 V
1 -19 V
1 -5 V
1 3 V
0 2 V
0 11 V
1 4 V
1 20 V
7 381 V
2 98 V
0 36 V
1 6 V
0 -8 V
1 -42 V
0 -12 V
1 -54 V
8 -352 V
1 -32 V
1 -10 V
0 -3 V
1 2 V
0 9 V
0 3 V
1 15 V
8 269 V
1 67 V
1 25 V
1 -6 V
0 -7 V
1 -41 V
0 -11 V
1 -51 V
8 -298 V
1 -20 V
0 -4 V
1 3 V
0 1 V
1 11 V
0 4 V
1 19 V
8 377 V
1 97 V
1 36 V
1 6 V
0 -8 V
0 -42 V
1 -12 V
0 -53 V
8 -347 V
2 -32 V
0 -9 V
1 -3 V
0 2 V
1 9 V
0 3 V
1 16 V
8 273 V
1 68 V
0 25 V
1 -6 V
0 -7 V
1 -41 V
0 -12 V
1 -51 V
8 -303 V
1 -19 V
1 -5 V
1 2 V
0 2 V
0 11 V
1 3 V
1 19 V
7 372 V
2 97 V
0 35 V
1 6 V
0 -7 V
1 -41 V
0 -13 V
1 -52 V
2 -135 V
7 -228 V
1 -20 V
1 -3 V
0 6 V
1 21 V
8 255 V
2 64 V
0 23 V
1 -1 V
0 -13 V
11 -361 V
0 -3 V
1 2 V
1 9 V
1 29 V
2 76 V
7 341 V
1 30 V
1 -10 V
0 -9 V
0 -58 V
0 -19 V
2 -164 V
6 -287 V
3 -26 V
0 1 V
1 14 V
0 3 V
1 22 V
0 8 V
4 258 V
0 45 V
1 31 V
1 -7 V
0 -31 V
0 -7 V
23 -113 V
8 275 V
0 18 V
1 23 V
1 248 V
1 110 V
1 342 V
stroke 2700 1668 M
3 57 V
0 -118 V
1 -259 V
1 -179 V
1 -17 V
0 -47 V
3 -165 V
6 -243 V
3 -86 V
2 -27 V
3 -50 V
1 -5 V
1 -4 V
2 -3 V
2 10 V
0 5 V
1 7 V
4 62 V
1 30 V
3 96 V
6 261 V
3 173 V
1 50 V
0 18 V
1 -26 V
1 -102 V
0 -41 V
3 189 V
1 321 V
1 127 V
2 236 V
0 -35 V
1 -28 V
1 -125 V
1 -66 V
1 -7 V
1 -64 V
0 -7 V
1 -62 V
0 -7 V
1 -60 V
0 -6 V
1 -58 V
1 -52 V
4 -200 V
18 -518 V
0 -3 V
1 -13 V
0 -3 V
1 33 V
1 37 V
3 387 V
1 25 V
0 75 V
0 11 V
1 4 V
1 -44 V
1 -149 V
8 -447 V
1 -40 V
0 -5 V
1 -15 V
0 -2 V
1 -1 V
0 7 V
7 217 V
2 133 V
2 84 V
0 30 V
1 7 V
0 -13 V
1 -53 V
0 31 V
0 -7 V
3 -136 V
-1 35 V
3 -124 V
0 12 V
-1 12 V
3 -107 V
0 27 V
3 -87 V
0 -3 V
0 -1 V
-1 16 V
1 -26 V
0 -5 V
1 -3 V
1 7 V
1 24 V
8 265 V
1 65 V
1 24 V
1 -4 V
1 -55 V
6 -277 V
2 -62 V
1 -15 V
0 -3 V
1 -8 V
0 -2 V
1 2 V
1 8 V
1 29 V
0 1 V
8 346 V
1 55 V
0 13 V
1 43 V
0 8 V
1 -1 V
0 -32 V
1 -89 V
8 -348 V
1 -20 V
0 -4 V
1 -11 V
0 -2 V
1 -2 V
0 6 V
2 21 V
8 289 V
1 47 V
0 11 V
0 38 V
0 7 V
1 0 V
1 -27 V
1 -74 V
8 -285 V
1 -16 V
0 -3 V
1 -8 V
0 -1 V
1 2 V
0 8 V
2 29 V
7 345 V
1 56 V
1 12 V
0 43 V
0 8 V
1 0 V
1 -33 V
1 -88 V
8 -348 V
1 -20 V
0 -4 V
1 -11 V
0 -2 V
1 -2 V
0 6 V
1 21 V
8 289 V
1 48 V
0 11 V
1 37 V
0 7 V
1 0 V
0 -27 V
2 -74 V
8 -286 V
1 -15 V
0 -3 V
0 -8 V
0 -2 V
1 2 V
1 8 V
1 30 V
8 345 V
1 56 V
0 13 V
1 43 V
0 8 V
1 -1 V
0 -32 V
2 -89 V
8 -348 V
0 -19 V
1 -4 V
0 -12 V
0 -1 V
1 -3 V
1 6 V
1 22 V
8 287 V
1 48 V
0 11 V
1 37 V
0 7 V
1 0 V
0 -27 V
1 -74 V
8 -286 V
1 -15 V
0 -3 V
1 -8 V
0 -1 V
1 2 V
1 8 V
1 29 V
8 346 V
1 56 V
0 13 V
0 43 V
1 8 V
0 -1 V
1 -32 V
1 -88 V
8 -348 V
1 -20 V
0 -4 V
1 -11 V
0 -2 V
1 -2 V
0 6 V
2 21 V
8 287 V
0 48 V
1 11 V
0 37 V
0 7 V
1 0 V
1 -27 V
1 -75 V
8 -285 V
1 -15 V
0 -3 V
1 -8 V
0 -2 V
1 2 V
0 8 V
1 29 V
8 347 V
1 56 V
0 13 V
1 43 V
0 8 V
1 0 V
1 -33 V
1 -88 V
8 -347 V
1 -20 V
0 -4 V
0 -11 V
1 -2 V
0 -2 V
1 5 V
1 22 V
stroke 3083 523 M
8 287 V
1 47 V
0 11 V
1 37 V
0 7 V
1 0 V
0 -27 V
2 -75 V
8 -286 V
0 -15 V
1 -3 V
0 -8 V
0 -1 V
1 2 V
1 8 V
1 29 V
8 346 V
1 56 V
0 13 V
1 44 V
0 7 V
1 0 V
0 -32 V
2 -88 V
7 -347 V
1 -20 V
0 -3 V
1 -12 V
0 -2 V
1 -2 V
1 6 V
1 22 V
2 60 V
7 273 V
0 11 V
0 37 V
1 7 V
1 3 V
0 -25 V
1 -68 V
8 -270 V
2 -23 V
0 -6 V
1 2 V
0 4 V
11 444 V
0 16 V
1 2 V
1 -25 V
1 -72 V
2 -116 V
7 -213 V
1 -9 V
1 3 V
0 3 V
0 21 V
0 8 V
2 54 V
7 531 V
2 166 V
0 49 V
1 -14 V
0 -15 V
1 -94 V
0 -31 V
4 -478 V
0 -46 V
2 -46 V
0 3 V
0 13 V
0 3 V
6 100 V
10 311 V
13 682 V
2 101 V
0 26 V
1 33 V
1 -241 V
1 -127 V
1 -321 V
3 -196 V
0 38 V
1 96 V
1 21 V
1 -19 V
1 -51 V
3 -176 V
5 -261 V
4 -93 V
1 -28 V
7 -68 V
7 89 V
1 32 V
3 102 V
6 278 V
3 186 V
1 52 V
0 20 V
1 199 V
1 287 V
1 130 V
2 -62 V
2 -379 V
0 -122 V
2 -276 V
0 -25 V
1 -20 V
1 -82 V
2 -72 V
0 -18 V
8 -222 V
1 -8 V
4 -53 V
1 -2 V
0 -2 V
1 -1 V
6 48 V
6 125 V
0 6 V
1 29 V
0 7 V
1 -17 V
1 -38 V
4 -218 V
0 -7 V
0 -20 V
0 -3 V
1 -14 V
1 -1 V
2 20 V
6 220 V
2 126 V
0 13 V
1 46 V
0 8 V
1 10 V
0 -22 V
7 -253 V
2 -55 V
2 -20 V
0 -6 V
1 3 V
0 5 V
11 468 V
0 16 V
1 -3 V
1 -33 V
1 -89 V
8 -357 V
1 -30 V
1 -8 V
1 -3 V
0 1 V
0 7 V
1 3 V
6 173 V
2 113 V
2 71 V
0 26 V
1 0 V
0 -7 V
1 -35 V
0 -11 V
1 -45 V
8 -272 V
1 -20 V
1 -5 V
1 3 V
0 2 V
0 12 V
0 5 V
1 20 V
8 362 V
2 91 V
0 33 V
1 0 V
0 -8 V
1 -45 V
0 -13 V
1 -57 V
8 -362 V
1 -30 V
0 -9 V
1 -3 V
0 1 V
1 8 V
0 3 V
1 14 V
8 271 V
1 71 V
1 26 V
1 0 V
0 -6 V
0 -36 V
1 -11 V
0 -44 V
8 -274 V
2 -19 V
0 -6 V
1 3 V
0 2 V
1 13 V
0 4 V
1 20 V
8 363 V
1 90 V
0 34 V
1 0 V
1 -8 V
0 -45 V
0 -13 V
1 -57 V
8 -361 V
1 -30 V
1 -9 V
1 -3 V
0 1 V
1 8 V
0 3 V
1 13 V
7 272 V
2 70 V
0 26 V
1 0 V
0 -6 V
1 -36 V
0 -11 V
1 -45 V
8 -273 V
1 -20 V
1 -5 V
1 3 V
0 2 V
0 12 V
0 4 V
1 20 V
8 363 V
2 91 V
0 33 V
1 1 V
0 -8 V
1 -45 V
0 -13 V
1 -57 V
8 -360 V
1 -30 V
0 -9 V
1 -3 V
0 1 V
stroke 3529 500 M
1 8 V
0 3 V
1 14 V
8 271 V
1 70 V
1 26 V
1 0 V
0 -7 V
0 -36 V
1 -10 V
0 -45 V
8 -275 V
2 -20 V
0 -5 V
1 3 V
0 2 V
1 12 V
0 4 V
1 21 V
8 362 V
1 91 V
1 33 V
0 1 V
1 -8 V
0 -45 V
0 -13 V
1 -56 V
8 -360 V
1 -30 V
1 -9 V
1 -3 V
0 1 V
1 8 V
0 3 V
1 14 V
7 272 V
2 70 V
0 26 V
1 -1 V
0 -6 V
1 -36 V
0 -11 V
1 -45 V
8 -275 V
1 -20 V
1 -5 V
1 3 V
0 2 V
0 12 V
0 4 V
1 20 V
8 362 V
2 91 V
0 34 V
1 0 V
0 -8 V
1 -44 V
0 -13 V
1 -56 V
8 -359 V
1 -30 V
0 -9 V
1 -3 V
0 1 V
1 8 V
0 3 V
1 14 V
8 272 V
1 70 V
1 26 V
1 -1 V
0 -6 V
0 -37 V
1 -10 V
0 -46 V
8 -276 V
2 -20 V
0 -5 V
1 3 V
0 2 V
1 12 V
0 4 V
1 20 V
8 362 V
1 91 V
1 33 V
0 1 V
1 -8 V
0 -44 V
0 -13 V
1 -56 V
3 -144 V
6 -234 V
1 -18 V
1 -4 V
0 5 V
2 19 V
8 260 V
1 68 V
0 25 V
1 3 V
0 -12 V
11 -335 V
1 -3 V
0 4 V
1 10 V
1 33 V
3 81 V
6 354 V
1 31 V
1 -14 V
0 -11 V
1 -62 V
0 -19 V
2 -173 V
5 -307 V
3 -31 V
0 1 V
1 13 V
0 2 V
1 21 V
0 7 V
4 243 V
0 43 V
2 31 V
0 -7 V
1 -30 V
0 -6 V
5 -146 V
23 306 V
2 84 V
0 20 V
1 26 V
2 281 V
0 124 V
1 388 V
3 58 V
1 -135 V
1 -296 V
1 -206 V
0 -21 V
1 -56 V
3 -195 V
6 -286 V
3 -100 V
1 -35 V
7 -57 V
% End plot #2
% Begin plot #3
stroke
LTb
0.00 0.00 0.00 C LCb setrgbcolor
2681 2180 M
[ [(Symbol) 140.0 0.0 true true 0 (h)]
[(roman) 112.0 -42.0 true true 0 (x)]
] -32.7 MRshow
1.000 UL
LTb
0.00 0.00 0.00 C 2765 2180 M
147 0 V
588 797 M
7 22 V
1 4 V
3 -18 V
2 -27 V
2 -22 V
2 -35 V
3 -22 V
1 0 V
1 -5 V
1 -8 V
1 -3 V
3 8 V
1 14 V
0 6 V
2 16 V
0 3 V
1 2 V
2 10 V
14 83 V
2 11 V
7 43 V
5 33 V
0 1 V
1 5 V
0 1 V
2 -7 V
0 -9 V
4 -72 V
0 -4 V
1 -12 V
0 -2 V
1 -16 V
0 -7 V
2 -24 V
7 14 V
1 21 V
0 4 V
1 11 V
0 2 V
1 13 V
1 4 V
6 69 V
3 39 V
1 29 V
1 9 V
0 26 V
1 11 V
9 413 V
2 71 V
0 11 V
1 5 V
0 -15 V
1 -45 V
8 -121 V
2 4 V
0 1 V
1 31 V
0 16 V
2 75 V
0 44 V
1 35 V
0 43 V
1 36 V
1 43 V
0 35 V
1 43 V
1 95 V
3 174 V
1 64 V
0 15 V
0 47 V
1 8 V
1 1 V
0 -35 V
1 -100 V
8 -454 V
1 -35 V
0 -7 V
1 -25 V
0 -4 V
1 1 V
0 19 V
2 56 V
8 475 V
0 67 V
1 15 V
0 48 V
0 9 V
1 0 V
1 -35 V
1 -102 V
8 -465 V
1 -36 V
0 -7 V
1 -26 V
0 -5 V
1 1 V
0 19 V
2 57 V
7 474 V
1 68 V
0 14 V
1 49 V
0 9 V
1 0 V
1 -36 V
1 -104 V
8 -476 V
1 -37 V
0 -8 V
1 -26 V
0 -5 V
1 -1 V
0 19 V
1 54 V
8 463 V
1 66 V
0 14 V
1 48 V
0 9 V
1 -1 V
0 -36 V
2 -103 V
8 -473 V
1 -36 V
0 -8 V
0 -27 V
0 -4 V
1 -2 V
1 18 V
1 53 V
8 450 V
1 65 V
0 14 V
1 47 V
0 9 V
1 0 V
0 -35 V
2 -100 V
7 -451 V
1 -34 V
1 -8 V
0 -24 V
0 -5 V
1 1 V
1 20 V
1 56 V
8 472 V
1 67 V
0 14 V
1 49 V
0 9 V
1 0 V
0 -35 V
1 -101 V
8 -462 V
1 -35 V
0 -8 V
1 -26 V
0 -4 V
1 1 V
0 19 V
2 56 V
8 476 V
1 67 V
0 15 V
0 49 V
0 9 V
1 0 V
1 -36 V
1 -104 V
8 -475 V
1 -36 V
0 -8 V
1 -27 V
0 -4 V
1 -1 V
0 19 V
2 54 V
7 465 V
1 66 V
1 14 V
0 48 V
0 9 V
1 -1 V
1 -35 V
1 -103 V
8 -471 V
1 -37 V
0 -8 V
1 -26 V
0 -4 V
1 -1 V
0 18 V
1 53 V
8 458 V
1 65 V
0 14 V
1 48 V
0 8 V
1 0 V
0 -35 V
2 -101 V
8 -460 V
1 -35 V
0 -7 V
0 -26 V
1 -4 V
1 19 V
1 55 V
8 466 V
1 66 V
0 15 V
1 48 V
0 8 V
1 1 V
0 -35 V
2 -101 V
8 -458 V
0 -34 V
1 -8 V
0 -25 V
0 -5 V
1 2 V
1 19 V
1 57 V
8 479 V
1 68 V
0 15 V
1 49 V
0 9 V
1 0 V
0 -36 V
1 -103 V
8 -474 V
1 -36 V
0 -8 V
1 -26 V
0 -5 V
1 0 V
1 19 V
1 56 V
8 472 V
1 67 V
0 14 V
0 49 V
1 8 V
stroke 992 2191 M
1 -36 V
1 -104 V
3 -179 V
6 -423 V
0 -13 V
1 -42 V
0 -8 V
1 -32 V
0 -1 V
2 -2 V
8 124 V
1 45 V
0 15 V
1 -5 V
1 -10 V
11 -482 V
0 -11 V
1 -24 V
0 -9 V
1 -26 V
3 -35 V
7 -56 V
0 -4 V
1 -13 V
0 -2 V
1 -14 V
0 -4 V
1 -27 V
7 -45 V
2 16 V
0 5 V
1 11 V
0 1 V
1 9 V
0 3 V
4 50 V
0 7 V
2 5 V
0 -1 V
1 -4 V
0 -1 V
27 -119 V
1 -4 V
2 -8 V
1 -2 V
0 -2 V
2 -12 V
0 -4 V
1 -11 V
3 -6 V
1 3 V
1 6 V
1 4 V
1 1 V
3 22 V
6 86 V
3 18 V
8 -24 V
1 -2 V
1 -3 V
1 -3 V
4 -12 V
1 -4 V
3 18 V
6 86 V
3 22 V
1 1 V
1 -8 V
1 -14 V
1 -5 V
3 -3 V
1 14 V
0 5 V
2 4 V
1 -4 V
0 -3 V
2 -12 V
23 -166 V
1 -8 V
2 -17 V
2 -16 V
0 -2 V
1 -3 V
2 -20 V
0 -10 V
4 -84 V
0 -4 V
1 -14 V
0 -2 V
1 -7 V
0 3 V
3 17 V
5 116 V
2 63 V
0 6 V
1 21 V
0 4 V
1 31 V
1 16 V
6 237 V
3 101 V
1 61 V
1 21 V
0 18 V
1 -1 V
1 -1 V
-1 1 V
0 -1 V
3 -4 V
-1 1 V
3 -4 V
0 1 V
3 -4 V
-1 1 V
3 -3 V
0 -1 V
-1 1 V
2 -1 V
1 22 V
0 24 V
1 67 V
8 544 V
2 114 V
0 39 V
1 16 V
0 -5 V
1 -33 V
0 -10 V
6 -331 V
3 -116 V
1 -54 V
1 -19 V
1 5 V
0 26 V
0 8 V
1 35 V
8 471 V
1 102 V
1 35 V
1 0 V
0 -8 V
1 -49 V
0 -15 V
1 -65 V
8 -471 V
1 -55 V
0 -19 V
1 -1 V
0 5 V
1 26 V
0 8 V
1 35 V
8 467 V
1 101 V
1 35 V
1 0 V
0 -8 V
0 -48 V
1 -15 V
0 -66 V
8 -468 V
2 -55 V
0 -19 V
1 0 V
0 4 V
1 26 V
0 8 V
1 35 V
8 467 V
1 102 V
0 35 V
1 0 V
0 -9 V
1 -48 V
0 -14 V
1 -66 V
8 -467 V
1 -54 V
1 -19 V
1 0 V
0 4 V
0 26 V
1 8 V
1 35 V
7 468 V
2 102 V
0 35 V
1 0 V
0 -8 V
1 -49 V
0 -14 V
1 -65 V
8 -468 V
1 -55 V
1 -19 V
1 0 V
0 5 V
0 26 V
0 8 V
1 35 V
8 468 V
2 102 V
0 35 V
1 0 V
0 -8 V
1 -49 V
0 -14 V
1 -66 V
8 -467 V
1 -54 V
0 -19 V
1 0 V
0 4 V
1 27 V
0 7 V
1 36 V
8 469 V
1 101 V
1 36 V
1 0 V
0 -9 V
0 -48 V
1 -15 V
0 -65 V
8 -469 V
2 -55 V
0 -19 V
1 0 V
0 5 V
1 26 V
0 8 V
1 35 V
8 469 V
1 101 V
0 35 V
1 0 V
1 -8 V
0 -49 V
0 -14 V
1 -66 V
8 -469 V
1 -55 V
1 -19 V
1 0 V
0 5 V
1 25 V
0 8 V
1 35 V
7 467 V
stroke 1437 2037 M
2 102 V
0 35 V
1 0 V
0 -8 V
1 -49 V
0 -14 V
1 -66 V
8 -468 V
1 -54 V
1 -19 V
1 0 V
0 4 V
0 26 V
0 8 V
1 35 V
8 468 V
2 101 V
0 35 V
1 1 V
0 -9 V
1 -48 V
0 -15 V
1 -65 V
8 -467 V
1 -54 V
0 -19 V
1 0 V
0 5 V
1 26 V
0 8 V
1 35 V
8 470 V
1 102 V
1 35 V
1 0 V
0 -8 V
0 -48 V
1 -15 V
0 -65 V
8 -468 V
2 -55 V
0 -19 V
1 0 V
0 5 V
1 26 V
0 8 V
1 36 V
8 472 V
1 103 V
1 35 V
1 -8 V
0 -49 V
0 -15 V
1 -66 V
8 -472 V
1 -56 V
1 -19 V
1 0 V
0 4 V
1 26 V
0 8 V
1 35 V
2 116 V
6 330 V
1 49 V
1 -15 V
1 -38 V
1 -110 V
8 -517 V
1 -63 V
1 -21 V
1 -19 V
0 2 V
11 86 V
0 2 V
1 -18 V
0 -24 V
2 -70 V
2 -117 V
7 -283 V
0 -19 V
1 -35 V
0 -4 V
1 -21 V
0 -7 V
2 -65 V
6 -124 V
2 -19 V
1 -4 V
1 5 V
0 2 V
0 12 V
1 4 V
3 75 V
1 9 V
1 17 V
1 3 V
0 1 V
3 18 V
1 3 V
1 3 V
0 3 V
2 11 V
1 3 V
0 3 V
1 4 V
1 3 V
6 32 V
2 8 V
2 10 V
1 9 V
4 19 V
1 7 V
1 3 V
0 2 V
2 8 V
1 9 V
1 2 V
0 2 V
2 -1 V
1 -3 V
1 -7 V
2 4 V
1 4 V
1 10 V
1 6 V
1 0 V
3 -21 V
6 -80 V
3 -16 V
2 5 V
6 24 V
7 25 V
2 5 V
3 -16 V
3 -53 V
2 -28 V
3 -20 V
1 0 V
1 0 V
1 -4 V
1 -8 V
0 -3 V
3 9 V
1 16 V
1 6 V
1 18 V
1 3 V
0 3 V
4 28 V
0 1 V
2 13 V
1 3 V
2 17 V
3 18 V
2 17 V
3 18 V
2 17 V
3 17 V
0 3 V
1 8 V
2 13 V
1 2 V
5 34 V
0 2 V
0 6 V
0 2 V
2 -9 V
0 -11 V
4 -89 V
0 -4 V
1 -15 V
0 -3 V
1 -19 V
0 -8 V
2 -30 V
7 -11 V
2 17 V
0 3 V
0 9 V
0 2 V
1 13 V
1 5 V
7 82 V
2 44 V
1 31 V
1 10 V
1 27 V
0 11 V
11 492 V
0 11 V
1 6 V
0 -14 V
2 -43 V
8 -112 V
1 5 V
1 2 V
0 33 V
1 62 V
7 424 V
2 180 V
1 67 V
0 15 V
1 49 V
0 9 V
1 0 V
0 -35 V
2 -103 V
8 -472 V
0 -36 V
1 -8 V
0 -26 V
0 -4 V
1 0 V
1 19 V
1 57 V
8 475 V
1 67 V
0 15 V
1 49 V
0 8 V
1 0 V
0 -36 V
1 -105 V
8 -482 V
1 -37 V
0 -8 V
1 -27 V
0 -5 V
1 -1 V
1 18 V
1 53 V
8 456 V
1 65 V
0 15 V
0 47 V
1 8 V
1 -35 V
1 -103 V
8 -466 V
1 -36 V
0 -8 V
1 -26 V
0 -4 V
1 -1 V
0 18 V
2 53 V
8 456 V
0 65 V
stroke 1861 2073 M
1 15 V
0 47 V
0 8 V
1 0 V
1 -34 V
1 -100 V
8 -452 V
1 -34 V
0 -8 V
1 -25 V
0 -4 V
1 1 V
0 20 V
1 56 V
8 475 V
1 67 V
0 15 V
1 49 V
0 8 V
1 1 V
1 -35 V
1 -102 V
8 -463 V
1 -36 V
0 -7 V
0 -26 V
1 -4 V
0 1 V
1 19 V
1 57 V
8 480 V
1 68 V
0 15 V
1 49 V
0 9 V
1 0 V
0 -36 V
2 -105 V
8 -480 V
0 -37 V
1 -8 V
0 -27 V
0 -4 V
1 -1 V
1 18 V
1 55 V
8 464 V
1 66 V
0 15 V
1 48 V
0 8 V
1 0 V
0 -36 V
2 -104 V
7 -474 V
1 -36 V
0 -8 V
1 -27 V
0 -4 V
1 -2 V
1 18 V
1 53 V
8 455 V
1 65 V
0 14 V
1 48 V
0 8 V
1 0 V
0 -35 V
1 -101 V
8 -458 V
1 -35 V
0 -7 V
1 -25 V
0 -5 V
1 1 V
0 19 V
2 54 V
8 466 V
0 67 V
1 14 V
0 48 V
0 9 V
1 0 V
1 -34 V
1 -101 V
8 -458 V
1 -34 V
0 -8 V
1 -25 V
0 -5 V
1 2 V
0 19 V
2 57 V
7 479 V
1 68 V
1 15 V
0 49 V
0 9 V
1 0 V
1 -36 V
1 -103 V
8 -474 V
1 -36 V
0 -8 V
1 -27 V
0 -5 V
1 0 V
0 19 V
1 56 V
8 470 V
1 67 V
0 14 V
1 49 V
0 8 V
1 0 V
0 -36 V
2 -104 V
8 -477 V
1 -37 V
0 -8 V
0 -27 V
0 -4 V
1 -2 V
1 19 V
1 53 V
8 457 V
1 65 V
0 14 V
1 48 V
0 8 V
1 0 V
0 -35 V
2 -102 V
2 -175 V
6 -411 V
1 -12 V
0 -41 V
0 -7 V
1 -31 V
1 -1 V
1 -3 V
8 126 V
1 45 V
1 16 V
1 -4 V
0 -11 V
11 -469 V
0 -11 V
1 -23 V
0 -9 V
2 -24 V
2 -30 V
7 -47 V
0 -3 V
1 -13 V
0 -3 V
1 -14 V
0 -5 V
1 -29 V
8 -59 V
1 14 V
1 4 V
1 9 V
0 1 V
0 8 V
1 2 V
3 44 V
1 5 V
1 4 V
0 -1 V
1 -3 V
0 -1 V
2 -7 V
0 -2 V
1 -5 V
17 -69 V
4 -18 V
4 -17 V
1 -3 V
2 -8 V
0 -2 V
0 -2 V
2 -13 V
1 -4 V
1 -13 V
3 -5 V
0 4 V
1 7 V
1 6 V
1 1 V
3 26 V
6 90 V
3 21 V
1 -3 V
6 -11 V
1 -3 V
7 -13 V
2 -3 V
3 21 V
6 90 V
3 25 V
0 2 V
1 0 V
1 -9 V
1 -15 V
0 -7 V
3 0 V
1 18 V
1 6 V
1 6 V
1 -4 V
0 -3 V
2 -15 V
24 -201 V
1 -11 V
2 -10 V
2 -16 V
0 -2 V
0 -4 V
1 -1 V
1 -21 V
1 -11 V
3 -88 V
0 -5 V
1 -14 V
0 -3 V
1 -7 V
0 3 V
3 16 V
6 116 V
2 64 V
0 6 V
0 21 V
0 3 V
1 31 V
1 16 V
7 229 V
2 98 V
1 60 V
1 20 V
1 18 V
11 -2 V
1 24 V
1 23 V
1 67 V
8 544 V
1 114 V
0 40 V
stroke 2310 2044 M
1 16 V
1 -5 V
0 -32 V
0 -10 V
7 -322 V
2 -113 V
1 -53 V
1 -18 V
1 2 V
0 5 V
1 27 V
0 9 V
1 37 V
7 489 V
2 105 V
0 36 V
1 1 V
0 -9 V
1 -50 V
0 -15 V
1 -67 V
8 -484 V
1 -57 V
1 -20 V
1 -1 V
0 5 V
0 26 V
0 8 V
1 35 V
8 469 V
2 102 V
0 35 V
1 0 V
0 -9 V
1 -50 V
0 -15 V
1 -67 V
8 -483 V
1 -58 V
0 -19 V
1 -2 V
0 4 V
1 24 V
0 8 V
1 33 V
8 448 V
1 99 V
1 34 V
1 -1 V
0 -8 V
0 -48 V
1 -14 V
0 -64 V
8 -458 V
2 -53 V
0 -19 V
1 1 V
0 4 V
1 25 V
0 8 V
1 34 V
8 461 V
1 100 V
1 35 V
0 1 V
1 -9 V
0 -47 V
0 -14 V
1 -63 V
8 -449 V
1 -52 V
1 -17 V
1 2 V
0 5 V
1 27 V
0 8 V
1 37 V
8 486 V
1 105 V
0 36 V
1 1 V
0 -9 V
1 -48 V
0 -15 V
1 -66 V
8 -474 V
1 -55 V
1 -19 V
1 0 V
0 5 V
0 27 V
1 8 V
0 36 V
8 480 V
2 104 V
0 36 V
1 -1 V
0 -9 V
1 -49 V
0 -15 V
1 -68 V
8 -487 V
1 -58 V
0 -20 V
1 -1 V
0 4 V
1 25 V
0 8 V
1 34 V
8 456 V
1 100 V
1 34 V
1 0 V
0 -9 V
0 -49 V
1 -14 V
1 -66 V
7 -471 V
2 -55 V
0 -19 V
1 -1 V
0 4 V
1 25 V
0 7 V
1 34 V
8 451 V
1 99 V
1 34 V
1 -8 V
0 -47 V
0 -14 V
1 -64 V
8 -450 V
1 -51 V
1 -18 V
1 1 V
0 5 V
1 26 V
0 8 V
1 36 V
8 474 V
1 103 V
0 36 V
1 1 V
0 -9 V
1 -47 V
0 -15 V
1 -64 V
8 -459 V
1 -53 V
1 -18 V
1 1 V
0 5 V
0 28 V
1 8 V
0 37 V
8 489 V
2 105 V
0 36 V
1 1 V
0 -9 V
1 -50 V
0 -15 V
1 -67 V
8 -484 V
1 -57 V
0 -20 V
1 -1 V
0 5 V
1 26 V
0 8 V
1 35 V
8 469 V
1 102 V
1 35 V
1 -1 V
0 -9 V
0 -49 V
1 -15 V
1 -68 V
7 -483 V
2 -57 V
0 -20 V
1 -2 V
0 4 V
1 24 V
0 8 V
1 33 V
2 110 V
7 315 V
1 46 V
1 -13 V
0 -36 V
1 -104 V
8 -482 V
2 -57 V
0 -20 V
1 -13 V
0 3 V
11 146 V
0 3 V
1 -17 V
1 -26 V
1 -75 V
2 -126 V
7 -308 V
1 -21 V
1 -36 V
0 -4 V
0 -21 V
0 -6 V
2 -62 V
6 -113 V
3 -15 V
0 -3 V
1 2 V
0 2 V
1 8 V
0 3 V
4 54 V
0 7 V
1 12 V
1 1 V
0 2 V
0 1 V
23 96 V
8 35 V
0 2 V
1 2 V
1 -2 V
1 -3 V
1 -8 V
3 2 V
0 3 V
1 8 V
1 5 V
1 0 V
0 -1 V
3 -22 V
6 -84 V
3 -17 V
2 4 V
3 11 V
1 2 V
1 2 V
2 6 V
2 7 V
0 2 V
1 1 V
stroke 2730 768 M
4 11 V
1 4 V
3 -17 V
6 -84 V
3 -22 V
1 0 V
0 -1 V
1 -7 V
1 -12 V
0 -4 V
3 12 V
1 23 V
1 8 V
2 25 V
0 5 V
1 4 V
1 18 V
1 9 V
1 1 V
1 10 V
0 1 V
1 10 V
0 1 V
1 10 V
0 1 V
1 10 V
1 9 V
4 38 V
18 171 V
0 2 V
1 9 V
0 2 V
1 -10 V
1 -15 V
3 -116 V
1 -6 V
0 -19 V
0 -4 V
1 -24 V
1 -10 V
1 -36 V
8 -40 V
1 13 V
0 2 V
1 7 V
0 1 V
1 11 V
0 6 V
7 83 V
2 45 V
2 31 V
0 11 V
1 25 V
0 11 V
1 47 V
0 -28 V
0 6 V
3 128 V
-1 -35 V
3 128 V
0 -13 V
-1 -14 V
3 129 V
0 -36 V
3 129 V
0 6 V
0 1 V
-1 -28 V
1 47 V
0 11 V
1 7 V
1 -14 V
1 -38 V
8 -87 V
1 9 V
1 4 V
1 34 V
1 64 V
6 431 V
2 183 V
1 68 V
0 16 V
1 50 V
0 8 V
1 2 V
1 -35 V
1 -102 V
8 -465 V
1 -35 V
0 -8 V
1 -26 V
0 -4 V
1 1 V
0 21 V
1 59 V
8 494 V
1 70 V
0 15 V
1 50 V
0 9 V
1 0 V
0 -37 V
2 -109 V
8 -500 V
1 -39 V
0 -9 V
0 -28 V
0 -5 V
1 -3 V
1 18 V
1 52 V
8 448 V
1 65 V
0 14 V
1 47 V
0 8 V
1 -2 V
0 -35 V
2 -104 V
7 -475 V
1 -36 V
1 -8 V
0 -27 V
0 -4 V
1 -3 V
1 18 V
1 50 V
8 437 V
1 63 V
0 14 V
1 46 V
0 8 V
1 0 V
0 -34 V
1 -97 V
8 -438 V
1 -33 V
0 -7 V
1 -24 V
0 -4 V
1 2 V
0 20 V
2 56 V
8 472 V
1 67 V
0 15 V
0 49 V
0 8 V
1 2 V
1 -34 V
1 -100 V
8 -449 V
1 -34 V
0 -7 V
1 -25 V
0 -4 V
1 3 V
0 20 V
2 60 V
8 496 V
0 70 V
1 15 V
0 50 V
0 9 V
1 1 V
1 -36 V
1 -106 V
8 -487 V
1 -38 V
0 -8 V
1 -28 V
0 -4 V
1 -1 V
0 19 V
1 56 V
8 471 V
1 67 V
0 15 V
1 49 V
0 8 V
1 -1 V
1 -37 V
1 -106 V
8 -491 V
1 -38 V
0 -9 V
0 -27 V
1 -5 V
0 -3 V
1 17 V
1 51 V
8 439 V
1 64 V
0 14 V
1 46 V
0 8 V
1 -1 V
0 -34 V
2 -101 V
8 -455 V
0 -34 V
1 -8 V
0 -25 V
0 -4 V
1 0 V
1 18 V
1 53 V
8 453 V
1 65 V
0 14 V
1 48 V
0 8 V
1 1 V
0 -34 V
1 -98 V
8 -438 V
1 -33 V
0 -7 V
1 -24 V
0 -4 V
1 3 V
1 20 V
1 59 V
8 491 V
1 69 V
0 15 V
0 50 V
1 9 V
0 1 V
1 -35 V
1 -103 V
8 -472 V
1 -36 V
0 -8 V
1 -26 V
0 -5 V
1 1 V
0 20 V
2 59 V
8 486 V
0 69 V
1 15 V
0 50 V
0 8 V
1 0 V
1 -37 V
1 -107 V
8 -495 V
1 -38 V
stroke 3117 1551 M
0 -9 V
1 -28 V
0 -5 V
1 -3 V
0 18 V
2 53 V
7 451 V
1 65 V
0 14 V
1 47 V
0 8 V
1 -1 V
1 -36 V
1 -103 V
2 -178 V
7 -418 V
0 -13 V
0 -42 V
1 -7 V
1 -33 V
0 -1 V
1 -6 V
8 111 V
2 42 V
0 15 V
1 -5 V
0 -10 V
11 -451 V
0 -10 V
1 -23 V
1 -8 V
1 -24 V
2 -30 V
7 -45 V
1 -3 V
1 -13 V
0 -2 V
0 -13 V
0 -4 V
2 -27 V
7 -44 V
2 17 V
0 4 V
1 12 V
0 2 V
1 9 V
0 3 V
4 58 V
0 8 V
2 4 V
0 -1 V
0 -5 V
0 -1 V
6 -36 V
10 -64 V
13 -86 V
2 -10 V
0 -2 V
1 -4 V
1 -21 V
1 -8 V
1 -22 V
3 -6 V
0 6 V
1 15 V
1 10 V
1 1 V
1 3 V
3 31 V
5 101 V
4 26 V
1 0 V
7 -1 V
7 -1 V
1 0 V
3 27 V
6 101 V
3 31 V
1 2 V
0 1 V
1 -8 V
1 -17 V
1 -7 V
2 6 V
2 25 V
0 9 V
2 11 V
0 -4 V
1 -4 V
1 -16 V
2 -16 V
0 -4 V
8 -71 V
1 -4 V
4 -43 V
1 -4 V
0 -4 V
1 -4 V
6 -62 V
6 -51 V
0 -1 V
1 -5 V
0 -1 V
1 -20 V
1 -10 V
4 -75 V
0 -4 V
0 -12 V
0 -2 V
1 -8 V
1 2 V
2 10 V
6 100 V
2 58 V
0 6 V
1 19 V
0 3 V
1 29 V
0 15 V
7 223 V
2 95 V
2 58 V
0 20 V
1 17 V
11 -15 V
1 21 V
1 22 V
1 64 V
8 523 V
1 111 V
1 38 V
1 16 V
0 -5 V
0 -31 V
1 -10 V
6 -310 V
2 -107 V
2 -51 V
0 -17 V
1 2 V
0 5 V
1 27 V
0 8 V
1 37 V
8 483 V
1 104 V
1 36 V
1 1 V
0 -9 V
0 -47 V
0 -15 V
1 -64 V
8 -462 V
2 -53 V
0 -19 V
1 2 V
0 5 V
1 28 V
0 9 V
1 38 V
8 494 V
1 105 V
0 37 V
1 0 V
0 -9 V
1 -50 V
0 -15 V
1 -68 V
8 -494 V
1 -59 V
1 -21 V
1 -2 V
0 5 V
0 25 V
1 8 V
0 34 V
8 461 V
2 100 V
0 35 V
1 -1 V
0 -9 V
1 -49 V
0 -15 V
1 -67 V
8 -483 V
1 -57 V
0 -20 V
1 -2 V
1 4 V
0 24 V
0 7 V
1 32 V
8 440 V
1 97 V
1 34 V
1 -1 V
0 -8 V
1 -47 V
0 -14 V
1 -63 V
7 -446 V
2 -51 V
0 -17 V
1 1 V
0 4 V
1 26 V
0 8 V
1 35 V
8 469 V
1 101 V
1 35 V
1 2 V
0 -9 V
0 -46 V
0 -14 V
1 -64 V
8 -447 V
2 -51 V
0 -18 V
1 3 V
0 5 V
1 28 V
0 8 V
1 39 V
8 496 V
1 106 V
0 37 V
1 1 V
0 -9 V
1 -50 V
0 -15 V
1 -67 V
8 -484 V
1 -57 V
1 -20 V
1 -1 V
0 5 V
0 27 V
1 8 V
0 36 V
8 476 V
2 103 V
0 36 V
1 -1 V
0 -9 V
1 -50 V
0 -15 V
1 -69 V
8 -493 V
stroke 3564 1578 M
1 -59 V
1 -20 V
0 -3 V
1 4 V
0 24 V
0 7 V
1 33 V
8 443 V
1 97 V
1 34 V
1 -1 V
0 -8 V
1 -48 V
0 -14 V
1 -65 V
7 -460 V
2 -53 V
0 -18 V
1 -1 V
0 5 V
1 24 V
0 8 V
1 33 V
8 453 V
1 99 V
1 34 V
1 1 V
0 -8 V
0 -46 V
0 -14 V
1 -63 V
8 -441 V
2 -50 V
0 -17 V
1 2 V
0 5 V
1 28 V
0 8 V
1 37 V
8 488 V
1 105 V
0 36 V
1 2 V
0 -9 V
1 -48 V
0 -15 V
1 -65 V
8 -468 V
1 -54 V
1 -19 V
1 1 V
0 5 V
0 28 V
1 9 V
0 37 V
8 491 V
2 106 V
0 36 V
1 0 V
0 -9 V
1 -50 V
0 -16 V
1 -68 V
8 -496 V
1 -59 V
1 -20 V
0 -3 V
1 5 V
0 25 V
0 7 V
1 34 V
3 113 V
6 321 V
1 47 V
1 -15 V
0 -38 V
2 -111 V
8 -523 V
1 -63 V
0 -23 V
1 -19 V
0 1 V
11 63 V
1 2 V
0 -18 V
1 -24 V
1 -67 V
3 -113 V
6 -272 V
1 -18 V
1 -35 V
0 -3 V
1 -22 V
0 -7 V
2 -67 V
5 -127 V
3 -21 V
0 -4 V
1 6 V
0 2 V
1 13 V
0 5 V
4 85 V
0 10 V
2 20 V
0 1 V
1 3 V
0 1 V
5 35 V
23 149 V
2 11 V
0 3 V
1 3 V
2 -3 V
0 -4 V
1 -11 V
3 2 V
1 5 V
1 12 V
1 7 V
1 0 V
3 -22 V
6 -84 V
3 -18 V
1 5 V
7 20 V
% End plot #3
% Begin plot #4
stroke
LTb
0.00 1.00 0.00 C LCb setrgbcolor
3416 2180 M
[ [(Symbol) 140.0 0.0 true true 0 (h)]
[(roman) 112.0 -42.0 true true 0 (y)]
] -32.7 MRshow
1.000 UL
LTb
0.00 1.00 0.00 C 3500 2180 M
147 0 V
588 777 M
7 -26 V
1 -4 V
3 -12 V
2 -7 V
2 -6 V
2 -9 V
3 -11 V
1 -3 V
0 -1 V
1 0 V
1 3 V
1 2 V
3 -12 V
1 -14 V
0 -5 V
2 -9 V
0 1 V
1 0 V
2 4 V
14 27 V
2 4 V
7 14 V
5 11 V
1 2 V
2 -1 V
0 -3 V
4 -20 V
0 -1 V
1 -3 V
1 0 V
0 2 V
2 8 V
7 35 V
1 6 V
0 1 V
1 3 V
1 3 V
1 2 V
6 16 V
3 6 V
1 3 V
1 1 V
0 1 V
1 1 V
9 8 V
2 1 V
1 2 V
0 2 V
1 5 V
8 28 V
2 5 V
0 2 V
1 0 V
0 -1 V
2 -5 V
0 -2 V
1 -2 V
0 -3 V
1 -2 V
1 -2 V
0 -2 V
1 -3 V
1 -6 V
3 -9 V
1 -3 V
0 -1 V
0 -2 V
1 -1 V
1 -2 V
0 -1 V
1 -1 V
8 -9 V
1 -1 V
1 -1 V
1 -2 V
0 -1 V
2 -3 V
8 -17 V
0 -2 V
1 -1 V
0 -1 V
1 -3 V
1 -2 V
1 -6 V
8 -33 V
1 -4 V
0 -1 V
1 -2 V
0 -1 V
1 0 V
0 2 V
2 5 V
7 29 V
1 3 V
0 1 V
1 2 V
0 1 V
1 2 V
1 1 V
1 1 V
8 8 V
1 1 V
0 1 V
1 0 V
1 2 V
0 1 V
1 3 V
8 18 V
1 2 V
0 1 V
1 1 V
1 3 V
0 2 V
2 6 V
8 34 V
1 3 V
0 1 V
0 3 V
1 1 V
1 -2 V
1 -5 V
8 -29 V
1 -3 V
0 -1 V
1 -2 V
0 -1 V
1 -2 V
2 -2 V
7 -8 V
1 0 V
1 -1 V
1 -2 V
1 -1 V
1 -3 V
8 -19 V
1 -2 V
0 -1 V
1 -1 V
1 -3 V
0 -2 V
1 -6 V
8 -34 V
1 -4 V
1 -3 V
0 -1 V
1 0 V
0 2 V
2 5 V
8 29 V
1 3 V
0 3 V
1 2 V
1 1 V
1 1 V
8 7 V
1 0 V
0 1 V
1 0 V
1 2 V
0 1 V
2 3 V
7 20 V
1 2 V
1 0 V
0 2 V
1 3 V
1 2 V
1 6 V
8 34 V
1 4 V
0 1 V
1 2 V
0 1 V
1 0 V
0 -1 V
1 -5 V
8 -29 V
1 -3 V
1 -3 V
1 -2 V
2 -2 V
8 -6 V
1 0 V
0 -1 V
1 0 V
0 -2 V
1 -1 V
1 -3 V
8 -21 V
1 -2 V
1 -2 V
1 -3 V
0 -2 V
2 -6 V
8 -34 V
0 -4 V
1 -1 V
0 -3 V
1 0 V
1 1 V
1 5 V
8 28 V
1 3 V
0 1 V
1 2 V
1 2 V
0 1 V
1 1 V
8 5 V
1 1 V
1 1 V
1 1 V
1 1 V
1 4 V
8 21 V
1 2 V
0 2 V
1 0 V
0 3 V
1 2 V
1 6 V
3 11 V
6 27 V
0 1 V
1 3 V
1 1 V
0 -2 V
2 -4 V
8 -24 V
1 -5 V
0 -1 V
1 -1 V
1 0 V
11 0 V
1 -1 V
0 -2 V
1 -4 V
3 -7 V
7 -21 V
0 -1 V
1 -3 V
0 -1 V
1 -2 V
0 -1 V
1 -5 V
7 -30 V
2 -7 V
stroke 1053 716 M
0 -2 V
1 0 V
1 2 V
0 1 V
4 14 V
0 1 V
2 0 V
1 -2 V
0 -1 V
27 -69 V
1 -3 V
2 -4 V
1 -1 V
0 -1 V
2 9 V
0 6 V
1 15 V
3 11 V
1 -2 V
1 -5 V
1 -1 V
0 1 V
1 3 V
3 11 V
6 22 V
3 12 V
8 30 V
1 2 V
1 4 V
0 1 V
1 4 V
4 16 V
1 4 V
3 11 V
6 22 V
3 11 V
1 3 V
0 1 V
1 9 V
1 11 V
1 4 V
3 0 V
1 -13 V
0 -5 V
2 -11 V
1 -1 V
2 -4 V
23 -41 V
1 -1 V
2 -5 V
2 -4 V
1 -1 V
2 -3 V
0 -2 V
4 -13 V
0 -1 V
1 -2 V
0 -1 V
1 -4 V
0 -3 V
3 -13 V
5 -34 V
2 -11 V
0 -1 V
1 -4 V
1 0 V
1 4 V
6 44 V
3 17 V
1 9 V
1 3 V
0 5 V
1 1 V
1 7 V
-1 -4 V
0 1 V
3 37 V
-1 -5 V
3 -8 V
0 -1 V
0 -2 V
3 43 V
-1 -4 V
3 -3 V
-1 -3 V
2 6 V
0 1 V
1 2 V
0 -1 V
1 -2 V
8 -13 V
2 -2 V
0 -1 V
1 1 V
1 3 V
6 25 V
3 9 V
1 5 V
1 2 V
0 -1 V
1 -1 V
0 -5 V
0 -1 V
1 -6 V
8 -56 V
1 -10 V
1 -3 V
1 -6 V
0 -1 V
1 -4 V
0 -1 V
1 -5 V
8 -50 V
1 -8 V
0 -3 V
1 -2 V
1 1 V
0 1 V
1 1 V
8 13 V
1 2 V
1 0 V
1 -1 V
0 -3 V
1 0 V
0 -4 V
8 -30 V
2 -6 V
0 -1 V
1 1 V
0 1 V
1 4 V
0 2 V
1 6 V
8 57 V
1 9 V
0 3 V
1 6 V
0 1 V
1 4 V
0 1 V
1 5 V
8 49 V
1 8 V
1 3 V
1 2 V
0 -1 V
1 0 V
1 -2 V
7 -11 V
2 -1 V
0 -1 V
1 1 V
0 1 V
1 2 V
0 1 V
1 3 V
8 33 V
1 5 V
1 2 V
1 -2 V
0 -5 V
0 -1 V
1 -6 V
8 -57 V
2 -10 V
0 -3 V
1 -6 V
0 -1 V
1 -4 V
0 -1 V
1 -5 V
8 -48 V
1 -8 V
0 -2 V
1 -3 V
0 1 V
1 0 V
1 1 V
8 10 V
1 1 V
1 1 V
1 -1 V
0 -1 V
0 -3 V
1 0 V
0 -4 V
8 -34 V
2 -5 V
0 -2 V
1 1 V
0 1 V
1 4 V
0 2 V
1 6 V
8 57 V
1 10 V
0 3 V
1 6 V
1 1 V
0 4 V
0 1 V
1 5 V
8 46 V
1 8 V
1 3 V
1 2 V
1 0 V
0 -1 V
1 0 V
7 -8 V
2 -1 V
0 -1 V
1 2 V
1 3 V
0 1 V
1 4 V
8 35 V
1 6 V
1 2 V
1 -2 V
0 -1 V
0 -4 V
0 -1 V
1 -7 V
8 -57 V
2 -10 V
0 -3 V
1 -6 V
0 -1 V
1 -4 V
0 -1 V
1 -5 V
8 -46 V
1 -7 V
0 -3 V
1 -2 V
1 0 V
1 1 V
8 6 V
1 1 V
1 1 V
1 -2 V
0 -1 V
0 -2 V
1 -1 V
0 -4 V
8 -37 V
2 -6 V
stroke 1501 668 M
0 -2 V
1 2 V
1 5 V
0 1 V
1 7 V
8 58 V
1 9 V
1 4 V
0 6 V
1 0 V
0 4 V
0 1 V
1 5 V
8 45 V
1 8 V
1 2 V
1 3 V
1 -1 V
1 0 V
2 -2 V
6 -4 V
1 0 V
1 1 V
1 2 V
1 6 V
8 36 V
1 6 V
1 2 V
1 -1 V
0 -1 V
11 -71 V
0 -2 V
1 -3 V
0 -2 V
2 -5 V
2 -10 V
7 -26 V
0 -1 V
1 -3 V
1 0 V
0 -1 V
2 -1 V
6 -6 V
2 -2 V
1 0 V
1 -3 V
0 -1 V
0 -3 V
1 -1 V
3 -21 V
1 -3 V
1 2 V
0 1 V
1 4 V
0 1 V
3 20 V
1 3 V
1 4 V
0 4 V
2 12 V
1 3 V
0 3 V
1 4 V
1 3 V
6 36 V
2 10 V
2 11 V
1 10 V
4 21 V
1 7 V
1 4 V
0 2 V
2 9 V
1 10 V
1 2 V
0 3 V
2 26 V
1 10 V
1 27 V
2 5 V
1 -9 V
1 -21 V
1 -16 V
0 -1 V
1 -5 V
3 -18 V
6 -35 V
3 -18 V
2 -9 V
6 -40 V
7 -39 V
2 -9 V
3 -19 V
3 -22 V
2 -13 V
3 -17 V
1 -5 V
1 -2 V
1 0 V
1 5 V
0 2 V
3 -19 V
1 -22 V
1 -8 V
1 -15 V
1 1 V
0 1 V
4 11 V
2 6 V
1 1 V
2 6 V
3 7 V
2 6 V
3 7 V
2 7 V
3 6 V
0 1 V
1 3 V
2 5 V
1 1 V
5 13 V
0 3 V
0 1 V
2 -4 V
0 -5 V
4 -38 V
0 -2 V
1 -6 V
0 -1 V
1 0 V
0 4 V
2 14 V
7 61 V
2 10 V
0 2 V
0 4 V
0 1 V
1 5 V
1 1 V
7 19 V
2 7 V
1 4 V
1 1 V
1 3 V
11 30 V
1 4 V
0 3 V
2 9 V
8 49 V
1 9 V
1 2 V
0 1 V
1 -5 V
7 -35 V
2 -14 V
1 -4 V
0 -2 V
1 -3 V
0 -1 V
1 -2 V
0 -1 V
2 -1 V
8 -5 V
1 -1 V
1 -3 V
1 -2 V
1 -6 V
8 -37 V
1 -4 V
0 -1 V
1 -3 V
0 -1 V
1 -5 V
0 -3 V
1 -10 V
8 -57 V
1 -6 V
0 -1 V
1 -5 V
0 -1 V
1 -1 V
1 3 V
1 7 V
8 43 V
1 5 V
0 1 V
0 3 V
1 1 V
0 3 V
1 0 V
1 1 V
8 4 V
1 0 V
1 1 V
1 2 V
0 2 V
2 7 V
8 38 V
0 4 V
1 1 V
0 3 V
1 6 V
1 3 V
1 10 V
8 57 V
1 6 V
0 1 V
1 5 V
0 1 V
1 0 V
0 -2 V
1 -7 V
8 -42 V
1 -5 V
0 -1 V
1 -3 V
0 -1 V
1 -3 V
1 0 V
1 0 V
8 -4 V
1 0 V
1 0 V
0 -3 V
1 -2 V
1 -7 V
8 -38 V
1 -4 V
0 -1 V
1 -3 V
0 -1 V
1 -5 V
0 -4 V
2 -9 V
8 -57 V
0 -6 V
1 -2 V
0 -4 V
0 -1 V
1 -1 V
1 2 V
1 7 V
8 42 V
1 4 V
0 1 V
1 4 V
1 3 V
2 0 V
7 3 V
stroke 1947 728 M
1 0 V
1 0 V
1 3 V
1 2 V
1 6 V
8 40 V
1 4 V
0 1 V
1 3 V
0 1 V
1 5 V
0 4 V
1 9 V
8 57 V
1 6 V
0 2 V
1 4 V
0 1 V
1 1 V
0 -3 V
2 -6 V
8 -41 V
0 -5 V
1 -1 V
0 -3 V
1 -3 V
1 0 V
1 0 V
8 -1 V
1 0 V
1 0 V
1 -3 V
0 -2 V
2 -7 V
7 -40 V
1 -4 V
1 -1 V
0 -3 V
0 -1 V
1 -6 V
1 -3 V
1 -10 V
8 -57 V
1 -6 V
0 -1 V
1 -5 V
1 -1 V
0 2 V
1 7 V
8 40 V
1 4 V
0 1 V
1 3 V
0 1 V
1 2 V
2 0 V
8 0 V
1 0 V
1 2 V
1 3 V
1 6 V
8 41 V
1 5 V
0 1 V
1 3 V
0 1 V
1 5 V
0 4 V
2 9 V
2 18 V
6 46 V
1 1 V
0 4 V
0 1 V
1 2 V
1 -2 V
1 -6 V
8 -34 V
1 -6 V
1 -2 V
1 -1 V
11 14 V
1 -2 V
0 -2 V
2 -8 V
2 -13 V
7 -38 V
0 -3 V
1 -5 V
1 -4 V
0 -1 V
1 -7 V
8 -40 V
1 -9 V
1 -3 V
1 -1 V
0 2 V
1 1 V
3 13 V
1 2 V
1 -1 V
0 -1 V
1 -3 V
0 -1 V
2 -7 V
0 -2 V
1 -6 V
17 -71 V
4 -19 V
4 -18 V
1 -3 V
2 -8 V
0 -1 V
0 -3 V
2 15 V
1 9 V
1 24 V
3 17 V
0 -3 V
1 -9 V
1 -2 V
0 2 V
1 4 V
3 17 V
6 34 V
3 17 V
1 8 V
6 30 V
0 2 V
1 7 V
7 40 V
2 7 V
3 18 V
6 34 V
3 17 V
0 4 V
1 2 V
1 13 V
1 16 V
0 6 V
3 1 V
1 -18 V
1 -7 V
1 -15 V
1 -1 V
0 -1 V
2 -3 V
24 -50 V
1 -3 V
2 -2 V
2 -4 V
0 -1 V
1 0 V
1 -6 V
1 -3 V
3 -25 V
0 -1 V
1 -4 V
0 -1 V
1 -7 V
0 -3 V
3 -20 V
6 -47 V
2 -15 V
0 -2 V
0 -4 V
0 -1 V
1 -1 V
1 3 V
7 41 V
2 15 V
1 7 V
1 3 V
1 3 V
0 1 V
11 26 V
0 1 V
1 2 V
1 2 V
1 4 V
8 25 V
1 4 V
0 1 V
1 5 V
1 0 V
0 4 V
0 2 V
7 41 V
2 16 V
1 9 V
1 3 V
1 0 V
0 -1 V
1 -4 V
0 -1 V
1 -5 V
7 -49 V
2 -8 V
0 -3 V
1 -4 V
1 -2 V
1 -2 V
8 -17 V
1 -3 V
1 -1 V
1 -2 V
0 -1 V
0 -2 V
1 -3 V
8 -26 V
2 -4 V
0 -1 V
1 -5 V
0 -1 V
1 -4 V
0 -1 V
1 -6 V
8 -52 V
1 -9 V
0 -3 V
1 0 V
0 1 V
1 3 V
0 2 V
1 5 V
8 48 V
1 8 V
1 3 V
1 4 V
0 1 V
1 0 V
0 2 V
8 16 V
2 2 V
0 1 V
1 3 V
1 2 V
0 1 V
1 3 V
8 27 V
1 4 V
1 2 V
0 5 V
1 0 V
0 4 V
0 2 V
1 5 V
8 53 V
1 9 V
stroke 2421 876 M
1 3 V
1 0 V
1 -4 V
0 -1 V
1 -5 V
8 -48 V
1 -8 V
0 -2 V
1 -4 V
1 -1 V
0 -1 V
1 -1 V
8 -14 V
1 -3 V
1 -1 V
1 -2 V
0 -1 V
0 -2 V
1 0 V
0 -3 V
8 -29 V
2 -4 V
0 -2 V
1 -5 V
0 -1 V
1 -4 V
0 -1 V
1 -6 V
8 -53 V
1 -9 V
0 -3 V
1 0 V
1 4 V
0 1 V
1 5 V
8 47 V
1 8 V
1 2 V
1 4 V
0 1 V
1 0 V
1 2 V
7 13 V
2 2 V
1 3 V
1 3 V
1 4 V
8 29 V
1 5 V
1 2 V
0 4 V
1 1 V
0 4 V
0 2 V
1 5 V
8 54 V
1 9 V
1 3 V
1 0 V
1 -4 V
0 -1 V
1 -5 V
8 -46 V
1 -7 V
0 -3 V
1 -3 V
1 -1 V
0 -1 V
1 -1 V
8 -11 V
1 -2 V
1 -1 V
1 -2 V
0 -1 V
0 -2 V
1 -1 V
0 -3 V
8 -31 V
2 -5 V
0 -2 V
1 -5 V
0 -1 V
1 -4 V
0 -1 V
1 -6 V
8 -54 V
1 -9 V
0 -3 V
1 0 V
1 4 V
0 1 V
1 5 V
8 45 V
1 7 V
1 3 V
1 3 V
0 1 V
1 0 V
1 1 V
7 10 V
2 2 V
1 3 V
1 3 V
0 1 V
1 3 V
2 10 V
7 26 V
1 3 V
1 5 V
0 3 V
1 9 V
8 53 V
2 9 V
0 3 V
1 1 V
0 -1 V
11 -49 V
0 -1 V
1 -2 V
1 1 V
1 1 V
2 3 V
7 7 V
1 0 V
1 -3 V
0 -5 V
0 -2 V
2 -15 V
6 -45 V
3 -19 V
0 -3 V
1 -9 V
0 -2 V
1 -7 V
0 -3 V
4 -46 V
0 -6 V
1 -3 V
1 1 V
0 4 V
0 1 V
23 111 V
8 41 V
0 2 V
1 3 V
1 16 V
1 6 V
1 16 V
3 6 V
0 -4 V
1 -9 V
1 -7 V
1 0 V
0 -1 V
3 -4 V
6 -7 V
3 -4 V
2 -2 V
3 -4 V
1 -1 V
1 -1 V
2 -3 V
2 -2 V
0 -1 V
1 -1 V
4 -5 V
1 -1 V
3 -4 V
6 -8 V
3 -3 V
1 -1 V
0 -1 V
1 -3 V
1 -4 V
0 -2 V
3 -6 V
1 0 V
1 0 V
2 -3 V
0 -1 V
1 0 V
1 -4 V
1 -3 V
1 0 V
1 -2 V
1 -2 V
0 -1 V
1 -2 V
1 -2 V
1 -2 V
4 -9 V
18 -38 V
0 -1 V
1 0 V
1 -9 V
1 -6 V
3 -43 V
1 -2 V
0 -7 V
0 -1 V
1 -2 V
1 3 V
1 11 V
8 47 V
1 8 V
0 1 V
1 4 V
1 2 V
0 -1 V
7 -7 V
2 -2 V
2 -2 V
1 1 V
0 2 V
1 5 V
0 -3 V
3 -8 V
-1 -3 V
3 38 V
0 -1 V
-1 -2 V
3 -8 V
0 -4 V
3 37 V
0 1 V
-1 -3 V
1 5 V
0 2 V
1 5 V
1 3 V
1 8 V
8 45 V
1 8 V
1 2 V
1 1 V
1 -4 V
6 -26 V
2 -12 V
1 -4 V
0 -1 V
1 -3 V
0 -1 V
1 -5 V
1 -1 V
1 -6 V
8 -34 V
1 -4 V
1 -3 V
1 -2 V
stroke 2871 734 M
1 1 V
8 4 V
1 1 V
1 0 V
0 1 V
1 -1 V
0 -2 V
2 -3 V
8 -20 V
1 -3 V
0 -2 V
1 1 V
1 2 V
1 5 V
8 34 V
1 4 V
0 1 V
1 3 V
1 4 V
0 1 V
2 5 V
7 27 V
1 3 V
1 1 V
0 2 V
1 2 V
1 0 V
1 -1 V
8 -4 V
1 -1 V
1 0 V
1 1 V
0 1 V
1 4 V
8 21 V
1 2 V
1 2 V
1 0 V
0 -2 V
2 -6 V
8 -34 V
1 -4 V
0 -1 V
0 -3 V
1 -4 V
1 -1 V
1 -5 V
8 -27 V
1 -3 V
1 -2 V
0 -1 V
1 -1 V
2 1 V
8 3 V
0 1 V
1 0 V
1 -1 V
1 -1 V
1 -4 V
8 -21 V
1 -3 V
1 -2 V
1 0 V
0 2 V
1 6 V
8 34 V
1 4 V
0 1 V
1 3 V
1 4 V
1 1 V
1 5 V
8 26 V
1 3 V
0 1 V
0 2 V
1 0 V
0 2 V
1 0 V
1 -1 V
8 -3 V
1 0 V
1 0 V
0 -1 V
1 2 V
0 1 V
2 4 V
8 22 V
0 2 V
1 0 V
0 2 V
1 0 V
1 -2 V
1 -6 V
8 -34 V
1 -4 V
0 -1 V
1 -3 V
1 -4 V
0 -1 V
1 -5 V
8 -26 V
1 -3 V
1 -2 V
0 -1 V
1 -1 V
1 0 V
1 0 V
8 3 V
1 0 V
1 0 V
0 -1 V
1 -1 V
1 -4 V
8 -22 V
1 -3 V
1 -2 V
0 -1 V
1 1 V
0 2 V
2 6 V
8 34 V
0 4 V
1 1 V
0 3 V
1 4 V
1 1 V
1 4 V
8 26 V
1 3 V
0 1 V
1 2 V
1 2 V
0 -1 V
2 0 V
7 -1 V
1 -1 V
1 0 V
1 1 V
1 2 V
1 4 V
2 7 V
7 18 V
0 1 V
0 1 V
1 1 V
1 -1 V
0 -2 V
1 -5 V
8 -32 V
2 -5 V
0 -2 V
1 -3 V
11 -28 V
1 -2 V
1 0 V
1 -1 V
2 -2 V
7 -7 V
1 0 V
1 -3 V
0 -3 V
0 -1 V
2 -6 V
7 -39 V
2 -8 V
0 -3 V
1 1 V
1 4 V
0 2 V
4 26 V
0 4 V
2 3 V
0 -1 V
0 -1 V
6 -7 V
10 -13 V
13 -18 V
2 -2 V
1 -1 V
1 9 V
1 4 V
1 13 V
3 11 V
0 -1 V
1 -3 V
1 1 V
1 1 V
1 2 V
3 11 V
5 20 V
4 11 V
1 4 V
7 24 V
7 25 V
1 4 V
3 11 V
6 20 V
3 11 V
1 2 V
0 1 V
1 10 V
1 12 V
1 5 V
2 -3 V
2 -16 V
0 -5 V
2 -15 V
0 -2 V
1 -1 V
1 -5 V
2 -6 V
0 -1 V
8 -24 V
1 -2 V
4 -15 V
1 -1 V
0 -1 V
1 -2 V
6 -21 V
6 -17 V
0 -1 V
1 -2 V
1 -3 V
1 1 V
4 5 V
0 1 V
1 0 V
1 -1 V
2 -3 V
6 -9 V
2 -2 V
0 -1 V
1 0 V
1 1 V
0 1 V
7 23 V
2 9 V
2 4 V
0 2 V
1 3 V
0 1 V
11 42 V
0 1 V
1 1 V
1 -1 V
1 -2 V
8 -14 V
1 -2 V
stroke 3379 802 M
1 -1 V
1 0 V
0 1 V
1 1 V
6 10 V
2 4 V
2 2 V
0 1 V
1 -1 V
0 -1 V
1 -2 V
0 -1 V
1 -4 V
8 -32 V
1 -6 V
1 -1 V
1 -4 V
0 -1 V
0 -2 V
0 -1 V
1 -4 V
8 -32 V
2 -6 V
0 -2 V
1 -1 V
1 1 V
0 1 V
1 1 V
8 13 V
1 3 V
1 0 V
1 -1 V
1 -2 V
8 -14 V
1 -2 V
1 -1 V
1 2 V
0 3 V
1 0 V
0 4 V
8 33 V
2 5 V
0 2 V
1 4 V
1 3 V
0 1 V
1 3 V
8 33 V
1 5 V
0 2 V
1 1 V
1 0 V
0 -1 V
1 -2 V
8 -12 V
1 -2 V
1 -1 V
1 0 V
0 1 V
1 1 V
1 2 V
7 14 V
2 3 V
1 -1 V
1 -3 V
0 -1 V
1 -3 V
8 -33 V
1 -6 V
1 -2 V
1 -4 V
0 -3 V
1 -4 V
8 -32 V
2 -5 V
0 -2 V
1 -1 V
1 1 V
1 2 V
8 11 V
1 2 V
1 0 V
1 -1 V
0 -1 V
1 -1 V
8 -16 V
1 -2 V
1 -1 V
1 1 V
0 3 V
1 1 V
0 3 V
8 34 V
2 5 V
0 2 V
1 4 V
0 1 V
1 2 V
0 1 V
1 3 V
8 32 V
1 5 V
1 2 V
0 1 V
1 0 V
0 -1 V
1 -1 V
8 -11 V
1 -1 V
1 -1 V
1 0 V
0 1 V
1 1 V
1 2 V
7 16 V
2 3 V
0 1 V
1 -1 V
1 -3 V
0 -1 V
1 -4 V
8 -33 V
1 -6 V
1 -2 V
1 -4 V
0 -3 V
1 -4 V
8 -31 V
2 -5 V
0 -2 V
1 -1 V
1 1 V
1 1 V
8 10 V
1 1 V
0 1 V
1 -1 V
1 -1 V
0 -1 V
1 -2 V
8 -17 V
1 -3 V
1 -1 V
1 1 V
0 1 V
0 2 V
1 1 V
0 4 V
8 34 V
2 6 V
0 2 V
1 3 V
0 1 V
1 2 V
0 1 V
1 3 V
8 31 V
1 5 V
1 2 V
0 1 V
1 0 V
0 -1 V
1 -1 V
3 -3 V
6 -6 V
1 -1 V
1 0 V
0 1 V
2 3 V
8 17 V
1 3 V
0 1 V
1 -1 V
0 -1 V
11 -42 V
1 -1 V
0 -2 V
1 -1 V
1 -4 V
3 -7 V
6 -19 V
1 -1 V
1 -1 V
1 0 V
2 1 V
5 2 V
3 1 V
0 1 V
1 -1 V
1 -2 V
4 -9 V
0 -1 V
2 2 V
1 3 V
5 18 V
23 75 V
2 6 V
0 1 V
1 2 V
2 15 V
0 6 V
1 16 V
3 3 V
1 -5 V
1 -13 V
1 -10 V
0 -1 V
1 -3 V
3 -11 V
6 -22 V
3 -12 V
1 -6 V
7 -25 V
% End plot #4
stroke
2.000 UL
LTb
LCb setrgbcolor
1.000 UL
LTB
LCb setrgbcolor
588 2313 N
588 384 L
3347 0 V
0 1929 V
-3347 0 V
Z stroke
1.000 UP
1.000 UL
LTb
LCb setrgbcolor
stroke
grestore
end
showpage
%%Trailer
%%DocumentFonts: Symbol roman Times-Roman
