%!PS-Adobe-2.0 EPSF-2.0
%%Title: BZ.vs.X.eps
%%Titre: BZ.vs.X.eps
%%Creator: Fminigraf Library
%%BoundingBox: 20 40 567 457
%%EndComments
/offx 20 def
/offy 40 def
/lx 595 def
/ly 842 def
/maxx 1023 def
/maxy 779 def
/reduc 0.92 def
/coeff lx maxx div reduc mul def
offx offy translate
coeff coeff scale
1 setlinewidth newpath 0 0 moveto
/Courier-Bold findfont 32 scalefont setfont
/M {moveto} def
/L {lineto} def
/S {stroke} def
/H {show} def
/D {setdash} def
0 0 0 setrgbcolor
[] 0 D
[] 0 D
[2 3] 0 D
110 156 M 110 740 L S
[] 0 D
110 156 M 110 166 L S
110 423 M 110 443 L S
110 730 M 110 740 L S
132 156 M 132 161 L S
132 428 M 132 438 L S
132 735 M 132 740 L S
154 156 M 154 161 L S
154 428 M 154 438 L S
154 735 M 154 740 L S
176 156 M 176 161 L S
176 428 M 176 438 L S
176 735 M 176 740 L S
199 156 M 199 161 L S
199 428 M 199 438 L S
199 735 M 199 740 L S
[2 3] 0 D
221 156 M 221 740 L S
[] 0 D
/Courier-Bold findfont 30 scalefont setfont
203 128 M (-.6) H
221 156 M 221 166 L S
221 423 M 221 443 L S
221 730 M 221 740 L S
243 156 M 243 161 L S
243 428 M 243 438 L S
243 735 M 243 740 L S
265 156 M 265 161 L S
265 428 M 265 438 L S
265 735 M 265 740 L S
287 156 M 287 161 L S
287 428 M 287 438 L S
287 735 M 287 740 L S
310 156 M 310 161 L S
310 428 M 310 438 L S
310 735 M 310 740 L S
[2 3] 0 D
332 156 M 332 740 L S
[] 0 D
332 156 M 332 166 L S
332 423 M 332 443 L S
332 730 M 332 740 L S
354 156 M 354 161 L S
354 428 M 354 438 L S
354 735 M 354 740 L S
376 156 M 376 161 L S
376 428 M 376 438 L S
376 735 M 376 740 L S
399 156 M 399 161 L S
399 428 M 399 438 L S
399 735 M 399 740 L S
421 156 M 421 161 L S
421 428 M 421 438 L S
421 735 M 421 740 L S
[2 3] 0 D
443 156 M 443 740 L S
[] 0 D
425 128 M (-.4) H
443 156 M 443 166 L S
443 423 M 443 443 L S
443 730 M 443 740 L S
465 156 M 465 161 L S
465 428 M 465 438 L S
465 735 M 465 740 L S
487 156 M 487 161 L S
487 428 M 487 438 L S
487 735 M 487 740 L S
510 156 M 510 161 L S
510 428 M 510 438 L S
510 735 M 510 740 L S
532 156 M 532 161 L S
532 428 M 532 438 L S
532 735 M 532 740 L S
[2 3] 0 D
554 156 M 554 740 L S
[] 0 D
554 156 M 554 166 L S
554 423 M 554 443 L S
554 730 M 554 740 L S
576 156 M 576 161 L S
576 428 M 576 438 L S
576 735 M 576 740 L S
599 156 M 599 161 L S
599 428 M 599 438 L S
599 735 M 599 740 L S
621 156 M 621 161 L S
621 428 M 621 438 L S
621 735 M 621 740 L S
643 156 M 643 161 L S
643 428 M 643 438 L S
643 735 M 643 740 L S
[2 3] 0 D
665 156 M 665 740 L S
[] 0 D
647 128 M (-.2) H
665 156 M 665 166 L S
665 423 M 665 443 L S
665 730 M 665 740 L S
687 156 M 687 161 L S
687 428 M 687 438 L S
687 735 M 687 740 L S
710 156 M 710 161 L S
710 428 M 710 438 L S
710 735 M 710 740 L S
732 156 M 732 161 L S
732 428 M 732 438 L S
732 735 M 732 740 L S
754 156 M 754 161 L S
754 428 M 754 438 L S
754 735 M 754 740 L S
[2 3] 0 D
776 156 M 776 740 L S
[] 0 D
776 156 M 776 166 L S
776 423 M 776 443 L S
776 730 M 776 740 L S
799 156 M 799 161 L S
799 428 M 799 438 L S
799 735 M 799 740 L S
821 156 M 821 161 L S
821 428 M 821 438 L S
821 735 M 821 740 L S
843 156 M 843 161 L S
843 428 M 843 438 L S
843 735 M 843 740 L S
865 156 M 865 161 L S
865 428 M 865 438 L S
865 735 M 865 740 L S
[2 3] 0 D
887 156 M 887 740 L S
[] 0 D
869 128 M (0.0) H
887 156 M 887 166 L S
887 423 M 887 443 L S
887 730 M 887 740 L S
910 156 M 910 161 L S
910 428 M 910 438 L S
910 735 M 910 740 L S
932 156 M 932 161 L S
932 428 M 932 438 L S
932 735 M 932 740 L S
954 156 M 954 161 L S
954 428 M 954 438 L S
954 735 M 954 740 L S
102 169 M 107 169 L S
882 169 M 892 169 L S
967 169 M 972 169 L S
102 186 M 107 186 L S
882 186 M 892 186 L S
967 186 M 972 186 L S
102 204 M 107 204 L S
882 204 M 892 204 L S
967 204 M 972 204 L S
[2 3] 0 D
102 222 M 972 222 L S
[] 0 D
33 212 M (-.6) H
102 222 M 112 222 L S
877 222 M 897 222 L S
962 222 M 972 222 L S
102 239 M 107 239 L S
882 239 M 892 239 L S
967 239 M 972 239 L S
102 257 M 107 257 L S
882 257 M 892 257 L S
967 257 M 972 257 L S
102 275 M 107 275 L S
882 275 M 892 275 L S
967 275 M 972 275 L S
[2 3] 0 D
102 292 M 972 292 L S
[] 0 D
33 282 M (-.4) H
102 292 M 112 292 L S
877 292 M 897 292 L S
962 292 M 972 292 L S
102 310 M 107 310 L S
882 310 M 892 310 L S
967 310 M 972 310 L S
102 327 M 107 327 L S
882 327 M 892 327 L S
967 327 M 972 327 L S
102 345 M 107 345 L S
882 345 M 892 345 L S
967 345 M 972 345 L S
[2 3] 0 D
102 363 M 972 363 L S
[] 0 D
33 353 M (-.2) H
102 363 M 112 363 L S
877 363 M 897 363 L S
962 363 M 972 363 L S
102 380 M 107 380 L S
882 380 M 892 380 L S
967 380 M 972 380 L S
102 398 M 107 398 L S
882 398 M 892 398 L S
967 398 M 972 398 L S
102 416 M 107 416 L S
882 416 M 892 416 L S
967 416 M 972 416 L S
[2 3] 0 D
102 433 M 972 433 L S
[] 0 D
33 423 M (0.0) H
102 433 M 112 433 L S
877 433 M 897 433 L S
962 433 M 972 433 L S
102 451 M 107 451 L S
882 451 M 892 451 L S
967 451 M 972 451 L S
102 468 M 107 468 L S
882 468 M 892 468 L S
967 468 M 972 468 L S
102 486 M 107 486 L S
882 486 M 892 486 L S
967 486 M 972 486 L S
[2 3] 0 D
102 504 M 972 504 L S
[] 0 D
33 494 M (0.2) H
102 504 M 112 504 L S
877 504 M 897 504 L S
962 504 M 972 504 L S
102 521 M 107 521 L S
882 521 M 892 521 L S
967 521 M 972 521 L S
102 539 M 107 539 L S
882 539 M 892 539 L S
967 539 M 972 539 L S
102 557 M 107 557 L S
882 557 M 892 557 L S
967 557 M 972 557 L S
[2 3] 0 D
102 574 M 972 574 L S
[] 0 D
33 564 M (0.4) H
102 574 M 112 574 L S
877 574 M 897 574 L S
962 574 M 972 574 L S
102 592 M 107 592 L S
882 592 M 892 592 L S
967 592 M 972 592 L S
102 609 M 107 609 L S
882 609 M 892 609 L S
967 609 M 972 609 L S
102 627 M 107 627 L S
882 627 M 892 627 L S
967 627 M 972 627 L S
[2 3] 0 D
102 645 M 972 645 L S
[] 0 D
33 635 M (0.6) H
102 645 M 112 645 L S
877 645 M 897 645 L S
962 645 M 972 645 L S
102 662 M 107 662 L S
882 662 M 892 662 L S
967 662 M 972 662 L S
102 680 M 107 680 L S
882 680 M 892 680 L S
967 680 M 972 680 L S
102 698 M 107 698 L S
882 698 M 892 698 L S
967 698 M 972 698 L S
[2 3] 0 D
102 715 M 972 715 L S
[] 0 D
33 705 M (0.8) H
102 715 M 112 715 L S
877 715 M 897 715 L S
962 715 M 972 715 L S
102 733 M 107 733 L S
882 733 M 892 733 L S
967 733 M 972 733 L S
[] 0 D
102 156 M 972 156 L S
972 156 M 972 740 L S
972 740 M 102 740 L S
102 740 M 102 156 L S
887 156 M 887 740 L S
102 433 M 972 433 L S
[] 0 D
102 433 M 102 433 L S
102 433 M 102 433 L S
102 433 M 121 433 L S
121 433 M 140 433 L S
140 433 M 159 434 L S
159 434 M 178 434 L S
178 434 M 197 434 L S
197 434 M 215 436 L S
215 436 M 234 445 L S
234 445 M 253 478 L S
253 478 M 272 555 L S
272 555 M 291 651 L S
291 651 M 310 710 L S
310 710 M 329 729 L S
329 729 M 348 733 L S
348 733 M 367 732 L S
367 732 M 386 725 L S
386 725 M 405 695 L S
405 695 M 424 614 L S
424 614 M 442 503 L S
442 503 M 461 388 L S
461 388 M 480 280 L S
480 280 M 499 199 L S
499 199 M 518 169 L S
518 169 M 537 163 L S
537 163 M 556 167 L S
556 167 M 575 193 L S
575 193 M 594 266 L S
594 266 M 613 372 L S
613 372 M 632 487 L S
632 487 M 650 599 L S
650 599 M 669 687 L S
669 687 M 688 723 L S
688 723 M 707 732 L S
707 732 M 726 733 L S
726 733 M 745 730 L S
745 730 M 764 714 L S
764 714 M 783 663 L S
783 663 M 802 569 L S
802 569 M 821 486 L S
821 486 M 840 447 L S
840 447 M 859 437 L S
859 437 M 877 434 L S
877 434 M 896 434 L S
896 434 M 915 434 L S
915 434 M 934 433 L S
934 433 M 953 433 L S
953 433 M 972 433 L S
102 433 M 102 433 L S
102 433 M 102 433 L S
102 433 M 121 433 L S
121 433 M 140 433 L S
140 433 M 159 433 L S
159 433 M 178 434 L S
178 434 M 197 434 L S
197 434 M 215 434 L S
215 434 M 234 434 L S
234 434 M 253 450 L S
253 450 M 272 542 L S
272 542 M 291 678 L S
291 678 M 310 731 L S
310 731 M 329 734 L S
329 734 M 348 734 L S
348 734 M 367 734 L S
367 734 M 386 734 L S
386 734 M 405 726 L S
405 726 M 424 632 L S
424 632 M 442 500 L S
442 500 M 461 390 L S
461 390 M 480 263 L S
480 263 M 499 169 L S
499 169 M 518 160 L S
518 160 M 537 160 L S
537 160 M 556 160 L S
556 160 M 575 165 L S
575 165 M 594 245 L S
594 245 M 613 373 L S
613 373 M 632 484 L S
632 484 M 650 613 L S
650 613 M 669 720 L S
669 720 M 688 734 L S
688 734 M 707 734 L S
707 734 M 726 734 L S
726 734 M 745 734 L S
745 734 M 764 732 L S
764 732 M 783 693 L S
783 693 M 802 561 L S
802 561 M 821 458 L S
821 458 M 840 434 L S
840 434 M 859 434 L S
859 434 M 877 434 L S
877 434 M 896 434 L S
896 434 M 915 433 L S
915 433 M 934 433 L S
934 433 M 953 433 L S
953 433 M 972 433 L S
102 433 M 102 433 L S
102 433 M 102 433 L S
102 433 M 121 433 L S
121 433 M 140 433 L S
140 433 M 159 434 L S
159 434 M 178 434 L S
178 434 M 197 434 L S
197 434 M 215 436 L S
215 436 M 234 445 L S
234 445 M 253 478 L S
253 478 M 272 555 L S
272 555 M 291 651 L S
291 651 M 310 710 L S
310 710 M 329 729 L S
329 729 M 348 733 L S
348 733 M 367 732 L S
367 732 M 386 725 L S
386 725 M 405 695 L S
405 695 M 424 614 L S
424 614 M 442 503 L S
442 503 M 461 388 L S
461 388 M 480 280 L S
480 280 M 499 199 L S
499 199 M 518 169 L S
518 169 M 537 163 L S
537 163 M 556 167 L S
556 167 M 575 193 L S
575 193 M 594 266 L S
594 266 M 613 372 L S
613 372 M 632 487 L S
632 487 M 650 599 L S
650 599 M 669 687 L S
669 687 M 688 723 L S
688 723 M 707 732 L S
707 732 M 726 733 L S
726 733 M 745 730 L S
745 730 M 764 714 L S
764 714 M 783 663 L S
783 663 M 802 569 L S
802 569 M 821 486 L S
821 486 M 840 447 L S
840 447 M 859 437 L S
859 437 M 877 434 L S
877 434 M 896 434 L S
896 434 M 915 434 L S
915 434 M 934 433 L S
934 433 M 953 433 L S
953 433 M 972 433 L S
102 433 M 102 433 L S
102 433 M 102 433 L S
102 433 M 121 433 L S
121 433 M 140 433 L S
140 433 M 159 433 L S
159 433 M 178 433 L S
178 433 M 197 433 L S
197 433 M 215 435 L S
215 435 M 234 437 L S
234 437 M 253 454 L S
253 454 M 272 543 L S
272 543 M 291 672 L S
291 672 M 310 724 L S
310 724 M 329 736 L S
329 736 M 348 734 L S
348 734 M 367 733 L S
367 733 M 386 740 L S
386 740 M 405 726 L S
405 726 M 424 625 L S
424 625 M 442 505 L S
442 505 M 461 385 L S
461 385 M 480 269 L S
480 269 M 499 169 L S
499 169 M 518 158 L S
518 158 M 537 159 L S
537 159 M 556 156 L S
556 156 M 575 162 L S
575 162 M 594 252 L S
594 252 M 613 369 L S
613 369 M 632 489 L S
632 489 M 650 610 L S
650 610 M 669 717 L S
669 717 M 688 738 L S
688 738 M 707 733 L S
707 733 M 726 734 L S
726 734 M 745 737 L S
745 737 M 764 728 L S
764 728 M 783 689 L S
783 689 M 802 567 L S
802 567 M 821 462 L S
821 462 M 840 430 L S
840 430 M 859 432 L S
859 432 M 877 434 L S
877 434 M 896 433 L S
896 433 M 915 433 L S
915 433 M 934 433 L S
934 433 M 953 433 L S
953 433 M 972 433 L S
972 433 M 972 433 L S
/Courier-Bold findfont 27 scalefont setfont
101 764 M (Zgoubi|Zpop                                                                     ) H
101 743 M (13-09-2018                                                                      ) H
/Courier-Bold findfont 26 scalefont setfont
160 85 M (* # TRAJECTORIES - STORAGE FILE, 13-09-2018 02:58:08 *                                                                            ) H
293 755 M (  BZ     (T)  vs.    X     (m)                                                                                                    ) H
26 42 M (Mi-ma H/V:  -0.707      7.612E-02/ -0.786      0.870                                                                              ) H
26 21 M (Part#  1- 10000 (*); Lmnt#     1; pass#       1-      1, [    1];    188 pnts                                                     ) H
showpage
