150MeV FFAG at KEK. Track through FFAG cell. Log in zgoubi.plt. 
 'OBJET'                                                                                                      1
1839.090113 150MeV
3    HEADER_4
1  9      1             !  All particles in orbits4Obj3.fai have #1 !
1  9999   1             !  Pass number is irrelevant.
1. 1. 1. 1. 1. 1. 1. '*'
0. 0. 0. 0. 0. 0. 0.
0
orbits4Obj3.fai
 
 'FAISCEAU'                                                                                                   2
 
 'FFAG'                                                                                                       3
2
5   30.     540.                     !   NMAG, AT=tetaF+2tetaD+2Atan(XFF/R0), R0
0.  0.  -.6  0.1                     !   mag 0 : ACNT, dum, B0, K
6.3  03.                             !   EFB 1 : lambda, gap const/var=0/.ne.0
4  .1455   2.2670  -.6395  1.1558  0. 0.  0.
4.7 0.    1.E6  -1.E6  1.E6  1.E6
6.3  03.                             !   EFB 2
4  .1455   2.2670  -.6395  1.1558  0. 0.  0.
-4.7  0.    1.E6  -1.E6  1.E6  1.E6
0. -1                                !  EFB 3 : inhibited by iop=0
0  0.      0.      0.      0.      0. 0.  0.
0.  0.   0.    0.    0. 0.
6.465  0.  -.967E+01  7.6            !  mag 1 : ACNT, dum, B0, K
8.3  03.                             !   EFB 1 : lambda, gap const/var=0/.ne.0
4  .1455   2.2670  -.6395  1.1558  0. 0.  0.
+2.5  0.    1.E6  -1.E6  1.E6  1.E6
6.3  03.                             !   EFB 2
4  .1455   2.2670  -.6395  1.1558  0. 0.  0.
-1.765  0.    1.E6  -1.E6  1.E6  1.E6
0. -1                                !   EFB 3 : inhibited by iop=0
0  0.      0.      0.      0.      0. 0.  0.
0.  0.   0.    0.    0. 0.
15.   0.   1.69055873E+01  7.6       !           mag 2 : ACNT, dum, B0, K,dummies
6.3  03.                             !   EFB 1
4  .1455   2.2670  -.6395  1.1558  0. 0.  0.
5.37   0.    1.E6  -1.E6  1.E6  1.E6
6.3  03.                             !   EFB 2
4  .1455   2.2670  -.6395  1.1558  0. 0.  0.
-5.37   0.    1.E6  -1.E6  1.E6  1.E6
0. -1                                !   EFB 3
0  0.      0.      0.      0.      0. 0.  0.
0.  0.   0.    0.    0. 0.
23.535  0.  -.967E+01  7.6           !  mag 3 : ACNT, dum, B0, K
6.3  03.                             !   EFB 1
4  .1455   2.2670  -.6395  1.1558  0. 0.  0.
1.765  0.    1.E6  -1.E6  1.E6  1.E6
8.3  03.                             !   EFB 2
4  .1455   2.2670  -.6395  1.1558  0. 0.  0.
-2.5  0.    1.E6  -1.E6  1.E6  1.E6
0. -1                                !   EFB 3
0  0.      0.      0.      0.      0. 0.  0.
0.  0.   0.    0.    0. 0.
30.  0.  -.6  0.1                    !  mag 4 : ACNT, dum, B0, K
6.3  03.                             !   EFB 1 : lambda, gap const/var=0/.ne.0
4  .1455   2.2670  -.6395  1.1558  0. 0.  0.
4.7 0.    1.E6  -1.E6  1.E6  1.E6
6.3  03.                             !   EFB 2
4  .1455   2.2670  -.6395  1.1558  0. 0.  0.
-4.7  0.    1.E6  -1.E6  1.E6  1.E6
0. -1                                !   EFB 3 : inhibited by iop=0
0  0.      0.      0.      0.      0. 0.  0.
0.  0.   0.    0.    0. 0.
2  125.                              ! KIRD : anal/num (=0/2,25,4), resol~1e3*step (mesh=step/resol)
.25                                  ! integration step size (cm)
2   0.  0. 0. 0.                     ! (comp anal/num yield best num prec for resol=
 
 'MARKER'  #E                                                                                                 4
 
 'FAISCEAU'                                                                                                   5
 
 'SYSTEM'                                                                                                     6
6
cp gnuplot_zgoubi.plt.cmd gnuplot_zgoubi.plt_temp.cmd
sed -i 's@pause 2@pause 0@g' gnuplot_zgoubi.plt_temp.cmd
gnuplot < gnuplot_zgoubi.plt_temp.cmd
mv -f gnuplot_zgoubi.plt_B.vs.X.eps  gnuplot_zgoubi.plt_B.vs.X_save.eps
okular gnuplot_zgoubi.plt_B.vs.X_save.eps  &
rm -f gnuplot_zgoubi.plt_temp.cmd
 
 'END'                                                                                                        7

************************************************************************************************************************************
      1  Keyword, label(s) :  OBJET                                                 

                          MAGNETIC  RIGIDITY =       1839.090 kG*cm

   Opening input file  orbits4Obj3.fai,  in logical unit # :  23

   Reading  initial  conditions  in  file  orbits4Obj3.fai

   Particles            1  to          9,  step          1

   Pass #               1  to       9999,  step          1


          Now reading file header  (4 lines) : 

# COORDINATES  - STORAGE FILE, 27-09-2018 22:53:18. Data generated by searchCO
#  1 ,  2   , 3 ,  4 , 5 , 6  , 7 ,  8  ,  9   , 10,  11, 12,  13, 14, 15  ,   16 ,  17 ,  18 , 19   ,  20  ,  21 ,  22 ,  23 ,   24   ,  25  ,  26,  27 , 28  ,   29  ,30,  31  ,   32 , unused,   34 ,   35 ,    36,  37  , 38   , 39  ,  40   ,  41/lbl1, 42/lbl2,  43 ,  4
# KEX,  Do-1, Yo,  To, Zo,  Po, So,   to,   D-1,  Y,   T,  Z,   P,  S, time,   SXo,  SYo,  SZo, modSo,    SX,   SY,   SZ, modS,   ENEKI, ENERG,  IT, IREP, SORT,      M, Q,     G,   tau, unused,   RET,   DPR,    PS,  BORO, IPASS, NOEL,   KLEY,  LABEL1, LABEL2,    LET,  S
# int, float, cm, mrd, cm, mrd, cm, mu_s, float, cm, mrd, cm, mrd, cm, mu_s, float,float,float, float, float,float,float,float,     MeV,   MeV, int,  int,   cm, MeV/c2, C, float, float,  float, float, float, float, kG.cm,   int,  int, string,  string, string, string,  M
          Header reading went on ok, it seems. Now proceeding... 


      Reading in file orbits4Obj3.fai has ended after gathering       9 particles in requested range :  [      1,       9]

************************************************************************************************************************************
      2  Keyword, label(s) :  FAISCEAU                                              

0                                             TRACE DU FAISCEAU
                                           (follows element #      1)
                                                  9 TRAJECTOIRES

                                   OBJET                                                  FAISCEAU

          D       Y(cm)     T(mr)     Z(cm)     P(mr)       S(cm)      D-1     Y(cm)    T(mr)    Z(cm)    P(mr)      S(cm)

o  1   0.2730   444.316     0.000     0.000     0.000      0.0000   -0.7270  444.316   -0.000    0.000    0.000   2.432119E+02     1
o  1   0.2730   444.316     0.000     0.000     0.000      0.0000   -0.7270  444.316   -0.000    0.000    0.000   2.432119E+02     2
o  1   0.3769   460.673     0.000     0.000     0.000      0.0000   -0.6231  460.673   -0.000    0.000    0.000   2.514176E+02     3
o  1   0.4807   473.497     0.000     0.000     0.000      0.0000   -0.5193  473.497    0.000    0.000    0.000   2.579739E+02     4
o  1   0.5846   484.107     0.000     0.000     0.000      0.0000   -0.4154  484.107   -0.000    0.000    0.000   2.634584E+02     5
o  1   0.6884   493.189     0.000     0.000     0.000      0.0000   -0.3116  493.189   -0.000    0.000    0.000   2.681872E+02     6
o  1   0.7923   501.147     0.000     0.000     0.000      0.0000   -0.2077  501.147   -0.000    0.000    0.000   2.723529E+02     7
o  1   0.8961   508.243     0.000     0.000     0.000      0.0000   -0.1039  508.243   -0.000    0.000    0.000   2.760817E+02     8
o  1   1.0000   514.655     0.000     0.000     0.000      0.0000   -0.0000  514.655    0.000    0.000    0.000   2.794612E+02     9


---------------  Concentration ellipses : 
   surface      alpha        beta         <X>            <XP>           numb. of prtcls   ratio      space      pass# 
                                                                        in ellips,  out 
   3.8861E-09  -2.4088E-01   5.0278E+07   4.804603E+00  -1.285604E-09        9        7   0.7778      (Y,T)         1
   0.0000E+00   0.0000E+00   1.0000E+00   0.000000E+00   0.000000E+00        9        9    1.000      (Z,P)         1
   2.7156E-02  -6.8052E+00   2.1227E-05   8.729582E-03   3.286763E+02        9        8   0.8889      (t,K)         1

(Y,T)  space (units : (cm,rd)   ) :  
      sigma_Y = sqrt(Surface/pi * BET) =   2.493838E-01
      sigma_T = sqrt(Surface/pi * (1+ALF^2)/BET) =   5.102009E-09

(Z,P)  space (units : (cm,rd)   ) :  
      sigma_Z = sqrt(Surface/pi * BET) =   0.000000E+00
      sigma_P = sqrt(Surface/pi * (1+ALF^2)/BET) =   0.000000E+00

(t,K)  space (units : (mu_s,MeV)) :  
      sigma_t = sqrt(Surface/pi * BET) =   4.283536E-04
      sigma_K = sqrt(Surface/pi * (1+ALF^2)/BET) =   1.388019E+02


  Beam  sigma  matrix : 

   6.219227E-02   2.979644E-10   0.000000E+00   0.000000E+00
   2.979644E-10   2.603049E-17   0.000000E+00   0.000000E+00
   0.000000E+00   0.000000E+00   0.000000E+00   0.000000E+00
   0.000000E+00   0.000000E+00   0.000000E+00   0.000000E+00

      sqrt(det_Y), sqrt(det_Z) :     1.236977E-09    0.000000E+00    (Note :  sqrt(determinant) = ellipse surface / pi)

************************************************************************************************************************************
      3  Keyword, label(s) :  FFAG                                                  


                OPEN FILE zgoubi.plt                                                                      
                FOR PRINTING TRAJECTORIES

                    FFAG  N-tuple,  number  of  dipoles,  N :  5

            Total angular extent of the magnet :  30.0000 Degres
            Reference geometrical radius R0  :     540.0000 cm

     Dipole # 1
            Positionning  angle ACENT :    0.00000     degrees
            Positionning  wrt.  R0  :    0.00000     cm
            B0 = -0.60000000     kGauss,       K =  0.10000    

     Entrance  EFB
          Fringe  field  :  gap at R0 is   6.30 cm,    type is :  g_0(r0/r)^K
           COEFFICIENTS :  4   0.14550   2.26700  -0.63950   1.15580   0.00000   0.00000
           Shift  of  EFB  is    0.000     cm

          OMEGA =   4.70 deg.     Wedge  angle  =   0.00 deg.
           Radius 1 =  1.00E+06 CM
           Straight  segment 1 = -1.00E+06 CM
           Straight  segment 2 =  1.00E+06 CM
           Radius 2 =  1.00E+06 CM

         Exit  EFB
          Fringe  field  :  gap at R0 is   6.30 cm,    type is :  g_0(r0/r)^K
           COEFFICIENTS :  4   0.14550   2.26700  -0.63950   1.15580   0.00000   0.00000
           Shift  of  EFB  is    0.000     cm

          OMEGA =  -4.70 deg.     Wedge  angle  =   0.00 deg.
           Radius 1 =  1.00E+06 CM
           Straight  segment 1 = -1.00E+06 CM
           Straight  segment 2 =  1.00E+06 CM
           Radius 2 =  1.00E+06 CM

         Lateral face :  unused

     Dipole # 2
            Positionning  angle ACENT :    6.46500     degrees
            Positionning  wrt.  R0  :    0.00000     cm
            B0 =  -9.6700000     kGauss,       K =   7.6000    

     Entrance  EFB
          Fringe  field  :  gap at R0 is   8.30 cm,    type is :  g_0(r0/r)^K
           COEFFICIENTS :  4   0.14550   2.26700  -0.63950   1.15580   0.00000   0.00000
           Shift  of  EFB  is    0.000     cm

          OMEGA =   2.50 deg.     Wedge  angle  =   0.00 deg.
           Radius 1 =  1.00E+06 CM
           Straight  segment 1 = -1.00E+06 CM
           Straight  segment 2 =  1.00E+06 CM
           Radius 2 =  1.00E+06 CM

         Exit  EFB
          Fringe  field  :  gap at R0 is   6.30 cm,    type is :  g_0(r0/r)^K
           COEFFICIENTS :  4   0.14550   2.26700  -0.63950   1.15580   0.00000   0.00000
           Shift  of  EFB  is    0.000     cm

          OMEGA =  -1.76 deg.     Wedge  angle  =   0.00 deg.
           Radius 1 =  1.00E+06 CM
           Straight  segment 1 = -1.00E+06 CM
           Straight  segment 2 =  1.00E+06 CM
           Radius 2 =  1.00E+06 CM

         Lateral face :  unused

     Dipole # 3
            Positionning  angle ACENT :    15.0000     degrees
            Positionning  wrt.  R0  :    0.00000     cm
            B0 =   16.905587     kGauss,       K =   7.6000    

     Entrance  EFB
          Fringe  field  :  gap at R0 is   6.30 cm,    type is :  g_0(r0/r)^K
           COEFFICIENTS :  4   0.14550   2.26700  -0.63950   1.15580   0.00000   0.00000
           Shift  of  EFB  is    0.000     cm

          OMEGA =   5.37 deg.     Wedge  angle  =   0.00 deg.
           Radius 1 =  1.00E+06 CM
           Straight  segment 1 = -1.00E+06 CM
           Straight  segment 2 =  1.00E+06 CM
           Radius 2 =  1.00E+06 CM

         Exit  EFB
          Fringe  field  :  gap at R0 is   6.30 cm,    type is :  g_0(r0/r)^K
           COEFFICIENTS :  4   0.14550   2.26700  -0.63950   1.15580   0.00000   0.00000
           Shift  of  EFB  is    0.000     cm

          OMEGA =  -5.37 deg.     Wedge  angle  =   0.00 deg.
           Radius 1 =  1.00E+06 CM
           Straight  segment 1 = -1.00E+06 CM
           Straight  segment 2 =  1.00E+06 CM
           Radius 2 =  1.00E+06 CM

         Lateral face :  unused

     Dipole # 4
            Positionning  angle ACENT :    23.5350     degrees
            Positionning  wrt.  R0  :    0.00000     cm
            B0 =  -9.6700000     kGauss,       K =   7.6000    

     Entrance  EFB
          Fringe  field  :  gap at R0 is   6.30 cm,    type is :  g_0(r0/r)^K
           COEFFICIENTS :  4   0.14550   2.26700  -0.63950   1.15580   0.00000   0.00000
           Shift  of  EFB  is    0.000     cm

          OMEGA =   1.76 deg.     Wedge  angle  =   0.00 deg.
           Radius 1 =  1.00E+06 CM
           Straight  segment 1 = -1.00E+06 CM
           Straight  segment 2 =  1.00E+06 CM
           Radius 2 =  1.00E+06 CM

         Exit  EFB
          Fringe  field  :  gap at R0 is   8.30 cm,    type is :  g_0(r0/r)^K
           COEFFICIENTS :  4   0.14550   2.26700  -0.63950   1.15580   0.00000   0.00000
           Shift  of  EFB  is    0.000     cm

          OMEGA =  -2.50 deg.     Wedge  angle  =   0.00 deg.
           Radius 1 =  1.00E+06 CM
           Straight  segment 1 = -1.00E+06 CM
           Straight  segment 2 =  1.00E+06 CM
           Radius 2 =  1.00E+06 CM

         Lateral face :  unused

     Dipole # 5
            Positionning  angle ACENT :    30.0000     degrees
            Positionning  wrt.  R0  :    0.00000     cm
            B0 = -0.60000000     kGauss,       K =  0.10000    

     Entrance  EFB
          Fringe  field  :  gap at R0 is   6.30 cm,    type is :  g_0(r0/r)^K
           COEFFICIENTS :  4   0.14550   2.26700  -0.63950   1.15580   0.00000   0.00000
           Shift  of  EFB  is    0.000     cm

          OMEGA =   4.70 deg.     Wedge  angle  =   0.00 deg.
           Radius 1 =  1.00E+06 CM
           Straight  segment 1 = -1.00E+06 CM
           Straight  segment 2 =  1.00E+06 CM
           Radius 2 =  1.00E+06 CM

         Exit  EFB
          Fringe  field  :  gap at R0 is   6.30 cm,    type is :  g_0(r0/r)^K
           COEFFICIENTS :  4   0.14550   2.26700  -0.63950   1.15580   0.00000   0.00000
           Shift  of  EFB  is    0.000     cm

          OMEGA =  -4.70 deg.     Wedge  angle  =   0.00 deg.
           Radius 1 =  1.00E+06 CM
           Straight  segment 1 = -1.00E+06 CM
           Straight  segment 2 =  1.00E+06 CM
           Radius 2 =  1.00E+06 CM

         Lateral face :  unused


     KIRD, resol :  2   125.000

     Field & deriv. calculation : interpolation
                    Order 2, 3*3-point  interpolation, size of flying mesh :  integration step /   125.0    

                    Integration step :  0.2500     cm   (i.e.,   4.6296E-04 rad  at mean radius RM =    540.0    )

                               KPOS = 2.  Position of reference orbit on mechanical  faces
                                         at entrance    RE =   0.00000     cm  TE =   0.00000     rad
                                         at exit        RS =   0.00000     cm  TS =   0.00000     rad

  A    1  0.2730   444.316     0.000     0.000     0.000            0.524   444.316     0.000     0.000     0.000            1
  A    1  0.2730   444.316     0.000     0.000     0.000            0.524   444.316     0.000     0.000     0.000            2
  A    1  0.3769   460.673     0.000     0.000     0.000            0.524   460.673    -0.000     0.000     0.000            3
  A    1  0.4807   473.497     0.000     0.000     0.000            0.524   473.497    -0.000     0.000     0.000            4
  A    1  0.5846   484.107     0.000     0.000     0.000            0.524   484.107     0.000     0.000     0.000            5
  A    1  0.6884   493.189     0.000     0.000     0.000            0.524   493.189    -0.000     0.000     0.000            6
  A    1  0.7923   501.147     0.000     0.000     0.000            0.524   501.147     0.000     0.000     0.000            7
  A    1  0.8961   508.243     0.000     0.000     0.000            0.524   508.243     0.000     0.000     0.000            8
  A    1  1.0000   514.655     0.000     0.000     0.000            0.524   514.655    -0.000     0.000     0.000            9


                CONDITIONS  DE  MAXWELL  (     9427.  PAS )  :
                       DIV(B)        LAPLACIEN(B)     ROTATIONNEL(B)
                      0.000            0.000             0.000    
                                       0.000             0.000    
                                       0.000             0.000    
                       LAPLACIEN SCALAIRE =   0.000    



 Cumulative length of optical axis =    2.99453662     m ;  Time  (for ref. rigidity & particle) =   1.971618E-08 s 

************************************************************************************************************************************
      4  Keyword, label(s) :  MARKER      #E                                        


************************************************************************************************************************************
      5  Keyword, label(s) :  FAISCEAU                                              

0                                             TRACE DU FAISCEAU
                                           (follows element #      4)
                                                  9 TRAJECTOIRES

                                   OBJET                                                  FAISCEAU

          D       Y(cm)     T(mr)     Z(cm)     P(mr)       S(cm)      D-1     Y(cm)    T(mr)    Z(cm)    P(mr)      S(cm)

o  1   0.2730   444.316     0.000     0.000     0.000      0.0000   -0.7270  444.316    0.000    0.000    0.000   4.864238E+02     1
o  1   0.2730   444.316     0.000     0.000     0.000      0.0000   -0.7270  444.316    0.000    0.000    0.000   4.864238E+02     2
o  1   0.3769   460.673     0.000     0.000     0.000      0.0000   -0.6231  460.673   -0.000    0.000    0.000   5.028351E+02     3
o  1   0.4807   473.497     0.000     0.000     0.000      0.0000   -0.5193  473.497   -0.000    0.000    0.000   5.159478E+02     4
o  1   0.5846   484.107     0.000     0.000     0.000      0.0000   -0.4154  484.107    0.000    0.000    0.000   5.269168E+02     5
o  1   0.6884   493.189     0.000     0.000     0.000      0.0000   -0.3116  493.189   -0.000    0.000    0.000   5.363744E+02     6
o  1   0.7923   501.147     0.000     0.000     0.000      0.0000   -0.2077  501.147    0.000    0.000    0.000   5.447057E+02     7
o  1   0.8961   508.243     0.000     0.000     0.000      0.0000   -0.1039  508.243    0.000    0.000    0.000   5.521634E+02     8
o  1   1.0000   514.655     0.000     0.000     0.000      0.0000   -0.0000  514.655   -0.000    0.000    0.000   5.589225E+02     9


---------------  Concentration ellipses : 
   surface      alpha        beta         <X>            <XP>           numb. of prtcls   ratio      space      pass# 
                                                                        in ellips,  out 
   3.7474E-09   3.4369E-01   5.2138E+07   4.804603E+00   3.489008E-10        9        8   0.8889      (Y,T)         1
   0.0000E+00   0.0000E+00   1.0000E+00   0.000000E+00   0.000000E+00        9        9    1.000      (Z,P)         1
   5.4312E-02  -6.8052E+00   4.2454E-05   1.745916E-02   3.286763E+02        9        8   0.8889      (t,K)         1

(Y,T)  space (units : (cm,rd)   ) :  
      sigma_Y = sqrt(Surface/pi * BET) =   2.493838E-01
      sigma_T = sqrt(Surface/pi * (1+ALF^2)/BET) =   5.057777E-09

(Z,P)  space (units : (cm,rd)   ) :  
      sigma_Z = sqrt(Surface/pi * BET) =   0.000000E+00
      sigma_P = sqrt(Surface/pi * (1+ALF^2)/BET) =   0.000000E+00

(t,K)  space (units : (mu_s,MeV)) :  
      sigma_t = sqrt(Surface/pi * BET) =   8.567073E-04
      sigma_K = sqrt(Surface/pi * (1+ALF^2)/BET) =   1.388019E+02


  Beam  sigma  matrix : 

   6.219227E-02  -4.099669E-10   0.000000E+00   0.000000E+00
  -4.099669E-10   2.558111E-17   0.000000E+00   0.000000E+00
   0.000000E+00   0.000000E+00   0.000000E+00   0.000000E+00
   0.000000E+00   0.000000E+00   0.000000E+00   0.000000E+00

      sqrt(det_Y), sqrt(det_Z) :     1.192843E-09    0.000000E+00    (Note :  sqrt(determinant) = ellipse surface / pi)

************************************************************************************************************************************
      6  Keyword, label(s) :  SYSTEM                                                

     Number  of  commands :   6,  as  follows : 

 cp gnuplot_zgoubi.plt.cmd gnuplot_zgoubi.plt_temp.cmd
 sed -i 's@pause 2@pause 0@g' gnuplot_zgoubi.plt_temp.cmd
 gnuplot < gnuplot_zgoubi.plt_temp.cmd
 mv -f gnuplot_zgoubi.plt_B.vs.X.eps  gnuplot_zgoubi.plt_B.vs.X_save.eps
 okular gnuplot_zgoubi.plt_B.vs.X_save.eps  &
 rm -f gnuplot_zgoubi.plt_temp.cmd

************************************************************************************************************************************
      7  Keyword, label(s) :  END                                                   


                             9 particles have been launched
                     Made  it  to  the  end :      9

************************************************************************************************************************************
 Pgm zgoubi : Execution ended normally, upon keyword END or FIN
   
            ZGOUBI RUN COMPLETED. 

  Zgoubi, author's dvlpmnt version.
  Job  started  on  27-09-2018,  at  22:55:51 
  JOB  ENDED  ON    27-09-2018,  AT  22:55:52 

   CPU time, total :    0.86005299999999996     
