%!PS-Adobe-2.0 EPSF-2.0
%%Title: gnuplot_tunesFromMATRIX_pathAndTOF.eps
%%Creator: gnuplot 5.2 patchlevel 2
%%CreationDate: Fri Aug 24 16:07:50 2018
%%DocumentFonts: (atend)
%%BoundingBox: 50 50 276 191
%%EndComments
%%BeginProlog
/gnudict 256 dict def
gnudict begin
%
% The following true/false flags may be edited by hand if desired.
% The unit line width and grayscale image gamma correction may also be changed.
%
/Color true def
/Blacktext true def
/Solid false def
/Dashlength 1 def
/Landscape false def
/Level1 false def
/Level3 false def
/Rounded false def
/ClipToBoundingBox false def
/SuppressPDFMark false def
/TransparentPatterns false def
/gnulinewidth 5.000 def
/userlinewidth gnulinewidth def
/Gamma 1.0 def
/BackgroundColor {-1.000 -1.000 -1.000} def
%
/vshift -40 def
/dl1 {
  10.0 Dashlength userlinewidth gnulinewidth div mul mul mul
  Rounded { currentlinewidth 0.75 mul sub dup 0 le { pop 0.01 } if } if
} def
/dl2 {
  10.0 Dashlength userlinewidth gnulinewidth div mul mul mul
  Rounded { currentlinewidth 0.75 mul add } if
} def
/hpt_ 31.5 def
/vpt_ 31.5 def
/hpt hpt_ def
/vpt vpt_ def
/doclip {
  ClipToBoundingBox {
    newpath 50 50 moveto 276 50 lineto 276 191 lineto 50 191 lineto closepath
    clip
  } if
} def
%
% Gnuplot Prolog Version 5.1 (Oct 2015)
%
%/SuppressPDFMark true def
%
/M {moveto} bind def
/L {lineto} bind def
/R {rmoveto} bind def
/V {rlineto} bind def
/N {newpath moveto} bind def
/Z {closepath} bind def
/C {setrgbcolor} bind def
/f {rlineto fill} bind def
/g {setgray} bind def
/Gshow {show} def   % May be redefined later in the file to support UTF-8
/vpt2 vpt 2 mul def
/hpt2 hpt 2 mul def
/Lshow {currentpoint stroke M 0 vshift R 
	Blacktext {gsave 0 setgray textshow grestore} {textshow} ifelse} def
/Rshow {currentpoint stroke M dup stringwidth pop neg vshift R
	Blacktext {gsave 0 setgray textshow grestore} {textshow} ifelse} def
/Cshow {currentpoint stroke M dup stringwidth pop -2 div vshift R 
	Blacktext {gsave 0 setgray textshow grestore} {textshow} ifelse} def
/UP {dup vpt_ mul /vpt exch def hpt_ mul /hpt exch def
  /hpt2 hpt 2 mul def /vpt2 vpt 2 mul def} def
/DL {Color {setrgbcolor Solid {pop []} if 0 setdash}
 {pop pop pop 0 setgray Solid {pop []} if 0 setdash} ifelse} def
/BL {stroke userlinewidth 2 mul setlinewidth
	Rounded {1 setlinejoin 1 setlinecap} if} def
/AL {stroke userlinewidth 2 div setlinewidth
	Rounded {1 setlinejoin 1 setlinecap} if} def
/UL {dup gnulinewidth mul /userlinewidth exch def
	dup 1 lt {pop 1} if 10 mul /udl exch def} def
/PL {stroke userlinewidth setlinewidth
	Rounded {1 setlinejoin 1 setlinecap} if} def
3.8 setmiterlimit
% Classic Line colors (version 5.0)
/LCw {1 1 1} def
/LCb {0 0 0} def
/LCa {0 0 0} def
/LC0 {1 0 0} def
/LC1 {0 1 0} def
/LC2 {0 0 1} def
/LC3 {1 0 1} def
/LC4 {0 1 1} def
/LC5 {1 1 0} def
/LC6 {0 0 0} def
/LC7 {1 0.3 0} def
/LC8 {0.5 0.5 0.5} def
% Default dash patterns (version 5.0)
/LTB {BL [] LCb DL} def
/LTw {PL [] 1 setgray} def
/LTb {PL [] LCb DL} def
/LTa {AL [1 udl mul 2 udl mul] 0 setdash LCa setrgbcolor} def
/LT0 {PL [] LC0 DL} def
/LT1 {PL [2 dl1 3 dl2] LC1 DL} def
/LT2 {PL [1 dl1 1.5 dl2] LC2 DL} def
/LT3 {PL [6 dl1 2 dl2 1 dl1 2 dl2] LC3 DL} def
/LT4 {PL [1 dl1 2 dl2 6 dl1 2 dl2 1 dl1 2 dl2] LC4 DL} def
/LT5 {PL [4 dl1 2 dl2] LC5 DL} def
/LT6 {PL [1.5 dl1 1.5 dl2 1.5 dl1 1.5 dl2 1.5 dl1 6 dl2] LC6 DL} def
/LT7 {PL [3 dl1 3 dl2 1 dl1 3 dl2] LC7 DL} def
/LT8 {PL [2 dl1 2 dl2 2 dl1 6 dl2] LC8 DL} def
/SL {[] 0 setdash} def
/Pnt {stroke [] 0 setdash gsave 1 setlinecap M 0 0 V stroke grestore} def
/Dia {stroke [] 0 setdash 2 copy vpt add M
  hpt neg vpt neg V hpt vpt neg V
  hpt vpt V hpt neg vpt V closepath stroke
  Pnt} def
/Pls {stroke [] 0 setdash vpt sub M 0 vpt2 V
  currentpoint stroke M
  hpt neg vpt neg R hpt2 0 V stroke
 } def
/Box {stroke [] 0 setdash 2 copy exch hpt sub exch vpt add M
  0 vpt2 neg V hpt2 0 V 0 vpt2 V
  hpt2 neg 0 V closepath stroke
  Pnt} def
/Crs {stroke [] 0 setdash exch hpt sub exch vpt add M
  hpt2 vpt2 neg V currentpoint stroke M
  hpt2 neg 0 R hpt2 vpt2 V stroke} def
/TriU {stroke [] 0 setdash 2 copy vpt 1.12 mul add M
  hpt neg vpt -1.62 mul V
  hpt 2 mul 0 V
  hpt neg vpt 1.62 mul V closepath stroke
  Pnt} def
/Star {2 copy Pls Crs} def
/BoxF {stroke [] 0 setdash exch hpt sub exch vpt add M
  0 vpt2 neg V hpt2 0 V 0 vpt2 V
  hpt2 neg 0 V closepath fill} def
/TriUF {stroke [] 0 setdash vpt 1.12 mul add M
  hpt neg vpt -1.62 mul V
  hpt 2 mul 0 V
  hpt neg vpt 1.62 mul V closepath fill} def
/TriD {stroke [] 0 setdash 2 copy vpt 1.12 mul sub M
  hpt neg vpt 1.62 mul V
  hpt 2 mul 0 V
  hpt neg vpt -1.62 mul V closepath stroke
  Pnt} def
/TriDF {stroke [] 0 setdash vpt 1.12 mul sub M
  hpt neg vpt 1.62 mul V
  hpt 2 mul 0 V
  hpt neg vpt -1.62 mul V closepath fill} def
/DiaF {stroke [] 0 setdash vpt add M
  hpt neg vpt neg V hpt vpt neg V
  hpt vpt V hpt neg vpt V closepath fill} def
/Pent {stroke [] 0 setdash 2 copy gsave
  translate 0 hpt M 4 {72 rotate 0 hpt L} repeat
  closepath stroke grestore Pnt} def
/PentF {stroke [] 0 setdash gsave
  translate 0 hpt M 4 {72 rotate 0 hpt L} repeat
  closepath fill grestore} def
/Circle {stroke [] 0 setdash 2 copy
  hpt 0 360 arc stroke Pnt} def
/CircleF {stroke [] 0 setdash hpt 0 360 arc fill} def
/C0 {BL [] 0 setdash 2 copy moveto vpt 90 450 arc} bind def
/C1 {BL [] 0 setdash 2 copy moveto
	2 copy vpt 0 90 arc closepath fill
	vpt 0 360 arc closepath} bind def
/C2 {BL [] 0 setdash 2 copy moveto
	2 copy vpt 90 180 arc closepath fill
	vpt 0 360 arc closepath} bind def
/C3 {BL [] 0 setdash 2 copy moveto
	2 copy vpt 0 180 arc closepath fill
	vpt 0 360 arc closepath} bind def
/C4 {BL [] 0 setdash 2 copy moveto
	2 copy vpt 180 270 arc closepath fill
	vpt 0 360 arc closepath} bind def
/C5 {BL [] 0 setdash 2 copy moveto
	2 copy vpt 0 90 arc
	2 copy moveto
	2 copy vpt 180 270 arc closepath fill
	vpt 0 360 arc} bind def
/C6 {BL [] 0 setdash 2 copy moveto
	2 copy vpt 90 270 arc closepath fill
	vpt 0 360 arc closepath} bind def
/C7 {BL [] 0 setdash 2 copy moveto
	2 copy vpt 0 270 arc closepath fill
	vpt 0 360 arc closepath} bind def
/C8 {BL [] 0 setdash 2 copy moveto
	2 copy vpt 270 360 arc closepath fill
	vpt 0 360 arc closepath} bind def
/C9 {BL [] 0 setdash 2 copy moveto
	2 copy vpt 270 450 arc closepath fill
	vpt 0 360 arc closepath} bind def
/C10 {BL [] 0 setdash 2 copy 2 copy moveto vpt 270 360 arc closepath fill
	2 copy moveto
	2 copy vpt 90 180 arc closepath fill
	vpt 0 360 arc closepath} bind def
/C11 {BL [] 0 setdash 2 copy moveto
	2 copy vpt 0 180 arc closepath fill
	2 copy moveto
	2 copy vpt 270 360 arc closepath fill
	vpt 0 360 arc closepath} bind def
/C12 {BL [] 0 setdash 2 copy moveto
	2 copy vpt 180 360 arc closepath fill
	vpt 0 360 arc closepath} bind def
/C13 {BL [] 0 setdash 2 copy moveto
	2 copy vpt 0 90 arc closepath fill
	2 copy moveto
	2 copy vpt 180 360 arc closepath fill
	vpt 0 360 arc closepath} bind def
/C14 {BL [] 0 setdash 2 copy moveto
	2 copy vpt 90 360 arc closepath fill
	vpt 0 360 arc} bind def
/C15 {BL [] 0 setdash 2 copy vpt 0 360 arc closepath fill
	vpt 0 360 arc closepath} bind def
/Rec {newpath 4 2 roll moveto 1 index 0 rlineto 0 exch rlineto
	neg 0 rlineto closepath} bind def
/Square {dup Rec} bind def
/Bsquare {vpt sub exch vpt sub exch vpt2 Square} bind def
/S0 {BL [] 0 setdash 2 copy moveto 0 vpt rlineto BL Bsquare} bind def
/S1 {BL [] 0 setdash 2 copy vpt Square fill Bsquare} bind def
/S2 {BL [] 0 setdash 2 copy exch vpt sub exch vpt Square fill Bsquare} bind def
/S3 {BL [] 0 setdash 2 copy exch vpt sub exch vpt2 vpt Rec fill Bsquare} bind def
/S4 {BL [] 0 setdash 2 copy exch vpt sub exch vpt sub vpt Square fill Bsquare} bind def
/S5 {BL [] 0 setdash 2 copy 2 copy vpt Square fill
	exch vpt sub exch vpt sub vpt Square fill Bsquare} bind def
/S6 {BL [] 0 setdash 2 copy exch vpt sub exch vpt sub vpt vpt2 Rec fill Bsquare} bind def
/S7 {BL [] 0 setdash 2 copy exch vpt sub exch vpt sub vpt vpt2 Rec fill
	2 copy vpt Square fill Bsquare} bind def
/S8 {BL [] 0 setdash 2 copy vpt sub vpt Square fill Bsquare} bind def
/S9 {BL [] 0 setdash 2 copy vpt sub vpt vpt2 Rec fill Bsquare} bind def
/S10 {BL [] 0 setdash 2 copy vpt sub vpt Square fill 2 copy exch vpt sub exch vpt Square fill
	Bsquare} bind def
/S11 {BL [] 0 setdash 2 copy vpt sub vpt Square fill 2 copy exch vpt sub exch vpt2 vpt Rec fill
	Bsquare} bind def
/S12 {BL [] 0 setdash 2 copy exch vpt sub exch vpt sub vpt2 vpt Rec fill Bsquare} bind def
/S13 {BL [] 0 setdash 2 copy exch vpt sub exch vpt sub vpt2 vpt Rec fill
	2 copy vpt Square fill Bsquare} bind def
/S14 {BL [] 0 setdash 2 copy exch vpt sub exch vpt sub vpt2 vpt Rec fill
	2 copy exch vpt sub exch vpt Square fill Bsquare} bind def
/S15 {BL [] 0 setdash 2 copy Bsquare fill Bsquare} bind def
/D0 {gsave translate 45 rotate 0 0 S0 stroke grestore} bind def
/D1 {gsave translate 45 rotate 0 0 S1 stroke grestore} bind def
/D2 {gsave translate 45 rotate 0 0 S2 stroke grestore} bind def
/D3 {gsave translate 45 rotate 0 0 S3 stroke grestore} bind def
/D4 {gsave translate 45 rotate 0 0 S4 stroke grestore} bind def
/D5 {gsave translate 45 rotate 0 0 S5 stroke grestore} bind def
/D6 {gsave translate 45 rotate 0 0 S6 stroke grestore} bind def
/D7 {gsave translate 45 rotate 0 0 S7 stroke grestore} bind def
/D8 {gsave translate 45 rotate 0 0 S8 stroke grestore} bind def
/D9 {gsave translate 45 rotate 0 0 S9 stroke grestore} bind def
/D10 {gsave translate 45 rotate 0 0 S10 stroke grestore} bind def
/D11 {gsave translate 45 rotate 0 0 S11 stroke grestore} bind def
/D12 {gsave translate 45 rotate 0 0 S12 stroke grestore} bind def
/D13 {gsave translate 45 rotate 0 0 S13 stroke grestore} bind def
/D14 {gsave translate 45 rotate 0 0 S14 stroke grestore} bind def
/D15 {gsave translate 45 rotate 0 0 S15 stroke grestore} bind def
/DiaE {stroke [] 0 setdash vpt add M
  hpt neg vpt neg V hpt vpt neg V
  hpt vpt V hpt neg vpt V closepath stroke} def
/BoxE {stroke [] 0 setdash exch hpt sub exch vpt add M
  0 vpt2 neg V hpt2 0 V 0 vpt2 V
  hpt2 neg 0 V closepath stroke} def
/TriUE {stroke [] 0 setdash vpt 1.12 mul add M
  hpt neg vpt -1.62 mul V
  hpt 2 mul 0 V
  hpt neg vpt 1.62 mul V closepath stroke} def
/TriDE {stroke [] 0 setdash vpt 1.12 mul sub M
  hpt neg vpt 1.62 mul V
  hpt 2 mul 0 V
  hpt neg vpt -1.62 mul V closepath stroke} def
/PentE {stroke [] 0 setdash gsave
  translate 0 hpt M 4 {72 rotate 0 hpt L} repeat
  closepath stroke grestore} def
/CircE {stroke [] 0 setdash 
  hpt 0 360 arc stroke} def
/Opaque {gsave closepath 1 setgray fill grestore 0 setgray closepath} def
/DiaW {stroke [] 0 setdash vpt add M
  hpt neg vpt neg V hpt vpt neg V
  hpt vpt V hpt neg vpt V Opaque stroke} def
/BoxW {stroke [] 0 setdash exch hpt sub exch vpt add M
  0 vpt2 neg V hpt2 0 V 0 vpt2 V
  hpt2 neg 0 V Opaque stroke} def
/TriUW {stroke [] 0 setdash vpt 1.12 mul add M
  hpt neg vpt -1.62 mul V
  hpt 2 mul 0 V
  hpt neg vpt 1.62 mul V Opaque stroke} def
/TriDW {stroke [] 0 setdash vpt 1.12 mul sub M
  hpt neg vpt 1.62 mul V
  hpt 2 mul 0 V
  hpt neg vpt -1.62 mul V Opaque stroke} def
/PentW {stroke [] 0 setdash gsave
  translate 0 hpt M 4 {72 rotate 0 hpt L} repeat
  Opaque stroke grestore} def
/CircW {stroke [] 0 setdash 
  hpt 0 360 arc Opaque stroke} def
/BoxFill {gsave Rec 1 setgray fill grestore} def
/Density {
  /Fillden exch def
  currentrgbcolor
  /ColB exch def /ColG exch def /ColR exch def
  /ColR ColR Fillden mul Fillden sub 1 add def
  /ColG ColG Fillden mul Fillden sub 1 add def
  /ColB ColB Fillden mul Fillden sub 1 add def
  ColR ColG ColB setrgbcolor} def
/BoxColFill {gsave Rec PolyFill} def
/PolyFill {gsave Density fill grestore grestore} def
/h {rlineto rlineto rlineto gsave closepath fill grestore} bind def
%
% PostScript Level 1 Pattern Fill routine for rectangles
% Usage: x y w h s a XX PatternFill
%	x,y = lower left corner of box to be filled
%	w,h = width and height of box
%	  a = angle in degrees between lines and x-axis
%	 XX = 0/1 for no/yes cross-hatch
%
/PatternFill {gsave /PFa [ 9 2 roll ] def
  PFa 0 get PFa 2 get 2 div add PFa 1 get PFa 3 get 2 div add translate
  PFa 2 get -2 div PFa 3 get -2 div PFa 2 get PFa 3 get Rec
  TransparentPatterns {} {gsave 1 setgray fill grestore} ifelse
  clip
  currentlinewidth 0.5 mul setlinewidth
  /PFs PFa 2 get dup mul PFa 3 get dup mul add sqrt def
  0 0 M PFa 5 get rotate PFs -2 div dup translate
  0 1 PFs PFa 4 get div 1 add floor cvi
	{PFa 4 get mul 0 M 0 PFs V} for
  0 PFa 6 get ne {
	0 1 PFs PFa 4 get div 1 add floor cvi
	{PFa 4 get mul 0 2 1 roll M PFs 0 V} for
 } if
  stroke grestore} def
%
/languagelevel where
 {pop languagelevel} {1} ifelse
dup 2 lt
	{/InterpretLevel1 true def
	 /InterpretLevel3 false def}
	{/InterpretLevel1 Level1 def
	 2 gt
	    {/InterpretLevel3 Level3 def}
	    {/InterpretLevel3 false def}
	 ifelse }
 ifelse
%
% PostScript level 2 pattern fill definitions
%
/Level2PatternFill {
/Tile8x8 {/PaintType 2 /PatternType 1 /TilingType 1 /BBox [0 0 8 8] /XStep 8 /YStep 8}
	bind def
/KeepColor {currentrgbcolor [/Pattern /DeviceRGB] setcolorspace} bind def
<< Tile8x8
 /PaintProc {0.5 setlinewidth pop 0 0 M 8 8 L 0 8 M 8 0 L stroke} 
>> matrix makepattern
/Pat1 exch def
<< Tile8x8
 /PaintProc {0.5 setlinewidth pop 0 0 M 8 8 L 0 8 M 8 0 L stroke
	0 4 M 4 8 L 8 4 L 4 0 L 0 4 L stroke}
>> matrix makepattern
/Pat2 exch def
<< Tile8x8
 /PaintProc {0.5 setlinewidth pop 0 0 M 0 8 L
	8 8 L 8 0 L 0 0 L fill}
>> matrix makepattern
/Pat3 exch def
<< Tile8x8
 /PaintProc {0.5 setlinewidth pop -4 8 M 8 -4 L
	0 12 M 12 0 L stroke}
>> matrix makepattern
/Pat4 exch def
<< Tile8x8
 /PaintProc {0.5 setlinewidth pop -4 0 M 8 12 L
	0 -4 M 12 8 L stroke}
>> matrix makepattern
/Pat5 exch def
<< Tile8x8
 /PaintProc {0.5 setlinewidth pop -2 8 M 4 -4 L
	0 12 M 8 -4 L 4 12 M 10 0 L stroke}
>> matrix makepattern
/Pat6 exch def
<< Tile8x8
 /PaintProc {0.5 setlinewidth pop -2 0 M 4 12 L
	0 -4 M 8 12 L 4 -4 M 10 8 L stroke}
>> matrix makepattern
/Pat7 exch def
<< Tile8x8
 /PaintProc {0.5 setlinewidth pop 8 -2 M -4 4 L
	12 0 M -4 8 L 12 4 M 0 10 L stroke}
>> matrix makepattern
/Pat8 exch def
<< Tile8x8
 /PaintProc {0.5 setlinewidth pop 0 -2 M 12 4 L
	-4 0 M 12 8 L -4 4 M 8 10 L stroke}
>> matrix makepattern
/Pat9 exch def
/Pattern1 {PatternBgnd KeepColor Pat1 setpattern} bind def
/Pattern2 {PatternBgnd KeepColor Pat2 setpattern} bind def
/Pattern3 {PatternBgnd KeepColor Pat3 setpattern} bind def
/Pattern4 {PatternBgnd KeepColor Landscape {Pat5} {Pat4} ifelse setpattern} bind def
/Pattern5 {PatternBgnd KeepColor Landscape {Pat4} {Pat5} ifelse setpattern} bind def
/Pattern6 {PatternBgnd KeepColor Landscape {Pat9} {Pat6} ifelse setpattern} bind def
/Pattern7 {PatternBgnd KeepColor Landscape {Pat8} {Pat7} ifelse setpattern} bind def
} def
%
%
%End of PostScript Level 2 code
%
/PatternBgnd {
  TransparentPatterns {} {gsave 1 setgray fill grestore} ifelse
} def
%
% Substitute for Level 2 pattern fill codes with
% grayscale if Level 2 support is not selected.
%
/Level1PatternFill {
/Pattern1 {0.250 Density} bind def
/Pattern2 {0.500 Density} bind def
/Pattern3 {0.750 Density} bind def
/Pattern4 {0.125 Density} bind def
/Pattern5 {0.375 Density} bind def
/Pattern6 {0.625 Density} bind def
/Pattern7 {0.875 Density} bind def
} def
%
% Now test for support of Level 2 code
%
Level1 {Level1PatternFill} {Level2PatternFill} ifelse
%
/Symbol-Oblique /Symbol findfont [1 0 .167 1 0 0] makefont
dup length dict begin {1 index /FID eq {pop pop} {def} ifelse} forall
currentdict end definefont pop
%
/Metrics {ExtendTextBox Gswidth} def
/Lwidth {currentpoint stroke M 0 vshift R Metrics} def
/Rwidth {currentpoint stroke M dup stringwidth pop neg vshift R Metrics} def
/Cwidth {currentpoint stroke M dup stringwidth pop -2 div vshift R Metrics} def
/GLwidth {currentpoint stroke M 0 vshift R {ExtendTextBox} forall} def
/GRwidth {currentpoint stroke M dup Gwidth vshift R {ExtendTextBox} forall} def
/GCwidth {currentpoint stroke M dup Gwidth 2 div vshift R {ExtendTextBox} forall} def
/GLwidth2 {0 Gwidth AddGlyphWidth} def
/GRwidth2 {Gwidth -1 mul 0 AddGlyphWidth} def
/GCwidth2 {Gwidth 2 div dup -1 mul AddGlyphWidth} def
/AddGlyphWidth { dup TBx2 gt {userdict /TBx2 3 -1 roll put} {pop} ifelse
                 dup TBx1 lt {userdict /TBx1 3 -1 roll put} {pop} ifelse } def
/MFshow {
   { dup 5 get 3 ge
     { 5 get 3 eq {gsave} {grestore} ifelse }
     {dup dup 0 get findfont exch 1 get scalefont setfont
     [ currentpoint ] exch dup 2 get 0 exch R dup 5 get 2 ne {dup dup 6
     get exch 4 get {textshow} {Metrics pop 0 R} ifelse }if dup 5 get 0 eq
     {dup 3 get {2 get neg 0 exch R pop} {pop aload pop M} ifelse} {dup 5
     get 1 eq {dup 2 get exch dup 3 get exch 6 get Gswidth pop -2 div
     dup 0 R} {dup 6 get Gswidth pop -2 div 0 R 6 get
     textshow 2 index {aload pop M neg 3 -1 roll neg R pop pop} {pop pop pop
     pop aload pop M} ifelse }ifelse }ifelse }
     ifelse }
   forall} def
/Gswidth {dup type /stringtype eq {stringwidth} {pop (n) stringwidth} ifelse} def
/MFwidth {0 exch { dup 5 get 3 ge { 5 get 3 eq { 0 } { pop } ifelse }
 {dup 3 get{dup dup 0 get findfont exch 1 get scalefont setfont
     6 get Gswidth pop add} {pop} ifelse} ifelse} forall} def
/MLshow { currentpoint stroke M
  0 exch R
  Blacktext {gsave 0 setgray MFshow grestore} {MFshow} ifelse } bind def
/MRshow { currentpoint stroke M
  exch dup MFwidth neg 3 -1 roll R
  Blacktext {gsave 0 setgray MFshow grestore} {MFshow} ifelse } bind def
/MCshow { currentpoint stroke M
  exch dup MFwidth -2 div 3 -1 roll R
  Blacktext {gsave 0 setgray MFshow grestore} {MFshow} ifelse } bind def
/XYsave    { [( ) 1 2 true false 3 ()] } bind def
/XYrestore { [( ) 1 2 true false 4 ()] } bind def
Level1 SuppressPDFMark or 
{} {
/SDict 10 dict def
systemdict /pdfmark known not {
  userdict /pdfmark systemdict /cleartomark get put
} if
SDict begin [
  /Title (gnuplot_tunesFromMATRIX_pathAndTOF.eps)
  /Subject (gnuplot plot)
  /Creator (gnuplot 5.2 patchlevel 2)
%  /Producer (gnuplot)
%  /Keywords ()
  /CreationDate (Fri Aug 24 16:07:50 2018)
  /DOCINFO pdfmark
end
} ifelse
%
% Support for boxed text - Ethan A Merritt Sep 2016
%
/InitTextBox { userdict /TBy2 3 -1 roll put userdict /TBx2 3 -1 roll put
           userdict /TBy1 3 -1 roll put userdict /TBx1 3 -1 roll put
	   /Boxing true def } def
/ExtendTextBox { dup type /stringtype eq
    { Boxing { gsave dup false charpath pathbbox
      dup TBy2 gt {userdict /TBy2 3 -1 roll put} {pop} ifelse
      dup TBx2 gt {userdict /TBx2 3 -1 roll put} {pop} ifelse
      dup TBy1 lt {userdict /TBy1 3 -1 roll put} {pop} ifelse
      dup TBx1 lt {userdict /TBx1 3 -1 roll put} {pop} ifelse
      grestore } if }
    {} ifelse} def
/PopTextBox { newpath TBx1 TBxmargin sub TBy1 TBymargin sub M
               TBx1 TBxmargin sub TBy2 TBymargin add L
	       TBx2 TBxmargin add TBy2 TBymargin add L
	       TBx2 TBxmargin add TBy1 TBymargin sub L closepath } def
/DrawTextBox { PopTextBox stroke /Boxing false def} def
/FillTextBox { gsave PopTextBox fill grestore /Boxing false def} def
0 0 0 0 InitTextBox
/TBxmargin 20 def
/TBymargin 20 def
/Boxing false def
/textshow { ExtendTextBox Gshow } def
%
end
%%EndProlog
%%Page: 1 1
gnudict begin
gsave
doclip
50 50 translate
0.050 0.050 scale
0 setgray
newpath
(Times-Roman) findfont 120 scalefont setfont
BackgroundColor 0 lt 3 1 roll 0 lt exch 0 lt or or not {BackgroundColor C 1.000 0 0 4534.00 2834.00 BoxColFill} if
1.000 UL
LTb
LCb setrgbcolor
732 504 M
63 0 V
stroke
660 504 M
[ [(roman) 120.0 0.0 true true 0 (-0.002)]
] -40.0 MRshow
1.000 UL
LTb
LCb setrgbcolor
732 718 M
63 0 V
stroke
660 718 M
[ [(roman) 120.0 0.0 true true 0 (-0.001)]
] -40.0 MRshow
1.000 UL
LTb
LCb setrgbcolor
732 933 M
63 0 V
stroke
660 933 M
[ [(roman) 120.0 0.0 true true 0 ( 0)]
] -40.0 MRshow
1.000 UL
LTb
LCb setrgbcolor
732 1147 M
63 0 V
stroke
660 1147 M
[ [(roman) 120.0 0.0 true true 0 ( 0.001)]
] -40.0 MRshow
1.000 UL
LTb
LCb setrgbcolor
732 1361 M
63 0 V
stroke
660 1361 M
[ [(roman) 120.0 0.0 true true 0 ( 0.002)]
] -40.0 MRshow
1.000 UL
LTb
LCb setrgbcolor
732 1576 M
63 0 V
stroke
660 1576 M
[ [(roman) 120.0 0.0 true true 0 ( 0.003)]
] -40.0 MRshow
1.000 UL
LTb
LCb setrgbcolor
732 1790 M
63 0 V
stroke
660 1790 M
[ [(roman) 120.0 0.0 true true 0 ( 0.004)]
] -40.0 MRshow
1.000 UL
LTb
LCb setrgbcolor
732 2004 M
63 0 V
stroke
660 2004 M
[ [(roman) 120.0 0.0 true true 0 ( 0.005)]
] -40.0 MRshow
1.000 UL
LTb
LCb setrgbcolor
732 2219 M
63 0 V
stroke
660 2219 M
[ [(roman) 120.0 0.0 true true 0 ( 0.006)]
] -40.0 MRshow
1.000 UL
LTb
LCb setrgbcolor
732 2433 M
63 0 V
stroke
660 2433 M
[ [(roman) 120.0 0.0 true true 0 ( 0.007)]
] -40.0 MRshow
1.000 UL
LTb
LCb setrgbcolor
756 504 M
0 63 V
stroke
756 384 M
[ [(roman) 120.0 0.0 true true 0 ( 40)]
] -40.0 MCshow
1.000 UL
LTb
LCb setrgbcolor
1230 504 M
0 63 V
stroke
1230 384 M
[ [(roman) 120.0 0.0 true true 0 ( 60)]
] -40.0 MCshow
1.000 UL
LTb
LCb setrgbcolor
1704 504 M
0 63 V
stroke
1704 384 M
[ [(roman) 120.0 0.0 true true 0 ( 80)]
] -40.0 MCshow
1.000 UL
LTb
LCb setrgbcolor
2178 504 M
0 63 V
stroke
2178 384 M
[ [(roman) 120.0 0.0 true true 0 ( 100)]
] -40.0 MCshow
1.000 UL
LTb
LCb setrgbcolor
2652 504 M
0 63 V
stroke
2652 384 M
[ [(roman) 120.0 0.0 true true 0 ( 120)]
] -40.0 MCshow
1.000 UL
LTb
LCb setrgbcolor
3126 504 M
0 63 V
stroke
3126 384 M
[ [(roman) 120.0 0.0 true true 0 ( 140)]
] -40.0 MCshow
1.000 UL
LTb
LCb setrgbcolor
3600 504 M
0 63 V
stroke
3600 384 M
[ [(roman) 120.0 0.0 true true 0 ( 160)]
] -40.0 MCshow
1.000 UL
LTb
LCb setrgbcolor
3837 764 M
-63 0 V
stroke
3909 764 M
[ [(roman) 120.0 0.0 true true 0 (-10)]
] -40.0 MLshow
1.000 UL
LTb
LCb setrgbcolor
3837 1135 M
-63 0 V
stroke
3909 1135 M
[ [(roman) 120.0 0.0 true true 0 ( 0)]
] -40.0 MLshow
1.000 UL
LTb
LCb setrgbcolor
3837 1506 M
-63 0 V
stroke
3909 1506 M
[ [(roman) 120.0 0.0 true true 0 ( 10)]
] -40.0 MLshow
1.000 UL
LTb
LCb setrgbcolor
3837 1877 M
-63 0 V
stroke
3909 1877 M
[ [(roman) 120.0 0.0 true true 0 ( 20)]
] -40.0 MLshow
1.000 UL
LTb
LCb setrgbcolor
3837 2248 M
-63 0 V
stroke
3909 2248 M
[ [(roman) 120.0 0.0 true true 0 ( 30)]
] -40.0 MLshow
1.000 UL
LTb
LCb setrgbcolor
852 2433 M
0 -63 V
stroke
852 2553 M
[ [(roman) 120.0 0.0 true true 0 ( 0.1)]
] -40.0 MCshow
1.000 UL
LTb
LCb setrgbcolor
1374 2433 M
0 -63 V
stroke
1374 2553 M
[ [(roman) 120.0 0.0 true true 0 ( 0.15)]
] -40.0 MCshow
1.000 UL
LTb
LCb setrgbcolor
1896 2433 M
0 -63 V
stroke
1896 2553 M
[ [(roman) 120.0 0.0 true true 0 ( 0.2)]
] -40.0 MCshow
1.000 UL
LTb
LCb setrgbcolor
2419 2433 M
0 -63 V
stroke
2419 2553 M
[ [(roman) 120.0 0.0 true true 0 ( 0.25)]
] -40.0 MCshow
1.000 UL
LTb
LCb setrgbcolor
2941 2433 M
0 -63 V
stroke
2941 2553 M
[ [(roman) 120.0 0.0 true true 0 ( 0.3)]
] -40.0 MCshow
1.000 UL
LTb
LCb setrgbcolor
3463 2433 M
0 -63 V
stroke
3463 2553 M
[ [(roman) 120.0 0.0 true true 0 ( 0.35)]
] -40.0 MCshow
1.000 UL
LTb
LCb setrgbcolor
1.000 UL
LTB
LCb setrgbcolor
732 2433 N
732 504 L
3105 0 V
0 1929 V
-3105 0 V
Z stroke
1.000 UP
1.000 UL
LTb
LCb setrgbcolor
LCb setrgbcolor
108 1468 M
currentpoint gsave translate -270 rotate 0 0 moveto
[ [(roman) 160.0 0.0 true true 0 (dL/L)]
[(roman) 128.0 -48.0 true true 0 (ref)]
] -37.3 MCshow
grestore
LTb
LCb setrgbcolor
4341 1468 M
currentpoint gsave translate -270 rotate 0 0 moveto
[ [(roman) 160.0 0.0 true true 0 (x)]
[(roman) 128.0 -48.0 true true 0 (co)]
[(roman) 160.0 0.0 true true 0 (/mm, x')]
[(roman) 128.0 -48.0 true true 0 (co)]
[(roman) 160.0 0.0 true true 0 (/10mrad)]
] -37.3 MCshow
grestore
LTb
LCb setrgbcolor
2284 204 M
[ [(Symbol) 160.0 0.0 true true 0 (g )]
[(roman) 160.0 0.0 true true 0 (m)]
[(roman) 128.0 -48.0 true true 0 (0)]
[(roman) 160.0 0.0 true true 0 ( [MeV])]
] -37.3 MCshow
LTb
LCb setrgbcolor
2284 2773 M
[ [(roman) 160.0 0.0 true true 0 (a)]
[(Symbol) 160.0 0.0 true true 0 (.g)]
] -53.3 MCshow
LTb
% Begin plot #1
0.200 UP
1.000 UL
LTb
1.00 0.00 0.00 C LCb setrgbcolor
1740 2310 M
[ [(roman) 120.0 0.0 true true 0 (1-map, dL/L)]
] -28.0 MRshow
0.200 UP
1.000 UL
LTb
1.00 0.00 0.00 C 1812 2310 M
135 0 V
756 1537 M
23 -44 V
24 -43 V
24 -42 V
24 -41 V
23 -39 V
24 -37 V
24 -36 V
23 -36 V
24 -33 V
24 -33 V
23 -31 V
24 -30 V
24 -29 V
24 -28 V
23 -26 V
24 -26 V
24 -24 V
23 -24 V
24 -22 V
24 -21 V
23 -21 V
24 -19 V
24 -18 V
24 -17 V
23 -17 V
24 -15 V
24 -15 V
23 -13 V
24 -13 V
24 -12 V
23 -11 V
24 -10 V
24 -9 V
24 -8 V
23 -8 V
24 -7 V
24 -6 V
23 -5 V
24 -4 V
24 -4 V
23 -3 V
24 -2 V
24 -1 V
24 -1 V
23 0 V
24 1 V
24 1 V
23 3 V
24 2 V
24 4 V
24 4 V
23 5 V
24 6 V
24 6 V
23 7 V
24 7 V
24 8 V
23 9 V
24 9 V
24 10 V
24 10 V
23 11 V
24 12 V
24 12 V
23 13 V
24 14 V
24 13 V
23 15 V
24 15 V
24 15 V
24 16 V
23 17 V
24 17 V
24 18 V
23 18 V
24 18 V
24 19 V
23 20 V
24 20 V
24 20 V
24 21 V
23 21 V
24 22 V
24 22 V
23 23 V
24 23 V
24 23 V
24 24 V
23 24 V
24 25 V
24 25 V
23 25 V
24 25 V
24 26 V
23 27 V
24 26 V
24 27 V
24 27 V
23 28 V
24 28 V
24 28 V
23 28 V
24 29 V
24 29 V
23 29 V
24 30 V
24 29 V
24 30 V
23 30 V
24 31 V
24 30 V
23 31 V
24 31 V
24 31 V
23 31 V
24 32 V
24 31 V
24 32 V
23 31 V
24 32 V
24 31 V
23 31 V
24 31 V
24 30 V
23 29 V
756 1537 TriU
779 1493 TriU
803 1450 TriU
827 1408 TriU
851 1367 TriU
874 1328 TriU
898 1291 TriU
922 1255 TriU
945 1219 TriU
969 1186 TriU
993 1153 TriU
1016 1122 TriU
1040 1092 TriU
1064 1063 TriU
1088 1035 TriU
1111 1009 TriU
1135 983 TriU
1159 959 TriU
1182 935 TriU
1206 913 TriU
1230 892 TriU
1253 871 TriU
1277 852 TriU
1301 834 TriU
1325 817 TriU
1348 800 TriU
1372 785 TriU
1396 770 TriU
1419 757 TriU
1443 744 TriU
1467 732 TriU
1490 721 TriU
1514 711 TriU
1538 702 TriU
1562 694 TriU
1585 686 TriU
1609 679 TriU
1633 673 TriU
1656 668 TriU
1680 664 TriU
1704 660 TriU
1727 657 TriU
1751 655 TriU
1775 654 TriU
1799 653 TriU
1822 653 TriU
1846 654 TriU
1870 655 TriU
1893 658 TriU
1917 660 TriU
1941 664 TriU
1965 668 TriU
1988 673 TriU
2012 679 TriU
2036 685 TriU
2059 692 TriU
2083 699 TriU
2107 707 TriU
2130 716 TriU
2154 725 TriU
2178 735 TriU
2202 745 TriU
2225 756 TriU
2249 768 TriU
2273 780 TriU
2296 793 TriU
2320 807 TriU
2344 820 TriU
2367 835 TriU
2391 850 TriU
2415 865 TriU
2439 881 TriU
2462 898 TriU
2486 915 TriU
2510 933 TriU
2533 951 TriU
2557 969 TriU
2581 988 TriU
2604 1008 TriU
2628 1028 TriU
2652 1048 TriU
2676 1069 TriU
2699 1090 TriU
2723 1112 TriU
2747 1134 TriU
2770 1157 TriU
2794 1180 TriU
2818 1203 TriU
2842 1227 TriU
2865 1251 TriU
2889 1276 TriU
2913 1301 TriU
2936 1326 TriU
2960 1351 TriU
2984 1377 TriU
3007 1404 TriU
3031 1430 TriU
3055 1457 TriU
3079 1484 TriU
3102 1512 TriU
3126 1540 TriU
3150 1568 TriU
3173 1596 TriU
3197 1625 TriU
3221 1654 TriU
3244 1683 TriU
3268 1713 TriU
3292 1742 TriU
3316 1772 TriU
3339 1802 TriU
3363 1833 TriU
3387 1863 TriU
3410 1894 TriU
3434 1925 TriU
3458 1956 TriU
3481 1987 TriU
3505 2019 TriU
3529 2050 TriU
3553 2082 TriU
3576 2113 TriU
3600 2145 TriU
3624 2176 TriU
3647 2207 TriU
3671 2238 TriU
3695 2268 TriU
3718 2297 TriU
1879 2310 TriU
% End plot #1
% Begin plot #2
0.200 UP
1.000 UL
LTb
0.00 1.00 0.00 C LCb setrgbcolor
1740 2190 M
[ [(roman) 120.0 0.0 true true 0 (          x)]
[(roman) 96.0 -36.0 true true 0 (co)]
] -28.0 MRshow
0.200 UP
1.000 UL
LTb
0.00 1.00 0.00 C 1812 2190 M
135 0 V
756 698 M
23 -10 V
24 -10 V
24 -9 V
24 -9 V
23 -8 V
24 -8 V
24 -7 V
23 -6 V
24 -6 V
24 -6 V
23 -5 V
24 -4 V
24 -4 V
24 -4 V
23 -3 V
24 -3 V
24 -2 V
23 -1 V
24 -2 V
24 0 V
23 -1 V
24 1 V
24 0 V
24 1 V
23 2 V
24 2 V
24 2 V
23 3 V
24 3 V
24 3 V
23 4 V
24 5 V
24 4 V
24 6 V
23 5 V
24 6 V
24 6 V
23 7 V
24 7 V
24 8 V
23 8 V
24 8 V
24 8 V
24 9 V
23 10 V
24 9 V
24 10 V
23 11 V
24 11 V
24 11 V
24 11 V
23 12 V
24 12 V
24 13 V
23 12 V
24 14 V
24 13 V
23 14 V
24 14 V
24 15 V
24 14 V
23 16 V
24 15 V
24 16 V
23 16 V
24 16 V
24 17 V
23 17 V
24 17 V
24 17 V
24 18 V
23 18 V
24 19 V
24 18 V
23 19 V
24 20 V
24 19 V
23 20 V
24 20 V
24 20 V
24 21 V
23 20 V
24 21 V
24 21 V
23 22 V
24 22 V
24 21 V
24 23 V
23 22 V
24 22 V
24 23 V
23 23 V
24 23 V
24 23 V
23 24 V
24 24 V
24 23 V
24 24 V
23 25 V
24 24 V
24 24 V
23 25 V
24 25 V
24 25 V
23 25 V
24 25 V
24 25 V
24 26 V
23 25 V
24 26 V
24 25 V
23 26 V
24 26 V
24 26 V
23 26 V
24 26 V
24 26 V
24 26 V
23 26 V
24 26 V
24 26 V
23 26 V
24 25 V
24 24 V
23 24 V
756 698 Crs
779 688 Crs
803 678 Crs
827 669 Crs
851 660 Crs
874 652 Crs
898 644 Crs
922 637 Crs
945 631 Crs
969 625 Crs
993 619 Crs
1016 614 Crs
1040 610 Crs
1064 606 Crs
1088 602 Crs
1111 599 Crs
1135 596 Crs
1159 594 Crs
1182 593 Crs
1206 591 Crs
1230 591 Crs
1253 590 Crs
1277 591 Crs
1301 591 Crs
1325 592 Crs
1348 594 Crs
1372 596 Crs
1396 598 Crs
1419 601 Crs
1443 604 Crs
1467 607 Crs
1490 611 Crs
1514 616 Crs
1538 620 Crs
1562 626 Crs
1585 631 Crs
1609 637 Crs
1633 643 Crs
1656 650 Crs
1680 657 Crs
1704 665 Crs
1727 673 Crs
1751 681 Crs
1775 689 Crs
1799 698 Crs
1822 708 Crs
1846 717 Crs
1870 727 Crs
1893 738 Crs
1917 749 Crs
1941 760 Crs
1965 771 Crs
1988 783 Crs
2012 795 Crs
2036 808 Crs
2059 820 Crs
2083 834 Crs
2107 847 Crs
2130 861 Crs
2154 875 Crs
2178 890 Crs
2202 904 Crs
2225 920 Crs
2249 935 Crs
2273 951 Crs
2296 967 Crs
2320 983 Crs
2344 1000 Crs
2367 1017 Crs
2391 1034 Crs
2415 1051 Crs
2439 1069 Crs
2462 1087 Crs
2486 1106 Crs
2510 1124 Crs
2533 1143 Crs
2557 1163 Crs
2581 1182 Crs
2604 1202 Crs
2628 1222 Crs
2652 1242 Crs
2676 1263 Crs
2699 1283 Crs
2723 1304 Crs
2747 1325 Crs
2770 1347 Crs
2794 1369 Crs
2818 1390 Crs
2842 1413 Crs
2865 1435 Crs
2889 1457 Crs
2913 1480 Crs
2936 1503 Crs
2960 1526 Crs
2984 1549 Crs
3007 1573 Crs
3031 1597 Crs
3055 1620 Crs
3079 1644 Crs
3102 1669 Crs
3126 1693 Crs
3150 1717 Crs
3173 1742 Crs
3197 1767 Crs
3221 1792 Crs
3244 1817 Crs
3268 1842 Crs
3292 1867 Crs
3316 1893 Crs
3339 1918 Crs
3363 1944 Crs
3387 1969 Crs
3410 1995 Crs
3434 2021 Crs
3458 2047 Crs
3481 2073 Crs
3505 2099 Crs
3529 2125 Crs
3553 2151 Crs
3576 2177 Crs
3600 2203 Crs
3624 2229 Crs
3647 2255 Crs
3671 2280 Crs
3695 2304 Crs
3718 2328 Crs
1879 2190 Crs
% End plot #2
% Begin plot #3
0.200 UP
1.000 UL
LTb
0.00 0.00 1.00 C LCb setrgbcolor
1740 2070 M
[ [(roman) 120.0 0.0 true true 0 (          x')]
[(roman) 96.0 -36.0 true true 0 (co)]
] -28.0 MRshow
0.200 UP
1.000 UL
LTb
0.00 0.00 1.00 C 1812 2070 M
135 0 V
756 678 M
23 7 V
24 6 V
24 7 V
24 6 V
23 6 V
24 6 V
24 7 V
23 6 V
24 6 V
24 6 V
23 6 V
24 6 V
24 5 V
24 6 V
23 6 V
24 6 V
24 5 V
23 6 V
24 5 V
24 6 V
23 5 V
24 6 V
24 5 V
24 6 V
23 5 V
24 5 V
24 5 V
23 5 V
24 6 V
24 5 V
23 5 V
24 5 V
24 5 V
24 5 V
23 4 V
24 5 V
24 5 V
23 5 V
24 5 V
24 4 V
23 5 V
24 5 V
24 4 V
24 5 V
23 5 V
24 4 V
24 5 V
23 4 V
24 5 V
24 4 V
24 4 V
23 5 V
24 4 V
24 4 V
23 5 V
24 4 V
24 4 V
23 4 V
24 5 V
24 4 V
24 4 V
23 4 V
24 4 V
24 4 V
23 4 V
24 4 V
24 4 V
23 4 V
24 4 V
24 4 V
24 4 V
23 4 V
24 4 V
24 4 V
23 4 V
24 3 V
24 4 V
23 4 V
24 4 V
24 3 V
24 4 V
23 4 V
24 3 V
24 4 V
23 3 V
24 4 V
24 4 V
24 3 V
23 4 V
24 3 V
24 3 V
23 4 V
24 3 V
24 4 V
23 3 V
24 3 V
24 4 V
24 3 V
23 3 V
24 3 V
24 4 V
23 3 V
24 3 V
24 3 V
23 3 V
24 3 V
24 3 V
24 3 V
23 3 V
24 3 V
24 3 V
23 3 V
24 3 V
24 3 V
23 3 V
24 2 V
24 3 V
24 3 V
23 3 V
24 2 V
24 3 V
23 3 V
24 2 V
24 2 V
23 3 V
756 678 Star
779 685 Star
803 691 Star
827 698 Star
851 704 Star
874 710 Star
898 716 Star
922 723 Star
945 729 Star
969 735 Star
993 741 Star
1016 747 Star
1040 753 Star
1064 758 Star
1088 764 Star
1111 770 Star
1135 776 Star
1159 781 Star
1182 787 Star
1206 792 Star
1230 798 Star
1253 803 Star
1277 809 Star
1301 814 Star
1325 820 Star
1348 825 Star
1372 830 Star
1396 835 Star
1419 840 Star
1443 846 Star
1467 851 Star
1490 856 Star
1514 861 Star
1538 866 Star
1562 871 Star
1585 875 Star
1609 880 Star
1633 885 Star
1656 890 Star
1680 895 Star
1704 899 Star
1727 904 Star
1751 909 Star
1775 913 Star
1799 918 Star
1822 923 Star
1846 927 Star
1870 932 Star
1893 936 Star
1917 941 Star
1941 945 Star
1965 949 Star
1988 954 Star
2012 958 Star
2036 962 Star
2059 967 Star
2083 971 Star
2107 975 Star
2130 979 Star
2154 984 Star
2178 988 Star
2202 992 Star
2225 996 Star
2249 1000 Star
2273 1004 Star
2296 1008 Star
2320 1012 Star
2344 1016 Star
2367 1020 Star
2391 1024 Star
2415 1028 Star
2439 1032 Star
2462 1036 Star
2486 1040 Star
2510 1044 Star
2533 1048 Star
2557 1051 Star
2581 1055 Star
2604 1059 Star
2628 1063 Star
2652 1066 Star
2676 1070 Star
2699 1074 Star
2723 1077 Star
2747 1081 Star
2770 1084 Star
2794 1088 Star
2818 1092 Star
2842 1095 Star
2865 1099 Star
2889 1102 Star
2913 1105 Star
2936 1109 Star
2960 1112 Star
2984 1116 Star
3007 1119 Star
3031 1122 Star
3055 1126 Star
3079 1129 Star
3102 1132 Star
3126 1135 Star
3150 1139 Star
3173 1142 Star
3197 1145 Star
3221 1148 Star
3244 1151 Star
3268 1154 Star
3292 1157 Star
3316 1160 Star
3339 1163 Star
3363 1166 Star
3387 1169 Star
3410 1172 Star
3434 1175 Star
3458 1178 Star
3481 1181 Star
3505 1183 Star
3529 1186 Star
3553 1189 Star
3576 1192 Star
3600 1194 Star
3624 1197 Star
3647 1200 Star
3671 1202 Star
3695 1204 Star
3718 1207 Star
1879 2070 Star
% End plot #3
% Begin plot #4
1.200 UL
LTb
0.90 0.62 0.00 C LCb setrgbcolor
1740 1950 M
[ [(roman) 120.0 0.0 true true 0 (  design E)]
] -40.0 MRshow
1.200 UL
LTb
0.90 0.62 0.00 C 1812 1950 M
135 0 V
791 1135 M
0 1298 V
1644 1135 M
0 1298 V
2498 1135 M
0 1298 V
3351 1135 M
0 1298 V
% End plot #4
% Begin plot #5
stroke
LTb
0.90 0.62 0.00 C 791 1135 M
0 -631 V
853 631 R
0 -631 V
854 631 R
0 -631 V
853 631 R
0 -631 V
% End plot #5
stroke
2.000 UL
LTb
LCb setrgbcolor
1.000 UL
LTB
LCb setrgbcolor
732 2433 N
732 504 L
3105 0 V
0 1929 V
-3105 0 V
Z stroke
1.000 UP
1.000 UL
LTb
LCb setrgbcolor
stroke
grestore
end
showpage
%%Trailer
%%DocumentFonts: Symbol roman Times-Roman
