%!PS-Adobe-2.0 EPSF-2.0
%%Title: gnuplot_tunesFromMATRIX_QxQy.eps
%%Creator: gnuplot 5.2 patchlevel 2
%%CreationDate: Fri Aug 24 16:07:51 2018
%%DocumentFonts: (atend)
%%BoundingBox: 50 50 276 191
%%EndComments
%%BeginProlog
/gnudict 256 dict def
gnudict begin
%
% The following true/false flags may be edited by hand if desired.
% The unit line width and grayscale image gamma correction may also be changed.
%
/Color true def
/Blacktext true def
/Solid false def
/Dashlength 1 def
/Landscape false def
/Level1 false def
/Level3 false def
/Rounded false def
/ClipToBoundingBox false def
/SuppressPDFMark false def
/TransparentPatterns false def
/gnulinewidth 5.000 def
/userlinewidth gnulinewidth def
/Gamma 1.0 def
/BackgroundColor {-1.000 -1.000 -1.000} def
%
/vshift -40 def
/dl1 {
  10.0 Dashlength userlinewidth gnulinewidth div mul mul mul
  Rounded { currentlinewidth 0.75 mul sub dup 0 le { pop 0.01 } if } if
} def
/dl2 {
  10.0 Dashlength userlinewidth gnulinewidth div mul mul mul
  Rounded { currentlinewidth 0.75 mul add } if
} def
/hpt_ 31.5 def
/vpt_ 31.5 def
/hpt hpt_ def
/vpt vpt_ def
/doclip {
  ClipToBoundingBox {
    newpath 50 50 moveto 276 50 lineto 276 191 lineto 50 191 lineto closepath
    clip
  } if
} def
%
% Gnuplot Prolog Version 5.1 (Oct 2015)
%
%/SuppressPDFMark true def
%
/M {moveto} bind def
/L {lineto} bind def
/R {rmoveto} bind def
/V {rlineto} bind def
/N {newpath moveto} bind def
/Z {closepath} bind def
/C {setrgbcolor} bind def
/f {rlineto fill} bind def
/g {setgray} bind def
/Gshow {show} def   % May be redefined later in the file to support UTF-8
/vpt2 vpt 2 mul def
/hpt2 hpt 2 mul def
/Lshow {currentpoint stroke M 0 vshift R 
	Blacktext {gsave 0 setgray textshow grestore} {textshow} ifelse} def
/Rshow {currentpoint stroke M dup stringwidth pop neg vshift R
	Blacktext {gsave 0 setgray textshow grestore} {textshow} ifelse} def
/Cshow {currentpoint stroke M dup stringwidth pop -2 div vshift R 
	Blacktext {gsave 0 setgray textshow grestore} {textshow} ifelse} def
/UP {dup vpt_ mul /vpt exch def hpt_ mul /hpt exch def
  /hpt2 hpt 2 mul def /vpt2 vpt 2 mul def} def
/DL {Color {setrgbcolor Solid {pop []} if 0 setdash}
 {pop pop pop 0 setgray Solid {pop []} if 0 setdash} ifelse} def
/BL {stroke userlinewidth 2 mul setlinewidth
	Rounded {1 setlinejoin 1 setlinecap} if} def
/AL {stroke userlinewidth 2 div setlinewidth
	Rounded {1 setlinejoin 1 setlinecap} if} def
/UL {dup gnulinewidth mul /userlinewidth exch def
	dup 1 lt {pop 1} if 10 mul /udl exch def} def
/PL {stroke userlinewidth setlinewidth
	Rounded {1 setlinejoin 1 setlinecap} if} def
3.8 setmiterlimit
% Classic Line colors (version 5.0)
/LCw {1 1 1} def
/LCb {0 0 0} def
/LCa {0 0 0} def
/LC0 {1 0 0} def
/LC1 {0 1 0} def
/LC2 {0 0 1} def
/LC3 {1 0 1} def
/LC4 {0 1 1} def
/LC5 {1 1 0} def
/LC6 {0 0 0} def
/LC7 {1 0.3 0} def
/LC8 {0.5 0.5 0.5} def
% Default dash patterns (version 5.0)
/LTB {BL [] LCb DL} def
/LTw {PL [] 1 setgray} def
/LTb {PL [] LCb DL} def
/LTa {AL [1 udl mul 2 udl mul] 0 setdash LCa setrgbcolor} def
/LT0 {PL [] LC0 DL} def
/LT1 {PL [2 dl1 3 dl2] LC1 DL} def
/LT2 {PL [1 dl1 1.5 dl2] LC2 DL} def
/LT3 {PL [6 dl1 2 dl2 1 dl1 2 dl2] LC3 DL} def
/LT4 {PL [1 dl1 2 dl2 6 dl1 2 dl2 1 dl1 2 dl2] LC4 DL} def
/LT5 {PL [4 dl1 2 dl2] LC5 DL} def
/LT6 {PL [1.5 dl1 1.5 dl2 1.5 dl1 1.5 dl2 1.5 dl1 6 dl2] LC6 DL} def
/LT7 {PL [3 dl1 3 dl2 1 dl1 3 dl2] LC7 DL} def
/LT8 {PL [2 dl1 2 dl2 2 dl1 6 dl2] LC8 DL} def
/SL {[] 0 setdash} def
/Pnt {stroke [] 0 setdash gsave 1 setlinecap M 0 0 V stroke grestore} def
/Dia {stroke [] 0 setdash 2 copy vpt add M
  hpt neg vpt neg V hpt vpt neg V
  hpt vpt V hpt neg vpt V closepath stroke
  Pnt} def
/Pls {stroke [] 0 setdash vpt sub M 0 vpt2 V
  currentpoint stroke M
  hpt neg vpt neg R hpt2 0 V stroke
 } def
/Box {stroke [] 0 setdash 2 copy exch hpt sub exch vpt add M
  0 vpt2 neg V hpt2 0 V 0 vpt2 V
  hpt2 neg 0 V closepath stroke
  Pnt} def
/Crs {stroke [] 0 setdash exch hpt sub exch vpt add M
  hpt2 vpt2 neg V currentpoint stroke M
  hpt2 neg 0 R hpt2 vpt2 V stroke} def
/TriU {stroke [] 0 setdash 2 copy vpt 1.12 mul add M
  hpt neg vpt -1.62 mul V
  hpt 2 mul 0 V
  hpt neg vpt 1.62 mul V closepath stroke
  Pnt} def
/Star {2 copy Pls Crs} def
/BoxF {stroke [] 0 setdash exch hpt sub exch vpt add M
  0 vpt2 neg V hpt2 0 V 0 vpt2 V
  hpt2 neg 0 V closepath fill} def
/TriUF {stroke [] 0 setdash vpt 1.12 mul add M
  hpt neg vpt -1.62 mul V
  hpt 2 mul 0 V
  hpt neg vpt 1.62 mul V closepath fill} def
/TriD {stroke [] 0 setdash 2 copy vpt 1.12 mul sub M
  hpt neg vpt 1.62 mul V
  hpt 2 mul 0 V
  hpt neg vpt -1.62 mul V closepath stroke
  Pnt} def
/TriDF {stroke [] 0 setdash vpt 1.12 mul sub M
  hpt neg vpt 1.62 mul V
  hpt 2 mul 0 V
  hpt neg vpt -1.62 mul V closepath fill} def
/DiaF {stroke [] 0 setdash vpt add M
  hpt neg vpt neg V hpt vpt neg V
  hpt vpt V hpt neg vpt V closepath fill} def
/Pent {stroke [] 0 setdash 2 copy gsave
  translate 0 hpt M 4 {72 rotate 0 hpt L} repeat
  closepath stroke grestore Pnt} def
/PentF {stroke [] 0 setdash gsave
  translate 0 hpt M 4 {72 rotate 0 hpt L} repeat
  closepath fill grestore} def
/Circle {stroke [] 0 setdash 2 copy
  hpt 0 360 arc stroke Pnt} def
/CircleF {stroke [] 0 setdash hpt 0 360 arc fill} def
/C0 {BL [] 0 setdash 2 copy moveto vpt 90 450 arc} bind def
/C1 {BL [] 0 setdash 2 copy moveto
	2 copy vpt 0 90 arc closepath fill
	vpt 0 360 arc closepath} bind def
/C2 {BL [] 0 setdash 2 copy moveto
	2 copy vpt 90 180 arc closepath fill
	vpt 0 360 arc closepath} bind def
/C3 {BL [] 0 setdash 2 copy moveto
	2 copy vpt 0 180 arc closepath fill
	vpt 0 360 arc closepath} bind def
/C4 {BL [] 0 setdash 2 copy moveto
	2 copy vpt 180 270 arc closepath fill
	vpt 0 360 arc closepath} bind def
/C5 {BL [] 0 setdash 2 copy moveto
	2 copy vpt 0 90 arc
	2 copy moveto
	2 copy vpt 180 270 arc closepath fill
	vpt 0 360 arc} bind def
/C6 {BL [] 0 setdash 2 copy moveto
	2 copy vpt 90 270 arc closepath fill
	vpt 0 360 arc closepath} bind def
/C7 {BL [] 0 setdash 2 copy moveto
	2 copy vpt 0 270 arc closepath fill
	vpt 0 360 arc closepath} bind def
/C8 {BL [] 0 setdash 2 copy moveto
	2 copy vpt 270 360 arc closepath fill
	vpt 0 360 arc closepath} bind def
/C9 {BL [] 0 setdash 2 copy moveto
	2 copy vpt 270 450 arc closepath fill
	vpt 0 360 arc closepath} bind def
/C10 {BL [] 0 setdash 2 copy 2 copy moveto vpt 270 360 arc closepath fill
	2 copy moveto
	2 copy vpt 90 180 arc closepath fill
	vpt 0 360 arc closepath} bind def
/C11 {BL [] 0 setdash 2 copy moveto
	2 copy vpt 0 180 arc closepath fill
	2 copy moveto
	2 copy vpt 270 360 arc closepath fill
	vpt 0 360 arc closepath} bind def
/C12 {BL [] 0 setdash 2 copy moveto
	2 copy vpt 180 360 arc closepath fill
	vpt 0 360 arc closepath} bind def
/C13 {BL [] 0 setdash 2 copy moveto
	2 copy vpt 0 90 arc closepath fill
	2 copy moveto
	2 copy vpt 180 360 arc closepath fill
	vpt 0 360 arc closepath} bind def
/C14 {BL [] 0 setdash 2 copy moveto
	2 copy vpt 90 360 arc closepath fill
	vpt 0 360 arc} bind def
/C15 {BL [] 0 setdash 2 copy vpt 0 360 arc closepath fill
	vpt 0 360 arc closepath} bind def
/Rec {newpath 4 2 roll moveto 1 index 0 rlineto 0 exch rlineto
	neg 0 rlineto closepath} bind def
/Square {dup Rec} bind def
/Bsquare {vpt sub exch vpt sub exch vpt2 Square} bind def
/S0 {BL [] 0 setdash 2 copy moveto 0 vpt rlineto BL Bsquare} bind def
/S1 {BL [] 0 setdash 2 copy vpt Square fill Bsquare} bind def
/S2 {BL [] 0 setdash 2 copy exch vpt sub exch vpt Square fill Bsquare} bind def
/S3 {BL [] 0 setdash 2 copy exch vpt sub exch vpt2 vpt Rec fill Bsquare} bind def
/S4 {BL [] 0 setdash 2 copy exch vpt sub exch vpt sub vpt Square fill Bsquare} bind def
/S5 {BL [] 0 setdash 2 copy 2 copy vpt Square fill
	exch vpt sub exch vpt sub vpt Square fill Bsquare} bind def
/S6 {BL [] 0 setdash 2 copy exch vpt sub exch vpt sub vpt vpt2 Rec fill Bsquare} bind def
/S7 {BL [] 0 setdash 2 copy exch vpt sub exch vpt sub vpt vpt2 Rec fill
	2 copy vpt Square fill Bsquare} bind def
/S8 {BL [] 0 setdash 2 copy vpt sub vpt Square fill Bsquare} bind def
/S9 {BL [] 0 setdash 2 copy vpt sub vpt vpt2 Rec fill Bsquare} bind def
/S10 {BL [] 0 setdash 2 copy vpt sub vpt Square fill 2 copy exch vpt sub exch vpt Square fill
	Bsquare} bind def
/S11 {BL [] 0 setdash 2 copy vpt sub vpt Square fill 2 copy exch vpt sub exch vpt2 vpt Rec fill
	Bsquare} bind def
/S12 {BL [] 0 setdash 2 copy exch vpt sub exch vpt sub vpt2 vpt Rec fill Bsquare} bind def
/S13 {BL [] 0 setdash 2 copy exch vpt sub exch vpt sub vpt2 vpt Rec fill
	2 copy vpt Square fill Bsquare} bind def
/S14 {BL [] 0 setdash 2 copy exch vpt sub exch vpt sub vpt2 vpt Rec fill
	2 copy exch vpt sub exch vpt Square fill Bsquare} bind def
/S15 {BL [] 0 setdash 2 copy Bsquare fill Bsquare} bind def
/D0 {gsave translate 45 rotate 0 0 S0 stroke grestore} bind def
/D1 {gsave translate 45 rotate 0 0 S1 stroke grestore} bind def
/D2 {gsave translate 45 rotate 0 0 S2 stroke grestore} bind def
/D3 {gsave translate 45 rotate 0 0 S3 stroke grestore} bind def
/D4 {gsave translate 45 rotate 0 0 S4 stroke grestore} bind def
/D5 {gsave translate 45 rotate 0 0 S5 stroke grestore} bind def
/D6 {gsave translate 45 rotate 0 0 S6 stroke grestore} bind def
/D7 {gsave translate 45 rotate 0 0 S7 stroke grestore} bind def
/D8 {gsave translate 45 rotate 0 0 S8 stroke grestore} bind def
/D9 {gsave translate 45 rotate 0 0 S9 stroke grestore} bind def
/D10 {gsave translate 45 rotate 0 0 S10 stroke grestore} bind def
/D11 {gsave translate 45 rotate 0 0 S11 stroke grestore} bind def
/D12 {gsave translate 45 rotate 0 0 S12 stroke grestore} bind def
/D13 {gsave translate 45 rotate 0 0 S13 stroke grestore} bind def
/D14 {gsave translate 45 rotate 0 0 S14 stroke grestore} bind def
/D15 {gsave translate 45 rotate 0 0 S15 stroke grestore} bind def
/DiaE {stroke [] 0 setdash vpt add M
  hpt neg vpt neg V hpt vpt neg V
  hpt vpt V hpt neg vpt V closepath stroke} def
/BoxE {stroke [] 0 setdash exch hpt sub exch vpt add M
  0 vpt2 neg V hpt2 0 V 0 vpt2 V
  hpt2 neg 0 V closepath stroke} def
/TriUE {stroke [] 0 setdash vpt 1.12 mul add M
  hpt neg vpt -1.62 mul V
  hpt 2 mul 0 V
  hpt neg vpt 1.62 mul V closepath stroke} def
/TriDE {stroke [] 0 setdash vpt 1.12 mul sub M
  hpt neg vpt 1.62 mul V
  hpt 2 mul 0 V
  hpt neg vpt -1.62 mul V closepath stroke} def
/PentE {stroke [] 0 setdash gsave
  translate 0 hpt M 4 {72 rotate 0 hpt L} repeat
  closepath stroke grestore} def
/CircE {stroke [] 0 setdash 
  hpt 0 360 arc stroke} def
/Opaque {gsave closepath 1 setgray fill grestore 0 setgray closepath} def
/DiaW {stroke [] 0 setdash vpt add M
  hpt neg vpt neg V hpt vpt neg V
  hpt vpt V hpt neg vpt V Opaque stroke} def
/BoxW {stroke [] 0 setdash exch hpt sub exch vpt add M
  0 vpt2 neg V hpt2 0 V 0 vpt2 V
  hpt2 neg 0 V Opaque stroke} def
/TriUW {stroke [] 0 setdash vpt 1.12 mul add M
  hpt neg vpt -1.62 mul V
  hpt 2 mul 0 V
  hpt neg vpt 1.62 mul V Opaque stroke} def
/TriDW {stroke [] 0 setdash vpt 1.12 mul sub M
  hpt neg vpt 1.62 mul V
  hpt 2 mul 0 V
  hpt neg vpt -1.62 mul V Opaque stroke} def
/PentW {stroke [] 0 setdash gsave
  translate 0 hpt M 4 {72 rotate 0 hpt L} repeat
  Opaque stroke grestore} def
/CircW {stroke [] 0 setdash 
  hpt 0 360 arc Opaque stroke} def
/BoxFill {gsave Rec 1 setgray fill grestore} def
/Density {
  /Fillden exch def
  currentrgbcolor
  /ColB exch def /ColG exch def /ColR exch def
  /ColR ColR Fillden mul Fillden sub 1 add def
  /ColG ColG Fillden mul Fillden sub 1 add def
  /ColB ColB Fillden mul Fillden sub 1 add def
  ColR ColG ColB setrgbcolor} def
/BoxColFill {gsave Rec PolyFill} def
/PolyFill {gsave Density fill grestore grestore} def
/h {rlineto rlineto rlineto gsave closepath fill grestore} bind def
%
% PostScript Level 1 Pattern Fill routine for rectangles
% Usage: x y w h s a XX PatternFill
%	x,y = lower left corner of box to be filled
%	w,h = width and height of box
%	  a = angle in degrees between lines and x-axis
%	 XX = 0/1 for no/yes cross-hatch
%
/PatternFill {gsave /PFa [ 9 2 roll ] def
  PFa 0 get PFa 2 get 2 div add PFa 1 get PFa 3 get 2 div add translate
  PFa 2 get -2 div PFa 3 get -2 div PFa 2 get PFa 3 get Rec
  TransparentPatterns {} {gsave 1 setgray fill grestore} ifelse
  clip
  currentlinewidth 0.5 mul setlinewidth
  /PFs PFa 2 get dup mul PFa 3 get dup mul add sqrt def
  0 0 M PFa 5 get rotate PFs -2 div dup translate
  0 1 PFs PFa 4 get div 1 add floor cvi
	{PFa 4 get mul 0 M 0 PFs V} for
  0 PFa 6 get ne {
	0 1 PFs PFa 4 get div 1 add floor cvi
	{PFa 4 get mul 0 2 1 roll M PFs 0 V} for
 } if
  stroke grestore} def
%
/languagelevel where
 {pop languagelevel} {1} ifelse
dup 2 lt
	{/InterpretLevel1 true def
	 /InterpretLevel3 false def}
	{/InterpretLevel1 Level1 def
	 2 gt
	    {/InterpretLevel3 Level3 def}
	    {/InterpretLevel3 false def}
	 ifelse }
 ifelse
%
% PostScript level 2 pattern fill definitions
%
/Level2PatternFill {
/Tile8x8 {/PaintType 2 /PatternType 1 /TilingType 1 /BBox [0 0 8 8] /XStep 8 /YStep 8}
	bind def
/KeepColor {currentrgbcolor [/Pattern /DeviceRGB] setcolorspace} bind def
<< Tile8x8
 /PaintProc {0.5 setlinewidth pop 0 0 M 8 8 L 0 8 M 8 0 L stroke} 
>> matrix makepattern
/Pat1 exch def
<< Tile8x8
 /PaintProc {0.5 setlinewidth pop 0 0 M 8 8 L 0 8 M 8 0 L stroke
	0 4 M 4 8 L 8 4 L 4 0 L 0 4 L stroke}
>> matrix makepattern
/Pat2 exch def
<< Tile8x8
 /PaintProc {0.5 setlinewidth pop 0 0 M 0 8 L
	8 8 L 8 0 L 0 0 L fill}
>> matrix makepattern
/Pat3 exch def
<< Tile8x8
 /PaintProc {0.5 setlinewidth pop -4 8 M 8 -4 L
	0 12 M 12 0 L stroke}
>> matrix makepattern
/Pat4 exch def
<< Tile8x8
 /PaintProc {0.5 setlinewidth pop -4 0 M 8 12 L
	0 -4 M 12 8 L stroke}
>> matrix makepattern
/Pat5 exch def
<< Tile8x8
 /PaintProc {0.5 setlinewidth pop -2 8 M 4 -4 L
	0 12 M 8 -4 L 4 12 M 10 0 L stroke}
>> matrix makepattern
/Pat6 exch def
<< Tile8x8
 /PaintProc {0.5 setlinewidth pop -2 0 M 4 12 L
	0 -4 M 8 12 L 4 -4 M 10 8 L stroke}
>> matrix makepattern
/Pat7 exch def
<< Tile8x8
 /PaintProc {0.5 setlinewidth pop 8 -2 M -4 4 L
	12 0 M -4 8 L 12 4 M 0 10 L stroke}
>> matrix makepattern
/Pat8 exch def
<< Tile8x8
 /PaintProc {0.5 setlinewidth pop 0 -2 M 12 4 L
	-4 0 M 12 8 L -4 4 M 8 10 L stroke}
>> matrix makepattern
/Pat9 exch def
/Pattern1 {PatternBgnd KeepColor Pat1 setpattern} bind def
/Pattern2 {PatternBgnd KeepColor Pat2 setpattern} bind def
/Pattern3 {PatternBgnd KeepColor Pat3 setpattern} bind def
/Pattern4 {PatternBgnd KeepColor Landscape {Pat5} {Pat4} ifelse setpattern} bind def
/Pattern5 {PatternBgnd KeepColor Landscape {Pat4} {Pat5} ifelse setpattern} bind def
/Pattern6 {PatternBgnd KeepColor Landscape {Pat9} {Pat6} ifelse setpattern} bind def
/Pattern7 {PatternBgnd KeepColor Landscape {Pat8} {Pat7} ifelse setpattern} bind def
} def
%
%
%End of PostScript Level 2 code
%
/PatternBgnd {
  TransparentPatterns {} {gsave 1 setgray fill grestore} ifelse
} def
%
% Substitute for Level 2 pattern fill codes with
% grayscale if Level 2 support is not selected.
%
/Level1PatternFill {
/Pattern1 {0.250 Density} bind def
/Pattern2 {0.500 Density} bind def
/Pattern3 {0.750 Density} bind def
/Pattern4 {0.125 Density} bind def
/Pattern5 {0.375 Density} bind def
/Pattern6 {0.625 Density} bind def
/Pattern7 {0.875 Density} bind def
} def
%
% Now test for support of Level 2 code
%
Level1 {Level1PatternFill} {Level2PatternFill} ifelse
%
/Symbol-Oblique /Symbol findfont [1 0 .167 1 0 0] makefont
dup length dict begin {1 index /FID eq {pop pop} {def} ifelse} forall
currentdict end definefont pop
%
/Metrics {ExtendTextBox Gswidth} def
/Lwidth {currentpoint stroke M 0 vshift R Metrics} def
/Rwidth {currentpoint stroke M dup stringwidth pop neg vshift R Metrics} def
/Cwidth {currentpoint stroke M dup stringwidth pop -2 div vshift R Metrics} def
/GLwidth {currentpoint stroke M 0 vshift R {ExtendTextBox} forall} def
/GRwidth {currentpoint stroke M dup Gwidth vshift R {ExtendTextBox} forall} def
/GCwidth {currentpoint stroke M dup Gwidth 2 div vshift R {ExtendTextBox} forall} def
/GLwidth2 {0 Gwidth AddGlyphWidth} def
/GRwidth2 {Gwidth -1 mul 0 AddGlyphWidth} def
/GCwidth2 {Gwidth 2 div dup -1 mul AddGlyphWidth} def
/AddGlyphWidth { dup TBx2 gt {userdict /TBx2 3 -1 roll put} {pop} ifelse
                 dup TBx1 lt {userdict /TBx1 3 -1 roll put} {pop} ifelse } def
/MFshow {
   { dup 5 get 3 ge
     { 5 get 3 eq {gsave} {grestore} ifelse }
     {dup dup 0 get findfont exch 1 get scalefont setfont
     [ currentpoint ] exch dup 2 get 0 exch R dup 5 get 2 ne {dup dup 6
     get exch 4 get {textshow} {Metrics pop 0 R} ifelse }if dup 5 get 0 eq
     {dup 3 get {2 get neg 0 exch R pop} {pop aload pop M} ifelse} {dup 5
     get 1 eq {dup 2 get exch dup 3 get exch 6 get Gswidth pop -2 div
     dup 0 R} {dup 6 get Gswidth pop -2 div 0 R 6 get
     textshow 2 index {aload pop M neg 3 -1 roll neg R pop pop} {pop pop pop
     pop aload pop M} ifelse }ifelse }ifelse }
     ifelse }
   forall} def
/Gswidth {dup type /stringtype eq {stringwidth} {pop (n) stringwidth} ifelse} def
/MFwidth {0 exch { dup 5 get 3 ge { 5 get 3 eq { 0 } { pop } ifelse }
 {dup 3 get{dup dup 0 get findfont exch 1 get scalefont setfont
     6 get Gswidth pop add} {pop} ifelse} ifelse} forall} def
/MLshow { currentpoint stroke M
  0 exch R
  Blacktext {gsave 0 setgray MFshow grestore} {MFshow} ifelse } bind def
/MRshow { currentpoint stroke M
  exch dup MFwidth neg 3 -1 roll R
  Blacktext {gsave 0 setgray MFshow grestore} {MFshow} ifelse } bind def
/MCshow { currentpoint stroke M
  exch dup MFwidth -2 div 3 -1 roll R
  Blacktext {gsave 0 setgray MFshow grestore} {MFshow} ifelse } bind def
/XYsave    { [( ) 1 2 true false 3 ()] } bind def
/XYrestore { [( ) 1 2 true false 4 ()] } bind def
Level1 SuppressPDFMark or 
{} {
/SDict 10 dict def
systemdict /pdfmark known not {
  userdict /pdfmark systemdict /cleartomark get put
} if
SDict begin [
  /Title (gnuplot_tunesFromMATRIX_QxQy.eps)
  /Subject (gnuplot plot)
  /Creator (gnuplot 5.2 patchlevel 2)
%  /Producer (gnuplot)
%  /Keywords ()
  /CreationDate (Fri Aug 24 16:07:51 2018)
  /DOCINFO pdfmark
end
} ifelse
%
% Support for boxed text - Ethan A Merritt Sep 2016
%
/InitTextBox { userdict /TBy2 3 -1 roll put userdict /TBx2 3 -1 roll put
           userdict /TBy1 3 -1 roll put userdict /TBx1 3 -1 roll put
	   /Boxing true def } def
/ExtendTextBox { dup type /stringtype eq
    { Boxing { gsave dup false charpath pathbbox
      dup TBy2 gt {userdict /TBy2 3 -1 roll put} {pop} ifelse
      dup TBx2 gt {userdict /TBx2 3 -1 roll put} {pop} ifelse
      dup TBy1 lt {userdict /TBy1 3 -1 roll put} {pop} ifelse
      dup TBx1 lt {userdict /TBx1 3 -1 roll put} {pop} ifelse
      grestore } if }
    {} ifelse} def
/PopTextBox { newpath TBx1 TBxmargin sub TBy1 TBymargin sub M
               TBx1 TBxmargin sub TBy2 TBymargin add L
	       TBx2 TBxmargin add TBy2 TBymargin add L
	       TBx2 TBxmargin add TBy1 TBymargin sub L closepath } def
/DrawTextBox { PopTextBox stroke /Boxing false def} def
/FillTextBox { gsave PopTextBox fill grestore /Boxing false def} def
0 0 0 0 InitTextBox
/TBxmargin 20 def
/TBymargin 20 def
/Boxing false def
/textshow { ExtendTextBox Gshow } def
%
end
%%EndProlog
%%Page: 1 1
gnudict begin
gsave
doclip
50 50 translate
0.050 0.050 scale
0 setgray
newpath
(Times-Roman) findfont 120 scalefont setfont
BackgroundColor 0 lt 3 1 roll 0 lt exch 0 lt or or not {BackgroundColor C 1.000 0 0 4534.00 2834.00 BoxColFill} if
1.000 UL
LTb
LCb setrgbcolor
660 504 M
63 0 V
3594 0 R
-63 0 V
stroke
588 504 M
[ [(roman) 120.0 0.0 true true 0 ( 0)]
] -40.0 MRshow
1.000 UL
LTb
LCb setrgbcolor
660 718 M
63 0 V
3594 0 R
-63 0 V
stroke
588 718 M
[ [(roman) 120.0 0.0 true true 0 ( 0.05)]
] -40.0 MRshow
1.000 UL
LTb
LCb setrgbcolor
660 933 M
63 0 V
3594 0 R
-63 0 V
stroke
588 933 M
[ [(roman) 120.0 0.0 true true 0 ( 0.1)]
] -40.0 MRshow
1.000 UL
LTb
LCb setrgbcolor
660 1147 M
63 0 V
3594 0 R
-63 0 V
stroke
588 1147 M
[ [(roman) 120.0 0.0 true true 0 ( 0.15)]
] -40.0 MRshow
1.000 UL
LTb
LCb setrgbcolor
660 1361 M
63 0 V
3594 0 R
-63 0 V
stroke
588 1361 M
[ [(roman) 120.0 0.0 true true 0 ( 0.2)]
] -40.0 MRshow
1.000 UL
LTb
LCb setrgbcolor
660 1576 M
63 0 V
3594 0 R
-63 0 V
stroke
588 1576 M
[ [(roman) 120.0 0.0 true true 0 ( 0.25)]
] -40.0 MRshow
1.000 UL
LTb
LCb setrgbcolor
660 1790 M
63 0 V
3594 0 R
-63 0 V
stroke
588 1790 M
[ [(roman) 120.0 0.0 true true 0 ( 0.3)]
] -40.0 MRshow
1.000 UL
LTb
LCb setrgbcolor
660 2004 M
63 0 V
3594 0 R
-63 0 V
stroke
588 2004 M
[ [(roman) 120.0 0.0 true true 0 ( 0.35)]
] -40.0 MRshow
1.000 UL
LTb
LCb setrgbcolor
660 2219 M
63 0 V
3594 0 R
-63 0 V
stroke
588 2219 M
[ [(roman) 120.0 0.0 true true 0 ( 0.4)]
] -40.0 MRshow
1.000 UL
LTb
LCb setrgbcolor
660 2433 M
63 0 V
3594 0 R
-63 0 V
stroke
588 2433 M
[ [(roman) 120.0 0.0 true true 0 ( 0.45)]
] -40.0 MRshow
1.000 UL
LTb
LCb setrgbcolor
688 504 M
0 63 V
stroke
688 384 M
[ [(roman) 120.0 0.0 true true 0 ( 40)]
] -40.0 MCshow
1.000 UL
LTb
LCb setrgbcolor
1246 504 M
0 63 V
stroke
1246 384 M
[ [(roman) 120.0 0.0 true true 0 ( 60)]
] -40.0 MCshow
1.000 UL
LTb
LCb setrgbcolor
1805 504 M
0 63 V
stroke
1805 384 M
[ [(roman) 120.0 0.0 true true 0 ( 80)]
] -40.0 MCshow
1.000 UL
LTb
LCb setrgbcolor
2363 504 M
0 63 V
stroke
2363 384 M
[ [(roman) 120.0 0.0 true true 0 ( 100)]
] -40.0 MCshow
1.000 UL
LTb
LCb setrgbcolor
2921 504 M
0 63 V
stroke
2921 384 M
[ [(roman) 120.0 0.0 true true 0 ( 120)]
] -40.0 MCshow
1.000 UL
LTb
LCb setrgbcolor
3480 504 M
0 63 V
stroke
3480 384 M
[ [(roman) 120.0 0.0 true true 0 ( 140)]
] -40.0 MCshow
1.000 UL
LTb
LCb setrgbcolor
4038 504 M
0 63 V
stroke
4038 384 M
[ [(roman) 120.0 0.0 true true 0 ( 160)]
] -40.0 MCshow
1.000 UL
LTb
LCb setrgbcolor
801 2433 M
0 -63 V
stroke
801 2553 M
[ [(roman) 120.0 0.0 true true 0 ( 0.1)]
] -40.0 MCshow
1.000 UL
LTb
LCb setrgbcolor
1416 2433 M
0 -63 V
stroke
1416 2553 M
[ [(roman) 120.0 0.0 true true 0 ( 0.15)]
] -40.0 MCshow
1.000 UL
LTb
LCb setrgbcolor
2032 2433 M
0 -63 V
stroke
2032 2553 M
[ [(roman) 120.0 0.0 true true 0 ( 0.2)]
] -40.0 MCshow
1.000 UL
LTb
LCb setrgbcolor
2647 2433 M
0 -63 V
stroke
2647 2553 M
[ [(roman) 120.0 0.0 true true 0 ( 0.25)]
] -40.0 MCshow
1.000 UL
LTb
LCb setrgbcolor
3262 2433 M
0 -63 V
stroke
3262 2553 M
[ [(roman) 120.0 0.0 true true 0 ( 0.3)]
] -40.0 MCshow
1.000 UL
LTb
LCb setrgbcolor
3877 2433 M
0 -63 V
stroke
3877 2553 M
[ [(roman) 120.0 0.0 true true 0 ( 0.35)]
] -40.0 MCshow
1.000 UL
LTb
LCb setrgbcolor
1.000 UL
LTB
LCb setrgbcolor
660 2433 N
660 504 L
3657 0 V
0 1929 V
-3657 0 V
Z stroke
1.000 UP
1.000 UL
LTb
LCb setrgbcolor
LCb setrgbcolor
108 1468 M
currentpoint gsave translate -270 rotate 0 0 moveto
[ [(roman) 130.0 0.0 true true 0 (Q)]
[(roman) 104.0 -39.0 true true 0 (x)]
[(roman) 130.0 0.0 true true 0 (, Q)]
[(roman) 104.0 -39.0 true true 0 (y)]
] -30.3 MCshow
grestore
LTb
LCb setrgbcolor
2488 204 M
[ [(Symbol) 160.0 0.0 true true 0 (g )]
[(roman) 160.0 0.0 true true 0 (m)]
[(roman) 128.0 -48.0 true true 0 (0)]
[(roman) 160.0 0.0 true true 0 ( [MeV])]
] -37.3 MCshow
LTb
LCb setrgbcolor
2488 2773 M
[ [(roman) 160.0 0.0 true true 0 (a)]
[(Symbol) 160.0 0.0 true true 0 (.g)]
] -53.3 MCshow
LTb
% Begin plot #1
0.200 UP
1.000 UL
LTb
0.90 0.62 0.00 C LCb setrgbcolor
2787 2320 M
[ [(roman) 100.0 0.0 true true 0 (  Sep. maps, Q)]
[(roman) 80.0 -30.0 true true 0 (x)]
] -23.3 MRshow
0.200 UP
1.000 UL
LTb
0.90 0.62 0.00 C 2847 2320 M
123 0 V
688 2220 M
28 -70 V
28 -71 V
28 -59 V
28 -54 V
27 -49 V
28 -42 V
28 -44 V
28 -32 V
28 -41 V
28 -22 V
28 -32 V
28 -28 V
28 -27 V
28 -24 V
28 -24 V
28 -22 V
27 -21 V
28 -20 V
28 -20 V
28 -17 V
28 -19 V
28 -17 V
28 -16 V
28 -16 V
28 -15 V
28 -15 V
28 -14 V
28 -13 V
27 -14 V
28 -12 V
28 -13 V
28 -12 V
28 -11 V
28 -12 V
28 -10 V
28 -11 V
28 -9 V
28 -11 V
28 -9 V
28 -9 V
27 -10 V
28 -9 V
28 -8 V
28 -8 V
28 -9 V
28 -7 V
28 -9 V
28 -8 V
28 -7 V
28 -8 V
28 -6 V
28 -7 V
27 -6 V
28 -7 V
28 -7 V
28 -6 V
28 -5 V
28 -6 V
28 -6 V
28 -6 V
28 -6 V
28 -6 V
28 -4 V
28 -7 V
27 -3 V
28 -5 V
28 -5 V
28 -5 V
28 -5 V
28 -5 V
28 -3 V
28 -5 V
28 -4 V
28 -4 V
28 -4 V
28 -4 V
27 -4 V
28 -3 V
28 -4 V
28 -4 V
28 -3 V
28 -3 V
28 -4 V
28 -3 V
28 -3 V
28 -3 V
28 -3 V
28 -3 V
27 -3 V
28 -3 V
28 -3 V
28 -2 V
28 -3 V
28 -2 V
28 -3 V
28 -2 V
28 -2 V
28 -3 V
28 -2 V
28 -2 V
27 -2 V
28 -2 V
28 -2 V
28 -2 V
28 -2 V
28 -2 V
28 -2 V
28 -1 V
28 -3 V
28 0 V
28 -2 V
28 -1 V
27 -4 V
28 1 V
28 -1 V
28 -1 V
28 -2 V
28 1 V
28 -3 V
28 2 V
28 3 V
28 0 V
28 6 V
28 5 V
27 3 V
688 2220 Pls
716 2150 Pls
744 2079 Pls
772 2020 Pls
800 1966 Pls
827 1917 Pls
855 1875 Pls
883 1831 Pls
911 1799 Pls
939 1758 Pls
967 1736 Pls
995 1704 Pls
1023 1676 Pls
1051 1649 Pls
1079 1625 Pls
1107 1601 Pls
1135 1579 Pls
1162 1558 Pls
1190 1538 Pls
1218 1518 Pls
1246 1501 Pls
1274 1482 Pls
1302 1465 Pls
1330 1449 Pls
1358 1433 Pls
1386 1418 Pls
1414 1403 Pls
1442 1389 Pls
1470 1376 Pls
1497 1362 Pls
1525 1350 Pls
1553 1337 Pls
1581 1325 Pls
1609 1314 Pls
1637 1302 Pls
1665 1292 Pls
1693 1281 Pls
1721 1272 Pls
1749 1261 Pls
1777 1252 Pls
1805 1243 Pls
1832 1233 Pls
1860 1224 Pls
1888 1216 Pls
1916 1208 Pls
1944 1199 Pls
1972 1192 Pls
2000 1183 Pls
2028 1175 Pls
2056 1168 Pls
2084 1160 Pls
2112 1154 Pls
2140 1147 Pls
2167 1141 Pls
2195 1134 Pls
2223 1127 Pls
2251 1121 Pls
2279 1116 Pls
2307 1110 Pls
2335 1104 Pls
2363 1098 Pls
2391 1092 Pls
2419 1086 Pls
2447 1082 Pls
2475 1075 Pls
2502 1072 Pls
2530 1067 Pls
2558 1062 Pls
2586 1057 Pls
2614 1052 Pls
2642 1047 Pls
2670 1044 Pls
2698 1039 Pls
2726 1035 Pls
2754 1031 Pls
2782 1027 Pls
2810 1023 Pls
2837 1019 Pls
2865 1016 Pls
2893 1012 Pls
2921 1008 Pls
2949 1005 Pls
2977 1002 Pls
3005 998 Pls
3033 995 Pls
3061 992 Pls
3089 989 Pls
3117 986 Pls
3145 983 Pls
3172 980 Pls
3200 977 Pls
3228 974 Pls
3256 972 Pls
3284 969 Pls
3312 967 Pls
3340 964 Pls
3368 962 Pls
3396 960 Pls
3424 957 Pls
3452 955 Pls
3480 953 Pls
3507 951 Pls
3535 949 Pls
3563 947 Pls
3591 945 Pls
3619 943 Pls
3647 941 Pls
3675 939 Pls
3703 938 Pls
3731 935 Pls
3759 935 Pls
3787 933 Pls
3815 932 Pls
3842 928 Pls
3870 929 Pls
3898 928 Pls
3926 927 Pls
3954 925 Pls
3982 926 Pls
4010 923 Pls
4038 925 Pls
4066 928 Pls
4094 928 Pls
4122 934 Pls
4150 939 Pls
4177 942 Pls
2908 2320 Pls
% End plot #1
% Begin plot #2
0.200 UP
1.000 UL
LTb
0.00 0.45 0.70 C LCb setrgbcolor
2787 2220 M
[ [(roman) 100.0 0.0 true true 0 (             Q)]
[(roman) 80.0 -30.0 true true 0 (y)]
] -23.3 MRshow
0.200 UP
1.000 UL
LTb
0.00 0.45 0.70 C 2847 2220 M
123 0 V
688 1862 M
28 -52 V
28 -47 V
28 -43 V
28 -40 V
27 -37 V
28 -34 V
28 -32 V
28 -31 V
28 -28 V
28 -27 V
28 -26 V
28 -24 V
28 -23 V
28 -22 V
28 -21 V
28 -20 V
27 -20 V
28 -18 V
28 -18 V
28 -18 V
28 -16 V
28 -16 V
28 -16 V
28 -15 V
28 -15 V
28 -14 V
28 -13 V
28 -13 V
27 -13 V
28 -13 V
28 -12 V
28 -12 V
28 -11 V
28 -12 V
28 -10 V
28 -11 V
28 -11 V
28 -10 V
28 -10 V
28 -9 V
27 -10 V
28 -9 V
28 -9 V
28 -9 V
28 -9 V
28 -8 V
28 -8 V
28 -9 V
28 -7 V
28 -8 V
28 -8 V
28 -8 V
27 -7 V
28 -7 V
28 -7 V
28 -7 V
28 -7 V
28 -7 V
28 -6 V
28 -7 V
28 -6 V
28 -7 V
28 -6 V
28 -6 V
27 -6 V
28 -6 V
28 -5 V
28 -6 V
28 -5 V
28 -6 V
28 -5 V
28 -6 V
28 -5 V
28 -5 V
28 -5 V
28 -5 V
27 -4 V
28 -5 V
28 -5 V
28 -4 V
28 -5 V
28 -4 V
28 -4 V
28 -5 V
28 -4 V
28 -4 V
28 -4 V
28 -4 V
27 -3 V
28 -4 V
28 -4 V
28 -3 V
28 -4 V
28 -3 V
28 -3 V
28 -3 V
28 -3 V
28 -3 V
28 -3 V
28 -3 V
27 -3 V
28 -2 V
28 -3 V
28 -2 V
28 -3 V
28 -2 V
28 -2 V
28 -2 V
28 -2 V
28 -2 V
28 -2 V
28 -2 V
27 -1 V
28 -2 V
28 -2 V
28 -2 V
28 -1 V
28 -3 V
28 -3 V
28 -4 V
28 -4 V
28 -8 V
28 -11 V
28 -17 V
27 -26 V
688 1862 Crs
716 1810 Crs
744 1763 Crs
772 1720 Crs
800 1680 Crs
827 1643 Crs
855 1609 Crs
883 1577 Crs
911 1546 Crs
939 1518 Crs
967 1491 Crs
995 1465 Crs
1023 1441 Crs
1051 1418 Crs
1079 1396 Crs
1107 1375 Crs
1135 1355 Crs
1162 1335 Crs
1190 1317 Crs
1218 1299 Crs
1246 1281 Crs
1274 1265 Crs
1302 1249 Crs
1330 1233 Crs
1358 1218 Crs
1386 1203 Crs
1414 1189 Crs
1442 1176 Crs
1470 1163 Crs
1497 1150 Crs
1525 1137 Crs
1553 1125 Crs
1581 1113 Crs
1609 1102 Crs
1637 1090 Crs
1665 1080 Crs
1693 1069 Crs
1721 1058 Crs
1749 1048 Crs
1777 1038 Crs
1805 1029 Crs
1832 1019 Crs
1860 1010 Crs
1888 1001 Crs
1916 992 Crs
1944 983 Crs
1972 975 Crs
2000 967 Crs
2028 958 Crs
2056 951 Crs
2084 943 Crs
2112 935 Crs
2140 927 Crs
2167 920 Crs
2195 913 Crs
2223 906 Crs
2251 899 Crs
2279 892 Crs
2307 885 Crs
2335 879 Crs
2363 872 Crs
2391 866 Crs
2419 859 Crs
2447 853 Crs
2475 847 Crs
2502 841 Crs
2530 835 Crs
2558 830 Crs
2586 824 Crs
2614 819 Crs
2642 813 Crs
2670 808 Crs
2698 802 Crs
2726 797 Crs
2754 792 Crs
2782 787 Crs
2810 782 Crs
2837 778 Crs
2865 773 Crs
2893 768 Crs
2921 764 Crs
2949 759 Crs
2977 755 Crs
3005 751 Crs
3033 746 Crs
3061 742 Crs
3089 738 Crs
3117 734 Crs
3145 730 Crs
3172 727 Crs
3200 723 Crs
3228 719 Crs
3256 716 Crs
3284 712 Crs
3312 709 Crs
3340 706 Crs
3368 703 Crs
3396 700 Crs
3424 697 Crs
3452 694 Crs
3480 691 Crs
3507 688 Crs
3535 686 Crs
3563 683 Crs
3591 681 Crs
3619 678 Crs
3647 676 Crs
3675 674 Crs
3703 672 Crs
3731 670 Crs
3759 668 Crs
3787 666 Crs
3815 664 Crs
3842 663 Crs
3870 661 Crs
3898 659 Crs
3926 657 Crs
3954 656 Crs
3982 653 Crs
4010 650 Crs
4038 646 Crs
4066 642 Crs
4094 634 Crs
4122 623 Crs
4150 606 Crs
4177 580 Crs
2908 2220 Crs
% End plot #2
% Begin plot #3
1.200 UL
LTb
0.90 0.62 0.00 C LCb setrgbcolor
2787 2120 M
[ [(roman) 100.0 0.0 true true 0 (design E)]
] -33.3 MRshow
1.200 UL
LTb
0.90 0.62 0.00 C 2847 2120 M
123 0 V
729 504 M
0 1929 V
1734 504 M
0 1929 V
2739 504 M
0 1929 V
3744 504 M
0 1929 V
% End plot #3
stroke
2.000 UL
LTb
LCb setrgbcolor
1.000 UL
LTB
LCb setrgbcolor
660 2433 N
660 504 L
3657 0 V
0 1929 V
-3657 0 V
Z stroke
1.000 UP
1.000 UL
LTb
LCb setrgbcolor
stroke
grestore
end
showpage
%%Trailer
%%DocumentFonts: Symbol roman Times-Roman
