%!PS-Adobe-2.0 EPSF-2.0
%%Title: gnuplot_CAVITE_cycloEq.eps
%%Creator: gnuplot 5.2 patchlevel 2
%%CreationDate: Thu May 28 15:40:19 2020
%%DocumentFonts: (atend)
%%BoundingBox: 50 50 220 191
%%EndComments
%%BeginProlog
/gnudict 256 dict def
gnudict begin
%
% The following true/false flags may be edited by hand if desired.
% The unit line width and grayscale image gamma correction may also be changed.
%
/Color true def
/Blacktext true def
/Solid false def
/Dashlength 1 def
/Landscape false def
/Level1 false def
/Level3 false def
/Rounded false def
/ClipToBoundingBox false def
/SuppressPDFMark false def
/TransparentPatterns false def
/gnulinewidth 5.000 def
/userlinewidth gnulinewidth def
/Gamma 1.0 def
/BackgroundColor {-1.000 -1.000 -1.000} def
%
/vshift -40 def
/dl1 {
  10.0 Dashlength userlinewidth gnulinewidth div mul mul mul
  Rounded { currentlinewidth 0.75 mul sub dup 0 le { pop 0.01 } if } if
} def
/dl2 {
  10.0 Dashlength userlinewidth gnulinewidth div mul mul mul
  Rounded { currentlinewidth 0.75 mul add } if
} def
/hpt_ 31.5 def
/vpt_ 31.5 def
/hpt hpt_ def
/vpt vpt_ def
/doclip {
  ClipToBoundingBox {
    newpath 50 50 moveto 220 50 lineto 220 191 lineto 50 191 lineto closepath
    clip
  } if
} def
%
% Gnuplot Prolog Version 5.1 (Oct 2015)
%
%/SuppressPDFMark true def
%
/M {moveto} bind def
/L {lineto} bind def
/R {rmoveto} bind def
/V {rlineto} bind def
/N {newpath moveto} bind def
/Z {closepath} bind def
/C {setrgbcolor} bind def
/f {rlineto fill} bind def
/g {setgray} bind def
/Gshow {show} def   % May be redefined later in the file to support UTF-8
/vpt2 vpt 2 mul def
/hpt2 hpt 2 mul def
/Lshow {currentpoint stroke M 0 vshift R 
	Blacktext {gsave 0 setgray textshow grestore} {textshow} ifelse} def
/Rshow {currentpoint stroke M dup stringwidth pop neg vshift R
	Blacktext {gsave 0 setgray textshow grestore} {textshow} ifelse} def
/Cshow {currentpoint stroke M dup stringwidth pop -2 div vshift R 
	Blacktext {gsave 0 setgray textshow grestore} {textshow} ifelse} def
/UP {dup vpt_ mul /vpt exch def hpt_ mul /hpt exch def
  /hpt2 hpt 2 mul def /vpt2 vpt 2 mul def} def
/DL {Color {setrgbcolor Solid {pop []} if 0 setdash}
 {pop pop pop 0 setgray Solid {pop []} if 0 setdash} ifelse} def
/BL {stroke userlinewidth 2 mul setlinewidth
	Rounded {1 setlinejoin 1 setlinecap} if} def
/AL {stroke userlinewidth 2 div setlinewidth
	Rounded {1 setlinejoin 1 setlinecap} if} def
/UL {dup gnulinewidth mul /userlinewidth exch def
	dup 1 lt {pop 1} if 10 mul /udl exch def} def
/PL {stroke userlinewidth setlinewidth
	Rounded {1 setlinejoin 1 setlinecap} if} def
3.8 setmiterlimit
% Classic Line colors (version 5.0)
/LCw {1 1 1} def
/LCb {0 0 0} def
/LCa {0 0 0} def
/LC0 {1 0 0} def
/LC1 {0 1 0} def
/LC2 {0 0 1} def
/LC3 {1 0 1} def
/LC4 {0 1 1} def
/LC5 {1 1 0} def
/LC6 {0 0 0} def
/LC7 {1 0.3 0} def
/LC8 {0.5 0.5 0.5} def
% Default dash patterns (version 5.0)
/LTB {BL [] LCb DL} def
/LTw {PL [] 1 setgray} def
/LTb {PL [] LCb DL} def
/LTa {AL [1 udl mul 2 udl mul] 0 setdash LCa setrgbcolor} def
/LT0 {PL [] LC0 DL} def
/LT1 {PL [2 dl1 3 dl2] LC1 DL} def
/LT2 {PL [1 dl1 1.5 dl2] LC2 DL} def
/LT3 {PL [6 dl1 2 dl2 1 dl1 2 dl2] LC3 DL} def
/LT4 {PL [1 dl1 2 dl2 6 dl1 2 dl2 1 dl1 2 dl2] LC4 DL} def
/LT5 {PL [4 dl1 2 dl2] LC5 DL} def
/LT6 {PL [1.5 dl1 1.5 dl2 1.5 dl1 1.5 dl2 1.5 dl1 6 dl2] LC6 DL} def
/LT7 {PL [3 dl1 3 dl2 1 dl1 3 dl2] LC7 DL} def
/LT8 {PL [2 dl1 2 dl2 2 dl1 6 dl2] LC8 DL} def
/SL {[] 0 setdash} def
/Pnt {stroke [] 0 setdash gsave 1 setlinecap M 0 0 V stroke grestore} def
/Dia {stroke [] 0 setdash 2 copy vpt add M
  hpt neg vpt neg V hpt vpt neg V
  hpt vpt V hpt neg vpt V closepath stroke
  Pnt} def
/Pls {stroke [] 0 setdash vpt sub M 0 vpt2 V
  currentpoint stroke M
  hpt neg vpt neg R hpt2 0 V stroke
 } def
/Box {stroke [] 0 setdash 2 copy exch hpt sub exch vpt add M
  0 vpt2 neg V hpt2 0 V 0 vpt2 V
  hpt2 neg 0 V closepath stroke
  Pnt} def
/Crs {stroke [] 0 setdash exch hpt sub exch vpt add M
  hpt2 vpt2 neg V currentpoint stroke M
  hpt2 neg 0 R hpt2 vpt2 V stroke} def
/TriU {stroke [] 0 setdash 2 copy vpt 1.12 mul add M
  hpt neg vpt -1.62 mul V
  hpt 2 mul 0 V
  hpt neg vpt 1.62 mul V closepath stroke
  Pnt} def
/Star {2 copy Pls Crs} def
/BoxF {stroke [] 0 setdash exch hpt sub exch vpt add M
  0 vpt2 neg V hpt2 0 V 0 vpt2 V
  hpt2 neg 0 V closepath fill} def
/TriUF {stroke [] 0 setdash vpt 1.12 mul add M
  hpt neg vpt -1.62 mul V
  hpt 2 mul 0 V
  hpt neg vpt 1.62 mul V closepath fill} def
/TriD {stroke [] 0 setdash 2 copy vpt 1.12 mul sub M
  hpt neg vpt 1.62 mul V
  hpt 2 mul 0 V
  hpt neg vpt -1.62 mul V closepath stroke
  Pnt} def
/TriDF {stroke [] 0 setdash vpt 1.12 mul sub M
  hpt neg vpt 1.62 mul V
  hpt 2 mul 0 V
  hpt neg vpt -1.62 mul V closepath fill} def
/DiaF {stroke [] 0 setdash vpt add M
  hpt neg vpt neg V hpt vpt neg V
  hpt vpt V hpt neg vpt V closepath fill} def
/Pent {stroke [] 0 setdash 2 copy gsave
  translate 0 hpt M 4 {72 rotate 0 hpt L} repeat
  closepath stroke grestore Pnt} def
/PentF {stroke [] 0 setdash gsave
  translate 0 hpt M 4 {72 rotate 0 hpt L} repeat
  closepath fill grestore} def
/Circle {stroke [] 0 setdash 2 copy
  hpt 0 360 arc stroke Pnt} def
/CircleF {stroke [] 0 setdash hpt 0 360 arc fill} def
/C0 {BL [] 0 setdash 2 copy moveto vpt 90 450 arc} bind def
/C1 {BL [] 0 setdash 2 copy moveto
	2 copy vpt 0 90 arc closepath fill
	vpt 0 360 arc closepath} bind def
/C2 {BL [] 0 setdash 2 copy moveto
	2 copy vpt 90 180 arc closepath fill
	vpt 0 360 arc closepath} bind def
/C3 {BL [] 0 setdash 2 copy moveto
	2 copy vpt 0 180 arc closepath fill
	vpt 0 360 arc closepath} bind def
/C4 {BL [] 0 setdash 2 copy moveto
	2 copy vpt 180 270 arc closepath fill
	vpt 0 360 arc closepath} bind def
/C5 {BL [] 0 setdash 2 copy moveto
	2 copy vpt 0 90 arc
	2 copy moveto
	2 copy vpt 180 270 arc closepath fill
	vpt 0 360 arc} bind def
/C6 {BL [] 0 setdash 2 copy moveto
	2 copy vpt 90 270 arc closepath fill
	vpt 0 360 arc closepath} bind def
/C7 {BL [] 0 setdash 2 copy moveto
	2 copy vpt 0 270 arc closepath fill
	vpt 0 360 arc closepath} bind def
/C8 {BL [] 0 setdash 2 copy moveto
	2 copy vpt 270 360 arc closepath fill
	vpt 0 360 arc closepath} bind def
/C9 {BL [] 0 setdash 2 copy moveto
	2 copy vpt 270 450 arc closepath fill
	vpt 0 360 arc closepath} bind def
/C10 {BL [] 0 setdash 2 copy 2 copy moveto vpt 270 360 arc closepath fill
	2 copy moveto
	2 copy vpt 90 180 arc closepath fill
	vpt 0 360 arc closepath} bind def
/C11 {BL [] 0 setdash 2 copy moveto
	2 copy vpt 0 180 arc closepath fill
	2 copy moveto
	2 copy vpt 270 360 arc closepath fill
	vpt 0 360 arc closepath} bind def
/C12 {BL [] 0 setdash 2 copy moveto
	2 copy vpt 180 360 arc closepath fill
	vpt 0 360 arc closepath} bind def
/C13 {BL [] 0 setdash 2 copy moveto
	2 copy vpt 0 90 arc closepath fill
	2 copy moveto
	2 copy vpt 180 360 arc closepath fill
	vpt 0 360 arc closepath} bind def
/C14 {BL [] 0 setdash 2 copy moveto
	2 copy vpt 90 360 arc closepath fill
	vpt 0 360 arc} bind def
/C15 {BL [] 0 setdash 2 copy vpt 0 360 arc closepath fill
	vpt 0 360 arc closepath} bind def
/Rec {newpath 4 2 roll moveto 1 index 0 rlineto 0 exch rlineto
	neg 0 rlineto closepath} bind def
/Square {dup Rec} bind def
/Bsquare {vpt sub exch vpt sub exch vpt2 Square} bind def
/S0 {BL [] 0 setdash 2 copy moveto 0 vpt rlineto BL Bsquare} bind def
/S1 {BL [] 0 setdash 2 copy vpt Square fill Bsquare} bind def
/S2 {BL [] 0 setdash 2 copy exch vpt sub exch vpt Square fill Bsquare} bind def
/S3 {BL [] 0 setdash 2 copy exch vpt sub exch vpt2 vpt Rec fill Bsquare} bind def
/S4 {BL [] 0 setdash 2 copy exch vpt sub exch vpt sub vpt Square fill Bsquare} bind def
/S5 {BL [] 0 setdash 2 copy 2 copy vpt Square fill
	exch vpt sub exch vpt sub vpt Square fill Bsquare} bind def
/S6 {BL [] 0 setdash 2 copy exch vpt sub exch vpt sub vpt vpt2 Rec fill Bsquare} bind def
/S7 {BL [] 0 setdash 2 copy exch vpt sub exch vpt sub vpt vpt2 Rec fill
	2 copy vpt Square fill Bsquare} bind def
/S8 {BL [] 0 setdash 2 copy vpt sub vpt Square fill Bsquare} bind def
/S9 {BL [] 0 setdash 2 copy vpt sub vpt vpt2 Rec fill Bsquare} bind def
/S10 {BL [] 0 setdash 2 copy vpt sub vpt Square fill 2 copy exch vpt sub exch vpt Square fill
	Bsquare} bind def
/S11 {BL [] 0 setdash 2 copy vpt sub vpt Square fill 2 copy exch vpt sub exch vpt2 vpt Rec fill
	Bsquare} bind def
/S12 {BL [] 0 setdash 2 copy exch vpt sub exch vpt sub vpt2 vpt Rec fill Bsquare} bind def
/S13 {BL [] 0 setdash 2 copy exch vpt sub exch vpt sub vpt2 vpt Rec fill
	2 copy vpt Square fill Bsquare} bind def
/S14 {BL [] 0 setdash 2 copy exch vpt sub exch vpt sub vpt2 vpt Rec fill
	2 copy exch vpt sub exch vpt Square fill Bsquare} bind def
/S15 {BL [] 0 setdash 2 copy Bsquare fill Bsquare} bind def
/D0 {gsave translate 45 rotate 0 0 S0 stroke grestore} bind def
/D1 {gsave translate 45 rotate 0 0 S1 stroke grestore} bind def
/D2 {gsave translate 45 rotate 0 0 S2 stroke grestore} bind def
/D3 {gsave translate 45 rotate 0 0 S3 stroke grestore} bind def
/D4 {gsave translate 45 rotate 0 0 S4 stroke grestore} bind def
/D5 {gsave translate 45 rotate 0 0 S5 stroke grestore} bind def
/D6 {gsave translate 45 rotate 0 0 S6 stroke grestore} bind def
/D7 {gsave translate 45 rotate 0 0 S7 stroke grestore} bind def
/D8 {gsave translate 45 rotate 0 0 S8 stroke grestore} bind def
/D9 {gsave translate 45 rotate 0 0 S9 stroke grestore} bind def
/D10 {gsave translate 45 rotate 0 0 S10 stroke grestore} bind def
/D11 {gsave translate 45 rotate 0 0 S11 stroke grestore} bind def
/D12 {gsave translate 45 rotate 0 0 S12 stroke grestore} bind def
/D13 {gsave translate 45 rotate 0 0 S13 stroke grestore} bind def
/D14 {gsave translate 45 rotate 0 0 S14 stroke grestore} bind def
/D15 {gsave translate 45 rotate 0 0 S15 stroke grestore} bind def
/DiaE {stroke [] 0 setdash vpt add M
  hpt neg vpt neg V hpt vpt neg V
  hpt vpt V hpt neg vpt V closepath stroke} def
/BoxE {stroke [] 0 setdash exch hpt sub exch vpt add M
  0 vpt2 neg V hpt2 0 V 0 vpt2 V
  hpt2 neg 0 V closepath stroke} def
/TriUE {stroke [] 0 setdash vpt 1.12 mul add M
  hpt neg vpt -1.62 mul V
  hpt 2 mul 0 V
  hpt neg vpt 1.62 mul V closepath stroke} def
/TriDE {stroke [] 0 setdash vpt 1.12 mul sub M
  hpt neg vpt 1.62 mul V
  hpt 2 mul 0 V
  hpt neg vpt -1.62 mul V closepath stroke} def
/PentE {stroke [] 0 setdash gsave
  translate 0 hpt M 4 {72 rotate 0 hpt L} repeat
  closepath stroke grestore} def
/CircE {stroke [] 0 setdash 
  hpt 0 360 arc stroke} def
/Opaque {gsave closepath 1 setgray fill grestore 0 setgray closepath} def
/DiaW {stroke [] 0 setdash vpt add M
  hpt neg vpt neg V hpt vpt neg V
  hpt vpt V hpt neg vpt V Opaque stroke} def
/BoxW {stroke [] 0 setdash exch hpt sub exch vpt add M
  0 vpt2 neg V hpt2 0 V 0 vpt2 V
  hpt2 neg 0 V Opaque stroke} def
/TriUW {stroke [] 0 setdash vpt 1.12 mul add M
  hpt neg vpt -1.62 mul V
  hpt 2 mul 0 V
  hpt neg vpt 1.62 mul V Opaque stroke} def
/TriDW {stroke [] 0 setdash vpt 1.12 mul sub M
  hpt neg vpt 1.62 mul V
  hpt 2 mul 0 V
  hpt neg vpt -1.62 mul V Opaque stroke} def
/PentW {stroke [] 0 setdash gsave
  translate 0 hpt M 4 {72 rotate 0 hpt L} repeat
  Opaque stroke grestore} def
/CircW {stroke [] 0 setdash 
  hpt 0 360 arc Opaque stroke} def
/BoxFill {gsave Rec 1 setgray fill grestore} def
/Density {
  /Fillden exch def
  currentrgbcolor
  /ColB exch def /ColG exch def /ColR exch def
  /ColR ColR Fillden mul Fillden sub 1 add def
  /ColG ColG Fillden mul Fillden sub 1 add def
  /ColB ColB Fillden mul Fillden sub 1 add def
  ColR ColG ColB setrgbcolor} def
/BoxColFill {gsave Rec PolyFill} def
/PolyFill {gsave Density fill grestore grestore} def
/h {rlineto rlineto rlineto gsave closepath fill grestore} bind def
%
% PostScript Level 1 Pattern Fill routine for rectangles
% Usage: x y w h s a XX PatternFill
%	x,y = lower left corner of box to be filled
%	w,h = width and height of box
%	  a = angle in degrees between lines and x-axis
%	 XX = 0/1 for no/yes cross-hatch
%
/PatternFill {gsave /PFa [ 9 2 roll ] def
  PFa 0 get PFa 2 get 2 div add PFa 1 get PFa 3 get 2 div add translate
  PFa 2 get -2 div PFa 3 get -2 div PFa 2 get PFa 3 get Rec
  TransparentPatterns {} {gsave 1 setgray fill grestore} ifelse
  clip
  currentlinewidth 0.5 mul setlinewidth
  /PFs PFa 2 get dup mul PFa 3 get dup mul add sqrt def
  0 0 M PFa 5 get rotate PFs -2 div dup translate
  0 1 PFs PFa 4 get div 1 add floor cvi
	{PFa 4 get mul 0 M 0 PFs V} for
  0 PFa 6 get ne {
	0 1 PFs PFa 4 get div 1 add floor cvi
	{PFa 4 get mul 0 2 1 roll M PFs 0 V} for
 } if
  stroke grestore} def
%
/languagelevel where
 {pop languagelevel} {1} ifelse
dup 2 lt
	{/InterpretLevel1 true def
	 /InterpretLevel3 false def}
	{/InterpretLevel1 Level1 def
	 2 gt
	    {/InterpretLevel3 Level3 def}
	    {/InterpretLevel3 false def}
	 ifelse }
 ifelse
%
% PostScript level 2 pattern fill definitions
%
/Level2PatternFill {
/Tile8x8 {/PaintType 2 /PatternType 1 /TilingType 1 /BBox [0 0 8 8] /XStep 8 /YStep 8}
	bind def
/KeepColor {currentrgbcolor [/Pattern /DeviceRGB] setcolorspace} bind def
<< Tile8x8
 /PaintProc {0.5 setlinewidth pop 0 0 M 8 8 L 0 8 M 8 0 L stroke} 
>> matrix makepattern
/Pat1 exch def
<< Tile8x8
 /PaintProc {0.5 setlinewidth pop 0 0 M 8 8 L 0 8 M 8 0 L stroke
	0 4 M 4 8 L 8 4 L 4 0 L 0 4 L stroke}
>> matrix makepattern
/Pat2 exch def
<< Tile8x8
 /PaintProc {0.5 setlinewidth pop 0 0 M 0 8 L
	8 8 L 8 0 L 0 0 L fill}
>> matrix makepattern
/Pat3 exch def
<< Tile8x8
 /PaintProc {0.5 setlinewidth pop -4 8 M 8 -4 L
	0 12 M 12 0 L stroke}
>> matrix makepattern
/Pat4 exch def
<< Tile8x8
 /PaintProc {0.5 setlinewidth pop -4 0 M 8 12 L
	0 -4 M 12 8 L stroke}
>> matrix makepattern
/Pat5 exch def
<< Tile8x8
 /PaintProc {0.5 setlinewidth pop -2 8 M 4 -4 L
	0 12 M 8 -4 L 4 12 M 10 0 L stroke}
>> matrix makepattern
/Pat6 exch def
<< Tile8x8
 /PaintProc {0.5 setlinewidth pop -2 0 M 4 12 L
	0 -4 M 8 12 L 4 -4 M 10 8 L stroke}
>> matrix makepattern
/Pat7 exch def
<< Tile8x8
 /PaintProc {0.5 setlinewidth pop 8 -2 M -4 4 L
	12 0 M -4 8 L 12 4 M 0 10 L stroke}
>> matrix makepattern
/Pat8 exch def
<< Tile8x8
 /PaintProc {0.5 setlinewidth pop 0 -2 M 12 4 L
	-4 0 M 12 8 L -4 4 M 8 10 L stroke}
>> matrix makepattern
/Pat9 exch def
/Pattern1 {PatternBgnd KeepColor Pat1 setpattern} bind def
/Pattern2 {PatternBgnd KeepColor Pat2 setpattern} bind def
/Pattern3 {PatternBgnd KeepColor Pat3 setpattern} bind def
/Pattern4 {PatternBgnd KeepColor Landscape {Pat5} {Pat4} ifelse setpattern} bind def
/Pattern5 {PatternBgnd KeepColor Landscape {Pat4} {Pat5} ifelse setpattern} bind def
/Pattern6 {PatternBgnd KeepColor Landscape {Pat9} {Pat6} ifelse setpattern} bind def
/Pattern7 {PatternBgnd KeepColor Landscape {Pat8} {Pat7} ifelse setpattern} bind def
} def
%
%
%End of PostScript Level 2 code
%
/PatternBgnd {
  TransparentPatterns {} {gsave 1 setgray fill grestore} ifelse
} def
%
% Substitute for Level 2 pattern fill codes with
% grayscale if Level 2 support is not selected.
%
/Level1PatternFill {
/Pattern1 {0.250 Density} bind def
/Pattern2 {0.500 Density} bind def
/Pattern3 {0.750 Density} bind def
/Pattern4 {0.125 Density} bind def
/Pattern5 {0.375 Density} bind def
/Pattern6 {0.625 Density} bind def
/Pattern7 {0.875 Density} bind def
} def
%
% Now test for support of Level 2 code
%
Level1 {Level1PatternFill} {Level2PatternFill} ifelse
%
/Symbol-Oblique /Symbol findfont [1 0 .167 1 0 0] makefont
dup length dict begin {1 index /FID eq {pop pop} {def} ifelse} forall
currentdict end definefont pop
%
/Metrics {ExtendTextBox Gswidth} def
/Lwidth {currentpoint stroke M 0 vshift R Metrics} def
/Rwidth {currentpoint stroke M dup stringwidth pop neg vshift R Metrics} def
/Cwidth {currentpoint stroke M dup stringwidth pop -2 div vshift R Metrics} def
/GLwidth {currentpoint stroke M 0 vshift R {ExtendTextBox} forall} def
/GRwidth {currentpoint stroke M dup Gwidth vshift R {ExtendTextBox} forall} def
/GCwidth {currentpoint stroke M dup Gwidth 2 div vshift R {ExtendTextBox} forall} def
/GLwidth2 {0 Gwidth AddGlyphWidth} def
/GRwidth2 {Gwidth -1 mul 0 AddGlyphWidth} def
/GCwidth2 {Gwidth 2 div dup -1 mul AddGlyphWidth} def
/AddGlyphWidth { dup TBx2 gt {userdict /TBx2 3 -1 roll put} {pop} ifelse
                 dup TBx1 lt {userdict /TBx1 3 -1 roll put} {pop} ifelse } def
/MFshow {
   { dup 5 get 3 ge
     { 5 get 3 eq {gsave} {grestore} ifelse }
     {dup dup 0 get findfont exch 1 get scalefont setfont
     [ currentpoint ] exch dup 2 get 0 exch R dup 5 get 2 ne {dup dup 6
     get exch 4 get {textshow} {Metrics pop 0 R} ifelse }if dup 5 get 0 eq
     {dup 3 get {2 get neg 0 exch R pop} {pop aload pop M} ifelse} {dup 5
     get 1 eq {dup 2 get exch dup 3 get exch 6 get Gswidth pop -2 div
     dup 0 R} {dup 6 get Gswidth pop -2 div 0 R 6 get
     textshow 2 index {aload pop M neg 3 -1 roll neg R pop pop} {pop pop pop
     pop aload pop M} ifelse }ifelse }ifelse }
     ifelse }
   forall} def
/Gswidth {dup type /stringtype eq {stringwidth} {pop (n) stringwidth} ifelse} def
/MFwidth {0 exch { dup 5 get 3 ge { 5 get 3 eq { 0 } { pop } ifelse }
 {dup 3 get{dup dup 0 get findfont exch 1 get scalefont setfont
     6 get Gswidth pop add} {pop} ifelse} ifelse} forall} def
/MLshow { currentpoint stroke M
  0 exch R
  Blacktext {gsave 0 setgray MFshow grestore} {MFshow} ifelse } bind def
/MRshow { currentpoint stroke M
  exch dup MFwidth neg 3 -1 roll R
  Blacktext {gsave 0 setgray MFshow grestore} {MFshow} ifelse } bind def
/MCshow { currentpoint stroke M
  exch dup MFwidth -2 div 3 -1 roll R
  Blacktext {gsave 0 setgray MFshow grestore} {MFshow} ifelse } bind def
/XYsave    { [( ) 1 2 true false 3 ()] } bind def
/XYrestore { [( ) 1 2 true false 4 ()] } bind def
Level1 SuppressPDFMark or 
{} {
/SDict 10 dict def
systemdict /pdfmark known not {
  userdict /pdfmark systemdict /cleartomark get put
} if
SDict begin [
  /Title (gnuplot_CAVITE_cycloEq.eps)
  /Subject (gnuplot plot)
  /Creator (gnuplot 5.2 patchlevel 2)
%  /Producer (gnuplot)
%  /Keywords ()
  /CreationDate (Thu May 28 15:40:19 2020)
  /DOCINFO pdfmark
end
} ifelse
%
% Support for boxed text - Ethan A Merritt Sep 2016
%
/InitTextBox { userdict /TBy2 3 -1 roll put userdict /TBx2 3 -1 roll put
           userdict /TBy1 3 -1 roll put userdict /TBx1 3 -1 roll put
	   /Boxing true def } def
/ExtendTextBox { dup type /stringtype eq
    { Boxing { gsave dup false charpath pathbbox
      dup TBy2 gt {userdict /TBy2 3 -1 roll put} {pop} ifelse
      dup TBx2 gt {userdict /TBx2 3 -1 roll put} {pop} ifelse
      dup TBy1 lt {userdict /TBy1 3 -1 roll put} {pop} ifelse
      dup TBx1 lt {userdict /TBx1 3 -1 roll put} {pop} ifelse
      grestore } if }
    {} ifelse} def
/PopTextBox { newpath TBx1 TBxmargin sub TBy1 TBymargin sub M
               TBx1 TBxmargin sub TBy2 TBymargin add L
	       TBx2 TBxmargin add TBy2 TBymargin add L
	       TBx2 TBxmargin add TBy1 TBymargin sub L closepath } def
/DrawTextBox { PopTextBox stroke /Boxing false def} def
/FillTextBox { gsave PopTextBox fill grestore /Boxing false def} def
0 0 0 0 InitTextBox
/TBxmargin 20 def
/TBymargin 20 def
/Boxing false def
/textshow { ExtendTextBox Gshow } def
%
end
%%EndProlog
%%Page: 1 1
gnudict begin
gsave
doclip
50 50 translate
0.050 0.050 scale
0 setgray
newpath
(Times-Roman) findfont 120 scalefont setfont
BackgroundColor 0 lt 3 1 roll 0 lt exch 0 lt or or not {BackgroundColor C 1.000 0 0 3400.00 2834.00 BoxColFill} if
1.000 UL
LTb
LCb setrgbcolor
588 464 M
63 0 V
2532 0 R
-63 0 V
stroke
516 464 M
[ [(Times-Roman) 120.0 0.0 true true 0 (-1)]
] -40.0 MRshow
1.000 UL
LTb
LCb setrgbcolor
588 866 M
63 0 V
2532 0 R
-63 0 V
stroke
516 866 M
[ [(Times-Roman) 120.0 0.0 true true 0 (-0.5)]
] -40.0 MRshow
1.000 UL
LTb
LCb setrgbcolor
588 1267 M
63 0 V
2532 0 R
-63 0 V
stroke
516 1267 M
[ [(Times-Roman) 120.0 0.0 true true 0 ( 0)]
] -40.0 MRshow
1.000 UL
LTb
LCb setrgbcolor
588 1669 M
63 0 V
2532 0 R
-63 0 V
stroke
516 1669 M
[ [(Times-Roman) 120.0 0.0 true true 0 ( 0.5)]
] -40.0 MRshow
1.000 UL
LTb
LCb setrgbcolor
588 2071 M
63 0 V
2532 0 R
-63 0 V
stroke
516 2071 M
[ [(Times-Roman) 120.0 0.0 true true 0 ( 1)]
] -40.0 MRshow
1.000 UL
LTb
LCb setrgbcolor
588 2472 M
63 0 V
2532 0 R
-63 0 V
stroke
516 2472 M
[ [(Times-Roman) 120.0 0.0 true true 0 ( 1.5)]
] -40.0 MRshow
1.000 UL
LTb
LCb setrgbcolor
824 384 M
0 63 V
0 2266 R
0 -63 V
stroke
824 264 M
[ [(Times-Roman) 120.0 0.0 true true 0 ( 2)]
] -40.0 MCshow
1.000 UL
LTb
LCb setrgbcolor
1086 384 M
0 63 V
0 2266 R
0 -63 V
stroke
1086 264 M
[ [(Times-Roman) 120.0 0.0 true true 0 ( 4)]
] -40.0 MCshow
1.000 UL
LTb
LCb setrgbcolor
1348 384 M
0 63 V
0 2266 R
0 -63 V
stroke
1348 264 M
[ [(Times-Roman) 120.0 0.0 true true 0 ( 6)]
] -40.0 MCshow
1.000 UL
LTb
LCb setrgbcolor
1610 384 M
0 63 V
0 2266 R
0 -63 V
stroke
1610 264 M
[ [(Times-Roman) 120.0 0.0 true true 0 ( 8)]
] -40.0 MCshow
1.000 UL
LTb
LCb setrgbcolor
1872 384 M
0 63 V
0 2266 R
0 -63 V
stroke
1872 264 M
[ [(Times-Roman) 120.0 0.0 true true 0 ( 10)]
] -40.0 MCshow
1.000 UL
LTb
LCb setrgbcolor
2135 384 M
0 63 V
0 2266 R
0 -63 V
stroke
2135 264 M
[ [(Times-Roman) 120.0 0.0 true true 0 ( 12)]
] -40.0 MCshow
1.000 UL
LTb
LCb setrgbcolor
2397 384 M
0 63 V
0 2266 R
0 -63 V
stroke
2397 264 M
[ [(Times-Roman) 120.0 0.0 true true 0 ( 14)]
] -40.0 MCshow
1.000 UL
LTb
LCb setrgbcolor
2659 384 M
0 63 V
0 2266 R
0 -63 V
stroke
2659 264 M
[ [(Times-Roman) 120.0 0.0 true true 0 ( 16)]
] -40.0 MCshow
1.000 UL
LTb
LCb setrgbcolor
2921 384 M
0 63 V
0 2266 R
0 -63 V
stroke
2921 264 M
[ [(Times-Roman) 120.0 0.0 true true 0 ( 18)]
] -40.0 MCshow
1.000 UL
LTb
LCb setrgbcolor
3183 384 M
0 63 V
0 2266 R
0 -63 V
stroke
3183 264 M
[ [(Times-Roman) 120.0 0.0 true true 0 ( 20)]
] -40.0 MCshow
1.000 UL
LTb
LCb setrgbcolor
1.000 UL
LTB
LCb setrgbcolor
588 2713 N
588 384 L
2595 0 V
0 2329 V
-2595 0 V
Z stroke
1.000 UP
1.000 UL
LTb
LCb setrgbcolor
LCb setrgbcolor
108 1548 M
currentpoint gsave translate -270 rotate 0 0 moveto
[ [(Times-Roman) 120.0 0.0 true true 0 (cos\()]
[(Symbol) 120.0 0.0 true true 0 (f)]
[(Times-Roman) 120.0 0.0 true true 0 (\))]
] -40.0 MCshow
grestore
LTb
LCb setrgbcolor
1885 84 M
[ [(Times-Roman) 120.0 0.0 true true 0 (W  [MeV])]
] -40.0 MCshow
LTb
% Begin plot #1
0.500 UP
1.000 UL
LTb
0.58 0.00 0.83 C 614 1293 Circle
640 1319 Circle
666 1344 Circle
692 1368 Circle
718 1392 Circle
744 1415 Circle
770 1438 Circle
795 1459 Circle
820 1480 Circle
846 1501 Circle
870 1521 Circle
895 1540 Circle
919 1559 Circle
944 1577 Circle
968 1594 Circle
991 1611 Circle
1015 1627 Circle
1038 1642 Circle
1061 1657 Circle
1084 1671 Circle
1106 1685 Circle
1128 1698 Circle
1150 1711 Circle
1171 1723 Circle
1193 1735 Circle
1214 1746 Circle
1235 1757 Circle
1255 1767 Circle
1275 1777 Circle
1295 1786 Circle
1315 1795 Circle
1335 1803 Circle
1354 1811 Circle
1373 1819 Circle
1392 1826 Circle
1410 1833 Circle
1429 1840 Circle
1447 1846 Circle
1465 1852 Circle
1483 1858 Circle
1500 1863 Circle
1518 1868 Circle
1535 1873 Circle
1552 1877 Circle
1569 1882 Circle
1586 1886 Circle
1602 1889 Circle
1619 1893 Circle
1635 1896 Circle
1651 1899 Circle
1667 1902 Circle
1683 1904 Circle
1699 1907 Circle
1715 1909 Circle
1731 1911 Circle
1746 1912 Circle
1762 1914 Circle
1777 1915 Circle
1793 1916 Circle
1808 1917 Circle
1823 1918 Circle
1839 1919 Circle
1854 1919 Circle
1869 1919 Circle
1885 1919 Circle
1900 1919 Circle
1915 1919 Circle
1931 1918 Circle
1946 1918 Circle
1961 1917 Circle
1977 1916 Circle
1992 1914 Circle
2008 1913 Circle
2024 1911 Circle
2039 1910 Circle
2055 1907 Circle
2071 1905 Circle
2087 1903 Circle
2103 1900 Circle
2120 1897 Circle
2136 1894 Circle
2153 1891 Circle
2169 1887 Circle
2186 1883 Circle
2203 1879 Circle
2220 1875 Circle
2238 1870 Circle
2255 1865 Circle
2273 1860 Circle
2291 1854 Circle
2309 1849 Circle
2327 1842 Circle
2346 1836 Circle
2364 1829 Circle
2383 1822 Circle
2402 1814 Circle
2422 1807 Circle
2442 1798 Circle
2461 1789 Circle
2482 1780 Circle
2502 1771 Circle
2523 1761 Circle
2544 1750 Circle
2565 1739 Circle
2586 1728 Circle
2608 1716 Circle
2630 1703 Circle
2652 1690 Circle
2675 1677 Circle
2698 1663 Circle
2721 1648 Circle
2744 1633 Circle
2768 1617 Circle
2792 1601 Circle
2816 1583 Circle
2840 1566 Circle
2865 1547 Circle
2889 1529 Circle
2914 1509 Circle
2940 1489 Circle
2965 1468 Circle
2991 1446 Circle
3016 1424 Circle
3042 1401 Circle
3068 1378 Circle
3094 1354 Circle
3120 1329 Circle
3146 1304 Circle
3173 1278 Circle
% End plot #1
% Begin plot #2
0.500 UP
1.000 UL
LTb
0.00 0.62 0.45 C 607 718 BoxF
627 737 BoxF
647 756 BoxF
668 776 BoxF
689 795 BoxF
711 815 BoxF
733 834 BoxF
755 854 BoxF
778 874 BoxF
801 893 BoxF
825 913 BoxF
848 932 BoxF
873 951 BoxF
897 970 BoxF
921 988 BoxF
946 1006 BoxF
971 1024 BoxF
996 1042 BoxF
1022 1059 BoxF
1047 1075 BoxF
1073 1092 BoxF
1098 1108 BoxF
1124 1123 BoxF
1150 1138 BoxF
1176 1152 BoxF
1202 1166 BoxF
1228 1180 BoxF
1254 1193 BoxF
1280 1205 BoxF
1306 1217 BoxF
1333 1229 BoxF
1359 1240 BoxF
1385 1250 BoxF
1411 1260 BoxF
1438 1270 BoxF
1464 1278 BoxF
1490 1287 BoxF
1516 1294 BoxF
1542 1302 BoxF
1568 1308 BoxF
1595 1315 BoxF
1621 1320 BoxF
1647 1325 BoxF
1673 1330 BoxF
1699 1334 BoxF
1725 1337 BoxF
1751 1340 BoxF
1778 1343 BoxF
1804 1345 BoxF
1830 1346 BoxF
1856 1347 BoxF
1882 1347 BoxF
1908 1347 BoxF
1934 1346 BoxF
1960 1345 BoxF
1986 1343 BoxF
2012 1341 BoxF
2038 1338 BoxF
2065 1335 BoxF
2091 1331 BoxF
2117 1327 BoxF
2143 1322 BoxF
2169 1316 BoxF
2195 1310 BoxF
2221 1304 BoxF
2248 1296 BoxF
2274 1289 BoxF
2300 1281 BoxF
2326 1272 BoxF
2353 1263 BoxF
2379 1253 BoxF
2405 1243 BoxF
2431 1232 BoxF
2457 1221 BoxF
2483 1209 BoxF
2510 1196 BoxF
2536 1184 BoxF
2562 1170 BoxF
2588 1156 BoxF
2613 1142 BoxF
2639 1127 BoxF
2665 1112 BoxF
2691 1096 BoxF
2716 1080 BoxF
2741 1063 BoxF
2767 1046 BoxF
2792 1029 BoxF
2817 1011 BoxF
2841 993 BoxF
2866 975 BoxF
2890 956 BoxF
2914 937 BoxF
2937 918 BoxF
2960 899 BoxF
2983 879 BoxF
3006 859 BoxF
3028 840 BoxF
3050 820 BoxF
3071 800 BoxF
3092 781 BoxF
3113 761 BoxF
3132 742 BoxF
3152 723 BoxF
3170 704 BoxF
% End plot #2
% Begin plot #3
2.000 UL
LTb
0.00 0.00 1.00 C LCb setrgbcolor
2616 2590 M
[ [(Times-Roman) 120.0 0.0 true true 0 (V/gap=200kV, )]
[(Symbol) 120.0 0.0 true true 0 (f)]
[(Times-Roman) 96.0 -36.0 true true 0 (0)]
[(Times-Roman) 120.0 0.0 true true 0 (=)]
[(Symbol) 120.0 0.0 true true 0 ( p)]
[(Times-Roman) 120.0 0.0 true true 0 (/2)]
] -28.0 MRshow
2.000 UL
LTb
0.00 0.00 1.00 C 2688 2590 M
351 0 V
588 1267 M
26 26 V
26 26 V
27 25 V
26 25 V
26 23 V
26 24 V
26 23 V
27 22 V
26 22 V
26 21 V
26 21 V
27 20 V
26 20 V
26 19 V
26 19 V
26 18 V
27 17 V
26 17 V
26 17 V
26 16 V
26 15 V
27 15 V
26 14 V
26 14 V
26 14 V
27 12 V
26 13 V
26 11 V
26 12 V
26 10 V
27 10 V
26 10 V
26 9 V
26 8 V
26 8 V
27 8 V
26 7 V
26 6 V
26 6 V
26 5 V
27 5 V
26 4 V
26 4 V
26 3 V
27 3 V
26 2 V
26 2 V
26 1 V
26 0 V
27 0 V
26 0 V
26 -1 V
26 -2 V
26 -2 V
27 -3 V
26 -3 V
26 -4 V
26 -4 V
27 -5 V
26 -5 V
26 -6 V
26 -6 V
26 -7 V
27 -8 V
26 -8 V
26 -8 V
26 -9 V
26 -10 V
27 -10 V
26 -10 V
26 -12 V
26 -11 V
26 -13 V
27 -12 V
26 -14 V
26 -14 V
26 -14 V
27 -15 V
26 -15 V
26 -16 V
26 -17 V
26 -17 V
27 -17 V
26 -18 V
26 -19 V
26 -19 V
26 -20 V
27 -20 V
26 -21 V
26 -21 V
26 -22 V
27 -22 V
26 -23 V
26 -24 V
26 -23 V
26 -25 V
27 -25 V
26 -26 V
26 -26 V
% End plot #3
% Begin plot #4
stroke
LTb
1.00 0.00 0.00 C LCb setrgbcolor
2616 2470 M
[ [(Times-Roman) 120.0 0.0 true true 0 (             )]
[(Symbol) 120.0 0.0 true true 0 (f)]
[(Times-Roman) 96.0 -36.0 true true 0 (0)]
[(Times-Roman) 120.0 0.0 true true 0 (=)]
[(Symbol) 120.0 0.0 true true 0 (3p)]
[(Times-Roman) 120.0 0.0 true true 0 (/4)]
] -28.0 MRshow
2.000 UL
LTb
1.00 0.00 0.00 C 2688 2470 M
351 0 V
588 700 M
26 26 V
26 25 V
27 25 V
26 25 V
26 24 V
26 23 V
26 23 V
27 22 V
26 22 V
26 21 V
26 21 V
27 20 V
26 20 V
26 19 V
26 19 V
26 18 V
27 17 V
26 17 V
26 17 V
26 16 V
26 15 V
27 15 V
26 15 V
26 13 V
26 14 V
27 13 V
26 12 V
26 11 V
26 12 V
26 10 V
27 10 V
26 10 V
26 9 V
26 9 V
26 8 V
27 7 V
26 7 V
26 6 V
26 6 V
26 5 V
27 5 V
26 4 V
26 4 V
26 3 V
27 3 V
26 2 V
26 2 V
26 1 V
26 0 V
27 0 V
26 0 V
26 -1 V
26 -2 V
26 -2 V
27 -3 V
26 -3 V
26 -4 V
26 -4 V
27 -5 V
26 -5 V
26 -6 V
26 -6 V
26 -7 V
27 -7 V
26 -8 V
26 -9 V
26 -9 V
26 -10 V
27 -10 V
26 -10 V
26 -12 V
26 -11 V
26 -12 V
27 -13 V
26 -14 V
26 -13 V
26 -15 V
27 -15 V
26 -15 V
26 -16 V
26 -17 V
26 -17 V
27 -17 V
26 -18 V
26 -19 V
26 -19 V
26 -20 V
27 -20 V
26 -21 V
26 -21 V
26 -22 V
27 -22 V
26 -23 V
26 -23 V
26 -24 V
26 -25 V
27 -25 V
26 -25 V
26 -26 V
% End plot #4
% Begin plot #5
stroke
0.500 UL
LTb
0.00 0.00 0.00 C 588 2071 M
26 0 V
26 0 V
27 0 V
26 0 V
26 0 V
26 0 V
26 0 V
27 0 V
26 0 V
26 0 V
26 0 V
27 0 V
26 0 V
26 0 V
26 0 V
26 0 V
27 0 V
26 0 V
26 0 V
26 0 V
26 0 V
27 0 V
26 0 V
26 0 V
26 0 V
27 0 V
26 0 V
26 0 V
26 0 V
26 0 V
27 0 V
26 0 V
26 0 V
26 0 V
26 0 V
27 0 V
26 0 V
26 0 V
26 0 V
26 0 V
27 0 V
26 0 V
26 0 V
26 0 V
27 0 V
26 0 V
26 0 V
26 0 V
26 0 V
27 0 V
26 0 V
26 0 V
26 0 V
26 0 V
27 0 V
26 0 V
26 0 V
26 0 V
27 0 V
26 0 V
26 0 V
26 0 V
26 0 V
27 0 V
26 0 V
26 0 V
26 0 V
26 0 V
27 0 V
26 0 V
26 0 V
26 0 V
26 0 V
27 0 V
26 0 V
26 0 V
26 0 V
27 0 V
26 0 V
26 0 V
26 0 V
26 0 V
27 0 V
26 0 V
26 0 V
26 0 V
26 0 V
27 0 V
26 0 V
26 0 V
26 0 V
27 0 V
26 0 V
26 0 V
26 0 V
26 0 V
27 0 V
26 0 V
26 0 V
% End plot #5
% Begin plot #6
stroke
LTb
0.00 0.00 0.00 C 588 464 M
26 0 V
26 0 V
27 0 V
26 0 V
26 0 V
26 0 V
26 0 V
27 0 V
26 0 V
26 0 V
26 0 V
27 0 V
26 0 V
26 0 V
26 0 V
26 0 V
27 0 V
26 0 V
26 0 V
26 0 V
26 0 V
27 0 V
26 0 V
26 0 V
26 0 V
27 0 V
26 0 V
26 0 V
26 0 V
26 0 V
27 0 V
26 0 V
26 0 V
26 0 V
26 0 V
27 0 V
26 0 V
26 0 V
26 0 V
26 0 V
27 0 V
26 0 V
26 0 V
26 0 V
27 0 V
26 0 V
26 0 V
26 0 V
26 0 V
27 0 V
26 0 V
26 0 V
26 0 V
26 0 V
27 0 V
26 0 V
26 0 V
26 0 V
27 0 V
26 0 V
26 0 V
26 0 V
26 0 V
27 0 V
26 0 V
26 0 V
26 0 V
26 0 V
27 0 V
26 0 V
26 0 V
26 0 V
26 0 V
27 0 V
26 0 V
26 0 V
26 0 V
27 0 V
26 0 V
26 0 V
26 0 V
26 0 V
27 0 V
26 0 V
26 0 V
26 0 V
26 0 V
27 0 V
26 0 V
26 0 V
26 0 V
27 0 V
26 0 V
26 0 V
26 0 V
26 0 V
27 0 V
26 0 V
26 0 V
% End plot #6
stroke
2.000 UL
LTb
LCb setrgbcolor
1.000 UL
LTB
LCb setrgbcolor
588 2713 N
588 384 L
2595 0 V
0 2329 V
-2595 0 V
Z stroke
1.000 UP
1.000 UL
LTb
LCb setrgbcolor
stroke
grestore
end
showpage
%%Trailer
%%DocumentFonts: Symbol Times-Roman
