%!PS-Adobe-2.0 EPSF-2.0
%%Title: catenary.eps
%%Titre: catenary.eps
%%Creator: Fminigraf Library
%%BoundingBox: 20 40 567 457
%%EndComments
/offx 20 def
/offy 40 def
/lx 595 def
/ly 842 def
/maxx 1023 def
/maxy 779 def
/reduc 0.92 def
/coeff lx maxx div reduc mul def
offx offy translate
coeff coeff scale
1 setlinewidth newpath 0 0 moveto
/Courier-Bold findfont 32 scalefont setfont
/M {moveto} def
/L {lineto} def
/S {stroke} def
/H {show} def
/D {setdash} def
0 0 0 setrgbcolor
[] 0 D
[] 0 D
[2 3] 0 D
102 156 M 102 740 L S
[] 0 D
/Courier-Bold findfont 30 scalefont setfont
84 128 M (0.0) H
102 156 M 102 166 L S
102 730 M 102 740 L S
137 156 M 137 161 L S
137 735 M 137 740 L S
172 156 M 172 161 L S
172 735 M 172 740 L S
206 156 M 206 161 L S
206 735 M 206 740 L S
241 156 M 241 161 L S
241 735 M 241 740 L S
[2 3] 0 D
276 156 M 276 740 L S
[] 0 D
258 128 M (0.1) H
276 156 M 276 166 L S
276 730 M 276 740 L S
311 156 M 311 161 L S
311 735 M 311 740 L S
346 156 M 346 161 L S
346 735 M 346 740 L S
380 156 M 380 161 L S
380 735 M 380 740 L S
415 156 M 415 161 L S
415 735 M 415 740 L S
[2 3] 0 D
450 156 M 450 740 L S
[] 0 D
432 128 M (0.2) H
450 156 M 450 166 L S
450 730 M 450 740 L S
485 156 M 485 161 L S
485 735 M 485 740 L S
520 156 M 520 161 L S
520 735 M 520 740 L S
554 156 M 554 161 L S
554 735 M 554 740 L S
589 156 M 589 161 L S
589 735 M 589 740 L S
[2 3] 0 D
624 156 M 624 740 L S
[] 0 D
606 128 M (0.3) H
624 156 M 624 166 L S
624 730 M 624 740 L S
659 156 M 659 161 L S
659 735 M 659 740 L S
694 156 M 694 161 L S
694 735 M 694 740 L S
728 156 M 728 161 L S
728 735 M 728 740 L S
763 156 M 763 161 L S
763 735 M 763 740 L S
[2 3] 0 D
798 156 M 798 740 L S
[] 0 D
780 128 M (0.4) H
798 156 M 798 166 L S
798 730 M 798 740 L S
833 156 M 833 161 L S
833 735 M 833 740 L S
868 156 M 868 161 L S
868 735 M 868 740 L S
902 156 M 902 161 L S
902 735 M 902 740 L S
937 156 M 937 161 L S
937 735 M 937 740 L S
[2 3] 0 D
972 156 M 972 740 L S
[] 0 D
954 128 M (0.5) H
972 156 M 972 166 L S
972 730 M 972 740 L S
102 181 M 107 181 L S
967 181 M 972 181 L S
102 206 M 107 206 L S
967 206 M 972 206 L S
[2 3] 0 D
102 231 M 972 231 L S
[] 0 D
33 221 M (-.2) H
102 231 M 112 231 L S
962 231 M 972 231 L S
102 257 M 107 257 L S
967 257 M 972 257 L S
102 282 M 107 282 L S
967 282 M 972 282 L S
102 308 M 107 308 L S
967 308 M 972 308 L S
102 333 M 107 333 L S
967 333 M 972 333 L S
[2 3] 0 D
102 359 M 972 359 L S
[] 0 D
27 349 M (-.15) H
102 359 M 112 359 L S
962 359 M 972 359 L S
102 384 M 107 384 L S
967 384 M 972 384 L S
102 409 M 107 409 L S
967 409 M 972 409 L S
102 435 M 107 435 L S
967 435 M 972 435 L S
102 460 M 107 460 L S
967 460 M 972 460 L S
[2 3] 0 D
102 486 M 972 486 L S
[] 0 D
33 476 M (-.1) H
102 486 M 112 486 L S
962 486 M 972 486 L S
102 511 M 107 511 L S
967 511 M 972 511 L S
102 537 M 107 537 L S
967 537 M 972 537 L S
102 562 M 107 562 L S
967 562 M 972 562 L S
102 587 M 107 587 L S
967 587 M 972 587 L S
[2 3] 0 D
102 613 M 972 613 L S
[] 0 D
27 603 M (-.05) H
102 613 M 112 613 L S
962 613 M 972 613 L S
102 638 M 107 638 L S
967 638 M 972 638 L S
102 664 M 107 664 L S
967 664 M 972 664 L S
102 689 M 107 689 L S
967 689 M 972 689 L S
102 715 M 107 715 L S
967 715 M 972 715 L S
[2 3] 0 D
102 740 M 972 740 L S
[] 0 D
33 730 M (0.0) H
102 740 M 112 740 L S
962 740 M 972 740 L S
[] 0 D
102 156 M 972 156 L S
972 156 M 972 740 L S
972 740 M 102 740 L S
102 740 M 102 156 L S
[] 0 D
102 740 M 102 740 L S
102 740 M 102 740 L S
102 740 M 104 740 L S
104 740 M 105 740 L S
105 740 M 107 740 L S
107 740 M 109 740 L S
109 740 M 111 740 L S
111 740 M 112 740 L S
112 740 M 114 740 L S
114 740 M 116 740 L S
116 740 M 118 740 L S
118 740 M 119 740 L S
119 740 M 121 740 L S
121 740 M 123 740 L S
123 740 M 125 740 L S
125 740 M 126 740 L S
126 740 M 128 739 L S
128 739 M 130 739 L S
130 739 M 132 739 L S
132 739 M 133 739 L S
133 739 M 135 739 L S
135 739 M 137 739 L S
137 739 M 139 739 L S
139 739 M 140 739 L S
140 739 M 142 739 L S
142 739 M 144 739 L S
144 739 M 145 739 L S
145 739 M 147 738 L S
147 738 M 149 738 L S
149 738 M 151 738 L S
151 738 M 152 738 L S
152 738 M 154 738 L S
154 738 M 156 738 L S
156 738 M 158 738 L S
158 738 M 159 738 L S
159 738 M 161 737 L S
161 737 M 163 737 L S
163 737 M 165 737 L S
165 737 M 166 737 L S
166 737 M 168 737 L S
168 737 M 170 737 L S
170 737 M 172 736 L S
172 736 M 173 736 L S
173 736 M 175 736 L S
175 736 M 177 736 L S
177 736 M 178 736 L S
178 736 M 180 735 L S
180 735 M 182 735 L S
182 735 M 184 735 L S
184 735 M 185 735 L S
185 735 M 187 735 L S
187 735 M 189 734 L S
189 734 M 191 734 L S
191 734 M 192 734 L S
192 734 M 194 734 L S
194 734 M 196 733 L S
196 733 M 198 733 L S
198 733 M 199 733 L S
199 733 M 201 733 L S
201 733 M 203 732 L S
203 732 M 204 732 L S
204 732 M 206 732 L S
206 732 M 208 732 L S
208 732 M 210 731 L S
210 731 M 211 731 L S
211 731 M 213 731 L S
213 731 M 215 731 L S
215 731 M 217 730 L S
217 730 M 218 730 L S
218 730 M 220 730 L S
220 730 M 222 729 L S
222 729 M 223 729 L S
223 729 M 225 729 L S
225 729 M 227 728 L S
227 728 M 229 728 L S
229 728 M 230 728 L S
230 728 M 232 727 L S
232 727 M 234 727 L S
234 727 M 236 727 L S
236 727 M 237 726 L S
237 726 M 239 726 L S
239 726 M 241 726 L S
241 726 M 242 725 L S
242 725 M 244 725 L S
244 725 M 246 725 L S
246 725 M 248 724 L S
248 724 M 249 724 L S
249 724 M 251 724 L S
251 724 M 253 723 L S
253 723 M 255 723 L S
255 723 M 256 722 L S
256 722 M 258 722 L S
258 722 M 260 722 L S
260 722 M 261 721 L S
261 721 M 263 721 L S
263 721 M 265 720 L S
265 720 M 267 720 L S
267 720 M 268 720 L S
268 720 M 270 719 L S
270 719 M 272 719 L S
272 719 M 273 718 L S
273 718 M 275 718 L S
275 718 M 277 717 L S
277 717 M 279 717 L S
279 717 M 280 716 L S
280 716 M 282 716 L S
282 716 M 284 716 L S
284 716 M 285 715 L S
285 715 M 287 715 L S
287 715 M 289 714 L S
289 714 M 291 714 L S
291 714 M 292 713 L S
292 713 M 294 713 L S
294 713 M 296 712 L S
296 712 M 297 712 L S
297 712 M 299 711 L S
299 711 M 301 711 L S
301 711 M 302 710 L S
302 710 M 304 710 L S
304 710 M 306 709 L S
306 709 M 308 709 L S
308 709 M 309 708 L S
309 708 M 311 708 L S
311 708 M 313 707 L S
313 707 M 314 707 L S
314 707 M 316 706 L S
316 706 M 318 705 L S
318 705 M 319 705 L S
319 705 M 321 704 L S
321 704 M 323 704 L S
323 704 M 325 703 L S
325 703 M 326 703 L S
326 703 M 328 702 L S
328 702 M 330 702 L S
330 702 M 331 701 L S
331 701 M 333 700 L S
333 700 M 335 700 L S
335 700 M 336 699 L S
336 699 M 338 699 L S
338 699 M 340 698 L S
340 698 M 342 697 L S
342 697 M 343 697 L S
343 697 M 345 696 L S
345 696 M 347 696 L S
347 696 M 348 695 L S
348 695 M 350 694 L S
350 694 M 352 694 L S
352 694 M 353 693 L S
353 693 M 355 692 L S
355 692 M 357 692 L S
357 692 M 358 691 L S
358 691 M 360 691 L S
360 691 M 362 690 L S
362 690 M 363 689 L S
363 689 M 365 689 L S
365 689 M 367 688 L S
367 688 M 368 687 L S
368 687 M 370 687 L S
370 687 M 372 686 L S
372 686 M 374 685 L S
374 685 M 375 685 L S
375 685 M 377 684 L S
377 684 M 379 683 L S
379 683 M 380 682 L S
380 682 M 382 682 L S
382 682 M 384 681 L S
384 681 M 385 680 L S
385 680 M 387 680 L S
387 680 M 389 679 L S
389 679 M 390 678 L S
390 678 M 392 678 L S
392 678 M 394 677 L S
394 677 M 395 676 L S
395 676 M 397 675 L S
397 675 M 399 675 L S
399 675 M 400 674 L S
400 674 M 402 673 L S
402 673 M 404 672 L S
404 672 M 405 672 L S
405 672 M 407 671 L S
407 671 M 409 670 L S
409 670 M 410 669 L S
410 669 M 412 669 L S
412 669 M 414 668 L S
414 668 M 415 667 L S
415 667 M 417 666 L S
417 666 M 418 665 L S
418 665 M 420 665 L S
420 665 M 422 664 L S
422 664 M 423 663 L S
423 663 M 425 662 L S
425 662 M 427 661 L S
427 661 M 428 661 L S
428 661 M 430 660 L S
430 660 M 432 659 L S
432 659 M 433 658 L S
433 658 M 435 657 L S
435 657 M 437 657 L S
437 657 M 438 656 L S
438 656 M 440 655 L S
440 655 M 442 654 L S
442 654 M 443 653 L S
443 653 M 445 652 L S
445 652 M 447 652 L S
447 652 M 448 651 L S
448 651 M 450 650 L S
450 650 M 451 649 L S
451 649 M 453 648 L S
453 648 M 455 647 L S
455 647 M 456 646 L S
456 646 M 458 646 L S
458 646 M 460 645 L S
460 645 M 461 644 L S
461 644 M 463 643 L S
463 643 M 464 642 L S
464 642 M 466 641 L S
466 641 M 468 640 L S
468 640 M 469 639 L S
469 639 M 471 638 L S
471 638 M 473 638 L S
473 638 M 474 637 L S
474 637 M 476 636 L S
476 636 M 478 635 L S
478 635 M 479 634 L S
479 634 M 481 633 L S
481 633 M 482 632 L S
482 632 M 484 631 L S
484 631 M 486 630 L S
486 630 M 487 629 L S
487 629 M 489 628 L S
489 628 M 490 627 L S
490 627 M 492 626 L S
492 626 M 494 625 L S
494 625 M 495 625 L S
495 625 M 497 624 L S
497 624 M 499 623 L S
499 623 M 500 622 L S
500 622 M 502 621 L S
502 621 M 503 620 L S
503 620 M 505 619 L S
505 619 M 507 618 L S
507 618 M 508 617 L S
508 617 M 510 616 L S
510 616 M 511 615 L S
511 615 M 513 614 L S
513 614 M 515 613 L S
515 613 M 516 612 L S
516 612 M 518 611 L S
518 611 M 519 610 L S
519 610 M 521 609 L S
521 609 M 523 608 L S
523 608 M 524 607 L S
524 607 M 526 606 L S
526 606 M 527 605 L S
527 605 M 529 604 L S
529 604 M 531 603 L S
531 603 M 532 602 L S
532 602 M 534 601 L S
534 601 M 535 600 L S
535 600 M 537 599 L S
537 599 M 538 598 L S
538 598 M 540 596 L S
540 596 M 542 595 L S
542 595 M 543 594 L S
543 594 M 545 593 L S
545 593 M 546 592 L S
546 592 M 548 591 L S
548 591 M 550 590 L S
550 590 M 551 589 L S
551 589 M 553 588 L S
553 588 M 554 587 L S
554 587 M 556 586 L S
556 586 M 557 585 L S
557 585 M 559 584 L S
559 584 M 561 583 L S
561 583 M 562 581 L S
562 581 M 564 580 L S
564 580 M 565 579 L S
565 579 M 567 578 L S
567 578 M 568 577 L S
568 577 M 570 576 L S
570 576 M 572 575 L S
572 575 M 573 574 L S
573 574 M 575 573 L S
575 573 M 576 571 L S
576 571 M 578 570 L S
578 570 M 579 569 L S
579 569 M 581 568 L S
581 568 M 582 567 L S
582 567 M 584 566 L S
584 566 M 586 565 L S
586 565 M 587 564 L S
587 564 M 589 562 L S
589 562 M 590 561 L S
590 561 M 592 560 L S
592 560 M 593 559 L S
593 559 M 595 558 L S
595 558 M 596 557 L S
596 557 M 598 555 L S
598 555 M 600 554 L S
600 554 M 601 553 L S
601 553 M 603 552 L S
603 552 M 604 551 L S
604 551 M 606 550 L S
606 550 M 607 548 L S
607 548 M 609 547 L S
609 547 M 610 546 L S
610 546 M 612 545 L S
612 545 M 613 544 L S
613 544 M 615 542 L S
615 542 M 616 541 L S
616 541 M 618 540 L S
618 540 M 620 539 L S
620 539 M 621 538 L S
621 538 M 623 536 L S
623 536 M 624 535 L S
624 535 M 626 534 L S
626 534 M 627 533 L S
627 533 M 629 532 L S
629 532 M 630 530 L S
630 530 M 632 529 L S
632 529 M 633 528 L S
633 528 M 635 527 L S
635 527 M 636 525 L S
636 525 M 638 524 L S
638 524 M 639 523 L S
639 523 M 641 522 L S
641 522 M 642 520 L S
642 520 M 644 519 L S
644 519 M 645 518 L S
645 518 M 647 517 L S
647 517 M 648 515 L S
648 515 M 650 514 L S
650 514 M 651 513 L S
651 513 M 653 512 L S
653 512 M 654 510 L S
654 510 M 656 509 L S
656 509 M 657 508 L S
657 508 M 659 506 L S
659 506 M 660 505 L S
660 505 M 662 504 L S
662 504 M 663 503 L S
663 503 M 665 501 L S
665 501 M 666 500 L S
666 500 M 668 499 L S
668 499 M 669 497 L S
669 497 M 671 496 L S
671 496 M 672 495 L S
672 495 M 674 493 L S
674 493 M 675 492 L S
675 492 M 677 491 L S
677 491 M 678 490 L S
678 490 M 680 488 L S
680 488 M 681 487 L S
681 487 M 683 486 L S
683 486 M 684 484 L S
684 484 M 686 483 L S
686 483 M 687 482 L S
687 482 M 689 480 L S
689 480 M 690 479 L S
690 479 M 692 478 L S
692 478 M 693 476 L S
693 476 M 695 475 L S
695 475 M 696 474 L S
696 474 M 698 472 L S
698 472 M 699 471 L S
699 471 M 701 470 L S
701 470 M 702 468 L S
702 468 M 704 467 L S
704 467 M 705 465 L S
705 465 M 707 464 L S
707 464 M 708 463 L S
708 463 M 709 461 L S
709 461 M 711 460 L S
711 460 M 712 459 L S
712 459 M 714 457 L S
714 457 M 715 456 L S
715 456 M 717 454 L S
717 454 M 718 453 L S
718 453 M 720 452 L S
720 452 M 721 450 L S
721 450 M 723 449 L S
723 449 M 724 447 L S
724 447 M 725 446 L S
725 446 M 727 445 L S
727 445 M 728 443 L S
728 443 M 730 442 L S
730 442 M 731 440 L S
731 440 M 733 439 L S
733 439 M 734 438 L S
734 438 M 736 436 L S
736 436 M 737 435 L S
737 435 M 739 433 L S
739 433 M 740 432 L S
740 432 M 741 431 L S
741 431 M 743 429 L S
743 429 M 744 428 L S
744 428 M 746 426 L S
746 426 M 747 425 L S
747 425 M 749 423 L S
749 423 M 750 422 L S
750 422 M 751 420 L S
751 420 M 753 419 L S
753 419 M 754 418 L S
754 418 M 756 416 L S
756 416 M 757 415 L S
757 415 M 759 413 L S
759 413 M 760 412 L S
760 412 M 761 410 L S
761 410 M 763 409 L S
763 409 M 764 407 L S
764 407 M 766 406 L S
766 406 M 767 404 L S
767 404 M 769 403 L S
769 403 M 770 402 L S
770 402 M 771 400 L S
771 400 M 773 399 L S
773 399 M 774 397 L S
774 397 M 776 396 L S
776 396 M 777 394 L S
777 394 M 778 393 L S
778 393 M 780 391 L S
780 391 M 781 390 L S
781 390 M 783 388 L S
783 388 M 784 387 L S
784 387 M 786 385 L S
786 385 M 787 384 L S
787 384 M 788 382 L S
788 382 M 790 381 L S
790 381 M 791 379 L S
791 379 M 793 378 L S
793 378 M 794 376 L S
794 376 M 795 375 L S
795 375 M 797 373 L S
797 373 M 798 372 L S
798 372 M 800 370 L S
800 370 M 801 369 L S
801 369 M 802 367 L S
802 367 M 804 366 L S
804 366 M 805 364 L S
805 364 M 806 363 L S
806 363 M 808 361 L S
808 361 M 809 359 L S
809 359 M 811 358 L S
811 358 M 812 356 L S
812 356 M 813 355 L S
813 355 M 815 353 L S
815 353 M 816 352 L S
816 352 M 818 350 L S
818 350 M 819 349 L S
819 349 M 820 347 L S
820 347 M 822 346 L S
822 346 M 823 344 L S
823 344 M 824 342 L S
824 342 M 826 341 L S
826 341 M 827 339 L S
827 339 M 829 338 L S
829 338 M 830 336 L S
830 336 M 831 335 L S
831 335 M 833 333 L S
833 333 M 834 331 L S
834 331 M 835 330 L S
835 330 M 837 328 L S
837 328 M 838 327 L S
838 327 M 840 325 L S
840 325 M 841 324 L S
841 324 M 842 322 L S
842 322 M 844 320 L S
844 320 M 845 319 L S
845 319 M 846 317 L S
846 317 M 848 316 L S
848 316 M 849 314 L S
849 314 M 850 312 L S
850 312 M 852 311 L S
852 311 M 853 309 L S
853 309 M 854 308 L S
854 308 M 856 306 L S
856 306 M 857 304 L S
857 304 M 859 303 L S
859 303 M 860 301 L S
860 301 M 861 300 L S
861 300 M 863 298 L S
863 298 M 864 296 L S
864 296 M 865 295 L S
865 295 M 867 293 L S
867 293 M 868 292 L S
868 292 M 869 290 L S
869 290 M 871 288 L S
871 288 M 872 287 L S
872 287 M 873 285 L S
873 285 M 875 283 L S
875 283 M 876 282 L S
876 282 M 877 280 L S
877 280 M 879 279 L S
879 279 M 880 277 L S
880 277 M 881 275 L S
881 275 M 883 274 L S
883 274 M 884 272 L S
884 272 M 885 270 L S
885 270 M 887 269 L S
887 269 M 888 267 L S
888 267 M 889 265 L S
889 265 M 891 264 L S
891 264 M 892 262 L S
892 262 M 893 260 L S
893 260 M 895 259 L S
895 259 M 896 257 L S
896 257 M 897 255 L S
897 255 M 898 254 L S
898 254 M 900 252 L S
900 252 M 901 250 L S
901 250 M 902 249 L S
902 249 M 904 247 L S
904 247 M 905 245 L S
905 245 M 906 244 L S
906 244 M 908 242 L S
908 242 M 909 240 L S
909 240 M 910 239 L S
910 239 M 912 237 L S
912 237 M 913 235 L S
913 235 M 914 234 L S
914 234 M 916 232 L S
916 232 M 917 230 L S
917 230 M 918 229 L S
918 229 M 919 227 L S
919 227 M 921 225 L S
921 225 M 922 224 L S
922 224 M 923 222 L S
923 222 M 925 220 L S
925 220 M 926 219 L S
926 219 M 927 217 L S
927 217 M 928 215 L S
928 215 M 930 213 L S
930 213 M 931 212 L S
931 212 M 932 210 L S
932 210 M 934 208 L S
934 208 M 935 207 L S
935 207 M 936 205 L S
936 205 M 937 203 L S
937 203 M 939 201 L S
939 201 M 940 200 L S
940 200 M 941 198 L S
941 198 M 943 196 L S
943 196 M 944 195 L S
944 195 M 945 193 L S
945 193 M 946 191 L S
946 191 M 948 189 L S
948 189 M 949 188 L S
949 188 M 950 186 L S
950 186 M 952 184 L S
952 184 M 953 182 L S
953 182 M 954 181 L S
954 181 M 955 179 L S
955 179 M 957 177 L S
957 177 M 958 175 L S
958 175 M 959 174 L S
959 174 M 960 172 L S
960 172 M 962 170 L S
962 170 M 963 169 L S
963 169 M 964 167 L S
964 167 M 966 165 L S
966 165 M 967 163 L S
967 163 M 968 162 L S
968 162 M 969 160 L S
969 160 M 971 158 L S
971 158 M 972 156 L S
972 156 M 972 156 L S
102 740 M 102 740 L S
102 740 M 102 740 L S
102 740 M 104 740 L S
104 740 M 105 740 L S
105 740 M 107 740 L S
107 740 M 109 740 L S
109 740 M 111 740 L S
111 740 M 112 740 L S
112 740 M 114 740 L S
114 740 M 116 740 L S
116 740 M 118 740 L S
118 740 M 119 740 L S
119 740 M 121 740 L S
121 740 M 123 740 L S
123 740 M 125 740 L S
125 740 M 126 740 L S
126 740 M 128 739 L S
128 739 M 130 739 L S
130 739 M 132 739 L S
132 739 M 133 739 L S
133 739 M 135 739 L S
135 739 M 137 739 L S
137 739 M 139 739 L S
139 739 M 140 739 L S
140 739 M 142 739 L S
142 739 M 144 739 L S
144 739 M 145 739 L S
145 739 M 147 738 L S
147 738 M 149 738 L S
149 738 M 151 738 L S
151 738 M 152 738 L S
152 738 M 154 738 L S
154 738 M 156 738 L S
156 738 M 158 738 L S
158 738 M 159 738 L S
159 738 M 161 737 L S
161 737 M 163 737 L S
163 737 M 165 737 L S
165 737 M 166 737 L S
166 737 M 168 737 L S
168 737 M 170 737 L S
170 737 M 172 736 L S
172 736 M 173 736 L S
173 736 M 175 736 L S
175 736 M 177 736 L S
177 736 M 178 736 L S
178 736 M 180 735 L S
180 735 M 182 735 L S
182 735 M 184 735 L S
184 735 M 185 735 L S
185 735 M 187 735 L S
187 735 M 189 734 L S
189 734 M 191 734 L S
191 734 M 192 734 L S
192 734 M 194 734 L S
194 734 M 196 733 L S
196 733 M 198 733 L S
198 733 M 199 733 L S
199 733 M 201 733 L S
201 733 M 203 732 L S
203 732 M 204 732 L S
204 732 M 206 732 L S
206 732 M 208 732 L S
208 732 M 210 731 L S
210 731 M 211 731 L S
211 731 M 213 731 L S
213 731 M 215 731 L S
215 731 M 217 730 L S
217 730 M 218 730 L S
218 730 M 220 730 L S
220 730 M 222 729 L S
222 729 M 223 729 L S
223 729 M 225 729 L S
225 729 M 227 728 L S
227 728 M 229 728 L S
229 728 M 230 728 L S
230 728 M 232 727 L S
232 727 M 234 727 L S
234 727 M 236 727 L S
236 727 M 237 726 L S
237 726 M 239 726 L S
239 726 M 241 726 L S
241 726 M 242 725 L S
242 725 M 244 725 L S
244 725 M 246 725 L S
246 725 M 248 724 L S
248 724 M 249 724 L S
249 724 M 251 724 L S
251 724 M 253 723 L S
253 723 M 255 723 L S
255 723 M 256 722 L S
256 722 M 258 722 L S
258 722 M 260 722 L S
260 722 M 261 721 L S
261 721 M 263 721 L S
263 721 M 265 720 L S
265 720 M 267 720 L S
267 720 M 268 720 L S
268 720 M 270 719 L S
270 719 M 272 719 L S
272 719 M 273 718 L S
273 718 M 275 718 L S
275 718 M 277 717 L S
277 717 M 279 717 L S
279 717 M 280 716 L S
280 716 M 282 716 L S
282 716 M 284 716 L S
284 716 M 285 715 L S
285 715 M 287 715 L S
287 715 M 289 714 L S
289 714 M 291 714 L S
291 714 M 292 713 L S
292 713 M 294 713 L S
294 713 M 296 712 L S
296 712 M 297 712 L S
297 712 M 299 711 L S
299 711 M 301 711 L S
301 711 M 302 710 L S
302 710 M 304 710 L S
304 710 M 306 709 L S
306 709 M 308 709 L S
308 709 M 309 708 L S
309 708 M 311 708 L S
311 708 M 313 707 L S
313 707 M 314 707 L S
314 707 M 316 706 L S
316 706 M 318 705 L S
318 705 M 319 705 L S
319 705 M 321 704 L S
321 704 M 323 704 L S
323 704 M 325 703 L S
325 703 M 326 703 L S
326 703 M 328 702 L S
328 702 M 330 702 L S
330 702 M 331 701 L S
331 701 M 333 700 L S
333 700 M 335 700 L S
335 700 M 336 699 L S
336 699 M 338 699 L S
338 699 M 340 698 L S
340 698 M 342 697 L S
342 697 M 343 697 L S
343 697 M 345 696 L S
345 696 M 347 696 L S
347 696 M 348 695 L S
348 695 M 350 694 L S
350 694 M 352 694 L S
352 694 M 353 693 L S
353 693 M 355 692 L S
355 692 M 357 692 L S
357 692 M 358 691 L S
358 691 M 360 691 L S
360 691 M 362 690 L S
362 690 M 363 689 L S
363 689 M 365 689 L S
365 689 M 367 688 L S
367 688 M 368 687 L S
368 687 M 370 687 L S
370 687 M 372 686 L S
372 686 M 374 685 L S
374 685 M 375 685 L S
375 685 M 377 684 L S
377 684 M 379 683 L S
379 683 M 380 682 L S
380 682 M 382 682 L S
382 682 M 384 681 L S
384 681 M 385 680 L S
385 680 M 387 680 L S
387 680 M 389 679 L S
389 679 M 390 678 L S
390 678 M 392 678 L S
392 678 M 394 677 L S
394 677 M 395 676 L S
395 676 M 397 675 L S
397 675 M 399 675 L S
399 675 M 400 674 L S
400 674 M 402 673 L S
402 673 M 404 672 L S
404 672 M 405 672 L S
405 672 M 407 671 L S
407 671 M 409 670 L S
409 670 M 410 669 L S
410 669 M 412 669 L S
412 669 M 414 668 L S
414 668 M 415 667 L S
415 667 M 417 666 L S
417 666 M 418 665 L S
418 665 M 420 665 L S
420 665 M 422 664 L S
422 664 M 423 663 L S
423 663 M 425 662 L S
425 662 M 427 661 L S
427 661 M 428 661 L S
428 661 M 430 660 L S
430 660 M 432 659 L S
432 659 M 433 658 L S
433 658 M 435 657 L S
435 657 M 437 657 L S
437 657 M 438 656 L S
438 656 M 440 655 L S
440 655 M 442 654 L S
442 654 M 443 653 L S
443 653 M 445 652 L S
445 652 M 447 652 L S
447 652 M 448 651 L S
448 651 M 450 650 L S
450 650 M 451 649 L S
451 649 M 453 648 L S
453 648 M 455 647 L S
455 647 M 456 646 L S
456 646 M 458 646 L S
458 646 M 460 645 L S
460 645 M 461 644 L S
461 644 M 463 643 L S
463 643 M 464 642 L S
464 642 M 466 641 L S
466 641 M 468 640 L S
468 640 M 469 639 L S
469 639 M 471 638 L S
471 638 M 473 638 L S
473 638 M 474 637 L S
474 637 M 476 636 L S
476 636 M 478 635 L S
478 635 M 479 634 L S
479 634 M 481 633 L S
481 633 M 482 632 L S
482 632 M 484 631 L S
484 631 M 486 630 L S
486 630 M 487 629 L S
487 629 M 489 628 L S
489 628 M 490 627 L S
490 627 M 492 626 L S
492 626 M 494 625 L S
494 625 M 495 625 L S
495 625 M 497 624 L S
497 624 M 499 623 L S
499 623 M 500 622 L S
500 622 M 502 621 L S
502 621 M 503 620 L S
503 620 M 505 619 L S
505 619 M 507 618 L S
507 618 M 508 617 L S
508 617 M 510 616 L S
510 616 M 511 615 L S
511 615 M 513 614 L S
513 614 M 515 613 L S
515 613 M 516 612 L S
516 612 M 518 611 L S
518 611 M 519 610 L S
519 610 M 521 609 L S
521 609 M 523 608 L S
523 608 M 524 607 L S
524 607 M 526 606 L S
526 606 M 527 605 L S
527 605 M 529 604 L S
529 604 M 531 603 L S
531 603 M 532 602 L S
532 602 M 534 601 L S
534 601 M 535 600 L S
535 600 M 537 599 L S
537 599 M 538 598 L S
538 598 M 540 596 L S
540 596 M 542 595 L S
542 595 M 543 594 L S
543 594 M 545 593 L S
545 593 M 546 592 L S
546 592 M 548 591 L S
548 591 M 550 590 L S
550 590 M 551 589 L S
551 589 M 553 588 L S
553 588 M 554 587 L S
554 587 M 556 586 L S
556 586 M 557 585 L S
557 585 M 559 584 L S
559 584 M 561 583 L S
561 583 M 562 581 L S
562 581 M 564 580 L S
564 580 M 565 579 L S
565 579 M 567 578 L S
567 578 M 568 577 L S
568 577 M 570 576 L S
570 576 M 572 575 L S
572 575 M 573 574 L S
573 574 M 575 573 L S
575 573 M 576 571 L S
576 571 M 578 570 L S
578 570 M 579 569 L S
579 569 M 581 568 L S
581 568 M 582 567 L S
582 567 M 584 566 L S
584 566 M 586 565 L S
586 565 M 587 564 L S
587 564 M 589 562 L S
589 562 M 590 561 L S
590 561 M 592 560 L S
592 560 M 593 559 L S
593 559 M 595 558 L S
595 558 M 596 557 L S
596 557 M 598 555 L S
598 555 M 600 554 L S
600 554 M 601 553 L S
601 553 M 603 552 L S
603 552 M 604 551 L S
604 551 M 606 550 L S
606 550 M 607 548 L S
607 548 M 609 547 L S
609 547 M 610 546 L S
610 546 M 612 545 L S
612 545 M 613 544 L S
613 544 M 615 542 L S
615 542 M 616 541 L S
616 541 M 618 540 L S
618 540 M 620 539 L S
620 539 M 621 538 L S
621 538 M 623 536 L S
623 536 M 624 535 L S
624 535 M 626 534 L S
626 534 M 627 533 L S
627 533 M 629 532 L S
629 532 M 630 530 L S
630 530 M 632 529 L S
632 529 M 633 528 L S
633 528 M 635 527 L S
635 527 M 636 525 L S
636 525 M 638 524 L S
638 524 M 639 523 L S
639 523 M 641 522 L S
641 522 M 642 520 L S
642 520 M 644 519 L S
644 519 M 645 518 L S
645 518 M 647 517 L S
647 517 M 648 515 L S
648 515 M 650 514 L S
650 514 M 651 513 L S
651 513 M 653 512 L S
653 512 M 654 510 L S
654 510 M 656 509 L S
656 509 M 657 508 L S
657 508 M 659 506 L S
659 506 M 660 505 L S
660 505 M 662 504 L S
662 504 M 663 503 L S
663 503 M 665 501 L S
665 501 M 666 500 L S
666 500 M 668 499 L S
668 499 M 669 497 L S
669 497 M 671 496 L S
671 496 M 672 495 L S
672 495 M 674 493 L S
674 493 M 675 492 L S
675 492 M 677 491 L S
677 491 M 678 490 L S
678 490 M 680 488 L S
680 488 M 681 487 L S
681 487 M 683 486 L S
683 486 M 684 484 L S
684 484 M 686 483 L S
686 483 M 687 482 L S
687 482 M 689 480 L S
689 480 M 690 479 L S
690 479 M 692 478 L S
692 478 M 693 476 L S
693 476 M 695 475 L S
695 475 M 696 474 L S
696 474 M 698 472 L S
698 472 M 699 471 L S
699 471 M 701 470 L S
701 470 M 702 468 L S
702 468 M 704 467 L S
704 467 M 705 465 L S
705 465 M 707 464 L S
707 464 M 708 463 L S
708 463 M 709 461 L S
709 461 M 711 460 L S
711 460 M 712 459 L S
712 459 M 714 457 L S
714 457 M 715 456 L S
715 456 M 717 454 L S
717 454 M 718 453 L S
718 453 M 720 452 L S
720 452 M 721 450 L S
721 450 M 723 449 L S
723 449 M 724 447 L S
724 447 M 725 446 L S
725 446 M 727 445 L S
727 445 M 728 443 L S
728 443 M 730 442 L S
730 442 M 731 440 L S
731 440 M 733 439 L S
733 439 M 734 438 L S
734 438 M 736 436 L S
736 436 M 737 435 L S
737 435 M 739 433 L S
739 433 M 740 432 L S
740 432 M 741 431 L S
741 431 M 743 429 L S
743 429 M 744 428 L S
744 428 M 746 426 L S
746 426 M 747 425 L S
747 425 M 749 423 L S
749 423 M 750 422 L S
750 422 M 751 420 L S
751 420 M 753 419 L S
753 419 M 754 418 L S
754 418 M 756 416 L S
756 416 M 757 415 L S
757 415 M 759 413 L S
759 413 M 760 412 L S
760 412 M 761 410 L S
761 410 M 763 409 L S
763 409 M 764 407 L S
764 407 M 766 406 L S
766 406 M 767 404 L S
767 404 M 769 403 L S
769 403 M 770 402 L S
770 402 M 771 400 L S
771 400 M 773 399 L S
773 399 M 774 397 L S
774 397 M 776 396 L S
776 396 M 777 394 L S
777 394 M 778 393 L S
778 393 M 780 391 L S
780 391 M 781 390 L S
781 390 M 783 388 L S
783 388 M 784 387 L S
784 387 M 786 385 L S
786 385 M 787 384 L S
787 384 M 788 382 L S
788 382 M 790 381 L S
790 381 M 791 379 L S
791 379 M 793 378 L S
793 378 M 794 376 L S
794 376 M 795 375 L S
795 375 M 797 373 L S
797 373 M 798 372 L S
798 372 M 800 370 L S
800 370 M 801 369 L S
801 369 M 802 367 L S
802 367 M 804 366 L S
804 366 M 805 364 L S
805 364 M 806 363 L S
806 363 M 808 361 L S
808 361 M 809 359 L S
809 359 M 811 358 L S
811 358 M 812 356 L S
812 356 M 813 355 L S
813 355 M 815 353 L S
815 353 M 816 352 L S
816 352 M 818 350 L S
818 350 M 819 349 L S
819 349 M 820 347 L S
820 347 M 822 346 L S
822 346 M 823 344 L S
823 344 M 824 342 L S
824 342 M 826 341 L S
826 341 M 827 339 L S
827 339 M 829 338 L S
829 338 M 830 336 L S
830 336 M 831 335 L S
831 335 M 833 333 L S
833 333 M 834 331 L S
834 331 M 835 330 L S
835 330 M 837 328 L S
837 328 M 838 327 L S
838 327 M 840 325 L S
840 325 M 841 324 L S
841 324 M 842 322 L S
842 322 M 844 320 L S
844 320 M 845 319 L S
845 319 M 846 317 L S
846 317 M 848 316 L S
848 316 M 849 314 L S
849 314 M 850 312 L S
850 312 M 852 311 L S
852 311 M 853 309 L S
853 309 M 854 308 L S
854 308 M 856 306 L S
856 306 M 857 304 L S
857 304 M 859 303 L S
859 303 M 860 301 L S
860 301 M 861 300 L S
861 300 M 863 298 L S
863 298 M 864 296 L S
864 296 M 865 295 L S
865 295 M 867 293 L S
867 293 M 868 292 L S
868 292 M 869 290 L S
869 290 M 871 288 L S
871 288 M 872 287 L S
872 287 M 873 285 L S
873 285 M 875 283 L S
875 283 M 876 282 L S
876 282 M 877 280 L S
877 280 M 879 279 L S
879 279 M 880 277 L S
880 277 M 881 275 L S
881 275 M 883 274 L S
883 274 M 884 272 L S
884 272 M 885 270 L S
885 270 M 887 269 L S
887 269 M 888 267 L S
888 267 M 889 265 L S
889 265 M 891 264 L S
891 264 M 892 262 L S
892 262 M 893 260 L S
893 260 M 895 259 L S
895 259 M 896 257 L S
896 257 M 897 255 L S
897 255 M 898 254 L S
898 254 M 900 252 L S
900 252 M 901 250 L S
901 250 M 902 249 L S
902 249 M 904 247 L S
904 247 M 905 245 L S
905 245 M 906 244 L S
906 244 M 908 242 L S
908 242 M 909 240 L S
909 240 M 910 239 L S
910 239 M 912 237 L S
912 237 M 913 235 L S
913 235 M 914 234 L S
914 234 M 916 232 L S
916 232 M 917 230 L S
917 230 M 918 229 L S
918 229 M 919 227 L S
919 227 M 921 225 L S
921 225 M 922 224 L S
922 224 M 923 222 L S
923 222 M 925 220 L S
925 220 M 926 219 L S
926 219 M 927 217 L S
927 217 M 928 215 L S
928 215 M 930 213 L S
930 213 M 931 212 L S
931 212 M 932 210 L S
932 210 M 934 208 L S
934 208 M 935 207 L S
935 207 M 936 205 L S
936 205 M 937 203 L S
937 203 M 939 201 L S
939 201 M 940 200 L S
940 200 M 941 198 L S
941 198 M 943 196 L S
943 196 M 944 195 L S
944 195 M 945 193 L S
945 193 M 946 191 L S
946 191 M 948 189 L S
948 189 M 949 188 L S
949 188 M 950 186 L S
950 186 M 952 184 L S
952 184 M 953 182 L S
953 182 M 954 181 L S
954 181 M 955 179 L S
955 179 M 957 177 L S
957 177 M 958 175 L S
958 175 M 959 174 L S
959 174 M 960 172 L S
960 172 M 962 170 L S
962 170 M 963 169 L S
963 169 M 964 167 L S
964 167 M 966 165 L S
966 165 M 967 163 L S
967 163 M 968 162 L S
968 162 M 969 160 L S
969 160 M 971 158 L S
971 158 M 972 156 L S
972 156 M 972 156 L S
102 740 M 102 740 L S
102 740 M 102 740 L S
102 740 M 104 740 L S
104 740 M 105 740 L S
105 740 M 107 740 L S
107 740 M 109 740 L S
109 740 M 111 740 L S
111 740 M 112 740 L S
112 740 M 114 740 L S
114 740 M 116 740 L S
116 740 M 118 740 L S
118 740 M 119 740 L S
119 740 M 121 740 L S
121 740 M 123 740 L S
123 740 M 125 740 L S
125 740 M 126 740 L S
126 740 M 128 739 L S
128 739 M 130 739 L S
130 739 M 132 739 L S
132 739 M 133 739 L S
133 739 M 135 739 L S
135 739 M 137 739 L S
137 739 M 139 739 L S
139 739 M 140 739 L S
140 739 M 142 739 L S
142 739 M 144 739 L S
144 739 M 145 739 L S
145 739 M 147 738 L S
147 738 M 149 738 L S
149 738 M 151 738 L S
151 738 M 152 738 L S
152 738 M 154 738 L S
154 738 M 156 738 L S
156 738 M 158 738 L S
158 738 M 159 738 L S
159 738 M 161 737 L S
161 737 M 163 737 L S
163 737 M 165 737 L S
165 737 M 166 737 L S
166 737 M 168 737 L S
168 737 M 170 737 L S
170 737 M 172 736 L S
172 736 M 173 736 L S
173 736 M 175 736 L S
175 736 M 177 736 L S
177 736 M 178 736 L S
178 736 M 180 735 L S
180 735 M 182 735 L S
182 735 M 184 735 L S
184 735 M 185 735 L S
185 735 M 187 735 L S
187 735 M 189 734 L S
189 734 M 191 734 L S
191 734 M 192 734 L S
192 734 M 194 734 L S
194 734 M 196 733 L S
196 733 M 198 733 L S
198 733 M 199 733 L S
199 733 M 201 733 L S
201 733 M 203 732 L S
203 732 M 204 732 L S
204 732 M 206 732 L S
206 732 M 208 732 L S
208 732 M 210 731 L S
210 731 M 211 731 L S
211 731 M 213 731 L S
213 731 M 215 731 L S
215 731 M 217 730 L S
217 730 M 218 730 L S
218 730 M 220 730 L S
220 730 M 222 729 L S
222 729 M 223 729 L S
223 729 M 225 729 L S
225 729 M 227 728 L S
227 728 M 229 728 L S
229 728 M 230 728 L S
230 728 M 232 727 L S
232 727 M 234 727 L S
234 727 M 236 727 L S
236 727 M 237 726 L S
237 726 M 239 726 L S
239 726 M 241 726 L S
241 726 M 242 725 L S
242 725 M 244 725 L S
244 725 M 246 725 L S
246 725 M 248 724 L S
248 724 M 249 724 L S
249 724 M 251 724 L S
251 724 M 253 723 L S
253 723 M 255 723 L S
255 723 M 256 722 L S
256 722 M 258 722 L S
258 722 M 260 722 L S
260 722 M 261 721 L S
261 721 M 263 721 L S
263 721 M 265 720 L S
265 720 M 267 720 L S
267 720 M 268 720 L S
268 720 M 270 719 L S
270 719 M 272 719 L S
272 719 M 273 718 L S
273 718 M 275 718 L S
275 718 M 277 717 L S
277 717 M 279 717 L S
279 717 M 280 716 L S
280 716 M 282 716 L S
282 716 M 284 716 L S
284 716 M 285 715 L S
285 715 M 287 715 L S
287 715 M 289 714 L S
289 714 M 291 714 L S
291 714 M 292 713 L S
292 713 M 294 713 L S
294 713 M 296 712 L S
296 712 M 297 712 L S
297 712 M 299 711 L S
299 711 M 301 711 L S
301 711 M 302 710 L S
302 710 M 304 710 L S
304 710 M 306 709 L S
306 709 M 308 709 L S
308 709 M 309 708 L S
309 708 M 311 708 L S
311 708 M 313 707 L S
313 707 M 314 707 L S
314 707 M 316 706 L S
316 706 M 318 705 L S
318 705 M 319 705 L S
319 705 M 321 704 L S
321 704 M 323 704 L S
323 704 M 325 703 L S
325 703 M 326 703 L S
326 703 M 328 702 L S
328 702 M 330 702 L S
330 702 M 331 701 L S
331 701 M 333 700 L S
333 700 M 335 700 L S
335 700 M 336 699 L S
336 699 M 338 699 L S
338 699 M 340 698 L S
340 698 M 342 697 L S
342 697 M 343 697 L S
343 697 M 345 696 L S
345 696 M 347 696 L S
347 696 M 348 695 L S
348 695 M 350 694 L S
350 694 M 352 694 L S
352 694 M 353 693 L S
353 693 M 355 692 L S
355 692 M 357 692 L S
357 692 M 358 691 L S
358 691 M 360 691 L S
360 691 M 362 690 L S
362 690 M 363 689 L S
363 689 M 365 689 L S
365 689 M 367 688 L S
367 688 M 368 687 L S
368 687 M 370 687 L S
370 687 M 372 686 L S
372 686 M 374 685 L S
374 685 M 375 685 L S
375 685 M 377 684 L S
377 684 M 379 683 L S
379 683 M 380 682 L S
380 682 M 382 682 L S
382 682 M 384 681 L S
384 681 M 385 680 L S
385 680 M 387 680 L S
387 680 M 389 679 L S
389 679 M 390 678 L S
390 678 M 392 678 L S
392 678 M 394 677 L S
394 677 M 395 676 L S
395 676 M 397 675 L S
397 675 M 399 675 L S
399 675 M 400 674 L S
400 674 M 402 673 L S
402 673 M 404 672 L S
404 672 M 405 672 L S
405 672 M 407 671 L S
407 671 M 409 670 L S
409 670 M 410 669 L S
410 669 M 412 669 L S
412 669 M 414 668 L S
414 668 M 415 667 L S
415 667 M 417 666 L S
417 666 M 418 665 L S
418 665 M 420 665 L S
420 665 M 422 664 L S
422 664 M 423 663 L S
423 663 M 425 662 L S
425 662 M 427 661 L S
427 661 M 428 661 L S
428 661 M 430 660 L S
430 660 M 432 659 L S
432 659 M 433 658 L S
433 658 M 435 657 L S
435 657 M 437 657 L S
437 657 M 438 656 L S
438 656 M 440 655 L S
440 655 M 442 654 L S
442 654 M 443 653 L S
443 653 M 445 652 L S
445 652 M 447 652 L S
447 652 M 448 651 L S
448 651 M 450 650 L S
450 650 M 451 649 L S
451 649 M 453 648 L S
453 648 M 455 647 L S
455 647 M 456 646 L S
456 646 M 458 646 L S
458 646 M 460 645 L S
460 645 M 461 644 L S
461 644 M 463 643 L S
463 643 M 464 642 L S
464 642 M 466 641 L S
466 641 M 468 640 L S
468 640 M 469 639 L S
469 639 M 471 638 L S
471 638 M 473 638 L S
473 638 M 474 637 L S
474 637 M 476 636 L S
476 636 M 478 635 L S
478 635 M 479 634 L S
479 634 M 481 633 L S
481 633 M 482 632 L S
482 632 M 484 631 L S
484 631 M 486 630 L S
486 630 M 487 629 L S
487 629 M 489 628 L S
489 628 M 490 627 L S
490 627 M 492 626 L S
492 626 M 494 625 L S
494 625 M 495 625 L S
495 625 M 497 624 L S
497 624 M 499 623 L S
499 623 M 500 622 L S
500 622 M 502 621 L S
502 621 M 503 620 L S
503 620 M 505 619 L S
505 619 M 507 618 L S
507 618 M 508 617 L S
508 617 M 510 616 L S
510 616 M 511 615 L S
511 615 M 513 614 L S
513 614 M 515 613 L S
515 613 M 516 612 L S
516 612 M 518 611 L S
518 611 M 519 610 L S
519 610 M 521 609 L S
521 609 M 523 608 L S
523 608 M 524 607 L S
524 607 M 526 606 L S
526 606 M 527 605 L S
527 605 M 529 604 L S
529 604 M 531 603 L S
531 603 M 532 602 L S
532 602 M 534 601 L S
534 601 M 535 600 L S
535 600 M 537 599 L S
537 599 M 538 598 L S
538 598 M 540 596 L S
540 596 M 542 595 L S
542 595 M 543 594 L S
543 594 M 545 593 L S
545 593 M 546 592 L S
546 592 M 548 591 L S
548 591 M 550 590 L S
550 590 M 551 589 L S
551 589 M 553 588 L S
553 588 M 554 587 L S
554 587 M 556 586 L S
556 586 M 557 585 L S
557 585 M 559 584 L S
559 584 M 561 583 L S
561 583 M 562 581 L S
562 581 M 564 580 L S
564 580 M 565 579 L S
565 579 M 567 578 L S
567 578 M 568 577 L S
568 577 M 570 576 L S
570 576 M 572 575 L S
572 575 M 573 574 L S
573 574 M 575 573 L S
575 573 M 576 571 L S
576 571 M 578 570 L S
578 570 M 579 569 L S
579 569 M 581 568 L S
581 568 M 582 567 L S
582 567 M 584 566 L S
584 566 M 586 565 L S
586 565 M 587 564 L S
587 564 M 589 562 L S
589 562 M 590 561 L S
590 561 M 592 560 L S
592 560 M 593 559 L S
593 559 M 595 558 L S
595 558 M 596 557 L S
596 557 M 598 555 L S
598 555 M 600 554 L S
600 554 M 601 553 L S
601 553 M 603 552 L S
603 552 M 604 551 L S
604 551 M 606 550 L S
606 550 M 607 548 L S
607 548 M 609 547 L S
609 547 M 610 546 L S
610 546 M 612 545 L S
612 545 M 613 544 L S
613 544 M 615 542 L S
615 542 M 616 541 L S
616 541 M 618 540 L S
618 540 M 620 539 L S
620 539 M 621 538 L S
621 538 M 623 536 L S
623 536 M 624 535 L S
624 535 M 626 534 L S
626 534 M 627 533 L S
627 533 M 629 532 L S
629 532 M 630 530 L S
630 530 M 632 529 L S
632 529 M 633 528 L S
633 528 M 635 527 L S
635 527 M 636 525 L S
636 525 M 638 524 L S
638 524 M 639 523 L S
639 523 M 641 522 L S
641 522 M 642 520 L S
642 520 M 644 519 L S
644 519 M 645 518 L S
645 518 M 647 517 L S
647 517 M 648 515 L S
648 515 M 650 514 L S
650 514 M 651 513 L S
651 513 M 653 512 L S
653 512 M 654 510 L S
654 510 M 656 509 L S
656 509 M 657 508 L S
657 508 M 659 506 L S
659 506 M 660 505 L S
660 505 M 662 504 L S
662 504 M 663 503 L S
663 503 M 665 501 L S
665 501 M 666 500 L S
666 500 M 668 499 L S
668 499 M 669 497 L S
669 497 M 671 496 L S
671 496 M 672 495 L S
672 495 M 674 493 L S
674 493 M 675 492 L S
675 492 M 677 491 L S
677 491 M 678 490 L S
678 490 M 680 488 L S
680 488 M 681 487 L S
681 487 M 683 486 L S
683 486 M 684 484 L S
684 484 M 686 483 L S
686 483 M 687 482 L S
687 482 M 689 480 L S
689 480 M 690 479 L S
690 479 M 692 478 L S
692 478 M 693 476 L S
693 476 M 695 475 L S
695 475 M 696 474 L S
696 474 M 698 472 L S
698 472 M 699 471 L S
699 471 M 701 470 L S
701 470 M 702 468 L S
702 468 M 704 467 L S
704 467 M 705 465 L S
705 465 M 707 464 L S
707 464 M 708 463 L S
708 463 M 709 461 L S
709 461 M 711 460 L S
711 460 M 712 459 L S
712 459 M 714 457 L S
714 457 M 715 456 L S
715 456 M 717 454 L S
717 454 M 718 453 L S
718 453 M 720 452 L S
720 452 M 721 450 L S
721 450 M 723 449 L S
723 449 M 724 447 L S
724 447 M 725 446 L S
725 446 M 727 445 L S
727 445 M 728 443 L S
728 443 M 730 442 L S
730 442 M 731 440 L S
731 440 M 733 439 L S
733 439 M 734 438 L S
734 438 M 736 436 L S
736 436 M 737 435 L S
737 435 M 739 433 L S
739 433 M 740 432 L S
740 432 M 741 431 L S
741 431 M 743 429 L S
743 429 M 744 428 L S
744 428 M 746 426 L S
746 426 M 747 425 L S
747 425 M 749 423 L S
749 423 M 750 422 L S
750 422 M 751 420 L S
751 420 M 753 419 L S
753 419 M 754 418 L S
754 418 M 756 416 L S
756 416 M 757 415 L S
757 415 M 759 413 L S
759 413 M 760 412 L S
760 412 M 761 410 L S
761 410 M 763 409 L S
763 409 M 764 407 L S
764 407 M 766 406 L S
766 406 M 767 404 L S
767 404 M 769 403 L S
769 403 M 770 402 L S
770 402 M 771 400 L S
771 400 M 773 399 L S
773 399 M 774 397 L S
774 397 M 776 396 L S
776 396 M 777 394 L S
777 394 M 778 393 L S
778 393 M 780 391 L S
780 391 M 781 390 L S
781 390 M 783 388 L S
783 388 M 784 387 L S
784 387 M 786 385 L S
786 385 M 787 384 L S
787 384 M 788 382 L S
788 382 M 790 381 L S
790 381 M 791 379 L S
791 379 M 793 378 L S
793 378 M 794 376 L S
794 376 M 795 375 L S
795 375 M 797 373 L S
797 373 M 798 372 L S
798 372 M 800 370 L S
800 370 M 801 369 L S
801 369 M 802 367 L S
802 367 M 804 366 L S
804 366 M 805 364 L S
805 364 M 806 363 L S
806 363 M 808 361 L S
808 361 M 809 359 L S
809 359 M 811 358 L S
811 358 M 812 356 L S
812 356 M 813 355 L S
813 355 M 815 353 L S
815 353 M 816 352 L S
816 352 M 818 350 L S
818 350 M 819 349 L S
819 349 M 820 347 L S
820 347 M 822 346 L S
822 346 M 823 344 L S
823 344 M 824 342 L S
824 342 M 826 341 L S
826 341 M 827 339 L S
827 339 M 829 338 L S
829 338 M 830 336 L S
830 336 M 831 335 L S
831 335 M 833 333 L S
833 333 M 834 331 L S
834 331 M 835 330 L S
835 330 M 837 328 L S
837 328 M 838 327 L S
838 327 M 840 325 L S
840 325 M 841 324 L S
841 324 M 842 322 L S
842 322 M 844 320 L S
844 320 M 845 319 L S
845 319 M 846 317 L S
846 317 M 848 316 L S
848 316 M 849 314 L S
849 314 M 850 312 L S
850 312 M 852 311 L S
852 311 M 853 309 L S
853 309 M 854 308 L S
854 308 M 856 306 L S
856 306 M 857 304 L S
857 304 M 859 303 L S
859 303 M 860 301 L S
860 301 M 861 300 L S
861 300 M 863 298 L S
863 298 M 864 296 L S
864 296 M 865 295 L S
865 295 M 867 293 L S
867 293 M 868 292 L S
868 292 M 869 290 L S
869 290 M 871 288 L S
871 288 M 872 287 L S
872 287 M 873 285 L S
873 285 M 875 283 L S
875 283 M 876 282 L S
876 282 M 877 280 L S
877 280 M 879 279 L S
879 279 M 880 277 L S
880 277 M 881 275 L S
881 275 M 883 274 L S
883 274 M 884 272 L S
884 272 M 885 270 L S
885 270 M 887 269 L S
887 269 M 888 267 L S
888 267 M 889 265 L S
889 265 M 891 264 L S
891 264 M 892 262 L S
892 262 M 893 260 L S
893 260 M 895 259 L S
895 259 M 896 257 L S
896 257 M 897 255 L S
897 255 M 898 254 L S
898 254 M 900 252 L S
900 252 M 901 250 L S
901 250 M 902 249 L S
902 249 M 904 247 L S
904 247 M 905 245 L S
905 245 M 906 244 L S
906 244 M 908 242 L S
908 242 M 909 240 L S
909 240 M 910 239 L S
910 239 M 912 237 L S
912 237 M 913 235 L S
913 235 M 914 234 L S
914 234 M 916 232 L S
916 232 M 917 230 L S
917 230 M 918 229 L S
918 229 M 919 227 L S
919 227 M 921 225 L S
921 225 M 922 224 L S
922 224 M 923 222 L S
923 222 M 925 220 L S
925 220 M 926 219 L S
926 219 M 927 217 L S
927 217 M 928 215 L S
928 215 M 930 213 L S
930 213 M 931 212 L S
931 212 M 932 210 L S
932 210 M 934 208 L S
934 208 M 935 207 L S
935 207 M 936 205 L S
936 205 M 937 203 L S
937 203 M 939 201 L S
939 201 M 940 200 L S
940 200 M 941 198 L S
941 198 M 943 196 L S
943 196 M 944 195 L S
944 195 M 945 193 L S
945 193 M 946 191 L S
946 191 M 948 189 L S
948 189 M 949 188 L S
949 188 M 950 186 L S
950 186 M 952 184 L S
952 184 M 953 182 L S
953 182 M 954 181 L S
954 181 M 955 179 L S
955 179 M 957 177 L S
957 177 M 958 175 L S
958 175 M 959 174 L S
959 174 M 960 172 L S
960 172 M 962 170 L S
962 170 M 963 169 L S
963 169 M 964 167 L S
964 167 M 966 165 L S
966 165 M 967 163 L S
967 163 M 968 162 L S
968 162 M 969 160 L S
969 160 M 971 158 L S
971 158 M 972 156 L S
972 156 M 972 156 L S
972 156 M 972 156 L S
/Courier-Bold findfont 27 scalefont setfont
101 764 M (Zgoubi|Zpop                                                                     ) H
101 743 M (06-09-2019                                                                      ) H
/Courier-Bold findfont 26 scalefont setfont
160 85 M (* # TRAJECTORIES - STORAGE FILE, 06-09-2019 10:04:19 *                                                                            ) H
293 755 M (   Y     (m)  vs.    X     (m)                                                                                                    ) H
26 42 M (Mi-ma H/V:    0.00      0.500    / -0.230       0.00                                                                              ) H
26 21 M (Part#  1- 10000 (*); Lmnt#     1; pass#       1-      1, [    1];   1698 pnts                                                     ) H
showpage
