%!PS-Adobe-2.0 EPSF-2.0
%%Title: gnuplot_scanStepSize.eps
%%Creator: gnuplot 5.2 patchlevel 2
%%CreationDate: Mon Sep  9 21:56:45 2019
%%DocumentFonts: (atend)
%%BoundingBox: 50 50 410 302
%%EndComments
%%BeginProlog
/gnudict 256 dict def
gnudict begin
%
% The following true/false flags may be edited by hand if desired.
% The unit line width and grayscale image gamma correction may also be changed.
%
/Color true def
/Blacktext true def
/Solid false def
/Dashlength 1 def
/Landscape false def
/Level1 false def
/Level3 false def
/Rounded false def
/ClipToBoundingBox false def
/SuppressPDFMark false def
/TransparentPatterns false def
/gnulinewidth 5.000 def
/userlinewidth gnulinewidth def
/Gamma 1.0 def
/BackgroundColor {-1.000 -1.000 -1.000} def
%
/vshift -46 def
/dl1 {
  10.0 Dashlength userlinewidth gnulinewidth div mul mul mul
  Rounded { currentlinewidth 0.75 mul sub dup 0 le { pop 0.01 } if } if
} def
/dl2 {
  10.0 Dashlength userlinewidth gnulinewidth div mul mul mul
  Rounded { currentlinewidth 0.75 mul add } if
} def
/hpt_ 31.5 def
/vpt_ 31.5 def
/hpt hpt_ def
/vpt vpt_ def
/doclip {
  ClipToBoundingBox {
    newpath 50 50 moveto 410 50 lineto 410 302 lineto 50 302 lineto closepath
    clip
  } if
} def
%
% Gnuplot Prolog Version 5.1 (Oct 2015)
%
%/SuppressPDFMark true def
%
/M {moveto} bind def
/L {lineto} bind def
/R {rmoveto} bind def
/V {rlineto} bind def
/N {newpath moveto} bind def
/Z {closepath} bind def
/C {setrgbcolor} bind def
/f {rlineto fill} bind def
/g {setgray} bind def
/Gshow {show} def   % May be redefined later in the file to support UTF-8
/vpt2 vpt 2 mul def
/hpt2 hpt 2 mul def
/Lshow {currentpoint stroke M 0 vshift R 
	Blacktext {gsave 0 setgray textshow grestore} {textshow} ifelse} def
/Rshow {currentpoint stroke M dup stringwidth pop neg vshift R
	Blacktext {gsave 0 setgray textshow grestore} {textshow} ifelse} def
/Cshow {currentpoint stroke M dup stringwidth pop -2 div vshift R 
	Blacktext {gsave 0 setgray textshow grestore} {textshow} ifelse} def
/UP {dup vpt_ mul /vpt exch def hpt_ mul /hpt exch def
  /hpt2 hpt 2 mul def /vpt2 vpt 2 mul def} def
/DL {Color {setrgbcolor Solid {pop []} if 0 setdash}
 {pop pop pop 0 setgray Solid {pop []} if 0 setdash} ifelse} def
/BL {stroke userlinewidth 2 mul setlinewidth
	Rounded {1 setlinejoin 1 setlinecap} if} def
/AL {stroke userlinewidth 2 div setlinewidth
	Rounded {1 setlinejoin 1 setlinecap} if} def
/UL {dup gnulinewidth mul /userlinewidth exch def
	dup 1 lt {pop 1} if 10 mul /udl exch def} def
/PL {stroke userlinewidth setlinewidth
	Rounded {1 setlinejoin 1 setlinecap} if} def
3.8 setmiterlimit
% Classic Line colors (version 5.0)
/LCw {1 1 1} def
/LCb {0 0 0} def
/LCa {0 0 0} def
/LC0 {1 0 0} def
/LC1 {0 1 0} def
/LC2 {0 0 1} def
/LC3 {1 0 1} def
/LC4 {0 1 1} def
/LC5 {1 1 0} def
/LC6 {0 0 0} def
/LC7 {1 0.3 0} def
/LC8 {0.5 0.5 0.5} def
% Default dash patterns (version 5.0)
/LTB {BL [] LCb DL} def
/LTw {PL [] 1 setgray} def
/LTb {PL [] LCb DL} def
/LTa {AL [1 udl mul 2 udl mul] 0 setdash LCa setrgbcolor} def
/LT0 {PL [] LC0 DL} def
/LT1 {PL [2 dl1 3 dl2] LC1 DL} def
/LT2 {PL [1 dl1 1.5 dl2] LC2 DL} def
/LT3 {PL [6 dl1 2 dl2 1 dl1 2 dl2] LC3 DL} def
/LT4 {PL [1 dl1 2 dl2 6 dl1 2 dl2 1 dl1 2 dl2] LC4 DL} def
/LT5 {PL [4 dl1 2 dl2] LC5 DL} def
/LT6 {PL [1.5 dl1 1.5 dl2 1.5 dl1 1.5 dl2 1.5 dl1 6 dl2] LC6 DL} def
/LT7 {PL [3 dl1 3 dl2 1 dl1 3 dl2] LC7 DL} def
/LT8 {PL [2 dl1 2 dl2 2 dl1 6 dl2] LC8 DL} def
/SL {[] 0 setdash} def
/Pnt {stroke [] 0 setdash gsave 1 setlinecap M 0 0 V stroke grestore} def
/Dia {stroke [] 0 setdash 2 copy vpt add M
  hpt neg vpt neg V hpt vpt neg V
  hpt vpt V hpt neg vpt V closepath stroke
  Pnt} def
/Pls {stroke [] 0 setdash vpt sub M 0 vpt2 V
  currentpoint stroke M
  hpt neg vpt neg R hpt2 0 V stroke
 } def
/Box {stroke [] 0 setdash 2 copy exch hpt sub exch vpt add M
  0 vpt2 neg V hpt2 0 V 0 vpt2 V
  hpt2 neg 0 V closepath stroke
  Pnt} def
/Crs {stroke [] 0 setdash exch hpt sub exch vpt add M
  hpt2 vpt2 neg V currentpoint stroke M
  hpt2 neg 0 R hpt2 vpt2 V stroke} def
/TriU {stroke [] 0 setdash 2 copy vpt 1.12 mul add M
  hpt neg vpt -1.62 mul V
  hpt 2 mul 0 V
  hpt neg vpt 1.62 mul V closepath stroke
  Pnt} def
/Star {2 copy Pls Crs} def
/BoxF {stroke [] 0 setdash exch hpt sub exch vpt add M
  0 vpt2 neg V hpt2 0 V 0 vpt2 V
  hpt2 neg 0 V closepath fill} def
/TriUF {stroke [] 0 setdash vpt 1.12 mul add M
  hpt neg vpt -1.62 mul V
  hpt 2 mul 0 V
  hpt neg vpt 1.62 mul V closepath fill} def
/TriD {stroke [] 0 setdash 2 copy vpt 1.12 mul sub M
  hpt neg vpt 1.62 mul V
  hpt 2 mul 0 V
  hpt neg vpt -1.62 mul V closepath stroke
  Pnt} def
/TriDF {stroke [] 0 setdash vpt 1.12 mul sub M
  hpt neg vpt 1.62 mul V
  hpt 2 mul 0 V
  hpt neg vpt -1.62 mul V closepath fill} def
/DiaF {stroke [] 0 setdash vpt add M
  hpt neg vpt neg V hpt vpt neg V
  hpt vpt V hpt neg vpt V closepath fill} def
/Pent {stroke [] 0 setdash 2 copy gsave
  translate 0 hpt M 4 {72 rotate 0 hpt L} repeat
  closepath stroke grestore Pnt} def
/PentF {stroke [] 0 setdash gsave
  translate 0 hpt M 4 {72 rotate 0 hpt L} repeat
  closepath fill grestore} def
/Circle {stroke [] 0 setdash 2 copy
  hpt 0 360 arc stroke Pnt} def
/CircleF {stroke [] 0 setdash hpt 0 360 arc fill} def
/C0 {BL [] 0 setdash 2 copy moveto vpt 90 450 arc} bind def
/C1 {BL [] 0 setdash 2 copy moveto
	2 copy vpt 0 90 arc closepath fill
	vpt 0 360 arc closepath} bind def
/C2 {BL [] 0 setdash 2 copy moveto
	2 copy vpt 90 180 arc closepath fill
	vpt 0 360 arc closepath} bind def
/C3 {BL [] 0 setdash 2 copy moveto
	2 copy vpt 0 180 arc closepath fill
	vpt 0 360 arc closepath} bind def
/C4 {BL [] 0 setdash 2 copy moveto
	2 copy vpt 180 270 arc closepath fill
	vpt 0 360 arc closepath} bind def
/C5 {BL [] 0 setdash 2 copy moveto
	2 copy vpt 0 90 arc
	2 copy moveto
	2 copy vpt 180 270 arc closepath fill
	vpt 0 360 arc} bind def
/C6 {BL [] 0 setdash 2 copy moveto
	2 copy vpt 90 270 arc closepath fill
	vpt 0 360 arc closepath} bind def
/C7 {BL [] 0 setdash 2 copy moveto
	2 copy vpt 0 270 arc closepath fill
	vpt 0 360 arc closepath} bind def
/C8 {BL [] 0 setdash 2 copy moveto
	2 copy vpt 270 360 arc closepath fill
	vpt 0 360 arc closepath} bind def
/C9 {BL [] 0 setdash 2 copy moveto
	2 copy vpt 270 450 arc closepath fill
	vpt 0 360 arc closepath} bind def
/C10 {BL [] 0 setdash 2 copy 2 copy moveto vpt 270 360 arc closepath fill
	2 copy moveto
	2 copy vpt 90 180 arc closepath fill
	vpt 0 360 arc closepath} bind def
/C11 {BL [] 0 setdash 2 copy moveto
	2 copy vpt 0 180 arc closepath fill
	2 copy moveto
	2 copy vpt 270 360 arc closepath fill
	vpt 0 360 arc closepath} bind def
/C12 {BL [] 0 setdash 2 copy moveto
	2 copy vpt 180 360 arc closepath fill
	vpt 0 360 arc closepath} bind def
/C13 {BL [] 0 setdash 2 copy moveto
	2 copy vpt 0 90 arc closepath fill
	2 copy moveto
	2 copy vpt 180 360 arc closepath fill
	vpt 0 360 arc closepath} bind def
/C14 {BL [] 0 setdash 2 copy moveto
	2 copy vpt 90 360 arc closepath fill
	vpt 0 360 arc} bind def
/C15 {BL [] 0 setdash 2 copy vpt 0 360 arc closepath fill
	vpt 0 360 arc closepath} bind def
/Rec {newpath 4 2 roll moveto 1 index 0 rlineto 0 exch rlineto
	neg 0 rlineto closepath} bind def
/Square {dup Rec} bind def
/Bsquare {vpt sub exch vpt sub exch vpt2 Square} bind def
/S0 {BL [] 0 setdash 2 copy moveto 0 vpt rlineto BL Bsquare} bind def
/S1 {BL [] 0 setdash 2 copy vpt Square fill Bsquare} bind def
/S2 {BL [] 0 setdash 2 copy exch vpt sub exch vpt Square fill Bsquare} bind def
/S3 {BL [] 0 setdash 2 copy exch vpt sub exch vpt2 vpt Rec fill Bsquare} bind def
/S4 {BL [] 0 setdash 2 copy exch vpt sub exch vpt sub vpt Square fill Bsquare} bind def
/S5 {BL [] 0 setdash 2 copy 2 copy vpt Square fill
	exch vpt sub exch vpt sub vpt Square fill Bsquare} bind def
/S6 {BL [] 0 setdash 2 copy exch vpt sub exch vpt sub vpt vpt2 Rec fill Bsquare} bind def
/S7 {BL [] 0 setdash 2 copy exch vpt sub exch vpt sub vpt vpt2 Rec fill
	2 copy vpt Square fill Bsquare} bind def
/S8 {BL [] 0 setdash 2 copy vpt sub vpt Square fill Bsquare} bind def
/S9 {BL [] 0 setdash 2 copy vpt sub vpt vpt2 Rec fill Bsquare} bind def
/S10 {BL [] 0 setdash 2 copy vpt sub vpt Square fill 2 copy exch vpt sub exch vpt Square fill
	Bsquare} bind def
/S11 {BL [] 0 setdash 2 copy vpt sub vpt Square fill 2 copy exch vpt sub exch vpt2 vpt Rec fill
	Bsquare} bind def
/S12 {BL [] 0 setdash 2 copy exch vpt sub exch vpt sub vpt2 vpt Rec fill Bsquare} bind def
/S13 {BL [] 0 setdash 2 copy exch vpt sub exch vpt sub vpt2 vpt Rec fill
	2 copy vpt Square fill Bsquare} bind def
/S14 {BL [] 0 setdash 2 copy exch vpt sub exch vpt sub vpt2 vpt Rec fill
	2 copy exch vpt sub exch vpt Square fill Bsquare} bind def
/S15 {BL [] 0 setdash 2 copy Bsquare fill Bsquare} bind def
/D0 {gsave translate 45 rotate 0 0 S0 stroke grestore} bind def
/D1 {gsave translate 45 rotate 0 0 S1 stroke grestore} bind def
/D2 {gsave translate 45 rotate 0 0 S2 stroke grestore} bind def
/D3 {gsave translate 45 rotate 0 0 S3 stroke grestore} bind def
/D4 {gsave translate 45 rotate 0 0 S4 stroke grestore} bind def
/D5 {gsave translate 45 rotate 0 0 S5 stroke grestore} bind def
/D6 {gsave translate 45 rotate 0 0 S6 stroke grestore} bind def
/D7 {gsave translate 45 rotate 0 0 S7 stroke grestore} bind def
/D8 {gsave translate 45 rotate 0 0 S8 stroke grestore} bind def
/D9 {gsave translate 45 rotate 0 0 S9 stroke grestore} bind def
/D10 {gsave translate 45 rotate 0 0 S10 stroke grestore} bind def
/D11 {gsave translate 45 rotate 0 0 S11 stroke grestore} bind def
/D12 {gsave translate 45 rotate 0 0 S12 stroke grestore} bind def
/D13 {gsave translate 45 rotate 0 0 S13 stroke grestore} bind def
/D14 {gsave translate 45 rotate 0 0 S14 stroke grestore} bind def
/D15 {gsave translate 45 rotate 0 0 S15 stroke grestore} bind def
/DiaE {stroke [] 0 setdash vpt add M
  hpt neg vpt neg V hpt vpt neg V
  hpt vpt V hpt neg vpt V closepath stroke} def
/BoxE {stroke [] 0 setdash exch hpt sub exch vpt add M
  0 vpt2 neg V hpt2 0 V 0 vpt2 V
  hpt2 neg 0 V closepath stroke} def
/TriUE {stroke [] 0 setdash vpt 1.12 mul add M
  hpt neg vpt -1.62 mul V
  hpt 2 mul 0 V
  hpt neg vpt 1.62 mul V closepath stroke} def
/TriDE {stroke [] 0 setdash vpt 1.12 mul sub M
  hpt neg vpt 1.62 mul V
  hpt 2 mul 0 V
  hpt neg vpt -1.62 mul V closepath stroke} def
/PentE {stroke [] 0 setdash gsave
  translate 0 hpt M 4 {72 rotate 0 hpt L} repeat
  closepath stroke grestore} def
/CircE {stroke [] 0 setdash 
  hpt 0 360 arc stroke} def
/Opaque {gsave closepath 1 setgray fill grestore 0 setgray closepath} def
/DiaW {stroke [] 0 setdash vpt add M
  hpt neg vpt neg V hpt vpt neg V
  hpt vpt V hpt neg vpt V Opaque stroke} def
/BoxW {stroke [] 0 setdash exch hpt sub exch vpt add M
  0 vpt2 neg V hpt2 0 V 0 vpt2 V
  hpt2 neg 0 V Opaque stroke} def
/TriUW {stroke [] 0 setdash vpt 1.12 mul add M
  hpt neg vpt -1.62 mul V
  hpt 2 mul 0 V
  hpt neg vpt 1.62 mul V Opaque stroke} def
/TriDW {stroke [] 0 setdash vpt 1.12 mul sub M
  hpt neg vpt 1.62 mul V
  hpt 2 mul 0 V
  hpt neg vpt -1.62 mul V Opaque stroke} def
/PentW {stroke [] 0 setdash gsave
  translate 0 hpt M 4 {72 rotate 0 hpt L} repeat
  Opaque stroke grestore} def
/CircW {stroke [] 0 setdash 
  hpt 0 360 arc Opaque stroke} def
/BoxFill {gsave Rec 1 setgray fill grestore} def
/Density {
  /Fillden exch def
  currentrgbcolor
  /ColB exch def /ColG exch def /ColR exch def
  /ColR ColR Fillden mul Fillden sub 1 add def
  /ColG ColG Fillden mul Fillden sub 1 add def
  /ColB ColB Fillden mul Fillden sub 1 add def
  ColR ColG ColB setrgbcolor} def
/BoxColFill {gsave Rec PolyFill} def
/PolyFill {gsave Density fill grestore grestore} def
/h {rlineto rlineto rlineto gsave closepath fill grestore} bind def
%
% PostScript Level 1 Pattern Fill routine for rectangles
% Usage: x y w h s a XX PatternFill
%	x,y = lower left corner of box to be filled
%	w,h = width and height of box
%	  a = angle in degrees between lines and x-axis
%	 XX = 0/1 for no/yes cross-hatch
%
/PatternFill {gsave /PFa [ 9 2 roll ] def
  PFa 0 get PFa 2 get 2 div add PFa 1 get PFa 3 get 2 div add translate
  PFa 2 get -2 div PFa 3 get -2 div PFa 2 get PFa 3 get Rec
  TransparentPatterns {} {gsave 1 setgray fill grestore} ifelse
  clip
  currentlinewidth 0.5 mul setlinewidth
  /PFs PFa 2 get dup mul PFa 3 get dup mul add sqrt def
  0 0 M PFa 5 get rotate PFs -2 div dup translate
  0 1 PFs PFa 4 get div 1 add floor cvi
	{PFa 4 get mul 0 M 0 PFs V} for
  0 PFa 6 get ne {
	0 1 PFs PFa 4 get div 1 add floor cvi
	{PFa 4 get mul 0 2 1 roll M PFs 0 V} for
 } if
  stroke grestore} def
%
/languagelevel where
 {pop languagelevel} {1} ifelse
dup 2 lt
	{/InterpretLevel1 true def
	 /InterpretLevel3 false def}
	{/InterpretLevel1 Level1 def
	 2 gt
	    {/InterpretLevel3 Level3 def}
	    {/InterpretLevel3 false def}
	 ifelse }
 ifelse
%
% PostScript level 2 pattern fill definitions
%
/Level2PatternFill {
/Tile8x8 {/PaintType 2 /PatternType 1 /TilingType 1 /BBox [0 0 8 8] /XStep 8 /YStep 8}
	bind def
/KeepColor {currentrgbcolor [/Pattern /DeviceRGB] setcolorspace} bind def
<< Tile8x8
 /PaintProc {0.5 setlinewidth pop 0 0 M 8 8 L 0 8 M 8 0 L stroke} 
>> matrix makepattern
/Pat1 exch def
<< Tile8x8
 /PaintProc {0.5 setlinewidth pop 0 0 M 8 8 L 0 8 M 8 0 L stroke
	0 4 M 4 8 L 8 4 L 4 0 L 0 4 L stroke}
>> matrix makepattern
/Pat2 exch def
<< Tile8x8
 /PaintProc {0.5 setlinewidth pop 0 0 M 0 8 L
	8 8 L 8 0 L 0 0 L fill}
>> matrix makepattern
/Pat3 exch def
<< Tile8x8
 /PaintProc {0.5 setlinewidth pop -4 8 M 8 -4 L
	0 12 M 12 0 L stroke}
>> matrix makepattern
/Pat4 exch def
<< Tile8x8
 /PaintProc {0.5 setlinewidth pop -4 0 M 8 12 L
	0 -4 M 12 8 L stroke}
>> matrix makepattern
/Pat5 exch def
<< Tile8x8
 /PaintProc {0.5 setlinewidth pop -2 8 M 4 -4 L
	0 12 M 8 -4 L 4 12 M 10 0 L stroke}
>> matrix makepattern
/Pat6 exch def
<< Tile8x8
 /PaintProc {0.5 setlinewidth pop -2 0 M 4 12 L
	0 -4 M 8 12 L 4 -4 M 10 8 L stroke}
>> matrix makepattern
/Pat7 exch def
<< Tile8x8
 /PaintProc {0.5 setlinewidth pop 8 -2 M -4 4 L
	12 0 M -4 8 L 12 4 M 0 10 L stroke}
>> matrix makepattern
/Pat8 exch def
<< Tile8x8
 /PaintProc {0.5 setlinewidth pop 0 -2 M 12 4 L
	-4 0 M 12 8 L -4 4 M 8 10 L stroke}
>> matrix makepattern
/Pat9 exch def
/Pattern1 {PatternBgnd KeepColor Pat1 setpattern} bind def
/Pattern2 {PatternBgnd KeepColor Pat2 setpattern} bind def
/Pattern3 {PatternBgnd KeepColor Pat3 setpattern} bind def
/Pattern4 {PatternBgnd KeepColor Landscape {Pat5} {Pat4} ifelse setpattern} bind def
/Pattern5 {PatternBgnd KeepColor Landscape {Pat4} {Pat5} ifelse setpattern} bind def
/Pattern6 {PatternBgnd KeepColor Landscape {Pat9} {Pat6} ifelse setpattern} bind def
/Pattern7 {PatternBgnd KeepColor Landscape {Pat8} {Pat7} ifelse setpattern} bind def
} def
%
%
%End of PostScript Level 2 code
%
/PatternBgnd {
  TransparentPatterns {} {gsave 1 setgray fill grestore} ifelse
} def
%
% Substitute for Level 2 pattern fill codes with
% grayscale if Level 2 support is not selected.
%
/Level1PatternFill {
/Pattern1 {0.250 Density} bind def
/Pattern2 {0.500 Density} bind def
/Pattern3 {0.750 Density} bind def
/Pattern4 {0.125 Density} bind def
/Pattern5 {0.375 Density} bind def
/Pattern6 {0.625 Density} bind def
/Pattern7 {0.875 Density} bind def
} def
%
% Now test for support of Level 2 code
%
Level1 {Level1PatternFill} {Level2PatternFill} ifelse
%
/Symbol-Oblique /Symbol findfont [1 0 .167 1 0 0] makefont
dup length dict begin {1 index /FID eq {pop pop} {def} ifelse} forall
currentdict end definefont pop
%
/Metrics {ExtendTextBox Gswidth} def
/Lwidth {currentpoint stroke M 0 vshift R Metrics} def
/Rwidth {currentpoint stroke M dup stringwidth pop neg vshift R Metrics} def
/Cwidth {currentpoint stroke M dup stringwidth pop -2 div vshift R Metrics} def
/GLwidth {currentpoint stroke M 0 vshift R {ExtendTextBox} forall} def
/GRwidth {currentpoint stroke M dup Gwidth vshift R {ExtendTextBox} forall} def
/GCwidth {currentpoint stroke M dup Gwidth 2 div vshift R {ExtendTextBox} forall} def
/GLwidth2 {0 Gwidth AddGlyphWidth} def
/GRwidth2 {Gwidth -1 mul 0 AddGlyphWidth} def
/GCwidth2 {Gwidth 2 div dup -1 mul AddGlyphWidth} def
/AddGlyphWidth { dup TBx2 gt {userdict /TBx2 3 -1 roll put} {pop} ifelse
                 dup TBx1 lt {userdict /TBx1 3 -1 roll put} {pop} ifelse } def
/MFshow {
   { dup 5 get 3 ge
     { 5 get 3 eq {gsave} {grestore} ifelse }
     {dup dup 0 get findfont exch 1 get scalefont setfont
     [ currentpoint ] exch dup 2 get 0 exch R dup 5 get 2 ne {dup dup 6
     get exch 4 get {textshow} {Metrics pop 0 R} ifelse }if dup 5 get 0 eq
     {dup 3 get {2 get neg 0 exch R pop} {pop aload pop M} ifelse} {dup 5
     get 1 eq {dup 2 get exch dup 3 get exch 6 get Gswidth pop -2 div
     dup 0 R} {dup 6 get Gswidth pop -2 div 0 R 6 get
     textshow 2 index {aload pop M neg 3 -1 roll neg R pop pop} {pop pop pop
     pop aload pop M} ifelse }ifelse }ifelse }
     ifelse }
   forall} def
/Gswidth {dup type /stringtype eq {stringwidth} {pop (n) stringwidth} ifelse} def
/MFwidth {0 exch { dup 5 get 3 ge { 5 get 3 eq { 0 } { pop } ifelse }
 {dup 3 get{dup dup 0 get findfont exch 1 get scalefont setfont
     6 get Gswidth pop add} {pop} ifelse} ifelse} forall} def
/MLshow { currentpoint stroke M
  0 exch R
  Blacktext {gsave 0 setgray MFshow grestore} {MFshow} ifelse } bind def
/MRshow { currentpoint stroke M
  exch dup MFwidth neg 3 -1 roll R
  Blacktext {gsave 0 setgray MFshow grestore} {MFshow} ifelse } bind def
/MCshow { currentpoint stroke M
  exch dup MFwidth -2 div 3 -1 roll R
  Blacktext {gsave 0 setgray MFshow grestore} {MFshow} ifelse } bind def
/XYsave    { [( ) 1 2 true false 3 ()] } bind def
/XYrestore { [( ) 1 2 true false 4 ()] } bind def
Level1 SuppressPDFMark or 
{} {
/SDict 10 dict def
systemdict /pdfmark known not {
  userdict /pdfmark systemdict /cleartomark get put
} if
SDict begin [
  /Title (gnuplot_scanStepSize.eps)
  /Subject (gnuplot plot)
  /Creator (gnuplot 5.2 patchlevel 2)
%  /Producer (gnuplot)
%  /Keywords ()
  /CreationDate (Mon Sep  9 21:56:45 2019)
  /DOCINFO pdfmark
end
} ifelse
%
% Support for boxed text - Ethan A Merritt Sep 2016
%
/InitTextBox { userdict /TBy2 3 -1 roll put userdict /TBx2 3 -1 roll put
           userdict /TBy1 3 -1 roll put userdict /TBx1 3 -1 roll put
	   /Boxing true def } def
/ExtendTextBox { dup type /stringtype eq
    { Boxing { gsave dup false charpath pathbbox
      dup TBy2 gt {userdict /TBy2 3 -1 roll put} {pop} ifelse
      dup TBx2 gt {userdict /TBx2 3 -1 roll put} {pop} ifelse
      dup TBy1 lt {userdict /TBy1 3 -1 roll put} {pop} ifelse
      dup TBx1 lt {userdict /TBx1 3 -1 roll put} {pop} ifelse
      grestore } if }
    {} ifelse} def
/PopTextBox { newpath TBx1 TBxmargin sub TBy1 TBymargin sub M
               TBx1 TBxmargin sub TBy2 TBymargin add L
	       TBx2 TBxmargin add TBy2 TBymargin add L
	       TBx2 TBxmargin add TBy1 TBymargin sub L closepath } def
/DrawTextBox { PopTextBox stroke /Boxing false def} def
/FillTextBox { gsave PopTextBox fill grestore /Boxing false def} def
0 0 0 0 InitTextBox
/TBxmargin 20 def
/TBymargin 20 def
/Boxing false def
/textshow { ExtendTextBox Gshow } def
%
end
%%EndProlog
%%Page: 1 1
gnudict begin
gsave
doclip
50 50 translate
0.050 0.050 scale
0 setgray
newpath
(Helvetica) findfont 140 scalefont setfont
BackgroundColor 0 lt 3 1 roll 0 lt exch 0 lt or or not {BackgroundColor C 1.000 0 0 7200.00 5040.00 BoxColFill} if
1.000 UL
LTb
LCb setrgbcolor
938 448 M
63 0 V
stroke
854 448 M
[ [(Helvetica) 140.0 0.0 true true 0 (100*10)]
[(Helvetica) 112.0 70.0 true true 0 (-9)]
] -60.7 MRshow
1.000 UL
LTb
LCb setrgbcolor
938 654 M
31 0 V
938 775 M
31 0 V
-31 86 R
31 0 V
-31 66 R
31 0 V
-31 54 R
31 0 V
-31 46 R
31 0 V
-31 40 R
31 0 V
-31 35 R
31 0 V
-31 31 R
63 0 V
stroke
854 1133 M
[ [(Helvetica) 140.0 0.0 true true 0 (1*10)]
[(Helvetica) 112.0 70.0 true true 0 (-6)]
] -60.7 MRshow
1.000 UL
LTb
LCb setrgbcolor
938 1339 M
31 0 V
-31 121 R
31 0 V
-31 86 R
31 0 V
-31 66 R
31 0 V
-31 54 R
31 0 V
-31 46 R
31 0 V
-31 40 R
31 0 V
-31 35 R
31 0 V
-31 31 R
63 0 V
stroke
854 1818 M
[ [(Helvetica) 140.0 0.0 true true 0 (10*10)]
[(Helvetica) 112.0 70.0 true true 0 (-6)]
] -60.7 MRshow
1.000 UL
LTb
LCb setrgbcolor
938 2025 M
31 0 V
-31 120 R
31 0 V
-31 86 R
31 0 V
-31 66 R
31 0 V
-31 54 R
31 0 V
-31 46 R
31 0 V
-31 40 R
31 0 V
-31 35 R
31 0 V
-31 32 R
63 0 V
stroke
854 2504 M
[ [(Helvetica) 140.0 0.0 true true 0 (100*10)]
[(Helvetica) 112.0 70.0 true true 0 (-6)]
] -60.7 MRshow
1.000 UL
LTb
LCb setrgbcolor
938 2710 M
31 0 V
-31 120 R
31 0 V
-31 86 R
31 0 V
-31 66 R
31 0 V
-31 55 R
31 0 V
-31 46 R
31 0 V
-31 39 R
31 0 V
-31 35 R
31 0 V
-31 32 R
63 0 V
stroke
854 3189 M
[ [(Helvetica) 140.0 0.0 true true 0 (1*10)]
[(Helvetica) 112.0 70.0 true true 0 (-3)]
] -60.7 MRshow
1.000 UL
LTb
LCb setrgbcolor
938 3395 M
31 0 V
-31 121 R
31 0 V
-31 85 R
31 0 V
-31 67 R
31 0 V
-31 54 R
31 0 V
-31 46 R
31 0 V
-31 39 R
31 0 V
-31 35 R
31 0 V
-31 32 R
63 0 V
stroke
854 3874 M
[ [(Helvetica) 140.0 0.0 true true 0 (10*10)]
[(Helvetica) 112.0 70.0 true true 0 (-3)]
] -60.7 MRshow
1.000 UL
LTb
LCb setrgbcolor
938 4080 M
31 0 V
-31 121 R
31 0 V
-31 85 R
31 0 V
-31 67 R
31 0 V
-31 54 R
31 0 V
-31 46 R
31 0 V
-31 40 R
31 0 V
-31 35 R
31 0 V
-31 31 R
63 0 V
stroke
854 4559 M
[ [(Helvetica) 140.0 0.0 true true 0 (100*10)]
[(Helvetica) 112.0 70.0 true true 0 (-3)]
] -60.7 MRshow
1.000 UL
LTb
LCb setrgbcolor
938 448 M
0 63 V
stroke
938 308 M
[ [(Helvetica) 140.0 0.0 true true 0 ( 0)]
] -46.7 MCshow
1.000 UL
LTb
LCb setrgbcolor
1458 448 M
0 63 V
stroke
1458 308 M
[ [(Helvetica) 140.0 0.0 true true 0 ( 0.02)]
] -46.7 MCshow
1.000 UL
LTb
LCb setrgbcolor
1977 448 M
0 63 V
stroke
1977 308 M
[ [(Helvetica) 140.0 0.0 true true 0 ( 0.04)]
] -46.7 MCshow
1.000 UL
LTb
LCb setrgbcolor
2497 448 M
0 63 V
stroke
2497 308 M
[ [(Helvetica) 140.0 0.0 true true 0 ( 0.06)]
] -46.7 MCshow
1.000 UL
LTb
LCb setrgbcolor
3017 448 M
0 63 V
stroke
3017 308 M
[ [(Helvetica) 140.0 0.0 true true 0 ( 0.08)]
] -46.7 MCshow
1.000 UL
LTb
LCb setrgbcolor
3537 448 M
0 63 V
stroke
3537 308 M
[ [(Helvetica) 140.0 0.0 true true 0 ( 0.1)]
] -46.7 MCshow
1.000 UL
LTb
LCb setrgbcolor
4056 448 M
0 63 V
stroke
4056 308 M
[ [(Helvetica) 140.0 0.0 true true 0 ( 0.12)]
] -46.7 MCshow
1.000 UL
LTb
LCb setrgbcolor
4576 448 M
0 63 V
stroke
4576 308 M
[ [(Helvetica) 140.0 0.0 true true 0 ( 0.14)]
] -46.7 MCshow
1.000 UL
LTb
LCb setrgbcolor
5096 448 M
0 63 V
stroke
5096 308 M
[ [(Helvetica) 140.0 0.0 true true 0 ( 0.16)]
] -46.7 MCshow
1.000 UL
LTb
LCb setrgbcolor
5615 448 M
0 63 V
stroke
5615 308 M
[ [(Helvetica) 140.0 0.0 true true 0 ( 0.18)]
] -46.7 MCshow
1.000 UL
LTb
LCb setrgbcolor
6135 448 M
0 63 V
stroke
6135 308 M
[ [(Helvetica) 140.0 0.0 true true 0 ( 0.2)]
] -46.7 MCshow
1.000 UL
LTb
LCb setrgbcolor
6135 448 M
-63 0 V
stroke
6219 448 M
[ [(Helvetica) 140.0 0.0 true true 0 (1*10)]
[(Helvetica) 112.0 70.0 true true 0 (-3)]
] -60.7 MLshow
1.000 UL
LTb
LCb setrgbcolor
6135 1686 M
-31 0 V
31 723 R
-31 0 V
31 514 R
-31 0 V
31 398 R
-31 0 V
31 326 R
-31 0 V
31 275 R
-31 0 V
31 239 R
-31 0 V
31 210 R
-31 0 V
31 188 R
-63 0 V
stroke
6219 4559 M
[ [(Helvetica) 140.0 0.0 true true 0 (10*10)]
[(Helvetica) 112.0 70.0 true true 0 (-3)]
] -60.7 MLshow
1.000 UL
LTb
LCb setrgbcolor
938 4559 M
0 -63 V
stroke
938 4699 M
[ [(Helvetica) 140.0 0.0 true true 0 ( 0.01)]
] -46.7 MCshow
1.000 UL
LTb
LCb setrgbcolor
1680 4559 M
0 -63 V
stroke
1680 4699 M
[ [(Helvetica) 140.0 0.0 true true 0 ( 0.011)]
] -46.7 MCshow
1.000 UL
LTb
LCb setrgbcolor
2423 4559 M
0 -63 V
stroke
2423 4699 M
[ [(Helvetica) 140.0 0.0 true true 0 ( 0.012)]
] -46.7 MCshow
1.000 UL
LTb
LCb setrgbcolor
3165 4559 M
0 -63 V
stroke
3165 4699 M
[ [(Helvetica) 140.0 0.0 true true 0 ( 0.013)]
] -46.7 MCshow
1.000 UL
LTb
LCb setrgbcolor
3908 4559 M
0 -63 V
stroke
3908 4699 M
[ [(Helvetica) 140.0 0.0 true true 0 ( 0.014)]
] -46.7 MCshow
1.000 UL
LTb
LCb setrgbcolor
4650 4559 M
0 -63 V
stroke
4650 4699 M
[ [(Helvetica) 140.0 0.0 true true 0 ( 0.015)]
] -46.7 MCshow
1.000 UL
LTb
LCb setrgbcolor
5393 4559 M
0 -63 V
stroke
5393 4699 M
[ [(Helvetica) 140.0 0.0 true true 0 ( 0.016)]
] -46.7 MCshow
1.000 UL
LTb
LCb setrgbcolor
6135 4559 M
0 -63 V
stroke
6135 4699 M
[ [(Helvetica) 140.0 0.0 true true 0 ( 0.017)]
] -46.7 MCshow
1.000 UL
LTb
LCb setrgbcolor
1.000 UL
LTB
LCb setrgbcolor
938 4559 N
938 448 L
5197 0 V
0 4111 V
-5197 0 V
Z stroke
1.000 UP
1.000 UL
LTb
LCb setrgbcolor
LCb setrgbcolor
126 2503 M
currentpoint gsave translate -270 rotate 0 0 moveto
[ [(roman) 200.0 0.0 true true 0 (|Y-Y)]
[(roman) 160.0 -60.0 true true 0 (th)]
[(roman) 200.0 0.0 true true 0 (|/Y)]
[(roman) 160.0 -60.0 true true 0 (th)]
[(roman) 200.0 0.0 true true 0 ( )]
] -46.7 MCshow
grestore
LTb
LCb setrgbcolor
6975 2503 M
currentpoint gsave translate -270 rotate 0 0 moveto
[ [(roman) 200.0 0.0 true true 0 (|Y-Y)]
[(roman) 160.0 -60.0 true true 0 (th)]
[(roman) 200.0 0.0 true true 0 (|/Y)]
[(roman) 160.0 -60.0 true true 0 (th)]
[(roman) 200.0 0.0 true true 0 ( \(zoomed\))]
] -46.7 MCshow
grestore
LTb
LCb setrgbcolor
3536 98 M
[ [(roman) 200.0 0.0 true true 0 (step size [m])]
] -66.7 MCshow
LTb
LCb setrgbcolor
3536 4969 M
[ [(roman) 200.0 0.0 true true 0 (step size \(zoomed\) [m])]
] -66.7 MCshow
LTb
% Begin plot #1
0.600 UP
1.000 UL
LTb
0.00 0.00 1.00 C LCb setrgbcolor
4022 4396 M
[ [(roman) 200.0 0.0 true true 0 (dY \(rel.\) vs. step size)]
] -66.7 MRshow
0.600 UP
1.000 UL
LTb
0.00 0.00 1.00 C 4142 4396 M
543 0 V
1198 3537 M
5 -2 V
5 -2 V
5 -2 V
5 -2 V
5 -2 V
5 -1 V
4 -2 V
5 -2 V
5 -2 V
5 -2 V
5 -2 V
5 -2 V
5 -2 V
5 -2 V
5 -2 V
5 -1 V
5 -2 V
5 -2 V
5 -2 V
5 -2 V
5 -2 V
5 -2 V
5 -3 V
4 -2 V
5 -2 V
5 -2 V
5 -2 V
5 -2 V
5 -2 V
5 -2 V
5 -2 V
5 -2 V
5 -3 V
5 -2 V
5 -2 V
5 -2 V
1198 3537 BoxF
1198 3537 BoxF
1198 3537 BoxF
1203 3535 BoxF
1203 3535 BoxF
1203 3535 BoxF
1208 3533 BoxF
1208 3533 BoxF
1208 3533 BoxF
1213 3531 BoxF
1213 3531 BoxF
1213 3531 BoxF
1218 3529 BoxF
1218 3529 BoxF
1218 3529 BoxF
1223 3527 BoxF
1223 3527 BoxF
1223 3527 BoxF
1228 3526 BoxF
1228 3526 BoxF
1228 3526 BoxF
1232 3524 BoxF
1232 3524 BoxF
1232 3524 BoxF
1237 3522 BoxF
1237 3522 BoxF
1237 3522 BoxF
1242 3520 BoxF
1242 3520 BoxF
1242 3520 BoxF
1247 3518 BoxF
1247 3518 BoxF
1247 3518 BoxF
1252 3516 BoxF
1252 3516 BoxF
1252 3516 BoxF
1257 3514 BoxF
1257 3514 BoxF
1257 3514 BoxF
1262 3512 BoxF
1262 3512 BoxF
1262 3512 BoxF
1267 3510 BoxF
1267 3510 BoxF
1267 3510 BoxF
1272 3508 BoxF
1272 3508 BoxF
1272 3508 BoxF
1277 3507 BoxF
1277 3507 BoxF
1277 3507 BoxF
1282 3505 BoxF
1282 3505 BoxF
1282 3505 BoxF
1287 3503 BoxF
1287 3503 BoxF
1287 3503 BoxF
1292 3501 BoxF
1292 3501 BoxF
1292 3501 BoxF
1297 3499 BoxF
1297 3499 BoxF
1297 3499 BoxF
1302 3497 BoxF
1302 3497 BoxF
1302 3497 BoxF
1307 3495 BoxF
1307 3495 BoxF
1307 3495 BoxF
1312 3492 BoxF
1312 3492 BoxF
1312 3492 BoxF
1316 3490 BoxF
1316 3490 BoxF
1316 3490 BoxF
1321 3488 BoxF
1321 3488 BoxF
1321 3488 BoxF
1326 3486 BoxF
1326 3486 BoxF
1326 3486 BoxF
1331 3484 BoxF
1331 3484 BoxF
1331 3484 BoxF
1336 3482 BoxF
1336 3482 BoxF
1336 3482 BoxF
1341 3480 BoxF
1341 3480 BoxF
1341 3480 BoxF
1346 3478 BoxF
1346 3478 BoxF
1346 3478 BoxF
1351 3476 BoxF
1351 3476 BoxF
1351 3476 BoxF
1356 3474 BoxF
1356 3474 BoxF
1356 3474 BoxF
1361 3471 BoxF
1361 3471 BoxF
1361 3471 BoxF
1366 3469 BoxF
1366 3469 BoxF
1366 3469 BoxF
1371 3467 BoxF
1371 3467 BoxF
1371 3467 BoxF
1376 3465 BoxF
1376 3465 BoxF
1376 3465 BoxF
4413 4396 BoxF
% End plot #1
% Begin plot #2
0.600 UP
1.000 UL
LTb
1.00 0.00 0.00 C LCb setrgbcolor
4022 4196 M
[ [(roman) 200.0 0.0 true true 0 (dY \(rel.\) vs. step size)]
] -66.7 MRshow
0.600 UP
1.000 UL
LTb
1.00 0.00 0.00 C 4142 4196 M
543 0 V
1381 3463 M
5 -3 V
5 -2 V
5 -2 V
4 -3 V
5 -2 V
5 -2 V
5 -3 V
5 -2 V
5 -2 V
5 -3 V
5 -2 V
5 -3 V
5 -2 V
5 -2 V
5 -3 V
5 -2 V
5 -3 V
5 -3 V
5 -2 V
5 -3 V
4 -2 V
5 -3 V
5 -3 V
5 -2 V
5 -3 V
5 -3 V
5 -3 V
5 -2 V
5 -3 V
5 -3 V
5 -3 V
5 -3 V
5 -3 V
5 -3 V
5 -3 V
5 -2 V
5 -4 V
5 -3 V
4 -3 V
5 -3 V
5 -3 V
5 -3 V
5 -3 V
5 -4 V
5 -3 V
5 -3 V
5 -3 V
5 -4 V
5 -3 V
5 -4 V
5 -3 V
5 -4 V
5 -3 V
5 -4 V
5 -4 V
4 -3 V
5 -4 V
5 -4 V
5 -4 V
5 -4 V
5 -4 V
5 -4 V
5 -4 V
5 -4 V
5 -4 V
5 -4 V
5 -4 V
5 -5 V
5 -4 V
5 -5 V
5 -4 V
5 -5 V
4 -5 V
5 -4 V
5 -5 V
5 -5 V
5 -5 V
5 -5 V
5 -5 V
5 -6 V
5 -5 V
5 -5 V
5 -6 V
5 -6 V
5 -5 V
5 -6 V
5 -6 V
5 -7 V
5 -6 V
4 -6 V
5 -6 V
5 -7 V
5 -7 V
5 -8 V
5 -6 V
5 -7 V
5 -8 V
5 -8 V
5 -8 V
5 -9 V
5 -8 V
5 -8 V
5 -8 V
5 -9 V
5 -10 V
5 -10 V
5 -10 V
4 -11 V
5 -10 V
5 -11 V
5 -11 V
5 -12 V
5 -13 V
5 -13 V
5 -17 V
5 -13 V
5 -14 V
5 -16 V
5 -16 V
5 -18 V
5 -19 V
5 -21 V
5 -22 V
5 -29 V
4 -23 V
5 -26 V
5 -30 V
5 -33 V
5 -39 V
5 -44 V
5 -54 V
5 -65 V
5 -84 V
5 -155 V
5 -194 V
5 -868 V
5 842 V
5 219 V
5 126 V
5 90 V
5 70 V
4 56 V
5 48 V
5 41 V
5 48 V
5 27 V
5 25 V
5 24 V
5 23 V
5 21 V
5 21 V
5 19 V
5 18 V
5 18 V
5 16 V
5 16 V
5 15 V
5 19 V
5 12 V
4 11 V
5 11 V
5 11 V
5 11 V
5 11 V
5 10 V
5 10 V
5 10 V
5 10 V
5 9 V
5 9 V
5 9 V
5 9 V
5 12 V
5 6 V
5 7 V
5 7 V
4 7 V
5 7 V
5 7 V
5 6 V
5 7 V
5 7 V
5 6 V
5 6 V
5 7 V
5 6 V
5 6 V
5 6 V
5 6 V
5 9 V
5 4 V
5 5 V
5 5 V
4 5 V
5 4 V
5 5 V
5 5 V
5 5 V
5 4 V
5 5 V
5 5 V
5 4 V
5 5 V
5 4 V
5 5 V
5 4 V
5 5 V
5 4 V
5 4 V
5 8 V
4 3 V
5 3 V
5 4 V
5 3 V
5 4 V
5 3 V
5 4 V
5 3 V
5 4 V
5 3 V
5 4 V
5 3 V
5 4 V
5 3 V
5 4 V
5 3 V
5 4 V
5 3 V
4 3 V
5 4 V
5 3 V
5 3 V
5 4 V
5 6 V
5 2 V
5 3 V
5 2 V
5 3 V
5 3 V
5 2 V
5 3 V
5 3 V
5 2 V
5 3 V
5 3 V
4 2 V
5 3 V
stroke 2601 3404 M
5 3 V
5 2 V
5 3 V
5 3 V
5 2 V
5 3 V
5 3 V
5 2 V
5 3 V
5 3 V
5 2 V
5 3 V
5 2 V
5 3 V
5 2 V
4 3 V
5 5 V
5 2 V
5 2 V
5 2 V
5 2 V
5 2 V
5 2 V
5 2 V
5 2 V
5 2 V
5 2 V
5 2 V
5 2 V
5 3 V
5 2 V
5 2 V
4 2 V
5 2 V
5 2 V
5 2 V
5 2 V
5 2 V
5 3 V
5 2 V
5 2 V
5 2 V
5 2 V
5 2 V
5 2 V
5 2 V
5 2 V
5 2 V
5 2 V
5 2 V
4 2 V
5 2 V
5 5 V
5 2 V
5 1 V
5 2 V
5 1 V
5 2 V
5 1 V
5 2 V
5 1 V
5 2 V
5 2 V
5 1 V
5 2 V
5 2 V
5 1 V
4 2 V
5 2 V
5 1 V
5 2 V
5 2 V
5 1 V
5 2 V
5 2 V
5 1 V
5 2 V
5 2 V
5 1 V
5 2 V
5 2 V
5 1 V
5 2 V
5 2 V
4 1 V
5 2 V
5 2 V
5 1 V
5 2 V
5 2 V
5 1 V
5 2 V
5 1 V
5 2 V
5 2 V
5 1 V
5 2 V
5 1 V
5 5 V
5 2 V
5 1 V
4 1 V
5 1 V
5 1 V
5 1 V
5 2 V
5 1 V
5 1 V
5 1 V
5 2 V
5 1 V
5 1 V
5 1 V
5 2 V
5 1 V
5 1 V
5 2 V
5 1 V
5 1 V
4 2 V
5 1 V
5 1 V
5 2 V
5 1 V
5 1 V
5 2 V
5 1 V
5 1 V
5 2 V
5 1 V
5 1 V
5 2 V
5 1 V
5 1 V
5 2 V
5 1 V
4 1 V
5 2 V
5 1 V
5 1 V
5 2 V
5 1 V
5 1 V
5 2 V
5 1 V
5 1 V
5 1 V
5 2 V
5 1 V
5 1 V
5 2 V
5 1 V
5 1 V
4 1 V
5 2 V
5 1 V
5 1 V
5 2 V
5 1 V
5 1 V
5 5 V
5 1 V
5 1 V
5 1 V
5 1 V
5 0 V
5 1 V
5 1 V
5 1 V
5 1 V
5 1 V
4 1 V
5 1 V
5 1 V
5 1 V
5 1 V
5 1 V
5 1 V
5 1 V
5 1 V
5 1 V
5 1 V
5 1 V
5 1 V
5 1 V
5 1 V
5 1 V
5 1 V
4 1 V
5 1 V
5 1 V
5 2 V
5 1 V
5 1 V
5 1 V
5 1 V
5 1 V
5 1 V
5 1 V
5 1 V
5 1 V
5 1 V
5 1 V
5 1 V
5 1 V
4 1 V
5 1 V
5 1 V
5 2 V
5 1 V
5 1 V
5 1 V
5 1 V
5 1 V
5 1 V
5 1 V
5 1 V
5 1 V
5 1 V
5 1 V
5 1 V
5 1 V
4 1 V
5 1 V
5 1 V
5 1 V
5 1 V
5 1 V
5 1 V
5 2 V
5 1 V
5 1 V
5 1 V
5 1 V
5 1 V
5 1 V
5 1 V
5 1 V
5 1 V
5 1 V
4 1 V
5 1 V
5 1 V
5 0 V
5 1 V
5 6 V
5 1 V
5 0 V
5 1 V
stroke 3832 3783 M
5 1 V
5 0 V
5 1 V
5 1 V
5 0 V
5 1 V
5 1 V
5 1 V
4 0 V
5 1 V
5 1 V
5 0 V
5 1 V
5 1 V
5 1 V
5 0 V
5 1 V
5 1 V
5 1 V
5 1 V
5 0 V
5 1 V
5 1 V
5 1 V
5 0 V
4 1 V
5 1 V
5 1 V
5 1 V
5 0 V
5 1 V
5 1 V
5 1 V
5 1 V
5 0 V
5 1 V
5 1 V
5 1 V
5 1 V
5 0 V
5 1 V
5 1 V
4 1 V
5 1 V
5 1 V
5 0 V
5 1 V
5 1 V
5 1 V
5 1 V
5 1 V
5 0 V
5 1 V
5 1 V
5 1 V
5 1 V
5 1 V
5 0 V
5 1 V
5 1 V
4 1 V
5 1 V
5 0 V
5 1 V
5 1 V
5 1 V
5 1 V
5 1 V
5 0 V
5 1 V
5 1 V
5 1 V
5 1 V
5 1 V
5 0 V
5 1 V
5 1 V
4 1 V
5 1 V
5 0 V
5 1 V
5 1 V
5 1 V
5 1 V
5 1 V
5 0 V
5 1 V
5 1 V
5 1 V
5 1 V
5 0 V
5 1 V
5 1 V
5 1 V
4 1 V
5 0 V
5 1 V
5 1 V
5 1 V
5 0 V
5 1 V
5 1 V
5 1 V
5 1 V
5 0 V
5 1 V
5 1 V
5 1 V
5 0 V
5 1 V
5 1 V
4 1 V
5 0 V
5 1 V
5 1 V
5 1 V
5 0 V
5 1 V
5 1 V
5 1 V
5 0 V
5 7 V
5 1 V
5 0 V
5 1 V
5 0 V
5 1 V
5 0 V
5 1 V
4 0 V
5 1 V
5 0 V
5 1 V
5 0 V
5 1 V
5 0 V
5 1 V
5 0 V
5 1 V
5 0 V
5 1 V
5 0 V
5 1 V
5 0 V
5 1 V
5 0 V
4 1 V
5 0 V
5 1 V
5 0 V
5 1 V
5 0 V
5 1 V
5 0 V
5 1 V
5 1 V
5 0 V
5 1 V
5 0 V
5 1 V
5 0 V
5 1 V
5 1 V
4 0 V
5 1 V
5 0 V
5 1 V
5 0 V
5 1 V
5 1 V
5 0 V
5 1 V
5 0 V
5 1 V
5 1 V
5 0 V
5 1 V
5 0 V
5 1 V
5 0 V
5 1 V
4 1 V
5 0 V
5 1 V
5 0 V
5 1 V
5 1 V
5 0 V
5 1 V
5 0 V
5 1 V
5 1 V
5 0 V
5 1 V
5 1 V
5 0 V
5 1 V
5 0 V
4 1 V
5 1 V
5 0 V
5 1 V
5 0 V
5 1 V
5 1 V
5 0 V
5 1 V
5 0 V
5 1 V
5 1 V
5 0 V
5 1 V
5 0 V
5 1 V
5 1 V
4 0 V
5 1 V
5 1 V
5 0 V
5 1 V
5 0 V
5 1 V
5 1 V
5 0 V
5 1 V
5 0 V
5 1 V
5 1 V
5 0 V
5 1 V
5 0 V
5 1 V
4 1 V
5 0 V
5 1 V
5 0 V
5 1 V
5 1 V
5 0 V
5 1 V
5 0 V
5 1 V
5 1 V
5 0 V
5 1 V
5 0 V
5 1 V
5 1 V
5 0 V
stroke 5063 3958 M
5 1 V
4 0 V
5 1 V
5 1 V
5 0 V
5 1 V
5 0 V
5 1 V
5 0 V
5 1 V
5 1 V
5 0 V
5 1 V
5 0 V
5 1 V
5 1 V
5 0 V
5 1 V
4 0 V
5 1 V
5 0 V
5 1 V
5 1 V
5 0 V
5 1 V
5 0 V
5 1 V
5 0 V
5 1 V
5 0 V
5 1 V
5 1 V
5 0 V
5 1 V
5 0 V
4 1 V
5 0 V
5 1 V
5 0 V
5 1 V
5 1 V
5 0 V
5 1 V
5 0 V
5 1 V
5 0 V
5 1 V
5 0 V
5 1 V
5 0 V
5 1 V
5 0 V
4 1 V
5 0 V
5 1 V
5 0 V
5 1 V
5 1 V
5 0 V
5 1 V
5 0 V
5 1 V
5 0 V
5 1 V
5 0 V
5 1 V
5 0 V
5 1 V
5 0 V
5 1 V
4 0 V
5 1 V
5 0 V
5 1 V
5 0 V
5 1 V
5 0 V
5 1 V
5 0 V
5 10 V
5 1 V
5 0 V
5 0 V
5 0 V
5 0 V
5 1 V
5 0 V
4 0 V
5 0 V
5 0 V
5 1 V
5 0 V
5 0 V
5 0 V
5 1 V
5 0 V
5 0 V
5 0 V
5 0 V
5 1 V
5 0 V
5 0 V
5 0 V
5 1 V
4 0 V
5 0 V
5 0 V
5 1 V
5 0 V
5 0 V
5 0 V
5 1 V
5 0 V
5 0 V
5 1 V
5 0 V
5 0 V
5 0 V
5 1 V
5 0 V
5 0 V
5 0 V
4 1 V
5 0 V
5 0 V
5 1 V
5 0 V
5 0 V
5 1 V
5 0 V
5 0 V
5 0 V
5 1 V
5 0 V
5 0 V
5 1 V
5 0 V
5 0 V
5 1 V
4 0 V
5 0 V
5 1 V
5 0 V
5 0 V
5 0 V
5 1 V
5 0 V
5 0 V
5 1 V
5 0 V
5 0 V
5 1 V
5 0 V
5 0 V
5 1 V
5 0 V
4 0 V
5 1 V
5 0 V
5 0 V
5 1 V
5 0 V
5 0 V
5 1 V
5 0 V
5 0 V
5 1 V
5 0 V
5 1 V
5 0 V
5 0 V
5 1 V
5 0 V
4 0 V
5 1 V
5 0 V
5 0 V
5 1 V
5 0 V
5 0 V
5 1 V
5 0 V
5 0 V
5 1 V
5 0 V
5 0 V
5 1 V
5 0 V
5 1 V
5 0 V
5 0 V
4 1 V
5 0 V
5 0 V
5 1 V
5 0 V
5 0 V
5 1 V
5 0 V
5 0 V
5 1 V
5 0 V
5 1 V
5 0 V
5 0 V
5 1 V
5 0 V
5 0 V
4 1 V
5 0 V
5 0 V
5 1 V
5 0 V
5 1 V
5 0 V
5 0 V
1381 3463 BoxF
1381 3463 BoxF
1381 3463 BoxF
1386 3460 BoxF
1386 3460 BoxF
1386 3460 BoxF
1391 3458 BoxF
1391 3458 BoxF
1391 3458 BoxF
1396 3456 BoxF
1396 3456 BoxF
1396 3456 BoxF
1400 3453 BoxF
1400 3453 BoxF
1400 3453 BoxF
1405 3451 BoxF
1405 3451 BoxF
1405 3451 BoxF
1410 3449 BoxF
1410 3449 BoxF
1410 3449 BoxF
1415 3446 BoxF
1415 3446 BoxF
1415 3446 BoxF
1420 3444 BoxF
1420 3444 BoxF
1420 3444 BoxF
1425 3442 BoxF
1425 3442 BoxF
1425 3442 BoxF
1430 3439 BoxF
1430 3439 BoxF
1430 3439 BoxF
1435 3437 BoxF
1435 3437 BoxF
1435 3437 BoxF
1440 3434 BoxF
1440 3434 BoxF
1440 3434 BoxF
1445 3432 BoxF
1445 3432 BoxF
1445 3432 BoxF
1450 3430 BoxF
1450 3430 BoxF
1450 3430 BoxF
1455 3427 BoxF
1455 3427 BoxF
1455 3427 BoxF
1460 3425 BoxF
1460 3425 BoxF
1460 3425 BoxF
1465 3422 BoxF
1465 3422 BoxF
1465 3422 BoxF
1470 3419 BoxF
1470 3419 BoxF
1470 3419 BoxF
1475 3417 BoxF
1475 3417 BoxF
1475 3417 BoxF
1480 3414 BoxF
1480 3414 BoxF
1480 3414 BoxF
1484 3412 BoxF
1484 3412 BoxF
1484 3412 BoxF
1489 3409 BoxF
1489 3409 BoxF
1489 3409 BoxF
1494 3406 BoxF
1494 3406 BoxF
1494 3406 BoxF
1499 3404 BoxF
1499 3404 BoxF
1499 3404 BoxF
1504 3401 BoxF
1504 3401 BoxF
1504 3401 BoxF
1509 3398 BoxF
1509 3398 BoxF
1509 3398 BoxF
1514 3395 BoxF
1514 3395 BoxF
1514 3395 BoxF
1519 3393 BoxF
1519 3393 BoxF
1519 3393 BoxF
1524 3390 BoxF
1524 3390 BoxF
1524 3390 BoxF
1529 3387 BoxF
1529 3387 BoxF
1529 3387 BoxF
1534 3384 BoxF
1534 3384 BoxF
1534 3384 BoxF
1539 3381 BoxF
1539 3381 BoxF
1539 3381 BoxF
1544 3378 BoxF
1544 3378 BoxF
1544 3378 BoxF
1549 3375 BoxF
1549 3375 BoxF
1549 3375 BoxF
1554 3372 BoxF
1554 3372 BoxF
1554 3372 BoxF
1559 3370 BoxF
1559 3370 BoxF
1559 3370 BoxF
1564 3366 BoxF
1564 3366 BoxF
1564 3366 BoxF
1569 3363 BoxF
1569 3363 BoxF
1569 3363 BoxF
1573 3360 BoxF
1573 3360 BoxF
1573 3360 BoxF
1578 3357 BoxF
1578 3357 BoxF
1578 3357 BoxF
1583 3354 BoxF
1583 3354 BoxF
1583 3354 BoxF
1588 3351 BoxF
1588 3351 BoxF
1588 3351 BoxF
1593 3348 BoxF
1593 3348 BoxF
1593 3348 BoxF
1598 3344 BoxF
1598 3344 BoxF
1598 3344 BoxF
1603 3341 BoxF
1603 3341 BoxF
1603 3341 BoxF
1608 3338 BoxF
1608 3338 BoxF
1608 3338 BoxF
1613 3335 BoxF
1613 3335 BoxF
1613 3335 BoxF
1618 3331 BoxF
1618 3331 BoxF
1618 3331 BoxF
1623 3328 BoxF
1623 3328 BoxF
1623 3328 BoxF
1628 3324 BoxF
1628 3324 BoxF
1628 3324 BoxF
1633 3321 BoxF
1633 3321 BoxF
1633 3321 BoxF
1638 3317 BoxF
1638 3317 BoxF
1638 3317 BoxF
1643 3314 BoxF
1643 3314 BoxF
1643 3314 BoxF
1648 3310 BoxF
1648 3310 BoxF
1648 3310 BoxF
1653 3306 BoxF
1653 3306 BoxF
1653 3306 BoxF
1657 3303 BoxF
1657 3303 BoxF
1657 3303 BoxF
1662 3299 BoxF
1662 3299 BoxF
1662 3299 BoxF
1667 3295 BoxF
1667 3295 BoxF
1667 3295 BoxF
1672 3291 BoxF
1672 3291 BoxF
1672 3291 BoxF
1677 3287 BoxF
1677 3287 BoxF
1677 3287 BoxF
1682 3283 BoxF
1682 3283 BoxF
1682 3283 BoxF
1687 3279 BoxF
1687 3279 BoxF
1687 3279 BoxF
1692 3275 BoxF
1692 3275 BoxF
1692 3275 BoxF
1697 3271 BoxF
1697 3271 BoxF
1697 3271 BoxF
1702 3267 BoxF
1702 3267 BoxF
1702 3267 BoxF
1707 3263 BoxF
1707 3263 BoxF
1707 3263 BoxF
1712 3259 BoxF
1712 3259 BoxF
1712 3259 BoxF
1717 3254 BoxF
1717 3254 BoxF
1717 3254 BoxF
1722 3250 BoxF
1722 3250 BoxF
1722 3250 BoxF
1727 3245 BoxF
1727 3245 BoxF
1727 3245 BoxF
1732 3241 BoxF
1732 3241 BoxF
1732 3241 BoxF
1737 3236 BoxF
1737 3236 BoxF
1737 3236 BoxF
1741 3231 BoxF
1741 3231 BoxF
1741 3231 BoxF
1746 3227 BoxF
1746 3227 BoxF
1746 3227 BoxF
1751 3222 BoxF
1751 3222 BoxF
1751 3222 BoxF
1756 3217 BoxF
1756 3217 BoxF
1756 3217 BoxF
1761 3212 BoxF
1761 3212 BoxF
1761 3212 BoxF
1766 3207 BoxF
1766 3207 BoxF
1766 3207 BoxF
1771 3202 BoxF
1771 3202 BoxF
1771 3202 BoxF
1776 3196 BoxF
1776 3196 BoxF
1776 3196 BoxF
1781 3191 BoxF
1781 3191 BoxF
1781 3191 BoxF
1786 3186 BoxF
1786 3186 BoxF
1786 3186 BoxF
1791 3180 BoxF
1791 3180 BoxF
1791 3180 BoxF
1796 3174 BoxF
1796 3174 BoxF
1796 3174 BoxF
1801 3169 BoxF
1801 3169 BoxF
1801 3169 BoxF
1806 3163 BoxF
1806 3163 BoxF
1806 3163 BoxF
1811 3157 BoxF
1811 3157 BoxF
1811 3157 BoxF
1816 3150 BoxF
1816 3150 BoxF
1816 3150 BoxF
1821 3144 BoxF
1821 3144 BoxF
1821 3144 BoxF
1825 3138 BoxF
1825 3138 BoxF
1825 3138 BoxF
1830 3132 BoxF
1830 3132 BoxF
1830 3132 BoxF
1835 3125 BoxF
1835 3125 BoxF
1835 3125 BoxF
1840 3118 BoxF
1840 3118 BoxF
1840 3118 BoxF
1845 3110 BoxF
1845 3110 BoxF
1845 3110 BoxF
1850 3104 BoxF
1850 3104 BoxF
1850 3104 BoxF
1855 3097 BoxF
1855 3097 BoxF
1855 3097 BoxF
1860 3089 BoxF
1860 3089 BoxF
1860 3089 BoxF
1865 3081 BoxF
1865 3081 BoxF
1865 3081 BoxF
1870 3073 BoxF
1870 3073 BoxF
1870 3073 BoxF
1875 3064 BoxF
1875 3064 BoxF
1875 3064 BoxF
1880 3056 BoxF
1880 3056 BoxF
1880 3056 BoxF
1885 3048 BoxF
1885 3048 BoxF
1885 3048 BoxF
1890 3040 BoxF
1890 3040 BoxF
1890 3040 BoxF
1895 3031 BoxF
1895 3031 BoxF
1895 3031 BoxF
1900 3021 BoxF
1900 3021 BoxF
1900 3021 BoxF
1905 3011 BoxF
1905 3011 BoxF
1905 3011 BoxF
1910 3001 BoxF
1910 3001 BoxF
1910 3001 BoxF
1914 2990 BoxF
1914 2990 BoxF
1914 2990 BoxF
1919 2980 BoxF
1919 2980 BoxF
1919 2980 BoxF
1924 2969 BoxF
1924 2969 BoxF
1924 2969 BoxF
1929 2958 BoxF
1929 2958 BoxF
1929 2958 BoxF
1934 2946 BoxF
1934 2946 BoxF
1934 2946 BoxF
1939 2933 BoxF
1939 2933 BoxF
1939 2933 BoxF
1944 2920 BoxF
1944 2920 BoxF
1944 2920 BoxF
1949 2903 BoxF
1949 2903 BoxF
1949 2903 BoxF
1954 2890 BoxF
1954 2890 BoxF
1954 2890 BoxF
1959 2876 BoxF
1959 2876 BoxF
1959 2876 BoxF
1964 2860 BoxF
1964 2860 BoxF
1964 2860 BoxF
1969 2844 BoxF
1969 2844 BoxF
1969 2844 BoxF
1974 2826 BoxF
1974 2826 BoxF
1974 2826 BoxF
1979 2807 BoxF
1979 2807 BoxF
1979 2807 BoxF
1984 2786 BoxF
1984 2786 BoxF
1984 2786 BoxF
1989 2764 BoxF
1989 2764 BoxF
1989 2764 BoxF
1994 2735 BoxF
1994 2735 BoxF
1994 2735 BoxF
1998 2712 BoxF
1998 2712 BoxF
1998 2712 BoxF
2003 2686 BoxF
2003 2686 BoxF
2003 2686 BoxF
2008 2656 BoxF
2008 2656 BoxF
2008 2656 BoxF
2013 2623 BoxF
2013 2623 BoxF
2013 2623 BoxF
2018 2584 BoxF
2018 2584 BoxF
2018 2584 BoxF
2023 2540 BoxF
2023 2540 BoxF
2023 2540 BoxF
2028 2486 BoxF
2028 2486 BoxF
2028 2486 BoxF
2033 2421 BoxF
2033 2421 BoxF
2033 2421 BoxF
2038 2337 BoxF
2038 2337 BoxF
2038 2337 BoxF
2043 2182 BoxF
2043 2182 BoxF
2043 2182 BoxF
2048 1988 BoxF
2048 1988 BoxF
2048 1988 BoxF
2053 1120 BoxF
2053 1120 BoxF
2053 1120 BoxF
2058 1962 BoxF
2058 1962 BoxF
2058 1962 BoxF
2063 2181 BoxF
2063 2181 BoxF
2063 2181 BoxF
2068 2307 BoxF
2068 2307 BoxF
2068 2307 BoxF
2073 2397 BoxF
2073 2397 BoxF
2073 2397 BoxF
2078 2467 BoxF
2078 2467 BoxF
2078 2467 BoxF
2082 2523 BoxF
2082 2523 BoxF
2082 2523 BoxF
2087 2571 BoxF
2087 2571 BoxF
2087 2571 BoxF
2092 2612 BoxF
2092 2612 BoxF
2092 2612 BoxF
2097 2660 BoxF
2097 2660 BoxF
2097 2660 BoxF
2102 2687 BoxF
2102 2687 BoxF
2102 2687 BoxF
2107 2712 BoxF
2107 2712 BoxF
2107 2712 BoxF
2112 2736 BoxF
2112 2736 BoxF
2112 2736 BoxF
2117 2759 BoxF
2117 2759 BoxF
2117 2759 BoxF
2122 2780 BoxF
2122 2780 BoxF
2122 2780 BoxF
2127 2801 BoxF
2127 2801 BoxF
2127 2801 BoxF
2132 2820 BoxF
2132 2820 BoxF
2132 2820 BoxF
2137 2838 BoxF
2137 2838 BoxF
2137 2838 BoxF
2142 2856 BoxF
2142 2856 BoxF
2142 2856 BoxF
2147 2872 BoxF
2147 2872 BoxF
2147 2872 BoxF
2152 2888 BoxF
2152 2888 BoxF
2152 2888 BoxF
2157 2903 BoxF
2157 2903 BoxF
2157 2903 BoxF
2162 2922 BoxF
2162 2922 BoxF
2162 2922 BoxF
2167 2934 BoxF
2167 2934 BoxF
2167 2934 BoxF
2171 2945 BoxF
2171 2945 BoxF
2171 2945 BoxF
2176 2956 BoxF
2176 2956 BoxF
2176 2956 BoxF
2181 2967 BoxF
2181 2967 BoxF
2181 2967 BoxF
2186 2978 BoxF
2186 2978 BoxF
2186 2978 BoxF
2191 2989 BoxF
2191 2989 BoxF
2191 2989 BoxF
2196 2999 BoxF
2196 2999 BoxF
2196 2999 BoxF
2201 3009 BoxF
2201 3009 BoxF
2201 3009 BoxF
2206 3019 BoxF
2206 3019 BoxF
2206 3019 BoxF
2211 3029 BoxF
2211 3029 BoxF
2211 3029 BoxF
2216 3038 BoxF
2216 3038 BoxF
2216 3038 BoxF
2221 3047 BoxF
2221 3047 BoxF
2221 3047 BoxF
2226 3056 BoxF
2226 3056 BoxF
2226 3056 BoxF
2231 3065 BoxF
2231 3065 BoxF
2231 3065 BoxF
2236 3077 BoxF
2236 3077 BoxF
2236 3077 BoxF
2241 3083 BoxF
2241 3083 BoxF
2241 3083 BoxF
2246 3090 BoxF
2246 3090 BoxF
2246 3090 BoxF
2251 3097 BoxF
2251 3097 BoxF
2251 3097 BoxF
2255 3104 BoxF
2255 3104 BoxF
2255 3104 BoxF
2260 3111 BoxF
2260 3111 BoxF
2260 3111 BoxF
2265 3118 BoxF
2265 3118 BoxF
2265 3118 BoxF
2270 3124 BoxF
2270 3124 BoxF
2270 3124 BoxF
2275 3131 BoxF
2275 3131 BoxF
2275 3131 BoxF
2280 3138 BoxF
2280 3138 BoxF
2280 3138 BoxF
2285 3144 BoxF
2285 3144 BoxF
2285 3144 BoxF
2290 3150 BoxF
2290 3150 BoxF
2290 3150 BoxF
2295 3157 BoxF
2295 3157 BoxF
2295 3157 BoxF
2300 3163 BoxF
2300 3163 BoxF
2300 3163 BoxF
2305 3169 BoxF
2305 3169 BoxF
2305 3169 BoxF
2310 3175 BoxF
2310 3175 BoxF
2310 3175 BoxF
2315 3181 BoxF
2315 3181 BoxF
2315 3181 BoxF
2320 3190 BoxF
2320 3190 BoxF
2320 3190 BoxF
2325 3194 BoxF
2325 3194 BoxF
2325 3194 BoxF
2330 3199 BoxF
2330 3199 BoxF
2330 3199 BoxF
2335 3204 BoxF
2335 3204 BoxF
2335 3204 BoxF
2339 3209 BoxF
2339 3209 BoxF
2339 3209 BoxF
2344 3213 BoxF
2344 3213 BoxF
2344 3213 BoxF
2349 3218 BoxF
2349 3218 BoxF
2349 3218 BoxF
2354 3223 BoxF
2354 3223 BoxF
2354 3223 BoxF
2359 3228 BoxF
2359 3228 BoxF
2359 3228 BoxF
2364 3232 BoxF
2364 3232 BoxF
2364 3232 BoxF
2369 3237 BoxF
2369 3237 BoxF
2369 3237 BoxF
2374 3242 BoxF
2374 3242 BoxF
2374 3242 BoxF
2379 3246 BoxF
2379 3246 BoxF
2379 3246 BoxF
2384 3251 BoxF
2384 3251 BoxF
2384 3251 BoxF
2389 3255 BoxF
2389 3255 BoxF
2389 3255 BoxF
2394 3260 BoxF
2394 3260 BoxF
2394 3260 BoxF
2399 3264 BoxF
2399 3264 BoxF
2399 3264 BoxF
2404 3269 BoxF
2404 3269 BoxF
2404 3269 BoxF
2409 3273 BoxF
2409 3273 BoxF
2409 3273 BoxF
2414 3277 BoxF
2414 3277 BoxF
2414 3277 BoxF
2419 3285 BoxF
2419 3285 BoxF
2419 3285 BoxF
2423 3288 BoxF
2423 3288 BoxF
2423 3288 BoxF
2428 3291 BoxF
2428 3291 BoxF
2428 3291 BoxF
2433 3295 BoxF
2433 3295 BoxF
2433 3295 BoxF
2438 3298 BoxF
2438 3298 BoxF
2438 3298 BoxF
2443 3302 BoxF
2443 3302 BoxF
2443 3302 BoxF
2448 3305 BoxF
2448 3305 BoxF
2448 3305 BoxF
2453 3309 BoxF
2453 3309 BoxF
2453 3309 BoxF
2458 3312 BoxF
2458 3312 BoxF
2458 3312 BoxF
2463 3316 BoxF
2463 3316 BoxF
2463 3316 BoxF
2468 3319 BoxF
2468 3319 BoxF
2468 3319 BoxF
2473 3323 BoxF
2473 3323 BoxF
2473 3323 BoxF
2478 3326 BoxF
2478 3326 BoxF
2478 3326 BoxF
2483 3330 BoxF
2483 3330 BoxF
2483 3330 BoxF
2488 3333 BoxF
2488 3333 BoxF
2488 3333 BoxF
2493 3337 BoxF
2493 3337 BoxF
2493 3337 BoxF
2498 3340 BoxF
2498 3340 BoxF
2498 3340 BoxF
2503 3344 BoxF
2503 3344 BoxF
2503 3344 BoxF
2508 3347 BoxF
2508 3347 BoxF
2508 3347 BoxF
2512 3350 BoxF
2512 3350 BoxF
2512 3350 BoxF
2517 3354 BoxF
2517 3354 BoxF
2517 3354 BoxF
2522 3357 BoxF
2522 3357 BoxF
2522 3357 BoxF
2527 3360 BoxF
2527 3360 BoxF
2527 3360 BoxF
2532 3364 BoxF
2532 3364 BoxF
2532 3364 BoxF
2537 3370 BoxF
2537 3370 BoxF
2537 3370 BoxF
2542 3372 BoxF
2542 3372 BoxF
2542 3372 BoxF
2547 3375 BoxF
2547 3375 BoxF
2547 3375 BoxF
2552 3377 BoxF
2552 3377 BoxF
2552 3377 BoxF
2557 3380 BoxF
2557 3380 BoxF
2557 3380 BoxF
2562 3383 BoxF
2562 3383 BoxF
2562 3383 BoxF
2567 3385 BoxF
2567 3385 BoxF
2567 3385 BoxF
2572 3388 BoxF
2572 3388 BoxF
2572 3388 BoxF
2577 3391 BoxF
2577 3391 BoxF
2577 3391 BoxF
2582 3393 BoxF
2582 3393 BoxF
2582 3393 BoxF
2587 3396 BoxF
2587 3396 BoxF
2587 3396 BoxF
2592 3399 BoxF
2592 3399 BoxF
2592 3399 BoxF
2596 3401 BoxF
2596 3401 BoxF
2596 3401 BoxF
2601 3404 BoxF
2601 3404 BoxF
2601 3404 BoxF
2606 3407 BoxF
2606 3407 BoxF
2606 3407 BoxF
2611 3409 BoxF
2611 3409 BoxF
2611 3409 BoxF
2616 3412 BoxF
2616 3412 BoxF
2616 3412 BoxF
2621 3415 BoxF
2621 3415 BoxF
2621 3415 BoxF
2626 3417 BoxF
2626 3417 BoxF
2626 3417 BoxF
2631 3420 BoxF
2631 3420 BoxF
2631 3420 BoxF
2636 3423 BoxF
2636 3423 BoxF
2636 3423 BoxF
2641 3425 BoxF
2641 3425 BoxF
2641 3425 BoxF
2646 3428 BoxF
2646 3428 BoxF
2646 3428 BoxF
2651 3431 BoxF
2651 3431 BoxF
2651 3431 BoxF
2656 3433 BoxF
2656 3433 BoxF
2656 3433 BoxF
2661 3436 BoxF
2661 3436 BoxF
2661 3436 BoxF
2666 3438 BoxF
2666 3438 BoxF
2666 3438 BoxF
2671 3441 BoxF
2671 3441 BoxF
2671 3441 BoxF
2676 3443 BoxF
2676 3443 BoxF
2676 3443 BoxF
2680 3446 BoxF
2680 3446 BoxF
2680 3446 BoxF
2685 3451 BoxF
2685 3451 BoxF
2685 3451 BoxF
2690 3453 BoxF
2690 3453 BoxF
2690 3453 BoxF
2695 3455 BoxF
2695 3455 BoxF
2695 3455 BoxF
2700 3457 BoxF
2700 3457 BoxF
2700 3457 BoxF
2705 3459 BoxF
2705 3459 BoxF
2705 3459 BoxF
2710 3461 BoxF
2710 3461 BoxF
2710 3461 BoxF
2715 3463 BoxF
2715 3463 BoxF
2715 3463 BoxF
2720 3465 BoxF
2720 3465 BoxF
2720 3465 BoxF
2725 3467 BoxF
2725 3467 BoxF
2725 3467 BoxF
2730 3469 BoxF
2730 3469 BoxF
2730 3469 BoxF
2735 3471 BoxF
2735 3471 BoxF
2735 3471 BoxF
2740 3473 BoxF
2740 3473 BoxF
2740 3473 BoxF
2745 3475 BoxF
2745 3475 BoxF
2745 3475 BoxF
2750 3478 BoxF
2750 3478 BoxF
2750 3478 BoxF
2755 3480 BoxF
2755 3480 BoxF
2755 3480 BoxF
2760 3482 BoxF
2760 3482 BoxF
2760 3482 BoxF
2764 3484 BoxF
2764 3484 BoxF
2764 3484 BoxF
2769 3486 BoxF
2769 3486 BoxF
2769 3486 BoxF
2774 3488 BoxF
2774 3488 BoxF
2774 3488 BoxF
2779 3490 BoxF
2779 3490 BoxF
2779 3490 BoxF
2784 3492 BoxF
2784 3492 BoxF
2784 3492 BoxF
2789 3494 BoxF
2789 3494 BoxF
2789 3494 BoxF
2794 3497 BoxF
2794 3497 BoxF
2794 3497 BoxF
2799 3499 BoxF
2799 3499 BoxF
2799 3499 BoxF
2804 3501 BoxF
2804 3501 BoxF
2804 3501 BoxF
2809 3503 BoxF
2809 3503 BoxF
2809 3503 BoxF
2814 3505 BoxF
2814 3505 BoxF
2814 3505 BoxF
2819 3507 BoxF
2819 3507 BoxF
2819 3507 BoxF
2824 3509 BoxF
2824 3509 BoxF
2824 3509 BoxF
2829 3511 BoxF
2829 3511 BoxF
2829 3511 BoxF
2834 3513 BoxF
2834 3513 BoxF
2834 3513 BoxF
2839 3515 BoxF
2839 3515 BoxF
2839 3515 BoxF
2844 3517 BoxF
2844 3517 BoxF
2844 3517 BoxF
2849 3519 BoxF
2849 3519 BoxF
2849 3519 BoxF
2853 3521 BoxF
2853 3521 BoxF
2853 3521 BoxF
2858 3523 BoxF
2858 3523 BoxF
2858 3523 BoxF
2863 3528 BoxF
2863 3528 BoxF
2863 3528 BoxF
2868 3530 BoxF
2868 3530 BoxF
2868 3530 BoxF
2873 3531 BoxF
2873 3531 BoxF
2873 3531 BoxF
2878 3533 BoxF
2878 3533 BoxF
2878 3533 BoxF
2883 3534 BoxF
2883 3534 BoxF
2883 3534 BoxF
2888 3536 BoxF
2888 3536 BoxF
2888 3536 BoxF
2893 3537 BoxF
2893 3537 BoxF
2893 3537 BoxF
2898 3539 BoxF
2898 3539 BoxF
2898 3539 BoxF
2903 3540 BoxF
2903 3540 BoxF
2903 3540 BoxF
2908 3542 BoxF
2908 3542 BoxF
2908 3542 BoxF
2913 3544 BoxF
2913 3544 BoxF
2913 3544 BoxF
2918 3545 BoxF
2918 3545 BoxF
2918 3545 BoxF
2923 3547 BoxF
2923 3547 BoxF
2923 3547 BoxF
2928 3549 BoxF
2928 3549 BoxF
2928 3549 BoxF
2933 3550 BoxF
2933 3550 BoxF
2933 3550 BoxF
2937 3552 BoxF
2937 3552 BoxF
2937 3552 BoxF
2942 3554 BoxF
2942 3554 BoxF
2942 3554 BoxF
2947 3555 BoxF
2947 3555 BoxF
2947 3555 BoxF
2952 3557 BoxF
2952 3557 BoxF
2952 3557 BoxF
2957 3559 BoxF
2957 3559 BoxF
2957 3559 BoxF
2962 3560 BoxF
2962 3560 BoxF
2962 3560 BoxF
2967 3562 BoxF
2967 3562 BoxF
2967 3562 BoxF
2972 3564 BoxF
2972 3564 BoxF
2972 3564 BoxF
2977 3565 BoxF
2977 3565 BoxF
2977 3565 BoxF
2982 3567 BoxF
2982 3567 BoxF
2982 3567 BoxF
2987 3569 BoxF
2987 3569 BoxF
2987 3569 BoxF
2992 3570 BoxF
2992 3570 BoxF
2992 3570 BoxF
2997 3572 BoxF
2997 3572 BoxF
2997 3572 BoxF
3002 3574 BoxF
3002 3574 BoxF
3002 3574 BoxF
3007 3575 BoxF
3007 3575 BoxF
3007 3575 BoxF
3012 3577 BoxF
3012 3577 BoxF
3012 3577 BoxF
3017 3579 BoxF
3017 3579 BoxF
3017 3579 BoxF
3021 3580 BoxF
3021 3580 BoxF
3021 3580 BoxF
3026 3582 BoxF
3026 3582 BoxF
3026 3582 BoxF
3031 3584 BoxF
3031 3584 BoxF
3031 3584 BoxF
3036 3585 BoxF
3036 3585 BoxF
3036 3585 BoxF
3041 3587 BoxF
3041 3587 BoxF
3041 3587 BoxF
3046 3589 BoxF
3046 3589 BoxF
3046 3589 BoxF
3051 3590 BoxF
3051 3590 BoxF
3051 3590 BoxF
3056 3592 BoxF
3056 3592 BoxF
3056 3592 BoxF
3061 3593 BoxF
3061 3593 BoxF
3061 3593 BoxF
3066 3595 BoxF
3066 3595 BoxF
3066 3595 BoxF
3071 3597 BoxF
3071 3597 BoxF
3071 3597 BoxF
3076 3598 BoxF
3076 3598 BoxF
3076 3598 BoxF
3081 3600 BoxF
3081 3600 BoxF
3081 3600 BoxF
3086 3601 BoxF
3086 3601 BoxF
3086 3601 BoxF
3091 3606 BoxF
3091 3606 BoxF
3091 3606 BoxF
3096 3608 BoxF
3096 3608 BoxF
3096 3608 BoxF
3101 3609 BoxF
3101 3609 BoxF
3101 3609 BoxF
3105 3610 BoxF
3105 3610 BoxF
3105 3610 BoxF
3110 3611 BoxF
3110 3611 BoxF
3110 3611 BoxF
3115 3612 BoxF
3115 3612 BoxF
3115 3612 BoxF
3120 3613 BoxF
3120 3613 BoxF
3120 3613 BoxF
3125 3615 BoxF
3125 3615 BoxF
3125 3615 BoxF
3130 3616 BoxF
3130 3616 BoxF
3130 3616 BoxF
3135 3617 BoxF
3135 3617 BoxF
3135 3617 BoxF
3140 3618 BoxF
3140 3618 BoxF
3140 3618 BoxF
3145 3620 BoxF
3145 3620 BoxF
3145 3620 BoxF
3150 3621 BoxF
3150 3621 BoxF
3150 3621 BoxF
3155 3622 BoxF
3155 3622 BoxF
3155 3622 BoxF
3160 3623 BoxF
3160 3623 BoxF
3160 3623 BoxF
3165 3625 BoxF
3165 3625 BoxF
3165 3625 BoxF
3170 3626 BoxF
3170 3626 BoxF
3170 3626 BoxF
3175 3627 BoxF
3175 3627 BoxF
3175 3627 BoxF
3180 3629 BoxF
3180 3629 BoxF
3180 3629 BoxF
3185 3630 BoxF
3185 3630 BoxF
3185 3630 BoxF
3190 3631 BoxF
3190 3631 BoxF
3190 3631 BoxF
3194 3633 BoxF
3194 3633 BoxF
3194 3633 BoxF
3199 3634 BoxF
3199 3634 BoxF
3199 3634 BoxF
3204 3635 BoxF
3204 3635 BoxF
3204 3635 BoxF
3209 3637 BoxF
3209 3637 BoxF
3209 3637 BoxF
3214 3638 BoxF
3214 3638 BoxF
3214 3638 BoxF
3219 3639 BoxF
3219 3639 BoxF
3219 3639 BoxF
3224 3641 BoxF
3224 3641 BoxF
3224 3641 BoxF
3229 3642 BoxF
3229 3642 BoxF
3229 3642 BoxF
3234 3643 BoxF
3234 3643 BoxF
3234 3643 BoxF
3239 3645 BoxF
3239 3645 BoxF
3239 3645 BoxF
3244 3646 BoxF
3244 3646 BoxF
3244 3646 BoxF
3249 3647 BoxF
3249 3647 BoxF
3249 3647 BoxF
3254 3649 BoxF
3254 3649 BoxF
3254 3649 BoxF
3259 3650 BoxF
3259 3650 BoxF
3259 3650 BoxF
3264 3651 BoxF
3264 3651 BoxF
3264 3651 BoxF
3269 3653 BoxF
3269 3653 BoxF
3269 3653 BoxF
3274 3654 BoxF
3274 3654 BoxF
3274 3654 BoxF
3278 3655 BoxF
3278 3655 BoxF
3278 3655 BoxF
3283 3657 BoxF
3283 3657 BoxF
3283 3657 BoxF
3288 3658 BoxF
3288 3658 BoxF
3288 3658 BoxF
3293 3659 BoxF
3293 3659 BoxF
3293 3659 BoxF
3298 3661 BoxF
3298 3661 BoxF
3298 3661 BoxF
3303 3662 BoxF
3303 3662 BoxF
3303 3662 BoxF
3308 3663 BoxF
3308 3663 BoxF
3308 3663 BoxF
3313 3665 BoxF
3313 3665 BoxF
3313 3665 BoxF
3318 3666 BoxF
3318 3666 BoxF
3318 3666 BoxF
3323 3667 BoxF
3323 3667 BoxF
3323 3667 BoxF
3328 3668 BoxF
3328 3668 BoxF
3328 3668 BoxF
3333 3670 BoxF
3333 3670 BoxF
3333 3670 BoxF
3338 3671 BoxF
3338 3671 BoxF
3338 3671 BoxF
3343 3672 BoxF
3343 3672 BoxF
3343 3672 BoxF
3348 3674 BoxF
3348 3674 BoxF
3348 3674 BoxF
3353 3675 BoxF
3353 3675 BoxF
3353 3675 BoxF
3358 3676 BoxF
3358 3676 BoxF
3358 3676 BoxF
3362 3677 BoxF
3362 3677 BoxF
3362 3677 BoxF
3367 3679 BoxF
3367 3679 BoxF
3367 3679 BoxF
3372 3680 BoxF
3372 3680 BoxF
3372 3680 BoxF
3377 3681 BoxF
3377 3681 BoxF
3377 3681 BoxF
3382 3683 BoxF
3382 3683 BoxF
3382 3683 BoxF
3387 3684 BoxF
3387 3684 BoxF
3387 3684 BoxF
3392 3685 BoxF
3392 3685 BoxF
3392 3685 BoxF
3397 3690 BoxF
3397 3690 BoxF
3397 3690 BoxF
3402 3691 BoxF
3402 3691 BoxF
3402 3691 BoxF
3407 3692 BoxF
3407 3692 BoxF
3407 3692 BoxF
3412 3693 BoxF
3412 3693 BoxF
3412 3693 BoxF
3417 3694 BoxF
3417 3694 BoxF
3417 3694 BoxF
3422 3694 BoxF
3422 3694 BoxF
3422 3694 BoxF
3427 3695 BoxF
3427 3695 BoxF
3427 3695 BoxF
3432 3696 BoxF
3432 3696 BoxF
3432 3696 BoxF
3437 3697 BoxF
3437 3697 BoxF
3437 3697 BoxF
3442 3698 BoxF
3442 3698 BoxF
3442 3698 BoxF
3447 3699 BoxF
3447 3699 BoxF
3447 3699 BoxF
3451 3700 BoxF
3451 3700 BoxF
3451 3700 BoxF
3456 3701 BoxF
3456 3701 BoxF
3456 3701 BoxF
3461 3702 BoxF
3461 3702 BoxF
3461 3702 BoxF
3466 3703 BoxF
3466 3703 BoxF
3466 3703 BoxF
3471 3704 BoxF
3471 3704 BoxF
3471 3704 BoxF
3476 3705 BoxF
3476 3705 BoxF
3476 3705 BoxF
3481 3706 BoxF
3481 3706 BoxF
3481 3706 BoxF
3486 3707 BoxF
3486 3707 BoxF
3486 3707 BoxF
3491 3708 BoxF
3491 3708 BoxF
3491 3708 BoxF
3496 3709 BoxF
3496 3709 BoxF
3496 3709 BoxF
3501 3710 BoxF
3501 3710 BoxF
3501 3710 BoxF
3506 3711 BoxF
3506 3711 BoxF
3506 3711 BoxF
3511 3712 BoxF
3511 3712 BoxF
3511 3712 BoxF
3516 3713 BoxF
3516 3713 BoxF
3516 3713 BoxF
3521 3714 BoxF
3521 3714 BoxF
3521 3714 BoxF
3526 3715 BoxF
3526 3715 BoxF
3526 3715 BoxF
3531 3716 BoxF
3531 3716 BoxF
3531 3716 BoxF
3535 3717 BoxF
3535 3717 BoxF
3535 3717 BoxF
3540 3718 BoxF
3540 3718 BoxF
3540 3718 BoxF
3545 3719 BoxF
3545 3719 BoxF
3545 3719 BoxF
3550 3721 BoxF
3550 3721 BoxF
3550 3721 BoxF
3555 3722 BoxF
3555 3722 BoxF
3555 3722 BoxF
3560 3723 BoxF
3560 3723 BoxF
3560 3723 BoxF
3565 3724 BoxF
3565 3724 BoxF
3565 3724 BoxF
3570 3725 BoxF
3570 3725 BoxF
3570 3725 BoxF
3575 3726 BoxF
3575 3726 BoxF
3575 3726 BoxF
3580 3727 BoxF
3580 3727 BoxF
3580 3727 BoxF
3585 3728 BoxF
3585 3728 BoxF
3585 3728 BoxF
3590 3729 BoxF
3590 3729 BoxF
3590 3729 BoxF
3595 3730 BoxF
3595 3730 BoxF
3595 3730 BoxF
3600 3731 BoxF
3600 3731 BoxF
3600 3731 BoxF
3605 3732 BoxF
3605 3732 BoxF
3605 3732 BoxF
3610 3733 BoxF
3610 3733 BoxF
3610 3733 BoxF
3615 3734 BoxF
3615 3734 BoxF
3615 3734 BoxF
3619 3735 BoxF
3619 3735 BoxF
3619 3735 BoxF
3624 3736 BoxF
3624 3736 BoxF
3624 3736 BoxF
3629 3737 BoxF
3629 3737 BoxF
3629 3737 BoxF
3634 3739 BoxF
3634 3739 BoxF
3634 3739 BoxF
3639 3740 BoxF
3639 3740 BoxF
3639 3740 BoxF
3644 3741 BoxF
3644 3741 BoxF
3644 3741 BoxF
3649 3742 BoxF
3649 3742 BoxF
3649 3742 BoxF
3654 3743 BoxF
3654 3743 BoxF
3654 3743 BoxF
3659 3744 BoxF
3659 3744 BoxF
3659 3744 BoxF
3664 3745 BoxF
3664 3745 BoxF
3664 3745 BoxF
3669 3746 BoxF
3669 3746 BoxF
3669 3746 BoxF
3674 3747 BoxF
3674 3747 BoxF
3674 3747 BoxF
3679 3748 BoxF
3679 3748 BoxF
3679 3748 BoxF
3684 3749 BoxF
3684 3749 BoxF
3684 3749 BoxF
3689 3750 BoxF
3689 3750 BoxF
3689 3750 BoxF
3694 3751 BoxF
3694 3751 BoxF
3694 3751 BoxF
3699 3752 BoxF
3699 3752 BoxF
3699 3752 BoxF
3703 3753 BoxF
3703 3753 BoxF
3703 3753 BoxF
3708 3754 BoxF
3708 3754 BoxF
3708 3754 BoxF
3713 3755 BoxF
3713 3755 BoxF
3713 3755 BoxF
3718 3756 BoxF
3718 3756 BoxF
3718 3756 BoxF
3723 3757 BoxF
3723 3757 BoxF
3723 3757 BoxF
3728 3758 BoxF
3728 3758 BoxF
3728 3758 BoxF
3733 3759 BoxF
3733 3759 BoxF
3733 3759 BoxF
3738 3761 BoxF
3738 3761 BoxF
3738 3761 BoxF
3743 3762 BoxF
3743 3762 BoxF
3743 3762 BoxF
3748 3763 BoxF
3748 3763 BoxF
3748 3763 BoxF
3753 3764 BoxF
3753 3764 BoxF
3753 3764 BoxF
3758 3765 BoxF
3758 3765 BoxF
3758 3765 BoxF
3763 3766 BoxF
3763 3766 BoxF
3763 3766 BoxF
3768 3767 BoxF
3768 3767 BoxF
3768 3767 BoxF
3773 3768 BoxF
3773 3768 BoxF
3773 3768 BoxF
3778 3769 BoxF
3778 3769 BoxF
3778 3769 BoxF
3783 3770 BoxF
3783 3770 BoxF
3783 3770 BoxF
3788 3771 BoxF
3788 3771 BoxF
3788 3771 BoxF
3792 3772 BoxF
3792 3772 BoxF
3792 3772 BoxF
3797 3773 BoxF
3797 3773 BoxF
3797 3773 BoxF
3802 3774 BoxF
3802 3774 BoxF
3802 3774 BoxF
3807 3774 BoxF
3807 3774 BoxF
3807 3774 BoxF
3812 3775 BoxF
3812 3775 BoxF
3812 3775 BoxF
3817 3781 BoxF
3817 3781 BoxF
3817 3781 BoxF
3822 3782 BoxF
3822 3782 BoxF
3822 3782 BoxF
3827 3782 BoxF
3827 3782 BoxF
3827 3782 BoxF
3832 3783 BoxF
3832 3783 BoxF
3832 3783 BoxF
3837 3784 BoxF
3837 3784 BoxF
3837 3784 BoxF
3842 3784 BoxF
3842 3784 BoxF
3842 3784 BoxF
3847 3785 BoxF
3847 3785 BoxF
3847 3785 BoxF
3852 3786 BoxF
3852 3786 BoxF
3852 3786 BoxF
3857 3786 BoxF
3857 3786 BoxF
3857 3786 BoxF
3862 3787 BoxF
3862 3787 BoxF
3862 3787 BoxF
3867 3788 BoxF
3867 3788 BoxF
3867 3788 BoxF
3872 3789 BoxF
3872 3789 BoxF
3872 3789 BoxF
3876 3789 BoxF
3876 3789 BoxF
3876 3789 BoxF
3881 3790 BoxF
3881 3790 BoxF
3881 3790 BoxF
3886 3791 BoxF
3886 3791 BoxF
3886 3791 BoxF
3891 3791 BoxF
3891 3791 BoxF
3891 3791 BoxF
3896 3792 BoxF
3896 3792 BoxF
3896 3792 BoxF
3901 3793 BoxF
3901 3793 BoxF
3901 3793 BoxF
3906 3794 BoxF
3906 3794 BoxF
3906 3794 BoxF
3911 3794 BoxF
3911 3794 BoxF
3911 3794 BoxF
3916 3795 BoxF
3916 3795 BoxF
3916 3795 BoxF
3921 3796 BoxF
3921 3796 BoxF
3921 3796 BoxF
3926 3797 BoxF
3926 3797 BoxF
3926 3797 BoxF
3931 3798 BoxF
3931 3798 BoxF
3931 3798 BoxF
3936 3798 BoxF
3936 3798 BoxF
3936 3798 BoxF
3941 3799 BoxF
3941 3799 BoxF
3941 3799 BoxF
3946 3800 BoxF
3946 3800 BoxF
3946 3800 BoxF
3951 3801 BoxF
3951 3801 BoxF
3951 3801 BoxF
3956 3801 BoxF
3956 3801 BoxF
3956 3801 BoxF
3960 3802 BoxF
3960 3802 BoxF
3960 3802 BoxF
3965 3803 BoxF
3965 3803 BoxF
3965 3803 BoxF
3970 3804 BoxF
3970 3804 BoxF
3970 3804 BoxF
3975 3805 BoxF
3975 3805 BoxF
3975 3805 BoxF
3980 3805 BoxF
3980 3805 BoxF
3980 3805 BoxF
3985 3806 BoxF
3985 3806 BoxF
3985 3806 BoxF
3990 3807 BoxF
3990 3807 BoxF
3990 3807 BoxF
3995 3808 BoxF
3995 3808 BoxF
3995 3808 BoxF
4000 3809 BoxF
4000 3809 BoxF
4000 3809 BoxF
4005 3809 BoxF
4005 3809 BoxF
4005 3809 BoxF
4010 3810 BoxF
4010 3810 BoxF
4010 3810 BoxF
4015 3811 BoxF
4015 3811 BoxF
4015 3811 BoxF
4020 3812 BoxF
4020 3812 BoxF
4020 3812 BoxF
4025 3813 BoxF
4025 3813 BoxF
4025 3813 BoxF
4030 3813 BoxF
4030 3813 BoxF
4030 3813 BoxF
4035 3814 BoxF
4035 3814 BoxF
4035 3814 BoxF
4040 3815 BoxF
4040 3815 BoxF
4040 3815 BoxF
4044 3816 BoxF
4044 3816 BoxF
4044 3816 BoxF
4049 3817 BoxF
4049 3817 BoxF
4049 3817 BoxF
4054 3818 BoxF
4054 3818 BoxF
4054 3818 BoxF
4059 3818 BoxF
4059 3818 BoxF
4059 3818 BoxF
4064 3819 BoxF
4064 3819 BoxF
4064 3819 BoxF
4069 3820 BoxF
4069 3820 BoxF
4069 3820 BoxF
4074 3821 BoxF
4074 3821 BoxF
4074 3821 BoxF
4079 3822 BoxF
4079 3822 BoxF
4079 3822 BoxF
4084 3823 BoxF
4084 3823 BoxF
4084 3823 BoxF
4089 3823 BoxF
4089 3823 BoxF
4089 3823 BoxF
4094 3824 BoxF
4094 3824 BoxF
4094 3824 BoxF
4099 3825 BoxF
4099 3825 BoxF
4099 3825 BoxF
4104 3826 BoxF
4104 3826 BoxF
4104 3826 BoxF
4109 3827 BoxF
4109 3827 BoxF
4109 3827 BoxF
4114 3828 BoxF
4114 3828 BoxF
4114 3828 BoxF
4119 3828 BoxF
4119 3828 BoxF
4119 3828 BoxF
4124 3829 BoxF
4124 3829 BoxF
4124 3829 BoxF
4129 3830 BoxF
4129 3830 BoxF
4129 3830 BoxF
4133 3831 BoxF
4133 3831 BoxF
4133 3831 BoxF
4138 3832 BoxF
4138 3832 BoxF
4138 3832 BoxF
4143 3832 BoxF
4143 3832 BoxF
4143 3832 BoxF
4148 3833 BoxF
4148 3833 BoxF
4148 3833 BoxF
4153 3834 BoxF
4153 3834 BoxF
4153 3834 BoxF
4158 3835 BoxF
4158 3835 BoxF
4158 3835 BoxF
4163 3836 BoxF
4163 3836 BoxF
4163 3836 BoxF
4168 3837 BoxF
4168 3837 BoxF
4168 3837 BoxF
4173 3837 BoxF
4173 3837 BoxF
4173 3837 BoxF
4178 3838 BoxF
4178 3838 BoxF
4178 3838 BoxF
4183 3839 BoxF
4183 3839 BoxF
4183 3839 BoxF
4188 3840 BoxF
4188 3840 BoxF
4188 3840 BoxF
4193 3841 BoxF
4193 3841 BoxF
4193 3841 BoxF
4198 3842 BoxF
4198 3842 BoxF
4198 3842 BoxF
4203 3842 BoxF
4203 3842 BoxF
4203 3842 BoxF
4208 3843 BoxF
4208 3843 BoxF
4208 3843 BoxF
4213 3844 BoxF
4213 3844 BoxF
4213 3844 BoxF
4217 3845 BoxF
4217 3845 BoxF
4217 3845 BoxF
4222 3846 BoxF
4222 3846 BoxF
4222 3846 BoxF
4227 3846 BoxF
4227 3846 BoxF
4227 3846 BoxF
4232 3847 BoxF
4232 3847 BoxF
4232 3847 BoxF
4237 3848 BoxF
4237 3848 BoxF
4237 3848 BoxF
4242 3849 BoxF
4242 3849 BoxF
4242 3849 BoxF
4247 3850 BoxF
4247 3850 BoxF
4247 3850 BoxF
4252 3851 BoxF
4252 3851 BoxF
4252 3851 BoxF
4257 3851 BoxF
4257 3851 BoxF
4257 3851 BoxF
4262 3852 BoxF
4262 3852 BoxF
4262 3852 BoxF
4267 3853 BoxF
4267 3853 BoxF
4267 3853 BoxF
4272 3854 BoxF
4272 3854 BoxF
4272 3854 BoxF
4277 3855 BoxF
4277 3855 BoxF
4277 3855 BoxF
4282 3855 BoxF
4282 3855 BoxF
4282 3855 BoxF
4287 3856 BoxF
4287 3856 BoxF
4287 3856 BoxF
4292 3857 BoxF
4292 3857 BoxF
4292 3857 BoxF
4297 3858 BoxF
4297 3858 BoxF
4297 3858 BoxF
4301 3859 BoxF
4301 3859 BoxF
4301 3859 BoxF
4306 3859 BoxF
4306 3859 BoxF
4306 3859 BoxF
4311 3860 BoxF
4311 3860 BoxF
4311 3860 BoxF
4316 3861 BoxF
4316 3861 BoxF
4316 3861 BoxF
4321 3862 BoxF
4321 3862 BoxF
4321 3862 BoxF
4326 3862 BoxF
4326 3862 BoxF
4326 3862 BoxF
4331 3863 BoxF
4331 3863 BoxF
4331 3863 BoxF
4336 3864 BoxF
4336 3864 BoxF
4336 3864 BoxF
4341 3865 BoxF
4341 3865 BoxF
4341 3865 BoxF
4346 3866 BoxF
4346 3866 BoxF
4346 3866 BoxF
4351 3866 BoxF
4351 3866 BoxF
4351 3866 BoxF
4356 3867 BoxF
4356 3867 BoxF
4356 3867 BoxF
4361 3868 BoxF
4361 3868 BoxF
4361 3868 BoxF
4366 3869 BoxF
4366 3869 BoxF
4366 3869 BoxF
4371 3869 BoxF
4371 3869 BoxF
4371 3869 BoxF
4376 3870 BoxF
4376 3870 BoxF
4376 3870 BoxF
4381 3871 BoxF
4381 3871 BoxF
4381 3871 BoxF
4385 3872 BoxF
4385 3872 BoxF
4385 3872 BoxF
4390 3872 BoxF
4390 3872 BoxF
4390 3872 BoxF
4395 3873 BoxF
4395 3873 BoxF
4395 3873 BoxF
4400 3874 BoxF
4400 3874 BoxF
4400 3874 BoxF
4405 3875 BoxF
4405 3875 BoxF
4405 3875 BoxF
4410 3875 BoxF
4410 3875 BoxF
4410 3875 BoxF
4415 3876 BoxF
4415 3876 BoxF
4415 3876 BoxF
4420 3877 BoxF
4420 3877 BoxF
4420 3877 BoxF
4425 3878 BoxF
4425 3878 BoxF
4425 3878 BoxF
4430 3878 BoxF
4430 3878 BoxF
4430 3878 BoxF
4435 3885 BoxF
4435 3885 BoxF
4435 3885 BoxF
4440 3886 BoxF
4440 3886 BoxF
4440 3886 BoxF
4445 3886 BoxF
4445 3886 BoxF
4445 3886 BoxF
4450 3887 BoxF
4450 3887 BoxF
4450 3887 BoxF
4455 3887 BoxF
4455 3887 BoxF
4455 3887 BoxF
4460 3888 BoxF
4460 3888 BoxF
4460 3888 BoxF
4465 3888 BoxF
4465 3888 BoxF
4465 3888 BoxF
4470 3889 BoxF
4470 3889 BoxF
4470 3889 BoxF
4474 3889 BoxF
4474 3889 BoxF
4474 3889 BoxF
4479 3890 BoxF
4479 3890 BoxF
4479 3890 BoxF
4484 3890 BoxF
4484 3890 BoxF
4484 3890 BoxF
4489 3891 BoxF
4489 3891 BoxF
4489 3891 BoxF
4494 3891 BoxF
4494 3891 BoxF
4494 3891 BoxF
4499 3892 BoxF
4499 3892 BoxF
4499 3892 BoxF
4504 3892 BoxF
4504 3892 BoxF
4504 3892 BoxF
4509 3893 BoxF
4509 3893 BoxF
4509 3893 BoxF
4514 3893 BoxF
4514 3893 BoxF
4514 3893 BoxF
4519 3894 BoxF
4519 3894 BoxF
4519 3894 BoxF
4524 3894 BoxF
4524 3894 BoxF
4524 3894 BoxF
4529 3895 BoxF
4529 3895 BoxF
4529 3895 BoxF
4534 3895 BoxF
4534 3895 BoxF
4534 3895 BoxF
4539 3896 BoxF
4539 3896 BoxF
4539 3896 BoxF
4544 3896 BoxF
4544 3896 BoxF
4544 3896 BoxF
4549 3897 BoxF
4549 3897 BoxF
4549 3897 BoxF
4554 3897 BoxF
4554 3897 BoxF
4554 3897 BoxF
4558 3898 BoxF
4558 3898 BoxF
4558 3898 BoxF
4563 3898 BoxF
4563 3898 BoxF
4563 3898 BoxF
4568 3899 BoxF
4568 3899 BoxF
4568 3899 BoxF
4573 3899 BoxF
4573 3899 BoxF
4573 3899 BoxF
4578 3900 BoxF
4578 3900 BoxF
4578 3900 BoxF
4583 3900 BoxF
4583 3900 BoxF
4583 3900 BoxF
4588 3901 BoxF
4588 3901 BoxF
4588 3901 BoxF
4593 3901 BoxF
4593 3901 BoxF
4593 3901 BoxF
4598 3902 BoxF
4598 3902 BoxF
4598 3902 BoxF
4603 3903 BoxF
4603 3903 BoxF
4603 3903 BoxF
4608 3903 BoxF
4608 3903 BoxF
4608 3903 BoxF
4613 3904 BoxF
4613 3904 BoxF
4613 3904 BoxF
4618 3904 BoxF
4618 3904 BoxF
4618 3904 BoxF
4623 3905 BoxF
4623 3905 BoxF
4623 3905 BoxF
4628 3905 BoxF
4628 3905 BoxF
4628 3905 BoxF
4633 3906 BoxF
4633 3906 BoxF
4633 3906 BoxF
4638 3907 BoxF
4638 3907 BoxF
4638 3907 BoxF
4642 3907 BoxF
4642 3907 BoxF
4642 3907 BoxF
4647 3908 BoxF
4647 3908 BoxF
4647 3908 BoxF
4652 3908 BoxF
4652 3908 BoxF
4652 3908 BoxF
4657 3909 BoxF
4657 3909 BoxF
4657 3909 BoxF
4662 3909 BoxF
4662 3909 BoxF
4662 3909 BoxF
4667 3910 BoxF
4667 3910 BoxF
4667 3910 BoxF
4672 3911 BoxF
4672 3911 BoxF
4672 3911 BoxF
4677 3911 BoxF
4677 3911 BoxF
4677 3911 BoxF
4682 3912 BoxF
4682 3912 BoxF
4682 3912 BoxF
4687 3912 BoxF
4687 3912 BoxF
4687 3912 BoxF
4692 3913 BoxF
4692 3913 BoxF
4692 3913 BoxF
4697 3914 BoxF
4697 3914 BoxF
4697 3914 BoxF
4702 3914 BoxF
4702 3914 BoxF
4702 3914 BoxF
4707 3915 BoxF
4707 3915 BoxF
4707 3915 BoxF
4712 3915 BoxF
4712 3915 BoxF
4712 3915 BoxF
4717 3916 BoxF
4717 3916 BoxF
4717 3916 BoxF
4722 3916 BoxF
4722 3916 BoxF
4722 3916 BoxF
4727 3917 BoxF
4727 3917 BoxF
4727 3917 BoxF
4731 3918 BoxF
4731 3918 BoxF
4731 3918 BoxF
4736 3918 BoxF
4736 3918 BoxF
4736 3918 BoxF
4741 3919 BoxF
4741 3919 BoxF
4741 3919 BoxF
4746 3919 BoxF
4746 3919 BoxF
4746 3919 BoxF
4751 3920 BoxF
4751 3920 BoxF
4751 3920 BoxF
4756 3921 BoxF
4756 3921 BoxF
4756 3921 BoxF
4761 3921 BoxF
4761 3921 BoxF
4761 3921 BoxF
4766 3922 BoxF
4766 3922 BoxF
4766 3922 BoxF
4771 3922 BoxF
4771 3922 BoxF
4771 3922 BoxF
4776 3923 BoxF
4776 3923 BoxF
4776 3923 BoxF
4781 3924 BoxF
4781 3924 BoxF
4781 3924 BoxF
4786 3924 BoxF
4786 3924 BoxF
4786 3924 BoxF
4791 3925 BoxF
4791 3925 BoxF
4791 3925 BoxF
4796 3926 BoxF
4796 3926 BoxF
4796 3926 BoxF
4801 3926 BoxF
4801 3926 BoxF
4801 3926 BoxF
4806 3927 BoxF
4806 3927 BoxF
4806 3927 BoxF
4811 3927 BoxF
4811 3927 BoxF
4811 3927 BoxF
4815 3928 BoxF
4815 3928 BoxF
4815 3928 BoxF
4820 3929 BoxF
4820 3929 BoxF
4820 3929 BoxF
4825 3929 BoxF
4825 3929 BoxF
4825 3929 BoxF
4830 3930 BoxF
4830 3930 BoxF
4830 3930 BoxF
4835 3930 BoxF
4835 3930 BoxF
4835 3930 BoxF
4840 3931 BoxF
4840 3931 BoxF
4840 3931 BoxF
4845 3932 BoxF
4845 3932 BoxF
4845 3932 BoxF
4850 3932 BoxF
4850 3932 BoxF
4850 3932 BoxF
4855 3933 BoxF
4855 3933 BoxF
4855 3933 BoxF
4860 3933 BoxF
4860 3933 BoxF
4860 3933 BoxF
4865 3934 BoxF
4865 3934 BoxF
4865 3934 BoxF
4870 3935 BoxF
4870 3935 BoxF
4870 3935 BoxF
4875 3935 BoxF
4875 3935 BoxF
4875 3935 BoxF
4880 3936 BoxF
4880 3936 BoxF
4880 3936 BoxF
4885 3936 BoxF
4885 3936 BoxF
4885 3936 BoxF
4890 3937 BoxF
4890 3937 BoxF
4890 3937 BoxF
4895 3938 BoxF
4895 3938 BoxF
4895 3938 BoxF
4899 3938 BoxF
4899 3938 BoxF
4899 3938 BoxF
4904 3939 BoxF
4904 3939 BoxF
4904 3939 BoxF
4909 3940 BoxF
4909 3940 BoxF
4909 3940 BoxF
4914 3940 BoxF
4914 3940 BoxF
4914 3940 BoxF
4919 3941 BoxF
4919 3941 BoxF
4919 3941 BoxF
4924 3941 BoxF
4924 3941 BoxF
4924 3941 BoxF
4929 3942 BoxF
4929 3942 BoxF
4929 3942 BoxF
4934 3943 BoxF
4934 3943 BoxF
4934 3943 BoxF
4939 3943 BoxF
4939 3943 BoxF
4939 3943 BoxF
4944 3944 BoxF
4944 3944 BoxF
4944 3944 BoxF
4949 3944 BoxF
4949 3944 BoxF
4949 3944 BoxF
4954 3945 BoxF
4954 3945 BoxF
4954 3945 BoxF
4959 3946 BoxF
4959 3946 BoxF
4959 3946 BoxF
4964 3946 BoxF
4964 3946 BoxF
4964 3946 BoxF
4969 3947 BoxF
4969 3947 BoxF
4969 3947 BoxF
4974 3947 BoxF
4974 3947 BoxF
4974 3947 BoxF
4979 3948 BoxF
4979 3948 BoxF
4979 3948 BoxF
4983 3949 BoxF
4983 3949 BoxF
4983 3949 BoxF
4988 3949 BoxF
4988 3949 BoxF
4988 3949 BoxF
4993 3950 BoxF
4993 3950 BoxF
4993 3950 BoxF
4998 3950 BoxF
4998 3950 BoxF
4998 3950 BoxF
5003 3951 BoxF
5003 3951 BoxF
5003 3951 BoxF
5008 3952 BoxF
5008 3952 BoxF
5008 3952 BoxF
5013 3952 BoxF
5013 3952 BoxF
5013 3952 BoxF
5018 3953 BoxF
5018 3953 BoxF
5018 3953 BoxF
5023 3953 BoxF
5023 3953 BoxF
5023 3953 BoxF
5028 3954 BoxF
5028 3954 BoxF
5028 3954 BoxF
5033 3955 BoxF
5033 3955 BoxF
5033 3955 BoxF
5038 3955 BoxF
5038 3955 BoxF
5038 3955 BoxF
5043 3956 BoxF
5043 3956 BoxF
5043 3956 BoxF
5048 3956 BoxF
5048 3956 BoxF
5048 3956 BoxF
5053 3957 BoxF
5053 3957 BoxF
5053 3957 BoxF
5058 3958 BoxF
5058 3958 BoxF
5058 3958 BoxF
5063 3958 BoxF
5063 3958 BoxF
5063 3958 BoxF
5068 3959 BoxF
5068 3959 BoxF
5068 3959 BoxF
5072 3959 BoxF
5072 3959 BoxF
5072 3959 BoxF
5077 3960 BoxF
5077 3960 BoxF
5077 3960 BoxF
5082 3961 BoxF
5082 3961 BoxF
5082 3961 BoxF
5087 3961 BoxF
5087 3961 BoxF
5087 3961 BoxF
5092 3962 BoxF
5092 3962 BoxF
5092 3962 BoxF
5097 3962 BoxF
5097 3962 BoxF
5097 3962 BoxF
5102 3963 BoxF
5102 3963 BoxF
5102 3963 BoxF
5107 3963 BoxF
5107 3963 BoxF
5107 3963 BoxF
5112 3964 BoxF
5112 3964 BoxF
5112 3964 BoxF
5117 3965 BoxF
5117 3965 BoxF
5117 3965 BoxF
5122 3965 BoxF
5122 3965 BoxF
5122 3965 BoxF
5127 3966 BoxF
5127 3966 BoxF
5127 3966 BoxF
5132 3966 BoxF
5132 3966 BoxF
5132 3966 BoxF
5137 3967 BoxF
5137 3967 BoxF
5137 3967 BoxF
5142 3968 BoxF
5142 3968 BoxF
5142 3968 BoxF
5147 3968 BoxF
5147 3968 BoxF
5147 3968 BoxF
5152 3969 BoxF
5152 3969 BoxF
5152 3969 BoxF
5156 3969 BoxF
5156 3969 BoxF
5156 3969 BoxF
5161 3970 BoxF
5161 3970 BoxF
5161 3970 BoxF
5166 3970 BoxF
5166 3970 BoxF
5166 3970 BoxF
5171 3971 BoxF
5171 3971 BoxF
5171 3971 BoxF
5176 3972 BoxF
5176 3972 BoxF
5176 3972 BoxF
5181 3972 BoxF
5181 3972 BoxF
5181 3972 BoxF
5186 3973 BoxF
5186 3973 BoxF
5186 3973 BoxF
5191 3973 BoxF
5191 3973 BoxF
5191 3973 BoxF
5196 3974 BoxF
5196 3974 BoxF
5196 3974 BoxF
5201 3974 BoxF
5201 3974 BoxF
5201 3974 BoxF
5206 3975 BoxF
5206 3975 BoxF
5206 3975 BoxF
5211 3975 BoxF
5211 3975 BoxF
5211 3975 BoxF
5216 3976 BoxF
5216 3976 BoxF
5216 3976 BoxF
5221 3977 BoxF
5221 3977 BoxF
5221 3977 BoxF
5226 3977 BoxF
5226 3977 BoxF
5226 3977 BoxF
5231 3978 BoxF
5231 3978 BoxF
5231 3978 BoxF
5236 3978 BoxF
5236 3978 BoxF
5236 3978 BoxF
5240 3979 BoxF
5240 3979 BoxF
5240 3979 BoxF
5245 3979 BoxF
5245 3979 BoxF
5245 3979 BoxF
5250 3980 BoxF
5250 3980 BoxF
5250 3980 BoxF
5255 3980 BoxF
5255 3980 BoxF
5255 3980 BoxF
5260 3981 BoxF
5260 3981 BoxF
5260 3981 BoxF
5265 3982 BoxF
5265 3982 BoxF
5265 3982 BoxF
5270 3982 BoxF
5270 3982 BoxF
5270 3982 BoxF
5275 3983 BoxF
5275 3983 BoxF
5275 3983 BoxF
5280 3983 BoxF
5280 3983 BoxF
5280 3983 BoxF
5285 3984 BoxF
5285 3984 BoxF
5285 3984 BoxF
5290 3984 BoxF
5290 3984 BoxF
5290 3984 BoxF
5295 3985 BoxF
5295 3985 BoxF
5295 3985 BoxF
5300 3985 BoxF
5300 3985 BoxF
5300 3985 BoxF
5305 3986 BoxF
5305 3986 BoxF
5305 3986 BoxF
5310 3986 BoxF
5310 3986 BoxF
5310 3986 BoxF
5315 3987 BoxF
5315 3987 BoxF
5315 3987 BoxF
5320 3987 BoxF
5320 3987 BoxF
5320 3987 BoxF
5324 3988 BoxF
5324 3988 BoxF
5324 3988 BoxF
5329 3988 BoxF
5329 3988 BoxF
5329 3988 BoxF
5334 3989 BoxF
5334 3989 BoxF
5334 3989 BoxF
5339 3989 BoxF
5339 3989 BoxF
5339 3989 BoxF
5344 3990 BoxF
5344 3990 BoxF
5344 3990 BoxF
5349 3991 BoxF
5349 3991 BoxF
5349 3991 BoxF
5354 3991 BoxF
5354 3991 BoxF
5354 3991 BoxF
5359 3992 BoxF
5359 3992 BoxF
5359 3992 BoxF
5364 3992 BoxF
5364 3992 BoxF
5364 3992 BoxF
5369 3993 BoxF
5369 3993 BoxF
5369 3993 BoxF
5374 3993 BoxF
5374 3993 BoxF
5374 3993 BoxF
5379 3994 BoxF
5379 3994 BoxF
5379 3994 BoxF
5384 3994 BoxF
5384 3994 BoxF
5384 3994 BoxF
5389 3995 BoxF
5389 3995 BoxF
5389 3995 BoxF
5394 3995 BoxF
5394 3995 BoxF
5394 3995 BoxF
5399 3996 BoxF
5399 3996 BoxF
5399 3996 BoxF
5404 3996 BoxF
5404 3996 BoxF
5404 3996 BoxF
5409 3997 BoxF
5409 3997 BoxF
5409 3997 BoxF
5413 3997 BoxF
5413 3997 BoxF
5413 3997 BoxF
5418 3998 BoxF
5418 3998 BoxF
5418 3998 BoxF
5423 3998 BoxF
5423 3998 BoxF
5423 3998 BoxF
5428 3999 BoxF
5428 3999 BoxF
5428 3999 BoxF
5433 3999 BoxF
5433 3999 BoxF
5433 3999 BoxF
5438 4000 BoxF
5438 4000 BoxF
5438 4000 BoxF
5443 4000 BoxF
5443 4000 BoxF
5443 4000 BoxF
5448 4001 BoxF
5448 4001 BoxF
5448 4001 BoxF
5453 4001 BoxF
5453 4001 BoxF
5453 4001 BoxF
5458 4011 BoxF
5458 4011 BoxF
5458 4011 BoxF
5463 4012 BoxF
5463 4012 BoxF
5463 4012 BoxF
5468 4012 BoxF
5468 4012 BoxF
5468 4012 BoxF
5473 4012 BoxF
5473 4012 BoxF
5473 4012 BoxF
5478 4012 BoxF
5478 4012 BoxF
5478 4012 BoxF
5483 4012 BoxF
5483 4012 BoxF
5483 4012 BoxF
5488 4013 BoxF
5488 4013 BoxF
5488 4013 BoxF
5493 4013 BoxF
5493 4013 BoxF
5493 4013 BoxF
5497 4013 BoxF
5497 4013 BoxF
5497 4013 BoxF
5502 4013 BoxF
5502 4013 BoxF
5502 4013 BoxF
5507 4013 BoxF
5507 4013 BoxF
5507 4013 BoxF
5512 4014 BoxF
5512 4014 BoxF
5512 4014 BoxF
5517 4014 BoxF
5517 4014 BoxF
5517 4014 BoxF
5522 4014 BoxF
5522 4014 BoxF
5522 4014 BoxF
5527 4014 BoxF
5527 4014 BoxF
5527 4014 BoxF
5532 4015 BoxF
5532 4015 BoxF
5532 4015 BoxF
5537 4015 BoxF
5537 4015 BoxF
5537 4015 BoxF
5542 4015 BoxF
5542 4015 BoxF
5542 4015 BoxF
5547 4015 BoxF
5547 4015 BoxF
5547 4015 BoxF
5552 4015 BoxF
5552 4015 BoxF
5552 4015 BoxF
5557 4016 BoxF
5557 4016 BoxF
5557 4016 BoxF
5562 4016 BoxF
5562 4016 BoxF
5562 4016 BoxF
5567 4016 BoxF
5567 4016 BoxF
5567 4016 BoxF
5572 4016 BoxF
5572 4016 BoxF
5572 4016 BoxF
5577 4017 BoxF
5577 4017 BoxF
5577 4017 BoxF
5581 4017 BoxF
5581 4017 BoxF
5581 4017 BoxF
5586 4017 BoxF
5586 4017 BoxF
5586 4017 BoxF
5591 4017 BoxF
5591 4017 BoxF
5591 4017 BoxF
5596 4018 BoxF
5596 4018 BoxF
5596 4018 BoxF
5601 4018 BoxF
5601 4018 BoxF
5601 4018 BoxF
5606 4018 BoxF
5606 4018 BoxF
5606 4018 BoxF
5611 4018 BoxF
5611 4018 BoxF
5611 4018 BoxF
5616 4019 BoxF
5616 4019 BoxF
5616 4019 BoxF
5621 4019 BoxF
5621 4019 BoxF
5621 4019 BoxF
5626 4019 BoxF
5626 4019 BoxF
5626 4019 BoxF
5631 4020 BoxF
5631 4020 BoxF
5631 4020 BoxF
5636 4020 BoxF
5636 4020 BoxF
5636 4020 BoxF
5641 4020 BoxF
5641 4020 BoxF
5641 4020 BoxF
5646 4020 BoxF
5646 4020 BoxF
5646 4020 BoxF
5651 4021 BoxF
5651 4021 BoxF
5651 4021 BoxF
5656 4021 BoxF
5656 4021 BoxF
5656 4021 BoxF
5661 4021 BoxF
5661 4021 BoxF
5661 4021 BoxF
5666 4021 BoxF
5666 4021 BoxF
5666 4021 BoxF
5670 4022 BoxF
5670 4022 BoxF
5670 4022 BoxF
5675 4022 BoxF
5675 4022 BoxF
5675 4022 BoxF
5680 4022 BoxF
5680 4022 BoxF
5680 4022 BoxF
5685 4023 BoxF
5685 4023 BoxF
5685 4023 BoxF
5690 4023 BoxF
5690 4023 BoxF
5690 4023 BoxF
5695 4023 BoxF
5695 4023 BoxF
5695 4023 BoxF
5700 4024 BoxF
5700 4024 BoxF
5700 4024 BoxF
5705 4024 BoxF
5705 4024 BoxF
5705 4024 BoxF
5710 4024 BoxF
5710 4024 BoxF
5710 4024 BoxF
5715 4024 BoxF
5715 4024 BoxF
5715 4024 BoxF
5720 4025 BoxF
5720 4025 BoxF
5720 4025 BoxF
5725 4025 BoxF
5725 4025 BoxF
5725 4025 BoxF
5730 4025 BoxF
5730 4025 BoxF
5730 4025 BoxF
5735 4026 BoxF
5735 4026 BoxF
5735 4026 BoxF
5740 4026 BoxF
5740 4026 BoxF
5740 4026 BoxF
5745 4026 BoxF
5745 4026 BoxF
5745 4026 BoxF
5750 4027 BoxF
5750 4027 BoxF
5750 4027 BoxF
5754 4027 BoxF
5754 4027 BoxF
5754 4027 BoxF
5759 4027 BoxF
5759 4027 BoxF
5759 4027 BoxF
5764 4028 BoxF
5764 4028 BoxF
5764 4028 BoxF
5769 4028 BoxF
5769 4028 BoxF
5769 4028 BoxF
5774 4028 BoxF
5774 4028 BoxF
5774 4028 BoxF
5779 4028 BoxF
5779 4028 BoxF
5779 4028 BoxF
5784 4029 BoxF
5784 4029 BoxF
5784 4029 BoxF
5789 4029 BoxF
5789 4029 BoxF
5789 4029 BoxF
5794 4029 BoxF
5794 4029 BoxF
5794 4029 BoxF
5799 4030 BoxF
5799 4030 BoxF
5799 4030 BoxF
5804 4030 BoxF
5804 4030 BoxF
5804 4030 BoxF
5809 4030 BoxF
5809 4030 BoxF
5809 4030 BoxF
5814 4031 BoxF
5814 4031 BoxF
5814 4031 BoxF
5819 4031 BoxF
5819 4031 BoxF
5819 4031 BoxF
5824 4031 BoxF
5824 4031 BoxF
5824 4031 BoxF
5829 4032 BoxF
5829 4032 BoxF
5829 4032 BoxF
5834 4032 BoxF
5834 4032 BoxF
5834 4032 BoxF
5838 4032 BoxF
5838 4032 BoxF
5838 4032 BoxF
5843 4033 BoxF
5843 4033 BoxF
5843 4033 BoxF
5848 4033 BoxF
5848 4033 BoxF
5848 4033 BoxF
5853 4033 BoxF
5853 4033 BoxF
5853 4033 BoxF
5858 4034 BoxF
5858 4034 BoxF
5858 4034 BoxF
5863 4034 BoxF
5863 4034 BoxF
5863 4034 BoxF
5868 4034 BoxF
5868 4034 BoxF
5868 4034 BoxF
5873 4035 BoxF
5873 4035 BoxF
5873 4035 BoxF
5878 4035 BoxF
5878 4035 BoxF
5878 4035 BoxF
5883 4035 BoxF
5883 4035 BoxF
5883 4035 BoxF
5888 4036 BoxF
5888 4036 BoxF
5888 4036 BoxF
5893 4036 BoxF
5893 4036 BoxF
5893 4036 BoxF
5898 4037 BoxF
5898 4037 BoxF
5898 4037 BoxF
5903 4037 BoxF
5903 4037 BoxF
5903 4037 BoxF
5908 4037 BoxF
5908 4037 BoxF
5908 4037 BoxF
5913 4038 BoxF
5913 4038 BoxF
5913 4038 BoxF
5918 4038 BoxF
5918 4038 BoxF
5918 4038 BoxF
5922 4038 BoxF
5922 4038 BoxF
5922 4038 BoxF
5927 4039 BoxF
5927 4039 BoxF
5927 4039 BoxF
5932 4039 BoxF
5932 4039 BoxF
5932 4039 BoxF
5937 4039 BoxF
5937 4039 BoxF
5937 4039 BoxF
5942 4040 BoxF
5942 4040 BoxF
5942 4040 BoxF
5947 4040 BoxF
5947 4040 BoxF
5947 4040 BoxF
5952 4040 BoxF
5952 4040 BoxF
5952 4040 BoxF
5957 4041 BoxF
5957 4041 BoxF
5957 4041 BoxF
5962 4041 BoxF
5962 4041 BoxF
5962 4041 BoxF
5967 4041 BoxF
5967 4041 BoxF
5967 4041 BoxF
5972 4042 BoxF
5972 4042 BoxF
5972 4042 BoxF
5977 4042 BoxF
5977 4042 BoxF
5977 4042 BoxF
5982 4042 BoxF
5982 4042 BoxF
5982 4042 BoxF
5987 4043 BoxF
5987 4043 BoxF
5987 4043 BoxF
5992 4043 BoxF
5992 4043 BoxF
5992 4043 BoxF
5997 4044 BoxF
5997 4044 BoxF
5997 4044 BoxF
6002 4044 BoxF
6002 4044 BoxF
6002 4044 BoxF
6007 4044 BoxF
6007 4044 BoxF
6007 4044 BoxF
6011 4045 BoxF
6011 4045 BoxF
6011 4045 BoxF
6016 4045 BoxF
6016 4045 BoxF
6016 4045 BoxF
6021 4045 BoxF
6021 4045 BoxF
6021 4045 BoxF
6026 4046 BoxF
6026 4046 BoxF
6026 4046 BoxF
6031 4046 BoxF
6031 4046 BoxF
6031 4046 BoxF
6036 4046 BoxF
6036 4046 BoxF
6036 4046 BoxF
6041 4047 BoxF
6041 4047 BoxF
6041 4047 BoxF
6046 4047 BoxF
6046 4047 BoxF
6046 4047 BoxF
6051 4047 BoxF
6051 4047 BoxF
6051 4047 BoxF
6056 4048 BoxF
6056 4048 BoxF
6056 4048 BoxF
6061 4048 BoxF
6061 4048 BoxF
6061 4048 BoxF
6066 4049 BoxF
6066 4049 BoxF
6066 4049 BoxF
6071 4049 BoxF
6071 4049 BoxF
6071 4049 BoxF
6076 4049 BoxF
6076 4049 BoxF
6076 4049 BoxF
6081 4050 BoxF
6081 4050 BoxF
6081 4050 BoxF
6086 4050 BoxF
6086 4050 BoxF
6086 4050 BoxF
6091 4050 BoxF
6091 4050 BoxF
6091 4050 BoxF
6095 4051 BoxF
6095 4051 BoxF
6095 4051 BoxF
6100 4051 BoxF
6100 4051 BoxF
6100 4051 BoxF
6105 4051 BoxF
6105 4051 BoxF
6105 4051 BoxF
6110 4052 BoxF
6110 4052 BoxF
6110 4052 BoxF
6115 4052 BoxF
6115 4052 BoxF
6115 4052 BoxF
6120 4053 BoxF
6120 4053 BoxF
6120 4053 BoxF
6125 4053 BoxF
6125 4053 BoxF
6125 4053 BoxF
6130 4053 BoxF
6130 4053 BoxF
6130 4053 BoxF
4413 4196 BoxF
% End plot #2
% Begin plot #3
0.600 UP
1.000 UL
LTb
0.00 0.00 1.00 C LCb setrgbcolor
4022 3996 M
[ [(roman) 200.0 0.0 true true 0 (zoom on small step region)]
] -66.7 MRshow
0.600 UP
1.000 UL
LTb
0.00 0.00 1.00 C 4142 3996 M
543 0 V
938 2535 M
141 -10 V
141 -11 V
142 -11 V
141 -11 V
141 -11 V
141 -11 V
141 -12 V
142 -11 V
141 -11 V
141 -11 V
141 -12 V
141 -11 V
142 -12 V
141 -11 V
141 -12 V
141 -12 V
141 -12 V
142 -12 V
141 -11 V
141 -13 V
141 -12 V
141 -12 V
142 -12 V
141 -12 V
141 -13 V
141 -12 V
141 -13 V
142 -12 V
141 -13 V
141 -13 V
141 -13 V
141 -13 V
142 -13 V
141 -13 V
141 -13 V
141 -13 V
938 2535 Box
938 2535 Box
938 2535 Box
1079 2525 Box
1079 2525 Box
1079 2525 Box
1220 2514 Box
1220 2514 Box
1220 2514 Box
1362 2503 Box
1362 2503 Box
1362 2503 Box
1503 2492 Box
1503 2492 Box
1503 2492 Box
1644 2481 Box
1644 2481 Box
1644 2481 Box
1785 2470 Box
1785 2470 Box
1785 2470 Box
1926 2458 Box
1926 2458 Box
1926 2458 Box
2068 2447 Box
2068 2447 Box
2068 2447 Box
2209 2436 Box
2209 2436 Box
2209 2436 Box
2350 2425 Box
2350 2425 Box
2350 2425 Box
2491 2413 Box
2491 2413 Box
2491 2413 Box
2632 2402 Box
2632 2402 Box
2632 2402 Box
2774 2390 Box
2774 2390 Box
2774 2390 Box
2915 2379 Box
2915 2379 Box
2915 2379 Box
3056 2367 Box
3056 2367 Box
3056 2367 Box
3197 2355 Box
3197 2355 Box
3197 2355 Box
3338 2343 Box
3338 2343 Box
3338 2343 Box
3480 2331 Box
3480 2331 Box
3480 2331 Box
3621 2320 Box
3621 2320 Box
3621 2320 Box
3762 2307 Box
3762 2307 Box
3762 2307 Box
3903 2295 Box
3903 2295 Box
3903 2295 Box
4044 2283 Box
4044 2283 Box
4044 2283 Box
4186 2271 Box
4186 2271 Box
4186 2271 Box
4327 2259 Box
4327 2259 Box
4327 2259 Box
4468 2246 Box
4468 2246 Box
4468 2246 Box
4609 2234 Box
4609 2234 Box
4609 2234 Box
4750 2221 Box
4750 2221 Box
4750 2221 Box
4892 2209 Box
4892 2209 Box
4892 2209 Box
5033 2196 Box
5033 2196 Box
5033 2196 Box
5174 2183 Box
5174 2183 Box
5174 2183 Box
5315 2170 Box
5315 2170 Box
5315 2170 Box
5456 2157 Box
5456 2157 Box
5456 2157 Box
5598 2144 Box
5598 2144 Box
5598 2144 Box
5739 2131 Box
5739 2131 Box
5739 2131 Box
5880 2118 Box
5880 2118 Box
5880 2118 Box
6021 2105 Box
6021 2105 Box
6021 2105 Box
4413 3996 Box
% End plot #3
2.000 UL
LTb
LCb setrgbcolor
1.000 UL
LTB
LCb setrgbcolor
938 4559 N
938 448 L
5197 0 V
0 4111 V
-5197 0 V
Z stroke
1.000 UP
1.000 UL
LTb
LCb setrgbcolor
stroke
grestore
end
showpage
%%Trailer
%%DocumentFonts: roman Helvetica
