%!PS-Adobe-2.0 EPSF-2.0
%%Title: YT_5MeV.eps
%%Titre: YT_5MeV.eps
%%Creator: Fminigraf Library
%%BoundingBox: 20 40 567 457
%%EndComments
/offx 20 def
/offy 40 def
/lx 595 def
/ly 842 def
/maxx 1023 def
/maxy 779 def
/reduc 0.92 def
/coeff lx maxx div reduc mul def
offx offy translate
coeff coeff scale
1 setlinewidth newpath 0 0 moveto
/Courier-Bold findfont 32 scalefont setfont
/M {moveto} def
/L {lineto} def
/S {stroke} def
/H {show} def
/D {setdash} def
0 0 0 setrgbcolor
[] 0 D
116 156 M 116 161 L S
116 442 M 116 452 L S
116 735 M 116 740 L S
142 156 M 142 161 L S
142 442 M 142 452 L S
142 735 M 142 740 L S
[2 3] 0 D
168 156 M 168 740 L S
[] 0 D
/Courier-Bold findfont 30 scalefont setfont
138 128 M (0.772) H
168 156 M 168 166 L S
168 437 M 168 457 L S
168 730 M 168 740 L S
194 156 M 194 161 L S
194 442 M 194 452 L S
194 735 M 194 740 L S
220 156 M 220 161 L S
220 442 M 220 452 L S
220 735 M 220 740 L S
246 156 M 246 161 L S
246 442 M 246 452 L S
246 735 M 246 740 L S
271 156 M 271 161 L S
271 442 M 271 452 L S
271 735 M 271 740 L S
[2 3] 0 D
297 156 M 297 740 L S
[] 0 D
267 128 M (0.773) H
297 156 M 297 166 L S
297 437 M 297 457 L S
297 730 M 297 740 L S
323 156 M 323 161 L S
323 442 M 323 452 L S
323 735 M 323 740 L S
349 156 M 349 161 L S
349 442 M 349 452 L S
349 735 M 349 740 L S
375 156 M 375 161 L S
375 442 M 375 452 L S
375 735 M 375 740 L S
401 156 M 401 161 L S
401 442 M 401 452 L S
401 735 M 401 740 L S
[2 3] 0 D
427 156 M 427 740 L S
[] 0 D
397 128 M (0.774) H
427 156 M 427 166 L S
427 437 M 427 457 L S
427 730 M 427 740 L S
453 156 M 453 161 L S
453 442 M 453 452 L S
453 735 M 453 740 L S
479 156 M 479 161 L S
479 442 M 479 452 L S
479 735 M 479 740 L S
505 156 M 505 161 L S
505 442 M 505 452 L S
505 735 M 505 740 L S
531 156 M 531 161 L S
531 442 M 531 452 L S
531 735 M 531 740 L S
[2 3] 0 D
556 156 M 556 740 L S
[] 0 D
526 128 M (0.775) H
556 156 M 556 166 L S
556 437 M 556 457 L S
556 730 M 556 740 L S
582 156 M 582 161 L S
582 442 M 582 452 L S
582 735 M 582 740 L S
608 156 M 608 161 L S
608 442 M 608 452 L S
608 735 M 608 740 L S
634 156 M 634 161 L S
634 442 M 634 452 L S
634 735 M 634 740 L S
660 156 M 660 161 L S
660 442 M 660 452 L S
660 735 M 660 740 L S
[2 3] 0 D
686 156 M 686 740 L S
[] 0 D
656 128 M (0.776) H
686 156 M 686 166 L S
686 437 M 686 457 L S
686 730 M 686 740 L S
712 156 M 712 161 L S
712 442 M 712 452 L S
712 735 M 712 740 L S
738 156 M 738 161 L S
738 442 M 738 452 L S
738 735 M 738 740 L S
764 156 M 764 161 L S
764 442 M 764 452 L S
764 735 M 764 740 L S
790 156 M 790 161 L S
790 442 M 790 452 L S
790 735 M 790 740 L S
[2 3] 0 D
815 156 M 815 740 L S
[] 0 D
785 128 M (0.777) H
815 156 M 815 166 L S
815 437 M 815 457 L S
815 730 M 815 740 L S
841 156 M 841 161 L S
841 442 M 841 452 L S
841 735 M 841 740 L S
867 156 M 867 161 L S
867 442 M 867 452 L S
867 735 M 867 740 L S
893 156 M 893 161 L S
893 442 M 893 452 L S
893 735 M 893 740 L S
919 156 M 919 161 L S
919 442 M 919 452 L S
919 735 M 919 740 L S
[2 3] 0 D
945 156 M 945 740 L S
[] 0 D
915 128 M (0.778) H
945 156 M 945 166 L S
945 437 M 945 457 L S
945 730 M 945 740 L S
971 156 M 971 161 L S
971 442 M 971 452 L S
971 735 M 971 740 L S
102 165 M 107 165 L S
967 165 M 972 165 L S
102 185 M 107 185 L S
967 185 M 972 185 L S
102 205 M 107 205 L S
967 205 M 972 205 L S
102 225 M 107 225 L S
967 225 M 972 225 L S
[2 3] 0 D
102 246 M 972 246 L S
[] 0 D
21 236 M (-.002) H
102 246 M 112 246 L S
962 246 M 972 246 L S
102 266 M 107 266 L S
967 266 M 972 266 L S
102 286 M 107 286 L S
967 286 M 972 286 L S
102 306 M 107 306 L S
967 306 M 972 306 L S
102 327 M 107 327 L S
967 327 M 972 327 L S
[2 3] 0 D
102 347 M 972 347 L S
[] 0 D
21 337 M (-.001) H
102 347 M 112 347 L S
962 347 M 972 347 L S
102 367 M 107 367 L S
967 367 M 972 367 L S
102 387 M 107 387 L S
967 387 M 972 387 L S
102 408 M 107 408 L S
967 408 M 972 408 L S
102 428 M 107 428 L S
967 428 M 972 428 L S
[2 3] 0 D
102 448 M 972 448 L S
[] 0 D
33 438 M (0.0) H
102 448 M 112 448 L S
962 448 M 972 448 L S
102 468 M 107 468 L S
967 468 M 972 468 L S
102 488 M 107 488 L S
967 488 M 972 488 L S
102 509 M 107 509 L S
967 509 M 972 509 L S
102 529 M 107 529 L S
967 529 M 972 529 L S
[2 3] 0 D
102 549 M 972 549 L S
[] 0 D
21 539 M (0.001) H
102 549 M 112 549 L S
962 549 M 972 549 L S
102 569 M 107 569 L S
967 569 M 972 569 L S
102 590 M 107 590 L S
967 590 M 972 590 L S
102 610 M 107 610 L S
967 610 M 972 610 L S
102 630 M 107 630 L S
967 630 M 972 630 L S
[2 3] 0 D
102 650 M 972 650 L S
[] 0 D
21 640 M (0.002) H
102 650 M 112 650 L S
962 650 M 972 650 L S
102 671 M 107 671 L S
967 671 M 972 671 L S
102 691 M 107 691 L S
967 691 M 972 691 L S
102 711 M 107 711 L S
967 711 M 972 711 L S
102 731 M 107 731 L S
967 731 M 972 731 L S
[] 0 D
102 156 M 972 156 L S
972 156 M 972 740 L S
972 740 M 102 740 L S
102 740 M 102 156 L S
102 447 M 972 447 L S
103 435 M 103 436 L S
972 448 M 972 449 L S
317 700 M 317 701 L S
317 700 M 317 701 L S
317 700 M 317 701 L S
324 193 M 324 194 L S
324 193 M 324 194 L S
972 453 M 972 454 L S
311 698 M 311 699 L S
311 698 M 311 699 L S
311 698 M 311 699 L S
330 191 M 330 192 L S
330 191 M 330 192 L S
972 458 M 972 459 L S
305 695 M 305 696 L S
305 695 M 305 696 L S
305 695 M 305 696 L S
336 189 M 336 190 L S
336 189 M 336 190 L S
971 462 M 971 463 L S
299 693 M 299 694 L S
299 693 M 299 694 L S
299 693 M 299 694 L S
343 186 M 343 187 L S
343 186 M 343 187 L S
971 467 M 971 468 L S
293 690 M 293 691 L S
293 690 M 293 691 L S
293 690 M 293 691 L S
349 184 M 349 185 L S
349 184 M 349 185 L S
970 472 M 970 473 L S
287 688 M 287 689 L S
287 688 M 287 689 L S
287 688 M 287 689 L S
356 182 M 356 183 L S
356 182 M 356 183 L S
970 477 M 970 478 L S
281 685 M 281 686 L S
281 685 M 281 686 L S
281 685 M 281 686 L S
362 180 M 362 181 L S
362 180 M 362 181 L S
969 481 M 969 482 L S
276 682 M 276 683 L S
276 682 M 276 683 L S
276 682 M 276 683 L S
369 178 M 369 179 L S
369 178 M 369 179 L S
968 486 M 968 487 L S
270 679 M 270 680 L S
270 679 M 270 680 L S
270 679 M 270 680 L S
375 177 M 375 178 L S
375 177 M 375 178 L S
967 491 M 967 492 L S
264 676 M 264 677 L S
264 676 M 264 677 L S
264 676 M 264 677 L S
382 175 M 382 176 L S
382 175 M 382 176 L S
966 496 M 966 497 L S
259 673 M 259 674 L S
259 673 M 259 674 L S
259 673 M 259 674 L S
389 173 M 389 174 L S
389 173 M 389 174 L S
965 500 M 965 501 L S
253 670 M 253 671 L S
253 670 M 253 671 L S
253 670 M 253 671 L S
395 172 M 395 173 L S
395 172 M 395 173 L S
963 505 M 963 506 L S
248 667 M 248 668 L S
248 667 M 248 668 L S
248 667 M 248 668 L S
402 170 M 402 171 L S
402 170 M 402 171 L S
962 510 M 962 511 L S
243 663 M 243 664 L S
243 663 M 243 664 L S
243 663 M 243 664 L S
409 169 M 409 170 L S
409 169 M 409 170 L S
960 514 M 960 515 L S
237 660 M 237 661 L S
237 660 M 237 661 L S
237 660 M 237 661 L S
416 167 M 416 168 L S
416 167 M 416 168 L S
959 519 M 959 520 L S
232 657 M 232 658 L S
232 657 M 232 658 L S
232 657 M 232 658 L S
423 166 M 423 167 L S
423 166 M 423 167 L S
957 524 M 957 525 L S
227 653 M 227 654 L S
227 653 M 227 654 L S
227 653 M 227 654 L S
430 165 M 430 166 L S
430 165 M 430 166 L S
955 528 M 955 529 L S
222 650 M 222 651 L S
222 650 M 222 651 L S
222 650 M 222 651 L S
437 164 M 437 165 L S
437 164 M 437 165 L S
953 533 M 953 534 L S
217 646 M 217 647 L S
217 646 M 217 647 L S
217 646 M 217 647 L S
444 163 M 444 164 L S
444 163 M 444 164 L S
951 538 M 951 539 L S
212 643 M 212 644 L S
212 643 M 212 644 L S
212 643 M 212 644 L S
451 162 M 451 163 L S
451 162 M 451 163 L S
949 542 M 949 543 L S
208 639 M 208 640 L S
208 639 M 208 640 L S
208 639 M 208 640 L S
458 161 M 458 162 L S
458 161 M 458 162 L S
946 547 M 946 548 L S
203 636 M 203 637 L S
203 636 M 203 637 L S
203 636 M 203 637 L S
465 160 M 465 161 L S
465 160 M 465 161 L S
944 551 M 944 552 L S
199 632 M 199 633 L S
199 632 M 199 633 L S
199 632 M 199 633 L S
472 159 M 472 160 L S
472 159 M 472 160 L S
941 556 M 941 557 L S
194 628 M 194 629 L S
194 628 M 194 629 L S
194 628 M 194 629 L S
479 159 M 479 160 L S
479 159 M 479 160 L S
938 560 M 938 561 L S
190 624 M 190 625 L S
190 624 M 190 625 L S
190 624 M 190 625 L S
486 158 M 486 159 L S
486 158 M 486 159 L S
936 564 M 936 565 L S
185 620 M 185 621 L S
185 620 M 185 621 L S
185 620 M 185 621 L S
493 157 M 493 158 L S
493 157 M 493 158 L S
933 569 M 933 570 L S
181 616 M 181 617 L S
181 616 M 181 617 L S
181 616 M 181 617 L S
500 157 M 500 158 L S
500 157 M 500 158 L S
930 573 M 930 574 L S
177 613 M 177 614 L S
177 613 M 177 614 L S
177 613 M 177 614 L S
507 157 M 507 158 L S
507 157 M 507 158 L S
926 578 M 926 579 L S
173 609 M 173 610 L S
173 609 M 173 610 L S
173 609 M 173 610 L S
515 156 M 515 157 L S
515 156 M 515 157 L S
923 582 M 923 583 L S
169 604 M 169 605 L S
169 604 M 169 605 L S
169 604 M 169 605 L S
522 156 M 522 157 L S
522 156 M 522 157 L S
920 586 M 920 587 L S
166 600 M 166 601 L S
166 600 M 166 601 L S
166 600 M 166 601 L S
529 156 M 529 157 L S
529 156 M 529 157 L S
916 590 M 916 591 L S
162 596 M 162 597 L S
162 596 M 162 597 L S
162 596 M 162 597 L S
536 156 M 536 157 L S
536 156 M 536 157 L S
913 594 M 913 595 L S
158 592 M 158 593 L S
158 592 M 158 593 L S
158 592 M 158 593 L S
543 156 M 543 157 L S
543 156 M 543 157 L S
909 599 M 909 600 L S
155 588 M 155 589 L S
155 588 M 155 589 L S
155 588 M 155 589 L S
550 156 M 550 157 L S
550 156 M 550 157 L S
905 603 M 905 604 L S
152 584 M 152 585 L S
152 584 M 152 585 L S
152 584 M 152 585 L S
558 156 M 558 157 L S
558 156 M 558 157 L S
902 607 M 902 608 L S
148 579 M 148 580 L S
148 579 M 148 580 L S
148 579 M 148 580 L S
565 157 M 565 158 L S
565 157 M 565 158 L S
898 611 M 898 612 L S
145 575 M 145 576 L S
145 575 M 145 576 L S
145 575 M 145 576 L S
572 157 M 572 158 L S
572 157 M 572 158 L S
894 615 M 894 616 L S
142 571 M 142 572 L S
142 571 M 142 572 L S
142 571 M 142 572 L S
579 158 M 579 159 L S
579 158 M 579 159 L S
889 619 M 889 620 L S
139 566 M 139 567 L S
139 566 M 139 567 L S
139 566 M 139 567 L S
586 158 M 586 159 L S
586 158 M 586 159 L S
885 622 M 885 623 L S
136 562 M 136 563 L S
136 562 M 136 563 L S
136 562 M 136 563 L S
593 159 M 593 160 L S
593 159 M 593 160 L S
881 626 M 881 627 L S
134 557 M 134 558 L S
134 557 M 134 558 L S
134 557 M 134 558 L S
600 159 M 600 160 L S
600 159 M 600 160 L S
876 630 M 876 631 L S
131 553 M 131 554 L S
131 553 M 131 554 L S
131 553 M 131 554 L S
607 160 M 607 161 L S
607 160 M 607 161 L S
872 634 M 872 635 L S
128 548 M 128 549 L S
128 548 M 128 549 L S
128 548 M 128 549 L S
615 161 M 615 162 L S
615 161 M 615 162 L S
867 637 M 867 638 L S
126 544 M 126 545 L S
126 544 M 126 545 L S
126 544 M 126 545 L S
622 162 M 622 163 L S
622 162 M 622 163 L S
862 641 M 862 642 L S
124 539 M 124 540 L S
124 539 M 124 540 L S
124 539 M 124 540 L S
629 163 M 629 164 L S
629 163 M 629 164 L S
858 645 M 858 646 L S
122 535 M 122 536 L S
122 535 M 122 536 L S
122 535 M 122 536 L S
636 164 M 636 165 L S
636 164 M 636 165 L S
853 648 M 853 649 L S
119 530 M 119 531 L S
119 530 M 119 531 L S
119 530 M 119 531 L S
643 165 M 643 166 L S
643 165 M 643 166 L S
848 652 M 848 653 L S
118 525 M 118 526 L S
118 525 M 118 526 L S
118 525 M 118 526 L S
649 166 M 649 167 L S
649 166 M 649 167 L S
843 655 M 843 656 L S
116 521 M 116 522 L S
116 521 M 116 522 L S
116 521 M 116 522 L S
656 168 M 656 169 L S
656 168 M 656 169 L S
838 658 M 838 659 L S
114 516 M 114 517 L S
114 516 M 114 517 L S
114 516 M 114 517 L S
663 169 M 663 170 L S
663 169 M 663 170 L S
832 662 M 832 663 L S
112 511 M 112 512 L S
112 511 M 112 512 L S
112 511 M 112 512 L S
670 170 M 670 171 L S
670 170 M 670 171 L S
827 665 M 827 666 L S
111 507 M 111 508 L S
111 507 M 111 508 L S
111 507 M 111 508 L S
677 172 M 677 173 L S
677 172 M 677 173 L S
822 668 M 822 669 L S
109 502 M 109 503 L S
109 502 M 109 503 L S
109 502 M 109 503 L S
684 174 M 684 175 L S
684 174 M 684 175 L S
816 671 M 816 672 L S
108 497 M 108 498 L S
108 497 M 108 498 L S
108 497 M 108 498 L S
690 175 M 690 176 L S
690 175 M 690 176 L S
811 674 M 811 675 L S
107 492 M 107 493 L S
107 492 M 107 493 L S
107 492 M 107 493 L S
697 177 M 697 178 L S
697 177 M 697 178 L S
805 677 M 805 678 L S
106 488 M 106 489 L S
106 488 M 106 489 L S
106 488 M 106 489 L S
704 179 M 704 180 L S
704 179 M 704 180 L S
799 680 M 799 681 L S
105 483 M 105 484 L S
105 483 M 105 484 L S
105 483 M 105 484 L S
710 181 M 710 182 L S
710 181 M 710 182 L S
794 683 M 794 684 L S
104 478 M 104 479 L S
104 478 M 104 479 L S
104 478 M 104 479 L S
717 183 M 717 184 L S
717 183 M 717 184 L S
788 686 M 788 687 L S
104 473 M 104 474 L S
104 473 M 104 474 L S
104 473 M 104 474 L S
723 185 M 723 186 L S
723 185 M 723 186 L S
782 689 M 782 690 L S
103 468 M 103 469 L S
103 468 M 103 469 L S
103 468 M 103 469 L S
730 187 M 730 188 L S
730 187 M 730 188 L S
776 691 M 776 692 L S
103 464 M 103 465 L S
103 464 M 103 465 L S
103 464 M 103 465 L S
736 189 M 736 190 L S
736 189 M 736 190 L S
770 694 M 770 695 L S
102 459 M 102 460 L S
102 459 M 102 460 L S
102 459 M 102 460 L S
743 191 M 743 192 L S
743 191 M 743 192 L S
764 697 M 764 698 L S
102 454 M 102 455 L S
102 454 M 102 455 L S
102 454 M 102 455 L S
749 194 M 749 195 L S
749 194 M 749 195 L S
758 699 M 758 700 L S
102 449 M 102 450 L S
102 449 M 102 450 L S
102 449 M 102 450 L S
755 196 M 755 197 L S
752 701 M 752 702 L S
752 701 M 752 702 L S
102 444 M 102 445 L S
102 444 M 102 445 L S
102 444 M 102 445 L S
761 198 M 761 199 L S
745 704 M 745 705 L S
745 704 M 745 705 L S
102 439 M 102 440 L S
102 439 M 102 440 L S
102 439 M 102 440 L S
767 201 M 767 202 L S
739 706 M 739 707 L S
739 706 M 739 707 L S
103 435 M 103 436 L S
103 435 M 103 436 L S
103 435 M 103 436 L S
773 203 M 773 204 L S
733 708 M 733 709 L S
733 708 M 733 709 L S
103 430 M 103 431 L S
103 430 M 103 431 L S
103 430 M 103 431 L S
779 206 M 779 207 L S
726 710 M 726 711 L S
726 710 M 726 711 L S
103 425 M 103 426 L S
103 425 M 103 426 L S
103 425 M 103 426 L S
785 209 M 785 210 L S
720 712 M 720 713 L S
720 712 M 720 713 L S
104 420 M 104 421 L S
104 420 M 104 421 L S
104 420 M 104 421 L S
791 212 M 791 213 L S
713 714 M 713 715 L S
713 714 M 713 715 L S
105 415 M 105 416 L S
105 415 M 105 416 L S
105 415 M 105 416 L S
797 214 M 797 215 L S
707 716 M 707 717 L S
707 716 M 707 717 L S
106 411 M 106 412 L S
106 411 M 106 412 L S
106 411 M 106 412 L S
803 217 M 803 218 L S
700 718 M 700 719 L S
700 718 M 700 719 L S
107 406 M 107 407 L S
107 406 M 107 407 L S
107 406 M 107 407 L S
808 220 M 808 221 L S
693 720 M 693 721 L S
693 720 M 693 721 L S
108 401 M 108 402 L S
108 401 M 108 402 L S
108 401 M 108 402 L S
814 223 M 814 224 L S
687 722 M 687 723 L S
687 722 M 687 723 L S
109 396 M 109 397 L S
109 396 M 109 397 L S
109 396 M 109 397 L S
819 226 M 819 227 L S
680 723 M 680 724 L S
680 723 M 680 724 L S
110 391 M 110 392 L S
110 391 M 110 392 L S
110 391 M 110 392 L S
825 230 M 825 231 L S
673 725 M 673 726 L S
673 725 M 673 726 L S
112 387 M 112 388 L S
112 387 M 112 388 L S
112 387 M 112 388 L S
830 233 M 830 234 L S
666 726 M 666 727 L S
666 726 M 666 727 L S
113 382 M 113 383 L S
113 382 M 113 383 L S
113 382 M 113 383 L S
835 236 M 835 237 L S
659 728 M 659 729 L S
659 728 M 659 729 L S
115 377 M 115 378 L S
115 377 M 115 378 L S
115 377 M 115 378 L S
841 239 M 841 240 L S
652 729 M 652 730 L S
652 729 M 652 730 L S
117 373 M 117 374 L S
117 373 M 117 374 L S
117 373 M 117 374 L S
846 243 M 846 244 L S
646 730 M 646 731 L S
646 730 M 646 731 L S
119 368 M 119 369 L S
119 368 M 119 369 L S
119 368 M 119 369 L S
851 246 M 851 247 L S
639 732 M 639 733 L S
639 732 M 639 733 L S
121 363 M 121 364 L S
121 363 M 121 364 L S
121 363 M 121 364 L S
856 250 M 856 251 L S
632 733 M 632 734 L S
632 733 M 632 734 L S
123 359 M 123 360 L S
123 359 M 123 360 L S
123 359 M 123 360 L S
860 253 M 860 254 L S
625 734 M 625 735 L S
625 734 M 625 735 L S
125 354 M 125 355 L S
125 354 M 125 355 L S
125 354 M 125 355 L S
865 257 M 865 258 L S
618 735 M 618 736 L S
618 735 M 618 736 L S
127 350 M 127 351 L S
127 350 M 127 351 L S
127 350 M 127 351 L S
870 261 M 870 262 L S
611 736 M 611 737 L S
611 736 M 611 737 L S
130 345 M 130 346 L S
130 345 M 130 346 L S
130 345 M 130 346 L S
874 264 M 874 265 L S
603 736 M 603 737 L S
603 736 M 603 737 L S
132 341 M 132 342 L S
132 341 M 132 342 L S
132 341 M 132 342 L S
879 268 M 879 269 L S
596 737 M 596 738 L S
596 737 M 596 738 L S
135 336 M 135 337 L S
135 336 M 135 337 L S
135 336 M 135 337 L S
883 272 M 883 273 L S
589 738 M 589 739 L S
589 738 M 589 739 L S
138 332 M 138 333 L S
138 332 M 138 333 L S
138 332 M 138 333 L S
888 276 M 888 277 L S
582 738 M 582 739 L S
582 738 M 582 739 L S
141 327 M 141 328 L S
141 327 M 141 328 L S
141 327 M 141 328 L S
892 280 M 892 281 L S
575 739 M 575 740 L S
575 739 M 575 740 L S
144 323 M 144 324 L S
144 323 M 144 324 L S
144 323 M 144 324 L S
896 284 M 896 285 L S
568 739 M 568 740 L S
568 739 M 568 740 L S
147 319 M 147 320 L S
147 319 M 147 320 L S
147 319 M 147 320 L S
900 288 M 900 289 L S
561 739 M 561 740 L S
561 739 M 561 740 L S
150 314 M 150 315 L S
150 314 M 150 315 L S
150 314 M 150 315 L S
904 292 M 904 293 L S
554 740 M 554 741 L S
554 740 M 554 741 L S
153 310 M 153 311 L S
153 310 M 153 311 L S
153 310 M 153 311 L S
908 296 M 908 297 L S
546 740 M 546 741 L S
546 740 M 546 741 L S
157 306 M 157 307 L S
157 306 M 157 307 L S
157 306 M 157 307 L S
911 300 M 911 301 L S
539 740 M 539 741 L S
539 740 M 539 741 L S
160 302 M 160 303 L S
160 302 M 160 303 L S
160 302 M 160 303 L S
915 304 M 915 305 L S
532 740 M 532 741 L S
532 740 M 532 741 L S
164 297 M 164 298 L S
164 297 M 164 298 L S
164 297 M 164 298 L S
918 308 M 918 309 L S
525 740 M 525 741 L S
525 740 M 525 741 L S
168 293 M 168 294 L S
168 293 M 168 294 L S
168 293 M 168 294 L S
922 312 M 922 313 L S
518 740 M 518 741 L S
518 740 M 518 741 L S
172 289 M 172 290 L S
172 289 M 172 290 L S
172 289 M 172 290 L S
925 317 M 925 318 L S
511 739 M 511 740 L S
511 739 M 511 740 L S
175 285 M 175 286 L S
175 285 M 175 286 L S
175 285 M 175 286 L S
928 321 M 928 322 L S
503 739 M 503 740 L S
503 739 M 503 740 L S
179 281 M 179 282 L S
179 281 M 179 282 L S
179 281 M 179 282 L S
931 325 M 931 326 L S
496 739 M 496 740 L S
496 739 M 496 740 L S
184 277 M 184 278 L S
184 277 M 184 278 L S
184 277 M 184 278 L S
934 330 M 934 331 L S
489 738 M 489 739 L S
489 738 M 489 739 L S
188 273 M 188 274 L S
188 273 M 188 274 L S
188 273 M 188 274 L S
937 334 M 937 335 L S
482 738 M 482 739 L S
482 738 M 482 739 L S
192 269 M 192 270 L S
192 269 M 192 270 L S
192 269 M 192 270 L S
940 338 M 940 339 L S
475 737 M 475 738 L S
475 737 M 475 738 L S
197 266 M 197 267 L S
197 266 M 197 267 L S
197 266 M 197 267 L S
943 343 M 943 344 L S
468 736 M 468 737 L S
468 736 M 468 737 L S
201 262 M 201 263 L S
201 262 M 201 263 L S
201 262 M 201 263 L S
945 347 M 945 348 L S
461 736 M 461 737 L S
461 736 M 461 737 L S
206 258 M 206 259 L S
206 258 M 206 259 L S
206 258 M 206 259 L S
948 352 M 948 353 L S
454 735 M 454 736 L S
454 735 M 454 736 L S
210 255 M 210 256 L S
210 255 M 210 256 L S
210 255 M 210 256 L S
950 356 M 950 357 L S
447 734 M 447 735 L S
447 734 M 447 735 L S
215 251 M 215 252 L S
215 251 M 215 252 L S
215 251 M 215 252 L S
952 361 M 952 362 L S
440 733 M 440 734 L S
440 733 M 440 734 L S
220 247 M 220 248 L S
220 247 M 220 248 L S
220 247 M 220 248 L S
954 366 M 954 367 L S
433 732 M 433 733 L S
433 732 M 433 733 L S
225 244 M 225 245 L S
225 244 M 225 245 L S
225 244 M 225 245 L S
956 370 M 956 371 L S
426 731 M 426 732 L S
426 731 M 426 732 L S
230 241 M 230 242 L S
230 241 M 230 242 L S
230 241 M 230 242 L S
958 375 M 958 376 L S
419 729 M 419 730 L S
419 729 M 419 730 L S
235 237 M 235 238 L S
235 237 M 235 238 L S
235 237 M 235 238 L S
960 379 M 960 380 L S
412 728 M 412 729 L S
412 728 M 412 729 L S
240 234 M 240 235 L S
240 234 M 240 235 L S
240 234 M 240 235 L S
961 384 M 961 385 L S
405 727 M 405 728 L S
405 727 M 405 728 L S
246 231 M 246 232 L S
246 231 M 246 232 L S
246 231 M 246 232 L S
963 389 M 963 390 L S
398 725 M 398 726 L S
398 725 M 398 726 L S
251 227 M 251 228 L S
251 227 M 251 228 L S
251 227 M 251 228 L S
964 393 M 964 394 L S
392 724 M 392 725 L S
392 724 M 392 725 L S
256 224 M 256 225 L S
256 224 M 256 225 L S
256 224 M 256 225 L S
966 398 M 966 399 L S
385 722 M 385 723 L S
385 722 M 385 723 L S
262 221 M 262 222 L S
262 221 M 262 222 L S
262 221 M 262 222 L S
967 403 M 967 404 L S
378 720 M 378 721 L S
378 720 M 378 721 L S
267 218 M 267 219 L S
267 218 M 267 219 L S
267 218 M 267 219 L S
968 408 M 968 409 L S
371 718 M 371 719 L S
371 718 M 371 719 L S
273 215 M 273 216 L S
273 215 M 273 216 L S
273 215 M 273 216 L S
969 412 M 969 413 L S
365 717 M 365 718 L S
365 717 M 365 718 L S
279 212 M 279 213 L S
279 212 M 279 213 L S
279 212 M 279 213 L S
970 417 M 970 418 L S
358 715 M 358 716 L S
358 715 M 358 716 L S
285 210 M 285 211 L S
285 210 M 285 211 L S
285 210 M 285 211 L S
970 422 M 970 423 L S
352 713 M 352 714 L S
352 713 M 352 714 L S
291 207 M 291 208 L S
291 207 M 291 208 L S
291 207 M 291 208 L S
971 427 M 971 428 L S
345 711 M 345 712 L S
345 711 M 345 712 L S
296 204 M 296 205 L S
296 204 M 296 205 L S
296 204 M 296 205 L S
971 432 M 971 433 L S
339 708 M 339 709 L S
339 708 M 339 709 L S
302 202 M 302 203 L S
302 202 M 302 203 L S
302 202 M 302 203 L S
972 436 M 972 437 L S
333 706 M 333 707 L S
333 706 M 333 707 L S
309 199 M 309 200 L S
309 199 M 309 200 L S
309 199 M 309 200 L S
972 441 M 972 442 L S
326 704 M 326 705 L S
326 704 M 326 705 L S
315 197 M 315 198 L S
315 197 M 315 198 L S
315 197 M 315 198 L S
972 446 M 972 447 L S
320 702 M 320 703 L S
320 702 M 320 703 L S
320 702 M 320 703 L S
321 194 M 321 195 L S
321 194 M 321 195 L S
972 451 M 972 452 L S
314 699 M 314 700 L S
314 699 M 314 700 L S
314 699 M 314 700 L S
327 192 M 327 193 L S
327 192 M 327 193 L S
972 455 M 972 456 L S
308 697 M 308 698 L S
308 697 M 308 698 L S
308 697 M 308 698 L S
333 189 M 333 190 L S
333 189 M 333 190 L S
972 460 M 972 461 L S
302 694 M 302 695 L S
302 694 M 302 695 L S
302 694 M 302 695 L S
340 187 M 340 188 L S
340 187 M 340 188 L S
971 465 M 971 466 L S
296 691 M 296 692 L S
296 691 M 296 692 L S
296 691 M 296 692 L S
346 185 M 346 186 L S
346 185 M 346 186 L S
971 470 M 971 471 L S
290 689 M 290 690 L S
290 689 M 290 690 L S
290 689 M 290 690 L S
353 183 M 353 184 L S
353 183 M 353 184 L S
970 475 M 970 476 L S
284 686 M 284 687 L S
284 686 M 284 687 L S
284 686 M 284 687 L S
359 181 M 359 182 L S
359 181 M 359 182 L S
969 479 M 969 480 L S
278 683 M 278 684 L S
278 683 M 278 684 L S
278 683 M 278 684 L S
366 179 M 366 180 L S
366 179 M 366 180 L S
969 484 M 969 485 L S
272 680 M 272 681 L S
272 680 M 272 681 L S
272 680 M 272 681 L S
372 177 M 372 178 L S
372 177 M 372 178 L S
968 489 M 968 490 L S
267 677 M 267 678 L S
267 677 M 267 678 L S
267 677 M 267 678 L S
379 176 M 379 177 L S
379 176 M 379 177 L S
967 494 M 967 495 L S
261 674 M 261 675 L S
261 674 M 261 675 L S
261 674 M 261 675 L S
386 174 M 386 175 L S
386 174 M 386 175 L S
965 498 M 965 499 L S
256 671 M 256 672 L S
256 671 M 256 672 L S
256 671 M 256 672 L S
392 172 M 392 173 L S
392 172 M 392 173 L S
964 503 M 964 504 L S
250 668 M 250 669 L S
250 668 M 250 669 L S
250 668 M 250 669 L S
399 171 M 399 172 L S
399 171 M 399 172 L S
963 508 M 963 509 L S
245 665 M 245 666 L S
245 665 M 245 666 L S
245 665 M 245 666 L S
406 169 M 406 170 L S
406 169 M 406 170 L S
961 512 M 961 513 L S
240 662 M 240 663 L S
240 662 M 240 663 L S
240 662 M 240 663 L S
413 168 M 413 169 L S
413 168 M 413 169 L S
960 517 M 960 518 L S
234 658 M 234 659 L S
234 658 M 234 659 L S
234 658 M 234 659 L S
420 167 M 420 168 L S
420 167 M 420 168 L S
958 522 M 958 523 L S
229 655 M 229 656 L S
229 655 M 229 656 L S
229 655 M 229 656 L S
427 165 M 427 166 L S
427 165 M 427 166 L S
956 526 M 956 527 L S
224 652 M 224 653 L S
224 652 M 224 653 L S
224 652 M 224 653 L S
434 164 M 434 165 L S
434 164 M 434 165 L S
954 531 M 954 532 L S
219 648 M 219 649 L S
219 648 M 219 649 L S
219 648 M 219 649 L S
441 163 M 441 164 L S
441 163 M 441 164 L S
952 536 M 952 537 L S
214 644 M 214 645 L S
214 644 M 214 645 L S
214 644 M 214 645 L S
448 162 M 448 163 L S
448 162 M 448 163 L S
950 540 M 950 541 L S
210 641 M 210 642 L S
210 641 M 210 642 L S
210 641 M 210 642 L S
455 161 M 455 162 L S
455 161 M 455 162 L S
947 545 M 947 546 L S
205 637 M 205 638 L S
205 637 M 205 638 L S
205 637 M 205 638 L S
462 160 M 462 161 L S
462 160 M 462 161 L S
945 549 M 945 550 L S
200 634 M 200 635 L S
200 634 M 200 635 L S
200 634 M 200 635 L S
469 159 M 469 160 L S
469 159 M 469 160 L S
942 554 M 942 555 L S
196 630 M 196 631 L S
196 630 M 196 631 L S
196 630 M 196 631 L S
476 159 M 476 160 L S
476 159 M 476 160 L S
940 558 M 940 559 L S
192 626 M 192 627 L S
192 626 M 192 627 L S
192 626 M 192 627 L S
483 158 M 483 159 L S
483 158 M 483 159 L S
937 563 M 937 564 L S
187 622 M 187 623 L S
187 622 M 187 623 L S
187 622 M 187 623 L S
490 158 M 490 159 L S
490 158 M 490 159 L S
934 567 M 934 568 L S
183 618 M 183 619 L S
183 618 M 183 619 L S
183 618 M 183 619 L S
497 157 M 497 158 L S
497 157 M 497 158 L S
931 571 M 931 572 L S
179 614 M 179 615 L S
179 614 M 179 615 L S
179 614 M 179 615 L S
504 157 M 504 158 L S
504 157 M 504 158 L S
928 576 M 928 577 L S
175 610 M 175 611 L S
175 610 M 175 611 L S
175 610 M 175 611 L S
511 156 M 511 157 L S
511 156 M 511 157 L S
925 580 M 925 581 L S
171 606 M 171 607 L S
171 606 M 171 607 L S
171 606 M 171 607 L S
519 156 M 519 157 L S
519 156 M 519 157 L S
921 584 M 921 585 L S
167 602 M 167 603 L S
167 602 M 167 603 L S
167 602 M 167 603 L S
526 156 M 526 157 L S
526 156 M 526 157 L S
918 588 M 918 589 L S
163 598 M 163 599 L S
163 598 M 163 599 L S
163 598 M 163 599 L S
533 156 M 533 157 L S
533 156 M 533 157 L S
914 593 M 914 594 L S
160 594 M 160 595 L S
160 594 M 160 595 L S
160 594 M 160 595 L S
540 156 M 540 157 L S
540 156 M 540 157 L S
911 597 M 911 598 L S
156 590 M 156 591 L S
156 590 M 156 591 L S
156 590 M 156 591 L S
547 156 M 547 157 L S
547 156 M 547 157 L S
907 601 M 907 602 L S
153 585 M 153 586 L S
153 585 M 153 586 L S
153 585 M 153 586 L S
554 156 M 554 157 L S
554 156 M 554 157 L S
903 605 M 903 606 L S
150 581 M 150 582 L S
150 581 M 150 582 L S
150 581 M 150 582 L S
562 157 M 562 158 L S
562 157 M 562 158 L S
899 609 M 899 610 L S
146 577 M 146 578 L S
146 577 M 146 578 L S
146 577 M 146 578 L S
569 157 M 569 158 L S
569 157 M 569 158 L S
895 613 M 895 614 L S
143 573 M 143 574 L S
143 573 M 143 574 L S
143 573 M 143 574 L S
576 157 M 576 158 L S
576 157 M 576 158 L S
891 617 M 891 618 L S
140 568 M 140 569 L S
140 568 M 140 569 L S
140 568 M 140 569 L S
583 158 M 583 159 L S
583 158 M 583 159 L S
887 621 M 887 622 L S
137 564 M 137 565 L S
137 564 M 137 565 L S
137 564 M 137 565 L S
590 158 M 590 159 L S
590 158 M 590 159 L S
883 625 M 883 626 L S
135 559 M 135 560 L S
135 559 M 135 560 L S
135 559 M 135 560 L S
597 159 M 597 160 L S
597 159 M 597 160 L S
878 628 M 878 629 L S
132 555 M 132 556 L S
132 555 M 132 556 L S
132 555 M 132 556 L S
604 160 M 604 161 L S
604 160 M 604 161 L S
874 632 M 874 633 L S
129 550 M 129 551 L S
129 550 M 129 551 L S
129 550 M 129 551 L S
611 160 M 611 161 L S
611 160 M 611 161 L S
869 636 M 869 637 L S
127 546 M 127 547 L S
127 546 M 127 547 L S
127 546 M 127 547 L S
619 161 M 619 162 L S
619 161 M 619 162 L S
865 640 M 865 641 L S
125 541 M 125 542 L S
125 541 M 125 542 L S
125 541 M 125 542 L S
626 162 M 626 163 L S
626 162 M 626 163 L S
860 643 M 860 644 L S
122 537 M 122 538 L S
122 537 M 122 538 L S
122 537 M 122 538 L S
633 163 M 633 164 L S
633 163 M 633 164 L S
855 647 M 855 648 L S
120 532 M 120 533 L S
120 532 M 120 533 L S
120 532 M 120 533 L S
640 164 M 640 165 L S
640 164 M 640 165 L S
850 650 M 850 651 L S
118 527 M 118 528 L S
118 527 M 118 528 L S
118 527 M 118 528 L S
646 166 M 646 167 L S
646 166 M 646 167 L S
845 654 M 845 655 L S
116 523 M 116 524 L S
116 523 M 116 524 L S
116 523 M 116 524 L S
653 167 M 653 168 L S
653 167 M 653 168 L S
840 657 M 840 658 L S
115 518 M 115 519 L S
115 518 M 115 519 L S
115 518 M 115 519 L S
660 168 M 660 169 L S
660 168 M 660 169 L S
835 660 M 835 661 L S
113 513 M 113 514 L S
113 513 M 113 514 L S
113 513 M 113 514 L S
667 170 M 667 171 L S
667 170 M 667 171 L S
829 664 M 829 665 L S
111 509 M 111 510 L S
111 509 M 111 510 L S
111 509 M 111 510 L S
674 171 M 674 172 L S
674 171 M 674 172 L S
824 667 M 824 668 L S
110 504 M 110 505 L S
110 504 M 110 505 L S
110 504 M 110 505 L S
681 173 M 681 174 L S
681 173 M 681 174 L S
819 670 M 819 671 L S
109 499 M 109 500 L S
109 499 M 109 500 L S
109 499 M 109 500 L S
688 174 M 688 175 L S
688 174 M 688 175 L S
813 673 M 813 674 L S
107 494 M 107 495 L S
107 494 M 107 495 L S
107 494 M 107 495 L S
694 176 M 694 177 L S
694 176 M 694 177 L S
808 676 M 808 677 L S
106 490 M 106 491 L S
106 490 M 106 491 L S
106 490 M 106 491 L S
701 178 M 701 179 L S
701 178 M 701 179 L S
802 679 M 802 680 L S
105 485 M 105 486 L S
105 485 M 105 486 L S
105 485 M 105 486 L S
708 180 M 708 181 L S
708 180 M 708 181 L S
796 682 M 796 683 L S
105 480 M 105 481 L S
105 480 M 105 481 L S
105 480 M 105 481 L S
714 182 M 714 183 L S
714 182 M 714 183 L S
790 685 M 790 686 L S
104 475 M 104 476 L S
104 475 M 104 476 L S
104 475 M 104 476 L S
721 184 M 721 185 L S
721 184 M 721 185 L S
785 688 M 785 689 L S
103 470 M 103 471 L S
103 470 M 103 471 L S
103 470 M 103 471 L S
727 186 M 727 187 L S
727 186 M 727 187 L S
779 690 M 779 691 L S
103 466 M 103 467 L S
103 466 M 103 467 L S
103 466 M 103 467 L S
734 188 M 734 189 L S
734 188 M 734 189 L S
773 693 M 773 694 L S
102 461 M 102 462 L S
102 461 M 102 462 L S
102 461 M 102 462 L S
740 190 M 740 191 L S
740 190 M 740 191 L S
767 695 M 767 696 L S
102 456 M 102 457 L S
102 456 M 102 457 L S
102 456 M 102 457 L S
746 192 M 746 193 L S
746 192 M 746 193 L S
761 698 M 761 699 L S
102 451 M 102 452 L S
102 451 M 102 452 L S
102 451 M 102 452 L S
752 195 M 752 196 L S
752 195 M 752 196 L S
754 700 M 754 701 L S
102 446 M 102 447 L S
102 446 M 102 447 L S
102 446 M 102 447 L S
759 197 M 759 198 L S
748 703 M 748 704 L S
748 703 M 748 704 L S
102 441 M 102 442 L S
102 441 M 102 442 L S
102 441 M 102 442 L S
765 200 M 765 201 L S
742 705 M 742 706 L S
742 705 M 742 706 L S
102 437 M 102 438 L S
102 437 M 102 438 L S
102 437 M 102 438 L S
771 202 M 771 203 L S
735 707 M 735 708 L S
735 707 M 735 708 L S
103 432 M 103 433 L S
103 432 M 103 433 L S
103 432 M 103 433 L S
777 205 M 777 206 L S
729 710 M 729 711 L S
729 710 M 729 711 L S
103 427 M 103 428 L S
103 427 M 103 428 L S
103 427 M 103 428 L S
783 208 M 783 209 L S
723 712 M 723 713 L S
723 712 M 723 713 L S
104 422 M 104 423 L S
104 422 M 104 423 L S
104 422 M 104 423 L S
789 210 M 789 211 L S
716 714 M 716 715 L S
716 714 M 716 715 L S
104 417 M 104 418 L S
104 417 M 104 418 L S
104 417 M 104 418 L S
795 213 M 795 214 L S
710 716 M 710 717 L S
710 716 M 710 717 L S
105 413 M 105 414 L S
105 413 M 105 414 L S
105 413 M 105 414 L S
800 216 M 800 217 L S
703 718 M 703 719 L S
703 718 M 703 719 L S
106 408 M 106 409 L S
106 408 M 106 409 L S
106 408 M 106 409 L S
806 219 M 806 220 L S
696 719 M 696 720 L S
696 719 M 696 720 L S
107 403 M 107 404 L S
107 403 M 107 404 L S
107 403 M 107 404 L S
812 222 M 812 223 L S
690 721 M 690 722 L S
690 721 M 690 722 L S
108 398 M 108 399 L S
108 398 M 108 399 L S
108 398 M 108 399 L S
817 225 M 817 226 L S
683 723 M 683 724 L S
683 723 M 683 724 L S
110 394 M 110 395 L S
110 394 M 110 395 L S
110 394 M 110 395 L S
823 228 M 823 229 L S
676 724 M 676 725 L S
676 724 M 676 725 L S
111 389 M 111 390 L S
111 389 M 111 390 L S
111 389 M 111 390 L S
828 231 M 828 232 L S
669 726 M 669 727 L S
669 726 M 669 727 L S
112 384 M 112 385 L S
112 384 M 112 385 L S
112 384 M 112 385 L S
833 235 M 833 236 L S
662 727 M 662 728 L S
662 727 M 662 728 L S
114 379 M 114 380 L S
114 379 M 114 380 L S
114 379 M 114 380 L S
838 238 M 838 239 L S
656 729 M 656 730 L S
656 729 M 656 730 L S
116 375 M 116 376 L S
116 375 M 116 376 L S
116 375 M 116 376 L S
844 241 M 844 242 L S
649 730 M 649 731 L S
649 730 M 649 731 L S
118 370 M 118 371 L S
118 370 M 118 371 L S
118 370 M 118 371 L S
849 245 M 849 246 L S
642 731 M 642 732 L S
642 731 M 642 732 L S
120 365 M 120 366 L S
120 365 M 120 366 L S
120 365 M 120 366 L S
854 248 M 854 249 L S
635 732 M 635 733 L S
635 732 M 635 733 L S
122 361 M 122 362 L S
122 361 M 122 362 L S
122 361 M 122 362 L S
858 252 M 858 253 L S
628 733 M 628 734 L S
628 733 M 628 734 L S
124 356 M 124 357 L S
124 356 M 124 357 L S
124 356 M 124 357 L S
863 255 M 863 256 L S
621 734 M 621 735 L S
621 734 M 621 735 L S
126 352 M 126 353 L S
126 352 M 126 353 L S
126 352 M 126 353 L S
868 259 M 868 260 L S
614 735 M 614 736 L S
614 735 M 614 736 L S
129 347 M 129 348 L S
129 347 M 129 348 L S
129 347 M 129 348 L S
873 263 M 873 264 L S
607 736 M 607 737 L S
607 736 M 607 737 L S
131 343 M 131 344 L S
131 343 M 131 344 L S
131 343 M 131 344 L S
877 266 M 877 267 L S
599 737 M 599 738 L S
599 737 M 599 738 L S
134 338 M 134 339 L S
134 338 M 134 339 L S
134 338 M 134 339 L S
881 270 M 881 271 L S
592 737 M 592 738 L S
592 737 M 592 738 L S
137 334 M 137 335 L S
137 334 M 137 335 L S
137 334 M 137 335 L S
886 274 M 886 275 L S
585 738 M 585 739 L S
585 738 M 585 739 L S
139 329 M 139 330 L S
139 329 M 139 330 L S
139 329 M 139 330 L S
890 278 M 890 279 L S
578 739 M 578 740 L S
578 739 M 578 740 L S
142 325 M 142 326 L S
142 325 M 142 326 L S
142 325 M 142 326 L S
894 282 M 894 283 L S
571 739 M 571 740 L S
571 739 M 571 740 L S
145 320 M 145 321 L S
145 320 M 145 321 L S
145 320 M 145 321 L S
898 286 M 898 287 L S
564 739 M 564 740 L S
564 739 M 564 740 L S
149 316 M 149 317 L S
149 316 M 149 317 L S
149 316 M 149 317 L S
902 290 M 902 291 L S
557 740 M 557 741 L S
557 740 M 557 741 L S
152 312 M 152 313 L S
152 312 M 152 313 L S
152 312 M 152 313 L S
906 294 M 906 295 L S
549 740 M 549 741 L S
549 740 M 549 741 L S
155 308 M 155 309 L S
155 308 M 155 309 L S
155 308 M 155 309 L S
910 298 M 910 299 L S
542 740 M 542 741 L S
542 740 M 542 741 L S
159 303 M 159 304 L S
159 303 M 159 304 L S
159 303 M 159 304 L S
913 302 M 913 303 L S
535 740 M 535 741 L S
535 740 M 535 741 L S
162 299 M 162 300 L S
162 299 M 162 300 L S
162 299 M 162 300 L S
917 306 M 917 307 L S
528 740 M 528 741 L S
528 740 M 528 741 L S
166 295 M 166 296 L S
166 295 M 166 296 L S
166 295 M 166 296 L S
920 310 M 920 311 L S
521 740 M 521 741 L S
521 740 M 521 741 L S
170 291 M 170 292 L S
170 291 M 170 292 L S
170 291 M 170 292 L S
924 315 M 924 316 L S
514 740 M 514 741 L S
514 740 M 514 741 L S
174 287 M 174 288 L S
174 287 M 174 288 L S
174 287 M 174 288 L S
927 319 M 927 320 L S
506 739 M 506 740 L S
506 739 M 506 740 L S
178 283 M 178 284 L S
178 283 M 178 284 L S
178 283 M 178 284 L S
930 323 M 930 324 L S
499 739 M 499 740 L S
499 739 M 499 740 L S
182 279 M 182 280 L S
182 279 M 182 280 L S
182 279 M 182 280 L S
933 328 M 933 329 L S
492 739 M 492 740 L S
492 739 M 492 740 L S
186 275 M 186 276 L S
186 275 M 186 276 L S
186 275 M 186 276 L S
936 332 M 936 333 L S
485 738 M 485 739 L S
485 738 M 485 739 L S
190 271 M 190 272 L S
190 271 M 190 272 L S
190 271 M 190 272 L S
939 336 M 939 337 L S
478 737 M 478 738 L S
478 737 M 478 738 L S
195 267 M 195 268 L S
195 267 M 195 268 L S
195 267 M 195 268 L S
942 341 M 942 342 L S
471 737 M 471 738 L S
471 737 M 471 738 L S
199 264 M 199 265 L S
199 264 M 199 265 L S
199 264 M 199 265 L S
944 345 M 944 346 L S
464 736 M 464 737 L S
464 736 M 464 737 L S
204 260 M 204 261 L S
204 260 M 204 261 L S
204 260 M 204 261 L S
/Courier-Bold findfont 27 scalefont setfont
101 764 M (Zgoubi|Zpop                                                                     ) H
101 743 M (18-07-2017                                                                      ) H
/Courier-Bold findfont 26 scalefont setfont
160 85 M (* # COORDINATES  - STORAGE FILE, 18-07-2017 07:03:03 *                                                                            ) H
293 755 M (  Y'    (rad) vs.    Y     (m)                                                                                                    ) H
26 42 M (Mi-ma H/V:   0.771      0.778    / -2.886E-03  2.886E-03                                                                          ) H
26 21 M (Part#  1- 10000 (*); Lmnt#     1; pass#       1-    700, [    1];    700 pnts                                                     ) H
[] 0 D
845 448 M 845 448 L S
845 448 M 845 448 L S
845 448 M 845 451 L S
845 451 M 844 455 L S
844 455 M 844 458 L S
844 458 M 844 461 L S
844 461 M 844 464 L S
844 464 M 843 468 L S
843 468 M 843 471 L S
843 471 M 842 474 L S
842 474 M 841 477 L S
841 477 M 841 480 L S
841 480 M 840 484 L S
840 484 M 839 487 L S
839 487 M 838 490 L S
838 490 M 837 493 L S
837 493 M 836 496 L S
836 496 M 835 499 L S
835 499 M 834 503 L S
834 503 M 832 506 L S
832 506 M 831 509 L S
831 509 M 829 512 L S
829 512 M 828 515 L S
828 515 M 826 518 L S
826 518 M 825 521 L S
825 521 M 823 524 L S
823 524 M 821 527 L S
821 527 M 819 530 L S
819 530 M 817 533 L S
817 533 M 815 536 L S
815 536 M 813 539 L S
813 539 M 811 542 L S
811 542 M 809 545 L S
809 545 M 806 548 L S
806 548 M 804 550 L S
804 550 M 802 553 L S
802 553 M 799 556 L S
799 556 M 797 559 L S
797 559 M 794 561 L S
794 561 M 791 564 L S
791 564 M 789 567 L S
789 567 M 786 569 L S
786 569 M 783 572 L S
783 572 M 780 575 L S
780 575 M 777 577 L S
777 577 M 774 580 L S
774 580 M 771 582 L S
771 582 M 768 585 L S
768 585 M 764 587 L S
764 587 M 761 589 L S
761 589 M 758 592 L S
758 592 M 754 594 L S
754 594 M 751 596 L S
751 596 M 748 599 L S
748 599 M 744 601 L S
744 601 M 740 603 L S
740 603 M 737 605 L S
737 605 M 733 607 L S
733 607 M 729 609 L S
729 609 M 725 611 L S
725 611 M 722 613 L S
722 613 M 718 615 L S
718 615 M 714 617 L S
714 617 M 710 619 L S
710 619 M 706 621 L S
706 621 M 702 622 L S
702 622 M 698 624 L S
698 624 M 694 626 L S
694 626 M 689 627 L S
689 627 M 685 629 L S
685 629 M 681 630 L S
681 630 M 677 632 L S
677 632 M 672 633 L S
672 633 M 668 635 L S
668 635 M 664 636 L S
664 636 M 659 637 L S
659 637 M 655 639 L S
655 639 M 650 640 L S
650 640 M 646 641 L S
646 641 M 641 642 L S
641 642 M 637 643 L S
637 643 M 632 644 L S
632 644 M 627 645 L S
627 645 M 623 646 L S
623 646 M 618 647 L S
618 647 M 613 648 L S
613 648 M 609 649 L S
609 649 M 604 649 L S
604 649 M 599 650 L S
599 650 M 595 651 L S
595 651 M 590 651 L S
590 651 M 585 652 L S
585 652 M 580 652 L S
580 652 M 575 653 L S
575 653 M 571 653 L S
571 653 M 566 654 L S
566 654 M 561 654 L S
561 654 M 556 654 L S
556 654 M 551 654 L S
551 654 M 547 654 L S
547 654 M 542 654 L S
542 654 M 537 654 L S
537 654 M 532 654 L S
532 654 M 527 654 L S
527 654 M 522 654 L S
522 654 M 518 654 L S
518 654 M 513 654 L S
513 654 M 508 654 L S
508 654 M 503 653 L S
503 653 M 498 653 L S
498 653 M 494 652 L S
494 652 M 489 652 L S
489 652 M 484 651 L S
484 651 M 479 651 L S
479 651 M 475 650 L S
475 650 M 470 649 L S
470 649 M 465 649 L S
465 649 M 460 648 L S
460 648 M 456 647 L S
456 647 M 451 646 L S
451 646 M 446 645 L S
446 645 M 442 644 L S
442 644 M 437 643 L S
437 643 M 433 642 L S
433 642 M 428 641 L S
428 641 M 424 640 L S
424 640 M 419 639 L S
419 639 M 415 637 L S
415 637 M 410 636 L S
410 636 M 406 635 L S
406 635 M 402 633 L S
402 633 M 397 632 L S
397 632 M 393 630 L S
393 630 M 389 629 L S
389 629 M 384 627 L S
384 627 M 380 626 L S
380 626 M 376 624 L S
376 624 M 372 622 L S
372 622 M 368 621 L S
368 621 M 364 619 L S
364 619 M 360 617 L S
360 617 M 356 615 L S
356 615 M 352 613 L S
352 613 M 348 611 L S
348 611 M 345 609 L S
345 609 M 341 607 L S
341 607 M 337 605 L S
337 605 M 333 603 L S
333 603 M 330 601 L S
330 601 M 326 598 L S
326 598 M 323 596 L S
323 596 M 319 594 L S
319 594 M 316 592 L S
316 592 M 313 589 L S
313 589 M 309 587 L S
309 587 M 306 584 L S
306 584 M 303 582 L S
303 582 M 300 580 L S
300 580 M 297 577 L S
297 577 M 294 575 L S
294 575 M 291 572 L S
291 572 M 288 569 L S
288 569 M 285 567 L S
285 567 M 282 564 L S
282 564 M 280 561 L S
280 561 M 277 559 L S
277 559 M 275 556 L S
275 556 M 272 553 L S
272 553 M 270 550 L S
270 550 M 267 547 L S
267 547 M 265 545 L S
265 545 M 263 542 L S
263 542 M 261 539 L S
261 539 M 259 536 L S
259 536 M 257 533 L S
257 533 M 255 530 L S
255 530 M 253 527 L S
253 527 M 251 524 L S
251 524 M 249 521 L S
249 521 M 247 518 L S
247 518 M 246 515 L S
246 515 M 244 512 L S
244 512 M 243 509 L S
243 509 M 241 506 L S
241 506 M 240 502 L S
240 502 M 239 499 L S
239 499 M 238 496 L S
238 496 M 237 493 L S
237 493 M 236 490 L S
236 490 M 235 487 L S
235 487 M 234 483 L S
234 483 M 233 480 L S
233 480 M 232 477 L S
232 477 M 232 474 L S
232 474 M 231 471 L S
231 471 M 231 467 L S
231 467 M 230 464 L S
230 464 M 230 461 L S
230 461 M 230 458 L S
230 458 M 229 454 L S
229 454 M 229 451 L S
229 451 M 229 448 L S
229 448 M 229 445 L S
229 445 M 229 442 L S
229 442 M 230 438 L S
230 438 M 230 435 L S
230 435 M 230 432 L S
230 432 M 231 429 L S
231 429 M 231 425 L S
231 425 M 232 422 L S
232 422 M 232 419 L S
232 419 M 233 416 L S
233 416 M 234 413 L S
234 413 M 235 409 L S
235 409 M 236 406 L S
236 406 M 237 403 L S
237 403 M 238 400 L S
238 400 M 239 397 L S
239 397 M 240 394 L S
240 394 M 241 390 L S
241 390 M 243 387 L S
243 387 M 244 384 L S
244 384 M 246 381 L S
246 381 M 247 378 L S
247 378 M 249 375 L S
249 375 M 251 372 L S
251 372 M 253 369 L S
253 369 M 255 366 L S
255 366 M 257 363 L S
257 363 M 259 360 L S
259 360 M 261 357 L S
261 357 M 263 354 L S
263 354 M 265 351 L S
265 351 M 267 349 L S
267 349 M 270 346 L S
270 346 M 272 343 L S
272 343 M 275 340 L S
275 340 M 277 337 L S
277 337 M 280 335 L S
280 335 M 282 332 L S
282 332 M 285 329 L S
285 329 M 288 327 L S
288 327 M 291 324 L S
291 324 M 294 322 L S
294 322 M 297 319 L S
297 319 M 300 316 L S
300 316 M 303 314 L S
303 314 M 306 312 L S
306 312 M 309 309 L S
309 309 M 313 307 L S
313 307 M 316 304 L S
316 304 M 319 302 L S
319 302 M 323 300 L S
323 300 M 326 298 L S
326 298 M 330 295 L S
330 295 M 333 293 L S
333 293 M 337 291 L S
337 291 M 341 289 L S
341 289 M 345 287 L S
345 287 M 348 285 L S
348 285 M 352 283 L S
352 283 M 356 281 L S
356 281 M 360 279 L S
360 279 M 364 277 L S
364 277 M 368 276 L S
368 276 M 372 274 L S
372 274 M 376 272 L S
376 272 M 380 270 L S
380 270 M 384 269 L S
384 269 M 389 267 L S
389 267 M 393 266 L S
393 266 M 397 264 L S
397 264 M 402 263 L S
402 263 M 406 261 L S
406 261 M 410 260 L S
410 260 M 415 259 L S
415 259 M 419 257 L S
419 257 M 424 256 L S
424 256 M 428 255 L S
428 255 M 433 254 L S
433 254 M 437 253 L S
437 253 M 442 252 L S
442 252 M 446 251 L S
446 251 M 451 250 L S
451 250 M 456 249 L S
456 249 M 460 248 L S
460 248 M 465 247 L S
465 247 M 470 247 L S
470 247 M 475 246 L S
475 246 M 479 245 L S
479 245 M 484 245 L S
484 245 M 489 244 L S
489 244 M 494 244 L S
494 244 M 498 243 L S
498 243 M 503 243 L S
503 243 M 508 243 L S
508 243 M 513 242 L S
513 242 M 518 242 L S
518 242 M 522 242 L S
522 242 M 527 242 L S
527 242 M 532 242 L S
532 242 M 537 242 L S
537 242 M 542 242 L S
542 242 M 547 242 L S
547 242 M 551 242 L S
551 242 M 556 242 L S
556 242 M 561 242 L S
561 242 M 566 243 L S
566 243 M 571 243 L S
571 243 M 575 243 L S
575 243 M 580 244 L S
580 244 M 585 244 L S
585 244 M 590 245 L S
590 245 M 595 245 L S
595 245 M 599 246 L S
599 246 M 604 247 L S
604 247 M 609 247 L S
609 247 M 613 248 L S
613 248 M 618 249 L S
618 249 M 623 250 L S
623 250 M 627 251 L S
627 251 M 632 252 L S
632 252 M 637 253 L S
637 253 M 641 254 L S
641 254 M 646 255 L S
646 255 M 650 256 L S
650 256 M 655 257 L S
655 257 M 659 259 L S
659 259 M 664 260 L S
664 260 M 668 261 L S
668 261 M 672 263 L S
672 263 M 677 264 L S
677 264 M 681 266 L S
681 266 M 685 267 L S
685 267 M 689 269 L S
689 269 M 694 270 L S
694 270 M 698 272 L S
698 272 M 702 274 L S
702 274 M 706 276 L S
706 276 M 710 277 L S
710 277 M 714 279 L S
714 279 M 718 281 L S
718 281 M 722 283 L S
722 283 M 725 285 L S
725 285 M 729 287 L S
729 287 M 733 289 L S
733 289 M 737 291 L S
737 291 M 740 293 L S
740 293 M 744 295 L S
744 295 M 748 298 L S
748 298 M 751 300 L S
751 300 M 754 302 L S
754 302 M 758 304 L S
758 304 M 761 307 L S
761 307 M 764 309 L S
764 309 M 768 312 L S
768 312 M 771 314 L S
771 314 M 774 317 L S
774 317 M 777 319 L S
777 319 M 780 322 L S
780 322 M 783 324 L S
783 324 M 786 327 L S
786 327 M 789 329 L S
789 329 M 791 332 L S
791 332 M 794 335 L S
794 335 M 797 338 L S
797 338 M 799 340 L S
799 340 M 802 343 L S
802 343 M 804 346 L S
804 346 M 806 349 L S
806 349 M 809 352 L S
809 352 M 811 354 L S
811 354 M 813 357 L S
813 357 M 815 360 L S
815 360 M 817 363 L S
817 363 M 819 366 L S
819 366 M 821 369 L S
821 369 M 823 372 L S
823 372 M 825 375 L S
825 375 M 826 378 L S
826 378 M 828 381 L S
828 381 M 829 384 L S
829 384 M 831 387 L S
831 387 M 832 391 L S
832 391 M 834 394 L S
834 394 M 835 397 L S
835 397 M 836 400 L S
836 400 M 837 403 L S
837 403 M 838 406 L S
838 406 M 839 409 L S
839 409 M 840 413 L S
840 413 M 841 416 L S
841 416 M 841 419 L S
841 419 M 842 422 L S
842 422 M 843 425 L S
843 425 M 843 429 L S
843 429 M 844 432 L S
844 432 M 844 435 L S
844 435 M 844 438 L S
844 438 M 844 442 L S
844 442 M 845 445 L S
845 445 M 845 448 L S
26 63 M (Eps/pi, Beta, Alpha :   4.8440E-06  1.1644E+00 -2.8864E-04                      ) H
showpage
