%!PS-Adobe-2.0 EPSF-2.0
%%Title: ZP_5MeV.eps
%%Titre: ZP_5MeV.eps
%%Creator: Fminigraf Library
%%BoundingBox: 20 40 567 457
%%EndComments
/offx 20 def
/offy 40 def
/lx 595 def
/ly 842 def
/maxx 1023 def
/maxy 779 def
/reduc 0.92 def
/coeff lx maxx div reduc mul def
offx offy translate
coeff coeff scale
1 setlinewidth newpath 0 0 moveto
/Courier-Bold findfont 32 scalefont setfont
/M {moveto} def
/L {lineto} def
/S {stroke} def
/H {show} def
/D {setdash} def
0 0 0 setrgbcolor
[] 0 D
[2 3] 0 D
125 156 M 125 740 L S
[] 0 D
/Courier-Bold findfont 30 scalefont setfont
95 128 M (-.003) H
125 156 M 125 166 L S
125 437 M 125 457 L S
125 730 M 125 740 L S
153 156 M 153 161 L S
153 442 M 153 452 L S
153 735 M 153 740 L S
180 156 M 180 161 L S
180 442 M 180 452 L S
180 735 M 180 740 L S
208 156 M 208 161 L S
208 442 M 208 452 L S
208 735 M 208 740 L S
235 156 M 235 161 L S
235 442 M 235 452 L S
235 735 M 235 740 L S
[2 3] 0 D
263 156 M 263 740 L S
[] 0 D
233 128 M (-.002) H
263 156 M 263 166 L S
263 437 M 263 457 L S
263 730 M 263 740 L S
290 156 M 290 161 L S
290 442 M 290 452 L S
290 735 M 290 740 L S
317 156 M 317 161 L S
317 442 M 317 452 L S
317 735 M 317 740 L S
345 156 M 345 161 L S
345 442 M 345 452 L S
345 735 M 345 740 L S
372 156 M 372 161 L S
372 442 M 372 452 L S
372 735 M 372 740 L S
[2 3] 0 D
400 156 M 400 740 L S
[] 0 D
370 128 M (-.001) H
400 156 M 400 166 L S
400 437 M 400 457 L S
400 730 M 400 740 L S
427 156 M 427 161 L S
427 442 M 427 452 L S
427 735 M 427 740 L S
455 156 M 455 161 L S
455 442 M 455 452 L S
455 735 M 455 740 L S
482 156 M 482 161 L S
482 442 M 482 452 L S
482 735 M 482 740 L S
510 156 M 510 161 L S
510 442 M 510 452 L S
510 735 M 510 740 L S
[2 3] 0 D
537 156 M 537 740 L S
[] 0 D
519 128 M (0.0) H
537 156 M 537 166 L S
537 437 M 537 457 L S
537 730 M 537 740 L S
564 156 M 564 161 L S
564 442 M 564 452 L S
564 735 M 564 740 L S
592 156 M 592 161 L S
592 442 M 592 452 L S
592 735 M 592 740 L S
619 156 M 619 161 L S
619 442 M 619 452 L S
619 735 M 619 740 L S
647 156 M 647 161 L S
647 442 M 647 452 L S
647 735 M 647 740 L S
[2 3] 0 D
674 156 M 674 740 L S
[] 0 D
644 128 M (0.001) H
674 156 M 674 166 L S
674 437 M 674 457 L S
674 730 M 674 740 L S
702 156 M 702 161 L S
702 442 M 702 452 L S
702 735 M 702 740 L S
729 156 M 729 161 L S
729 442 M 729 452 L S
729 735 M 729 740 L S
757 156 M 757 161 L S
757 442 M 757 452 L S
757 735 M 757 740 L S
784 156 M 784 161 L S
784 442 M 784 452 L S
784 735 M 784 740 L S
[2 3] 0 D
811 156 M 811 740 L S
[] 0 D
781 128 M (0.002) H
811 156 M 811 166 L S
811 437 M 811 457 L S
811 730 M 811 740 L S
839 156 M 839 161 L S
839 442 M 839 452 L S
839 735 M 839 740 L S
866 156 M 866 161 L S
866 442 M 866 452 L S
866 735 M 866 740 L S
894 156 M 894 161 L S
894 442 M 894 452 L S
894 735 M 894 740 L S
921 156 M 921 161 L S
921 442 M 921 452 L S
921 735 M 921 740 L S
[2 3] 0 D
949 156 M 949 740 L S
[] 0 D
919 128 M (0.003) H
949 156 M 949 166 L S
949 437 M 949 457 L S
949 730 M 949 740 L S
[2 3] 0 D
102 161 M 972 161 L S
[] 0 D
102 161 M 112 161 L S
526 161 M 546 161 L S
962 161 M 972 161 L S
102 180 M 107 180 L S
531 180 M 541 180 L S
967 180 M 972 180 L S
102 199 M 107 199 L S
531 199 M 541 199 L S
967 199 M 972 199 L S
102 218 M 107 218 L S
531 218 M 541 218 L S
967 218 M 972 218 L S
102 238 M 107 238 L S
531 238 M 541 238 L S
967 238 M 972 238 L S
[2 3] 0 D
102 257 M 972 257 L S
[] 0 D
21 247 M (-.002) H
102 257 M 112 257 L S
526 257 M 546 257 L S
962 257 M 972 257 L S
102 276 M 107 276 L S
531 276 M 541 276 L S
967 276 M 972 276 L S
102 295 M 107 295 L S
531 295 M 541 295 L S
967 295 M 972 295 L S
102 314 M 107 314 L S
531 314 M 541 314 L S
967 314 M 972 314 L S
102 333 M 107 333 L S
531 333 M 541 333 L S
967 333 M 972 333 L S
[2 3] 0 D
102 352 M 972 352 L S
[] 0 D
21 342 M (-.001) H
102 352 M 112 352 L S
526 352 M 546 352 L S
962 352 M 972 352 L S
102 371 M 107 371 L S
531 371 M 541 371 L S
967 371 M 972 371 L S
102 391 M 107 391 L S
531 391 M 541 391 L S
967 391 M 972 391 L S
102 410 M 107 410 L S
531 410 M 541 410 L S
967 410 M 972 410 L S
102 429 M 107 429 L S
531 429 M 541 429 L S
967 429 M 972 429 L S
[2 3] 0 D
102 448 M 972 448 L S
[] 0 D
33 438 M (0.0) H
102 448 M 112 448 L S
526 448 M 546 448 L S
962 448 M 972 448 L S
102 467 M 107 467 L S
531 467 M 541 467 L S
967 467 M 972 467 L S
102 486 M 107 486 L S
531 486 M 541 486 L S
967 486 M 972 486 L S
102 505 M 107 505 L S
531 505 M 541 505 L S
967 505 M 972 505 L S
102 525 M 107 525 L S
531 525 M 541 525 L S
967 525 M 972 525 L S
[2 3] 0 D
102 544 M 972 544 L S
[] 0 D
21 534 M (0.001) H
102 544 M 112 544 L S
526 544 M 546 544 L S
962 544 M 972 544 L S
102 563 M 107 563 L S
531 563 M 541 563 L S
967 563 M 972 563 L S
102 582 M 107 582 L S
531 582 M 541 582 L S
967 582 M 972 582 L S
102 601 M 107 601 L S
531 601 M 541 601 L S
967 601 M 972 601 L S
102 620 M 107 620 L S
531 620 M 541 620 L S
967 620 M 972 620 L S
[2 3] 0 D
102 639 M 972 639 L S
[] 0 D
21 629 M (0.002) H
102 639 M 112 639 L S
526 639 M 546 639 L S
962 639 M 972 639 L S
102 658 M 107 658 L S
531 658 M 541 658 L S
967 658 M 972 658 L S
102 678 M 107 678 L S
531 678 M 541 678 L S
967 678 M 972 678 L S
102 697 M 107 697 L S
531 697 M 541 697 L S
967 697 M 972 697 L S
102 716 M 107 716 L S
531 716 M 541 716 L S
967 716 M 972 716 L S
[2 3] 0 D
102 735 M 972 735 L S
[] 0 D
21 725 M (0.003) H
102 735 M 112 735 L S
526 735 M 546 735 L S
962 735 M 972 735 L S
[] 0 D
102 156 M 972 156 L S
972 156 M 972 740 L S
972 740 M 102 740 L S
102 740 M 102 156 L S
536 156 M 536 740 L S
102 447 M 972 447 L S
972 448 M 972 449 L S
972 448 M 972 449 L S
525 740 M 525 741 L S
525 740 M 525 741 L S
102 435 M 102 436 L S
102 435 M 102 436 L S
102 435 M 102 436 L S
569 157 M 569 158 L S
569 157 M 569 158 L S
970 478 M 970 479 L S
486 738 M 486 739 L S
486 738 M 486 739 L S
107 406 M 107 407 L S
107 406 M 107 407 L S
107 406 M 107 407 L S
612 160 M 612 161 L S
612 160 M 612 161 L S
964 503 M 964 504 L S
443 733 M 443 734 L S
443 733 M 443 734 L S
115 377 M 115 378 L S
115 377 M 115 378 L S
115 377 M 115 378 L S
650 166 M 650 167 L S
650 166 M 650 167 L S
954 532 M 954 533 L S
400 725 M 400 726 L S
400 725 M 400 726 L S
126 352 M 126 353 L S
126 352 M 126 353 L S
126 352 M 126 353 L S
692 175 M 692 176 L S
692 175 M 692 176 L S
939 560 M 939 561 L S
364 716 M 364 717 L S
364 716 M 364 717 L S
143 324 M 143 325 L S
143 324 M 143 325 L S
143 324 M 143 325 L S
732 187 M 732 188 L S
732 187 M 732 188 L S
923 583 M 923 584 L S
325 703 M 325 704 L S
325 703 M 325 704 L S
163 298 M 163 299 L S
163 298 M 163 299 L S
163 298 M 163 299 L S
766 200 M 766 201 L S
766 200 M 766 201 L S
900 609 M 900 610 L S
288 687 M 288 688 L S
288 687 M 288 688 L S
185 277 M 185 278 L S
185 277 M 185 278 L S
185 277 M 185 278 L S
802 217 M 802 218 L S
802 217 M 802 218 L S
874 632 M 874 633 L S
257 671 M 257 672 L S
257 671 M 257 672 L S
213 254 M 213 255 L S
213 254 M 213 255 L S
213 254 M 213 255 L S
835 236 M 835 237 L S
835 236 M 835 237 L S
849 652 M 849 653 L S
224 651 M 224 652 L S
224 651 M 224 652 L S
224 651 M 224 652 L S
243 233 M 243 234 L S
243 233 M 243 234 L S
862 254 M 862 255 L S
816 672 M 816 673 L S
816 672 M 816 673 L S
196 629 M 196 630 L S
196 629 M 196 630 L S
196 629 M 196 630 L S
273 216 M 273 217 L S
273 216 M 273 217 L S
890 278 M 890 279 L S
781 690 M 781 691 L S
781 690 M 781 691 L S
173 608 M 173 609 L S
173 608 M 173 609 L S
173 608 M 173 609 L S
309 199 M 309 200 L S
309 199 M 309 200 L S
914 302 M 914 303 L S
748 703 M 748 704 L S
748 703 M 748 704 L S
151 582 M 151 583 L S
151 582 M 151 583 L S
151 582 M 151 583 L S
347 185 M 347 186 L S
347 185 M 347 186 L S
931 325 M 931 326 L S
708 716 M 708 717 L S
708 716 M 708 717 L S
133 556 M 133 557 L S
133 556 M 133 557 L S
133 556 M 133 557 L S
383 175 M 383 176 L S
383 175 M 383 176 L S
948 353 M 948 354 L S
668 726 M 668 727 L S
668 726 M 668 727 L S
120 531 M 120 532 L S
120 531 M 120 532 L S
120 531 M 120 532 L S
426 166 M 426 167 L S
426 166 M 426 167 L S
960 381 M 960 382 L S
630 733 M 630 734 L S
630 733 M 630 734 L S
110 502 M 110 503 L S
110 502 M 110 503 L S
110 502 M 110 503 L S
468 160 M 468 161 L S
468 160 M 468 161 L S
967 406 M 967 407 L S
586 738 M 586 739 L S
586 738 M 586 739 L S
104 473 M 104 474 L S
104 473 M 104 474 L S
104 473 M 104 474 L S
506 157 M 506 158 L S
506 157 M 506 158 L S
972 436 M 972 437 L S
543 740 M 543 741 L S
543 740 M 543 741 L S
102 447 M 102 448 L S
102 447 M 102 448 L S
102 447 M 102 448 L S
551 156 M 551 157 L S
551 156 M 551 157 L S
971 465 M 971 466 L S
505 739 M 505 740 L S
505 739 M 505 740 L S
104 417 M 104 418 L S
104 417 M 104 418 L S
104 417 M 104 418 L S
594 159 M 594 160 L S
594 159 M 594 160 L S
967 491 M 967 492 L S
460 735 M 460 736 L S
460 735 M 460 736 L S
111 389 M 111 390 L S
111 389 M 111 390 L S
111 389 M 111 390 L S
632 163 M 632 164 L S
632 163 M 632 164 L S
958 521 M 958 522 L S
418 729 M 418 730 L S
418 729 M 418 730 L S
121 364 M 121 365 L S
121 364 M 121 365 L S
121 364 M 121 365 L S
676 171 M 676 172 L S
676 171 M 676 172 L S
946 548 M 946 549 L S
381 721 M 381 722 L S
381 721 M 381 722 L S
136 335 M 136 336 L S
136 335 M 136 336 L S
136 335 M 136 336 L S
715 182 M 715 183 L S
715 182 M 715 183 L S
931 572 M 931 573 L S
340 708 M 340 709 L S
340 708 M 340 709 L S
154 309 M 154 310 L S
154 309 M 154 310 L S
154 309 M 154 310 L S
750 193 M 750 194 L S
750 193 M 750 194 L S
909 599 M 909 600 L S
303 694 M 303 695 L S
303 694 M 303 695 L S
174 287 M 174 288 L S
174 287 M 174 288 L S
174 287 M 174 288 L S
788 210 M 788 211 L S
788 210 M 788 211 L S
886 622 M 886 623 L S
271 679 M 271 680 L S
271 679 M 271 680 L S
201 262 M 201 263 L S
201 262 M 201 263 L S
201 262 M 201 263 L S
821 227 M 821 228 L S
821 227 M 821 228 L S
861 643 M 861 644 L S
237 659 M 237 660 L S
237 659 M 237 660 L S
229 241 M 229 242 L S
229 241 M 229 242 L S
229 241 M 229 242 L S
850 245 M 850 246 L S
829 664 M 829 665 L S
829 664 M 829 665 L S
208 639 M 208 640 L S
208 639 M 208 640 L S
208 639 M 208 640 L S
258 224 M 258 225 L S
258 224 M 258 225 L S
880 268 M 880 269 L S
797 682 M 797 683 L S
797 682 M 797 683 L S
184 618 M 184 619 L S
184 618 M 184 619 L S
184 618 M 184 619 L S
295 206 M 295 207 L S
295 206 M 295 207 L S
904 291 M 904 292 L S
764 697 M 764 698 L S
764 697 M 764 698 L S
159 593 M 159 594 L S
159 593 M 159 594 L S
159 593 M 159 594 L S
331 191 M 331 192 L S
331 191 M 331 192 L S
923 314 M 923 315 L S
724 712 M 724 713 L S
724 712 M 724 713 L S
140 567 M 140 568 L S
140 567 M 140 568 L S
140 567 M 140 568 L S
366 180 M 366 181 L S
366 180 M 366 181 L S
942 342 M 942 343 L S
686 722 M 686 723 L S
686 722 M 686 723 L S
126 543 M 126 544 L S
126 543 M 126 544 L S
126 543 M 126 544 L S
409 169 M 409 170 L S
409 169 M 409 170 L S
956 368 M 956 369 L S
648 730 M 648 731 L S
648 730 M 648 731 L S
113 514 M 113 515 L S
113 514 M 113 515 L S
113 514 M 113 515 L S
449 162 M 449 163 L S
449 162 M 449 163 L S
965 394 M 965 395 L S
604 737 M 604 738 L S
604 737 M 604 738 L S
106 486 M 106 487 L S
106 486 M 106 487 L S
106 486 M 106 487 L S
488 158 M 488 159 L S
488 158 M 488 159 L S
971 424 M 971 425 L S
562 739 M 562 740 L S
562 739 M 562 740 L S
102 460 M 102 461 L S
102 460 M 102 461 L S
102 460 M 102 461 L S
534 156 M 534 157 L S
534 156 M 534 157 L S
972 452 M 972 453 L S
523 740 M 523 741 L S
523 740 M 523 741 L S
103 429 M 103 430 L S
103 429 M 103 430 L S
103 429 M 103 430 L S
575 157 M 575 158 L S
575 157 M 575 158 L S
970 479 M 970 480 L S
477 737 M 477 738 L S
477 737 M 477 738 L S
108 401 M 108 402 L S
108 401 M 108 402 L S
108 401 M 108 402 L S
614 161 M 614 162 L S
614 161 M 614 162 L S
962 509 M 962 510 L S
437 732 M 437 733 L S
437 732 M 437 733 L S
116 375 M 116 376 L S
116 375 M 116 376 L S
116 375 M 116 376 L S
659 168 M 659 169 L S
659 168 M 659 169 L S
952 536 M 952 537 L S
399 725 M 399 726 L S
399 725 M 399 726 L S
129 346 M 129 347 L S
129 346 M 129 347 L S
129 346 M 129 347 L S
698 177 M 698 178 L S
698 177 M 698 178 L S
938 561 M 938 562 L S
356 713 M 356 714 L S
356 713 M 356 714 L S
146 321 M 146 322 L S
146 321 M 146 322 L S
146 321 M 146 322 L S
734 188 M 734 189 L S
734 188 M 734 189 L S
918 589 M 918 590 L S
319 701 M 319 702 L S
319 701 M 319 702 L S
164 297 M 164 298 L S
164 297 M 164 298 L S
164 297 M 164 298 L S
774 203 M 774 204 L S
774 203 M 774 204 L S
897 612 M 897 613 L S
286 686 M 286 687 L S
286 686 M 286 687 L S
190 272 M 190 273 L S
190 272 M 190 273 L S
190 272 M 190 273 L S
807 219 M 807 220 L S
807 219 M 807 220 L S
873 633 M 873 634 L S
250 667 M 250 668 L S
250 667 M 250 668 L S
216 251 M 216 252 L S
216 251 M 216 252 L S
216 251 M 216 252 L S
837 237 M 837 238 L S
837 237 M 837 238 L S
842 656 M 842 657 L S
221 648 M 221 649 L S
221 648 M 221 649 L S
221 648 M 221 649 L S
245 232 M 245 233 L S
245 232 M 245 233 L S
868 259 M 868 260 L S
812 674 M 812 675 L S
812 674 M 812 675 L S
194 628 M 194 629 L S
194 628 M 194 629 L S
194 628 M 194 629 L S
280 212 M 280 213 L S
280 212 M 280 213 L S
893 281 M 893 282 L S
780 690 M 780 691 L S
780 690 M 780 691 L S
168 603 M 168 604 L S
168 603 M 168 604 L S
168 603 M 168 604 L S
314 197 M 314 198 L S
314 197 M 314 198 L S
915 303 M 915 304 L S
740 706 M 740 707 L S
740 706 M 740 707 L S
148 579 M 148 580 L S
148 579 M 148 580 L S
148 579 M 148 580 L S
349 185 M 349 186 L S
349 185 M 349 186 L S
935 331 M 935 332 L S
703 718 M 703 719 L S
703 718 M 703 719 L S
132 554 M 132 555 L S
132 554 M 132 555 L S
132 554 M 132 555 L S
392 173 M 392 174 L S
392 173 M 392 174 L S
950 356 M 950 357 L S
666 727 M 666 728 L S
666 727 M 666 728 L S
117 525 M 117 526 L S
117 525 M 117 526 L S
117 525 M 117 526 L S
431 165 M 431 166 L S
431 165 M 431 166 L S
961 382 M 961 383 L S
621 734 M 621 735 L S
621 734 M 621 735 L S
109 499 M 109 500 L S
109 499 M 109 500 L S
109 499 M 109 500 L S
470 159 M 470 160 L S
470 159 M 470 160 L S
969 413 M 969 414 L S
581 738 M 581 739 L S
581 738 M 581 739 L S
103 472 M 103 473 L S
103 472 M 103 473 L S
103 472 M 103 473 L S
516 156 M 516 157 L S
516 156 M 516 157 L S
972 440 M 972 441 L S
541 740 M 541 741 L S
541 740 M 541 741 L S
102 441 M 102 442 L S
102 441 M 102 442 L S
102 441 M 102 442 L S
556 156 M 556 157 L S
556 156 M 556 157 L S
971 467 M 971 468 L S
495 739 M 495 740 L S
495 739 M 495 740 L S
105 414 M 105 415 L S
105 414 M 105 415 L S
105 414 M 105 415 L S
596 159 M 596 160 L S
596 159 M 596 160 L S
966 497 M 966 498 L S
455 735 M 455 736 L S
455 735 M 455 736 L S
112 387 M 112 388 L S
112 387 M 112 388 L S
112 387 M 112 388 L S
641 165 M 641 166 L S
641 165 M 641 166 L S
957 524 M 957 525 L S
416 728 M 416 729 L S
416 728 M 416 729 L S
123 357 M 123 358 L S
123 357 M 123 358 L S
123 357 M 123 358 L S
680 172 M 680 173 L S
680 172 M 680 173 L S
945 550 M 945 551 L S
372 718 M 372 719 L S
372 718 M 372 719 L S
138 332 M 138 333 L S
138 332 M 138 333 L S
138 332 M 138 333 L S
718 182 M 718 183 L S
718 182 M 718 183 L S
927 578 M 927 579 L S
336 707 M 336 708 L S
336 707 M 336 708 L S
156 308 M 156 309 L S
156 308 M 156 309 L S
156 308 M 156 309 L S
758 197 M 758 198 L S
758 197 M 758 198 L S
907 601 M 907 602 L S
301 693 M 301 694 L S
301 693 M 301 694 L S
180 282 M 180 283 L S
180 282 M 180 283 L S
180 282 M 180 283 L S
792 211 M 792 212 L S
792 211 M 792 212 L S
884 624 M 884 625 L S
264 675 M 264 676 L S
264 675 M 264 676 L S
204 260 M 204 261 L S
204 260 M 204 261 L S
204 260 M 204 261 L S
824 228 M 824 229 L S
824 228 M 824 229 L S
855 648 M 855 649 L S
234 657 M 234 658 L S
234 657 M 234 658 L S
232 240 M 232 241 L S
232 240 M 232 241 L S
232 240 M 232 241 L S
857 250 M 857 251 L S
826 666 M 826 667 L S
826 666 M 826 667 L S
206 637 M 206 638 L S
206 637 M 206 638 L S
206 637 M 206 638 L S
266 220 M 266 221 L S
266 220 M 266 221 L S
882 270 M 882 271 L S
794 684 M 794 685 L S
794 684 M 794 685 L S
178 613 M 178 614 L S
178 613 M 178 614 L S
178 613 M 178 614 L S
298 204 M 298 205 L S
298 204 M 298 205 L S
906 293 M 906 294 L S
756 700 M 756 701 L S
756 700 M 756 701 L S
157 590 M 157 591 L S
157 590 M 157 591 L S
157 590 M 157 591 L S
334 190 M 334 191 L S
334 190 M 334 191 L S
928 320 M 928 321 L S
721 713 M 721 714 L S
721 713 M 721 714 L S
139 565 M 139 566 L S
139 565 M 139 566 L S
139 565 M 139 566 L S
375 177 M 375 178 L S
375 177 M 375 178 L S
944 344 M 944 345 L S
682 723 M 682 724 L S
682 723 M 682 724 L S
123 537 M 123 538 L S
123 537 M 123 538 L S
123 537 M 123 538 L S
412 168 M 412 169 L S
412 168 M 412 169 L S
956 371 M 956 372 L S
639 732 M 639 733 L S
639 732 M 639 733 L S
112 511 M 112 512 L S
112 511 M 112 512 L S
112 511 M 112 512 L S
453 162 M 453 163 L S
453 162 M 453 163 L S
966 401 M 966 402 L S
600 737 M 600 738 L S
600 737 M 600 738 L S
105 484 M 105 485 L S
105 484 M 105 485 L S
105 484 M 105 485 L S
498 157 M 498 158 L S
498 157 M 498 158 L S
971 427 M 971 428 L S
559 740 M 559 741 L S
559 740 M 559 741 L S
102 453 M 102 454 L S
102 453 M 102 454 L S
102 453 M 102 454 L S
537 156 M 537 157 L S
537 156 M 537 157 L S
972 455 M 972 456 L S
513 740 M 513 741 L S
513 740 M 513 741 L S
103 427 M 103 428 L S
103 427 M 103 428 L S
103 427 M 103 428 L S
579 157 M 579 158 L S
579 157 M 579 158 L S
968 485 M 968 486 L S
474 737 M 474 738 L S
474 737 M 474 738 L S
108 399 M 108 400 L S
108 399 M 108 400 L S
108 399 M 108 400 L S
624 162 M 624 163 L S
624 162 M 624 163 L S
962 511 M 962 512 L S
433 731 M 433 732 L S
433 731 M 433 732 L S
118 369 M 118 370 L S
118 369 M 118 370 L S
118 369 M 118 370 L S
662 168 M 662 169 L S
662 168 M 662 169 L S
951 538 M 951 539 L S
389 723 M 389 724 L S
389 723 M 389 724 L S
130 344 M 130 345 L S
130 344 M 130 345 L S
130 344 M 130 345 L S
701 178 M 701 179 L S
701 178 M 701 179 L S
934 567 M 934 568 L S
353 713 M 353 714 L S
353 713 M 353 714 L S
147 318 M 147 319 L S
147 318 M 147 319 L S
147 318 M 147 319 L S
743 191 M 743 192 L S
743 191 M 743 192 L S
917 590 M 917 591 L S
316 699 M 316 700 L S
316 699 M 316 700 L S
170 292 M 170 293 L S
170 292 M 170 293 L S
170 292 M 170 293 L S
776 204 M 776 205 L S
776 204 M 776 205 L S
894 614 M 894 615 L S
278 683 M 278 684 L S
278 683 M 278 684 L S
192 270 M 192 271 L S
192 270 M 192 271 L S
192 270 M 192 271 L S
810 221 M 810 222 L S
810 221 M 810 222 L S
867 638 M 867 639 L S
248 666 M 248 667 L S
248 666 M 248 667 L S
219 249 M 219 250 L S
219 249 M 219 250 L S
219 249 M 219 250 L S
844 241 M 844 242 L S
840 658 M 840 659 L S
840 658 M 840 659 L S
217 646 M 217 647 L S
217 646 M 217 647 L S
217 646 M 217 647 L S
252 227 M 252 228 L S
252 227 M 252 228 L S
870 260 M 870 261 L S
808 676 M 808 677 L S
808 676 M 808 677 L S
189 623 M 189 624 L S
189 623 M 189 624 L S
189 623 M 189 624 L S
282 211 M 282 212 L S
282 211 M 282 212 L S
896 283 M 896 284 L S
771 694 M 771 695 L S
771 694 M 771 695 L S
167 601 M 167 602 L S
167 601 M 167 602 L S
167 601 M 167 602 L S
318 196 M 318 197 L S
318 196 M 318 197 L S
920 309 M 920 310 L S
738 707 M 738 708 L S
738 707 M 738 708 L S
146 576 M 146 577 L S
146 576 M 146 577 L S
146 576 M 146 577 L S
358 182 M 358 183 L S
358 182 M 358 183 L S
937 332 M 937 333 L S
699 719 M 699 720 L S
699 719 M 699 720 L S
128 548 M 128 549 L S
128 548 M 128 549 L S
128 548 M 128 549 L S
394 172 M 394 173 L S
394 172 M 394 173 L S
951 359 M 951 360 L S
656 729 M 656 730 L S
656 729 M 656 730 L S
117 523 M 117 524 L S
117 523 M 117 524 L S
117 523 M 117 524 L S
435 164 M 435 165 L S
435 164 M 435 165 L S
963 389 M 963 390 L S
619 735 M 619 736 L S
619 735 M 619 736 L S
108 495 M 108 496 L S
108 495 M 108 496 L S
108 495 M 108 496 L S
480 159 M 480 160 L S
480 159 M 480 160 L S
969 414 M 969 415 L S
576 739 M 576 740 L S
576 739 M 576 740 L S
103 465 M 103 466 L S
103 465 M 103 466 L S
103 465 M 103 466 L S
518 156 M 518 157 L S
518 156 M 518 157 L S
972 443 M 972 444 L S
531 740 M 531 741 L S
531 740 M 531 741 L S
102 439 M 102 440 L S
102 439 M 102 440 L S
102 439 M 102 440 L S
561 156 M 561 157 L S
561 156 M 561 157 L S
970 473 M 970 474 L S
493 738 M 493 739 L S
493 738 M 493 739 L S
106 411 M 106 412 L S
106 411 M 106 412 L S
106 411 M 106 412 L S
606 160 M 606 161 L S
606 160 M 606 161 L S
965 499 M 965 500 L S
450 734 M 450 735 L S
450 734 M 450 735 L S
114 381 M 114 382 L S
114 381 M 114 382 L S
114 381 M 114 382 L S
644 165 M 644 166 L S
644 165 M 644 166 L S
956 527 M 956 528 L S
407 727 M 407 728 L S
407 727 M 407 728 L S
124 356 M 124 357 L S
124 356 M 124 357 L S
124 356 M 124 357 L S
685 173 M 685 174 L S
685 173 M 685 174 L S
941 556 M 941 557 L S
370 718 M 370 719 L S
370 718 M 370 719 L S
140 329 M 140 330 L S
140 329 M 140 330 L S
140 329 M 140 330 L S
726 185 M 726 186 L S
726 185 M 726 186 L S
926 579 M 926 580 L S
331 705 M 331 706 L S
331 705 M 331 706 L S
160 302 M 160 303 L S
160 302 M 160 303 L S
160 302 M 160 303 L S
760 197 M 760 198 L S
760 197 M 760 198 L S
904 605 M 904 606 L S
293 690 M 293 691 L S
293 690 M 293 691 L S
181 280 M 181 281 L S
181 280 M 181 281 L S
181 280 M 181 281 L S
796 214 M 796 215 L S
796 214 M 796 215 L S
878 629 M 878 630 L S
262 674 M 262 675 L S
262 674 M 262 675 L S
208 257 M 208 258 L S
208 257 M 208 258 L S
208 257 M 208 258 L S
831 233 M 831 234 L S
831 233 M 831 234 L S
853 649 M 853 650 L S
230 655 M 230 656 L S
230 655 M 230 656 L S
230 655 M 230 656 L S
238 236 M 238 237 L S
238 236 M 238 237 L S
858 251 M 858 252 L S
822 669 M 822 670 L S
822 669 M 822 670 L S
200 633 M 200 634 L S
200 633 M 200 634 L S
200 633 M 200 634 L S
268 219 M 268 220 L S
268 219 M 268 220 L S
886 274 M 886 275 L S
787 687 M 787 688 L S
787 687 M 787 688 L S
177 612 M 177 613 L S
177 612 M 177 613 L S
177 612 M 177 613 L S
303 202 M 303 203 L S
303 202 M 303 203 L S
910 298 M 910 299 L S
754 701 M 754 702 L S
754 701 M 754 702 L S
154 587 M 154 588 L S
154 587 M 154 588 L S
154 587 M 154 588 L S
342 187 M 342 188 L S
342 187 M 342 188 L S
929 321 M 929 322 L S
715 714 M 715 715 L S
715 714 M 715 715 L S
135 560 M 135 561 L S
135 560 M 135 561 L S
135 560 M 135 561 L S
377 177 M 377 178 L S
377 177 M 377 178 L S
946 348 M 946 349 L S
674 725 M 674 726 L S
674 725 M 674 726 L S
122 535 M 122 536 L S
122 535 M 122 536 L S
122 535 M 122 536 L S
418 167 M 418 168 L S
418 167 M 418 168 L S
959 376 M 959 377 L S
637 732 M 637 733 L S
637 732 M 637 733 L S
111 507 M 111 508 L S
111 507 M 111 508 L S
111 507 M 111 508 L S
461 160 M 461 161 L S
461 160 M 461 161 L S
967 402 M 967 403 L S
594 738 M 594 739 L S
594 738 M 594 739 L S
104 478 M 104 479 L S
104 478 M 104 479 L S
104 478 M 104 479 L S
500 157 M 500 158 L S
500 157 M 500 158 L S
971 431 M 971 432 L S
550 740 M 550 741 L S
550 740 M 550 741 L S
102 452 M 102 453 L S
102 452 M 102 453 L S
102 452 M 102 453 L S
544 156 M 544 157 L S
544 156 M 544 157 L S
972 461 M 972 462 L S
511 739 M 511 740 L S
511 739 M 511 740 L S
104 422 M 104 423 L S
104 422 M 104 423 L S
104 422 M 104 423 L S
588 158 M 588 159 L S
588 158 M 588 159 L S
968 487 M 968 488 L S
467 736 M 467 737 L S
467 736 M 467 737 L S
110 393 M 110 394 L S
110 393 M 110 394 L S
110 393 M 110 394 L S
626 162 M 626 163 L S
626 162 M 626 163 L S
960 516 M 960 517 L S
424 730 M 424 731 L S
424 730 M 424 731 L S
119 368 M 119 369 L S
119 368 M 119 369 L S
119 368 M 119 369 L S
668 170 M 668 171 L S
668 170 M 668 171 L S
948 544 M 948 545 L S
388 722 M 388 723 L S
388 722 M 388 723 L S
133 340 M 133 341 L S
133 340 M 133 341 L S
133 340 M 133 341 L S
709 180 M 709 181 L S
709 180 M 709 181 L S
934 568 M 934 569 L S
347 711 M 347 712 L S
347 711 M 347 712 L S
151 313 M 151 314 L S
151 313 M 151 314 L S
151 313 M 151 314 L S
744 191 M 744 192 L S
744 191 M 744 192 L S
913 595 M 913 596 L S
309 696 M 309 697 L S
309 696 M 309 697 L S
171 291 M 171 292 L S
171 291 M 171 292 L S
171 291 M 171 292 L S
782 207 M 782 208 L S
782 207 M 782 208 L S
890 619 M 890 620 L S
277 682 M 277 683 L S
277 682 M 277 683 L S
196 266 M 196 267 L S
196 266 M 196 267 L S
196 266 M 196 267 L S
817 224 M 817 225 L S
817 224 M 817 225 L S
866 639 M 866 640 L S
242 663 M 242 664 L S
242 663 M 242 664 L S
225 244 M 225 245 L S
225 244 M 225 245 L S
225 244 M 225 245 L S
845 242 M 845 243 L S
835 661 M 835 662 L S
835 661 M 835 662 L S
212 642 M 212 643 L S
212 642 M 212 643 L S
212 642 M 212 643 L S
253 227 M 253 228 L S
253 227 M 253 228 L S
875 264 M 875 265 L S
802 680 M 802 681 L S
802 680 M 802 681 L S
188 622 M 188 623 L S
188 622 M 188 623 L S
188 622 M 188 623 L S
289 208 M 289 209 L S
289 208 M 289 209 L S
901 288 M 901 289 L S
770 695 M 770 696 L S
770 695 M 770 696 L S
163 597 M 163 598 L S
163 597 M 163 598 L S
163 597 M 163 598 L S
325 193 M 325 194 L S
325 193 M 325 194 L S
920 310 M 920 311 L S
731 709 M 731 710 L S
731 709 M 731 710 L S
143 571 M 143 572 L S
143 571 M 143 572 L S
143 571 M 143 572 L S
360 181 M 360 182 L S
360 181 M 360 182 L S
939 337 M 939 338 L S
692 721 M 692 722 L S
692 721 M 692 722 L S
128 547 M 128 548 L S
128 547 M 128 548 L S
128 547 M 128 548 L S
402 170 M 402 171 L S
402 170 M 402 171 L S
954 364 M 954 365 L S
655 729 M 655 730 L S
655 729 M 655 730 L S
115 518 M 115 519 L S
115 518 M 115 519 L S
115 518 M 115 519 L S
443 163 M 443 164 L S
443 163 M 443 164 L S
963 390 M 963 391 L S
611 736 M 611 737 L S
611 736 M 611 737 L S
107 490 M 107 491 L S
107 490 M 107 491 L S
107 490 M 107 491 L S
481 158 M 481 159 L S
481 158 M 481 159 L S
970 420 M 970 421 L S
568 739 M 568 740 L S
568 739 M 568 740 L S
103 464 M 103 465 L S
103 464 M 103 465 L S
103 464 M 103 465 L S
526 156 M 526 157 L S
526 156 M 526 157 L S
972 448 M 972 449 L S
530 740 M 530 741 L S
530 740 M 530 741 L S
102 434 M 102 435 L S
102 434 M 102 435 L S
102 434 M 102 435 L S
569 157 M 569 158 L S
569 157 M 569 158 L S
970 474 M 970 475 L S
485 738 M 485 739 L S
485 738 M 485 739 L S
107 406 M 107 407 L S
107 406 M 107 407 L S
107 406 M 107 407 L S
607 160 M 607 161 L S
607 160 M 607 161 L S
964 504 M 964 505 L S
443 733 M 443 734 L S
443 733 M 443 734 L S
114 380 M 114 381 L S
114 380 M 114 381 L S
114 380 M 114 381 L S
652 166 M 652 167 L S
652 166 M 652 167 L S
954 532 M 954 533 L S
405 726 M 405 727 L S
405 726 M 405 727 L S
127 351 M 127 352 L S
127 351 M 127 352 L S
127 351 M 127 352 L S
692 175 M 692 176 L S
692 175 M 692 176 L S
941 557 M 941 558 L S
363 716 M 363 717 L S
363 716 M 363 717 L S
143 324 M 143 325 L S
143 324 M 143 325 L S
143 324 M 143 325 L S
728 186 M 728 187 L S
728 186 M 728 187 L S
922 584 M 922 585 L S
325 703 M 325 704 L S
325 703 M 325 704 L S
161 301 M 161 302 L S
161 301 M 161 302 L S
161 301 M 161 302 L S
767 200 M 767 201 L S
767 200 M 767 201 L S
900 609 M 900 610 L S
292 689 M 292 690 L S
292 689 M 292 690 L S
186 276 M 186 277 L S
186 276 M 186 277 L S
186 276 M 186 277 L S
802 216 M 802 217 L S
802 216 M 802 217 L S
877 630 M 877 631 L S
255 671 M 255 672 L S
255 671 M 255 672 L S
212 254 M 212 255 L S
212 254 M 212 255 L S
212 254 M 212 255 L S
832 233 M 832 234 L S
832 233 M 832 234 L S
847 653 M 847 654 L S
225 651 M 225 652 L S
225 651 M 225 652 L S
225 651 M 225 652 L S
240 235 M 240 236 L S
240 235 M 240 236 L S
864 255 M 864 256 L S
816 672 M 816 673 L S
816 672 M 816 673 L S
199 632 M 199 633 L S
199 632 M 199 633 L S
199 632 M 199 633 L S
274 215 M 274 216 L S
274 215 M 274 216 L S
890 277 M 890 278 L S
785 688 M 785 689 L S
785 688 M 785 689 L S
172 607 M 172 608 L S
172 607 M 172 608 L S
172 607 M 172 608 L S
309 199 M 309 200 L S
309 199 M 309 200 L S
911 299 M 911 300 L S
747 704 M 747 705 L S
747 704 M 747 705 L S
151 583 M 151 584 L S
151 583 M 151 584 L S
151 583 M 151 584 L S
343 187 M 343 188 L S
343 187 M 343 188 L S
932 326 M 932 327 L S
709 716 M 709 717 L S
709 716 M 709 717 L S
134 559 M 134 560 L S
134 559 M 134 560 L S
134 559 M 134 560 L S
385 174 M 385 175 L S
385 174 M 385 175 L S
948 352 M 948 353 L S
672 726 M 672 727 L S
672 726 M 672 727 L S
119 530 M 119 531 L S
119 530 M 119 531 L S
119 530 M 119 531 L S
425 166 M 425 167 L S
425 166 M 425 167 L S
959 378 M 959 379 L S
628 734 M 628 735 L S
628 734 M 628 735 L S
110 503 M 110 504 L S
110 503 M 110 504 L S
110 503 M 110 504 L S
463 160 M 463 161 L S
463 160 M 463 161 L S
968 408 M 968 409 L S
587 738 M 587 739 L S
587 738 M 587 739 L S
104 476 M 104 477 L S
104 476 M 104 477 L S
104 476 M 104 477 L S
509 157 M 509 158 L S
509 157 M 509 158 L S
972 435 M 972 436 L S
548 740 M 548 741 L S
548 740 M 548 741 L S
102 446 M 102 447 L S
102 446 M 102 447 L S
102 446 M 102 447 L S
550 156 M 550 157 L S
550 156 M 550 157 L S
972 462 M 972 463 L S
502 739 M 502 740 L S
502 739 M 502 740 L S
104 418 M 104 419 L S
104 418 M 104 419 L S
104 418 M 104 419 L S
589 158 M 589 159 L S
589 158 M 589 159 L S
967 493 M 967 494 L S
461 736 M 461 737 L S
461 736 M 461 737 L S
110 392 M 110 393 L S
110 392 M 110 393 L S
110 392 M 110 393 L S
635 163 M 635 164 L S
635 163 M 635 164 L S
959 520 M 959 521 L S
422 730 M 422 731 L S
422 730 M 422 731 L S
121 362 M 121 363 L S
121 362 M 121 363 L S
121 362 M 121 363 L S
674 171 M 674 172 L S
674 171 M 674 172 L S
947 545 M 947 546 L S
379 720 M 379 721 L S
379 720 M 379 721 L S
135 336 M 135 337 L S
135 336 M 135 337 L S
135 336 M 135 337 L S
711 180 M 711 181 L S
711 180 M 711 181 L S
930 574 M 930 575 L S
341 709 M 341 710 L S
341 709 M 341 710 L S
152 312 M 152 313 L S
152 312 M 152 313 L S
152 312 M 152 313 L S
752 194 M 752 195 L S
752 194 M 752 195 L S
910 598 M 910 599 L S
307 696 M 307 697 L S
307 696 M 307 697 L S
176 285 M 176 286 L S
176 285 M 176 286 L S
176 285 M 176 286 L S
787 209 M 787 210 L S
787 209 M 787 210 L S
888 620 M 888 621 L S
269 678 M 269 679 L S
269 678 M 269 679 L S
200 263 M 200 264 L S
200 263 M 200 264 L S
200 263 M 200 264 L S
818 225 M 818 226 L S
818 225 M 818 226 L S
859 644 M 859 645 L S
238 660 M 238 661 L S
238 660 M 238 661 L S
227 243 M 227 244 L S
227 243 M 227 244 L S
227 243 M 227 244 L S
852 246 M 852 247 L S
831 663 M 831 664 L S
831 663 M 831 664 L S
210 641 M 210 642 L S
210 641 M 210 642 L S
210 641 M 210 642 L S
260 223 M 260 224 L S
260 223 M 260 224 L S
878 267 M 878 268 L S
800 681 M 800 682 L S
800 681 M 800 682 L S
182 617 M 182 618 L S
182 617 M 182 618 L S
182 617 M 182 618 L S
293 206 M 293 207 L S
293 206 M 293 207 L S
902 289 M 902 290 L S
762 698 M 762 699 L S
762 698 M 762 699 L S
160 594 M 160 595 L S
160 594 M 160 595 L S
160 594 M 160 595 L S
327 192 M 327 193 L S
327 192 M 327 193 L S
925 316 M 925 317 L S
726 711 M 726 712 L S
726 711 M 726 712 L S
142 570 M 142 571 L S
142 570 M 142 571 L S
142 570 M 142 571 L S
369 179 M 369 180 L S
369 179 M 369 180 L S
941 340 M 941 341 L S
689 722 M 689 723 L S
689 722 M 689 723 L S
125 541 M 125 542 L S
125 541 M 125 542 L S
125 541 M 125 542 L S
407 169 M 407 170 L S
407 169 M 407 170 L S
955 366 M 955 367 L S
645 731 M 645 732 L S
645 731 M 645 732 L S
114 515 M 114 516 L S
114 515 M 114 516 L S
114 515 M 114 516 L S
446 163 M 446 164 L S
446 163 M 446 164 L S
965 396 M 965 397 L S
606 736 M 606 737 L S
606 736 M 606 737 L S
106 488 M 106 489 L S
106 488 M 106 489 L S
106 488 M 106 489 L S
491 158 M 491 159 L S
491 158 M 491 159 L S
970 423 M 970 424 L S
566 739 M 566 740 L S
566 739 M 566 740 L S
102 458 M 102 459 L S
102 458 M 102 459 L S
102 458 M 102 459 L S
531 156 M 531 157 L S
531 156 M 531 157 L S
972 450 M 972 451 L S
520 740 M 520 741 L S
520 740 M 520 741 L S
103 431 M 103 432 L S
103 431 M 103 432 L S
103 431 M 103 432 L S
572 157 M 572 158 L S
572 157 M 572 158 L S
969 481 M 969 482 L S
480 737 M 480 738 L S
480 737 M 480 738 L S
107 404 M 107 405 L S
107 404 M 107 405 L S
107 404 M 107 405 L S
617 161 M 617 162 L S
617 161 M 617 162 L S
963 507 M 963 508 L S
440 733 M 440 734 L S
440 733 M 440 734 L S
116 374 M 116 375 L S
116 374 M 116 375 L S
116 374 M 116 375 L S
656 167 M 656 168 L S
656 167 M 656 168 L S
953 534 M 953 535 L S
396 724 M 396 725 L S
396 724 M 396 725 L S
128 348 M 128 349 L S
128 348 M 128 349 L S
128 348 M 128 349 L S
695 176 M 695 177 L S
695 176 M 695 177 L S
937 563 M 937 564 L S
359 714 M 359 715 L S
359 714 M 359 715 L S
144 323 M 144 324 L S
144 323 M 144 324 L S
144 323 M 144 324 L S
736 189 M 736 190 L S
736 189 M 736 190 L S
920 587 M 920 588 L S
322 702 M 322 703 L S
322 702 M 322 703 L S
166 296 M 166 297 L S
166 296 M 166 297 L S
166 296 M 166 297 L S
771 202 M 771 203 L S
771 202 M 771 203 L S
899 610 M 899 611 L S
284 685 M 284 686 L S
284 685 M 284 686 L S
188 273 M 188 274 L S
188 273 M 188 274 L S
188 273 M 188 274 L S
805 218 M 805 219 L S
805 218 M 805 219 L S
871 635 M 871 636 L S
252 669 M 252 670 L S
252 669 M 252 670 L S
214 252 M 214 253 L S
214 252 M 214 253 L S
214 252 M 214 253 L S
839 238 M 839 239 L S
839 238 M 839 239 L S
844 655 M 844 656 L S
222 650 M 222 651 L S
222 650 M 222 651 L S
222 650 M 222 651 L S
247 230 M 247 231 L S
247 230 M 247 231 L S
866 257 M 866 258 L S
814 673 M 814 674 L S
814 673 M 814 674 L S
193 626 M 193 627 L S
193 626 M 193 627 L S
193 626 M 193 627 L S
278 214 M 278 215 L S
278 214 M 278 215 L S
892 279 M 892 280 L S
777 692 M 777 693 L S
777 692 M 777 693 L S
170 605 M 170 606 L S
170 605 M 170 606 L S
170 605 M 170 606 L S
312 198 M 312 199 L S
312 198 M 312 199 L S
916 305 M 916 306 L S
743 705 M 743 706 L S
743 705 M 743 706 L S
149 581 M 149 582 L S
149 581 M 149 582 L S
149 581 M 149 582 L S
352 184 M 352 185 L S
352 184 M 352 185 L S
934 329 M 934 330 L S
706 717 M 706 718 L S
706 717 M 706 718 L S
131 553 M 131 554 L S
131 553 M 131 554 L S
131 553 M 131 554 L S
389 174 M 389 175 L S
389 174 M 389 175 L S
949 355 M 949 356 L S
663 728 M 663 729 L S
663 728 M 663 729 L S
118 527 M 118 528 L S
118 527 M 118 528 L S
118 527 M 118 528 L S
428 165 M 428 166 L S
428 165 M 428 166 L S
961 384 M 961 385 L S
625 734 M 625 735 L S
625 734 M 625 735 L S
109 500 M 109 501 L S
109 500 M 109 501 L S
109 500 M 109 501 L S
473 159 M 473 160 L S
473 159 M 473 160 L S
968 410 M 968 411 L S
583 738 M 583 739 L S
583 738 M 583 739 L S
103 470 M 103 471 L S
103 470 M 103 471 L S
103 470 M 103 471 L S
512 156 M 512 157 L S
512 156 M 512 157 L S
972 438 M 972 439 L S
538 740 M 538 741 L S
538 740 M 538 741 L S
102 443 M 102 444 L S
102 443 M 102 444 L S
102 443 M 102 444 L S
554 156 M 554 157 L S
554 156 M 554 157 L S
971 469 M 971 470 L S
499 739 M 499 740 L S
499 739 M 499 740 L S
105 415 M 105 416 L S
105 415 M 105 416 L S
105 415 M 105 416 L S
599 159 M 599 160 L S
599 159 M 599 160 L S
966 495 M 966 496 L S
457 735 M 457 736 L S
457 735 M 457 736 L S
112 385 M 112 386 L S
112 385 M 112 386 L S
112 385 M 112 386 L S
638 164 M 638 165 L S
638 164 M 638 165 L S
958 522 M 958 523 L S
413 728 M 413 729 L S
413 728 M 413 729 L S
122 360 M 122 361 L S
122 360 M 122 361 L S
122 360 M 122 361 L S
678 172 M 678 173 L S
678 172 M 678 173 L S
944 551 M 944 552 L S
376 719 M 376 720 L S
376 719 M 376 720 L S
137 333 M 137 334 L S
137 333 M 137 334 L S
137 333 M 137 334 L S
720 183 M 720 184 L S
720 183 M 720 184 L S
928 575 M 928 576 L S
338 708 M 338 709 L S
338 708 M 338 709 L S
157 306 M 157 307 L S
157 306 M 157 307 L S
157 306 M 157 307 L S
755 195 M 755 196 L S
755 195 M 755 196 L S
908 600 M 908 601 L S
298 692 M 298 693 L S
298 692 M 298 693 L S
177 284 M 177 285 L S
177 284 M 177 285 L S
177 284 M 177 285 L S
790 211 M 790 212 L S
790 211 M 790 212 L S
882 625 M 882 626 L S
267 677 M 267 678 L S
267 677 M 267 678 L S
203 261 M 203 262 L S
203 261 M 203 262 L S
203 261 M 203 262 L S
826 230 M 826 231 L S
826 230 M 826 231 L S
857 645 M 857 646 L S
235 658 M 235 659 L S
235 658 M 235 659 L S
234 239 M 234 240 L S
234 239 M 234 240 L S
234 239 M 234 240 L S
854 248 M 854 249 L S
827 666 M 827 667 L S
827 666 M 827 667 L S
204 636 M 204 637 L S
204 636 M 204 637 L S
204 636 M 204 637 L S
263 221 M 263 222 L S
263 221 M 263 222 L S
881 270 M 881 271 L S
792 685 M 792 686 L S
792 685 M 792 686 L S
180 615 M 180 616 L S
180 615 M 180 616 L S
180 615 M 180 616 L S
297 204 M 297 205 L S
297 204 M 297 205 L S
907 294 M 907 295 L S
760 699 M 760 700 L S
760 699 M 760 700 L S
158 591 M 158 592 L S
158 591 M 158 592 L S
158 591 M 158 592 L S
336 189 M 336 190 L S
336 189 M 336 190 L S
926 317 M 926 318 L S
722 712 M 722 713 L S
722 712 M 722 713 L S
138 564 M 138 565 L S
138 564 M 138 565 L S
138 564 M 138 565 L S
371 178 M 371 179 L S
371 178 M 371 179 L S
943 343 M 943 344 L S
680 724 M 680 725 L S
680 724 M 680 725 L S
124 540 M 124 541 L S
124 540 M 124 541 L S
124 540 M 124 541 L S
/Courier-Bold findfont 27 scalefont setfont
101 764 M (Zgoubi|Zpop                                                                     ) H
101 743 M (18-07-2017                                                                      ) H
/Courier-Bold findfont 26 scalefont setfont
160 85 M (* # COORDINATES  - STORAGE FILE, 18-07-2017 07:03:03 *                                                                            ) H
293 755 M (  Z'    (rad) vs.    Z     (m)                                                                                                    ) H
26 42 M (Mi-ma H/V:  -3.170E-03  3.170E-03/ -3.052E-03  3.052E-03                                                                          ) H
26 21 M (Part#  1- 10000 (*); Lmnt#     1; pass#       1-    700, [    1];    700 pnts                                                     ) H
[] 0 D
845 448 M 845 448 L S
845 448 M 845 448 L S
845 448 M 845 452 L S
845 452 M 845 455 L S
845 455 M 845 458 L S
845 458 M 844 461 L S
844 461 M 844 465 L S
844 465 M 844 468 L S
844 468 M 843 471 L S
843 471 M 842 474 L S
842 474 M 842 477 L S
842 477 M 841 481 L S
841 481 M 840 484 L S
840 484 M 839 487 L S
839 487 M 838 490 L S
838 490 M 837 493 L S
837 493 M 836 497 L S
836 497 M 835 500 L S
835 500 M 834 503 L S
834 503 M 833 506 L S
833 506 M 831 509 L S
831 509 M 830 512 L S
830 512 M 828 515 L S
828 515 M 827 518 L S
827 518 M 825 521 L S
825 521 M 823 524 L S
823 524 M 821 527 L S
821 527 M 820 530 L S
820 530 M 818 533 L S
818 533 M 816 536 L S
816 536 M 814 539 L S
814 539 M 811 542 L S
811 542 M 809 545 L S
809 545 M 807 548 L S
807 548 M 804 551 L S
804 551 M 802 553 L S
802 553 M 800 556 L S
800 556 M 797 559 L S
797 559 M 794 562 L S
794 562 M 792 564 L S
792 564 M 789 567 L S
789 567 M 786 570 L S
786 570 M 783 572 L S
783 572 M 780 575 L S
780 575 M 777 577 L S
777 577 M 774 580 L S
774 580 M 771 582 L S
771 582 M 768 585 L S
768 585 M 765 587 L S
765 587 M 761 590 L S
761 590 M 758 592 L S
758 592 M 755 594 L S
755 594 M 751 597 L S
751 597 M 748 599 L S
748 599 M 744 601 L S
744 601 M 741 603 L S
741 603 M 737 605 L S
737 605 M 733 607 L S
733 607 M 730 609 L S
730 609 M 726 611 L S
726 611 M 722 613 L S
722 613 M 718 615 L S
718 615 M 714 617 L S
714 617 M 710 619 L S
710 619 M 706 621 L S
706 621 M 702 623 L S
702 623 M 698 624 L S
698 624 M 694 626 L S
694 626 M 690 628 L S
690 628 M 685 629 L S
685 629 M 681 631 L S
681 631 M 677 632 L S
677 632 M 673 634 L S
673 634 M 668 635 L S
668 635 M 664 636 L S
664 636 M 659 638 L S
659 638 M 655 639 L S
655 639 M 650 640 L S
650 640 M 646 641 L S
646 641 M 641 643 L S
641 643 M 637 644 L S
637 644 M 632 645 L S
632 645 M 628 646 L S
628 646 M 623 647 L S
623 647 M 618 647 L S
618 647 M 614 648 L S
614 648 M 609 649 L S
609 649 M 604 650 L S
604 650 M 600 650 L S
600 650 M 595 651 L S
595 651 M 590 652 L S
590 652 M 585 652 L S
585 652 M 580 653 L S
580 653 M 576 653 L S
576 653 M 571 654 L S
571 654 M 566 654 L S
566 654 M 561 654 L S
561 654 M 556 654 L S
556 654 M 552 655 L S
552 655 M 547 655 L S
547 655 M 542 655 L S
542 655 M 537 655 L S
537 655 M 532 655 L S
532 655 M 527 655 L S
527 655 M 523 655 L S
523 655 M 518 654 L S
518 654 M 513 654 L S
513 654 M 508 654 L S
508 654 M 503 654 L S
503 654 M 499 653 L S
499 653 M 494 653 L S
494 653 M 489 652 L S
489 652 M 484 652 L S
484 652 M 479 651 L S
479 651 M 475 651 L S
475 651 M 470 650 L S
470 650 M 465 649 L S
465 649 M 461 648 L S
461 648 M 456 648 L S
456 648 M 451 647 L S
451 647 M 447 646 L S
447 646 M 442 645 L S
442 645 M 437 644 L S
437 644 M 433 643 L S
433 643 M 428 642 L S
428 642 M 424 640 L S
424 640 M 419 639 L S
419 639 M 415 638 L S
415 638 M 410 637 L S
410 637 M 406 635 L S
406 635 M 402 634 L S
402 634 M 397 632 L S
397 632 M 393 631 L S
393 631 M 389 629 L S
389 629 M 385 628 L S
385 628 M 380 626 L S
380 626 M 376 624 L S
376 624 M 372 623 L S
372 623 M 368 621 L S
368 621 M 364 619 L S
364 619 M 360 617 L S
360 617 M 356 615 L S
356 615 M 352 614 L S
352 614 M 348 612 L S
348 612 M 345 610 L S
345 610 M 341 608 L S
341 608 M 337 605 L S
337 605 M 334 603 L S
334 603 M 330 601 L S
330 601 M 326 599 L S
326 599 M 323 597 L S
323 597 M 319 594 L S
319 594 M 316 592 L S
316 592 M 313 590 L S
313 590 M 309 587 L S
309 587 M 306 585 L S
306 585 M 303 583 L S
303 583 M 300 580 L S
300 580 M 297 578 L S
297 578 M 294 575 L S
294 575 M 291 572 L S
291 572 M 288 570 L S
288 570 M 285 567 L S
285 567 M 283 565 L S
283 565 M 280 562 L S
280 562 M 277 559 L S
277 559 M 275 556 L S
275 556 M 272 554 L S
272 554 M 270 551 L S
270 551 M 267 548 L S
267 548 M 265 545 L S
265 545 M 263 542 L S
263 542 M 261 539 L S
261 539 M 259 536 L S
259 536 M 257 533 L S
257 533 M 255 530 L S
255 530 M 253 528 L S
253 528 M 251 525 L S
251 525 M 249 521 L S
249 521 M 248 518 L S
248 518 M 246 515 L S
246 515 M 244 512 L S
244 512 M 243 509 L S
243 509 M 242 506 L S
242 506 M 240 503 L S
240 503 M 239 500 L S
239 500 M 238 497 L S
238 497 M 237 494 L S
237 494 M 236 490 L S
236 490 M 235 487 L S
235 487 M 234 484 L S
234 484 M 233 481 L S
233 481 M 232 478 L S
232 478 M 232 474 L S
232 474 M 231 471 L S
231 471 M 231 468 L S
231 468 M 230 465 L S
230 465 M 230 462 L S
230 462 M 230 458 L S
230 458 M 229 455 L S
229 455 M 229 452 L S
229 452 M 229 449 L S
229 449 M 229 445 L S
229 445 M 229 442 L S
229 442 M 230 439 L S
230 439 M 230 436 L S
230 436 M 230 432 L S
230 432 M 231 429 L S
231 429 M 231 426 L S
231 426 M 232 423 L S
232 423 M 232 419 L S
232 419 M 233 416 L S
233 416 M 234 413 L S
234 413 M 235 410 L S
235 410 M 236 407 L S
236 407 M 237 404 L S
237 404 M 238 400 L S
238 400 M 239 397 L S
239 397 M 240 394 L S
240 394 M 242 391 L S
242 391 M 243 388 L S
243 388 M 244 385 L S
244 385 M 246 382 L S
246 382 M 248 379 L S
248 379 M 249 376 L S
249 376 M 251 373 L S
251 373 M 253 370 L S
253 370 M 255 367 L S
255 367 M 257 364 L S
257 364 M 259 361 L S
259 361 M 261 358 L S
261 358 M 263 355 L S
263 355 M 265 352 L S
265 352 M 267 349 L S
267 349 M 270 346 L S
270 346 M 272 344 L S
272 344 M 275 341 L S
275 341 M 277 338 L S
277 338 M 280 335 L S
280 335 M 283 333 L S
283 333 M 285 330 L S
285 330 M 288 327 L S
288 327 M 291 325 L S
291 325 M 294 322 L S
294 322 M 297 320 L S
297 320 M 300 317 L S
300 317 M 303 315 L S
303 315 M 306 312 L S
306 312 M 309 310 L S
309 310 M 313 307 L S
313 307 M 316 305 L S
316 305 M 319 303 L S
319 303 M 323 300 L S
323 300 M 326 298 L S
326 298 M 330 296 L S
330 296 M 334 294 L S
334 294 M 337 292 L S
337 292 M 341 290 L S
341 290 M 345 287 L S
345 287 M 348 285 L S
348 285 M 352 284 L S
352 284 M 356 282 L S
356 282 M 360 280 L S
360 280 M 364 278 L S
364 278 M 368 276 L S
368 276 M 372 274 L S
372 274 M 376 273 L S
376 273 M 380 271 L S
380 271 M 385 269 L S
385 269 M 389 268 L S
389 268 M 393 266 L S
393 266 M 397 265 L S
397 265 M 402 263 L S
402 263 M 406 262 L S
406 262 M 410 260 L S
410 260 M 415 259 L S
415 259 M 419 258 L S
419 258 M 424 257 L S
424 257 M 428 255 L S
428 255 M 433 254 L S
433 254 M 437 253 L S
437 253 M 442 252 L S
442 252 M 447 251 L S
447 251 M 451 250 L S
451 250 M 456 249 L S
456 249 M 461 249 L S
461 249 M 465 248 L S
465 248 M 470 247 L S
470 247 M 475 246 L S
475 246 M 479 246 L S
479 246 M 484 245 L S
484 245 M 489 245 L S
489 245 M 494 244 L S
494 244 M 499 244 L S
499 244 M 503 243 L S
503 243 M 508 243 L S
508 243 M 513 243 L S
513 243 M 518 243 L S
518 243 M 523 242 L S
523 242 M 527 242 L S
527 242 M 532 242 L S
532 242 M 537 242 L S
537 242 M 542 242 L S
542 242 M 547 242 L S
547 242 M 552 242 L S
552 242 M 556 243 L S
556 243 M 561 243 L S
561 243 M 566 243 L S
566 243 M 571 243 L S
571 243 M 576 244 L S
576 244 M 580 244 L S
580 244 M 585 245 L S
585 245 M 590 245 L S
590 245 M 595 246 L S
595 246 M 600 246 L S
600 246 M 604 247 L S
604 247 M 609 248 L S
609 248 M 614 249 L S
614 249 M 618 249 L S
618 249 M 623 250 L S
623 250 M 628 251 L S
628 251 M 632 252 L S
632 252 M 637 253 L S
637 253 M 641 254 L S
641 254 M 646 255 L S
646 255 M 650 257 L S
650 257 M 655 258 L S
655 258 M 659 259 L S
659 259 M 664 260 L S
664 260 M 668 262 L S
668 262 M 673 263 L S
673 263 M 677 265 L S
677 265 M 681 266 L S
681 266 M 685 268 L S
685 268 M 690 269 L S
690 269 M 694 271 L S
694 271 M 698 272 L S
698 272 M 702 274 L S
702 274 M 706 276 L S
706 276 M 710 278 L S
710 278 M 714 280 L S
714 280 M 718 281 L S
718 281 M 722 283 L S
722 283 M 726 285 L S
726 285 M 730 287 L S
730 287 M 733 289 L S
733 289 M 737 291 L S
737 291 M 741 294 L S
741 294 M 744 296 L S
744 296 M 748 298 L S
748 298 M 751 300 L S
751 300 M 755 302 L S
755 302 M 758 305 L S
758 305 M 761 307 L S
761 307 M 765 310 L S
765 310 M 768 312 L S
768 312 M 771 314 L S
771 314 M 774 317 L S
774 317 M 777 319 L S
777 319 M 780 322 L S
780 322 M 783 324 L S
783 324 M 786 327 L S
786 327 M 789 330 L S
789 330 M 792 332 L S
792 332 M 794 335 L S
794 335 M 797 338 L S
797 338 M 800 341 L S
800 341 M 802 343 L S
802 343 M 804 346 L S
804 346 M 807 349 L S
807 349 M 809 352 L S
809 352 M 811 355 L S
811 355 M 814 358 L S
814 358 M 816 361 L S
816 361 M 818 363 L S
818 363 M 820 366 L S
820 366 M 821 369 L S
821 369 M 823 372 L S
823 372 M 825 375 L S
825 375 M 827 378 L S
827 378 M 828 382 L S
828 382 M 830 385 L S
830 385 M 831 388 L S
831 388 M 833 391 L S
833 391 M 834 394 L S
834 394 M 835 397 L S
835 397 M 836 400 L S
836 400 M 837 403 L S
837 403 M 838 407 L S
838 407 M 839 410 L S
839 410 M 840 413 L S
840 413 M 841 416 L S
841 416 M 842 419 L S
842 419 M 842 423 L S
842 423 M 843 426 L S
843 426 M 844 429 L S
844 429 M 844 432 L S
844 432 M 844 435 L S
844 435 M 845 439 L S
845 439 M 845 442 L S
845 442 M 845 445 L S
845 445 M 845 448 L S
26 63 M (Eps/pi, Beta, Alpha :   4.8373E-06  1.0398E+00  4.4934E-04                      ) H
showpage
