%!PS-Adobe-2.0 EPSF-2.0
%%Title: gnuplot_TWISS_btxy.eps
%%Creator: gnuplot 5.2 patchlevel 2
%%CreationDate: Sun Jun  6 10:31:26 2021
%%DocumentFonts: (atend)
%%BoundingBox: 50 50 285 191
%%EndComments
%%BeginProlog
/gnudict 256 dict def
gnudict begin
%
% The following true/false flags may be edited by hand if desired.
% The unit line width and grayscale image gamma correction may also be changed.
%
/Color true def
/Blacktext true def
/Solid false def
/Dashlength 1 def
/Landscape false def
/Level1 false def
/Level3 false def
/Rounded false def
/ClipToBoundingBox false def
/SuppressPDFMark false def
/TransparentPatterns false def
/gnulinewidth 5.000 def
/userlinewidth gnulinewidth def
/Gamma 1.0 def
/BackgroundColor {-1.000 -1.000 -1.000} def
%
/vshift -40 def
/dl1 {
  10.0 Dashlength userlinewidth gnulinewidth div mul mul mul
  Rounded { currentlinewidth 0.75 mul sub dup 0 le { pop 0.01 } if } if
} def
/dl2 {
  10.0 Dashlength userlinewidth gnulinewidth div mul mul mul
  Rounded { currentlinewidth 0.75 mul add } if
} def
/hpt_ 31.5 def
/vpt_ 31.5 def
/hpt hpt_ def
/vpt vpt_ def
/doclip {
  ClipToBoundingBox {
    newpath 50 50 moveto 285 50 lineto 285 191 lineto 50 191 lineto closepath
    clip
  } if
} def
%
% Gnuplot Prolog Version 5.1 (Oct 2015)
%
%/SuppressPDFMark true def
%
/M {moveto} bind def
/L {lineto} bind def
/R {rmoveto} bind def
/V {rlineto} bind def
/N {newpath moveto} bind def
/Z {closepath} bind def
/C {setrgbcolor} bind def
/f {rlineto fill} bind def
/g {setgray} bind def
/Gshow {show} def   % May be redefined later in the file to support UTF-8
/vpt2 vpt 2 mul def
/hpt2 hpt 2 mul def
/Lshow {currentpoint stroke M 0 vshift R 
	Blacktext {gsave 0 setgray textshow grestore} {textshow} ifelse} def
/Rshow {currentpoint stroke M dup stringwidth pop neg vshift R
	Blacktext {gsave 0 setgray textshow grestore} {textshow} ifelse} def
/Cshow {currentpoint stroke M dup stringwidth pop -2 div vshift R 
	Blacktext {gsave 0 setgray textshow grestore} {textshow} ifelse} def
/UP {dup vpt_ mul /vpt exch def hpt_ mul /hpt exch def
  /hpt2 hpt 2 mul def /vpt2 vpt 2 mul def} def
/DL {Color {setrgbcolor Solid {pop []} if 0 setdash}
 {pop pop pop 0 setgray Solid {pop []} if 0 setdash} ifelse} def
/BL {stroke userlinewidth 2 mul setlinewidth
	Rounded {1 setlinejoin 1 setlinecap} if} def
/AL {stroke userlinewidth 2 div setlinewidth
	Rounded {1 setlinejoin 1 setlinecap} if} def
/UL {dup gnulinewidth mul /userlinewidth exch def
	dup 1 lt {pop 1} if 10 mul /udl exch def} def
/PL {stroke userlinewidth setlinewidth
	Rounded {1 setlinejoin 1 setlinecap} if} def
3.8 setmiterlimit
% Classic Line colors (version 5.0)
/LCw {1 1 1} def
/LCb {0 0 0} def
/LCa {0 0 0} def
/LC0 {1 0 0} def
/LC1 {0 1 0} def
/LC2 {0 0 1} def
/LC3 {1 0 1} def
/LC4 {0 1 1} def
/LC5 {1 1 0} def
/LC6 {0 0 0} def
/LC7 {1 0.3 0} def
/LC8 {0.5 0.5 0.5} def
% Default dash patterns (version 5.0)
/LTB {BL [] LCb DL} def
/LTw {PL [] 1 setgray} def
/LTb {PL [] LCb DL} def
/LTa {AL [1 udl mul 2 udl mul] 0 setdash LCa setrgbcolor} def
/LT0 {PL [] LC0 DL} def
/LT1 {PL [2 dl1 3 dl2] LC1 DL} def
/LT2 {PL [1 dl1 1.5 dl2] LC2 DL} def
/LT3 {PL [6 dl1 2 dl2 1 dl1 2 dl2] LC3 DL} def
/LT4 {PL [1 dl1 2 dl2 6 dl1 2 dl2 1 dl1 2 dl2] LC4 DL} def
/LT5 {PL [4 dl1 2 dl2] LC5 DL} def
/LT6 {PL [1.5 dl1 1.5 dl2 1.5 dl1 1.5 dl2 1.5 dl1 6 dl2] LC6 DL} def
/LT7 {PL [3 dl1 3 dl2 1 dl1 3 dl2] LC7 DL} def
/LT8 {PL [2 dl1 2 dl2 2 dl1 6 dl2] LC8 DL} def
/SL {[] 0 setdash} def
/Pnt {stroke [] 0 setdash gsave 1 setlinecap M 0 0 V stroke grestore} def
/Dia {stroke [] 0 setdash 2 copy vpt add M
  hpt neg vpt neg V hpt vpt neg V
  hpt vpt V hpt neg vpt V closepath stroke
  Pnt} def
/Pls {stroke [] 0 setdash vpt sub M 0 vpt2 V
  currentpoint stroke M
  hpt neg vpt neg R hpt2 0 V stroke
 } def
/Box {stroke [] 0 setdash 2 copy exch hpt sub exch vpt add M
  0 vpt2 neg V hpt2 0 V 0 vpt2 V
  hpt2 neg 0 V closepath stroke
  Pnt} def
/Crs {stroke [] 0 setdash exch hpt sub exch vpt add M
  hpt2 vpt2 neg V currentpoint stroke M
  hpt2 neg 0 R hpt2 vpt2 V stroke} def
/TriU {stroke [] 0 setdash 2 copy vpt 1.12 mul add M
  hpt neg vpt -1.62 mul V
  hpt 2 mul 0 V
  hpt neg vpt 1.62 mul V closepath stroke
  Pnt} def
/Star {2 copy Pls Crs} def
/BoxF {stroke [] 0 setdash exch hpt sub exch vpt add M
  0 vpt2 neg V hpt2 0 V 0 vpt2 V
  hpt2 neg 0 V closepath fill} def
/TriUF {stroke [] 0 setdash vpt 1.12 mul add M
  hpt neg vpt -1.62 mul V
  hpt 2 mul 0 V
  hpt neg vpt 1.62 mul V closepath fill} def
/TriD {stroke [] 0 setdash 2 copy vpt 1.12 mul sub M
  hpt neg vpt 1.62 mul V
  hpt 2 mul 0 V
  hpt neg vpt -1.62 mul V closepath stroke
  Pnt} def
/TriDF {stroke [] 0 setdash vpt 1.12 mul sub M
  hpt neg vpt 1.62 mul V
  hpt 2 mul 0 V
  hpt neg vpt -1.62 mul V closepath fill} def
/DiaF {stroke [] 0 setdash vpt add M
  hpt neg vpt neg V hpt vpt neg V
  hpt vpt V hpt neg vpt V closepath fill} def
/Pent {stroke [] 0 setdash 2 copy gsave
  translate 0 hpt M 4 {72 rotate 0 hpt L} repeat
  closepath stroke grestore Pnt} def
/PentF {stroke [] 0 setdash gsave
  translate 0 hpt M 4 {72 rotate 0 hpt L} repeat
  closepath fill grestore} def
/Circle {stroke [] 0 setdash 2 copy
  hpt 0 360 arc stroke Pnt} def
/CircleF {stroke [] 0 setdash hpt 0 360 arc fill} def
/C0 {BL [] 0 setdash 2 copy moveto vpt 90 450 arc} bind def
/C1 {BL [] 0 setdash 2 copy moveto
	2 copy vpt 0 90 arc closepath fill
	vpt 0 360 arc closepath} bind def
/C2 {BL [] 0 setdash 2 copy moveto
	2 copy vpt 90 180 arc closepath fill
	vpt 0 360 arc closepath} bind def
/C3 {BL [] 0 setdash 2 copy moveto
	2 copy vpt 0 180 arc closepath fill
	vpt 0 360 arc closepath} bind def
/C4 {BL [] 0 setdash 2 copy moveto
	2 copy vpt 180 270 arc closepath fill
	vpt 0 360 arc closepath} bind def
/C5 {BL [] 0 setdash 2 copy moveto
	2 copy vpt 0 90 arc
	2 copy moveto
	2 copy vpt 180 270 arc closepath fill
	vpt 0 360 arc} bind def
/C6 {BL [] 0 setdash 2 copy moveto
	2 copy vpt 90 270 arc closepath fill
	vpt 0 360 arc closepath} bind def
/C7 {BL [] 0 setdash 2 copy moveto
	2 copy vpt 0 270 arc closepath fill
	vpt 0 360 arc closepath} bind def
/C8 {BL [] 0 setdash 2 copy moveto
	2 copy vpt 270 360 arc closepath fill
	vpt 0 360 arc closepath} bind def
/C9 {BL [] 0 setdash 2 copy moveto
	2 copy vpt 270 450 arc closepath fill
	vpt 0 360 arc closepath} bind def
/C10 {BL [] 0 setdash 2 copy 2 copy moveto vpt 270 360 arc closepath fill
	2 copy moveto
	2 copy vpt 90 180 arc closepath fill
	vpt 0 360 arc closepath} bind def
/C11 {BL [] 0 setdash 2 copy moveto
	2 copy vpt 0 180 arc closepath fill
	2 copy moveto
	2 copy vpt 270 360 arc closepath fill
	vpt 0 360 arc closepath} bind def
/C12 {BL [] 0 setdash 2 copy moveto
	2 copy vpt 180 360 arc closepath fill
	vpt 0 360 arc closepath} bind def
/C13 {BL [] 0 setdash 2 copy moveto
	2 copy vpt 0 90 arc closepath fill
	2 copy moveto
	2 copy vpt 180 360 arc closepath fill
	vpt 0 360 arc closepath} bind def
/C14 {BL [] 0 setdash 2 copy moveto
	2 copy vpt 90 360 arc closepath fill
	vpt 0 360 arc} bind def
/C15 {BL [] 0 setdash 2 copy vpt 0 360 arc closepath fill
	vpt 0 360 arc closepath} bind def
/Rec {newpath 4 2 roll moveto 1 index 0 rlineto 0 exch rlineto
	neg 0 rlineto closepath} bind def
/Square {dup Rec} bind def
/Bsquare {vpt sub exch vpt sub exch vpt2 Square} bind def
/S0 {BL [] 0 setdash 2 copy moveto 0 vpt rlineto BL Bsquare} bind def
/S1 {BL [] 0 setdash 2 copy vpt Square fill Bsquare} bind def
/S2 {BL [] 0 setdash 2 copy exch vpt sub exch vpt Square fill Bsquare} bind def
/S3 {BL [] 0 setdash 2 copy exch vpt sub exch vpt2 vpt Rec fill Bsquare} bind def
/S4 {BL [] 0 setdash 2 copy exch vpt sub exch vpt sub vpt Square fill Bsquare} bind def
/S5 {BL [] 0 setdash 2 copy 2 copy vpt Square fill
	exch vpt sub exch vpt sub vpt Square fill Bsquare} bind def
/S6 {BL [] 0 setdash 2 copy exch vpt sub exch vpt sub vpt vpt2 Rec fill Bsquare} bind def
/S7 {BL [] 0 setdash 2 copy exch vpt sub exch vpt sub vpt vpt2 Rec fill
	2 copy vpt Square fill Bsquare} bind def
/S8 {BL [] 0 setdash 2 copy vpt sub vpt Square fill Bsquare} bind def
/S9 {BL [] 0 setdash 2 copy vpt sub vpt vpt2 Rec fill Bsquare} bind def
/S10 {BL [] 0 setdash 2 copy vpt sub vpt Square fill 2 copy exch vpt sub exch vpt Square fill
	Bsquare} bind def
/S11 {BL [] 0 setdash 2 copy vpt sub vpt Square fill 2 copy exch vpt sub exch vpt2 vpt Rec fill
	Bsquare} bind def
/S12 {BL [] 0 setdash 2 copy exch vpt sub exch vpt sub vpt2 vpt Rec fill Bsquare} bind def
/S13 {BL [] 0 setdash 2 copy exch vpt sub exch vpt sub vpt2 vpt Rec fill
	2 copy vpt Square fill Bsquare} bind def
/S14 {BL [] 0 setdash 2 copy exch vpt sub exch vpt sub vpt2 vpt Rec fill
	2 copy exch vpt sub exch vpt Square fill Bsquare} bind def
/S15 {BL [] 0 setdash 2 copy Bsquare fill Bsquare} bind def
/D0 {gsave translate 45 rotate 0 0 S0 stroke grestore} bind def
/D1 {gsave translate 45 rotate 0 0 S1 stroke grestore} bind def
/D2 {gsave translate 45 rotate 0 0 S2 stroke grestore} bind def
/D3 {gsave translate 45 rotate 0 0 S3 stroke grestore} bind def
/D4 {gsave translate 45 rotate 0 0 S4 stroke grestore} bind def
/D5 {gsave translate 45 rotate 0 0 S5 stroke grestore} bind def
/D6 {gsave translate 45 rotate 0 0 S6 stroke grestore} bind def
/D7 {gsave translate 45 rotate 0 0 S7 stroke grestore} bind def
/D8 {gsave translate 45 rotate 0 0 S8 stroke grestore} bind def
/D9 {gsave translate 45 rotate 0 0 S9 stroke grestore} bind def
/D10 {gsave translate 45 rotate 0 0 S10 stroke grestore} bind def
/D11 {gsave translate 45 rotate 0 0 S11 stroke grestore} bind def
/D12 {gsave translate 45 rotate 0 0 S12 stroke grestore} bind def
/D13 {gsave translate 45 rotate 0 0 S13 stroke grestore} bind def
/D14 {gsave translate 45 rotate 0 0 S14 stroke grestore} bind def
/D15 {gsave translate 45 rotate 0 0 S15 stroke grestore} bind def
/DiaE {stroke [] 0 setdash vpt add M
  hpt neg vpt neg V hpt vpt neg V
  hpt vpt V hpt neg vpt V closepath stroke} def
/BoxE {stroke [] 0 setdash exch hpt sub exch vpt add M
  0 vpt2 neg V hpt2 0 V 0 vpt2 V
  hpt2 neg 0 V closepath stroke} def
/TriUE {stroke [] 0 setdash vpt 1.12 mul add M
  hpt neg vpt -1.62 mul V
  hpt 2 mul 0 V
  hpt neg vpt 1.62 mul V closepath stroke} def
/TriDE {stroke [] 0 setdash vpt 1.12 mul sub M
  hpt neg vpt 1.62 mul V
  hpt 2 mul 0 V
  hpt neg vpt -1.62 mul V closepath stroke} def
/PentE {stroke [] 0 setdash gsave
  translate 0 hpt M 4 {72 rotate 0 hpt L} repeat
  closepath stroke grestore} def
/CircE {stroke [] 0 setdash 
  hpt 0 360 arc stroke} def
/Opaque {gsave closepath 1 setgray fill grestore 0 setgray closepath} def
/DiaW {stroke [] 0 setdash vpt add M
  hpt neg vpt neg V hpt vpt neg V
  hpt vpt V hpt neg vpt V Opaque stroke} def
/BoxW {stroke [] 0 setdash exch hpt sub exch vpt add M
  0 vpt2 neg V hpt2 0 V 0 vpt2 V
  hpt2 neg 0 V Opaque stroke} def
/TriUW {stroke [] 0 setdash vpt 1.12 mul add M
  hpt neg vpt -1.62 mul V
  hpt 2 mul 0 V
  hpt neg vpt 1.62 mul V Opaque stroke} def
/TriDW {stroke [] 0 setdash vpt 1.12 mul sub M
  hpt neg vpt 1.62 mul V
  hpt 2 mul 0 V
  hpt neg vpt -1.62 mul V Opaque stroke} def
/PentW {stroke [] 0 setdash gsave
  translate 0 hpt M 4 {72 rotate 0 hpt L} repeat
  Opaque stroke grestore} def
/CircW {stroke [] 0 setdash 
  hpt 0 360 arc Opaque stroke} def
/BoxFill {gsave Rec 1 setgray fill grestore} def
/Density {
  /Fillden exch def
  currentrgbcolor
  /ColB exch def /ColG exch def /ColR exch def
  /ColR ColR Fillden mul Fillden sub 1 add def
  /ColG ColG Fillden mul Fillden sub 1 add def
  /ColB ColB Fillden mul Fillden sub 1 add def
  ColR ColG ColB setrgbcolor} def
/BoxColFill {gsave Rec PolyFill} def
/PolyFill {gsave Density fill grestore grestore} def
/h {rlineto rlineto rlineto gsave closepath fill grestore} bind def
%
% PostScript Level 1 Pattern Fill routine for rectangles
% Usage: x y w h s a XX PatternFill
%	x,y = lower left corner of box to be filled
%	w,h = width and height of box
%	  a = angle in degrees between lines and x-axis
%	 XX = 0/1 for no/yes cross-hatch
%
/PatternFill {gsave /PFa [ 9 2 roll ] def
  PFa 0 get PFa 2 get 2 div add PFa 1 get PFa 3 get 2 div add translate
  PFa 2 get -2 div PFa 3 get -2 div PFa 2 get PFa 3 get Rec
  TransparentPatterns {} {gsave 1 setgray fill grestore} ifelse
  clip
  currentlinewidth 0.5 mul setlinewidth
  /PFs PFa 2 get dup mul PFa 3 get dup mul add sqrt def
  0 0 M PFa 5 get rotate PFs -2 div dup translate
  0 1 PFs PFa 4 get div 1 add floor cvi
	{PFa 4 get mul 0 M 0 PFs V} for
  0 PFa 6 get ne {
	0 1 PFs PFa 4 get div 1 add floor cvi
	{PFa 4 get mul 0 2 1 roll M PFs 0 V} for
 } if
  stroke grestore} def
%
/languagelevel where
 {pop languagelevel} {1} ifelse
dup 2 lt
	{/InterpretLevel1 true def
	 /InterpretLevel3 false def}
	{/InterpretLevel1 Level1 def
	 2 gt
	    {/InterpretLevel3 Level3 def}
	    {/InterpretLevel3 false def}
	 ifelse }
 ifelse
%
% PostScript level 2 pattern fill definitions
%
/Level2PatternFill {
/Tile8x8 {/PaintType 2 /PatternType 1 /TilingType 1 /BBox [0 0 8 8] /XStep 8 /YStep 8}
	bind def
/KeepColor {currentrgbcolor [/Pattern /DeviceRGB] setcolorspace} bind def
<< Tile8x8
 /PaintProc {0.5 setlinewidth pop 0 0 M 8 8 L 0 8 M 8 0 L stroke} 
>> matrix makepattern
/Pat1 exch def
<< Tile8x8
 /PaintProc {0.5 setlinewidth pop 0 0 M 8 8 L 0 8 M 8 0 L stroke
	0 4 M 4 8 L 8 4 L 4 0 L 0 4 L stroke}
>> matrix makepattern
/Pat2 exch def
<< Tile8x8
 /PaintProc {0.5 setlinewidth pop 0 0 M 0 8 L
	8 8 L 8 0 L 0 0 L fill}
>> matrix makepattern
/Pat3 exch def
<< Tile8x8
 /PaintProc {0.5 setlinewidth pop -4 8 M 8 -4 L
	0 12 M 12 0 L stroke}
>> matrix makepattern
/Pat4 exch def
<< Tile8x8
 /PaintProc {0.5 setlinewidth pop -4 0 M 8 12 L
	0 -4 M 12 8 L stroke}
>> matrix makepattern
/Pat5 exch def
<< Tile8x8
 /PaintProc {0.5 setlinewidth pop -2 8 M 4 -4 L
	0 12 M 8 -4 L 4 12 M 10 0 L stroke}
>> matrix makepattern
/Pat6 exch def
<< Tile8x8
 /PaintProc {0.5 setlinewidth pop -2 0 M 4 12 L
	0 -4 M 8 12 L 4 -4 M 10 8 L stroke}
>> matrix makepattern
/Pat7 exch def
<< Tile8x8
 /PaintProc {0.5 setlinewidth pop 8 -2 M -4 4 L
	12 0 M -4 8 L 12 4 M 0 10 L stroke}
>> matrix makepattern
/Pat8 exch def
<< Tile8x8
 /PaintProc {0.5 setlinewidth pop 0 -2 M 12 4 L
	-4 0 M 12 8 L -4 4 M 8 10 L stroke}
>> matrix makepattern
/Pat9 exch def
/Pattern1 {PatternBgnd KeepColor Pat1 setpattern} bind def
/Pattern2 {PatternBgnd KeepColor Pat2 setpattern} bind def
/Pattern3 {PatternBgnd KeepColor Pat3 setpattern} bind def
/Pattern4 {PatternBgnd KeepColor Landscape {Pat5} {Pat4} ifelse setpattern} bind def
/Pattern5 {PatternBgnd KeepColor Landscape {Pat4} {Pat5} ifelse setpattern} bind def
/Pattern6 {PatternBgnd KeepColor Landscape {Pat9} {Pat6} ifelse setpattern} bind def
/Pattern7 {PatternBgnd KeepColor Landscape {Pat8} {Pat7} ifelse setpattern} bind def
} def
%
%
%End of PostScript Level 2 code
%
/PatternBgnd {
  TransparentPatterns {} {gsave 1 setgray fill grestore} ifelse
} def
%
% Substitute for Level 2 pattern fill codes with
% grayscale if Level 2 support is not selected.
%
/Level1PatternFill {
/Pattern1 {0.250 Density} bind def
/Pattern2 {0.500 Density} bind def
/Pattern3 {0.750 Density} bind def
/Pattern4 {0.125 Density} bind def
/Pattern5 {0.375 Density} bind def
/Pattern6 {0.625 Density} bind def
/Pattern7 {0.875 Density} bind def
} def
%
% Now test for support of Level 2 code
%
Level1 {Level1PatternFill} {Level2PatternFill} ifelse
%
/Symbol-Oblique /Symbol findfont [1 0 .167 1 0 0] makefont
dup length dict begin {1 index /FID eq {pop pop} {def} ifelse} forall
currentdict end definefont pop
%
/Metrics {ExtendTextBox Gswidth} def
/Lwidth {currentpoint stroke M 0 vshift R Metrics} def
/Rwidth {currentpoint stroke M dup stringwidth pop neg vshift R Metrics} def
/Cwidth {currentpoint stroke M dup stringwidth pop -2 div vshift R Metrics} def
/GLwidth {currentpoint stroke M 0 vshift R {ExtendTextBox} forall} def
/GRwidth {currentpoint stroke M dup Gwidth vshift R {ExtendTextBox} forall} def
/GCwidth {currentpoint stroke M dup Gwidth 2 div vshift R {ExtendTextBox} forall} def
/GLwidth2 {0 Gwidth AddGlyphWidth} def
/GRwidth2 {Gwidth -1 mul 0 AddGlyphWidth} def
/GCwidth2 {Gwidth 2 div dup -1 mul AddGlyphWidth} def
/AddGlyphWidth { dup TBx2 gt {userdict /TBx2 3 -1 roll put} {pop} ifelse
                 dup TBx1 lt {userdict /TBx1 3 -1 roll put} {pop} ifelse } def
/MFshow {
   { dup 5 get 3 ge
     { 5 get 3 eq {gsave} {grestore} ifelse }
     {dup dup 0 get findfont exch 1 get scalefont setfont
     [ currentpoint ] exch dup 2 get 0 exch R dup 5 get 2 ne {dup dup 6
     get exch 4 get {textshow} {Metrics pop 0 R} ifelse }if dup 5 get 0 eq
     {dup 3 get {2 get neg 0 exch R pop} {pop aload pop M} ifelse} {dup 5
     get 1 eq {dup 2 get exch dup 3 get exch 6 get Gswidth pop -2 div
     dup 0 R} {dup 6 get Gswidth pop -2 div 0 R 6 get
     textshow 2 index {aload pop M neg 3 -1 roll neg R pop pop} {pop pop pop
     pop aload pop M} ifelse }ifelse }ifelse }
     ifelse }
   forall} def
/Gswidth {dup type /stringtype eq {stringwidth} {pop (n) stringwidth} ifelse} def
/MFwidth {0 exch { dup 5 get 3 ge { 5 get 3 eq { 0 } { pop } ifelse }
 {dup 3 get{dup dup 0 get findfont exch 1 get scalefont setfont
     6 get Gswidth pop add} {pop} ifelse} ifelse} forall} def
/MLshow { currentpoint stroke M
  0 exch R
  Blacktext {gsave 0 setgray MFshow grestore} {MFshow} ifelse } bind def
/MRshow { currentpoint stroke M
  exch dup MFwidth neg 3 -1 roll R
  Blacktext {gsave 0 setgray MFshow grestore} {MFshow} ifelse } bind def
/MCshow { currentpoint stroke M
  exch dup MFwidth -2 div 3 -1 roll R
  Blacktext {gsave 0 setgray MFshow grestore} {MFshow} ifelse } bind def
/XYsave    { [( ) 1 2 true false 3 ()] } bind def
/XYrestore { [( ) 1 2 true false 4 ()] } bind def
Level1 SuppressPDFMark or 
{} {
/SDict 10 dict def
systemdict /pdfmark known not {
  userdict /pdfmark systemdict /cleartomark get put
} if
SDict begin [
  /Title (gnuplot_TWISS_btxy.eps)
  /Subject (gnuplot plot)
  /Creator (gnuplot 5.2 patchlevel 2)
%  /Producer (gnuplot)
%  /Keywords ()
  /CreationDate (Sun Jun  6 10:31:26 2021)
  /DOCINFO pdfmark
end
} ifelse
%
% Support for boxed text - Ethan A Merritt Sep 2016
%
/InitTextBox { userdict /TBy2 3 -1 roll put userdict /TBx2 3 -1 roll put
           userdict /TBy1 3 -1 roll put userdict /TBx1 3 -1 roll put
	   /Boxing true def } def
/ExtendTextBox { dup type /stringtype eq
    { Boxing { gsave dup false charpath pathbbox
      dup TBy2 gt {userdict /TBy2 3 -1 roll put} {pop} ifelse
      dup TBx2 gt {userdict /TBx2 3 -1 roll put} {pop} ifelse
      dup TBy1 lt {userdict /TBy1 3 -1 roll put} {pop} ifelse
      dup TBx1 lt {userdict /TBx1 3 -1 roll put} {pop} ifelse
      grestore } if }
    {} ifelse} def
/PopTextBox { newpath TBx1 TBxmargin sub TBy1 TBymargin sub M
               TBx1 TBxmargin sub TBy2 TBymargin add L
	       TBx2 TBxmargin add TBy2 TBymargin add L
	       TBx2 TBxmargin add TBy1 TBymargin sub L closepath } def
/DrawTextBox { PopTextBox stroke /Boxing false def} def
/FillTextBox { gsave PopTextBox fill grestore /Boxing false def} def
0 0 0 0 InitTextBox
/TBxmargin 20 def
/TBymargin 20 def
/Boxing false def
/textshow { ExtendTextBox Gshow } def
%
end
%%EndProlog
%%Page: 1 1
gnudict begin
gsave
doclip
50 50 translate
0.050 0.050 scale
0 setgray
newpath
(Times-Roman) findfont 120 scalefont setfont
BackgroundColor 0 lt 3 1 roll 0 lt exch 0 lt or or not {BackgroundColor C 1.000 0 0 4704.00 2834.00 BoxColFill} if
1.000 UL
LTb
LCb setrgbcolor
516 384 M
63 0 V
stroke
444 384 M
[ [(roman) 120.0 0.0 true true 0 ( 3)]
] -40.0 MRshow
1.000 UL
LTb
LCb setrgbcolor
516 559 M
63 0 V
stroke
444 559 M
[ [(roman) 120.0 0.0 true true 0 ( 4)]
] -40.0 MRshow
1.000 UL
LTb
LCb setrgbcolor
516 735 M
63 0 V
stroke
444 735 M
[ [(roman) 120.0 0.0 true true 0 ( 5)]
] -40.0 MRshow
1.000 UL
LTb
LCb setrgbcolor
516 910 M
63 0 V
stroke
444 910 M
[ [(roman) 120.0 0.0 true true 0 ( 6)]
] -40.0 MRshow
1.000 UL
LTb
LCb setrgbcolor
516 1085 M
63 0 V
stroke
444 1085 M
[ [(roman) 120.0 0.0 true true 0 ( 7)]
] -40.0 MRshow
1.000 UL
LTb
LCb setrgbcolor
516 1261 M
63 0 V
stroke
444 1261 M
[ [(roman) 120.0 0.0 true true 0 ( 8)]
] -40.0 MRshow
1.000 UL
LTb
LCb setrgbcolor
516 1436 M
63 0 V
stroke
444 1436 M
[ [(roman) 120.0 0.0 true true 0 ( 9)]
] -40.0 MRshow
1.000 UL
LTb
LCb setrgbcolor
516 1612 M
63 0 V
stroke
444 1612 M
[ [(roman) 120.0 0.0 true true 0 ( 10)]
] -40.0 MRshow
1.000 UL
LTb
LCb setrgbcolor
516 1787 M
63 0 V
stroke
444 1787 M
[ [(roman) 120.0 0.0 true true 0 ( 11)]
] -40.0 MRshow
1.000 UL
LTb
LCb setrgbcolor
516 1962 M
63 0 V
stroke
444 1962 M
[ [(roman) 120.0 0.0 true true 0 ( 12)]
] -40.0 MRshow
1.000 UL
LTb
LCb setrgbcolor
516 2138 M
63 0 V
stroke
444 2138 M
[ [(roman) 120.0 0.0 true true 0 ( 13)]
] -40.0 MRshow
1.000 UL
LTb
LCb setrgbcolor
516 2313 M
63 0 V
stroke
444 2313 M
[ [(roman) 120.0 0.0 true true 0 ( 14)]
] -40.0 MRshow
1.000 UL
LTb
LCb setrgbcolor
516 384 M
0 63 V
stroke
516 264 M
[ [(roman) 120.0 0.0 true true 0 ( 0)]
] -40.0 MCshow
1.000 UL
LTb
LCb setrgbcolor
1200 384 M
0 63 V
stroke
1200 264 M
[ [(roman) 120.0 0.0 true true 0 ( 50)]
] -40.0 MCshow
1.000 UL
LTb
LCb setrgbcolor
1884 384 M
0 63 V
stroke
1884 264 M
[ [(roman) 120.0 0.0 true true 0 ( 100)]
] -40.0 MCshow
1.000 UL
LTb
LCb setrgbcolor
2567 384 M
0 63 V
stroke
2567 264 M
[ [(roman) 120.0 0.0 true true 0 ( 150)]
] -40.0 MCshow
1.000 UL
LTb
LCb setrgbcolor
3251 384 M
0 63 V
stroke
3251 264 M
[ [(roman) 120.0 0.0 true true 0 ( 200)]
] -40.0 MCshow
1.000 UL
LTb
LCb setrgbcolor
3935 384 M
0 63 V
stroke
3935 264 M
[ [(roman) 120.0 0.0 true true 0 ( 250)]
] -40.0 MCshow
1.000 UL
LTb
LCb setrgbcolor
3935 384 M
-63 0 V
stroke
4007 384 M
[ [(roman) 120.0 0.0 true true 0 ( 0)]
] -40.0 MLshow
1.000 UL
LTb
LCb setrgbcolor
3935 706 M
-63 0 V
stroke
4007 706 M
[ [(roman) 120.0 0.0 true true 0 ( 0.5)]
] -40.0 MLshow
1.000 UL
LTb
LCb setrgbcolor
3935 1027 M
-63 0 V
stroke
4007 1027 M
[ [(roman) 120.0 0.0 true true 0 ( 1)]
] -40.0 MLshow
1.000 UL
LTb
LCb setrgbcolor
3935 1349 M
-63 0 V
stroke
4007 1349 M
[ [(roman) 120.0 0.0 true true 0 ( 1.5)]
] -40.0 MLshow
1.000 UL
LTb
LCb setrgbcolor
3935 1670 M
-63 0 V
stroke
4007 1670 M
[ [(roman) 120.0 0.0 true true 0 ( 2)]
] -40.0 MLshow
1.000 UL
LTb
LCb setrgbcolor
3935 1992 M
-63 0 V
stroke
4007 1992 M
[ [(roman) 120.0 0.0 true true 0 ( 2.5)]
] -40.0 MLshow
1.000 UL
LTb
LCb setrgbcolor
3935 2313 M
-63 0 V
stroke
4007 2313 M
[ [(roman) 120.0 0.0 true true 0 ( 3)]
] -40.0 MLshow
1.000 UL
LTb
LCb setrgbcolor
516 2313 M
0 -63 V
516 384 M
0 63 V
stroke
516 2433 M
[ [(roman) 120.0 0.0 true true 0 ( 0)]
] -40.0 MCshow
1.000 UL
LTb
LCb setrgbcolor
1200 2313 M
0 -63 V
0 -1866 R
0 63 V
stroke
1200 2433 M
[ [(roman) 120.0 0.0 true true 0 ( 50)]
] -40.0 MCshow
1.000 UL
LTb
LCb setrgbcolor
1884 2313 M
0 -63 V
0 -1866 R
0 63 V
stroke
1884 2433 M
[ [(roman) 120.0 0.0 true true 0 ( 100)]
] -40.0 MCshow
1.000 UL
LTb
LCb setrgbcolor
2567 2313 M
0 -63 V
0 -1866 R
0 63 V
stroke
2567 2433 M
[ [(roman) 120.0 0.0 true true 0 ( 150)]
] -40.0 MCshow
1.000 UL
LTb
LCb setrgbcolor
3251 2313 M
0 -63 V
0 -1866 R
0 63 V
stroke
3251 2433 M
[ [(roman) 120.0 0.0 true true 0 ( 200)]
] -40.0 MCshow
1.000 UL
LTb
LCb setrgbcolor
3935 2313 M
0 -63 V
0 -1866 R
0 63 V
stroke
3935 2433 M
[ [(roman) 120.0 0.0 true true 0 ( 250)]
] -40.0 MCshow
1.000 UL
LTb
LCb setrgbcolor
1.000 UL
LTB
LCb setrgbcolor
516 2313 N
516 384 L
3419 0 V
0 1929 V
-3419 0 V
Z stroke
1.000 UP
1.000 UL
LTb
LCb setrgbcolor
LCb setrgbcolor
108 1348 M
currentpoint gsave translate -270 rotate 0 0 moveto
[ [(Symbol) 130.0 0.0 true true 0 (b)]
[(roman) 104.0 -39.0 true true 0 (x)]
[(roman) 130.0 0.0 true true 0 (, )]
[(Symbol) 130.0 0.0 true true 0 (b)]
[(roman) 104.0 -39.0 true true 0 (y)]
[(roman) 130.0 0.0 true true 0 ( [m])]
] -30.3 MCshow
grestore
LTb
LCb setrgbcolor
4511 1348 M
currentpoint gsave translate -270 rotate 0 0 moveto
[ [(Symbol) 130.0 0.0 true true 0 (h)]
[(roman) 104.0 -39.0 true true 0 (x)]
[(roman) 130.0 0.0 true true 0 (, )]
[(Symbol) 130.0 0.0 true true 0 (h)]
[(roman) 104.0 -39.0 true true 0 (y)]
] -30.3 MCshow
grestore
LTb
LCb setrgbcolor
2225 84 M
[ [(roman) 160.0 0.0 true true 0 (s [m])]
] -53.3 MCshow
LTb
LCb setrgbcolor
2225 2653 M
[ [(roman) 160.0 0.0 true true 0 (Optical functions, from zgoubi.TWISS.out)]
] -53.3 MCshow
% Begin plot #1
1.000 UL
LTb
1.00 0.00 0.00 C LCb setrgbcolor
1175 2180 M
[ [(Symbol) 140.0 0.0 true true 0 (b)]
[(roman) 112.0 -42.0 true true 0 (x)]
] -32.7 MRshow
1.000 UL
LTb
1.00 0.00 0.00 C 1259 2180 M
147 0 V
516 820 M
8 -176 V
1 -18 V
1 -26 V
2 -34 V
2 -26 V
6 -2 V
4 69 V
17 387 V
16 544 V
8 310 V
1 41 V
2 59 V
1 83 V
2 75 V
7 1 V
4 -181 V
16 -640 V
631 799 L
8 -171 V
1 -18 V
1 -25 V
2 -32 V
2 -25 V
6 1 V
4 70 V
17 402 V
16 588 V
8 342 V
1 44 V
2 65 V
1 92 V
2 83 V
7 17 V
4 -182 V
16 -649 V
746 895 L
8 -182 V
1 -20 V
1 -27 V
2 -36 V
2 -28 V
6 -1 V
4 73 V
17 400 V
16 549 V
8 308 V
1 41 V
2 58 V
1 83 V
2 74 V
7 -13 V
4 -195 V
861 809 L
8 -170 V
1 -18 V
1 -25 V
2 -33 V
2 -25 V
6 2 V
4 71 V
17 399 V
16 560 V
8 319 V
1 41 V
2 61 V
1 85 V
2 77 V
7 2 V
4 -184 V
16 -654 V
976 818 L
8 -176 V
1 -19 V
1 -25 V
2 -34 V
2 -26 V
6 -2 V
4 69 V
17 386 V
16 544 V
8 310 V
1 41 V
2 59 V
1 83 V
2 75 V
7 2 V
4 -181 V
16 -639 V
17 -485 V
8 -171 V
1 -18 V
1 -24 V
2 -33 V
2 -25 V
6 2 V
4 70 V
17 404 V
16 589 V
8 343 V
1 44 V
2 65 V
1 93 V
2 82 V
7 17 V
4 -182 V
16 -652 V
17 -508 V
8 -183 V
1 -20 V
1 -27 V
2 -36 V
1 -28 V
7 -2 V
4 73 V
17 398 V
16 547 V
8 307 V
1 40 V
1 59 V
2 82 V
2 74 V
7 -13 V
4 -194 V
1321 807 L
8 -170 V
1 -18 V
1 -25 V
2 -32 V
1 -26 V
7 3 V
4 72 V
17 400 V
16 562 V
8 319 V
1 41 V
1 61 V
2 86 V
2 77 V
7 3 V
4 -185 V
16 -654 V
17 -500 V
8 -177 V
1 -18 V
1 -26 V
2 -34 V
1 -26 V
7 -2 V
4 68 V
17 386 V
16 544 V
8 310 V
1 40 V
1 59 V
2 83 V
2 75 V
7 1 V
4 -181 V
16 -639 V
17 -486 V
8 -171 V
1 -18 V
1 -24 V
2 -33 V
1 -25 V
7 2 V
4 70 V
17 403 V
16 589 V
8 342 V
1 44 V
1 65 V
2 92 V
2 83 V
7 17 V
4 -182 V
16 -649 V
17 -507 V
8 -182 V
1 -20 V
1 -27 V
2 -36 V
1 -28 V
7 -1 V
4 73 V
17 400 V
16 548 V
8 309 V
1 40 V
1 58 V
2 83 V
2 74 V
7 -13 V
4 -195 V
1781 808 L
8 -170 V
1 -18 V
1 -25 V
2 -33 V
1 -25 V
7 2 V
4 71 V
17 399 V
16 559 V
8 318 V
1 42 V
1 60 V
2 86 V
2 77 V
7 2 V
4 -184 V
16 -652 V
17 -499 V
8 -176 V
1 -18 V
1 -26 V
2 -33 V
1 -27 V
7 -1 V
4 68 V
17 387 V
16 546 V
8 310 V
1 41 V
1 59 V
2 83 V
2 75 V
7 2 V
4 -181 V
16 -640 V
17 -487 V
8 -170 V
1 -18 V
1 -25 V
2 -32 V
1 -26 V
7 2 V
4 70 V
17 403 V
16 588 V
8 342 V
1 44 V
1 66 V
2 91 V
2 83 V
7 17 V
4 -182 V
16 -651 V
17 -507 V
8 -183 V
0 -20 V
2 -27 V
2 -35 V
1 -29 V
7 -1 V
4 73 V
17 398 V
16 547 V
8 309 V
1 40 V
1 58 V
2 82 V
2 74 V
7 -12 V
4 -195 V
2241 808 L
8 -170 V
0 -18 V
2 -25 V
2 -32 V
1 -26 V
7 3 V
4 72 V
17 400 V
16 562 V
8 319 V
1 41 V
1 61 V
2 86 V
2 77 V
7 2 V
4 -184 V
16 -655 V
17 -501 V
7 -176 V
1 -19 V
2 -26 V
2 -34 V
1 -26 V
7 -2 V
4 68 V
17 386 V
16 543 V
8 309 V
1 41 V
1 59 V
2 83 V
2 75 V
6 1 V
5 -181 V
16 -638 V
17 -485 V
7 -170 V
1 -18 V
2 -25 V
2 -32 V
1 -26 V
7 3 V
4 70 V
17 403 V
16 590 V
8 343 V
1 44 V
1 66 V
2 92 V
2 83 V
6 17 V
5 -182 V
16 -651 V
17 -507 V
7 -184 V
1 -19 V
2 -27 V
2 -36 V
1 -29 V
7 -1 V
4 73 V
17 399 V
16 548 V
8 308 V
1 40 V
1 58 V
2 82 V
2 75 V
6 -14 V
5 -195 V
2701 807 L
7 -170 V
1 -18 V
2 -25 V
2 -32 V
1 -26 V
7 3 V
4 71 V
17 398 V
16 561 V
8 318 V
1 41 V
1 61 V
2 86 V
2 77 V
6 2 V
5 -184 V
16 -652 V
17 -499 V
7 -176 V
1 -18 V
2 -26 V
2 -33 V
1 -27 V
7 -1 V
4 68 V
17 388 V
16 545 V
8 310 V
1 41 V
1 59 V
2 83 V
2 75 V
6 2 V
5 -181 V
16 -641 V
17 -487 V
7 -171 V
1 -18 V
2 -25 V
2 -32 V
1 -26 V
7 2 V
4 70 V
17 402 V
16 588 V
8 341 V
1 45 V
1 65 V
2 92 V
2 82 V
6 17 V
4 -182 V
17 -650 V
17 -506 V
7 -182 V
1 -20 V
2 -27 V
2 -35 V
1 -29 V
7 -1 V
4 73 V
17 400 V
16 548 V
8 308 V
1 41 V
1 58 V
2 83 V
2 74 V
6 -13 V
4 -195 V
3161 809 L
7 -170 V
1 -18 V
2 -25 V
2 -32 V
1 -26 V
7 3 V
4 71 V
17 400 V
16 560 V
8 319 V
1 41 V
1 61 V
2 85 V
2 77 V
6 3 V
4 -185 V
17 -654 V
17 -500 V
% End plot #1
% Begin plot #2
stroke
LTb
0.00 0.00 1.00 C LCb setrgbcolor
1910 2180 M
[ [(Symbol) 140.0 0.0 true true 0 (b)]
[(roman) 112.0 -42.0 true true 0 (y)]
] -32.7 MRshow
1.000 UL
LTb
0.00 0.00 1.00 C 1994 2180 M
147 0 V
516 1559 M
8 329 V
1 43 V
1 62 V
2 89 V
2 76 V
6 0 V
4 -191 V
17 -670 V
573 806 L
8 -169 V
1 -18 V
2 -25 V
1 -32 V
2 -26 V
7 0 V
4 67 V
16 386 V
17 565 V
8 329 V
1 43 V
1 63 V
2 88 V
2 77 V
6 0 V
4 -190 V
17 -668 V
688 806 L
8 -168 V
1 -18 V
2 -25 V
1 -31 V
2 -27 V
7 1 V
4 68 V
16 388 V
17 567 V
8 330 V
1 43 V
1 62 V
2 89 V
2 77 V
6 0 V
4 -191 V
17 -671 V
803 808 L
8 -169 V
1 -18 V
2 -25 V
1 -32 V
2 -27 V
7 0 V
4 68 V
33 950 V
8 328 V
1 43 V
1 62 V
2 89 V
2 76 V
6 0 V
4 -190 V
17 -669 V
918 805 L
8 -169 V
1 -18 V
2 -24 V
1 -32 V
2 -26 V
7 0 V
4 68 V
16 387 V
17 567 V
8 330 V
1 43 V
1 63 V
2 88 V
2 77 V
6 1 V
4 -191 V
17 -670 V
16 -491 V
8 -169 V
1 -18 V
2 -24 V
1 -32 V
2 -27 V
7 0 V
4 68 V
16 387 V
17 566 V
8 329 V
1 42 V
1 63 V
2 89 V
2 76 V
6 0 V
4 -191 V
17 -670 V
16 -491 V
8 -169 V
1 -18 V
2 -25 V
1 -32 V
2 -26 V
7 0 V
4 67 V
16 386 V
17 566 V
8 328 V
1 43 V
1 63 V
2 88 V
1 77 V
7 0 V
4 -190 V
17 -668 V
16 -490 V
8 -168 V
1 -18 V
1 -24 V
2 -32 V
2 -27 V
7 1 V
4 68 V
33 955 V
8 330 V
1 43 V
1 62 V
2 89 V
1 77 V
7 0 V
4 -191 V
17 -671 V
16 -492 V
8 -170 V
1 -18 V
1 -24 V
2 -32 V
2 -27 V
7 0 V
4 68 V
16 385 V
17 565 V
8 328 V
1 43 V
1 62 V
2 89 V
1 76 V
7 0 V
4 -190 V
17 -669 V
16 -489 V
8 -169 V
1 -18 V
1 -24 V
2 -32 V
2 -26 V
7 0 V
4 68 V
16 387 V
17 567 V
8 330 V
1 43 V
1 63 V
2 89 V
1 76 V
7 1 V
4 -191 V
17 -670 V
16 -491 V
8 -169 V
1 -18 V
1 -24 V
2 -32 V
2 -27 V
7 0 V
4 68 V
16 387 V
17 566 V
8 328 V
1 43 V
1 63 V
2 88 V
1 77 V
7 0 V
4 -191 V
17 -671 V
16 -490 V
8 -169 V
1 -18 V
1 -25 V
2 -32 V
2 -26 V
7 0 V
4 67 V
33 952 V
8 328 V
1 43 V
1 63 V
2 88 V
1 77 V
7 0 V
4 -190 V
17 -668 V
16 -489 V
8 -169 V
1 -18 V
1 -24 V
2 -32 V
2 -26 V
7 0 V
4 68 V
16 388 V
17 567 V
8 330 V
1 43 V
1 62 V
2 89 V
1 77 V
7 0 V
4 -191 V
17 -672 V
16 -491 V
8 -170 V
1 -18 V
1 -24 V
2 -32 V
2 -27 V
7 0 V
4 68 V
16 385 V
17 565 V
8 328 V
1 43 V
1 62 V
2 89 V
1 76 V
7 0 V
4 -190 V
17 -669 V
16 -489 V
8 -169 V
1 -17 V
1 -25 V
2 -32 V
2 -26 V
7 0 V
4 68 V
16 387 V
17 568 V
8 329 V
0 43 V
2 63 V
2 89 V
1 77 V
7 0 V
4 -191 V
17 -670 V
16 -491 V
8 -169 V
1 -18 V
1 -24 V
2 -32 V
2 -27 V
7 0 V
4 68 V
33 952 V
8 329 V
0 43 V
2 63 V
2 88 V
1 77 V
7 -1 V
4 -190 V
17 -671 V
16 -491 V
8 -168 V
1 -18 V
1 -25 V
2 -32 V
2 -26 V
7 0 V
4 67 V
16 386 V
17 566 V
7 329 V
1 42 V
2 63 V
2 89 V
1 76 V
7 1 V
4 -191 V
17 -668 V
16 -489 V
8 -169 V
1 -18 V
1 -24 V
2 -32 V
2 -26 V
6 0 V
5 68 V
16 388 V
17 567 V
7 330 V
1 43 V
2 62 V
2 89 V
1 77 V
7 0 V
4 -191 V
17 -672 V
16 -491 V
stroke 2528 808 M
8 -170 V
1 -18 V
1 -24 V
2 -33 V
2 -26 V
6 0 V
5 68 V
16 385 V
17 565 V
7 328 V
1 43 V
2 62 V
2 88 V
1 77 V
7 0 V
4 -190 V
17 -669 V
16 -489 V
8 -169 V
1 -17 V
1 -25 V
2 -32 V
2 -26 V
6 0 V
5 68 V
33 955 V
7 329 V
1 43 V
2 63 V
2 89 V
1 77 V
7 0 V
4 -190 V
17 -671 V
16 -491 V
8 -169 V
1 -18 V
1 -24 V
2 -32 V
2 -27 V
6 0 V
5 68 V
16 387 V
17 565 V
7 329 V
1 43 V
2 62 V
2 89 V
1 77 V
7 -1 V
4 -190 V
17 -671 V
16 -491 V
8 -169 V
1 -17 V
1 -25 V
2 -32 V
2 -26 V
6 0 V
5 67 V
16 386 V
17 566 V
7 329 V
1 43 V
2 62 V
2 89 V
1 76 V
7 1 V
4 -190 V
17 -669 V
16 -489 V
8 -169 V
1 -18 V
1 -24 V
2 -32 V
2 -26 V
6 0 V
4 68 V
17 388 V
17 567 V
7 330 V
1 42 V
2 63 V
2 89 V
1 77 V
7 0 V
4 -191 V
17 -672 V
16 -491 V
8 -170 V
1 -18 V
1 -24 V
2 -33 V
2 -26 V
6 0 V
4 67 V
34 950 V
7 329 V
1 43 V
2 62 V
2 88 V
1 77 V
7 0 V
4 -190 V
17 -669 V
16 -489 V
8 -169 V
1 -17 V
1 -25 V
2 -32 V
2 -26 V
6 0 V
4 68 V
17 388 V
17 567 V
% End plot #2
% Begin plot #3
stroke
LTb
0.00 0.00 0.00 C LCb setrgbcolor
2645 2180 M
[ [(Symbol) 140.0 0.0 true true 0 (h)]
[(roman) 112.0 -42.0 true true 0 (x)]
] -32.7 MRshow
1.000 UL
LTb
0.00 0.00 0.00 C 2729 2180 M
147 0 V
516 862 M
8 -39 V
1 -4 V
1 -7 V
2 -10 V
2 -7 V
6 -5 V
4 15 V
17 91 V
16 155 V
8 89 V
1 10 V
2 16 V
1 21 V
2 19 V
7 19 V
4 -24 V
16 -64 V
17 -1 V
8 14 V
1 1 V
1 3 V
2 3 V
2 3 V
6 68 V
4 75 V
17 309 V
16 308 V
8 146 V
1 17 V
2 26 V
1 35 V
2 31 V
7 2 V
4 -74 V
16 -271 V
17 -214 V
8 -88 V
1 -10 V
1 -16 V
2 -21 V
2 -18 V
6 1 V
4 45 V
17 217 V
16 274 V
8 143 V
1 17 V
2 25 V
1 35 V
2 30 V
7 -6 V
4 -81 V
33 -660 V
8 -155 V
1 -19 V
1 -27 V
2 -38 V
2 -32 V
6 -77 V
4 -12 V
17 -19 V
16 43 V
8 35 V
1 5 V
2 6 V
1 8 V
2 8 V
7 -27 V
4 -52 V
959 975 L
976 862 L
8 -39 V
1 -5 V
1 -6 V
2 -10 V
2 -7 V
6 -5 V
4 14 V
17 92 V
16 155 V
8 88 V
1 11 V
2 16 V
1 21 V
2 19 V
7 18 V
4 -23 V
16 -64 V
17 -2 V
8 14 V
1 2 V
1 3 V
2 3 V
2 3 V
6 68 V
4 75 V
17 309 V
16 308 V
8 145 V
1 18 V
2 26 V
1 35 V
2 31 V
7 2 V
4 -74 V
16 -271 V
17 -215 V
8 -87 V
1 -11 V
1 -15 V
2 -21 V
1 -18 V
7 1 V
4 45 V
17 217 V
16 274 V
8 143 V
1 17 V
1 25 V
2 35 V
2 30 V
7 -6 V
4 -81 V
33 -660 V
8 -155 V
1 -19 V
1 -27 V
2 -38 V
1 -32 V
7 -76 V
4 -13 V
17 -19 V
16 44 V
8 35 V
1 4 V
1 6 V
2 9 V
2 7 V
7 -27 V
4 -52 V
16 -177 V
17 -113 V
8 -39 V
1 -4 V
1 -7 V
2 -9 V
1 -8 V
7 -5 V
4 15 V
17 91 V
16 155 V
8 88 V
1 11 V
1 16 V
2 21 V
2 19 V
7 18 V
4 -23 V
16 -64 V
17 -2 V
8 14 V
1 2 V
1 2 V
2 4 V
1 3 V
7 68 V
4 75 V
17 308 V
16 309 V
8 145 V
1 18 V
1 25 V
2 36 V
2 31 V
7 2 V
4 -74 V
16 -271 V
17 -215 V
8 -87 V
1 -11 V
1 -15 V
2 -21 V
1 -18 V
7 0 V
4 46 V
17 217 V
16 274 V
8 143 V
1 17 V
1 25 V
2 34 V
2 31 V
7 -6 V
4 -81 V
33 -660 V
8 -155 V
1 -19 V
1 -27 V
2 -38 V
1 -32 V
7 -76 V
4 -13 V
17 -19 V
16 44 V
8 35 V
1 4 V
1 6 V
2 9 V
2 7 V
7 -27 V
4 -52 V
16 -177 V
17 -113 V
8 -39 V
1 -4 V
1 -7 V
2 -9 V
1 -8 V
7 -5 V
4 15 V
17 91 V
16 155 V
8 89 V
1 10 V
1 16 V
2 21 V
2 19 V
7 19 V
4 -24 V
16 -64 V
17 -1 V
8 13 V
1 2 V
1 3 V
2 3 V
1 3 V
7 68 V
4 75 V
17 308 V
16 309 V
8 145 V
1 18 V
1 25 V
2 36 V
2 31 V
7 2 V
4 -74 V
16 -271 V
17 -215 V
8 -87 V
0 -11 V
2 -15 V
2 -21 V
1 -18 V
7 0 V
4 46 V
17 217 V
16 274 V
8 142 V
1 18 V
1 25 V
2 34 V
2 31 V
7 -6 V
4 -81 V
33 -660 V
8 -155 V
0 -19 V
2 -27 V
2 -38 V
1 -32 V
7 -77 V
4 -12 V
17 -19 V
16 44 V
8 35 V
1 4 V
1 6 V
2 8 V
2 8 V
7 -27 V
4 -52 V
16 -177 V
17 -113 V
7 -39 V
1 -4 V
2 -7 V
2 -9 V
1 -8 V
7 -5 V
4 15 V
17 91 V
16 155 V
8 89 V
1 10 V
1 16 V
2 21 V
2 19 V
6 19 V
5 -24 V
16 -64 V
17 -1 V
7 14 V
1 1 V
2 3 V
2 3 V
1 3 V
7 68 V
4 75 V
17 309 V
16 308 V
8 145 V
1 18 V
1 26 V
2 35 V
2 31 V
6 2 V
5 -74 V
16 -271 V
17 -215 V
stroke 2586 1617 M
7 -87 V
1 -11 V
2 -15 V
2 -21 V
1 -18 V
7 0 V
4 46 V
17 217 V
16 274 V
8 142 V
1 18 V
1 25 V
2 34 V
2 31 V
6 -6 V
5 -82 V
33 -659 V
7 -155 V
1 -19 V
2 -28 V
2 -37 V
1 -32 V
7 -77 V
4 -12 V
17 -19 V
16 43 V
8 35 V
1 5 V
1 6 V
2 8 V
2 8 V
6 -27 V
5 -52 V
16 -177 V
17 -113 V
7 -39 V
1 -4 V
2 -7 V
2 -9 V
1 -8 V
7 -5 V
4 15 V
17 91 V
16 155 V
8 89 V
1 10 V
1 16 V
2 21 V
2 19 V
6 19 V
5 -24 V
16 -64 V
17 -1 V
7 14 V
1 1 V
2 3 V
2 3 V
1 3 V
7 68 V
4 75 V
17 309 V
16 308 V
8 146 V
1 17 V
1 26 V
2 35 V
2 31 V
6 2 V
4 -74 V
17 -271 V
17 -215 V
7 -87 V
1 -11 V
2 -15 V
2 -21 V
1 -18 V
7 0 V
4 46 V
17 217 V
16 274 V
8 142 V
1 18 V
1 25 V
2 34 V
2 31 V
6 -6 V
4 -82 V
34 -659 V
7 -155 V
1 -19 V
2 -28 V
2 -37 V
1 -32 V
7 -77 V
4 -12 V
17 -19 V
16 43 V
8 35 V
1 5 V
1 6 V
2 8 V
2 8 V
6 -28 V
4 -51 V
17 -177 V
17 -113 V
% End plot #3
% Begin plot #4
stroke
LTb
0.00 1.00 0.00 C LCb setrgbcolor
3380 2180 M
[ [(Symbol) 140.0 0.0 true true 0 (h)]
[(roman) 112.0 -42.0 true true 0 (y)]
] -32.7 MRshow
1.000 UL
LTb
0.00 1.00 0.00 C 3464 2180 M
147 0 V
516 384 M
8 0 V
1 0 V
1 0 V
2 0 V
2 0 V
6 0 V
4 0 V
17 0 V
16 0 V
8 0 V
1 0 V
2 0 V
1 0 V
2 0 V
7 0 V
4 0 V
16 0 V
17 0 V
8 0 V
1 0 V
1 0 V
2 0 V
2 0 V
6 0 V
4 0 V
17 0 V
16 0 V
8 0 V
1 0 V
2 0 V
1 0 V
2 0 V
7 0 V
4 0 V
16 0 V
17 0 V
8 0 V
1 0 V
1 0 V
2 0 V
2 0 V
6 0 V
4 0 V
17 0 V
16 0 V
8 0 V
1 0 V
2 0 V
1 0 V
2 0 V
7 0 V
4 0 V
33 0 V
8 0 V
1 0 V
1 0 V
2 0 V
2 0 V
6 0 V
4 0 V
17 0 V
16 0 V
8 0 V
1 0 V
2 0 V
1 0 V
2 0 V
7 0 V
4 0 V
16 0 V
17 0 V
8 0 V
1 0 V
1 0 V
2 0 V
2 0 V
6 0 V
4 0 V
17 0 V
16 0 V
8 0 V
1 0 V
2 0 V
1 0 V
2 0 V
7 0 V
4 0 V
16 0 V
17 0 V
8 0 V
1 0 V
1 0 V
2 0 V
2 0 V
6 0 V
4 0 V
17 0 V
16 0 V
8 0 V
1 0 V
2 0 V
1 0 V
2 0 V
7 0 V
4 0 V
16 0 V
17 0 V
8 0 V
1 0 V
1 0 V
2 0 V
1 0 V
7 0 V
4 0 V
17 0 V
16 0 V
8 0 V
1 0 V
1 0 V
2 0 V
2 0 V
7 0 V
4 0 V
33 0 V
8 0 V
1 0 V
1 0 V
2 0 V
1 0 V
7 0 V
4 0 V
17 0 V
16 0 V
8 0 V
1 0 V
1 0 V
2 0 V
2 0 V
7 0 V
4 0 V
16 0 V
17 0 V
8 0 V
1 0 V
1 0 V
2 0 V
1 0 V
7 0 V
4 0 V
17 0 V
16 0 V
8 0 V
1 0 V
1 0 V
2 0 V
2 0 V
7 0 V
4 0 V
16 0 V
17 0 V
8 0 V
1 0 V
1 0 V
2 0 V
1 0 V
7 0 V
4 0 V
17 0 V
16 0 V
8 0 V
1 0 V
1 0 V
2 0 V
2 0 V
7 0 V
4 0 V
16 0 V
17 0 V
8 0 V
1 0 V
1 0 V
2 0 V
1 0 V
7 0 V
4 0 V
17 0 V
16 0 V
8 0 V
1 0 V
1 0 V
2 0 V
2 0 V
7 0 V
4 0 V
33 0 V
8 0 V
1 0 V
1 0 V
2 0 V
1 0 V
7 0 V
4 0 V
17 0 V
16 0 V
8 0 V
1 0 V
1 0 V
2 0 V
2 0 V
7 0 V
4 0 V
16 0 V
17 0 V
8 0 V
1 0 V
1 0 V
2 0 V
1 0 V
7 0 V
4 0 V
17 0 V
16 0 V
8 0 V
1 0 V
1 0 V
2 0 V
2 0 V
7 0 V
4 0 V
16 0 V
17 0 V
8 0 V
1 0 V
1 0 V
2 0 V
1 0 V
7 0 V
4 0 V
17 0 V
16 0 V
8 0 V
1 0 V
1 0 V
2 0 V
2 0 V
7 0 V
4 0 V
stroke 2093 384 M
16 0 V
17 0 V
8 0 V
2 0 V
2 0 V
1 0 V
7 0 V
4 0 V
17 0 V
16 0 V
8 0 V
1 0 V
1 0 V
2 0 V
2 0 V
7 0 V
4 0 V
33 0 V
8 0 V
2 0 V
2 0 V
1 0 V
7 0 V
4 0 V
17 0 V
16 0 V
8 0 V
1 0 V
1 0 V
2 0 V
2 0 V
7 0 V
4 0 V
16 0 V
17 0 V
7 0 V
1 0 V
2 0 V
2 0 V
1 0 V
7 0 V
4 0 V
17 0 V
16 0 V
8 0 V
1 0 V
1 0 V
2 0 V
2 0 V
6 0 V
5 0 V
16 0 V
17 0 V
7 0 V
1 0 V
2 0 V
2 0 V
1 0 V
7 0 V
4 0 V
17 0 V
16 0 V
8 0 V
1 0 V
1 0 V
2 0 V
2 0 V
6 0 V
5 0 V
16 0 V
17 0 V
7 0 V
1 0 V
2 0 V
2 0 V
1 0 V
7 0 V
4 0 V
17 0 V
16 0 V
8 0 V
1 0 V
1 0 V
2 0 V
2 0 V
6 0 V
5 0 V
33 0 V
7 0 V
1 0 V
2 0 V
2 0 V
1 0 V
7 0 V
4 0 V
17 0 V
16 0 V
8 0 V
1 0 V
1 0 V
2 0 V
2 0 V
6 0 V
5 0 V
16 0 V
17 0 V
7 0 V
1 0 V
2 0 V
2 0 V
1 0 V
7 0 V
4 0 V
17 0 V
16 0 V
8 0 V
1 0 V
1 0 V
2 0 V
2 0 V
6 0 V
5 0 V
16 0 V
17 0 V
7 0 V
1 0 V
2 0 V
2 0 V
1 0 V
7 0 V
4 0 V
17 0 V
16 0 V
8 0 V
1 0 V
1 0 V
2 0 V
2 0 V
6 0 V
4 0 V
17 0 V
17 0 V
7 0 V
1 0 V
2 0 V
2 0 V
1 0 V
7 0 V
4 0 V
17 0 V
16 0 V
8 0 V
1 0 V
1 0 V
2 0 V
2 0 V
6 0 V
4 0 V
34 0 V
7 0 V
1 0 V
2 0 V
2 0 V
1 0 V
7 0 V
4 0 V
17 0 V
16 0 V
8 0 V
1 0 V
1 0 V
2 0 V
2 0 V
6 0 V
4 0 V
17 0 V
17 0 V
% End plot #4
stroke
2.000 UL
LTb
LCb setrgbcolor
1.000 UL
LTB
LCb setrgbcolor
516 2313 N
516 384 L
3419 0 V
0 1929 V
-3419 0 V
Z stroke
1.000 UP
1.000 UL
LTb
LCb setrgbcolor
stroke
grestore
end
showpage
%%Trailer
%%DocumentFonts: Symbol roman Times-Roman
