***  SPES2  600MEV/C                                                            
 'OBJET'                                                                             1
 2335.                                                                          
 5                                                                              
 .104113721 .832545509 0.104 1.85043641 0. .001                                 
 0. 0. 0. 0. 0. 1.                                                              
 'ESL'                                                                               2
 60.                                                                            
 'QUADRUPO'                                                                          3
  0                                                                             
 40.  10. -5.61                                                                 
 0.  0.                                                                         
 6  .1122 6.2671 -1.4982 3.5882 -2.1209 1.723                                   
 0.   0.                                                                        
 6  .1122 6.2671 -1.4982 3.5882 -2.1209 1.723                                   
 3.                                                                             
 1 0. 0. 0.                                                                     
 'ESL'                                                                               4
 27.893                                                                         
 'DIPOLE-M'                                                                            5
 2 0 0                                                                          
 350  200                                                                       
 15.273   0. 0. 0.                                                              
 107.  50.   131.  70.  180.                                                    
 46. -1.                                                                        
 4   .14552 5.21405 -3.38307 14.0629 0. 0. 0.                                   
  31.  17.5    -57.24  0.    0.  -57.24                                         
 46. -1.                                                                        
 4   .14552 5.21405 -3.38307 14.0629 0. 0. 0.                                   
 -32. -10.    -158.    0.    0. -126.                                           
 0                                                                              
 25                                                                             
 .3                                                                             
 2                                                                              
  138.548   -.33161256  144.648 .43827                                          
 'ESL'                                                                               6
 24.21                                                                          
 'DIPOLE-M'                                                                            7
 2 0 0                                                                          
 350  200                                                                       
 15.2730  0. 0. 0.                                                              
 78.   39.   131.  60.  210.                                                    
 46. -1.                                                                        
 4   .14552 5.21405 -3.38307 14.0629 0. 0. 0.                                   
  20.  20.     1.E6   -1.E6    1.E6   1.E6                                      
 46. -1.                                                                        
 4  .14552  5.21405  -3.38307  14.0629 0. 0. 0.                                 
 -20.  20.    -350.  -26.5  20.5  800.                                          
 0                                                                              
 25                                                                             
 .3                                                                             
 2                                                                              
  138.548   -.331612558   138.716 .33451                                        
 'ESL'                                                                               8
 123.39                                                                         
 'ESL'                                                                               9
 75.                                                                            
 'FAISCEAU'                                                                         10
 'IMAGES'                                                                           11
 'MATRIX'                                                                           12
  1  1                                                                          
 'END'                                                                              13

********************************************************************************************************************************
      1  OBJET                         
                          MAGNETIC  RIGIDITY =       2335.000 kG*cm

                                         CALCUL  DES  TRAJECTOIRES

                              OBJET  (5)  FORME  DE     11 POINTS 



                                Y (cm)         T (mrd)       Z (cm)        P (mrd)       S (cm)        dp/p 
               Sampling :       0.10          0.83          0.10           1.9           0.0          0.1000E-02
   Reference trajectory :        0.0           0.0           0.0           0.0           0.0           1.000    


********************************************************************************************************************************
      2  ESL                           

                              Drift,  length =    60.00000  cm

 TRAJ 1 IEX,D,Y,T,Z,P,S,time :  1   1.000       0.000       0.000       0.000       0.000           60.000           0.0000    

 Cumulative length of optical axis =   0.600000     m ;   corresponding Time  (for ref. rigidity & particle) =   1.6743E+10 s 

********************************************************************************************************************************
      3  QUADRUPO                      

      -----  QUADRUPOLE  : 
                Length  of  element  =    40.00      cm
                Bore  radius      RO =    10.00      cm
               B-QUADRUPOLE  =  -5.61000     kG 

               Lens field model is sharp edge

                    Integration step :   3.000     cm


 Cumulative length of optical axis =    1.00000     m ;   corresponding Time  (for ref. rigidity & particle) =   2.7906E+10 s 

********************************************************************************************************************************
      4  ESL                           

                              Drift,  length =    27.89300  cm

 TRAJ 1 IEX,D,Y,T,Z,P,S,time :  1   1.000       0.000       0.000       0.000       0.000           127.89           0.0000    

 Cumulative length of optical axis =    1.27893     m ;   corresponding Time  (for ref. rigidity & particle) =   3.5689E+10 s 

********************************************************************************************************************************
      5  DIPOLE                        
                    AIMANT  PRINCIPAL

           ANGLES * A.TOTAL =107.00 DEGRES     A.CENTRAL = 50.00 DEGRES
           RM = 131.00 CM     RMIN =  70.00 CM     RMAX = 180.00 CM
           HNORM = 15.2730 KGAUSS     COEF.N =  0.00000     COEF.B =  0.00000     COEF.G=  0.00000
                    NBRE PAS ANGULAIRE=  350  NBRE PAS RAYON=  200
                    PAS ANGULAIRE =  0.3066 DEG. OU   0.7010 CM AU RAYON MOYEN
                    PAS EN RAYON  =  0.5528 CM

     Entrance  face
          Champ FUITE : LAMBDA =  46.00 CM
           COEFFICIENTS :   0.14552   5.21405  -3.38307  14.06290   0.00000   0.00000
           DECALAGE  FACE  MAGNETIQUE =    0.000     CM

          OMEGA =  31.00     ANGLE  DE  FACE =  17.50
           RAYON 1 =  -57.     CM
           PARTIE  DROITE 1 =   0.0     CM
           PARTIE  DROITE 2 =   0.0     CM
           RAYON 2 =  -57.     CM

     Exit  face
          Champ FUITE : LAMBDA =  46.00 CM
           COEFFICIENTS :   0.14552   5.21405  -3.38307  14.06290   0.00000   0.00000
           DECALAGE  FACE  MAGNETIQUE =    0.000     CM

          OMEGA = -32.00     ANGLE  DE  FACE = -10.00
           RAYON 1 = -1.58E+02 CM
           PARTIE  DROITE 1 =   0.0     CM
           PARTIE  DROITE 2 =   0.0     CM
           RAYON 2 = -1.26E+02 CM

                     OPTION  DE  CALCUL  :25
                     LISSAGE  A  25  POINTS 

                    Integration step :  0.3000     cm   (i.e.,   2.2901E-03 rad  at mean radius)

                               Position of mean orbit on mechanical  faces
                                         at entrance    RE = 138.548 cm  TE =-0.331613 rad
                                         at exit        RS = 144.648 cm  TS = 0.438270 rad

  O   1  1.0000     0.000     0.000     0.000     0.000            1.868   167.593     0.580     0.000     0.000           1
  A   1  1.0000     0.104     0.000     0.000     0.000            1.868   167.961     0.580     0.000     0.000           2
  B   1  1.0000    -0.104     0.000     0.000     0.000            1.868   167.225     0.580     0.000     0.000           3
  C   1  1.0000     0.000     0.833     0.000     0.000            1.868   168.054     0.581     0.000     0.000           4
  D   1  1.0000     0.000    -0.833     0.000     0.000            1.868   167.131     0.580     0.000     0.000           5
  E   1  1.0000     0.000     0.000     0.104     0.000            1.868   167.593     0.580    -0.195    -0.001           6
  F   1  1.0000     0.000     0.000    -0.104     0.000            1.868   167.593     0.580     0.195     0.001           7
  G   1  1.0000     0.000     0.000     0.000     1.850            1.868   167.593     0.580     0.218     0.000           8
  H   1  1.0000     0.000     0.000     0.000    -1.850            1.868   167.593     0.580    -0.218     0.000           9
  I   1  1.0010     0.000     0.000     0.000     0.000            1.868   167.746     0.581     0.000     0.000          10
  J   1  0.9990     0.000     0.000     0.000     0.000            1.868   167.440     0.579     0.000     0.000          11

 Cumulative length of optical axis =    1.27893     m ;   corresponding Time  (for ref. rigidity & particle) =   3.5689E+10 s 

********************************************************************************************************************************
      6  ESL                           

                              Drift,  length =    24.21000  cm

 TRAJ 1 IEX,D,Y,T,Z,P,S,time :  1   1.000       22.84       142.0       0.000       0.000           407.23           0.0000    

 Cumulative length of optical axis =    1.52103     m ;   corresponding Time  (for ref. rigidity & particle) =   4.2445E+10 s 

********************************************************************************************************************************
      7  DIPOLE                        
                    AIMANT  PRINCIPAL

           ANGLES * A.TOTAL = 78.00 DEGRES     A.CENTRAL = 39.00 DEGRES
           RM = 131.00 CM     RMIN =  60.00 CM     RMAX = 210.00 CM
           HNORM = 15.2730 KGAUSS     COEF.N =  0.00000     COEF.B =  0.00000     COEF.G=  0.00000
                    NBRE PAS ANGULAIRE=  350  NBRE PAS RAYON=  200
                    PAS ANGULAIRE =  0.2235 DEG. OU   0.5110 CM AU RAYON MOYEN
                    PAS EN RAYON  =  0.7538 CM

     Entrance  face
          Champ FUITE : LAMBDA =  46.00 CM
           COEFFICIENTS :   0.14552   5.21405  -3.38307  14.06290   0.00000   0.00000
           DECALAGE  FACE  MAGNETIQUE =    0.000     CM

          OMEGA =  20.00     ANGLE  DE  FACE =  20.00
           RAYON 1 =  1.00E+06 CM
           PARTIE  DROITE 1 = -1.00E+06 CM
           PARTIE  DROITE 2 =  1.00E+06 CM
           RAYON 2 =  1.00E+06 CM

     Exit  face
          Champ FUITE : LAMBDA =  46.00 CM
           COEFFICIENTS :   0.14552   5.21405  -3.38307  14.06290   0.00000   0.00000
           DECALAGE  FACE  MAGNETIQUE =    0.000     CM

          OMEGA = -20.00     ANGLE  DE  FACE =  20.00
           RAYON 1 = -3.50E+02 CM
           PARTIE  DROITE 1 =  -26.     CM
           PARTIE  DROITE 2 =   20.     CM
           RAYON 2 =  8.00E+02 CM

                     OPTION  DE  CALCUL  :25
                     LISSAGE  A  25  POINTS 

                    Integration step :  0.3000     cm   (i.e.,   2.2901E-03 rad  at mean radius)

                               Position of mean orbit on mechanical  faces
                                         at entrance    RE = 138.548 cm  TE =-0.331613 rad
                                         at exit        RS = 138.716 cm  TS = 0.334510 rad

  O   1  1.0000     0.000     0.000     0.000     0.000            1.361   192.346     0.328     0.000     0.000           1
  A   1  1.0000     0.104     0.000     0.000     0.000            1.361   192.618     0.326     0.000     0.000           2
  B   1  1.0000    -0.104     0.000     0.000     0.000            1.361   192.074     0.329     0.000     0.000           3
  C   1  1.0000     0.000     0.833     0.000     0.000            1.361   192.743     0.326     0.000     0.000           4
  D   1  1.0000     0.000    -0.833     0.000     0.000            1.361   191.949     0.330     0.000     0.000           5
  E   1  1.0000     0.000     0.000     0.104     0.000            1.361   192.346     0.328    -0.320    -0.001           6
  F   1  1.0000     0.000     0.000    -0.104     0.000            1.361   192.346     0.328     0.320     0.001           7
  G   1  1.0000     0.000     0.000     0.000     1.850            1.361   192.346     0.328     0.130     0.000           8
  H   1  1.0000     0.000     0.000     0.000    -1.850            1.361   192.346     0.328    -0.130     0.000           9
  I   1  1.0010     0.000     0.000     0.000     0.000            1.361   192.713     0.328     0.000     0.000          10
  J   1  0.9990     0.000     0.000     0.000     0.000            1.361   191.980     0.328     0.000     0.000          11

 Cumulative length of optical axis =    1.52103     m ;   corresponding Time  (for ref. rigidity & particle) =   4.2445E+10 s 

********************************************************************************************************************************
      8  ESL                           

                              Drift,  length =   123.39000  cm

 TRAJ 1 IEX,D,Y,T,Z,P,S,time :  1   1.000       49.95      -6.676       0.000       0.000           742.11           0.0000    

 Cumulative length of optical axis =    2.75493     m ;   corresponding Time  (for ref. rigidity & particle) =   7.6878E+10 s 

********************************************************************************************************************************
      9  ESL                           

                              Drift,  length =    75.00000  cm

 TRAJ 1 IEX,D,Y,T,Z,P,S,time :  1   1.000       49.45      -6.676       0.000       0.000           817.11           0.0000    

 Cumulative length of optical axis =    3.50493     m ;   corresponding Time  (for ref. rigidity & particle) =   9.7807E+10 s 

********************************************************************************************************************************
     10  FAISCEAU                      
0                                             TRACE DU FAISCEAU

                                               11 TRAJECTOIRES

                                   OBJET                                                  FAISCEAU

          D       Y(CM)     T(MR)     Z(CM)     P(MR)    S(CM)          D       Y(CM)     T(MR)     Z(CM)     P(MR)    S(CM)

O   1   1.0000     0.000     0.000     0.000     0.000     0.000        1.0000   49.451   -6.676    0.000    0.000    817.114      1
A   1   1.0000     0.104     0.000     0.000     0.000     0.000        1.0000   49.407   -8.338    0.000    0.000    817.664      2
B   1   1.0000    -0.104     0.000     0.000     0.000     0.000        1.0000   49.494   -5.014    0.000    0.000    816.565      3
C   1   1.0000     0.000     0.833     0.000     0.000     0.000        1.0000   49.449   -8.767    0.000    0.000    817.801      4
D   1   1.0000     0.000    -0.833     0.000     0.000     0.000        1.0000   49.453   -4.584    0.000    0.000    816.429      5
E   1   1.0000     0.000     0.000     0.104     0.000     0.000        1.0000   49.450   -6.676   -0.499   -0.989    817.115      6
F   1   1.0000     0.000     0.000    -0.104     0.000     0.000        1.0000   49.450   -6.676    0.499    0.989    817.115      7
G   1   1.0000     0.000     0.000     0.000     1.850     0.000        1.0000   49.450   -6.678    0.094   -0.199    817.115      8
H   1   1.0000     0.000     0.000     0.000    -1.850     0.000        1.0000   49.450   -6.678   -0.094    0.199    817.115      9
I   1   1.0010     0.000     0.000     0.000     0.000     0.000        1.0010   49.779   -6.782    0.000    0.000    817.369     10
J   1   0.9990     0.000     0.000     0.000     0.000     0.000        0.9990   49.123   -6.572    0.000    0.000    816.861     11

********************************************************************************************************************************
     11  IMAGES                        

     RECHERCHE DU POINT DE FOCALISATION HORIZONTAL DE 11 TRAJECTOIRES (SUR 11)

     POINT DE FOCALISATION HORIZONTAL SUR L ORBITE MOYENNE    X =    -5.82 CM    Y =    49.49 CM

     DECALAGE DU CENTRE DE GRAVITE EN Y =      0.00 CM

     LARGEUR IMAGE,  A MI-HAUTEUR =    0.331017 CM,  TOTALE =    0.656985 CM
                                      .........                 .........

0                                             TRACE DU FAISCEAU

                                               11 TRAJECTOIRES

                                   OBJET                                                  FAISCEAU

          D       Y(CM)     T(MR)     Z(CM)     P(MR)    S(CM)          D       Y(CM)     T(MR)     Z(CM)     P(MR)    S(CM)

O   1   1.0000     0.000     0.000     0.000     0.000     0.000        1.0000   49.451   -6.676    0.000    0.000    817.114      1
A   1   1.0000     0.104     0.000     0.000     0.000     0.000        1.0000   49.407   -8.338    0.000    0.000    817.664      2
B   1   1.0000    -0.104     0.000     0.000     0.000     0.000        1.0000   49.494   -5.014    0.000    0.000    816.565      3
C   1   1.0000     0.000     0.833     0.000     0.000     0.000        1.0000   49.449   -8.767    0.000    0.000    817.801      4
D   1   1.0000     0.000    -0.833     0.000     0.000     0.000        1.0000   49.453   -4.584    0.000    0.000    816.429      5
E   1   1.0000     0.000     0.000     0.104     0.000     0.000        1.0000   49.450   -6.676   -0.499   -0.989    817.115      6
F   1   1.0000     0.000     0.000    -0.104     0.000     0.000        1.0000   49.450   -6.676    0.499    0.989    817.115      7
G   1   1.0000     0.000     0.000     0.000     1.850     0.000        1.0000   49.450   -6.678    0.094   -0.199    817.115      8
H   1   1.0000     0.000     0.000     0.000    -1.850     0.000        1.0000   49.450   -6.678   -0.094    0.199    817.115      9
I   1   1.0010     0.000     0.000     0.000     0.000     0.000        1.0010   49.779   -6.782    0.000    0.000    817.369     10
J   1   0.9990     0.000     0.000     0.000     0.000     0.000        0.9990   49.123   -6.572    0.000    0.000    816.861     11

********************************************************************************************************************************
     12  MATRIX                        

           Frame for MATRIX calculation moved by :
            XC =   -0.981 cm , YC =   49.457 cm ,   A = -0.38249 deg  ( =-0.006676 rad )

  Path length of particle #1 :   816.133     cm


                  TRANSFER  MATRIX  ORDRE  1  (MKSA units)

         -0.398075        2.046196E-08     0.00000         0.00000         0.00000         3.27979    
          -1.59624        -2.51209         0.00000         0.00000         0.00000       -0.104576    
           0.00000         0.00000        -4.78542        0.509092         0.00000         0.00000    
           0.00000         0.00000       -0.950877       -0.107809         0.00000         0.00000    
           5.27653         8.23894         0.00000         0.00000         1.00000         2.56259    
           0.00000         0.00000         0.00000         0.00000         0.00000         1.00000    

          DetY-1 =       0.0000003606,    DetZ-1 =      -0.0000025207

          R12=0 at   0.8145E-08 m,        R34=0 at    4.722     m

      First order sympletic conditions (expected values = 0) :
         3.6061E-07   -2.5207E-06     0.000         0.000         0.000         0.000    

********************************************************************************************************************************
     13  END                           

                            11 particles have been launched
                     Made  it  to  the  end :     11

********************************************************************************************************************************

           MAIN PROGRAM : Execution ended upon key  END       

********************************************************************************************************************************

  Zgoubi, version V4.99.
  Job  started  on  NoDate...,  at  NoTime.. 
  Job  ended  on  NoDate...,  at  NoTime.. 

