%!PS-Adobe-2.0 EPSF-2.0
%%Title: gnuplot_avrgFromFai_awk_SZ.eps
%%Creator: gnuplot 5.2 patchlevel 2
%%CreationDate: Wed Aug 25 08:34:39 2021
%%DocumentFonts: (atend)
%%BoundingBox: 50 50 410 302
%%EndComments
%%BeginProlog
/gnudict 256 dict def
gnudict begin
%
% The following true/false flags may be edited by hand if desired.
% The unit line width and grayscale image gamma correction may also be changed.
%
/Color true def
/Blacktext true def
/Solid false def
/Dashlength 1 def
/Landscape false def
/Level1 false def
/Level3 false def
/Rounded false def
/ClipToBoundingBox false def
/SuppressPDFMark false def
/TransparentPatterns false def
/gnulinewidth 5.000 def
/userlinewidth gnulinewidth def
/Gamma 1.0 def
/BackgroundColor {-1.000 -1.000 -1.000} def
%
/vshift -46 def
/dl1 {
  10.0 Dashlength userlinewidth gnulinewidth div mul mul mul
  Rounded { currentlinewidth 0.75 mul sub dup 0 le { pop 0.01 } if } if
} def
/dl2 {
  10.0 Dashlength userlinewidth gnulinewidth div mul mul mul
  Rounded { currentlinewidth 0.75 mul add } if
} def
/hpt_ 31.5 def
/vpt_ 31.5 def
/hpt hpt_ def
/vpt vpt_ def
/doclip {
  ClipToBoundingBox {
    newpath 50 50 moveto 410 50 lineto 410 302 lineto 50 302 lineto closepath
    clip
  } if
} def
%
% Gnuplot Prolog Version 5.1 (Oct 2015)
%
%/SuppressPDFMark true def
%
/M {moveto} bind def
/L {lineto} bind def
/R {rmoveto} bind def
/V {rlineto} bind def
/N {newpath moveto} bind def
/Z {closepath} bind def
/C {setrgbcolor} bind def
/f {rlineto fill} bind def
/g {setgray} bind def
/Gshow {show} def   % May be redefined later in the file to support UTF-8
/vpt2 vpt 2 mul def
/hpt2 hpt 2 mul def
/Lshow {currentpoint stroke M 0 vshift R 
	Blacktext {gsave 0 setgray textshow grestore} {textshow} ifelse} def
/Rshow {currentpoint stroke M dup stringwidth pop neg vshift R
	Blacktext {gsave 0 setgray textshow grestore} {textshow} ifelse} def
/Cshow {currentpoint stroke M dup stringwidth pop -2 div vshift R 
	Blacktext {gsave 0 setgray textshow grestore} {textshow} ifelse} def
/UP {dup vpt_ mul /vpt exch def hpt_ mul /hpt exch def
  /hpt2 hpt 2 mul def /vpt2 vpt 2 mul def} def
/DL {Color {setrgbcolor Solid {pop []} if 0 setdash}
 {pop pop pop 0 setgray Solid {pop []} if 0 setdash} ifelse} def
/BL {stroke userlinewidth 2 mul setlinewidth
	Rounded {1 setlinejoin 1 setlinecap} if} def
/AL {stroke userlinewidth 2 div setlinewidth
	Rounded {1 setlinejoin 1 setlinecap} if} def
/UL {dup gnulinewidth mul /userlinewidth exch def
	dup 1 lt {pop 1} if 10 mul /udl exch def} def
/PL {stroke userlinewidth setlinewidth
	Rounded {1 setlinejoin 1 setlinecap} if} def
3.8 setmiterlimit
% Classic Line colors (version 5.0)
/LCw {1 1 1} def
/LCb {0 0 0} def
/LCa {0 0 0} def
/LC0 {1 0 0} def
/LC1 {0 1 0} def
/LC2 {0 0 1} def
/LC3 {1 0 1} def
/LC4 {0 1 1} def
/LC5 {1 1 0} def
/LC6 {0 0 0} def
/LC7 {1 0.3 0} def
/LC8 {0.5 0.5 0.5} def
% Default dash patterns (version 5.0)
/LTB {BL [] LCb DL} def
/LTw {PL [] 1 setgray} def
/LTb {PL [] LCb DL} def
/LTa {AL [1 udl mul 2 udl mul] 0 setdash LCa setrgbcolor} def
/LT0 {PL [] LC0 DL} def
/LT1 {PL [2 dl1 3 dl2] LC1 DL} def
/LT2 {PL [1 dl1 1.5 dl2] LC2 DL} def
/LT3 {PL [6 dl1 2 dl2 1 dl1 2 dl2] LC3 DL} def
/LT4 {PL [1 dl1 2 dl2 6 dl1 2 dl2 1 dl1 2 dl2] LC4 DL} def
/LT5 {PL [4 dl1 2 dl2] LC5 DL} def
/LT6 {PL [1.5 dl1 1.5 dl2 1.5 dl1 1.5 dl2 1.5 dl1 6 dl2] LC6 DL} def
/LT7 {PL [3 dl1 3 dl2 1 dl1 3 dl2] LC7 DL} def
/LT8 {PL [2 dl1 2 dl2 2 dl1 6 dl2] LC8 DL} def
/SL {[] 0 setdash} def
/Pnt {stroke [] 0 setdash gsave 1 setlinecap M 0 0 V stroke grestore} def
/Dia {stroke [] 0 setdash 2 copy vpt add M
  hpt neg vpt neg V hpt vpt neg V
  hpt vpt V hpt neg vpt V closepath stroke
  Pnt} def
/Pls {stroke [] 0 setdash vpt sub M 0 vpt2 V
  currentpoint stroke M
  hpt neg vpt neg R hpt2 0 V stroke
 } def
/Box {stroke [] 0 setdash 2 copy exch hpt sub exch vpt add M
  0 vpt2 neg V hpt2 0 V 0 vpt2 V
  hpt2 neg 0 V closepath stroke
  Pnt} def
/Crs {stroke [] 0 setdash exch hpt sub exch vpt add M
  hpt2 vpt2 neg V currentpoint stroke M
  hpt2 neg 0 R hpt2 vpt2 V stroke} def
/TriU {stroke [] 0 setdash 2 copy vpt 1.12 mul add M
  hpt neg vpt -1.62 mul V
  hpt 2 mul 0 V
  hpt neg vpt 1.62 mul V closepath stroke
  Pnt} def
/Star {2 copy Pls Crs} def
/BoxF {stroke [] 0 setdash exch hpt sub exch vpt add M
  0 vpt2 neg V hpt2 0 V 0 vpt2 V
  hpt2 neg 0 V closepath fill} def
/TriUF {stroke [] 0 setdash vpt 1.12 mul add M
  hpt neg vpt -1.62 mul V
  hpt 2 mul 0 V
  hpt neg vpt 1.62 mul V closepath fill} def
/TriD {stroke [] 0 setdash 2 copy vpt 1.12 mul sub M
  hpt neg vpt 1.62 mul V
  hpt 2 mul 0 V
  hpt neg vpt -1.62 mul V closepath stroke
  Pnt} def
/TriDF {stroke [] 0 setdash vpt 1.12 mul sub M
  hpt neg vpt 1.62 mul V
  hpt 2 mul 0 V
  hpt neg vpt -1.62 mul V closepath fill} def
/DiaF {stroke [] 0 setdash vpt add M
  hpt neg vpt neg V hpt vpt neg V
  hpt vpt V hpt neg vpt V closepath fill} def
/Pent {stroke [] 0 setdash 2 copy gsave
  translate 0 hpt M 4 {72 rotate 0 hpt L} repeat
  closepath stroke grestore Pnt} def
/PentF {stroke [] 0 setdash gsave
  translate 0 hpt M 4 {72 rotate 0 hpt L} repeat
  closepath fill grestore} def
/Circle {stroke [] 0 setdash 2 copy
  hpt 0 360 arc stroke Pnt} def
/CircleF {stroke [] 0 setdash hpt 0 360 arc fill} def
/C0 {BL [] 0 setdash 2 copy moveto vpt 90 450 arc} bind def
/C1 {BL [] 0 setdash 2 copy moveto
	2 copy vpt 0 90 arc closepath fill
	vpt 0 360 arc closepath} bind def
/C2 {BL [] 0 setdash 2 copy moveto
	2 copy vpt 90 180 arc closepath fill
	vpt 0 360 arc closepath} bind def
/C3 {BL [] 0 setdash 2 copy moveto
	2 copy vpt 0 180 arc closepath fill
	vpt 0 360 arc closepath} bind def
/C4 {BL [] 0 setdash 2 copy moveto
	2 copy vpt 180 270 arc closepath fill
	vpt 0 360 arc closepath} bind def
/C5 {BL [] 0 setdash 2 copy moveto
	2 copy vpt 0 90 arc
	2 copy moveto
	2 copy vpt 180 270 arc closepath fill
	vpt 0 360 arc} bind def
/C6 {BL [] 0 setdash 2 copy moveto
	2 copy vpt 90 270 arc closepath fill
	vpt 0 360 arc closepath} bind def
/C7 {BL [] 0 setdash 2 copy moveto
	2 copy vpt 0 270 arc closepath fill
	vpt 0 360 arc closepath} bind def
/C8 {BL [] 0 setdash 2 copy moveto
	2 copy vpt 270 360 arc closepath fill
	vpt 0 360 arc closepath} bind def
/C9 {BL [] 0 setdash 2 copy moveto
	2 copy vpt 270 450 arc closepath fill
	vpt 0 360 arc closepath} bind def
/C10 {BL [] 0 setdash 2 copy 2 copy moveto vpt 270 360 arc closepath fill
	2 copy moveto
	2 copy vpt 90 180 arc closepath fill
	vpt 0 360 arc closepath} bind def
/C11 {BL [] 0 setdash 2 copy moveto
	2 copy vpt 0 180 arc closepath fill
	2 copy moveto
	2 copy vpt 270 360 arc closepath fill
	vpt 0 360 arc closepath} bind def
/C12 {BL [] 0 setdash 2 copy moveto
	2 copy vpt 180 360 arc closepath fill
	vpt 0 360 arc closepath} bind def
/C13 {BL [] 0 setdash 2 copy moveto
	2 copy vpt 0 90 arc closepath fill
	2 copy moveto
	2 copy vpt 180 360 arc closepath fill
	vpt 0 360 arc closepath} bind def
/C14 {BL [] 0 setdash 2 copy moveto
	2 copy vpt 90 360 arc closepath fill
	vpt 0 360 arc} bind def
/C15 {BL [] 0 setdash 2 copy vpt 0 360 arc closepath fill
	vpt 0 360 arc closepath} bind def
/Rec {newpath 4 2 roll moveto 1 index 0 rlineto 0 exch rlineto
	neg 0 rlineto closepath} bind def
/Square {dup Rec} bind def
/Bsquare {vpt sub exch vpt sub exch vpt2 Square} bind def
/S0 {BL [] 0 setdash 2 copy moveto 0 vpt rlineto BL Bsquare} bind def
/S1 {BL [] 0 setdash 2 copy vpt Square fill Bsquare} bind def
/S2 {BL [] 0 setdash 2 copy exch vpt sub exch vpt Square fill Bsquare} bind def
/S3 {BL [] 0 setdash 2 copy exch vpt sub exch vpt2 vpt Rec fill Bsquare} bind def
/S4 {BL [] 0 setdash 2 copy exch vpt sub exch vpt sub vpt Square fill Bsquare} bind def
/S5 {BL [] 0 setdash 2 copy 2 copy vpt Square fill
	exch vpt sub exch vpt sub vpt Square fill Bsquare} bind def
/S6 {BL [] 0 setdash 2 copy exch vpt sub exch vpt sub vpt vpt2 Rec fill Bsquare} bind def
/S7 {BL [] 0 setdash 2 copy exch vpt sub exch vpt sub vpt vpt2 Rec fill
	2 copy vpt Square fill Bsquare} bind def
/S8 {BL [] 0 setdash 2 copy vpt sub vpt Square fill Bsquare} bind def
/S9 {BL [] 0 setdash 2 copy vpt sub vpt vpt2 Rec fill Bsquare} bind def
/S10 {BL [] 0 setdash 2 copy vpt sub vpt Square fill 2 copy exch vpt sub exch vpt Square fill
	Bsquare} bind def
/S11 {BL [] 0 setdash 2 copy vpt sub vpt Square fill 2 copy exch vpt sub exch vpt2 vpt Rec fill
	Bsquare} bind def
/S12 {BL [] 0 setdash 2 copy exch vpt sub exch vpt sub vpt2 vpt Rec fill Bsquare} bind def
/S13 {BL [] 0 setdash 2 copy exch vpt sub exch vpt sub vpt2 vpt Rec fill
	2 copy vpt Square fill Bsquare} bind def
/S14 {BL [] 0 setdash 2 copy exch vpt sub exch vpt sub vpt2 vpt Rec fill
	2 copy exch vpt sub exch vpt Square fill Bsquare} bind def
/S15 {BL [] 0 setdash 2 copy Bsquare fill Bsquare} bind def
/D0 {gsave translate 45 rotate 0 0 S0 stroke grestore} bind def
/D1 {gsave translate 45 rotate 0 0 S1 stroke grestore} bind def
/D2 {gsave translate 45 rotate 0 0 S2 stroke grestore} bind def
/D3 {gsave translate 45 rotate 0 0 S3 stroke grestore} bind def
/D4 {gsave translate 45 rotate 0 0 S4 stroke grestore} bind def
/D5 {gsave translate 45 rotate 0 0 S5 stroke grestore} bind def
/D6 {gsave translate 45 rotate 0 0 S6 stroke grestore} bind def
/D7 {gsave translate 45 rotate 0 0 S7 stroke grestore} bind def
/D8 {gsave translate 45 rotate 0 0 S8 stroke grestore} bind def
/D9 {gsave translate 45 rotate 0 0 S9 stroke grestore} bind def
/D10 {gsave translate 45 rotate 0 0 S10 stroke grestore} bind def
/D11 {gsave translate 45 rotate 0 0 S11 stroke grestore} bind def
/D12 {gsave translate 45 rotate 0 0 S12 stroke grestore} bind def
/D13 {gsave translate 45 rotate 0 0 S13 stroke grestore} bind def
/D14 {gsave translate 45 rotate 0 0 S14 stroke grestore} bind def
/D15 {gsave translate 45 rotate 0 0 S15 stroke grestore} bind def
/DiaE {stroke [] 0 setdash vpt add M
  hpt neg vpt neg V hpt vpt neg V
  hpt vpt V hpt neg vpt V closepath stroke} def
/BoxE {stroke [] 0 setdash exch hpt sub exch vpt add M
  0 vpt2 neg V hpt2 0 V 0 vpt2 V
  hpt2 neg 0 V closepath stroke} def
/TriUE {stroke [] 0 setdash vpt 1.12 mul add M
  hpt neg vpt -1.62 mul V
  hpt 2 mul 0 V
  hpt neg vpt 1.62 mul V closepath stroke} def
/TriDE {stroke [] 0 setdash vpt 1.12 mul sub M
  hpt neg vpt 1.62 mul V
  hpt 2 mul 0 V
  hpt neg vpt -1.62 mul V closepath stroke} def
/PentE {stroke [] 0 setdash gsave
  translate 0 hpt M 4 {72 rotate 0 hpt L} repeat
  closepath stroke grestore} def
/CircE {stroke [] 0 setdash 
  hpt 0 360 arc stroke} def
/Opaque {gsave closepath 1 setgray fill grestore 0 setgray closepath} def
/DiaW {stroke [] 0 setdash vpt add M
  hpt neg vpt neg V hpt vpt neg V
  hpt vpt V hpt neg vpt V Opaque stroke} def
/BoxW {stroke [] 0 setdash exch hpt sub exch vpt add M
  0 vpt2 neg V hpt2 0 V 0 vpt2 V
  hpt2 neg 0 V Opaque stroke} def
/TriUW {stroke [] 0 setdash vpt 1.12 mul add M
  hpt neg vpt -1.62 mul V
  hpt 2 mul 0 V
  hpt neg vpt 1.62 mul V Opaque stroke} def
/TriDW {stroke [] 0 setdash vpt 1.12 mul sub M
  hpt neg vpt 1.62 mul V
  hpt 2 mul 0 V
  hpt neg vpt -1.62 mul V Opaque stroke} def
/PentW {stroke [] 0 setdash gsave
  translate 0 hpt M 4 {72 rotate 0 hpt L} repeat
  Opaque stroke grestore} def
/CircW {stroke [] 0 setdash 
  hpt 0 360 arc Opaque stroke} def
/BoxFill {gsave Rec 1 setgray fill grestore} def
/Density {
  /Fillden exch def
  currentrgbcolor
  /ColB exch def /ColG exch def /ColR exch def
  /ColR ColR Fillden mul Fillden sub 1 add def
  /ColG ColG Fillden mul Fillden sub 1 add def
  /ColB ColB Fillden mul Fillden sub 1 add def
  ColR ColG ColB setrgbcolor} def
/BoxColFill {gsave Rec PolyFill} def
/PolyFill {gsave Density fill grestore grestore} def
/h {rlineto rlineto rlineto gsave closepath fill grestore} bind def
%
% PostScript Level 1 Pattern Fill routine for rectangles
% Usage: x y w h s a XX PatternFill
%	x,y = lower left corner of box to be filled
%	w,h = width and height of box
%	  a = angle in degrees between lines and x-axis
%	 XX = 0/1 for no/yes cross-hatch
%
/PatternFill {gsave /PFa [ 9 2 roll ] def
  PFa 0 get PFa 2 get 2 div add PFa 1 get PFa 3 get 2 div add translate
  PFa 2 get -2 div PFa 3 get -2 div PFa 2 get PFa 3 get Rec
  TransparentPatterns {} {gsave 1 setgray fill grestore} ifelse
  clip
  currentlinewidth 0.5 mul setlinewidth
  /PFs PFa 2 get dup mul PFa 3 get dup mul add sqrt def
  0 0 M PFa 5 get rotate PFs -2 div dup translate
  0 1 PFs PFa 4 get div 1 add floor cvi
	{PFa 4 get mul 0 M 0 PFs V} for
  0 PFa 6 get ne {
	0 1 PFs PFa 4 get div 1 add floor cvi
	{PFa 4 get mul 0 2 1 roll M PFs 0 V} for
 } if
  stroke grestore} def
%
/languagelevel where
 {pop languagelevel} {1} ifelse
dup 2 lt
	{/InterpretLevel1 true def
	 /InterpretLevel3 false def}
	{/InterpretLevel1 Level1 def
	 2 gt
	    {/InterpretLevel3 Level3 def}
	    {/InterpretLevel3 false def}
	 ifelse }
 ifelse
%
% PostScript level 2 pattern fill definitions
%
/Level2PatternFill {
/Tile8x8 {/PaintType 2 /PatternType 1 /TilingType 1 /BBox [0 0 8 8] /XStep 8 /YStep 8}
	bind def
/KeepColor {currentrgbcolor [/Pattern /DeviceRGB] setcolorspace} bind def
<< Tile8x8
 /PaintProc {0.5 setlinewidth pop 0 0 M 8 8 L 0 8 M 8 0 L stroke} 
>> matrix makepattern
/Pat1 exch def
<< Tile8x8
 /PaintProc {0.5 setlinewidth pop 0 0 M 8 8 L 0 8 M 8 0 L stroke
	0 4 M 4 8 L 8 4 L 4 0 L 0 4 L stroke}
>> matrix makepattern
/Pat2 exch def
<< Tile8x8
 /PaintProc {0.5 setlinewidth pop 0 0 M 0 8 L
	8 8 L 8 0 L 0 0 L fill}
>> matrix makepattern
/Pat3 exch def
<< Tile8x8
 /PaintProc {0.5 setlinewidth pop -4 8 M 8 -4 L
	0 12 M 12 0 L stroke}
>> matrix makepattern
/Pat4 exch def
<< Tile8x8
 /PaintProc {0.5 setlinewidth pop -4 0 M 8 12 L
	0 -4 M 12 8 L stroke}
>> matrix makepattern
/Pat5 exch def
<< Tile8x8
 /PaintProc {0.5 setlinewidth pop -2 8 M 4 -4 L
	0 12 M 8 -4 L 4 12 M 10 0 L stroke}
>> matrix makepattern
/Pat6 exch def
<< Tile8x8
 /PaintProc {0.5 setlinewidth pop -2 0 M 4 12 L
	0 -4 M 8 12 L 4 -4 M 10 8 L stroke}
>> matrix makepattern
/Pat7 exch def
<< Tile8x8
 /PaintProc {0.5 setlinewidth pop 8 -2 M -4 4 L
	12 0 M -4 8 L 12 4 M 0 10 L stroke}
>> matrix makepattern
/Pat8 exch def
<< Tile8x8
 /PaintProc {0.5 setlinewidth pop 0 -2 M 12 4 L
	-4 0 M 12 8 L -4 4 M 8 10 L stroke}
>> matrix makepattern
/Pat9 exch def
/Pattern1 {PatternBgnd KeepColor Pat1 setpattern} bind def
/Pattern2 {PatternBgnd KeepColor Pat2 setpattern} bind def
/Pattern3 {PatternBgnd KeepColor Pat3 setpattern} bind def
/Pattern4 {PatternBgnd KeepColor Landscape {Pat5} {Pat4} ifelse setpattern} bind def
/Pattern5 {PatternBgnd KeepColor Landscape {Pat4} {Pat5} ifelse setpattern} bind def
/Pattern6 {PatternBgnd KeepColor Landscape {Pat9} {Pat6} ifelse setpattern} bind def
/Pattern7 {PatternBgnd KeepColor Landscape {Pat8} {Pat7} ifelse setpattern} bind def
} def
%
%
%End of PostScript Level 2 code
%
/PatternBgnd {
  TransparentPatterns {} {gsave 1 setgray fill grestore} ifelse
} def
%
% Substitute for Level 2 pattern fill codes with
% grayscale if Level 2 support is not selected.
%
/Level1PatternFill {
/Pattern1 {0.250 Density} bind def
/Pattern2 {0.500 Density} bind def
/Pattern3 {0.750 Density} bind def
/Pattern4 {0.125 Density} bind def
/Pattern5 {0.375 Density} bind def
/Pattern6 {0.625 Density} bind def
/Pattern7 {0.875 Density} bind def
} def
%
% Now test for support of Level 2 code
%
Level1 {Level1PatternFill} {Level2PatternFill} ifelse
%
/Symbol-Oblique /Symbol findfont [1 0 .167 1 0 0] makefont
dup length dict begin {1 index /FID eq {pop pop} {def} ifelse} forall
currentdict end definefont pop
%
/Metrics {ExtendTextBox Gswidth} def
/Lwidth {currentpoint stroke M 0 vshift R Metrics} def
/Rwidth {currentpoint stroke M dup stringwidth pop neg vshift R Metrics} def
/Cwidth {currentpoint stroke M dup stringwidth pop -2 div vshift R Metrics} def
/GLwidth {currentpoint stroke M 0 vshift R {ExtendTextBox} forall} def
/GRwidth {currentpoint stroke M dup Gwidth vshift R {ExtendTextBox} forall} def
/GCwidth {currentpoint stroke M dup Gwidth 2 div vshift R {ExtendTextBox} forall} def
/GLwidth2 {0 Gwidth AddGlyphWidth} def
/GRwidth2 {Gwidth -1 mul 0 AddGlyphWidth} def
/GCwidth2 {Gwidth 2 div dup -1 mul AddGlyphWidth} def
/AddGlyphWidth { dup TBx2 gt {userdict /TBx2 3 -1 roll put} {pop} ifelse
                 dup TBx1 lt {userdict /TBx1 3 -1 roll put} {pop} ifelse } def
/MFshow {
   { dup 5 get 3 ge
     { 5 get 3 eq {gsave} {grestore} ifelse }
     {dup dup 0 get findfont exch 1 get scalefont setfont
     [ currentpoint ] exch dup 2 get 0 exch R dup 5 get 2 ne {dup dup 6
     get exch 4 get {textshow} {Metrics pop 0 R} ifelse }if dup 5 get 0 eq
     {dup 3 get {2 get neg 0 exch R pop} {pop aload pop M} ifelse} {dup 5
     get 1 eq {dup 2 get exch dup 3 get exch 6 get Gswidth pop -2 div
     dup 0 R} {dup 6 get Gswidth pop -2 div 0 R 6 get
     textshow 2 index {aload pop M neg 3 -1 roll neg R pop pop} {pop pop pop
     pop aload pop M} ifelse }ifelse }ifelse }
     ifelse }
   forall} def
/Gswidth {dup type /stringtype eq {stringwidth} {pop (n) stringwidth} ifelse} def
/MFwidth {0 exch { dup 5 get 3 ge { 5 get 3 eq { 0 } { pop } ifelse }
 {dup 3 get{dup dup 0 get findfont exch 1 get scalefont setfont
     6 get Gswidth pop add} {pop} ifelse} ifelse} forall} def
/MLshow { currentpoint stroke M
  0 exch R
  Blacktext {gsave 0 setgray MFshow grestore} {MFshow} ifelse } bind def
/MRshow { currentpoint stroke M
  exch dup MFwidth neg 3 -1 roll R
  Blacktext {gsave 0 setgray MFshow grestore} {MFshow} ifelse } bind def
/MCshow { currentpoint stroke M
  exch dup MFwidth -2 div 3 -1 roll R
  Blacktext {gsave 0 setgray MFshow grestore} {MFshow} ifelse } bind def
/XYsave    { [( ) 1 2 true false 3 ()] } bind def
/XYrestore { [( ) 1 2 true false 4 ()] } bind def
Level1 SuppressPDFMark or 
{} {
/SDict 10 dict def
systemdict /pdfmark known not {
  userdict /pdfmark systemdict /cleartomark get put
} if
SDict begin [
  /Title (gnuplot_avrgFromFai_awk_SZ.eps)
  /Subject (gnuplot plot)
  /Creator (gnuplot 5.2 patchlevel 2)
%  /Producer (gnuplot)
%  /Keywords ()
  /CreationDate (Wed Aug 25 08:34:39 2021)
  /DOCINFO pdfmark
end
} ifelse
%
% Support for boxed text - Ethan A Merritt Sep 2016
%
/InitTextBox { userdict /TBy2 3 -1 roll put userdict /TBx2 3 -1 roll put
           userdict /TBy1 3 -1 roll put userdict /TBx1 3 -1 roll put
	   /Boxing true def } def
/ExtendTextBox { dup type /stringtype eq
    { Boxing { gsave dup false charpath pathbbox
      dup TBy2 gt {userdict /TBy2 3 -1 roll put} {pop} ifelse
      dup TBx2 gt {userdict /TBx2 3 -1 roll put} {pop} ifelse
      dup TBy1 lt {userdict /TBy1 3 -1 roll put} {pop} ifelse
      dup TBx1 lt {userdict /TBx1 3 -1 roll put} {pop} ifelse
      grestore } if }
    {} ifelse} def
/PopTextBox { newpath TBx1 TBxmargin sub TBy1 TBymargin sub M
               TBx1 TBxmargin sub TBy2 TBymargin add L
	       TBx2 TBxmargin add TBy2 TBymargin add L
	       TBx2 TBxmargin add TBy1 TBymargin sub L closepath } def
/DrawTextBox { PopTextBox stroke /Boxing false def} def
/FillTextBox { gsave PopTextBox fill grestore /Boxing false def} def
0 0 0 0 InitTextBox
/TBxmargin 20 def
/TBymargin 20 def
/Boxing false def
/textshow { ExtendTextBox Gshow } def
%
end
%%EndProlog
%%Page: 1 1
gnudict begin
gsave
doclip
50 50 translate
0.050 0.050 scale
0 setgray
newpath
(Helvetica) findfont 140 scalefont setfont
BackgroundColor 0 lt 3 1 roll 0 lt exch 0 lt or or not {BackgroundColor C 1.000 0 0 7200.00 5040.00 BoxColFill} if
1.000 UL
LTb
LCb setrgbcolor
770 470 M
63 0 V
6114 0 R
-63 0 V
stroke
686 470 M
[ [(Helvetica) 140.0 0.0 true true 0 (-1.00)]
] -46.7 MRshow
1.000 UL
LTb
LCb setrgbcolor
770 1572 M
63 0 V
6114 0 R
-63 0 V
stroke
686 1572 M
[ [(Helvetica) 140.0 0.0 true true 0 (-0.50)]
] -46.7 MRshow
1.000 UL
LTb
LCb setrgbcolor
770 2674 M
63 0 V
6114 0 R
-63 0 V
stroke
686 2674 M
[ [(Helvetica) 140.0 0.0 true true 0 (0.00)]
] -46.7 MRshow
1.000 UL
LTb
LCb setrgbcolor
770 3775 M
63 0 V
6114 0 R
-63 0 V
stroke
686 3775 M
[ [(Helvetica) 140.0 0.0 true true 0 (0.50)]
] -46.7 MRshow
1.000 UL
LTb
LCb setrgbcolor
770 4877 M
63 0 V
6114 0 R
-63 0 V
stroke
686 4877 M
[ [(Helvetica) 140.0 0.0 true true 0 (1.00)]
] -46.7 MRshow
1.000 UL
LTb
LCb setrgbcolor
770 448 M
0 63 V
0 4388 R
0 -63 V
stroke
770 308 M
[ [(Helvetica) 140.0 0.0 true true 0 ( 0)]
] -46.7 MCshow
1.000 UL
LTb
LCb setrgbcolor
1456 448 M
0 63 V
0 4388 R
0 -63 V
stroke
1456 308 M
[ [(Helvetica) 140.0 0.0 true true 0 ( 200)]
] -46.7 MCshow
1.000 UL
LTb
LCb setrgbcolor
2143 448 M
0 63 V
0 4388 R
0 -63 V
stroke
2143 308 M
[ [(Helvetica) 140.0 0.0 true true 0 ( 400)]
] -46.7 MCshow
1.000 UL
LTb
LCb setrgbcolor
2829 448 M
0 63 V
0 4388 R
0 -63 V
stroke
2829 308 M
[ [(Helvetica) 140.0 0.0 true true 0 ( 600)]
] -46.7 MCshow
1.000 UL
LTb
LCb setrgbcolor
3515 448 M
0 63 V
0 4388 R
0 -63 V
stroke
3515 308 M
[ [(Helvetica) 140.0 0.0 true true 0 ( 800)]
] -46.7 MCshow
1.000 UL
LTb
LCb setrgbcolor
4202 448 M
0 63 V
0 4388 R
0 -63 V
stroke
4202 308 M
[ [(Helvetica) 140.0 0.0 true true 0 ( 1000)]
] -46.7 MCshow
1.000 UL
LTb
LCb setrgbcolor
4888 448 M
0 63 V
0 4388 R
0 -63 V
stroke
4888 308 M
[ [(Helvetica) 140.0 0.0 true true 0 ( 1200)]
] -46.7 MCshow
1.000 UL
LTb
LCb setrgbcolor
5574 448 M
0 63 V
0 4388 R
0 -63 V
stroke
5574 308 M
[ [(Helvetica) 140.0 0.0 true true 0 ( 1400)]
] -46.7 MCshow
1.000 UL
LTb
LCb setrgbcolor
6261 448 M
0 63 V
0 4388 R
0 -63 V
stroke
6261 308 M
[ [(Helvetica) 140.0 0.0 true true 0 ( 1600)]
] -46.7 MCshow
1.000 UL
LTb
LCb setrgbcolor
6947 448 M
0 63 V
0 4388 R
0 -63 V
stroke
6947 308 M
[ [(Helvetica) 140.0 0.0 true true 0 ( 1800)]
] -46.7 MCshow
1.000 UL
LTb
LCb setrgbcolor
1.000 UL
LTB
LCb setrgbcolor
770 4899 N
770 448 L
6177 0 V
0 4451 V
-6177 0 V
Z stroke
1.000 UP
1.000 UL
LTb
LCb setrgbcolor
LCb setrgbcolor
126 2673 M
currentpoint gsave translate -270 rotate 0 0 moveto
[ [(Helvetica) 140.0 0.0 true true 0 (Average S)]
[(Helvetica) 112.0 -42.0 true true 0 (y)]
[(Helvetica) 140.0 0.0 true true 0 ( over particles)]
] -32.7 MCshow
grestore
LTb
LCb setrgbcolor
3858 98 M
[ [(Helvetica) 140.0 0.0 true true 0 (turns)]
] -46.7 MCshow
LTb
% Begin plot #1
0.100 UP
1.000 UL
LTb
0.93 0.51 0.93 C 773 4877 CircleF
777 4875 CircleF
780 4876 CircleF
784 4876 CircleF
787 4875 CircleF
791 4877 CircleF
794 4876 CircleF
797 4875 CircleF
801 4877 CircleF
804 4874 CircleF
808 4877 CircleF
811 4877 CircleF
815 4875 CircleF
818 4877 CircleF
821 4875 CircleF
825 4876 CircleF
828 4877 CircleF
832 4876 CircleF
835 4876 CircleF
839 4876 CircleF
842 4875 CircleF
845 4877 CircleF
849 4876 CircleF
852 4876 CircleF
856 4876 CircleF
859 4875 CircleF
863 4877 CircleF
866 4876 CircleF
870 4876 CircleF
873 4877 CircleF
876 4875 CircleF
880 4877 CircleF
883 4875 CircleF
887 4876 CircleF
890 4877 CircleF
894 4875 CircleF
897 4877 CircleF
900 4875 CircleF
904 4876 CircleF
907 4877 CircleF
911 4875 CircleF
914 4877 CircleF
918 4875 CircleF
921 4877 CircleF
924 4877 CircleF
928 4875 CircleF
931 4877 CircleF
935 4875 CircleF
938 4877 CircleF
942 4877 CircleF
945 4875 CircleF
948 4877 CircleF
952 4875 CircleF
955 4877 CircleF
959 4876 CircleF
962 4876 CircleF
966 4877 CircleF
969 4875 CircleF
972 4877 CircleF
976 4876 CircleF
979 4876 CircleF
983 4877 CircleF
986 4875 CircleF
990 4877 CircleF
993 4875 CircleF
996 4876 CircleF
1000 4877 CircleF
1003 4875 CircleF
1007 4877 CircleF
1010 4875 CircleF
1014 4877 CircleF
1017 4876 CircleF
1021 4876 CircleF
1024 4877 CircleF
1027 4875 CircleF
1031 4877 CircleF
1034 4876 CircleF
1038 4876 CircleF
1041 4877 CircleF
1045 4875 CircleF
1048 4877 CircleF
1051 4875 CircleF
1055 4877 CircleF
1058 4877 CircleF
1062 4875 CircleF
1065 4877 CircleF
1069 4875 CircleF
1072 4877 CircleF
1075 4876 CircleF
1079 4876 CircleF
1082 4877 CircleF
1086 4875 CircleF
1089 4877 CircleF
1093 4875 CircleF
1096 4877 CircleF
1099 4876 CircleF
1103 4875 CircleF
1106 4876 CircleF
1110 4875 CircleF
1113 4877 CircleF
1117 4876 CircleF
1120 4876 CircleF
1123 4876 CircleF
1127 4876 CircleF
1130 4876 CircleF
1134 4876 CircleF
1137 4877 CircleF
1141 4875 CircleF
1144 4877 CircleF
1147 4875 CircleF
1151 4877 CircleF
1154 4876 CircleF
1158 4875 CircleF
1161 4877 CircleF
1165 4875 CircleF
1168 4877 CircleF
1172 4876 CircleF
1175 4877 CircleF
1178 4875 CircleF
1182 4877 CircleF
1185 4875 CircleF
1189 4876 CircleF
1192 4877 CircleF
1196 4875 CircleF
1199 4877 CircleF
1202 4875 CircleF
1206 4877 CircleF
1209 4876 CircleF
1213 4876 CircleF
1216 4875 CircleF
1220 4876 CircleF
1223 4876 CircleF
1226 4876 CircleF
1230 4877 CircleF
1233 4875 CircleF
1237 4877 CircleF
1240 4875 CircleF
1244 4877 CircleF
1247 4876 CircleF
1250 4876 CircleF
1254 4875 CircleF
1257 4876 CircleF
1261 4875 CircleF
1264 4876 CircleF
1268 4877 CircleF
1271 4875 CircleF
1274 4877 CircleF
1278 4875 CircleF
1281 4877 CircleF
1285 4876 CircleF
1288 4877 CircleF
1292 4875 CircleF
1295 4877 CircleF
1298 4875 CircleF
1302 4877 CircleF
1305 4876 CircleF
1309 4875 CircleF
1312 4877 CircleF
1316 4875 CircleF
1319 4876 CircleF
1322 4876 CircleF
1326 4877 CircleF
1329 4875 CircleF
1333 4877 CircleF
1336 4875 CircleF
1340 4877 CircleF
1343 4876 CircleF
1347 4876 CircleF
1350 4876 CircleF
1353 4876 CircleF
1357 4875 CircleF
1360 4877 CircleF
1364 4876 CircleF
1367 4876 CircleF
1371 4877 CircleF
1374 4875 CircleF
1377 4876 CircleF
1381 4876 CircleF
1384 4877 CircleF
1388 4875 CircleF
1391 4877 CircleF
1395 4875 CircleF
1398 4877 CircleF
1401 4876 CircleF
1405 4877 CircleF
1408 4875 CircleF
1412 4877 CircleF
1415 4875 CircleF
1419 4877 CircleF
1422 4876 CircleF
1425 4876 CircleF
1429 4875 CircleF
1432 4877 CircleF
1436 4875 CircleF
1439 4877 CircleF
1443 4876 CircleF
1446 4876 CircleF
1449 4875 CircleF
1453 4877 CircleF
1456 4876 CircleF
1460 4876 CircleF
1463 4876 CircleF
1467 4877 CircleF
1470 4875 CircleF
1473 4877 CircleF
1477 4876 CircleF
1480 4876 CircleF
1484 4875 CircleF
1487 4877 CircleF
1491 4875 CircleF
1494 4877 CircleF
1498 4876 CircleF
1501 4876 CircleF
1504 4875 CircleF
1508 4877 CircleF
1511 4876 CircleF
1515 4876 CircleF
1518 4876 CircleF
1522 4876 CircleF
1525 4875 CircleF
1528 4877 CircleF
1532 4876 CircleF
1535 4876 CircleF
1539 4875 CircleF
1542 4877 CircleF
1546 4875 CircleF
1549 4877 CircleF
1552 4876 CircleF
1556 4876 CircleF
1559 4875 CircleF
1563 4877 CircleF
1566 4875 CircleF
1570 4877 CircleF
1573 4876 CircleF
1576 4877 CircleF
1580 4875 CircleF
1583 4877 CircleF
1587 4875 CircleF
1590 4877 CircleF
1594 4875 CircleF
1597 4877 CircleF
1600 4875 CircleF
1604 4877 CircleF
1607 4876 CircleF
1611 4877 CircleF
1614 4875 CircleF
1618 4877 CircleF
1621 4875 CircleF
1624 4876 CircleF
1628 4876 CircleF
1631 4877 CircleF
1635 4875 CircleF
1638 4876 CircleF
1642 4876 CircleF
1645 4875 CircleF
1649 4877 CircleF
1652 4876 CircleF
1655 4876 CircleF
1659 4875 CircleF
1662 4877 CircleF
1666 4875 CircleF
1669 4877 CircleF
1673 4875 CircleF
1676 4877 CircleF
1679 4875 CircleF
1683 4876 CircleF
1686 4876 CircleF
1690 4877 CircleF
1693 4875 CircleF
1697 4876 CircleF
1700 4877 CircleF
1703 4876 CircleF
1707 4877 CircleF
1710 4875 CircleF
1714 4877 CircleF
1717 4875 CircleF
1721 4877 CircleF
1724 4876 CircleF
1727 4877 CircleF
1731 4875 CircleF
1734 4876 CircleF
1738 4877 CircleF
1741 4876 CircleF
1745 4877 CircleF
1748 4875 CircleF
1751 4877 CircleF
1755 4875 CircleF
1758 4877 CircleF
1762 4876 CircleF
1765 4877 CircleF
1769 4875 CircleF
1772 4876 CircleF
1775 4877 CircleF
1779 4876 CircleF
1782 4877 CircleF
1786 4875 CircleF
1789 4877 CircleF
1793 4875 CircleF
1796 4877 CircleF
1800 4876 CircleF
1803 4877 CircleF
1806 4876 CircleF
1810 4875 CircleF
1813 4877 CircleF
1817 4876 CircleF
1820 4877 CircleF
1824 4875 CircleF
1827 4877 CircleF
1830 4876 CircleF
1834 4876 CircleF
1837 4876 CircleF
1841 4876 CircleF
1844 4876 CircleF
1848 4875 CircleF
1851 4877 CircleF
1854 4876 CircleF
1858 4877 CircleF
1861 4875 CircleF
1865 4876 CircleF
1868 4876 CircleF
1872 4875 CircleF
1875 4877 CircleF
1878 4876 CircleF
1882 4877 CircleF
1885 4875 CircleF
1889 4876 CircleF
1892 4876 CircleF
1896 4876 CircleF
1899 4876 CircleF
1902 4875 CircleF
1906 4877 CircleF
1909 4875 CircleF
1913 4876 CircleF
1916 4876 CircleF
1920 4876 CircleF
1923 4876 CircleF
1926 4875 CircleF
1930 4877 CircleF
1933 4876 CircleF
1937 4877 CircleF
1940 4875 CircleF
1944 4876 CircleF
1947 4877 CircleF
1950 4875 CircleF
1954 4877 CircleF
1957 4875 CircleF
1961 4877 CircleF
1964 4876 CircleF
1968 4875 CircleF
1971 4877 CircleF
1975 4876 CircleF
1978 4877 CircleF
1981 4875 CircleF
1985 4876 CircleF
1988 4877 CircleF
1992 4876 CircleF
1995 4877 CircleF
1999 4875 CircleF
2002 4876 CircleF
2005 4877 CircleF
2009 4876 CircleF
2012 4877 CircleF
2016 4875 CircleF
2019 4876 CircleF
2023 4876 CircleF
2026 4876 CircleF
2029 4877 CircleF
2033 4875 CircleF
2036 4877 CircleF
2040 4876 CircleF
2043 4875 CircleF
2047 4877 CircleF
2050 4875 CircleF
2053 4877 CircleF
2057 4876 CircleF
2060 4875 CircleF
2064 4877 CircleF
2067 4875 CircleF
2071 4877 CircleF
2074 4876 CircleF
2077 4875 CircleF
2081 4877 CircleF
2084 4876 CircleF
2088 4877 CircleF
2091 4875 CircleF
2095 4875 CircleF
2098 4877 CircleF
2101 4876 CircleF
2105 4877 CircleF
2108 4876 CircleF
2112 4875 CircleF
2115 4877 CircleF
2119 4876 CircleF
2122 4876 CircleF
2126 4876 CircleF
2129 4875 CircleF
2132 4877 CircleF
2136 4876 CircleF
2139 4876 CircleF
2143 4877 CircleF
2146 4875 CircleF
2150 4877 CircleF
2153 4875 CircleF
2156 4876 CircleF
2160 4877 CircleF
2163 4876 CircleF
2167 4877 CircleF
2170 4875 CircleF
2174 4875 CircleF
2177 4877 CircleF
2180 4876 CircleF
2184 4877 CircleF
2187 4876 CircleF
2191 4875 CircleF
2194 4877 CircleF
2198 4876 CircleF
2201 4876 CircleF
2204 4877 CircleF
2208 4875 CircleF
2211 4877 CircleF
2215 4876 CircleF
2218 4876 CircleF
2222 4877 CircleF
2225 4875 CircleF
2228 4876 CircleF
2232 4877 CircleF
2235 4875 CircleF
2239 4876 CircleF
2242 4876 CircleF
2246 4875 CircleF
2249 4877 CircleF
2252 4876 CircleF
2256 4876 CircleF
2259 4877 CircleF
2263 4875 CircleF
2266 4876 CircleF
2270 4876 CircleF
2273 4875 CircleF
2277 4877 CircleF
2280 4876 CircleF
2283 4875 CircleF
2287 4877 CircleF
2290 4876 CircleF
2294 4876 CircleF
2297 4877 CircleF
2301 4875 CircleF
2304 4876 CircleF
2307 4877 CircleF
2311 4875 CircleF
2314 4877 CircleF
2318 4876 CircleF
2321 4875 CircleF
2325 4877 CircleF
2328 4876 CircleF
2331 4876 CircleF
2335 4877 CircleF
2338 4875 CircleF
2342 4875 CircleF
2345 4877 CircleF
2349 4876 CircleF
2352 4876 CircleF
2355 4877 CircleF
2359 4874 CircleF
2362 4876 CircleF
2366 4877 CircleF
2369 4876 CircleF
2373 4876 CircleF
2376 4876 CircleF
2379 4875 CircleF
2383 4876 CircleF
2386 4877 CircleF
2390 4876 CircleF
2393 4877 CircleF
2397 4876 CircleF
2400 4875 CircleF
2403 4877 CircleF
2407 4877 CircleF
2410 4875 CircleF
2414 4877 CircleF
2417 4875 CircleF
2421 4875 CircleF
2424 4877 CircleF
2427 4876 CircleF
2431 4876 CircleF
2434 4877 CircleF
2438 4875 CircleF
2441 4875 CircleF
2445 4877 CircleF
2448 4876 CircleF
2452 4876 CircleF
2455 4877 CircleF
2458 4875 CircleF
2462 4875 CircleF
2465 4877 CircleF
2469 4876 CircleF
2472 4876 CircleF
2476 4877 CircleF
2479 4875 CircleF
2482 4876 CircleF
2486 4877 CircleF
2489 4875 CircleF
2493 4875 CircleF
2496 4877 CircleF
2500 4875 CircleF
2503 4876 CircleF
2506 4877 CircleF
2510 4875 CircleF
2513 4875 CircleF
2517 4877 CircleF
2520 4876 CircleF
2524 4876 CircleF
2527 4877 CircleF
2530 4875 CircleF
2534 4875 CircleF
2537 4877 CircleF
2541 4876 CircleF
2544 4876 CircleF
2548 4877 CircleF
2551 4876 CircleF
2554 4874 CircleF
2558 4876 CircleF
2561 4877 CircleF
2565 4876 CircleF
2568 4876 CircleF
2572 4876 CircleF
2575 4875 CircleF
2578 4876 CircleF
2582 4877 CircleF
2585 4876 CircleF
2589 4875 CircleF
2592 4877 CircleF
2596 4876 CircleF
2599 4875 CircleF
2603 4877 CircleF
2606 4876 CircleF
2609 4874 CircleF
2613 4876 CircleF
2616 4877 CircleF
2620 4876 CircleF
2623 4876 CircleF
2627 4877 CircleF
2630 4875 CircleF
2633 4875 CircleF
2637 4877 CircleF
2640 4876 CircleF
2644 4874 CircleF
2647 4876 CircleF
2651 4877 CircleF
2654 4876 CircleF
2657 4876 CircleF
2661 4877 CircleF
2664 4875 CircleF
2668 4874 CircleF
2671 4876 CircleF
2675 4877 CircleF
2678 4875 CircleF
2681 4875 CircleF
2685 4877 CircleF
2688 4876 CircleF
2692 4875 CircleF
2695 4877 CircleF
2699 4876 CircleF
2702 4874 CircleF
2705 4876 CircleF
2709 4877 CircleF
2712 4876 CircleF
2716 4875 CircleF
2719 4877 CircleF
2723 4876 CircleF
2726 4875 CircleF
2729 4876 CircleF
2733 4877 CircleF
2736 4875 CircleF
2740 4875 CircleF
2743 4877 CircleF
2747 4876 CircleF
2750 4876 CircleF
2754 4876 CircleF
2757 4876 CircleF
2760 4874 CircleF
2764 4875 CircleF
2767 4877 CircleF
2771 4877 CircleF
2774 4875 CircleF
2778 4876 CircleF
2781 4876 CircleF
2784 4875 CircleF
2788 4875 CircleF
2791 4877 CircleF
2795 4876 CircleF
2798 4874 CircleF
2802 4875 CircleF
2805 4877 CircleF
2808 4876 CircleF
2812 4875 CircleF
2815 4876 CircleF
2819 4876 CircleF
2822 4874 CircleF
2826 4875 CircleF
2829 4877 CircleF
2832 4876 CircleF
2836 4874 CircleF
2839 4875 CircleF
2843 4877 CircleF
2846 4876 CircleF
2850 4875 CircleF
2853 4876 CircleF
2856 4876 CircleF
2860 4874 CircleF
2863 4875 CircleF
2867 4876 CircleF
2870 4877 CircleF
2874 4874 CircleF
2877 4874 CircleF
2880 4877 CircleF
2884 4877 CircleF
2887 4875 CircleF
2891 4875 CircleF
2894 4877 CircleF
2898 4876 CircleF
2901 4875 CircleF
2904 4875 CircleF
2908 4877 CircleF
2911 4875 CircleF
2915 4873 CircleF
2918 4875 CircleF
2922 4877 CircleF
2925 4876 CircleF
2929 4874 CircleF
2932 4875 CircleF
2935 4877 CircleF
2939 4876 CircleF
2942 4875 CircleF
2946 4875 CircleF
2949 4877 CircleF
2953 4876 CircleF
2956 4874 CircleF
2959 4875 CircleF
2963 4877 CircleF
2966 4876 CircleF
2970 4873 CircleF
2973 4874 CircleF
2977 4876 CircleF
2980 4877 CircleF
2983 4875 CircleF
2987 4874 CircleF
2990 4876 CircleF
2994 4877 CircleF
2997 4876 CircleF
3001 4875 CircleF
3004 4876 CircleF
3007 4877 CircleF
3011 4875 CircleF
3014 4875 CircleF
3018 4876 CircleF
3021 4877 CircleF
3025 4875 CircleF
3028 4873 CircleF
3031 4875 CircleF
3035 4877 CircleF
3038 4877 CircleF
3042 4874 CircleF
3045 4873 CircleF
3049 4876 CircleF
3052 4877 CircleF
3055 4876 CircleF
3059 4874 CircleF
3062 4875 CircleF
3066 4877 CircleF
3069 4876 CircleF
3073 4875 CircleF
3076 4875 CircleF
3080 4877 CircleF
3083 4876 CircleF
3086 4874 CircleF
3090 4874 CircleF
3093 4876 CircleF
3097 4877 CircleF
3100 4875 CircleF
3104 4873 CircleF
3107 4875 CircleF
3110 4877 CircleF
3114 4877 CircleF
3117 4875 CircleF
3121 4874 CircleF
3124 4876 CircleF
3128 4877 CircleF
3131 4876 CircleF
3134 4875 CircleF
3138 4875 CircleF
3141 4877 CircleF
3145 4876 CircleF
3148 4874 CircleF
3152 4875 CircleF
3155 4876 CircleF
3158 4877 CircleF
3162 4875 CircleF
3165 4873 CircleF
3169 4874 CircleF
3172 4876 CircleF
3176 4877 CircleF
3179 4874 CircleF
3182 4873 CircleF
3186 4874 CircleF
3189 4876 CircleF
3193 4877 CircleF
3196 4875 CircleF
3200 4873 CircleF
3203 4874 CircleF
3206 4876 CircleF
3210 4877 CircleF
3213 4875 CircleF
3217 4873 CircleF
3220 4874 CircleF
3224 4876 CircleF
3227 4877 CircleF
3231 4875 CircleF
3234 4873 CircleF
3237 4874 CircleF
3241 4876 CircleF
3244 4877 CircleF
3248 4876 CircleF
3251 4874 CircleF
3255 4874 CircleF
3258 4876 CircleF
3261 4877 CircleF
3265 4876 CircleF
3268 4874 CircleF
3272 4873 CircleF
3275 4875 CircleF
3279 4877 CircleF
3282 4876 CircleF
3285 4875 CircleF
3289 4873 CircleF
3292 4874 CircleF
3296 4876 CircleF
3299 4877 CircleF
3303 4875 CircleF
3306 4874 CircleF
3309 4873 CircleF
3313 4875 CircleF
3316 4877 CircleF
3320 4876 CircleF
3323 4874 CircleF
3327 4873 CircleF
3330 4874 CircleF
3333 4876 CircleF
3337 4877 CircleF
3340 4875 CircleF
3344 4874 CircleF
3347 4873 CircleF
3351 4875 CircleF
3354 4877 CircleF
3357 4876 CircleF
3361 4875 CircleF
3364 4873 CircleF
3368 4874 CircleF
3371 4876 CircleF
3375 4877 CircleF
3378 4876 CircleF
3381 4874 CircleF
3385 4873 CircleF
3388 4874 CircleF
3392 4876 CircleF
3395 4876 CircleF
3399 4875 CircleF
3402 4873 CircleF
3406 4873 CircleF
3409 4875 CircleF
3412 4876 CircleF
3416 4876 CircleF
3419 4875 CircleF
3423 4873 CircleF
3426 4873 CircleF
3430 4875 CircleF
3433 4876 CircleF
3436 4876 CircleF
3440 4875 CircleF
3443 4873 CircleF
3447 4873 CircleF
3450 4875 CircleF
3454 4877 CircleF
3457 4876 CircleF
3460 4874 CircleF
3464 4872 CircleF
3467 4872 CircleF
3471 4875 CircleF
3474 4876 CircleF
3478 4876 CircleF
3481 4874 CircleF
3484 4872 CircleF
3488 4871 CircleF
3491 4874 CircleF
3495 4876 CircleF
3498 4877 CircleF
3502 4875 CircleF
3505 4872 CircleF
3508 4871 CircleF
3512 4873 CircleF
3515 4875 CircleF
3519 4877 CircleF
3522 4875 CircleF
3526 4873 CircleF
3529 4872 CircleF
3532 4873 CircleF
3536 4874 CircleF
3539 4875 CircleF
3543 4876 CircleF
3546 4875 CircleF
3550 4874 CircleF
3553 4873 CircleF
3557 4873 CircleF
3560 4873 CircleF
3563 4874 CircleF
3567 4876 CircleF
3570 4876 CircleF
3574 4875 CircleF
3577 4872 CircleF
3581 4870 CircleF
3584 4871 CircleF
3587 4874 CircleF
3591 4876 CircleF
3594 4876 CircleF
3598 4874 CircleF
3601 4871 CircleF
3605 4871 CircleF
3608 4873 CircleF
3611 4873 CircleF
3615 4874 CircleF
3618 4875 CircleF
3622 4875 CircleF
3625 4875 CircleF
3629 4873 CircleF
3632 4871 CircleF
3635 4870 CircleF
3639 4872 CircleF
3642 4875 CircleF
3646 4876 CircleF
3649 4876 CircleF
3653 4873 CircleF
3656 4870 CircleF
3659 4871 CircleF
3663 4872 CircleF
3666 4874 CircleF
3670 4874 CircleF
3673 4875 CircleF
3677 4875 CircleF
3680 4874 CircleF
3683 4873 CircleF
3687 4871 CircleF
3690 4870 CircleF
3694 4871 CircleF
3697 4874 CircleF
3701 4876 CircleF
3704 4876 CircleF
3708 4874 CircleF
3711 4871 CircleF
3714 4869 CircleF
3718 4870 CircleF
3721 4872 CircleF
3725 4874 CircleF
3728 4874 CircleF
3732 4875 CircleF
3735 4874 CircleF
3738 4874 CircleF
3742 4873 CircleF
3745 4871 CircleF
3749 4869 CircleF
3752 4870 CircleF
3756 4872 CircleF
3759 4875 CircleF
3762 4876 CircleF
3766 4875 CircleF
3769 4872 CircleF
3773 4869 CircleF
3776 4869 CircleF
3780 4871 CircleF
3783 4872 CircleF
3786 4873 CircleF
3790 4873 CircleF
3793 4874 CircleF
3797 4875 CircleF
3800 4874 CircleF
3804 4872 CircleF
3807 4869 CircleF
3810 4867 CircleF
3814 4868 CircleF
3817 4871 CircleF
3821 4873 CircleF
3824 4874 CircleF
3828 4874 CircleF
3831 4873 CircleF
3834 4872 CircleF
3838 4872 CircleF
3841 4870 CircleF
3845 4868 CircleF
3848 4866 CircleF
3852 4867 CircleF
3855 4870 CircleF
3859 4873 CircleF
3862 4874 CircleF
3865 4873 CircleF
3869 4872 CircleF
3872 4871 CircleF
3876 4871 CircleF
3879 4869 CircleF
3883 4866 CircleF
3886 4864 CircleF
3889 4865 CircleF
3893 4868 CircleF
3896 4871 CircleF
3900 4872 CircleF
3903 4872 CircleF
3907 4871 CircleF
3910 4872 CircleF
3913 4872 CircleF
3917 4870 CircleF
3920 4866 CircleF
3924 4862 CircleF
3927 4862 CircleF
3931 4865 CircleF
3934 4866 CircleF
3937 4866 CircleF
3941 4866 CircleF
3944 4868 CircleF
3948 4871 CircleF
3951 4872 CircleF
3955 4872 CircleF
3958 4869 CircleF
3961 4866 CircleF
3965 4865 CircleF
3968 4866 CircleF
3972 4864 CircleF
3975 4861 CircleF
3979 4859 CircleF
3982 4860 CircleF
3985 4864 CircleF
3989 4867 CircleF
3992 4867 CircleF
3996 4867 CircleF
3999 4867 CircleF
4003 4869 CircleF
4006 4871 CircleF
4009 4870 CircleF
4013 4866 CircleF
4016 4863 CircleF
4020 4861 CircleF
4023 4862 CircleF
4027 4862 CircleF
4030 4860 CircleF
4034 4857 CircleF
4037 4857 CircleF
4040 4860 CircleF
4044 4864 CircleF
4047 4866 CircleF
4051 4866 CircleF
4054 4865 CircleF
4058 4866 CircleF
4061 4868 CircleF
4064 4869 CircleF
4068 4867 CircleF
4071 4863 CircleF
4075 4859 CircleF
4078 4857 CircleF
4082 4858 CircleF
4085 4859 CircleF
4088 4857 CircleF
4092 4853 CircleF
4095 4852 CircleF
4099 4854 CircleF
4102 4858 CircleF
4106 4861 CircleF
4109 4861 CircleF
4112 4860 CircleF
4116 4860 CircleF
4119 4862 CircleF
4123 4864 CircleF
4126 4864 CircleF
4130 4861 CircleF
4133 4857 CircleF
4136 4854 CircleF
4140 4854 CircleF
4143 4854 CircleF
4147 4851 CircleF
4150 4846 CircleF
4154 4841 CircleF
4157 4839 CircleF
4160 4842 CircleF
4164 4843 CircleF
4167 4841 CircleF
4171 4836 CircleF
4174 4834 CircleF
4178 4836 CircleF
4181 4841 CircleF
4185 4842 CircleF
4188 4840 CircleF
4191 4836 CircleF
4195 4835 CircleF
4198 4838 CircleF
4202 4841 CircleF
4205 4839 CircleF
4209 4832 CircleF
4212 4827 CircleF
4215 4826 CircleF
4219 4828 CircleF
4222 4825 CircleF
4226 4817 CircleF
4229 4807 CircleF
4233 4802 CircleF
4236 4801 CircleF
4239 4798 CircleF
4243 4790 CircleF
4246 4776 CircleF
4250 4765 CircleF
4253 4761 CircleF
4257 4760 CircleF
4260 4752 CircleF
4263 4736 CircleF
4267 4720 CircleF
4270 4711 CircleF
4274 4709 CircleF
4277 4702 CircleF
4281 4685 CircleF
4284 4664 CircleF
4287 4649 CircleF
4291 4644 CircleF
4294 4637 CircleF
4298 4620 CircleF
4301 4594 CircleF
4305 4572 CircleF
4308 4560 CircleF
4311 4552 CircleF
4315 4535 CircleF
4318 4505 CircleF
4322 4474 CircleF
4325 4452 CircleF
4329 4440 CircleF
4332 4422 CircleF
4336 4390 CircleF
4339 4349 CircleF
4342 4315 CircleF
4346 4294 CircleF
4349 4273 CircleF
4353 4239 CircleF
4356 4192 CircleF
4360 4145 CircleF
4363 4109 CircleF
4366 4081 CircleF
4370 4046 CircleF
4373 3995 CircleF
4377 3935 CircleF
4380 3882 CircleF
4384 3842 CircleF
4387 3802 CircleF
4390 3749 CircleF
4394 3681 CircleF
4397 3612 CircleF
4401 3552 CircleF
4404 3501 CircleF
4408 3445 CircleF
4411 3373 CircleF
4414 3292 CircleF
4418 3214 CircleF
4421 3147 CircleF
4425 3081 CircleF
4428 3006 CircleF
4432 2920 CircleF
4435 2830 CircleF
4438 2745 CircleF
4442 2666 CircleF
4445 2585 CircleF
4449 2495 CircleF
4452 2401 CircleF
4456 2312 CircleF
4459 2228 CircleF
4462 2142 CircleF
4466 2050 CircleF
4469 1959 CircleF
4473 1877 CircleF
4476 1804 CircleF
4480 1732 CircleF
4483 1653 CircleF
4486 1573 CircleF
4490 1510 CircleF
4493 1468 CircleF
4497 1436 CircleF
4500 1398 CircleF
4504 1356 CircleF
4507 1327 CircleF
4511 1329 CircleF
4514 1353 CircleF
4517 1380 CircleF
4521 1400 CircleF
4524 1429 CircleF
4528 1481 CircleF
4531 1553 CircleF
4535 1628 CircleF
4538 1701 CircleF
4541 1780 CircleF
4545 1870 CircleF
4548 1958 CircleF
4552 2027 CircleF
4555 2084 CircleF
4559 2147 CircleF
4562 2215 CircleF
4565 2259 CircleF
4569 2261 CircleF
4572 2236 CircleF
4576 2211 CircleF
4579 2187 CircleF
4583 2140 CircleF
4586 2063 CircleF
4589 1976 CircleF
4593 1897 CircleF
4596 1817 CircleF
4600 1728 CircleF
4603 1652 CircleF
4607 1613 CircleF
4610 1603 CircleF
4613 1597 CircleF
4617 1598 CircleF
4620 1630 CircleF
4624 1699 CircleF
4627 1780 CircleF
4631 1855 CircleF
4634 1938 CircleF
4637 2030 CircleF
4641 2099 CircleF
4644 2122 CircleF
4648 2120 CircleF
4651 2117 CircleF
4655 2097 CircleF
4658 2037 CircleF
4662 1951 CircleF
4665 1870 CircleF
4668 1797 CircleF
4672 1717 CircleF
4675 1648 CircleF
4679 1625 CircleF
4682 1649 CircleF
4686 1688 CircleF
4689 1734 CircleF
4692 1807 CircleF
4696 1901 CircleF
4699 1979 CircleF
4703 2029 CircleF
4706 2070 CircleF
4710 2106 CircleF
4713 2103 CircleF
4716 2048 CircleF
4720 1969 CircleF
4723 1894 CircleF
4727 1814 CircleF
4730 1727 CircleF
4734 1665 CircleF
4737 1656 CircleF
4740 1682 CircleF
4744 1719 CircleF
4747 1775 CircleF
4751 1861 CircleF
4754 1953 CircleF
4758 2013 CircleF
4761 2046 CircleF
4764 2071 CircleF
4768 2075 CircleF
4771 2030 CircleF
4775 1948 CircleF
4778 1865 CircleF
4782 1796 CircleF
4785 1727 CircleF
4788 1671 CircleF
4792 1665 CircleF
4795 1714 CircleF
4799 1783 CircleF
4802 1855 CircleF
4806 1939 CircleF
4809 2026 CircleF
4813 2072 CircleF
4816 2060 CircleF
4819 2016 CircleF
4823 1961 CircleF
4826 1884 CircleF
4830 1789 CircleF
4833 1720 CircleF
4837 1703 CircleF
4840 1719 CircleF
4843 1751 CircleF
4847 1817 CircleF
4850 1912 CircleF
4854 1990 CircleF
4857 2020 CircleF
4861 2021 CircleF
4864 2004 CircleF
4867 1945 CircleF
4871 1850 CircleF
4874 1774 CircleF
4878 1740 CircleF
4881 1730 CircleF
4885 1747 CircleF
4888 1815 CircleF
4891 1910 CircleF
4895 1975 CircleF
4898 2000 CircleF
4902 2006 CircleF
4905 1973 CircleF
4909 1888 CircleF
4912 1800 CircleF
4915 1757 CircleF
4919 1745 CircleF
4922 1761 CircleF
4926 1830 CircleF
4929 1926 CircleF
4933 1984 CircleF
4936 1993 CircleF
4939 1979 CircleF
4943 1922 CircleF
4946 1825 CircleF
4950 1756 CircleF
4953 1750 CircleF
4957 1775 CircleF
4960 1833 CircleF
4963 1930 CircleF
4967 2000 CircleF
4970 1997 CircleF
4974 1952 CircleF
4977 1887 CircleF
4981 1795 CircleF
4984 1733 CircleF
4988 1754 CircleF
4991 1816 CircleF
4994 1887 CircleF
4998 1969 CircleF
5001 2009 CircleF
5005 1963 CircleF
5008 1883 CircleF
5012 1817 CircleF
5015 1761 CircleF
5018 1757 CircleF
5022 1833 CircleF
5025 1916 CircleF
5029 1959 CircleF
5032 1973 CircleF
5036 1933 CircleF
5039 1837 CircleF
5042 1768 CircleF
5046 1767 CircleF
5049 1802 CircleF
5053 1876 CircleF
5056 1971 CircleF
5060 1999 CircleF
5063 1948 CircleF
5066 1880 CircleF
5070 1806 CircleF
5073 1750 CircleF
5077 1780 CircleF
5080 1866 CircleF
5084 1931 CircleF
5087 1964 CircleF
5090 1957 CircleF
5094 1877 CircleF
5097 1787 CircleF
5101 1766 CircleF
5104 1795 CircleF
5108 1856 CircleF
5111 1949 CircleF
5114 1997 CircleF
5118 1953 CircleF
5121 1876 CircleF
5125 1813 CircleF
5128 1767 CircleF
5132 1792 CircleF
5135 1887 CircleF
5139 1955 CircleF
5142 1961 CircleF
5145 1930 CircleF
5149 1851 CircleF
5152 1764 CircleF
5156 1759 CircleF
5159 1825 CircleF
5163 1895 CircleF
5166 1954 CircleF
5169 1968 CircleF
5173 1894 CircleF
5176 1804 CircleF
5180 1778 CircleF
5183 1801 CircleF
5187 1866 CircleF
5190 1958 CircleF
5193 1986 CircleF
5197 1922 CircleF
5200 1847 CircleF
5204 1796 CircleF
5207 1786 CircleF
5211 1856 CircleF
5214 1952 CircleF
5217 1969 CircleF
5221 1925 CircleF
5224 1858 CircleF
5228 1782 CircleF
5231 1777 CircleF
5235 1862 CircleF
5238 1934 CircleF
5241 1949 CircleF
5245 1918 CircleF
5248 1829 CircleF
5252 1761 CircleF
5255 1799 CircleF
5259 1875 CircleF
5262 1931 CircleF
5265 1950 CircleF
5269 1882 CircleF
5272 1787 CircleF
5276 1780 CircleF
5279 1835 CircleF
5283 1905 CircleF
5286 1962 CircleF
5290 1919 CircleF
5293 1822 CircleF
5296 1790 CircleF
5300 1818 CircleF
5303 1890 CircleF
5307 1965 CircleF
5310 1934 CircleF
5314 1844 CircleF
5317 1803 CircleF
5320 1813 CircleF
5324 1891 CircleF
5327 1969 CircleF
5331 1933 CircleF
5334 1853 CircleF
5338 1808 CircleF
5341 1815 CircleF
5344 1907 CircleF
5348 1968 CircleF
5351 1919 CircleF
5355 1850 CircleF
5358 1802 CircleF
5362 1830 CircleF
5365 1933 CircleF
5368 1956 CircleF
5372 1898 CircleF
5375 1832 CircleF
5379 1796 CircleF
5382 1868 CircleF
5386 1953 CircleF
5389 1935 CircleF
5392 1873 CircleF
5396 1805 CircleF
5399 1815 CircleF
5403 1917 CircleF
5406 1950 CircleF
5410 1905 CircleF
5413 1835 CircleF
5416 1794 CircleF
5420 1870 CircleF
5423 1949 CircleF
5427 1928 CircleF
5430 1867 CircleF
5434 1800 CircleF
5437 1829 CircleF
5440 1930 CircleF
5444 1943 CircleF
5447 1890 CircleF
5451 1820 CircleF
5454 1806 CircleF
5458 1902 CircleF
5461 1954 CircleF
5465 1908 CircleF
5468 1842 CircleF
5471 1801 CircleF
5475 1872 CircleF
5478 1955 CircleF
5482 1923 CircleF
5485 1855 CircleF
5489 1807 CircleF
5492 1846 CircleF
5495 1945 CircleF
5499 1939 CircleF
5502 1862 CircleF
5506 1815 CircleF
5509 1831 CircleF
5513 1928 CircleF
5516 1950 CircleF
5519 1865 CircleF
5523 1814 CircleF
5526 1825 CircleF
5530 1905 CircleF
5533 1950 CircleF
5537 1867 CircleF
5540 1803 CircleF
5543 1823 CircleF
5547 1890 CircleF
5550 1942 CircleF
5554 1870 CircleF
5557 1791 CircleF
5561 1823 CircleF
5564 1889 CircleF
5567 1932 CircleF
5571 1872 CircleF
5574 1786 CircleF
5578 1828 CircleF
5581 1904 CircleF
5585 1925 CircleF
5588 1870 CircleF
5591 1791 CircleF
5595 1843 CircleF
5598 1928 CircleF
5602 1922 CircleF
5605 1863 CircleF
5609 1804 CircleF
5612 1866 CircleF
5616 1950 CircleF
5619 1911 CircleF
5622 1843 CircleF
5626 1816 CircleF
5629 1889 CircleF
5633 1952 CircleF
5636 1876 CircleF
5640 1814 CircleF
5643 1830 CircleF
5646 1905 CircleF
5650 1928 CircleF
5653 1827 CircleF
5657 1801 CircleF
5660 1863 CircleF
5664 1919 CircleF
5667 1890 CircleF
5670 1796 CircleF
5674 1834 CircleF
5677 1914 CircleF
5681 1918 CircleF
5684 1851 CircleF
5688 1807 CircleF
5691 1902 CircleF
5694 1940 CircleF
5698 1879 CircleF
5701 1823 CircleF
5705 1854 CircleF
5708 1945 CircleF
5712 1892 CircleF
5715 1819 CircleF
5718 1831 CircleF
5722 1904 CircleF
5725 1915 CircleF
5729 1811 CircleF
5732 1818 CircleF
5736 1888 CircleF
5739 1918 CircleF
5742 1843 CircleF
5746 1804 CircleF
5749 1901 CircleF
5753 1924 CircleF
5756 1871 CircleF
5760 1814 CircleF
5763 1890 CircleF
5767 1941 CircleF
5770 1862 CircleF
5773 1821 CircleF
5777 1863 CircleF
5780 1934 CircleF
5784 1854 CircleF
5787 1805 CircleF
5791 1864 CircleF
5794 1918 CircleF
5797 1871 CircleF
5801 1801 CircleF
5804 1885 CircleF
5808 1928 CircleF
5811 1881 CircleF
5815 1819 CircleF
5818 1885 CircleF
5821 1941 CircleF
5825 1858 CircleF
5828 1821 CircleF
5832 1868 CircleF
5835 1928 CircleF
5839 1838 CircleF
5842 1808 CircleF
5845 1884 CircleF
5849 1916 CircleF
5852 1854 CircleF
5856 1814 CircleF
5859 1918 CircleF
5863 1918 CircleF
5866 1848 CircleF
5869 1824 CircleF
5873 1907 CircleF
5876 1906 CircleF
5880 1808 CircleF
5883 1833 CircleF
5887 1898 CircleF
5890 1898 CircleF
5893 1807 CircleF
5897 1856 CircleF
5900 1930 CircleF
5904 1884 CircleF
5907 1824 CircleF
5911 1860 CircleF
5914 1932 CircleF
5918 1842 CircleF
5921 1809 CircleF
5924 1870 CircleF
5928 1912 CircleF
5931 1837 CircleF
5935 1818 CircleF
5938 1920 CircleF
5942 1902 CircleF
5945 1836 CircleF
5948 1833 CircleF
5952 1921 CircleF
5955 1867 CircleF
5959 1799 CircleF
5962 1859 CircleF
5966 1909 CircleF
5969 1858 CircleF
5972 1810 CircleF
5976 1913 CircleF
5979 1905 CircleF
5983 1832 CircleF
5986 1828 CircleF
5990 1908 CircleF
5993 1865 CircleF
5996 1794 CircleF
6000 1872 CircleF
6003 1908 CircleF
6007 1852 CircleF
6010 1819 CircleF
6014 1920 CircleF
6017 1880 CircleF
6020 1811 CircleF
6024 1843 CircleF
6027 1907 CircleF
6031 1835 CircleF
6034 1813 CircleF
6038 1910 CircleF
6041 1891 CircleF
6044 1824 CircleF
6048 1852 CircleF
6051 1918 CircleF
6055 1819 CircleF
6058 1819 CircleF
6062 1888 CircleF
6065 1886 CircleF
6068 1807 CircleF
6072 1889 CircleF
6075 1909 CircleF
6079 1830 CircleF
6082 1828 CircleF
6086 1906 CircleF
6089 1845 CircleF
6093 1810 CircleF
6096 1901 CircleF
6099 1894 CircleF
6103 1823 CircleF
6106 1872 CircleF
6110 1911 CircleF
6113 1812 CircleF
6117 1837 CircleF
6120 1901 CircleF
6123 1854 CircleF
6127 1822 CircleF
6130 1922 CircleF
6134 1872 CircleF
6137 1818 CircleF
6141 1874 CircleF
6144 1889 CircleF
6147 1797 CircleF
6151 1876 CircleF
6154 1904 CircleF
6158 1838 CircleF
6161 1847 CircleF
6165 1917 CircleF
6168 1818 CircleF
6171 1830 CircleF
6175 1897 CircleF
6178 1858 CircleF
6182 1823 CircleF
6185 1923 CircleF
6189 1861 CircleF
6192 1818 CircleF
6195 1882 CircleF
6199 1875 CircleF
6202 1805 CircleF
6206 1901 CircleF
6209 1893 CircleF
6213 1824 CircleF
6216 1873 CircleF
6219 1891 CircleF
6223 1800 CircleF
6226 1869 CircleF
6230 1902 CircleF
6233 1829 CircleF
6237 1866 CircleF
6240 1907 CircleF
6244 1811 CircleF
6247 1844 CircleF
6250 1903 CircleF
6254 1830 CircleF
6257 1859 CircleF
6261 1916 CircleF
6264 1830 CircleF
6268 1833 CircleF
6271 1904 CircleF
6274 1829 CircleF
6278 1850 CircleF
6281 1917 CircleF
6285 1845 CircleF
6288 1827 CircleF
6292 1905 CircleF
6295 1826 CircleF
6298 1843 CircleF
6302 1913 CircleF
6305 1854 CircleF
6309 1827 CircleF
6312 1908 CircleF
6316 1823 CircleF
6319 1841 CircleF
6322 1910 CircleF
6326 1858 CircleF
6329 1829 CircleF
6333 1911 CircleF
6336 1818 CircleF
6340 1843 CircleF
6343 1907 CircleF
6346 1854 CircleF
6350 1835 CircleF
6353 1912 CircleF
6357 1811 CircleF
6360 1851 CircleF
6364 1906 CircleF
6367 1845 CircleF
6370 1849 CircleF
6374 1906 CircleF
6377 1805 CircleF
6381 1864 CircleF
6384 1903 CircleF
6388 1831 CircleF
6391 1871 CircleF
6395 1887 CircleF
6398 1804 CircleF
6401 1881 CircleF
6405 1894 CircleF
6408 1821 CircleF
6412 1899 CircleF
6415 1854 CircleF
6419 1818 CircleF
6422 1898 CircleF
6425 1872 CircleF
6429 1827 CircleF
6432 1913 CircleF
6436 1816 CircleF
6439 1849 CircleF
6443 1905 CircleF
6446 1838 CircleF
6449 1866 CircleF
6453 1888 CircleF
6456 1806 CircleF
6460 1886 CircleF
6463 1887 CircleF
6467 1820 CircleF
6470 1908 CircleF
6473 1827 CircleF
6477 1841 CircleF
6480 1905 CircleF
6484 1843 CircleF
6487 1861 CircleF
6491 1887 CircleF
6494 1807 CircleF
6497 1892 CircleF
6501 1881 CircleF
6504 1823 CircleF
6508 1909 CircleF
6511 1814 CircleF
6515 1862 CircleF
6518 1902 CircleF
6521 1827 CircleF
6525 1885 CircleF
6528 1853 CircleF
6532 1829 CircleF
6535 1906 CircleF
6539 1850 CircleF
6542 1848 CircleF
6545 1889 CircleF
6549 1808 CircleF
6552 1901 CircleF
6556 1872 CircleF
6559 1826 CircleF
6563 1904 CircleF
6566 1808 CircleF
6570 1888 CircleF
6573 1885 CircleF
6576 1819 CircleF
6580 1899 CircleF
6583 1822 CircleF
6587 1873 CircleF
6590 1895 CircleF
6594 1821 CircleF
6597 1885 CircleF
6600 1843 CircleF
6604 1856 CircleF
6607 1903 CircleF
6611 1824 CircleF
6614 1870 CircleF
6618 1864 CircleF
6621 1842 CircleF
6624 1909 CircleF
6628 1823 CircleF
6631 1860 CircleF
6635 1879 CircleF
6638 1832 CircleF
6642 1913 CircleF
6645 1819 CircleF
6648 1860 CircleF
6652 1890 CircleF
6655 1825 CircleF
6659 1912 CircleF
6662 1813 CircleF
6666 1865 CircleF
6669 1894 CircleF
6672 1822 CircleF
6676 1909 CircleF
6679 1811 CircleF
6683 1876 CircleF
6686 1891 CircleF
6690 1820 CircleF
6693 1902 CircleF
6696 1814 CircleF
6700 1888 CircleF
6703 1881 CircleF
6707 1819 CircleF
6710 1898 CircleF
6714 1823 CircleF
6717 1894 CircleF
6721 1866 CircleF
6724 1822 CircleF
6727 1900 CircleF
6731 1831 CircleF
6734 1892 CircleF
6738 1849 CircleF
6741 1834 CircleF
6745 1905 CircleF
6748 1832 CircleF
6751 1885 CircleF
6755 1841 CircleF
6758 1854 CircleF
6762 1901 CircleF
6765 1822 CircleF
6769 1884 CircleF
6772 1842 CircleF
6775 1873 CircleF
6779 1881 CircleF
6782 1817 CircleF
6786 1895 CircleF
6789 1841 CircleF
6793 1881 CircleF
6796 1854 CircleF
6799 1835 CircleF
6803 1905 CircleF
6806 1829 CircleF
6810 1884 CircleF
6813 1836 CircleF
6817 1871 CircleF
6820 1887 CircleF
6823 1818 CircleF
6827 1896 CircleF
6830 1829 CircleF
6834 1898 CircleF
6837 1844 CircleF
6841 1841 CircleF
6844 1903 CircleF
6847 1821 CircleF
6851 1903 CircleF
6854 1813 CircleF
6858 1892 CircleF
6861 1872 CircleF
6865 1826 CircleF
6868 1897 CircleF
6872 1821 CircleF
6875 1913 CircleF
6878 1820 CircleF
6882 1869 CircleF
6885 1874 CircleF
6889 1851 CircleF
6892 1875 CircleF
6896 1827 CircleF
6899 1906 CircleF
6902 1829 CircleF
6906 1886 CircleF
6909 1829 CircleF
6913 1890 CircleF
6916 1863 CircleF
6920 1828 CircleF
6923 1902 CircleF
6926 1823 CircleF
6930 1907 CircleF
6933 1811 CircleF
6937 1892 CircleF
6940 1857 CircleF
6944 1862 CircleF
6947 1852 CircleF
% End plot #1
% Begin plot #2
0.300 UP
1.000 UL
LTb
0.55 0.00 0.00 C LCb setrgbcolor
6296 4766 M
[ [(Helvetica) 140.0 0.0 true true 0 (<S)]
[(Helvetica) 112.0 -42.0 true true 0 (y)]
[(Helvetica) 140.0 0.0 true true 0 (>)]
] -32.7 MRshow
0.300 UP
1.000 UL
LTb
0.55 0.00 0.00 C 773 4877 BoxF
777 4874 BoxF
780 4876 BoxF
784 4876 BoxF
787 4875 BoxF
791 4876 BoxF
794 4875 BoxF
797 4875 BoxF
801 4876 BoxF
804 4875 BoxF
808 4875 BoxF
811 4876 BoxF
815 4874 BoxF
818 4877 BoxF
821 4875 BoxF
825 4875 BoxF
828 4877 BoxF
832 4874 BoxF
835 4877 BoxF
839 4875 BoxF
842 4875 BoxF
845 4877 BoxF
849 4874 BoxF
852 4876 BoxF
856 4876 BoxF
859 4875 BoxF
863 4876 BoxF
866 4875 BoxF
870 4875 BoxF
873 4876 BoxF
876 4875 BoxF
880 4876 BoxF
883 4876 BoxF
887 4875 BoxF
890 4877 BoxF
894 4874 BoxF
897 4876 BoxF
900 4876 BoxF
904 4875 BoxF
907 4877 BoxF
911 4874 BoxF
914 4876 BoxF
918 4876 BoxF
921 4875 BoxF
924 4877 BoxF
928 4874 BoxF
931 4876 BoxF
935 4875 BoxF
938 4875 BoxF
942 4877 BoxF
945 4874 BoxF
948 4877 BoxF
952 4875 BoxF
955 4875 BoxF
959 4877 BoxF
962 4874 BoxF
966 4877 BoxF
969 4875 BoxF
972 4876 BoxF
976 4876 BoxF
979 4874 BoxF
983 4877 BoxF
986 4875 BoxF
990 4876 BoxF
993 4876 BoxF
996 4875 BoxF
1000 4877 BoxF
1003 4874 BoxF
1007 4876 BoxF
1010 4875 BoxF
1014 4875 BoxF
1017 4877 BoxF
1021 4874 BoxF
1024 4877 BoxF
1027 4875 BoxF
1031 4876 BoxF
1034 4876 BoxF
1038 4874 BoxF
1041 4877 BoxF
1045 4874 BoxF
1048 4876 BoxF
1051 4876 BoxF
1055 4875 BoxF
1058 4877 BoxF
1062 4874 BoxF
1065 4877 BoxF
1069 4875 BoxF
1072 4876 BoxF
1075 4876 BoxF
1079 4875 BoxF
1082 4876 BoxF
1086 4875 BoxF
1089 4876 BoxF
1093 4875 BoxF
1096 4876 BoxF
1099 4875 BoxF
1103 4876 BoxF
1106 4876 BoxF
1110 4875 BoxF
1113 4877 BoxF
1117 4874 BoxF
1120 4877 BoxF
1123 4875 BoxF
1127 4876 BoxF
1130 4877 BoxF
1134 4874 BoxF
1137 4877 BoxF
1141 4874 BoxF
1144 4876 BoxF
1147 4875 BoxF
1151 4875 BoxF
1154 4876 BoxF
1158 4875 BoxF
1161 4876 BoxF
1165 4875 BoxF
1168 4877 BoxF
1172 4875 BoxF
1175 4877 BoxF
1178 4875 BoxF
1182 4876 BoxF
1185 4876 BoxF
1189 4875 BoxF
1192 4877 BoxF
1196 4874 BoxF
1199 4877 BoxF
1202 4875 BoxF
1206 4876 BoxF
1209 4875 BoxF
1213 4876 BoxF
1216 4875 BoxF
1220 4875 BoxF
1223 4876 BoxF
1226 4875 BoxF
1230 4877 BoxF
1233 4874 BoxF
1237 4877 BoxF
1240 4875 BoxF
1244 4876 BoxF
1247 4875 BoxF
1250 4876 BoxF
1254 4875 BoxF
1257 4876 BoxF
1261 4876 BoxF
1264 4875 BoxF
1268 4877 BoxF
1271 4874 BoxF
1274 4877 BoxF
1278 4875 BoxF
1281 4876 BoxF
1285 4875 BoxF
1288 4876 BoxF
1292 4875 BoxF
1295 4876 BoxF
1298 4876 BoxF
1302 4875 BoxF
1305 4876 BoxF
1309 4875 BoxF
1312 4876 BoxF
1316 4875 BoxF
1319 4877 BoxF
1322 4874 BoxF
1326 4877 BoxF
1329 4874 BoxF
1333 4877 BoxF
1336 4875 BoxF
1340 4876 BoxF
1343 4875 BoxF
1347 4876 BoxF
1350 4875 BoxF
1353 4876 BoxF
1357 4876 BoxF
1360 4875 BoxF
1364 4876 BoxF
1367 4875 BoxF
1371 4876 BoxF
1374 4875 BoxF
1377 4877 BoxF
1381 4874 BoxF
1384 4877 BoxF
1388 4875 BoxF
1391 4876 BoxF
1395 4875 BoxF
1398 4877 BoxF
1401 4874 BoxF
1405 4877 BoxF
1408 4875 BoxF
1412 4876 BoxF
1415 4875 BoxF
1419 4876 BoxF
1422 4875 BoxF
1425 4877 BoxF
1429 4875 BoxF
1432 4876 BoxF
1436 4875 BoxF
1439 4876 BoxF
1443 4875 BoxF
1446 4876 BoxF
1449 4875 BoxF
1453 4876 BoxF
1456 4876 BoxF
1460 4876 BoxF
1463 4875 BoxF
1467 4876 BoxF
1470 4876 BoxF
1473 4875 BoxF
1477 4876 BoxF
1480 4875 BoxF
1484 4875 BoxF
1487 4876 BoxF
1491 4876 BoxF
1494 4875 BoxF
1498 4876 BoxF
1501 4876 BoxF
1504 4876 BoxF
1508 4876 BoxF
1511 4876 BoxF
1515 4875 BoxF
1518 4876 BoxF
1522 4876 BoxF
1525 4876 BoxF
1528 4876 BoxF
1532 4876 BoxF
1535 4876 BoxF
1539 4875 BoxF
1542 4876 BoxF
1546 4875 BoxF
1549 4876 BoxF
1552 4875 BoxF
1556 4876 BoxF
1559 4875 BoxF
1563 4876 BoxF
1566 4875 BoxF
1570 4876 BoxF
1573 4875 BoxF
1576 4877 BoxF
1580 4875 BoxF
1583 4876 BoxF
1587 4875 BoxF
1590 4877 BoxF
1594 4874 BoxF
1597 4877 BoxF
1600 4875 BoxF
1604 4877 BoxF
1607 4875 BoxF
1611 4877 BoxF
1614 4874 BoxF
1618 4876 BoxF
1621 4875 BoxF
1624 4876 BoxF
1628 4875 BoxF
1631 4876 BoxF
1635 4876 BoxF
1638 4876 BoxF
1642 4876 BoxF
1645 4876 BoxF
1649 4876 BoxF
1652 4875 BoxF
1655 4877 BoxF
1659 4875 BoxF
1662 4876 BoxF
1666 4875 BoxF
1669 4877 BoxF
1673 4874 BoxF
1676 4876 BoxF
1679 4875 BoxF
1683 4877 BoxF
1686 4874 BoxF
1690 4876 BoxF
1693 4876 BoxF
1697 4876 BoxF
1700 4876 BoxF
1703 4876 BoxF
1707 4876 BoxF
1710 4875 BoxF
1714 4877 BoxF
1717 4875 BoxF
1721 4877 BoxF
1724 4874 BoxF
1727 4877 BoxF
1731 4875 BoxF
1734 4876 BoxF
1738 4875 BoxF
1741 4876 BoxF
1745 4876 BoxF
1748 4875 BoxF
1751 4876 BoxF
1755 4875 BoxF
1758 4877 BoxF
1762 4874 BoxF
1765 4877 BoxF
1769 4875 BoxF
1772 4876 BoxF
1775 4875 BoxF
1779 4876 BoxF
1782 4876 BoxF
1786 4875 BoxF
1789 4877 BoxF
1793 4875 BoxF
1796 4877 BoxF
1800 4874 BoxF
1803 4877 BoxF
1806 4875 BoxF
1810 4876 BoxF
1813 4876 BoxF
1817 4876 BoxF
1820 4876 BoxF
1824 4874 BoxF
1827 4877 BoxF
1830 4875 BoxF
1834 4877 BoxF
1837 4875 BoxF
1841 4876 BoxF
1844 4876 BoxF
1848 4875 BoxF
1851 4876 BoxF
1854 4875 BoxF
1858 4877 BoxF
1861 4874 BoxF
1865 4876 BoxF
1868 4876 BoxF
1872 4876 BoxF
1875 4876 BoxF
1878 4875 BoxF
1882 4877 BoxF
1885 4875 BoxF
1889 4876 BoxF
1892 4875 BoxF
1896 4876 BoxF
1899 4876 BoxF
1902 4875 BoxF
1906 4877 BoxF
1909 4875 BoxF
1913 4877 BoxF
1916 4875 BoxF
1920 4876 BoxF
1923 4876 BoxF
1926 4875 BoxF
1930 4877 BoxF
1933 4874 BoxF
1937 4877 BoxF
1940 4875 BoxF
1944 4875 BoxF
1947 4876 BoxF
1950 4875 BoxF
1954 4877 BoxF
1957 4874 BoxF
1961 4876 BoxF
1964 4876 BoxF
1968 4876 BoxF
1971 4876 BoxF
1975 4874 BoxF
1978 4877 BoxF
1981 4875 BoxF
1985 4876 BoxF
1988 4876 BoxF
1992 4875 BoxF
1995 4877 BoxF
1999 4875 BoxF
2002 4876 BoxF
2005 4875 BoxF
2009 4875 BoxF
2012 4877 BoxF
2016 4874 BoxF
2019 4876 BoxF
2023 4875 BoxF
2026 4876 BoxF
2029 4876 BoxF
2033 4874 BoxF
2036 4877 BoxF
2040 4875 BoxF
2043 4876 BoxF
2047 4876 BoxF
2050 4874 BoxF
2053 4877 BoxF
2057 4875 BoxF
2060 4876 BoxF
2064 4876 BoxF
2067 4875 BoxF
2071 4877 BoxF
2074 4875 BoxF
2077 4876 BoxF
2081 4876 BoxF
2084 4875 BoxF
2088 4877 BoxF
2091 4875 BoxF
2095 4876 BoxF
2098 4876 BoxF
2101 4875 BoxF
2105 4877 BoxF
2108 4875 BoxF
2112 4875 BoxF
2115 4876 BoxF
2119 4875 BoxF
2122 4877 BoxF
2126 4875 BoxF
2129 4875 BoxF
2132 4877 BoxF
2136 4875 BoxF
2139 4876 BoxF
2143 4875 BoxF
2146 4875 BoxF
2150 4877 BoxF
2153 4875 BoxF
2156 4876 BoxF
2160 4876 BoxF
2163 4874 BoxF
2167 4877 BoxF
2170 4875 BoxF
2174 4875 BoxF
2177 4876 BoxF
2180 4874 BoxF
2184 4877 BoxF
2187 4876 BoxF
2191 4875 BoxF
2194 4877 BoxF
2198 4875 BoxF
2201 4876 BoxF
2204 4876 BoxF
2208 4874 BoxF
2211 4876 BoxF
2215 4875 BoxF
2218 4875 BoxF
2222 4877 BoxF
2225 4875 BoxF
2228 4876 BoxF
2232 4876 BoxF
2235 4874 BoxF
2239 4877 BoxF
2242 4876 BoxF
2246 4875 BoxF
2249 4877 BoxF
2252 4875 BoxF
2256 4876 BoxF
2259 4877 BoxF
2263 4874 BoxF
2266 4876 BoxF
2270 4876 BoxF
2273 4875 BoxF
2277 4877 BoxF
2280 4875 BoxF
2283 4875 BoxF
2287 4877 BoxF
2290 4875 BoxF
2294 4876 BoxF
2297 4876 BoxF
2301 4874 BoxF
2304 4876 BoxF
2307 4876 BoxF
2311 4875 BoxF
2314 4877 BoxF
2318 4875 BoxF
2321 4875 BoxF
2325 4877 BoxF
2328 4875 BoxF
2331 4875 BoxF
2335 4877 BoxF
2338 4874 BoxF
2342 4875 BoxF
2345 4876 BoxF
2349 4875 BoxF
2352 4876 BoxF
2355 4876 BoxF
2359 4874 BoxF
2362 4876 BoxF
2366 4876 BoxF
2369 4875 BoxF
2373 4877 BoxF
2376 4875 BoxF
2379 4875 BoxF
2383 4877 BoxF
2386 4875 BoxF
2390 4875 BoxF
2393 4877 BoxF
2397 4875 BoxF
2400 4875 BoxF
2403 4877 BoxF
2407 4875 BoxF
2410 4875 BoxF
2414 4877 BoxF
2417 4875 BoxF
2421 4875 BoxF
2424 4876 BoxF
2427 4874 BoxF
2431 4876 BoxF
2434 4877 BoxF
2438 4875 BoxF
2441 4876 BoxF
2445 4876 BoxF
2448 4874 BoxF
2452 4876 BoxF
2455 4877 BoxF
2458 4875 BoxF
2462 4876 BoxF
2465 4876 BoxF
2469 4874 BoxF
2472 4875 BoxF
2476 4877 BoxF
2479 4875 BoxF
2482 4876 BoxF
2486 4877 BoxF
2489 4874 BoxF
2493 4875 BoxF
2496 4877 BoxF
2500 4875 BoxF
2503 4875 BoxF
2506 4877 BoxF
2510 4875 BoxF
2513 4875 BoxF
2517 4877 BoxF
2520 4875 BoxF
2524 4875 BoxF
2527 4877 BoxF
2530 4875 BoxF
2534 4875 BoxF
2537 4877 BoxF
2541 4875 BoxF
2544 4874 BoxF
2548 4876 BoxF
2551 4876 BoxF
2554 4875 BoxF
2558 4876 BoxF
2561 4876 BoxF
2565 4874 BoxF
2568 4876 BoxF
2572 4877 BoxF
2575 4875 BoxF
2578 4876 BoxF
2582 4877 BoxF
2585 4874 BoxF
2589 4875 BoxF
2592 4877 BoxF
2596 4875 BoxF
2599 4874 BoxF
2603 4877 BoxF
2606 4876 BoxF
2609 4874 BoxF
2613 4876 BoxF
2616 4876 BoxF
2620 4874 BoxF
2623 4875 BoxF
2627 4877 BoxF
2630 4875 BoxF
2633 4875 BoxF
2637 4877 BoxF
2640 4875 BoxF
2644 4874 BoxF
2647 4876 BoxF
2651 4876 BoxF
2654 4874 BoxF
2657 4876 BoxF
2661 4877 BoxF
2664 4874 BoxF
2668 4875 BoxF
2671 4877 BoxF
2675 4875 BoxF
2678 4874 BoxF
2681 4876 BoxF
2685 4876 BoxF
2688 4874 BoxF
2692 4875 BoxF
2695 4877 BoxF
2699 4875 BoxF
2702 4874 BoxF
2705 4876 BoxF
2709 4876 BoxF
2712 4874 BoxF
2716 4876 BoxF
2719 4877 BoxF
2723 4875 BoxF
2726 4875 BoxF
2729 4877 BoxF
2733 4876 BoxF
2736 4874 BoxF
2740 4875 BoxF
2743 4877 BoxF
2747 4875 BoxF
2750 4874 BoxF
2754 4877 BoxF
2757 4876 BoxF
2760 4874 BoxF
2764 4875 BoxF
2767 4877 BoxF
2771 4875 BoxF
2774 4874 BoxF
2778 4876 BoxF
2781 4876 BoxF
2784 4875 BoxF
2788 4875 BoxF
2791 4877 BoxF
2795 4875 BoxF
2798 4874 BoxF
2802 4876 BoxF
2805 4877 BoxF
2808 4874 BoxF
2812 4874 BoxF
2815 4876 BoxF
2819 4876 BoxF
2822 4874 BoxF
2826 4875 BoxF
2829 4877 BoxF
2832 4875 BoxF
2836 4874 BoxF
2839 4875 BoxF
2843 4877 BoxF
2846 4875 BoxF
2850 4873 BoxF
2853 4876 BoxF
2856 4877 BoxF
2860 4875 BoxF
2863 4874 BoxF
2867 4876 BoxF
2870 4876 BoxF
2874 4874 BoxF
2877 4875 BoxF
2880 4876 BoxF
2884 4876 BoxF
2887 4873 BoxF
2891 4874 BoxF
2894 4877 BoxF
2898 4876 BoxF
2901 4874 BoxF
2904 4875 BoxF
2908 4877 BoxF
2911 4875 BoxF
2915 4874 BoxF
2918 4875 BoxF
2922 4877 BoxF
2925 4875 BoxF
2929 4873 BoxF
2932 4875 BoxF
2935 4877 BoxF
2939 4875 BoxF
2942 4873 BoxF
2946 4875 BoxF
2949 4877 BoxF
2953 4875 BoxF
2956 4874 BoxF
2959 4875 BoxF
2963 4877 BoxF
2966 4875 BoxF
2970 4873 BoxF
2973 4875 BoxF
2977 4877 BoxF
2980 4875 BoxF
2983 4873 BoxF
2987 4874 BoxF
2990 4877 BoxF
2994 4876 BoxF
2997 4874 BoxF
3001 4874 BoxF
3004 4877 BoxF
3007 4876 BoxF
3011 4874 BoxF
3014 4874 BoxF
3018 4876 BoxF
3021 4876 BoxF
3025 4874 BoxF
3028 4873 BoxF
3031 4876 BoxF
3035 4877 BoxF
3038 4875 BoxF
3042 4873 BoxF
3045 4875 BoxF
3049 4877 BoxF
3052 4876 BoxF
3055 4874 BoxF
3059 4874 BoxF
3062 4876 BoxF
3066 4877 BoxF
3069 4875 BoxF
3073 4874 BoxF
3076 4875 BoxF
3080 4877 BoxF
3083 4875 BoxF
3086 4874 BoxF
3090 4874 BoxF
3093 4876 BoxF
3097 4876 BoxF
3100 4874 BoxF
3104 4873 BoxF
3107 4875 BoxF
3110 4877 BoxF
3114 4875 BoxF
3117 4873 BoxF
3121 4874 BoxF
3124 4876 BoxF
3128 4876 BoxF
3131 4874 BoxF
3134 4873 BoxF
3138 4875 BoxF
3141 4877 BoxF
3145 4876 BoxF
3148 4874 BoxF
3152 4873 BoxF
3155 4875 BoxF
3158 4877 BoxF
3162 4875 BoxF
3165 4874 BoxF
3169 4874 BoxF
3172 4876 BoxF
3176 4876 BoxF
3179 4875 BoxF
3182 4874 BoxF
3186 4875 BoxF
3189 4876 BoxF
3193 4876 BoxF
3196 4874 BoxF
3200 4873 BoxF
3203 4875 BoxF
3206 4876 BoxF
3210 4876 BoxF
3213 4874 BoxF
3217 4873 BoxF
3220 4875 BoxF
3224 4876 BoxF
3227 4876 BoxF
3231 4873 BoxF
3234 4873 BoxF
3237 4874 BoxF
3241 4876 BoxF
3244 4876 BoxF
3248 4873 BoxF
3251 4872 BoxF
3255 4874 BoxF
3258 4876 BoxF
3261 4876 BoxF
3265 4874 BoxF
3268 4872 BoxF
3272 4874 BoxF
3275 4876 BoxF
3279 4876 BoxF
3282 4874 BoxF
3285 4873 BoxF
3289 4873 BoxF
3292 4876 BoxF
3296 4877 BoxF
3299 4875 BoxF
3303 4873 BoxF
3306 4873 BoxF
3309 4875 BoxF
3313 4877 BoxF
3316 4876 BoxF
3320 4874 BoxF
3323 4872 BoxF
3327 4874 BoxF
3330 4876 BoxF
3333 4876 BoxF
3337 4875 BoxF
3340 4873 BoxF
3344 4873 BoxF
3347 4875 BoxF
3351 4876 BoxF
3354 4876 BoxF
3357 4874 BoxF
3361 4872 BoxF
3364 4873 BoxF
3368 4875 BoxF
3371 4877 BoxF
3375 4875 BoxF
3378 4873 BoxF
3381 4872 BoxF
3385 4873 BoxF
3388 4876 BoxF
3392 4876 BoxF
3395 4875 BoxF
3399 4872 BoxF
3402 4872 BoxF
3406 4874 BoxF
3409 4876 BoxF
3412 4876 BoxF
3416 4874 BoxF
3419 4872 BoxF
3423 4872 BoxF
3426 4874 BoxF
3430 4876 BoxF
3433 4876 BoxF
3436 4874 BoxF
3440 4872 BoxF
3443 4871 BoxF
3447 4873 BoxF
3450 4876 BoxF
3454 4876 BoxF
3457 4875 BoxF
3460 4872 BoxF
3464 4872 BoxF
3467 4873 BoxF
3471 4875 BoxF
3474 4876 BoxF
3478 4875 BoxF
3481 4873 BoxF
3484 4872 BoxF
3488 4873 BoxF
3491 4874 BoxF
3495 4876 BoxF
3498 4876 BoxF
3502 4874 BoxF
3505 4873 BoxF
3508 4872 BoxF
3512 4873 BoxF
3515 4875 BoxF
3519 4876 BoxF
3522 4876 BoxF
3526 4874 BoxF
3529 4872 BoxF
3532 4871 BoxF
3536 4873 BoxF
3539 4875 BoxF
3543 4876 BoxF
3546 4875 BoxF
3550 4873 BoxF
3553 4871 BoxF
3557 4871 BoxF
3560 4873 BoxF
3563 4875 BoxF
3567 4876 BoxF
3570 4875 BoxF
3574 4872 BoxF
3577 4871 BoxF
3581 4871 BoxF
3584 4873 BoxF
3587 4875 BoxF
3591 4876 BoxF
3594 4875 BoxF
3598 4873 BoxF
3601 4872 BoxF
3605 4871 BoxF
3608 4872 BoxF
3611 4874 BoxF
3615 4876 BoxF
3618 4876 BoxF
3622 4874 BoxF
3625 4872 BoxF
3629 4870 BoxF
3632 4870 BoxF
3635 4872 BoxF
3639 4875 BoxF
3642 4876 BoxF
3646 4875 BoxF
3649 4873 BoxF
3653 4871 BoxF
3656 4870 BoxF
3659 4871 BoxF
3663 4873 BoxF
3666 4875 BoxF
3670 4876 BoxF
3673 4875 BoxF
3677 4873 BoxF
3680 4871 BoxF
3683 4870 BoxF
3687 4870 BoxF
3690 4871 BoxF
3694 4874 BoxF
3697 4875 BoxF
3701 4876 BoxF
3704 4874 BoxF
3708 4871 BoxF
3711 4869 BoxF
3714 4869 BoxF
3718 4871 BoxF
3721 4873 BoxF
3725 4874 BoxF
3728 4875 BoxF
3732 4875 BoxF
3735 4873 BoxF
3738 4871 BoxF
3742 4869 BoxF
3745 4868 BoxF
3749 4869 BoxF
3752 4872 BoxF
3756 4874 BoxF
3759 4875 BoxF
3762 4875 BoxF
3766 4873 BoxF
3769 4871 BoxF
3773 4870 BoxF
3776 4869 BoxF
3780 4869 BoxF
3783 4870 BoxF
3786 4872 BoxF
3790 4874 BoxF
3793 4875 BoxF
3797 4874 BoxF
3800 4872 BoxF
3804 4869 BoxF
3807 4868 BoxF
3810 4868 BoxF
3814 4869 BoxF
3817 4870 BoxF
3821 4872 BoxF
3824 4873 BoxF
3828 4874 BoxF
3831 4874 BoxF
3834 4872 BoxF
3838 4870 BoxF
3841 4867 BoxF
3845 4867 BoxF
3848 4867 BoxF
3852 4869 BoxF
3855 4870 BoxF
3859 4872 BoxF
3862 4873 BoxF
3865 4874 BoxF
3869 4873 BoxF
3872 4872 BoxF
3876 4869 BoxF
3879 4866 BoxF
3883 4865 BoxF
3886 4866 BoxF
3889 4867 BoxF
3893 4869 BoxF
3896 4870 BoxF
3900 4872 BoxF
3903 4873 BoxF
3907 4873 BoxF
3910 4872 BoxF
3913 4870 BoxF
3917 4867 BoxF
3920 4865 BoxF
3924 4864 BoxF
3927 4864 BoxF
3931 4865 BoxF
3934 4866 BoxF
3937 4868 BoxF
3941 4870 BoxF
3944 4872 BoxF
3948 4873 BoxF
3951 4872 BoxF
3955 4870 BoxF
3958 4868 BoxF
3961 4866 BoxF
3965 4864 BoxF
3968 4862 BoxF
3972 4861 BoxF
3975 4861 BoxF
3979 4862 BoxF
3982 4865 BoxF
3985 4867 BoxF
3989 4869 BoxF
3992 4870 BoxF
3996 4870 BoxF
3999 4870 BoxF
4003 4869 BoxF
4006 4867 BoxF
4009 4864 BoxF
4013 4862 BoxF
4016 4859 BoxF
4020 4858 BoxF
4023 4858 BoxF
4027 4858 BoxF
4030 4858 BoxF
4034 4859 BoxF
4037 4862 BoxF
4040 4864 BoxF
4044 4866 BoxF
4047 4867 BoxF
4051 4867 BoxF
4054 4867 BoxF
4058 4866 BoxF
4061 4865 BoxF
4064 4862 BoxF
4068 4859 BoxF
4071 4856 BoxF
4075 4854 BoxF
4078 4853 BoxF
4082 4852 BoxF
4085 4850 BoxF
4088 4849 BoxF
4092 4850 BoxF
4095 4852 BoxF
4099 4854 BoxF
4102 4856 BoxF
4106 4857 BoxF
4109 4857 BoxF
4112 4859 BoxF
4116 4861 BoxF
4119 4861 BoxF
4123 4860 BoxF
4126 4858 BoxF
4130 4856 BoxF
4133 4854 BoxF
4136 4853 BoxF
4140 4849 BoxF
4143 4845 BoxF
4147 4842 BoxF
4150 4840 BoxF
4154 4839 BoxF
4157 4837 BoxF
4160 4835 BoxF
4164 4832 BoxF
4167 4832 BoxF
4171 4833 BoxF
4174 4835 BoxF
4178 4835 BoxF
4181 4834 BoxF
4185 4834 BoxF
4188 4836 BoxF
4191 4838 BoxF
4195 4839 BoxF
4198 4839 BoxF
4202 4837 BoxF
4205 4837 BoxF
4209 4837 BoxF
4212 4837 BoxF
4215 4835 BoxF
4219 4831 BoxF
4222 4827 BoxF
4226 4824 BoxF
4229 4822 BoxF
4233 4819 BoxF
4236 4813 BoxF
4239 4807 BoxF
4243 4801 BoxF
4246 4797 BoxF
4250 4793 BoxF
4253 4788 BoxF
4257 4780 BoxF
4260 4772 BoxF
4263 4767 BoxF
4267 4762 BoxF
4270 4758 BoxF
4274 4751 BoxF
4277 4742 BoxF
4281 4734 BoxF
4284 4728 BoxF
4287 4724 BoxF
4291 4717 BoxF
4294 4708 BoxF
4298 4698 BoxF
4301 4690 BoxF
4305 4683 BoxF
4308 4676 BoxF
4311 4666 BoxF
4315 4653 BoxF
4318 4640 BoxF
4322 4629 BoxF
4325 4618 BoxF
4329 4606 BoxF
4332 4590 BoxF
4336 4571 BoxF
4339 4553 BoxF
4342 4536 BoxF
4346 4518 BoxF
4349 4496 BoxF
4353 4470 BoxF
4356 4442 BoxF
4360 4415 BoxF
4363 4388 BoxF
4366 4358 BoxF
4370 4323 BoxF
4373 4284 BoxF
4377 4243 BoxF
4380 4203 BoxF
4384 4161 BoxF
4387 4114 BoxF
4390 4061 BoxF
4394 4005 BoxF
4397 3949 BoxF
4401 3891 BoxF
4404 3829 BoxF
4408 3761 BoxF
4411 3689 BoxF
4414 3616 BoxF
4418 3543 BoxF
4421 3466 BoxF
4425 3383 BoxF
4428 3298 BoxF
4432 3214 BoxF
4435 3129 BoxF
4438 3043 BoxF
4442 2953 BoxF
4445 2864 BoxF
4449 2779 BoxF
4452 2698 BoxF
4456 2617 BoxF
4459 2534 BoxF
4462 2457 BoxF
4466 2390 BoxF
4469 2334 BoxF
4473 2281 BoxF
4476 2228 BoxF
4480 2184 BoxF
4483 2156 BoxF
4486 2145 BoxF
4490 2142 BoxF
4493 2142 BoxF
4497 2149 BoxF
4500 2174 BoxF
4504 2216 BoxF
4507 2267 BoxF
4511 2322 BoxF
4514 2383 BoxF
4517 2455 BoxF
4521 2534 BoxF
4524 2615 BoxF
4528 2693 BoxF
4531 2773 BoxF
4535 2855 BoxF
4538 2931 BoxF
4541 2992 BoxF
4545 3038 BoxF
4548 3077 BoxF
4552 3109 BoxF
4555 3127 BoxF
4559 3122 BoxF
4562 3095 BoxF
4565 3056 BoxF
4569 3008 BoxF
4572 2948 BoxF
4576 2872 BoxF
4579 2789 BoxF
4583 2708 BoxF
4586 2629 BoxF
4589 2551 BoxF
4593 2476 BoxF
4596 2419 BoxF
4600 2386 BoxF
4603 2375 BoxF
4607 2376 BoxF
4610 2394 BoxF
4613 2435 BoxF
4617 2500 BoxF
4620 2578 BoxF
4624 2660 BoxF
4627 2746 BoxF
4631 2833 BoxF
4634 2912 BoxF
4637 2969 BoxF
4641 3001 BoxF
4644 3014 BoxF
4648 3008 BoxF
4651 2975 BoxF
4655 2915 BoxF
4658 2836 BoxF
4662 2750 BoxF
4665 2663 BoxF
4668 2578 BoxF
4672 2505 BoxF
4675 2460 BoxF
4679 2446 BoxF
4682 2458 BoxF
4686 2493 BoxF
4689 2554 BoxF
4692 2636 BoxF
4696 2726 BoxF
4699 2810 BoxF
4703 2882 BoxF
4706 2937 BoxF
4710 2964 BoxF
4713 2952 BoxF
4716 2906 BoxF
4720 2839 BoxF
4723 2756 BoxF
4727 2665 BoxF
4730 2581 BoxF
4734 2522 BoxF
4737 2495 BoxF
4740 2499 BoxF
4744 2533 BoxF
4747 2598 BoxF
4751 2685 BoxF
4754 2774 BoxF
4758 2848 BoxF
4761 2903 BoxF
4764 2928 BoxF
4768 2911 BoxF
4771 2854 BoxF
4775 2774 BoxF
4778 2689 BoxF
4782 2605 BoxF
4785 2539 BoxF
4788 2514 BoxF
4792 2534 BoxF
4795 2588 BoxF
4799 2662 BoxF
4802 2751 BoxF
4806 2836 BoxF
4809 2886 BoxF
4813 2894 BoxF
4816 2868 BoxF
4819 2811 BoxF
4823 2726 BoxF
4826 2637 BoxF
4830 2577 BoxF
4833 2551 BoxF
4837 2558 BoxF
4840 2604 BoxF
4843 2685 BoxF
4847 2770 BoxF
4850 2833 BoxF
4854 2867 BoxF
4857 2867 BoxF
4861 2821 BoxF
4864 2742 BoxF
4867 2661 BoxF
4871 2602 BoxF
4874 2568 BoxF
4878 2574 BoxF
4881 2629 BoxF
4885 2709 BoxF
4888 2783 BoxF
4891 2836 BoxF
4895 2860 BoxF
4898 2835 BoxF
4902 2765 BoxF
4905 2685 BoxF
4909 2621 BoxF
4912 2581 BoxF
4915 2582 BoxF
4919 2635 BoxF
4922 2717 BoxF
4926 2789 BoxF
4929 2837 BoxF
4933 2849 BoxF
4936 2811 BoxF
4939 2731 BoxF
4943 2650 BoxF
4946 2599 BoxF
4950 2584 BoxF
4953 2615 BoxF
4957 2693 BoxF
4960 2780 BoxF
4963 2834 BoxF
4967 2843 BoxF
4970 2809 BoxF
4974 2732 BoxF
4977 2641 BoxF
4981 2588 BoxF
4984 2589 BoxF
4988 2635 BoxF
4991 2716 BoxF
4994 2804 BoxF
4998 2850 BoxF
5001 2832 BoxF
5005 2769 BoxF
5008 2684 BoxF
5012 2607 BoxF
5015 2579 BoxF
5018 2620 BoxF
5022 2701 BoxF
5025 2783 BoxF
5029 2837 BoxF
5032 2833 BoxF
5036 2766 BoxF
5039 2675 BoxF
5042 2610 BoxF
5046 2595 BoxF
5049 2639 BoxF
5053 2727 BoxF
5056 2809 BoxF
5060 2837 BoxF
5063 2803 BoxF
5066 2726 BoxF
5070 2638 BoxF
5073 2591 BoxF
5077 2617 BoxF
5080 2693 BoxF
5084 2778 BoxF
5087 2830 BoxF
5090 2816 BoxF
5094 2739 BoxF
5097 2652 BoxF
5101 2605 BoxF
5104 2620 BoxF
5108 2694 BoxF
5111 2785 BoxF
5114 2830 BoxF
5118 2803 BoxF
5121 2727 BoxF
5125 2642 BoxF
5128 2599 BoxF
5132 2636 BoxF
5135 2722 BoxF
5139 2796 BoxF
5142 2820 BoxF
5145 2775 BoxF
5149 2682 BoxF
5152 2614 BoxF
5156 2618 BoxF
5159 2681 BoxF
5163 2768 BoxF
5166 2824 BoxF
5169 2797 BoxF
5173 2713 BoxF
5176 2640 BoxF
5180 2617 BoxF
5183 2664 BoxF
5187 2758 BoxF
5190 2815 BoxF
5193 2795 BoxF
5197 2726 BoxF
5200 2645 BoxF
5204 2614 BoxF
5207 2669 BoxF
5211 2754 BoxF
5214 2802 BoxF
5217 2789 BoxF
5221 2713 BoxF
5224 2633 BoxF
5228 2625 BoxF
5231 2685 BoxF
5235 2760 BoxF
5238 2804 BoxF
5241 2771 BoxF
5245 2684 BoxF
5248 2631 BoxF
5252 2646 BoxF
5255 2712 BoxF
5259 2789 BoxF
5262 2800 BoxF
5265 2732 BoxF
5269 2660 BoxF
5272 2634 BoxF
5276 2676 BoxF
5279 2763 BoxF
5283 2805 BoxF
5286 2764 BoxF
5290 2689 BoxF
5293 2637 BoxF
5296 2654 BoxF
5300 2738 BoxF
5303 2799 BoxF
5307 2780 BoxF
5310 2711 BoxF
5314 2642 BoxF
5317 2642 BoxF
5320 2722 BoxF
5324 2791 BoxF
5327 2786 BoxF
5331 2721 BoxF
5334 2644 BoxF
5338 2637 BoxF
5341 2716 BoxF
5344 2787 BoxF
5348 2787 BoxF
5351 2720 BoxF
5355 2639 BoxF
5358 2639 BoxF
5362 2721 BoxF
5365 2789 BoxF
5368 2783 BoxF
5372 2707 BoxF
5375 2632 BoxF
5379 2650 BoxF
5382 2737 BoxF
5386 2794 BoxF
5389 2769 BoxF
5392 2682 BoxF
5396 2626 BoxF
5399 2673 BoxF
5403 2762 BoxF
5406 2794 BoxF
5410 2741 BoxF
5413 2652 BoxF
5416 2635 BoxF
5420 2712 BoxF
5423 2785 BoxF
5427 2779 BoxF
5430 2697 BoxF
5434 2631 BoxF
5437 2668 BoxF
5440 2758 BoxF
5444 2792 BoxF
5447 2737 BoxF
5451 2650 BoxF
5454 2643 BoxF
5458 2726 BoxF
5461 2790 BoxF
5465 2763 BoxF
5468 2676 BoxF
5471 2634 BoxF
5475 2700 BoxF
5478 2782 BoxF
5482 2778 BoxF
5485 2697 BoxF
5489 2636 BoxF
5492 2682 BoxF
5495 2773 BoxF
5499 2785 BoxF
5502 2711 BoxF
5506 2642 BoxF
5509 2672 BoxF
5513 2766 BoxF
5516 2788 BoxF
5519 2717 BoxF
5523 2647 BoxF
5526 2670 BoxF
5530 2764 BoxF
5533 2788 BoxF
5537 2714 BoxF
5540 2648 BoxF
5543 2673 BoxF
5547 2766 BoxF
5550 2785 BoxF
5554 2703 BoxF
5557 2647 BoxF
5561 2683 BoxF
5564 2770 BoxF
5567 2776 BoxF
5571 2687 BoxF
5574 2646 BoxF
5578 2699 BoxF
5581 2775 BoxF
5585 2760 BoxF
5588 2667 BoxF
5591 2651 BoxF
5595 2721 BoxF
5598 2778 BoxF
5602 2737 BoxF
5605 2652 BoxF
5609 2669 BoxF
5612 2749 BoxF
5616 2774 BoxF
5619 2709 BoxF
5622 2647 BoxF
5626 2700 BoxF
5629 2773 BoxF
5633 2756 BoxF
5636 2681 BoxF
5640 2658 BoxF
5643 2739 BoxF
5646 2780 BoxF
5650 2720 BoxF
5653 2660 BoxF
5657 2687 BoxF
5660 2770 BoxF
5664 2757 BoxF
5667 2675 BoxF
5670 2661 BoxF
5674 2728 BoxF
5677 2776 BoxF
5681 2710 BoxF
5684 2649 BoxF
5688 2698 BoxF
5691 2766 BoxF
5694 2751 BoxF
5698 2665 BoxF
5701 2669 BoxF
5705 2755 BoxF
5708 2769 BoxF
5712 2699 BoxF
5715 2654 BoxF
5718 2727 BoxF
5722 2782 BoxF
5725 2718 BoxF
5729 2657 BoxF
5732 2694 BoxF
5736 2775 BoxF
5739 2742 BoxF
5742 2656 BoxF
5746 2677 BoxF
5749 2757 BoxF
5753 2761 BoxF
5756 2670 BoxF
5760 2663 BoxF
5763 2753 BoxF
5767 2770 BoxF
5770 2692 BoxF
5773 2656 BoxF
5777 2741 BoxF
5780 2778 BoxF
5784 2697 BoxF
5787 2655 BoxF
5791 2724 BoxF
5794 2778 BoxF
5797 2701 BoxF
5801 2649 BoxF
5804 2720 BoxF
5808 2775 BoxF
5811 2711 BoxF
5815 2650 BoxF
5818 2723 BoxF
5821 2779 BoxF
5825 2711 BoxF
5828 2655 BoxF
5832 2722 BoxF
5835 2779 BoxF
5839 2702 BoxF
5842 2654 BoxF
5845 2724 BoxF
5849 2773 BoxF
5852 2695 BoxF
5856 2654 BoxF
5859 2739 BoxF
5863 2770 BoxF
5866 2691 BoxF
5869 2662 BoxF
5873 2753 BoxF
5876 2764 BoxF
5880 2675 BoxF
5883 2672 BoxF
5887 2759 BoxF
5890 2749 BoxF
5893 2657 BoxF
5897 2691 BoxF
5900 2769 BoxF
5904 2732 BoxF
5907 2656 BoxF
5911 2716 BoxF
5914 2778 BoxF
5918 2704 BoxF
5921 2661 BoxF
5924 2735 BoxF
5928 2767 BoxF
5931 2673 BoxF
5935 2675 BoxF
5938 2759 BoxF
5942 2745 BoxF
5945 2662 BoxF
5948 2706 BoxF
5952 2777 BoxF
5955 2710 BoxF
5959 2663 BoxF
5962 2733 BoxF
5966 2764 BoxF
5969 2671 BoxF
5972 2683 BoxF
5976 2761 BoxF
5979 2736 BoxF
5983 2662 BoxF
5986 2723 BoxF
5990 2770 BoxF
5993 2692 BoxF
5996 2673 BoxF
6000 2751 BoxF
6003 2741 BoxF
6007 2660 BoxF
6010 2714 BoxF
6014 2766 BoxF
6017 2705 BoxF
6020 2671 BoxF
6024 2757 BoxF
6027 2740 BoxF
6031 2667 BoxF
6034 2706 BoxF
6038 2765 BoxF
6041 2695 BoxF
6044 2676 BoxF
6048 2759 BoxF
6051 2738 BoxF
6055 2670 BoxF
6058 2718 BoxF
6062 2764 BoxF
6065 2680 BoxF
6068 2685 BoxF
6072 2758 BoxF
6075 2727 BoxF
6079 2665 BoxF
6082 2744 BoxF
6086 2752 BoxF
6089 2674 BoxF
6093 2698 BoxF
6096 2766 BoxF
6099 2695 BoxF
6103 2676 BoxF
6106 2760 BoxF
6110 2733 BoxF
6113 2666 BoxF
6117 2732 BoxF
6120 2756 BoxF
6123 2667 BoxF
6127 2704 BoxF
6130 2765 BoxF
6134 2698 BoxF
6137 2678 BoxF
6141 2769 BoxF
6144 2717 BoxF
6147 2666 BoxF
6151 2741 BoxF
6154 2747 BoxF
6158 2661 BoxF
6161 2729 BoxF
6165 2762 BoxF
6168 2678 BoxF
6171 2697 BoxF
6175 2769 BoxF
6178 2686 BoxF
6182 2683 BoxF
6185 2766 BoxF
6189 2714 BoxF
6192 2669 BoxF
6195 2760 BoxF
6199 2724 BoxF
6202 2662 BoxF
6206 2743 BoxF
6209 2745 BoxF
6213 2664 BoxF
6216 2736 BoxF
6219 2754 BoxF
6223 2666 BoxF
6226 2716 BoxF
6230 2761 BoxF
6233 2671 BoxF
6237 2712 BoxF
6240 2767 BoxF
6244 2681 BoxF
6247 2697 BoxF
6250 2766 BoxF
6254 2682 BoxF
6257 2695 BoxF
6261 2769 BoxF
6264 2694 BoxF
6268 2686 BoxF
6271 2768 BoxF
6274 2689 BoxF
6278 2686 BoxF
6281 2766 BoxF
6285 2701 BoxF
6288 2683 BoxF
6292 2769 BoxF
6295 2692 BoxF
6298 2684 BoxF
6302 2764 BoxF
6305 2701 BoxF
6309 2685 BoxF
6312 2770 BoxF
6316 2689 BoxF
6319 2687 BoxF
6322 2764 BoxF
6326 2693 BoxF
6329 2694 BoxF
6333 2769 BoxF
6336 2683 BoxF
6340 2696 BoxF
6343 2763 BoxF
6346 2679 BoxF
6350 2712 BoxF
6353 2761 BoxF
6357 2675 BoxF
6360 2712 BoxF
6364 2756 BoxF
6367 2667 BoxF
6370 2735 BoxF
6374 2745 BoxF
6377 2671 BoxF
6381 2734 BoxF
6384 2735 BoxF
6388 2668 BoxF
6391 2756 BoxF
6395 2721 BoxF
6398 2675 BoxF
6401 2756 BoxF
6405 2701 BoxF
6408 2691 BoxF
6412 2762 BoxF
6415 2694 BoxF
6419 2698 BoxF
6422 2758 BoxF
6425 2672 BoxF
6429 2727 BoxF
6432 2747 BoxF
6436 2674 BoxF
6439 2737 BoxF
6443 2726 BoxF
6446 2676 BoxF
6449 2756 BoxF
6453 2712 BoxF
6456 2684 BoxF
6460 2760 BoxF
6463 2681 BoxF
6467 2715 BoxF
6470 2753 BoxF
6473 2677 BoxF
6477 2729 BoxF
6480 2732 BoxF
6484 2674 BoxF
6487 2756 BoxF
6491 2712 BoxF
6494 2684 BoxF
6497 2760 BoxF
6501 2678 BoxF
6504 2722 BoxF
6508 2748 BoxF
6511 2673 BoxF
6515 2739 BoxF
6518 2721 BoxF
6521 2681 BoxF
6525 2763 BoxF
6528 2692 BoxF
6532 2701 BoxF
6535 2756 BoxF
6539 2668 BoxF
6542 2747 BoxF
6545 2723 BoxF
6549 2676 BoxF
6552 2759 BoxF
6556 2690 BoxF
6559 2713 BoxF
6563 2752 BoxF
6566 2669 BoxF
6570 2741 BoxF
6573 2722 BoxF
6576 2682 BoxF
6580 2765 BoxF
6583 2676 BoxF
6587 2719 BoxF
6590 2746 BoxF
6594 2670 BoxF
6597 2761 BoxF
6600 2693 BoxF
6604 2700 BoxF
6607 2758 BoxF
6611 2672 BoxF
6614 2745 BoxF
6618 2713 BoxF
6621 2685 BoxF
6624 2763 BoxF
6628 2679 BoxF
6631 2729 BoxF
6635 2729 BoxF
6638 2676 BoxF
6642 2764 BoxF
6645 2685 BoxF
6648 2717 BoxF
6652 2739 BoxF
6655 2672 BoxF
6659 2764 BoxF
6662 2688 BoxF
6666 2712 BoxF
6669 2745 BoxF
6672 2671 BoxF
6676 2763 BoxF
6679 2687 BoxF
6683 2712 BoxF
6686 2746 BoxF
6690 2672 BoxF
6693 2762 BoxF
6696 2683 BoxF
6700 2718 BoxF
6703 2743 BoxF
6707 2673 BoxF
6710 2762 BoxF
6714 2677 BoxF
6717 2729 BoxF
6721 2735 BoxF
6724 2676 BoxF
6727 2761 BoxF
6731 2672 BoxF
6734 2743 BoxF
6738 2719 BoxF
6741 2685 BoxF
6745 2759 BoxF
6748 2670 BoxF
6751 2755 BoxF
6755 2698 BoxF
6758 2702 BoxF
6762 2751 BoxF
6765 2672 BoxF
6769 2762 BoxF
6772 2679 BoxF
6775 2727 BoxF
6779 2733 BoxF
6782 2682 BoxF
6786 2758 BoxF
6789 2670 BoxF
6793 2752 BoxF
6796 2705 BoxF
6799 2702 BoxF
6803 2744 BoxF
6806 2678 BoxF
6810 2760 BoxF
6813 2679 BoxF
6817 2732 BoxF
6820 2718 BoxF
6823 2701 BoxF
6827 2744 BoxF
6830 2676 BoxF
6834 2755 BoxF
6837 2689 BoxF
6841 2731 BoxF
6844 2712 BoxF
6847 2703 BoxF
6851 2748 BoxF
6854 2675 BoxF
6858 2754 BoxF
6861 2683 BoxF
6865 2741 BoxF
6868 2708 BoxF
6872 2699 BoxF
6875 2749 BoxF
6878 2677 BoxF
6882 2757 BoxF
6885 2676 BoxF
6889 2744 BoxF
6892 2708 BoxF
6896 2706 BoxF
6899 2734 BoxF
6902 2688 BoxF
6906 2753 BoxF
6909 2675 BoxF
6913 2750 BoxF
6916 2691 BoxF
6920 2734 BoxF
6923 2708 BoxF
6926 2704 BoxF
6930 2747 BoxF
6933 2676 BoxF
6937 2758 BoxF
6940 2672 BoxF
6944 2756 BoxF
6947 2689 BoxF
6579 4766 BoxF
% End plot #2
2.000 UL
LTb
LCb setrgbcolor
1.000 UL
LTB
LCb setrgbcolor
770 4899 N
770 448 L
6177 0 V
0 4451 V
-6177 0 V
Z stroke
1.000 UP
1.000 UL
LTb
LCb setrgbcolor
stroke
grestore
end
showpage
%%Trailer
%%DocumentFonts: Helvetica
