%!PS-Adobe-2.0 EPSF-2.0
%%Title: gnuplot_avrgFromFai_awk_SZ.eps
%%Creator: gnuplot 5.2 patchlevel 2
%%CreationDate: Wed Aug 25 08:29:01 2021
%%DocumentFonts: (atend)
%%BoundingBox: 50 50 410 302
%%EndComments
%%BeginProlog
/gnudict 256 dict def
gnudict begin
%
% The following true/false flags may be edited by hand if desired.
% The unit line width and grayscale image gamma correction may also be changed.
%
/Color true def
/Blacktext true def
/Solid false def
/Dashlength 1 def
/Landscape false def
/Level1 false def
/Level3 false def
/Rounded false def
/ClipToBoundingBox false def
/SuppressPDFMark false def
/TransparentPatterns false def
/gnulinewidth 5.000 def
/userlinewidth gnulinewidth def
/Gamma 1.0 def
/BackgroundColor {-1.000 -1.000 -1.000} def
%
/vshift -46 def
/dl1 {
  10.0 Dashlength userlinewidth gnulinewidth div mul mul mul
  Rounded { currentlinewidth 0.75 mul sub dup 0 le { pop 0.01 } if } if
} def
/dl2 {
  10.0 Dashlength userlinewidth gnulinewidth div mul mul mul
  Rounded { currentlinewidth 0.75 mul add } if
} def
/hpt_ 31.5 def
/vpt_ 31.5 def
/hpt hpt_ def
/vpt vpt_ def
/doclip {
  ClipToBoundingBox {
    newpath 50 50 moveto 410 50 lineto 410 302 lineto 50 302 lineto closepath
    clip
  } if
} def
%
% Gnuplot Prolog Version 5.1 (Oct 2015)
%
%/SuppressPDFMark true def
%
/M {moveto} bind def
/L {lineto} bind def
/R {rmoveto} bind def
/V {rlineto} bind def
/N {newpath moveto} bind def
/Z {closepath} bind def
/C {setrgbcolor} bind def
/f {rlineto fill} bind def
/g {setgray} bind def
/Gshow {show} def   % May be redefined later in the file to support UTF-8
/vpt2 vpt 2 mul def
/hpt2 hpt 2 mul def
/Lshow {currentpoint stroke M 0 vshift R 
	Blacktext {gsave 0 setgray textshow grestore} {textshow} ifelse} def
/Rshow {currentpoint stroke M dup stringwidth pop neg vshift R
	Blacktext {gsave 0 setgray textshow grestore} {textshow} ifelse} def
/Cshow {currentpoint stroke M dup stringwidth pop -2 div vshift R 
	Blacktext {gsave 0 setgray textshow grestore} {textshow} ifelse} def
/UP {dup vpt_ mul /vpt exch def hpt_ mul /hpt exch def
  /hpt2 hpt 2 mul def /vpt2 vpt 2 mul def} def
/DL {Color {setrgbcolor Solid {pop []} if 0 setdash}
 {pop pop pop 0 setgray Solid {pop []} if 0 setdash} ifelse} def
/BL {stroke userlinewidth 2 mul setlinewidth
	Rounded {1 setlinejoin 1 setlinecap} if} def
/AL {stroke userlinewidth 2 div setlinewidth
	Rounded {1 setlinejoin 1 setlinecap} if} def
/UL {dup gnulinewidth mul /userlinewidth exch def
	dup 1 lt {pop 1} if 10 mul /udl exch def} def
/PL {stroke userlinewidth setlinewidth
	Rounded {1 setlinejoin 1 setlinecap} if} def
3.8 setmiterlimit
% Classic Line colors (version 5.0)
/LCw {1 1 1} def
/LCb {0 0 0} def
/LCa {0 0 0} def
/LC0 {1 0 0} def
/LC1 {0 1 0} def
/LC2 {0 0 1} def
/LC3 {1 0 1} def
/LC4 {0 1 1} def
/LC5 {1 1 0} def
/LC6 {0 0 0} def
/LC7 {1 0.3 0} def
/LC8 {0.5 0.5 0.5} def
% Default dash patterns (version 5.0)
/LTB {BL [] LCb DL} def
/LTw {PL [] 1 setgray} def
/LTb {PL [] LCb DL} def
/LTa {AL [1 udl mul 2 udl mul] 0 setdash LCa setrgbcolor} def
/LT0 {PL [] LC0 DL} def
/LT1 {PL [2 dl1 3 dl2] LC1 DL} def
/LT2 {PL [1 dl1 1.5 dl2] LC2 DL} def
/LT3 {PL [6 dl1 2 dl2 1 dl1 2 dl2] LC3 DL} def
/LT4 {PL [1 dl1 2 dl2 6 dl1 2 dl2 1 dl1 2 dl2] LC4 DL} def
/LT5 {PL [4 dl1 2 dl2] LC5 DL} def
/LT6 {PL [1.5 dl1 1.5 dl2 1.5 dl1 1.5 dl2 1.5 dl1 6 dl2] LC6 DL} def
/LT7 {PL [3 dl1 3 dl2 1 dl1 3 dl2] LC7 DL} def
/LT8 {PL [2 dl1 2 dl2 2 dl1 6 dl2] LC8 DL} def
/SL {[] 0 setdash} def
/Pnt {stroke [] 0 setdash gsave 1 setlinecap M 0 0 V stroke grestore} def
/Dia {stroke [] 0 setdash 2 copy vpt add M
  hpt neg vpt neg V hpt vpt neg V
  hpt vpt V hpt neg vpt V closepath stroke
  Pnt} def
/Pls {stroke [] 0 setdash vpt sub M 0 vpt2 V
  currentpoint stroke M
  hpt neg vpt neg R hpt2 0 V stroke
 } def
/Box {stroke [] 0 setdash 2 copy exch hpt sub exch vpt add M
  0 vpt2 neg V hpt2 0 V 0 vpt2 V
  hpt2 neg 0 V closepath stroke
  Pnt} def
/Crs {stroke [] 0 setdash exch hpt sub exch vpt add M
  hpt2 vpt2 neg V currentpoint stroke M
  hpt2 neg 0 R hpt2 vpt2 V stroke} def
/TriU {stroke [] 0 setdash 2 copy vpt 1.12 mul add M
  hpt neg vpt -1.62 mul V
  hpt 2 mul 0 V
  hpt neg vpt 1.62 mul V closepath stroke
  Pnt} def
/Star {2 copy Pls Crs} def
/BoxF {stroke [] 0 setdash exch hpt sub exch vpt add M
  0 vpt2 neg V hpt2 0 V 0 vpt2 V
  hpt2 neg 0 V closepath fill} def
/TriUF {stroke [] 0 setdash vpt 1.12 mul add M
  hpt neg vpt -1.62 mul V
  hpt 2 mul 0 V
  hpt neg vpt 1.62 mul V closepath fill} def
/TriD {stroke [] 0 setdash 2 copy vpt 1.12 mul sub M
  hpt neg vpt 1.62 mul V
  hpt 2 mul 0 V
  hpt neg vpt -1.62 mul V closepath stroke
  Pnt} def
/TriDF {stroke [] 0 setdash vpt 1.12 mul sub M
  hpt neg vpt 1.62 mul V
  hpt 2 mul 0 V
  hpt neg vpt -1.62 mul V closepath fill} def
/DiaF {stroke [] 0 setdash vpt add M
  hpt neg vpt neg V hpt vpt neg V
  hpt vpt V hpt neg vpt V closepath fill} def
/Pent {stroke [] 0 setdash 2 copy gsave
  translate 0 hpt M 4 {72 rotate 0 hpt L} repeat
  closepath stroke grestore Pnt} def
/PentF {stroke [] 0 setdash gsave
  translate 0 hpt M 4 {72 rotate 0 hpt L} repeat
  closepath fill grestore} def
/Circle {stroke [] 0 setdash 2 copy
  hpt 0 360 arc stroke Pnt} def
/CircleF {stroke [] 0 setdash hpt 0 360 arc fill} def
/C0 {BL [] 0 setdash 2 copy moveto vpt 90 450 arc} bind def
/C1 {BL [] 0 setdash 2 copy moveto
	2 copy vpt 0 90 arc closepath fill
	vpt 0 360 arc closepath} bind def
/C2 {BL [] 0 setdash 2 copy moveto
	2 copy vpt 90 180 arc closepath fill
	vpt 0 360 arc closepath} bind def
/C3 {BL [] 0 setdash 2 copy moveto
	2 copy vpt 0 180 arc closepath fill
	vpt 0 360 arc closepath} bind def
/C4 {BL [] 0 setdash 2 copy moveto
	2 copy vpt 180 270 arc closepath fill
	vpt 0 360 arc closepath} bind def
/C5 {BL [] 0 setdash 2 copy moveto
	2 copy vpt 0 90 arc
	2 copy moveto
	2 copy vpt 180 270 arc closepath fill
	vpt 0 360 arc} bind def
/C6 {BL [] 0 setdash 2 copy moveto
	2 copy vpt 90 270 arc closepath fill
	vpt 0 360 arc closepath} bind def
/C7 {BL [] 0 setdash 2 copy moveto
	2 copy vpt 0 270 arc closepath fill
	vpt 0 360 arc closepath} bind def
/C8 {BL [] 0 setdash 2 copy moveto
	2 copy vpt 270 360 arc closepath fill
	vpt 0 360 arc closepath} bind def
/C9 {BL [] 0 setdash 2 copy moveto
	2 copy vpt 270 450 arc closepath fill
	vpt 0 360 arc closepath} bind def
/C10 {BL [] 0 setdash 2 copy 2 copy moveto vpt 270 360 arc closepath fill
	2 copy moveto
	2 copy vpt 90 180 arc closepath fill
	vpt 0 360 arc closepath} bind def
/C11 {BL [] 0 setdash 2 copy moveto
	2 copy vpt 0 180 arc closepath fill
	2 copy moveto
	2 copy vpt 270 360 arc closepath fill
	vpt 0 360 arc closepath} bind def
/C12 {BL [] 0 setdash 2 copy moveto
	2 copy vpt 180 360 arc closepath fill
	vpt 0 360 arc closepath} bind def
/C13 {BL [] 0 setdash 2 copy moveto
	2 copy vpt 0 90 arc closepath fill
	2 copy moveto
	2 copy vpt 180 360 arc closepath fill
	vpt 0 360 arc closepath} bind def
/C14 {BL [] 0 setdash 2 copy moveto
	2 copy vpt 90 360 arc closepath fill
	vpt 0 360 arc} bind def
/C15 {BL [] 0 setdash 2 copy vpt 0 360 arc closepath fill
	vpt 0 360 arc closepath} bind def
/Rec {newpath 4 2 roll moveto 1 index 0 rlineto 0 exch rlineto
	neg 0 rlineto closepath} bind def
/Square {dup Rec} bind def
/Bsquare {vpt sub exch vpt sub exch vpt2 Square} bind def
/S0 {BL [] 0 setdash 2 copy moveto 0 vpt rlineto BL Bsquare} bind def
/S1 {BL [] 0 setdash 2 copy vpt Square fill Bsquare} bind def
/S2 {BL [] 0 setdash 2 copy exch vpt sub exch vpt Square fill Bsquare} bind def
/S3 {BL [] 0 setdash 2 copy exch vpt sub exch vpt2 vpt Rec fill Bsquare} bind def
/S4 {BL [] 0 setdash 2 copy exch vpt sub exch vpt sub vpt Square fill Bsquare} bind def
/S5 {BL [] 0 setdash 2 copy 2 copy vpt Square fill
	exch vpt sub exch vpt sub vpt Square fill Bsquare} bind def
/S6 {BL [] 0 setdash 2 copy exch vpt sub exch vpt sub vpt vpt2 Rec fill Bsquare} bind def
/S7 {BL [] 0 setdash 2 copy exch vpt sub exch vpt sub vpt vpt2 Rec fill
	2 copy vpt Square fill Bsquare} bind def
/S8 {BL [] 0 setdash 2 copy vpt sub vpt Square fill Bsquare} bind def
/S9 {BL [] 0 setdash 2 copy vpt sub vpt vpt2 Rec fill Bsquare} bind def
/S10 {BL [] 0 setdash 2 copy vpt sub vpt Square fill 2 copy exch vpt sub exch vpt Square fill
	Bsquare} bind def
/S11 {BL [] 0 setdash 2 copy vpt sub vpt Square fill 2 copy exch vpt sub exch vpt2 vpt Rec fill
	Bsquare} bind def
/S12 {BL [] 0 setdash 2 copy exch vpt sub exch vpt sub vpt2 vpt Rec fill Bsquare} bind def
/S13 {BL [] 0 setdash 2 copy exch vpt sub exch vpt sub vpt2 vpt Rec fill
	2 copy vpt Square fill Bsquare} bind def
/S14 {BL [] 0 setdash 2 copy exch vpt sub exch vpt sub vpt2 vpt Rec fill
	2 copy exch vpt sub exch vpt Square fill Bsquare} bind def
/S15 {BL [] 0 setdash 2 copy Bsquare fill Bsquare} bind def
/D0 {gsave translate 45 rotate 0 0 S0 stroke grestore} bind def
/D1 {gsave translate 45 rotate 0 0 S1 stroke grestore} bind def
/D2 {gsave translate 45 rotate 0 0 S2 stroke grestore} bind def
/D3 {gsave translate 45 rotate 0 0 S3 stroke grestore} bind def
/D4 {gsave translate 45 rotate 0 0 S4 stroke grestore} bind def
/D5 {gsave translate 45 rotate 0 0 S5 stroke grestore} bind def
/D6 {gsave translate 45 rotate 0 0 S6 stroke grestore} bind def
/D7 {gsave translate 45 rotate 0 0 S7 stroke grestore} bind def
/D8 {gsave translate 45 rotate 0 0 S8 stroke grestore} bind def
/D9 {gsave translate 45 rotate 0 0 S9 stroke grestore} bind def
/D10 {gsave translate 45 rotate 0 0 S10 stroke grestore} bind def
/D11 {gsave translate 45 rotate 0 0 S11 stroke grestore} bind def
/D12 {gsave translate 45 rotate 0 0 S12 stroke grestore} bind def
/D13 {gsave translate 45 rotate 0 0 S13 stroke grestore} bind def
/D14 {gsave translate 45 rotate 0 0 S14 stroke grestore} bind def
/D15 {gsave translate 45 rotate 0 0 S15 stroke grestore} bind def
/DiaE {stroke [] 0 setdash vpt add M
  hpt neg vpt neg V hpt vpt neg V
  hpt vpt V hpt neg vpt V closepath stroke} def
/BoxE {stroke [] 0 setdash exch hpt sub exch vpt add M
  0 vpt2 neg V hpt2 0 V 0 vpt2 V
  hpt2 neg 0 V closepath stroke} def
/TriUE {stroke [] 0 setdash vpt 1.12 mul add M
  hpt neg vpt -1.62 mul V
  hpt 2 mul 0 V
  hpt neg vpt 1.62 mul V closepath stroke} def
/TriDE {stroke [] 0 setdash vpt 1.12 mul sub M
  hpt neg vpt 1.62 mul V
  hpt 2 mul 0 V
  hpt neg vpt -1.62 mul V closepath stroke} def
/PentE {stroke [] 0 setdash gsave
  translate 0 hpt M 4 {72 rotate 0 hpt L} repeat
  closepath stroke grestore} def
/CircE {stroke [] 0 setdash 
  hpt 0 360 arc stroke} def
/Opaque {gsave closepath 1 setgray fill grestore 0 setgray closepath} def
/DiaW {stroke [] 0 setdash vpt add M
  hpt neg vpt neg V hpt vpt neg V
  hpt vpt V hpt neg vpt V Opaque stroke} def
/BoxW {stroke [] 0 setdash exch hpt sub exch vpt add M
  0 vpt2 neg V hpt2 0 V 0 vpt2 V
  hpt2 neg 0 V Opaque stroke} def
/TriUW {stroke [] 0 setdash vpt 1.12 mul add M
  hpt neg vpt -1.62 mul V
  hpt 2 mul 0 V
  hpt neg vpt 1.62 mul V Opaque stroke} def
/TriDW {stroke [] 0 setdash vpt 1.12 mul sub M
  hpt neg vpt 1.62 mul V
  hpt 2 mul 0 V
  hpt neg vpt -1.62 mul V Opaque stroke} def
/PentW {stroke [] 0 setdash gsave
  translate 0 hpt M 4 {72 rotate 0 hpt L} repeat
  Opaque stroke grestore} def
/CircW {stroke [] 0 setdash 
  hpt 0 360 arc Opaque stroke} def
/BoxFill {gsave Rec 1 setgray fill grestore} def
/Density {
  /Fillden exch def
  currentrgbcolor
  /ColB exch def /ColG exch def /ColR exch def
  /ColR ColR Fillden mul Fillden sub 1 add def
  /ColG ColG Fillden mul Fillden sub 1 add def
  /ColB ColB Fillden mul Fillden sub 1 add def
  ColR ColG ColB setrgbcolor} def
/BoxColFill {gsave Rec PolyFill} def
/PolyFill {gsave Density fill grestore grestore} def
/h {rlineto rlineto rlineto gsave closepath fill grestore} bind def
%
% PostScript Level 1 Pattern Fill routine for rectangles
% Usage: x y w h s a XX PatternFill
%	x,y = lower left corner of box to be filled
%	w,h = width and height of box
%	  a = angle in degrees between lines and x-axis
%	 XX = 0/1 for no/yes cross-hatch
%
/PatternFill {gsave /PFa [ 9 2 roll ] def
  PFa 0 get PFa 2 get 2 div add PFa 1 get PFa 3 get 2 div add translate
  PFa 2 get -2 div PFa 3 get -2 div PFa 2 get PFa 3 get Rec
  TransparentPatterns {} {gsave 1 setgray fill grestore} ifelse
  clip
  currentlinewidth 0.5 mul setlinewidth
  /PFs PFa 2 get dup mul PFa 3 get dup mul add sqrt def
  0 0 M PFa 5 get rotate PFs -2 div dup translate
  0 1 PFs PFa 4 get div 1 add floor cvi
	{PFa 4 get mul 0 M 0 PFs V} for
  0 PFa 6 get ne {
	0 1 PFs PFa 4 get div 1 add floor cvi
	{PFa 4 get mul 0 2 1 roll M PFs 0 V} for
 } if
  stroke grestore} def
%
/languagelevel where
 {pop languagelevel} {1} ifelse
dup 2 lt
	{/InterpretLevel1 true def
	 /InterpretLevel3 false def}
	{/InterpretLevel1 Level1 def
	 2 gt
	    {/InterpretLevel3 Level3 def}
	    {/InterpretLevel3 false def}
	 ifelse }
 ifelse
%
% PostScript level 2 pattern fill definitions
%
/Level2PatternFill {
/Tile8x8 {/PaintType 2 /PatternType 1 /TilingType 1 /BBox [0 0 8 8] /XStep 8 /YStep 8}
	bind def
/KeepColor {currentrgbcolor [/Pattern /DeviceRGB] setcolorspace} bind def
<< Tile8x8
 /PaintProc {0.5 setlinewidth pop 0 0 M 8 8 L 0 8 M 8 0 L stroke} 
>> matrix makepattern
/Pat1 exch def
<< Tile8x8
 /PaintProc {0.5 setlinewidth pop 0 0 M 8 8 L 0 8 M 8 0 L stroke
	0 4 M 4 8 L 8 4 L 4 0 L 0 4 L stroke}
>> matrix makepattern
/Pat2 exch def
<< Tile8x8
 /PaintProc {0.5 setlinewidth pop 0 0 M 0 8 L
	8 8 L 8 0 L 0 0 L fill}
>> matrix makepattern
/Pat3 exch def
<< Tile8x8
 /PaintProc {0.5 setlinewidth pop -4 8 M 8 -4 L
	0 12 M 12 0 L stroke}
>> matrix makepattern
/Pat4 exch def
<< Tile8x8
 /PaintProc {0.5 setlinewidth pop -4 0 M 8 12 L
	0 -4 M 12 8 L stroke}
>> matrix makepattern
/Pat5 exch def
<< Tile8x8
 /PaintProc {0.5 setlinewidth pop -2 8 M 4 -4 L
	0 12 M 8 -4 L 4 12 M 10 0 L stroke}
>> matrix makepattern
/Pat6 exch def
<< Tile8x8
 /PaintProc {0.5 setlinewidth pop -2 0 M 4 12 L
	0 -4 M 8 12 L 4 -4 M 10 8 L stroke}
>> matrix makepattern
/Pat7 exch def
<< Tile8x8
 /PaintProc {0.5 setlinewidth pop 8 -2 M -4 4 L
	12 0 M -4 8 L 12 4 M 0 10 L stroke}
>> matrix makepattern
/Pat8 exch def
<< Tile8x8
 /PaintProc {0.5 setlinewidth pop 0 -2 M 12 4 L
	-4 0 M 12 8 L -4 4 M 8 10 L stroke}
>> matrix makepattern
/Pat9 exch def
/Pattern1 {PatternBgnd KeepColor Pat1 setpattern} bind def
/Pattern2 {PatternBgnd KeepColor Pat2 setpattern} bind def
/Pattern3 {PatternBgnd KeepColor Pat3 setpattern} bind def
/Pattern4 {PatternBgnd KeepColor Landscape {Pat5} {Pat4} ifelse setpattern} bind def
/Pattern5 {PatternBgnd KeepColor Landscape {Pat4} {Pat5} ifelse setpattern} bind def
/Pattern6 {PatternBgnd KeepColor Landscape {Pat9} {Pat6} ifelse setpattern} bind def
/Pattern7 {PatternBgnd KeepColor Landscape {Pat8} {Pat7} ifelse setpattern} bind def
} def
%
%
%End of PostScript Level 2 code
%
/PatternBgnd {
  TransparentPatterns {} {gsave 1 setgray fill grestore} ifelse
} def
%
% Substitute for Level 2 pattern fill codes with
% grayscale if Level 2 support is not selected.
%
/Level1PatternFill {
/Pattern1 {0.250 Density} bind def
/Pattern2 {0.500 Density} bind def
/Pattern3 {0.750 Density} bind def
/Pattern4 {0.125 Density} bind def
/Pattern5 {0.375 Density} bind def
/Pattern6 {0.625 Density} bind def
/Pattern7 {0.875 Density} bind def
} def
%
% Now test for support of Level 2 code
%
Level1 {Level1PatternFill} {Level2PatternFill} ifelse
%
/Symbol-Oblique /Symbol findfont [1 0 .167 1 0 0] makefont
dup length dict begin {1 index /FID eq {pop pop} {def} ifelse} forall
currentdict end definefont pop
%
/Metrics {ExtendTextBox Gswidth} def
/Lwidth {currentpoint stroke M 0 vshift R Metrics} def
/Rwidth {currentpoint stroke M dup stringwidth pop neg vshift R Metrics} def
/Cwidth {currentpoint stroke M dup stringwidth pop -2 div vshift R Metrics} def
/GLwidth {currentpoint stroke M 0 vshift R {ExtendTextBox} forall} def
/GRwidth {currentpoint stroke M dup Gwidth vshift R {ExtendTextBox} forall} def
/GCwidth {currentpoint stroke M dup Gwidth 2 div vshift R {ExtendTextBox} forall} def
/GLwidth2 {0 Gwidth AddGlyphWidth} def
/GRwidth2 {Gwidth -1 mul 0 AddGlyphWidth} def
/GCwidth2 {Gwidth 2 div dup -1 mul AddGlyphWidth} def
/AddGlyphWidth { dup TBx2 gt {userdict /TBx2 3 -1 roll put} {pop} ifelse
                 dup TBx1 lt {userdict /TBx1 3 -1 roll put} {pop} ifelse } def
/MFshow {
   { dup 5 get 3 ge
     { 5 get 3 eq {gsave} {grestore} ifelse }
     {dup dup 0 get findfont exch 1 get scalefont setfont
     [ currentpoint ] exch dup 2 get 0 exch R dup 5 get 2 ne {dup dup 6
     get exch 4 get {textshow} {Metrics pop 0 R} ifelse }if dup 5 get 0 eq
     {dup 3 get {2 get neg 0 exch R pop} {pop aload pop M} ifelse} {dup 5
     get 1 eq {dup 2 get exch dup 3 get exch 6 get Gswidth pop -2 div
     dup 0 R} {dup 6 get Gswidth pop -2 div 0 R 6 get
     textshow 2 index {aload pop M neg 3 -1 roll neg R pop pop} {pop pop pop
     pop aload pop M} ifelse }ifelse }ifelse }
     ifelse }
   forall} def
/Gswidth {dup type /stringtype eq {stringwidth} {pop (n) stringwidth} ifelse} def
/MFwidth {0 exch { dup 5 get 3 ge { 5 get 3 eq { 0 } { pop } ifelse }
 {dup 3 get{dup dup 0 get findfont exch 1 get scalefont setfont
     6 get Gswidth pop add} {pop} ifelse} ifelse} forall} def
/MLshow { currentpoint stroke M
  0 exch R
  Blacktext {gsave 0 setgray MFshow grestore} {MFshow} ifelse } bind def
/MRshow { currentpoint stroke M
  exch dup MFwidth neg 3 -1 roll R
  Blacktext {gsave 0 setgray MFshow grestore} {MFshow} ifelse } bind def
/MCshow { currentpoint stroke M
  exch dup MFwidth -2 div 3 -1 roll R
  Blacktext {gsave 0 setgray MFshow grestore} {MFshow} ifelse } bind def
/XYsave    { [( ) 1 2 true false 3 ()] } bind def
/XYrestore { [( ) 1 2 true false 4 ()] } bind def
Level1 SuppressPDFMark or 
{} {
/SDict 10 dict def
systemdict /pdfmark known not {
  userdict /pdfmark systemdict /cleartomark get put
} if
SDict begin [
  /Title (gnuplot_avrgFromFai_awk_SZ.eps)
  /Subject (gnuplot plot)
  /Creator (gnuplot 5.2 patchlevel 2)
%  /Producer (gnuplot)
%  /Keywords ()
  /CreationDate (Wed Aug 25 08:29:01 2021)
  /DOCINFO pdfmark
end
} ifelse
%
% Support for boxed text - Ethan A Merritt Sep 2016
%
/InitTextBox { userdict /TBy2 3 -1 roll put userdict /TBx2 3 -1 roll put
           userdict /TBy1 3 -1 roll put userdict /TBx1 3 -1 roll put
	   /Boxing true def } def
/ExtendTextBox { dup type /stringtype eq
    { Boxing { gsave dup false charpath pathbbox
      dup TBy2 gt {userdict /TBy2 3 -1 roll put} {pop} ifelse
      dup TBx2 gt {userdict /TBx2 3 -1 roll put} {pop} ifelse
      dup TBy1 lt {userdict /TBy1 3 -1 roll put} {pop} ifelse
      dup TBx1 lt {userdict /TBx1 3 -1 roll put} {pop} ifelse
      grestore } if }
    {} ifelse} def
/PopTextBox { newpath TBx1 TBxmargin sub TBy1 TBymargin sub M
               TBx1 TBxmargin sub TBy2 TBymargin add L
	       TBx2 TBxmargin add TBy2 TBymargin add L
	       TBx2 TBxmargin add TBy1 TBymargin sub L closepath } def
/DrawTextBox { PopTextBox stroke /Boxing false def} def
/FillTextBox { gsave PopTextBox fill grestore /Boxing false def} def
0 0 0 0 InitTextBox
/TBxmargin 20 def
/TBymargin 20 def
/Boxing false def
/textshow { ExtendTextBox Gshow } def
%
end
%%EndProlog
%%Page: 1 1
gnudict begin
gsave
doclip
50 50 translate
0.050 0.050 scale
0 setgray
newpath
(Helvetica) findfont 140 scalefont setfont
BackgroundColor 0 lt 3 1 roll 0 lt exch 0 lt or or not {BackgroundColor C 1.000 0 0 7200.00 5040.00 BoxColFill} if
1.000 UL
LTb
LCb setrgbcolor
770 470 M
63 0 V
6114 0 R
-63 0 V
stroke
686 470 M
[ [(Helvetica) 140.0 0.0 true true 0 (-1.00)]
] -46.7 MRshow
1.000 UL
LTb
LCb setrgbcolor
770 1572 M
63 0 V
6114 0 R
-63 0 V
stroke
686 1572 M
[ [(Helvetica) 140.0 0.0 true true 0 (-0.50)]
] -46.7 MRshow
1.000 UL
LTb
LCb setrgbcolor
770 2674 M
63 0 V
6114 0 R
-63 0 V
stroke
686 2674 M
[ [(Helvetica) 140.0 0.0 true true 0 (0.00)]
] -46.7 MRshow
1.000 UL
LTb
LCb setrgbcolor
770 3775 M
63 0 V
6114 0 R
-63 0 V
stroke
686 3775 M
[ [(Helvetica) 140.0 0.0 true true 0 (0.50)]
] -46.7 MRshow
1.000 UL
LTb
LCb setrgbcolor
770 4877 M
63 0 V
6114 0 R
-63 0 V
stroke
686 4877 M
[ [(Helvetica) 140.0 0.0 true true 0 (1.00)]
] -46.7 MRshow
1.000 UL
LTb
LCb setrgbcolor
770 448 M
0 63 V
0 4388 R
0 -63 V
stroke
770 308 M
[ [(Helvetica) 140.0 0.0 true true 0 ( 0)]
] -46.7 MCshow
1.000 UL
LTb
LCb setrgbcolor
1456 448 M
0 63 V
0 4388 R
0 -63 V
stroke
1456 308 M
[ [(Helvetica) 140.0 0.0 true true 0 ( 200)]
] -46.7 MCshow
1.000 UL
LTb
LCb setrgbcolor
2143 448 M
0 63 V
0 4388 R
0 -63 V
stroke
2143 308 M
[ [(Helvetica) 140.0 0.0 true true 0 ( 400)]
] -46.7 MCshow
1.000 UL
LTb
LCb setrgbcolor
2829 448 M
0 63 V
0 4388 R
0 -63 V
stroke
2829 308 M
[ [(Helvetica) 140.0 0.0 true true 0 ( 600)]
] -46.7 MCshow
1.000 UL
LTb
LCb setrgbcolor
3515 448 M
0 63 V
0 4388 R
0 -63 V
stroke
3515 308 M
[ [(Helvetica) 140.0 0.0 true true 0 ( 800)]
] -46.7 MCshow
1.000 UL
LTb
LCb setrgbcolor
4202 448 M
0 63 V
0 4388 R
0 -63 V
stroke
4202 308 M
[ [(Helvetica) 140.0 0.0 true true 0 ( 1000)]
] -46.7 MCshow
1.000 UL
LTb
LCb setrgbcolor
4888 448 M
0 63 V
0 4388 R
0 -63 V
stroke
4888 308 M
[ [(Helvetica) 140.0 0.0 true true 0 ( 1200)]
] -46.7 MCshow
1.000 UL
LTb
LCb setrgbcolor
5574 448 M
0 63 V
0 4388 R
0 -63 V
stroke
5574 308 M
[ [(Helvetica) 140.0 0.0 true true 0 ( 1400)]
] -46.7 MCshow
1.000 UL
LTb
LCb setrgbcolor
6261 448 M
0 63 V
0 4388 R
0 -63 V
stroke
6261 308 M
[ [(Helvetica) 140.0 0.0 true true 0 ( 1600)]
] -46.7 MCshow
1.000 UL
LTb
LCb setrgbcolor
6947 448 M
0 63 V
0 4388 R
0 -63 V
stroke
6947 308 M
[ [(Helvetica) 140.0 0.0 true true 0 ( 1800)]
] -46.7 MCshow
1.000 UL
LTb
LCb setrgbcolor
1.000 UL
LTB
LCb setrgbcolor
770 4899 N
770 448 L
6177 0 V
0 4451 V
-6177 0 V
Z stroke
1.000 UP
1.000 UL
LTb
LCb setrgbcolor
LCb setrgbcolor
126 2673 M
currentpoint gsave translate -270 rotate 0 0 moveto
[ [(Helvetica) 140.0 0.0 true true 0 (Average S)]
[(Helvetica) 112.0 -42.0 true true 0 (y)]
[(Helvetica) 140.0 0.0 true true 0 ( over particles)]
] -32.7 MCshow
grestore
LTb
LCb setrgbcolor
3858 98 M
[ [(Helvetica) 140.0 0.0 true true 0 (turns)]
] -46.7 MCshow
LTb
% Begin plot #1
0.100 UP
1.000 UL
LTb
0.93 0.51 0.93 C 773 4877 CircleF
777 4875 CircleF
780 4876 CircleF
784 4877 CircleF
787 4875 CircleF
791 4877 CircleF
794 4876 CircleF
797 4875 CircleF
801 4877 CircleF
804 4875 CircleF
808 4876 CircleF
811 4877 CircleF
815 4875 CircleF
818 4877 CircleF
821 4876 CircleF
825 4875 CircleF
828 4877 CircleF
832 4875 CircleF
835 4876 CircleF
839 4876 CircleF
842 4875 CircleF
845 4877 CircleF
849 4875 CircleF
852 4876 CircleF
856 4876 CircleF
859 4875 CircleF
863 4877 CircleF
866 4875 CircleF
870 4875 CircleF
873 4877 CircleF
876 4875 CircleF
880 4877 CircleF
883 4876 CircleF
887 4875 CircleF
890 4877 CircleF
894 4875 CircleF
897 4877 CircleF
900 4876 CircleF
904 4875 CircleF
907 4877 CircleF
911 4875 CircleF
914 4877 CircleF
918 4876 CircleF
921 4875 CircleF
924 4877 CircleF
928 4875 CircleF
931 4877 CircleF
935 4876 CircleF
938 4875 CircleF
942 4877 CircleF
945 4875 CircleF
948 4877 CircleF
952 4876 CircleF
955 4875 CircleF
959 4877 CircleF
962 4875 CircleF
966 4877 CircleF
969 4875 CircleF
972 4876 CircleF
976 4877 CircleF
979 4875 CircleF
983 4877 CircleF
986 4875 CircleF
990 4876 CircleF
993 4876 CircleF
996 4875 CircleF
1000 4877 CircleF
1003 4875 CircleF
1007 4876 CircleF
1010 4876 CircleF
1014 4875 CircleF
1017 4877 CircleF
1021 4875 CircleF
1024 4877 CircleF
1027 4875 CircleF
1031 4876 CircleF
1034 4877 CircleF
1038 4875 CircleF
1041 4877 CircleF
1045 4875 CircleF
1048 4877 CircleF
1051 4876 CircleF
1055 4875 CircleF
1058 4877 CircleF
1062 4875 CircleF
1065 4877 CircleF
1069 4875 CircleF
1072 4876 CircleF
1075 4876 CircleF
1079 4875 CircleF
1082 4877 CircleF
1086 4875 CircleF
1089 4877 CircleF
1093 4875 CircleF
1096 4876 CircleF
1099 4876 CircleF
1103 4875 CircleF
1106 4877 CircleF
1110 4875 CircleF
1113 4877 CircleF
1117 4875 CircleF
1120 4876 CircleF
1123 4876 CircleF
1127 4876 CircleF
1130 4877 CircleF
1134 4875 CircleF
1137 4877 CircleF
1141 4875 CircleF
1144 4877 CircleF
1147 4875 CircleF
1151 4876 CircleF
1154 4876 CircleF
1158 4875 CircleF
1161 4877 CircleF
1165 4875 CircleF
1168 4877 CircleF
1172 4875 CircleF
1175 4877 CircleF
1178 4875 CircleF
1182 4876 CircleF
1185 4876 CircleF
1189 4875 CircleF
1192 4877 CircleF
1196 4875 CircleF
1199 4877 CircleF
1202 4875 CircleF
1206 4877 CircleF
1209 4875 CircleF
1213 4876 CircleF
1216 4876 CircleF
1220 4876 CircleF
1223 4877 CircleF
1226 4875 CircleF
1230 4877 CircleF
1233 4875 CircleF
1237 4877 CircleF
1240 4875 CircleF
1244 4877 CircleF
1247 4875 CircleF
1250 4876 CircleF
1254 4876 CircleF
1257 4876 CircleF
1261 4877 CircleF
1264 4875 CircleF
1268 4877 CircleF
1271 4875 CircleF
1274 4877 CircleF
1278 4875 CircleF
1281 4877 CircleF
1285 4875 CircleF
1288 4876 CircleF
1292 4875 CircleF
1295 4876 CircleF
1298 4876 CircleF
1302 4875 CircleF
1305 4877 CircleF
1309 4875 CircleF
1312 4877 CircleF
1316 4875 CircleF
1319 4877 CircleF
1322 4875 CircleF
1326 4877 CircleF
1329 4875 CircleF
1333 4877 CircleF
1336 4875 CircleF
1340 4876 CircleF
1343 4875 CircleF
1347 4876 CircleF
1350 4876 CircleF
1353 4876 CircleF
1357 4876 CircleF
1360 4875 CircleF
1364 4876 CircleF
1367 4875 CircleF
1371 4877 CircleF
1374 4875 CircleF
1377 4877 CircleF
1381 4875 CircleF
1384 4877 CircleF
1388 4875 CircleF
1391 4877 CircleF
1395 4875 CircleF
1398 4877 CircleF
1401 4875 CircleF
1405 4877 CircleF
1408 4875 CircleF
1412 4877 CircleF
1415 4875 CircleF
1419 4877 CircleF
1422 4875 CircleF
1425 4877 CircleF
1429 4875 CircleF
1432 4876 CircleF
1436 4876 CircleF
1439 4876 CircleF
1443 4875 CircleF
1446 4876 CircleF
1449 4876 CircleF
1453 4876 CircleF
1456 4876 CircleF
1460 4876 CircleF
1463 4876 CircleF
1467 4876 CircleF
1470 4876 CircleF
1473 4876 CircleF
1477 4876 CircleF
1480 4876 CircleF
1484 4876 CircleF
1487 4876 CircleF
1491 4876 CircleF
1494 4876 CircleF
1498 4876 CircleF
1501 4876 CircleF
1504 4876 CircleF
1508 4876 CircleF
1511 4876 CircleF
1515 4876 CircleF
1518 4876 CircleF
1522 4876 CircleF
1525 4876 CircleF
1528 4876 CircleF
1532 4876 CircleF
1535 4876 CircleF
1539 4876 CircleF
1542 4876 CircleF
1546 4876 CircleF
1549 4876 CircleF
1552 4876 CircleF
1556 4876 CircleF
1559 4875 CircleF
1563 4876 CircleF
1566 4875 CircleF
1570 4876 CircleF
1573 4875 CircleF
1576 4877 CircleF
1580 4875 CircleF
1583 4877 CircleF
1587 4875 CircleF
1590 4877 CircleF
1594 4875 CircleF
1597 4877 CircleF
1600 4875 CircleF
1604 4877 CircleF
1607 4875 CircleF
1611 4877 CircleF
1614 4875 CircleF
1618 4877 CircleF
1621 4875 CircleF
1624 4877 CircleF
1628 4875 CircleF
1631 4876 CircleF
1635 4875 CircleF
1638 4876 CircleF
1642 4876 CircleF
1645 4876 CircleF
1649 4876 CircleF
1652 4875 CircleF
1655 4877 CircleF
1659 4875 CircleF
1662 4877 CircleF
1666 4875 CircleF
1669 4877 CircleF
1673 4875 CircleF
1676 4877 CircleF
1679 4875 CircleF
1683 4877 CircleF
1686 4875 CircleF
1690 4877 CircleF
1693 4875 CircleF
1697 4876 CircleF
1700 4876 CircleF
1703 4876 CircleF
1707 4876 CircleF
1710 4875 CircleF
1714 4877 CircleF
1717 4875 CircleF
1721 4877 CircleF
1724 4875 CircleF
1727 4877 CircleF
1731 4875 CircleF
1734 4877 CircleF
1738 4875 CircleF
1741 4876 CircleF
1745 4876 CircleF
1748 4875 CircleF
1751 4877 CircleF
1755 4875 CircleF
1758 4877 CircleF
1762 4875 CircleF
1765 4877 CircleF
1769 4875 CircleF
1772 4877 CircleF
1775 4875 CircleF
1779 4876 CircleF
1782 4876 CircleF
1786 4875 CircleF
1789 4877 CircleF
1793 4875 CircleF
1796 4877 CircleF
1800 4875 CircleF
1803 4877 CircleF
1806 4875 CircleF
1810 4876 CircleF
1813 4876 CircleF
1817 4876 CircleF
1820 4876 CircleF
1824 4875 CircleF
1827 4877 CircleF
1830 4875 CircleF
1834 4877 CircleF
1837 4875 CircleF
1841 4876 CircleF
1844 4876 CircleF
1848 4875 CircleF
1851 4877 CircleF
1854 4875 CircleF
1858 4877 CircleF
1861 4875 CircleF
1865 4877 CircleF
1868 4876 CircleF
1872 4876 CircleF
1875 4876 CircleF
1878 4875 CircleF
1882 4877 CircleF
1885 4875 CircleF
1889 4877 CircleF
1892 4875 CircleF
1896 4876 CircleF
1899 4876 CircleF
1902 4875 CircleF
1906 4877 CircleF
1909 4875 CircleF
1913 4877 CircleF
1916 4875 CircleF
1920 4876 CircleF
1923 4876 CircleF
1926 4875 CircleF
1930 4877 CircleF
1933 4875 CircleF
1937 4877 CircleF
1940 4875 CircleF
1944 4876 CircleF
1947 4876 CircleF
1950 4875 CircleF
1954 4877 CircleF
1957 4875 CircleF
1961 4877 CircleF
1964 4876 CircleF
1968 4876 CircleF
1971 4877 CircleF
1975 4875 CircleF
1978 4877 CircleF
1981 4875 CircleF
1985 4876 CircleF
1988 4876 CircleF
1992 4875 CircleF
1995 4877 CircleF
1999 4875 CircleF
2002 4877 CircleF
2005 4876 CircleF
2009 4875 CircleF
2012 4877 CircleF
2016 4875 CircleF
2019 4877 CircleF
2023 4875 CircleF
2026 4876 CircleF
2029 4876 CircleF
2033 4875 CircleF
2036 4877 CircleF
2040 4875 CircleF
2043 4876 CircleF
2047 4876 CircleF
2050 4875 CircleF
2053 4877 CircleF
2057 4875 CircleF
2060 4876 CircleF
2064 4876 CircleF
2067 4875 CircleF
2071 4877 CircleF
2074 4875 CircleF
2077 4876 CircleF
2081 4876 CircleF
2084 4875 CircleF
2088 4877 CircleF
2091 4875 CircleF
2095 4876 CircleF
2098 4876 CircleF
2101 4875 CircleF
2105 4877 CircleF
2108 4875 CircleF
2112 4876 CircleF
2115 4877 CircleF
2119 4875 CircleF
2122 4877 CircleF
2126 4875 CircleF
2129 4875 CircleF
2132 4877 CircleF
2136 4875 CircleF
2139 4877 CircleF
2143 4876 CircleF
2146 4875 CircleF
2150 4877 CircleF
2153 4875 CircleF
2156 4876 CircleF
2160 4876 CircleF
2163 4875 CircleF
2167 4877 CircleF
2170 4875 CircleF
2174 4876 CircleF
2177 4877 CircleF
2180 4875 CircleF
2184 4877 CircleF
2187 4876 CircleF
2191 4875 CircleF
2194 4877 CircleF
2198 4875 CircleF
2201 4876 CircleF
2204 4876 CircleF
2208 4875 CircleF
2211 4877 CircleF
2215 4875 CircleF
2218 4875 CircleF
2222 4877 CircleF
2225 4875 CircleF
2228 4876 CircleF
2232 4876 CircleF
2235 4875 CircleF
2239 4877 CircleF
2242 4875 CircleF
2246 4875 CircleF
2249 4877 CircleF
2252 4875 CircleF
2256 4876 CircleF
2259 4877 CircleF
2263 4875 CircleF
2266 4877 CircleF
2270 4876 CircleF
2273 4875 CircleF
2277 4877 CircleF
2280 4875 CircleF
2283 4875 CircleF
2287 4877 CircleF
2290 4875 CircleF
2294 4876 CircleF
2297 4876 CircleF
2301 4875 CircleF
2304 4876 CircleF
2307 4876 CircleF
2311 4875 CircleF
2314 4877 CircleF
2318 4875 CircleF
2321 4875 CircleF
2325 4877 CircleF
2328 4875 CircleF
2331 4876 CircleF
2335 4877 CircleF
2338 4875 CircleF
2342 4876 CircleF
2345 4877 CircleF
2349 4875 CircleF
2352 4876 CircleF
2355 4876 CircleF
2359 4875 CircleF
2362 4877 CircleF
2366 4876 CircleF
2369 4875 CircleF
2373 4877 CircleF
2376 4876 CircleF
2379 4875 CircleF
2383 4877 CircleF
2386 4875 CircleF
2390 4875 CircleF
2393 4877 CircleF
2397 4875 CircleF
2400 4875 CircleF
2403 4877 CircleF
2407 4875 CircleF
2410 4876 CircleF
2414 4877 CircleF
2417 4875 CircleF
2421 4876 CircleF
2424 4877 CircleF
2427 4875 CircleF
2431 4876 CircleF
2434 4877 CircleF
2438 4875 CircleF
2441 4876 CircleF
2445 4877 CircleF
2448 4874 CircleF
2452 4876 CircleF
2455 4877 CircleF
2458 4875 CircleF
2462 4876 CircleF
2465 4877 CircleF
2469 4874 CircleF
2472 4876 CircleF
2476 4877 CircleF
2479 4875 CircleF
2482 4876 CircleF
2486 4877 CircleF
2489 4874 CircleF
2493 4876 CircleF
2496 4877 CircleF
2500 4875 CircleF
2503 4876 CircleF
2506 4877 CircleF
2510 4875 CircleF
2513 4875 CircleF
2517 4877 CircleF
2520 4875 CircleF
2524 4875 CircleF
2527 4877 CircleF
2530 4875 CircleF
2534 4875 CircleF
2537 4877 CircleF
2541 4875 CircleF
2544 4875 CircleF
2548 4877 CircleF
2551 4876 CircleF
2554 4875 CircleF
2558 4877 CircleF
2561 4876 CircleF
2565 4874 CircleF
2568 4876 CircleF
2572 4877 CircleF
2575 4875 CircleF
2578 4876 CircleF
2582 4877 CircleF
2585 4875 CircleF
2589 4875 CircleF
2592 4877 CircleF
2596 4875 CircleF
2599 4875 CircleF
2603 4877 CircleF
2606 4876 CircleF
2609 4875 CircleF
2613 4876 CircleF
2616 4876 CircleF
2620 4874 CircleF
2623 4876 CircleF
2627 4877 CircleF
2630 4875 CircleF
2633 4875 CircleF
2637 4877 CircleF
2640 4875 CircleF
2644 4874 CircleF
2647 4877 CircleF
2651 4876 CircleF
2654 4874 CircleF
2657 4876 CircleF
2661 4877 CircleF
2664 4875 CircleF
2668 4875 CircleF
2671 4877 CircleF
2675 4875 CircleF
2678 4874 CircleF
2681 4876 CircleF
2685 4877 CircleF
2688 4875 CircleF
2692 4875 CircleF
2695 4877 CircleF
2699 4875 CircleF
2702 4875 CircleF
2705 4877 CircleF
2709 4876 CircleF
2712 4874 CircleF
2716 4876 CircleF
2719 4877 CircleF
2723 4875 CircleF
2726 4875 CircleF
2729 4877 CircleF
2733 4876 CircleF
2736 4874 CircleF
2740 4876 CircleF
2743 4877 CircleF
2747 4875 CircleF
2750 4875 CircleF
2754 4877 CircleF
2757 4876 CircleF
2760 4874 CircleF
2764 4876 CircleF
2767 4877 CircleF
2771 4875 CircleF
2774 4874 CircleF
2778 4877 CircleF
2781 4876 CircleF
2784 4874 CircleF
2788 4875 CircleF
2791 4877 CircleF
2795 4875 CircleF
2798 4874 CircleF
2802 4876 CircleF
2805 4877 CircleF
2808 4874 CircleF
2812 4874 CircleF
2815 4877 CircleF
2819 4876 CircleF
2822 4874 CircleF
2826 4875 CircleF
2829 4877 CircleF
2832 4875 CircleF
2836 4874 CircleF
2839 4876 CircleF
2843 4877 CircleF
2846 4875 CircleF
2850 4874 CircleF
2853 4876 CircleF
2856 4877 CircleF
2860 4874 CircleF
2863 4874 CircleF
2867 4877 CircleF
2870 4876 CircleF
2874 4874 CircleF
2877 4875 CircleF
2880 4877 CircleF
2884 4876 CircleF
2887 4873 CircleF
2891 4875 CircleF
2894 4877 CircleF
2898 4876 CircleF
2901 4874 CircleF
2904 4875 CircleF
2908 4877 CircleF
2911 4875 CircleF
2915 4874 CircleF
2918 4875 CircleF
2922 4877 CircleF
2925 4875 CircleF
2929 4873 CircleF
2932 4875 CircleF
2935 4877 CircleF
2939 4875 CircleF
2942 4873 CircleF
2946 4875 CircleF
2949 4877 CircleF
2953 4875 CircleF
2956 4874 CircleF
2959 4875 CircleF
2963 4877 CircleF
2966 4875 CircleF
2970 4873 CircleF
2973 4875 CircleF
2977 4877 CircleF
2980 4875 CircleF
2983 4873 CircleF
2987 4875 CircleF
2990 4877 CircleF
2994 4876 CircleF
2997 4874 CircleF
3001 4874 CircleF
3004 4877 CircleF
3007 4876 CircleF
3011 4874 CircleF
3014 4874 CircleF
3018 4876 CircleF
3021 4877 CircleF
3025 4874 CircleF
3028 4874 CircleF
3031 4876 CircleF
3035 4877 CircleF
3038 4875 CircleF
3042 4873 CircleF
3045 4875 CircleF
3049 4877 CircleF
3052 4876 CircleF
3055 4873 CircleF
3059 4874 CircleF
3062 4876 CircleF
3066 4877 CircleF
3069 4874 CircleF
3073 4873 CircleF
3076 4876 CircleF
3080 4877 CircleF
3083 4875 CircleF
3086 4873 CircleF
3090 4875 CircleF
3093 4877 CircleF
3097 4876 CircleF
3100 4874 CircleF
3104 4873 CircleF
3107 4876 CircleF
3110 4877 CircleF
3114 4875 CircleF
3117 4873 CircleF
3121 4874 CircleF
3124 4877 CircleF
3128 4876 CircleF
3131 4874 CircleF
3134 4873 CircleF
3138 4875 CircleF
3141 4877 CircleF
3145 4876 CircleF
3148 4873 CircleF
3152 4874 CircleF
3155 4876 CircleF
3158 4877 CircleF
3162 4875 CircleF
3165 4873 CircleF
3169 4874 CircleF
3172 4877 CircleF
3176 4876 CircleF
3179 4874 CircleF
3182 4873 CircleF
3186 4875 CircleF
3189 4877 CircleF
3193 4876 CircleF
3196 4873 CircleF
3200 4873 CircleF
3203 4875 CircleF
3206 4877 CircleF
3210 4876 CircleF
3213 4873 CircleF
3217 4873 CircleF
3220 4875 CircleF
3224 4877 CircleF
3227 4876 CircleF
3231 4873 CircleF
3234 4873 CircleF
3237 4875 CircleF
3241 4877 CircleF
3244 4876 CircleF
3248 4873 CircleF
3251 4873 CircleF
3255 4875 CircleF
3258 4877 CircleF
3261 4876 CircleF
3265 4874 CircleF
3268 4872 CircleF
3272 4874 CircleF
3275 4876 CircleF
3279 4877 CircleF
3282 4874 CircleF
3285 4872 CircleF
3289 4873 CircleF
3292 4876 CircleF
3296 4877 CircleF
3299 4875 CircleF
3303 4873 CircleF
3306 4873 CircleF
3309 4875 CircleF
3313 4877 CircleF
3316 4876 CircleF
3320 4874 CircleF
3323 4872 CircleF
3327 4874 CircleF
3330 4876 CircleF
3333 4877 CircleF
3337 4875 CircleF
3340 4872 CircleF
3344 4873 CircleF
3347 4875 CircleF
3351 4877 CircleF
3354 4876 CircleF
3357 4874 CircleF
3361 4872 CircleF
3364 4873 CircleF
3368 4876 CircleF
3371 4877 CircleF
3375 4875 CircleF
3378 4873 CircleF
3381 4872 CircleF
3385 4874 CircleF
3388 4876 CircleF
3392 4877 CircleF
3395 4875 CircleF
3399 4872 CircleF
3402 4872 CircleF
3406 4874 CircleF
3409 4877 CircleF
3412 4876 CircleF
3416 4874 CircleF
3419 4872 CircleF
3423 4872 CircleF
3426 4874 CircleF
3430 4877 CircleF
3433 4876 CircleF
3436 4874 CircleF
3440 4872 CircleF
3443 4872 CircleF
3447 4874 CircleF
3450 4876 CircleF
3454 4876 CircleF
3457 4874 CircleF
3460 4872 CircleF
3464 4872 CircleF
3467 4874 CircleF
3471 4876 CircleF
3474 4877 CircleF
3478 4875 CircleF
3481 4872 CircleF
3484 4871 CircleF
3488 4873 CircleF
3491 4875 CircleF
3495 4877 CircleF
3498 4876 CircleF
3502 4874 CircleF
3505 4872 CircleF
3508 4872 CircleF
3512 4873 CircleF
3515 4876 CircleF
3519 4877 CircleF
3522 4875 CircleF
3526 4873 CircleF
3529 4871 CircleF
3532 4872 CircleF
3536 4874 CircleF
3539 4876 CircleF
3543 4876 CircleF
3546 4875 CircleF
3550 4872 CircleF
3553 4871 CircleF
3557 4871 CircleF
3560 4874 CircleF
3563 4876 CircleF
3567 4876 CircleF
3570 4875 CircleF
3574 4872 CircleF
3577 4870 CircleF
3581 4871 CircleF
3584 4873 CircleF
3587 4875 CircleF
3591 4876 CircleF
3594 4875 CircleF
3598 4873 CircleF
3601 4871 CircleF
3605 4871 CircleF
3608 4872 CircleF
3611 4874 CircleF
3615 4876 CircleF
3618 4876 CircleF
3622 4874 CircleF
3625 4872 CircleF
3629 4870 CircleF
3632 4870 CircleF
3635 4872 CircleF
3639 4875 CircleF
3642 4876 CircleF
3646 4876 CircleF
3649 4873 CircleF
3653 4871 CircleF
3656 4870 CircleF
3659 4871 CircleF
3663 4873 CircleF
3666 4875 CircleF
3670 4876 CircleF
3673 4875 CircleF
3677 4874 CircleF
3680 4871 CircleF
3683 4870 CircleF
3687 4870 CircleF
3690 4872 CircleF
3694 4874 CircleF
3697 4876 CircleF
3701 4876 CircleF
3704 4874 CircleF
3708 4871 CircleF
3711 4869 CircleF
3714 4869 CircleF
3718 4871 CircleF
3721 4873 CircleF
3725 4875 CircleF
3728 4876 CircleF
3732 4875 CircleF
3735 4873 CircleF
3738 4871 CircleF
3742 4869 CircleF
3745 4868 CircleF
3749 4870 CircleF
3752 4873 CircleF
3756 4875 CircleF
3759 4876 CircleF
3762 4875 CircleF
3766 4872 CircleF
3769 4870 CircleF
3773 4869 CircleF
3776 4868 CircleF
3780 4869 CircleF
3783 4871 CircleF
3786 4874 CircleF
3790 4875 CircleF
3793 4875 CircleF
3797 4874 CircleF
3800 4871 CircleF
3804 4868 CircleF
3807 4867 CircleF
3810 4868 CircleF
3814 4869 CircleF
3817 4871 CircleF
3821 4873 CircleF
3824 4875 CircleF
3828 4875 CircleF
3831 4874 CircleF
3834 4871 CircleF
3838 4869 CircleF
3841 4866 CircleF
3845 4866 CircleF
3848 4867 CircleF
3852 4869 CircleF
3855 4871 CircleF
3859 4873 CircleF
3862 4874 CircleF
3865 4874 CircleF
3869 4873 CircleF
3872 4871 CircleF
3876 4868 CircleF
3879 4865 CircleF
3883 4865 CircleF
3886 4865 CircleF
3889 4867 CircleF
3893 4869 CircleF
3896 4871 CircleF
3900 4873 CircleF
3903 4874 CircleF
3907 4873 CircleF
3910 4872 CircleF
3913 4869 CircleF
3917 4866 CircleF
3920 4864 CircleF
3924 4863 CircleF
3927 4864 CircleF
3931 4864 CircleF
3934 4866 CircleF
3937 4868 CircleF
3941 4871 CircleF
3944 4872 CircleF
3948 4873 CircleF
3951 4872 CircleF
3955 4870 CircleF
3958 4868 CircleF
3961 4866 CircleF
3965 4864 CircleF
3968 4862 CircleF
3972 4860 CircleF
3975 4861 CircleF
3979 4862 CircleF
3982 4865 CircleF
3985 4867 CircleF
3989 4869 CircleF
3992 4870 CircleF
3996 4871 CircleF
3999 4871 CircleF
4003 4870 CircleF
4006 4868 CircleF
4009 4864 CircleF
4013 4862 CircleF
4016 4860 CircleF
4020 4858 CircleF
4023 4858 CircleF
4027 4858 CircleF
4030 4858 CircleF
4034 4860 CircleF
4037 4863 CircleF
4040 4865 CircleF
4044 4867 CircleF
4047 4868 CircleF
4051 4868 CircleF
4054 4868 CircleF
4058 4867 CircleF
4061 4865 CircleF
4064 4863 CircleF
4068 4859 CircleF
4071 4856 CircleF
4075 4854 CircleF
4078 4853 CircleF
4082 4852 CircleF
4085 4851 CircleF
4088 4851 CircleF
4092 4852 CircleF
4095 4855 CircleF
4099 4857 CircleF
4102 4859 CircleF
4106 4860 CircleF
4109 4861 CircleF
4112 4862 CircleF
4116 4863 CircleF
4119 4863 CircleF
4123 4861 CircleF
4126 4859 CircleF
4130 4856 CircleF
4133 4854 CircleF
4136 4851 CircleF
4140 4848 CircleF
4143 4844 CircleF
4147 4840 CircleF
4150 4838 CircleF
4154 4837 CircleF
4157 4836 CircleF
4160 4834 CircleF
4164 4833 CircleF
4167 4833 CircleF
4171 4834 CircleF
4174 4836 CircleF
4178 4837 CircleF
4181 4837 CircleF
4185 4838 CircleF
4188 4839 CircleF
4191 4840 CircleF
4195 4841 CircleF
4198 4840 CircleF
4202 4839 CircleF
4205 4837 CircleF
4209 4836 CircleF
4212 4834 CircleF
4215 4832 CircleF
4219 4827 CircleF
4222 4823 CircleF
4226 4818 CircleF
4229 4815 CircleF
4233 4810 CircleF
4236 4804 CircleF
4239 4797 CircleF
4243 4791 CircleF
4246 4785 CircleF
4250 4780 CircleF
4253 4773 CircleF
4257 4766 CircleF
4260 4758 CircleF
4263 4751 CircleF
4267 4746 CircleF
4270 4740 CircleF
4274 4732 CircleF
4277 4724 CircleF
4281 4716 CircleF
4284 4710 CircleF
4287 4704 CircleF
4291 4696 CircleF
4294 4687 CircleF
4298 4677 CircleF
4301 4669 CircleF
4305 4661 CircleF
4308 4653 CircleF
4311 4641 CircleF
4315 4629 CircleF
4318 4617 CircleF
4322 4606 CircleF
4325 4594 CircleF
4329 4580 CircleF
4332 4563 CircleF
4336 4546 CircleF
4339 4528 CircleF
4342 4512 CircleF
4346 4493 CircleF
4349 4471 CircleF
4353 4445 CircleF
4356 4420 CircleF
4360 4395 CircleF
4363 4369 CircleF
4366 4339 CircleF
4370 4305 CircleF
4373 4268 CircleF
4377 4231 CircleF
4380 4194 CircleF
4384 4154 CircleF
4387 4109 CircleF
4390 4059 CircleF
4394 4008 CircleF
4397 3956 CircleF
4401 3902 CircleF
4404 3843 CircleF
4408 3780 CircleF
4411 3713 CircleF
4414 3644 CircleF
4418 3574 CircleF
4421 3501 CircleF
4425 3423 CircleF
4428 3341 CircleF
4432 3258 CircleF
4435 3174 CircleF
4438 3087 CircleF
4442 2998 CircleF
4445 2908 CircleF
4449 2818 CircleF
4452 2728 CircleF
4456 2639 CircleF
4459 2549 CircleF
4462 2461 CircleF
4466 2379 CircleF
4469 2303 CircleF
4473 2230 CircleF
4476 2160 CircleF
4480 2097 CircleF
4483 2044 CircleF
4486 2004 CircleF
4490 1974 CircleF
4493 1951 CircleF
4497 1936 CircleF
4500 1936 CircleF
4504 1953 CircleF
4507 1983 CircleF
4511 2022 CircleF
4514 2070 CircleF
4517 2130 CircleF
4521 2202 CircleF
4524 2283 CircleF
4528 2369 CircleF
4531 2457 CircleF
4535 2548 CircleF
4538 2638 CircleF
4541 2723 CircleF
4545 2796 CircleF
4548 2861 CircleF
4552 2916 CircleF
4555 2957 CircleF
4559 2978 CircleF
4562 2977 CircleF
4565 2957 CircleF
4569 2922 CircleF
4572 2873 CircleF
4576 2806 CircleF
4579 2725 CircleF
4583 2637 CircleF
4586 2548 CircleF
4589 2459 CircleF
4593 2375 CircleF
4596 2303 CircleF
4600 2251 CircleF
4603 2220 CircleF
4607 2208 CircleF
4610 2215 CircleF
4613 2247 CircleF
4617 2304 CircleF
4620 2379 CircleF
4624 2462 CircleF
4627 2551 CircleF
4631 2642 CircleF
4634 2724 CircleF
4637 2788 CircleF
4641 2829 CircleF
4644 2848 CircleF
4648 2845 CircleF
4651 2814 CircleF
4655 2754 CircleF
4658 2676 CircleF
4662 2589 CircleF
4665 2500 CircleF
4668 2413 CircleF
4672 2342 CircleF
4675 2298 CircleF
4679 2282 CircleF
4682 2293 CircleF
4686 2330 CircleF
4689 2393 CircleF
4692 2478 CircleF
4696 2568 CircleF
4699 2653 CircleF
4703 2727 CircleF
4706 2781 CircleF
4710 2803 CircleF
4713 2789 CircleF
4716 2743 CircleF
4720 2674 CircleF
4723 2590 CircleF
4727 2497 CircleF
4730 2414 CircleF
4734 2355 CircleF
4737 2325 CircleF
4740 2325 CircleF
4744 2359 CircleF
4747 2425 CircleF
4751 2512 CircleF
4754 2601 CircleF
4758 2680 CircleF
4761 2740 CircleF
4764 2770 CircleF
4768 2758 CircleF
4771 2706 CircleF
4775 2631 CircleF
4778 2543 CircleF
4782 2455 CircleF
4785 2383 CircleF
4788 2347 CircleF
4792 2353 CircleF
4795 2395 CircleF
4799 2466 CircleF
4802 2555 CircleF
4806 2645 CircleF
4809 2710 CircleF
4813 2739 CircleF
4816 2730 CircleF
4819 2684 CircleF
4823 2605 CircleF
4826 2513 CircleF
4830 2433 CircleF
4833 2383 CircleF
4837 2370 CircleF
4840 2399 CircleF
4843 2468 CircleF
4847 2559 CircleF
4850 2643 CircleF
4854 2702 CircleF
4857 2725 CircleF
4861 2701 CircleF
4864 2632 CircleF
4867 2543 CircleF
4871 2460 CircleF
4874 2402 CircleF
4878 2382 CircleF
4881 2414 CircleF
4885 2490 CircleF
4888 2579 CircleF
4891 2657 CircleF
4895 2705 CircleF
4898 2705 CircleF
4902 2652 CircleF
4905 2567 CircleF
4909 2481 CircleF
4912 2417 CircleF
4915 2395 CircleF
4919 2427 CircleF
4922 2505 CircleF
4926 2594 CircleF
4929 2666 CircleF
4933 2699 CircleF
4936 2678 CircleF
4939 2607 CircleF
4943 2515 CircleF
4946 2442 CircleF
4950 2408 CircleF
4953 2426 CircleF
4957 2496 CircleF
4960 2588 CircleF
4963 2660 CircleF
4967 2688 CircleF
4970 2663 CircleF
4974 2589 CircleF
4977 2496 CircleF
4981 2429 CircleF
4984 2416 CircleF
4988 2457 CircleF
4991 2539 CircleF
4994 2629 CircleF
4998 2682 CircleF
5001 2673 CircleF
5005 2612 CircleF
5008 2524 CircleF
5012 2444 CircleF
5015 2415 CircleF
5018 2453 CircleF
5022 2533 CircleF
5025 2618 CircleF
5029 2675 CircleF
5032 2669 CircleF
5036 2601 CircleF
5039 2511 CircleF
5042 2444 CircleF
5046 2428 CircleF
5049 2475 CircleF
5053 2565 CircleF
5056 2645 CircleF
5060 2672 CircleF
5063 2638 CircleF
5066 2557 CircleF
5070 2467 CircleF
5073 2425 CircleF
5077 2454 CircleF
5080 2531 CircleF
5084 2617 CircleF
5087 2669 CircleF
5090 2651 CircleF
5094 2573 CircleF
5097 2486 CircleF
5101 2438 CircleF
5104 2452 CircleF
5108 2528 CircleF
5111 2619 CircleF
5114 2664 CircleF
5118 2641 CircleF
5121 2566 CircleF
5125 2478 CircleF
5128 2433 CircleF
5132 2465 CircleF
5135 2548 CircleF
5139 2628 CircleF
5142 2660 CircleF
5145 2621 CircleF
5149 2530 CircleF
5152 2456 CircleF
5156 2446 CircleF
5159 2502 CircleF
5163 2592 CircleF
5166 2657 CircleF
5169 2645 CircleF
5173 2569 CircleF
5176 2485 CircleF
5180 2445 CircleF
5183 2480 CircleF
5187 2570 CircleF
5190 2644 CircleF
5193 2647 CircleF
5197 2584 CircleF
5200 2494 CircleF
5204 2444 CircleF
5207 2477 CircleF
5211 2564 CircleF
5214 2635 CircleF
5217 2643 CircleF
5221 2578 CircleF
5224 2485 CircleF
5228 2446 CircleF
5231 2490 CircleF
5235 2576 CircleF
5238 2643 CircleF
5241 2634 CircleF
5245 2551 CircleF
5248 2470 CircleF
5252 2458 CircleF
5255 2519 CircleF
5259 2609 CircleF
5262 2651 CircleF
5265 2602 CircleF
5269 2512 CircleF
5272 2459 CircleF
5276 2483 CircleF
5279 2571 CircleF
5283 2642 CircleF
5286 2627 CircleF
5290 2546 CircleF
5293 2472 CircleF
5296 2467 CircleF
5300 2545 CircleF
5303 2629 CircleF
5307 2635 CircleF
5310 2566 CircleF
5314 2482 CircleF
5317 2462 CircleF
5320 2532 CircleF
5324 2619 CircleF
5327 2635 CircleF
5331 2572 CircleF
5334 2484 CircleF
5338 2461 CircleF
5341 2532 CircleF
5344 2616 CircleF
5348 2631 CircleF
5351 2565 CircleF
5355 2479 CircleF
5358 2467 CircleF
5362 2545 CircleF
5365 2622 CircleF
5368 2624 CircleF
5372 2546 CircleF
5375 2467 CircleF
5379 2480 CircleF
5382 2566 CircleF
5386 2629 CircleF
5389 2608 CircleF
5392 2518 CircleF
5396 2462 CircleF
5399 2507 CircleF
5403 2595 CircleF
5406 2631 CircleF
5410 2575 CircleF
5413 2484 CircleF
5416 2470 CircleF
5420 2547 CircleF
5423 2621 CircleF
5427 2614 CircleF
5430 2528 CircleF
5434 2465 CircleF
5437 2505 CircleF
5440 2594 CircleF
5444 2628 CircleF
5447 2569 CircleF
5451 2480 CircleF
5454 2478 CircleF
5458 2562 CircleF
5461 2626 CircleF
5465 2598 CircleF
5468 2507 CircleF
5471 2468 CircleF
5475 2535 CircleF
5478 2616 CircleF
5482 2614 CircleF
5485 2531 CircleF
5489 2468 CircleF
5492 2514 CircleF
5495 2605 CircleF
5499 2621 CircleF
5502 2548 CircleF
5506 2475 CircleF
5509 2503 CircleF
5513 2597 CircleF
5516 2626 CircleF
5519 2558 CircleF
5523 2481 CircleF
5526 2498 CircleF
5530 2592 CircleF
5533 2626 CircleF
5537 2559 CircleF
5540 2483 CircleF
5543 2498 CircleF
5547 2591 CircleF
5550 2626 CircleF
5554 2553 CircleF
5557 2482 CircleF
5561 2506 CircleF
5564 2597 CircleF
5567 2622 CircleF
5571 2541 CircleF
5574 2478 CircleF
5578 2518 CircleF
5581 2605 CircleF
5585 2611 CircleF
5588 2520 CircleF
5591 2475 CircleF
5595 2538 CircleF
5598 2614 CircleF
5602 2592 CircleF
5605 2498 CircleF
5609 2484 CircleF
5612 2568 CircleF
5616 2620 CircleF
5619 2565 CircleF
5622 2483 CircleF
5626 2509 CircleF
5629 2601 CircleF
5633 2611 CircleF
5636 2529 CircleF
5640 2480 CircleF
5643 2549 CircleF
5646 2622 CircleF
5650 2577 CircleF
5653 2494 CircleF
5657 2501 CircleF
5660 2592 CircleF
5664 2612 CircleF
5667 2525 CircleF
5670 2482 CircleF
5674 2547 CircleF
5677 2617 CircleF
5681 2568 CircleF
5684 2484 CircleF
5688 2513 CircleF
5691 2599 CircleF
5694 2601 CircleF
5698 2510 CircleF
5701 2489 CircleF
5705 2578 CircleF
5708 2615 CircleF
5712 2543 CircleF
5715 2484 CircleF
5718 2548 CircleF
5722 2620 CircleF
5725 2566 CircleF
5729 2490 CircleF
5732 2520 CircleF
5736 2608 CircleF
5739 2586 CircleF
5742 2494 CircleF
5746 2504 CircleF
5749 2590 CircleF
5753 2599 CircleF
5756 2507 CircleF
5760 2492 CircleF
5763 2582 CircleF
5767 2607 CircleF
5770 2525 CircleF
5773 2488 CircleF
5777 2574 CircleF
5780 2613 CircleF
5784 2534 CircleF
5787 2489 CircleF
5791 2562 CircleF
5794 2616 CircleF
5797 2537 CircleF
5801 2487 CircleF
5804 2558 CircleF
5808 2613 CircleF
5811 2543 CircleF
5815 2486 CircleF
5818 2562 CircleF
5821 2614 CircleF
5825 2546 CircleF
5828 2490 CircleF
5832 2563 CircleF
5835 2616 CircleF
5839 2537 CircleF
5842 2491 CircleF
5845 2564 CircleF
5849 2611 CircleF
5852 2528 CircleF
5856 2490 CircleF
5859 2574 CircleF
5863 2605 CircleF
5866 2523 CircleF
5869 2496 CircleF
5873 2589 CircleF
5876 2598 CircleF
5880 2510 CircleF
5883 2505 CircleF
5887 2594 CircleF
5890 2584 CircleF
5893 2492 CircleF
5897 2519 CircleF
5900 2601 CircleF
5904 2568 CircleF
5907 2487 CircleF
5911 2542 CircleF
5914 2609 CircleF
5918 2543 CircleF
5921 2488 CircleF
5924 2562 CircleF
5928 2602 CircleF
5931 2512 CircleF
5935 2497 CircleF
5938 2584 CircleF
5942 2583 CircleF
5945 2494 CircleF
5948 2522 CircleF
5952 2605 CircleF
5955 2552 CircleF
5959 2486 CircleF
5962 2552 CircleF
5966 2600 CircleF
5969 2511 CircleF
5972 2495 CircleF
5976 2584 CircleF
5979 2576 CircleF
5983 2489 CircleF
5986 2530 CircleF
5990 2603 CircleF
5993 2533 CircleF
5996 2487 CircleF
6000 2568 CircleF
6003 2584 CircleF
6007 2490 CircleF
6010 2517 CircleF
6014 2596 CircleF
6017 2543 CircleF
6020 2484 CircleF
6024 2567 CircleF
6027 2585 CircleF
6031 2494 CircleF
6034 2514 CircleF
6038 2594 CircleF
6041 2536 CircleF
6044 2484 CircleF
6048 2573 CircleF
6051 2580 CircleF
6055 2493 CircleF
6058 2526 CircleF
6062 2598 CircleF
6065 2520 CircleF
6068 2493 CircleF
6072 2581 CircleF
6075 2566 CircleF
6079 2486 CircleF
6082 2554 CircleF
6086 2593 CircleF
6089 2504 CircleF
6093 2514 CircleF
6096 2595 CircleF
6099 2534 CircleF
6103 2491 CircleF
6106 2582 CircleF
6110 2570 CircleF
6113 2490 CircleF
6117 2552 CircleF
6120 2591 CircleF
6123 2498 CircleF
6127 2521 CircleF
6130 2595 CircleF
6134 2527 CircleF
6137 2498 CircleF
6141 2592 CircleF
6144 2550 CircleF
6147 2488 CircleF
6151 2566 CircleF
6154 2574 CircleF
6158 2485 CircleF
6161 2549 CircleF
6165 2589 CircleF
6168 2502 CircleF
6171 2523 CircleF
6175 2596 CircleF
6178 2512 CircleF
6182 2508 CircleF
6185 2592 CircleF
6189 2539 CircleF
6192 2496 CircleF
6195 2589 CircleF
6199 2551 CircleF
6202 2489 CircleF
6206 2571 CircleF
6209 2569 CircleF
6213 2487 CircleF
6216 2565 CircleF
6219 2578 CircleF
6223 2492 CircleF
6226 2544 CircleF
6230 2586 CircleF
6233 2493 CircleF
6237 2539 CircleF
6240 2591 CircleF
6244 2505 CircleF
6247 2525 CircleF
6250 2594 CircleF
6254 2505 CircleF
6257 2522 CircleF
6261 2594 CircleF
6264 2519 CircleF
6268 2514 CircleF
6271 2596 CircleF
6274 2516 CircleF
6278 2510 CircleF
6281 2592 CircleF
6285 2526 CircleF
6288 2507 CircleF
6292 2595 CircleF
6295 2521 CircleF
6298 2506 CircleF
6302 2590 CircleF
6305 2527 CircleF
6309 2508 CircleF
6312 2596 CircleF
6316 2522 CircleF
6319 2508 CircleF
6322 2591 CircleF
6326 2522 CircleF
6329 2513 CircleF
6333 2595 CircleF
6336 2516 CircleF
6340 2514 CircleF
6343 2591 CircleF
6346 2510 CircleF
6350 2525 CircleF
6353 2593 CircleF
6357 2506 CircleF
6360 2529 CircleF
6364 2589 CircleF
6367 2497 CircleF
6370 2546 CircleF
6374 2583 CircleF
6377 2496 CircleF
6381 2551 CircleF
6384 2574 CircleF
6388 2489 CircleF
6391 2570 CircleF
6395 2562 CircleF
6398 2493 CircleF
6401 2578 CircleF
6405 2544 CircleF
6408 2500 CircleF
6412 2591 CircleF
6415 2530 CircleF
6419 2510 CircleF
6422 2591 CircleF
6425 2506 CircleF
6429 2533 CircleF
6432 2587 CircleF
6436 2498 CircleF
6439 2551 CircleF
6443 2571 CircleF
6446 2490 CircleF
6449 2578 CircleF
6453 2551 CircleF
6456 2499 CircleF
6460 2588 CircleF
6463 2519 CircleF
6467 2521 CircleF
6470 2590 CircleF
6473 2503 CircleF
6477 2544 CircleF
6480 2574 CircleF
6484 2491 CircleF
6487 2578 CircleF
6491 2548 CircleF
6494 2501 CircleF
6497 2589 CircleF
6501 2512 CircleF
6504 2532 CircleF
6508 2584 CircleF
6511 2496 CircleF
6515 2561 CircleF
6518 2557 CircleF
6521 2498 CircleF
6525 2590 CircleF
6528 2523 CircleF
6532 2522 CircleF
6535 2585 CircleF
6539 2493 CircleF
6542 2567 CircleF
6545 2556 CircleF
6549 2498 CircleF
6552 2586 CircleF
6556 2517 CircleF
6559 2534 CircleF
6563 2581 CircleF
6566 2494 CircleF
6570 2568 CircleF
6573 2546 CircleF
6576 2508 CircleF
6580 2592 CircleF
6583 2504 CircleF
6587 2545 CircleF
6590 2570 CircleF
6594 2495 CircleF
6597 2588 CircleF
6600 2519 CircleF
6604 2525 CircleF
6607 2583 CircleF
6611 2495 CircleF
6614 2576 CircleF
6618 2537 CircleF
6621 2512 CircleF
6624 2588 CircleF
6628 2501 CircleF
6631 2560 CircleF
6635 2551 CircleF
6638 2503 CircleF
6642 2590 CircleF
6645 2509 CircleF
6648 2548 CircleF
6652 2562 CircleF
6655 2498 CircleF
6659 2589 CircleF
6662 2513 CircleF
6666 2540 CircleF
6669 2569 CircleF
6672 2497 CircleF
6676 2589 CircleF
6679 2513 CircleF
6683 2537 CircleF
6686 2571 CircleF
6690 2497 CircleF
6693 2589 CircleF
6696 2511 CircleF
6700 2541 CircleF
6703 2570 CircleF
6707 2498 CircleF
6710 2589 CircleF
6714 2505 CircleF
6717 2549 CircleF
6721 2565 CircleF
6724 2500 CircleF
6727 2588 CircleF
6731 2500 CircleF
6734 2561 CircleF
6738 2552 CircleF
6741 2507 CircleF
6745 2587 CircleF
6748 2496 CircleF
6751 2575 CircleF
6755 2534 CircleF
6758 2519 CircleF
6762 2582 CircleF
6765 2495 CircleF
6769 2585 CircleF
6772 2514 CircleF
6775 2542 CircleF
6779 2567 CircleF
6782 2500 CircleF
6786 2588 CircleF
6789 2498 CircleF
6793 2569 CircleF
6796 2542 CircleF
6799 2517 CircleF
6803 2580 CircleF
6806 2495 CircleF
6810 2587 CircleF
6813 2511 CircleF
6817 2548 CircleF
6820 2557 CircleF
6823 2510 CircleF
6827 2585 CircleF
6830 2494 CircleF
6834 2580 CircleF
6837 2522 CircleF
6841 2543 CircleF
6844 2556 CircleF
6847 2509 CircleF
6851 2586 CircleF
6854 2496 CircleF
6858 2578 CircleF
6861 2517 CircleF
6865 2552 CircleF
6868 2551 CircleF
6872 2511 CircleF
6875 2584 CircleF
6878 2496 CircleF
6882 2586 CircleF
6885 2505 CircleF
6889 2562 CircleF
6892 2543 CircleF
6896 2522 CircleF
6899 2573 CircleF
6902 2501 CircleF
6906 2588 CircleF
6909 2498 CircleF
6913 2574 CircleF
6916 2522 CircleF
6920 2550 CircleF
6923 2548 CircleF
6926 2517 CircleF
6930 2579 CircleF
6933 2497 CircleF
6937 2587 CircleF
6940 2497 CircleF
6944 2579 CircleF
6947 2519 CircleF
% End plot #1
% Begin plot #2
0.300 UP
1.000 UL
LTb
0.55 0.00 0.00 C LCb setrgbcolor
6296 4766 M
[ [(Helvetica) 140.0 0.0 true true 0 (<S)]
[(Helvetica) 112.0 -42.0 true true 0 (y)]
[(Helvetica) 140.0 0.0 true true 0 (>)]
] -32.7 MRshow
0.300 UP
1.000 UL
LTb
0.55 0.00 0.00 C 773 4877 BoxF
777 4875 BoxF
780 4876 BoxF
784 4876 BoxF
787 4875 BoxF
791 4876 BoxF
794 4876 BoxF
797 4875 BoxF
801 4877 BoxF
804 4875 BoxF
808 4876 BoxF
811 4876 BoxF
815 4874 BoxF
818 4877 BoxF
821 4875 BoxF
825 4875 BoxF
828 4877 BoxF
832 4874 BoxF
835 4876 BoxF
839 4876 BoxF
842 4875 BoxF
845 4877 BoxF
849 4875 BoxF
852 4876 BoxF
856 4876 BoxF
859 4875 BoxF
863 4876 BoxF
866 4875 BoxF
870 4875 BoxF
873 4876 BoxF
876 4875 BoxF
880 4876 BoxF
883 4876 BoxF
887 4875 BoxF
890 4877 BoxF
894 4875 BoxF
897 4876 BoxF
900 4876 BoxF
904 4875 BoxF
907 4877 BoxF
911 4875 BoxF
914 4876 BoxF
918 4876 BoxF
921 4875 BoxF
924 4877 BoxF
928 4874 BoxF
931 4876 BoxF
935 4876 BoxF
938 4875 BoxF
942 4877 BoxF
945 4874 BoxF
948 4877 BoxF
952 4876 BoxF
955 4875 BoxF
959 4877 BoxF
962 4874 BoxF
966 4877 BoxF
969 4875 BoxF
972 4875 BoxF
976 4876 BoxF
979 4875 BoxF
983 4877 BoxF
986 4875 BoxF
990 4876 BoxF
993 4876 BoxF
996 4875 BoxF
1000 4877 BoxF
1003 4875 BoxF
1007 4876 BoxF
1010 4876 BoxF
1014 4875 BoxF
1017 4877 BoxF
1021 4874 BoxF
1024 4877 BoxF
1027 4875 BoxF
1031 4876 BoxF
1034 4876 BoxF
1038 4875 BoxF
1041 4877 BoxF
1045 4875 BoxF
1048 4876 BoxF
1051 4876 BoxF
1055 4875 BoxF
1058 4877 BoxF
1062 4875 BoxF
1065 4877 BoxF
1069 4875 BoxF
1072 4876 BoxF
1075 4876 BoxF
1079 4875 BoxF
1082 4877 BoxF
1086 4875 BoxF
1089 4877 BoxF
1093 4875 BoxF
1096 4876 BoxF
1099 4876 BoxF
1103 4875 BoxF
1106 4876 BoxF
1110 4875 BoxF
1113 4877 BoxF
1117 4875 BoxF
1120 4876 BoxF
1123 4876 BoxF
1127 4875 BoxF
1130 4877 BoxF
1134 4875 BoxF
1137 4877 BoxF
1141 4875 BoxF
1144 4876 BoxF
1147 4875 BoxF
1151 4876 BoxF
1154 4876 BoxF
1158 4875 BoxF
1161 4876 BoxF
1165 4875 BoxF
1168 4877 BoxF
1172 4875 BoxF
1175 4877 BoxF
1178 4875 BoxF
1182 4876 BoxF
1185 4876 BoxF
1189 4875 BoxF
1192 4877 BoxF
1196 4875 BoxF
1199 4877 BoxF
1202 4875 BoxF
1206 4876 BoxF
1209 4875 BoxF
1213 4876 BoxF
1216 4876 BoxF
1220 4875 BoxF
1223 4876 BoxF
1226 4875 BoxF
1230 4877 BoxF
1233 4875 BoxF
1237 4877 BoxF
1240 4875 BoxF
1244 4876 BoxF
1247 4875 BoxF
1250 4876 BoxF
1254 4876 BoxF
1257 4875 BoxF
1261 4876 BoxF
1264 4875 BoxF
1268 4877 BoxF
1271 4875 BoxF
1274 4877 BoxF
1278 4875 BoxF
1281 4876 BoxF
1285 4875 BoxF
1288 4876 BoxF
1292 4875 BoxF
1295 4876 BoxF
1298 4876 BoxF
1302 4875 BoxF
1305 4876 BoxF
1309 4875 BoxF
1312 4876 BoxF
1316 4875 BoxF
1319 4877 BoxF
1322 4875 BoxF
1326 4877 BoxF
1329 4875 BoxF
1333 4877 BoxF
1336 4875 BoxF
1340 4876 BoxF
1343 4875 BoxF
1347 4876 BoxF
1350 4875 BoxF
1353 4876 BoxF
1357 4876 BoxF
1360 4875 BoxF
1364 4876 BoxF
1367 4875 BoxF
1371 4876 BoxF
1374 4875 BoxF
1377 4877 BoxF
1381 4875 BoxF
1384 4877 BoxF
1388 4875 BoxF
1391 4877 BoxF
1395 4875 BoxF
1398 4877 BoxF
1401 4875 BoxF
1405 4877 BoxF
1408 4875 BoxF
1412 4876 BoxF
1415 4875 BoxF
1419 4876 BoxF
1422 4875 BoxF
1425 4876 BoxF
1429 4875 BoxF
1432 4876 BoxF
1436 4876 BoxF
1439 4876 BoxF
1443 4875 BoxF
1446 4876 BoxF
1449 4876 BoxF
1453 4876 BoxF
1456 4876 BoxF
1460 4876 BoxF
1463 4876 BoxF
1467 4876 BoxF
1470 4876 BoxF
1473 4875 BoxF
1477 4876 BoxF
1480 4876 BoxF
1484 4876 BoxF
1487 4876 BoxF
1491 4876 BoxF
1494 4875 BoxF
1498 4876 BoxF
1501 4876 BoxF
1504 4876 BoxF
1508 4876 BoxF
1511 4876 BoxF
1515 4876 BoxF
1518 4876 BoxF
1522 4876 BoxF
1525 4876 BoxF
1528 4876 BoxF
1532 4876 BoxF
1535 4876 BoxF
1539 4876 BoxF
1542 4876 BoxF
1546 4876 BoxF
1549 4876 BoxF
1552 4876 BoxF
1556 4876 BoxF
1559 4875 BoxF
1563 4876 BoxF
1566 4875 BoxF
1570 4876 BoxF
1573 4875 BoxF
1576 4877 BoxF
1580 4875 BoxF
1583 4876 BoxF
1587 4875 BoxF
1590 4877 BoxF
1594 4875 BoxF
1597 4877 BoxF
1600 4875 BoxF
1604 4877 BoxF
1607 4875 BoxF
1611 4877 BoxF
1614 4875 BoxF
1618 4877 BoxF
1621 4875 BoxF
1624 4877 BoxF
1628 4875 BoxF
1631 4876 BoxF
1635 4875 BoxF
1638 4876 BoxF
1642 4876 BoxF
1645 4876 BoxF
1649 4876 BoxF
1652 4875 BoxF
1655 4876 BoxF
1659 4875 BoxF
1662 4876 BoxF
1666 4875 BoxF
1669 4877 BoxF
1673 4875 BoxF
1676 4877 BoxF
1679 4875 BoxF
1683 4877 BoxF
1686 4875 BoxF
1690 4876 BoxF
1693 4875 BoxF
1697 4876 BoxF
1700 4876 BoxF
1703 4876 BoxF
1707 4876 BoxF
1710 4875 BoxF
1714 4877 BoxF
1717 4875 BoxF
1721 4877 BoxF
1724 4875 BoxF
1727 4877 BoxF
1731 4875 BoxF
1734 4876 BoxF
1738 4875 BoxF
1741 4876 BoxF
1745 4876 BoxF
1748 4875 BoxF
1751 4876 BoxF
1755 4875 BoxF
1758 4877 BoxF
1762 4875 BoxF
1765 4877 BoxF
1769 4875 BoxF
1772 4876 BoxF
1775 4875 BoxF
1779 4876 BoxF
1782 4876 BoxF
1786 4875 BoxF
1789 4876 BoxF
1793 4875 BoxF
1796 4877 BoxF
1800 4875 BoxF
1803 4877 BoxF
1806 4875 BoxF
1810 4876 BoxF
1813 4876 BoxF
1817 4876 BoxF
1820 4876 BoxF
1824 4875 BoxF
1827 4877 BoxF
1830 4875 BoxF
1834 4877 BoxF
1837 4875 BoxF
1841 4876 BoxF
1844 4876 BoxF
1848 4875 BoxF
1851 4876 BoxF
1854 4875 BoxF
1858 4877 BoxF
1861 4875 BoxF
1865 4876 BoxF
1868 4875 BoxF
1872 4876 BoxF
1875 4876 BoxF
1878 4875 BoxF
1882 4877 BoxF
1885 4875 BoxF
1889 4877 BoxF
1892 4875 BoxF
1896 4876 BoxF
1899 4876 BoxF
1902 4875 BoxF
1906 4877 BoxF
1909 4875 BoxF
1913 4877 BoxF
1916 4875 BoxF
1920 4876 BoxF
1923 4876 BoxF
1926 4875 BoxF
1930 4877 BoxF
1933 4875 BoxF
1937 4877 BoxF
1940 4875 BoxF
1944 4876 BoxF
1947 4876 BoxF
1950 4875 BoxF
1954 4877 BoxF
1957 4875 BoxF
1961 4876 BoxF
1964 4876 BoxF
1968 4876 BoxF
1971 4876 BoxF
1975 4875 BoxF
1978 4877 BoxF
1981 4875 BoxF
1985 4876 BoxF
1988 4876 BoxF
1992 4875 BoxF
1995 4877 BoxF
1999 4875 BoxF
2002 4876 BoxF
2005 4875 BoxF
2009 4875 BoxF
2012 4877 BoxF
2016 4875 BoxF
2019 4877 BoxF
2023 4875 BoxF
2026 4876 BoxF
2029 4876 BoxF
2033 4875 BoxF
2036 4877 BoxF
2040 4875 BoxF
2043 4876 BoxF
2047 4876 BoxF
2050 4875 BoxF
2053 4877 BoxF
2057 4875 BoxF
2060 4876 BoxF
2064 4876 BoxF
2067 4875 BoxF
2071 4877 BoxF
2074 4875 BoxF
2077 4876 BoxF
2081 4876 BoxF
2084 4875 BoxF
2088 4877 BoxF
2091 4875 BoxF
2095 4876 BoxF
2098 4876 BoxF
2101 4875 BoxF
2105 4877 BoxF
2108 4875 BoxF
2112 4876 BoxF
2115 4876 BoxF
2119 4875 BoxF
2122 4877 BoxF
2126 4875 BoxF
2129 4875 BoxF
2132 4877 BoxF
2136 4875 BoxF
2139 4877 BoxF
2143 4875 BoxF
2146 4875 BoxF
2150 4877 BoxF
2153 4875 BoxF
2156 4876 BoxF
2160 4876 BoxF
2163 4875 BoxF
2167 4877 BoxF
2170 4875 BoxF
2174 4876 BoxF
2177 4876 BoxF
2180 4875 BoxF
2184 4877 BoxF
2187 4876 BoxF
2191 4875 BoxF
2194 4877 BoxF
2198 4875 BoxF
2201 4876 BoxF
2204 4876 BoxF
2208 4875 BoxF
2211 4877 BoxF
2215 4875 BoxF
2218 4875 BoxF
2222 4877 BoxF
2225 4875 BoxF
2228 4876 BoxF
2232 4876 BoxF
2235 4875 BoxF
2239 4877 BoxF
2242 4876 BoxF
2246 4875 BoxF
2249 4877 BoxF
2252 4875 BoxF
2256 4876 BoxF
2259 4877 BoxF
2263 4875 BoxF
2266 4876 BoxF
2270 4876 BoxF
2273 4875 BoxF
2277 4877 BoxF
2280 4875 BoxF
2283 4875 BoxF
2287 4877 BoxF
2290 4875 BoxF
2294 4876 BoxF
2297 4876 BoxF
2301 4874 BoxF
2304 4876 BoxF
2307 4876 BoxF
2311 4875 BoxF
2314 4877 BoxF
2318 4875 BoxF
2321 4875 BoxF
2325 4877 BoxF
2328 4875 BoxF
2331 4876 BoxF
2335 4877 BoxF
2338 4875 BoxF
2342 4876 BoxF
2345 4876 BoxF
2349 4875 BoxF
2352 4876 BoxF
2355 4876 BoxF
2359 4874 BoxF
2362 4876 BoxF
2366 4876 BoxF
2369 4875 BoxF
2373 4877 BoxF
2376 4876 BoxF
2379 4875 BoxF
2383 4877 BoxF
2386 4875 BoxF
2390 4875 BoxF
2393 4877 BoxF
2397 4875 BoxF
2400 4875 BoxF
2403 4877 BoxF
2407 4875 BoxF
2410 4875 BoxF
2414 4877 BoxF
2417 4875 BoxF
2421 4876 BoxF
2424 4876 BoxF
2427 4874 BoxF
2431 4876 BoxF
2434 4877 BoxF
2438 4875 BoxF
2441 4876 BoxF
2445 4876 BoxF
2448 4874 BoxF
2452 4876 BoxF
2455 4877 BoxF
2458 4875 BoxF
2462 4876 BoxF
2465 4876 BoxF
2469 4874 BoxF
2472 4876 BoxF
2476 4877 BoxF
2479 4875 BoxF
2482 4876 BoxF
2486 4877 BoxF
2489 4874 BoxF
2493 4876 BoxF
2496 4877 BoxF
2500 4875 BoxF
2503 4876 BoxF
2506 4877 BoxF
2510 4875 BoxF
2513 4875 BoxF
2517 4877 BoxF
2520 4875 BoxF
2524 4875 BoxF
2527 4877 BoxF
2530 4875 BoxF
2534 4875 BoxF
2537 4877 BoxF
2541 4875 BoxF
2544 4875 BoxF
2548 4877 BoxF
2551 4876 BoxF
2554 4875 BoxF
2558 4876 BoxF
2561 4876 BoxF
2565 4874 BoxF
2568 4876 BoxF
2572 4876 BoxF
2575 4875 BoxF
2578 4876 BoxF
2582 4877 BoxF
2585 4875 BoxF
2589 4875 BoxF
2592 4877 BoxF
2596 4875 BoxF
2599 4875 BoxF
2603 4877 BoxF
2606 4876 BoxF
2609 4874 BoxF
2613 4876 BoxF
2616 4876 BoxF
2620 4874 BoxF
2623 4876 BoxF
2627 4877 BoxF
2630 4875 BoxF
2633 4875 BoxF
2637 4877 BoxF
2640 4875 BoxF
2644 4874 BoxF
2647 4876 BoxF
2651 4876 BoxF
2654 4874 BoxF
2657 4876 BoxF
2661 4877 BoxF
2664 4875 BoxF
2668 4875 BoxF
2671 4877 BoxF
2675 4875 BoxF
2678 4874 BoxF
2681 4876 BoxF
2685 4876 BoxF
2688 4874 BoxF
2692 4876 BoxF
2695 4877 BoxF
2699 4875 BoxF
2702 4874 BoxF
2705 4876 BoxF
2709 4876 BoxF
2712 4874 BoxF
2716 4876 BoxF
2719 4877 BoxF
2723 4875 BoxF
2726 4875 BoxF
2729 4877 BoxF
2733 4876 BoxF
2736 4874 BoxF
2740 4876 BoxF
2743 4877 BoxF
2747 4875 BoxF
2750 4875 BoxF
2754 4877 BoxF
2757 4876 BoxF
2760 4874 BoxF
2764 4875 BoxF
2767 4877 BoxF
2771 4875 BoxF
2774 4874 BoxF
2778 4876 BoxF
2781 4876 BoxF
2784 4874 BoxF
2788 4875 BoxF
2791 4877 BoxF
2795 4875 BoxF
2798 4874 BoxF
2802 4876 BoxF
2805 4876 BoxF
2808 4874 BoxF
2812 4874 BoxF
2815 4876 BoxF
2819 4876 BoxF
2822 4874 BoxF
2826 4875 BoxF
2829 4877 BoxF
2832 4876 BoxF
2836 4874 BoxF
2839 4876 BoxF
2843 4877 BoxF
2846 4875 BoxF
2850 4874 BoxF
2853 4876 BoxF
2856 4876 BoxF
2860 4875 BoxF
2863 4875 BoxF
2867 4877 BoxF
2870 4876 BoxF
2874 4874 BoxF
2877 4875 BoxF
2880 4877 BoxF
2884 4876 BoxF
2887 4874 BoxF
2891 4875 BoxF
2894 4877 BoxF
2898 4875 BoxF
2901 4874 BoxF
2904 4875 BoxF
2908 4877 BoxF
2911 4875 BoxF
2915 4874 BoxF
2918 4876 BoxF
2922 4877 BoxF
2925 4875 BoxF
2929 4874 BoxF
2932 4875 BoxF
2935 4877 BoxF
2939 4875 BoxF
2942 4874 BoxF
2946 4875 BoxF
2949 4877 BoxF
2953 4875 BoxF
2956 4874 BoxF
2959 4875 BoxF
2963 4877 BoxF
2966 4875 BoxF
2970 4874 BoxF
2973 4875 BoxF
2977 4877 BoxF
2980 4875 BoxF
2983 4874 BoxF
2987 4875 BoxF
2990 4877 BoxF
2994 4876 BoxF
2997 4874 BoxF
3001 4875 BoxF
3004 4877 BoxF
3007 4876 BoxF
3011 4874 BoxF
3014 4874 BoxF
3018 4876 BoxF
3021 4877 BoxF
3025 4875 BoxF
3028 4874 BoxF
3031 4876 BoxF
3035 4877 BoxF
3038 4875 BoxF
3042 4874 BoxF
3045 4875 BoxF
3049 4877 BoxF
3052 4876 BoxF
3055 4874 BoxF
3059 4874 BoxF
3062 4876 BoxF
3066 4876 BoxF
3069 4874 BoxF
3073 4874 BoxF
3076 4876 BoxF
3080 4877 BoxF
3083 4875 BoxF
3086 4874 BoxF
3090 4875 BoxF
3093 4877 BoxF
3097 4876 BoxF
3100 4874 BoxF
3104 4874 BoxF
3107 4876 BoxF
3110 4877 BoxF
3114 4875 BoxF
3117 4873 BoxF
3121 4874 BoxF
3124 4876 BoxF
3128 4876 BoxF
3131 4874 BoxF
3134 4873 BoxF
3138 4875 BoxF
3141 4877 BoxF
3145 4876 BoxF
3148 4874 BoxF
3152 4874 BoxF
3155 4876 BoxF
3158 4877 BoxF
3162 4875 BoxF
3165 4874 BoxF
3169 4874 BoxF
3172 4876 BoxF
3176 4876 BoxF
3179 4875 BoxF
3182 4873 BoxF
3186 4875 BoxF
3189 4877 BoxF
3193 4876 BoxF
3196 4874 BoxF
3200 4873 BoxF
3203 4875 BoxF
3206 4877 BoxF
3210 4876 BoxF
3213 4874 BoxF
3217 4873 BoxF
3220 4875 BoxF
3224 4877 BoxF
3227 4876 BoxF
3231 4874 BoxF
3234 4873 BoxF
3237 4875 BoxF
3241 4876 BoxF
3244 4876 BoxF
3248 4874 BoxF
3251 4873 BoxF
3255 4875 BoxF
3258 4876 BoxF
3261 4876 BoxF
3265 4874 BoxF
3268 4873 BoxF
3272 4874 BoxF
3275 4876 BoxF
3279 4876 BoxF
3282 4874 BoxF
3285 4873 BoxF
3289 4874 BoxF
3292 4876 BoxF
3296 4876 BoxF
3299 4875 BoxF
3303 4873 BoxF
3306 4873 BoxF
3309 4875 BoxF
3313 4876 BoxF
3316 4876 BoxF
3320 4874 BoxF
3323 4873 BoxF
3327 4874 BoxF
3330 4876 BoxF
3333 4876 BoxF
3337 4875 BoxF
3340 4873 BoxF
3344 4873 BoxF
3347 4875 BoxF
3351 4876 BoxF
3354 4876 BoxF
3357 4874 BoxF
3361 4873 BoxF
3364 4874 BoxF
3368 4876 BoxF
3371 4876 BoxF
3375 4875 BoxF
3378 4873 BoxF
3381 4873 BoxF
3385 4874 BoxF
3388 4876 BoxF
3392 4876 BoxF
3395 4875 BoxF
3399 4873 BoxF
3402 4873 BoxF
3406 4874 BoxF
3409 4876 BoxF
3412 4876 BoxF
3416 4874 BoxF
3419 4872 BoxF
3423 4872 BoxF
3426 4874 BoxF
3430 4876 BoxF
3433 4876 BoxF
3436 4874 BoxF
3440 4872 BoxF
3443 4872 BoxF
3447 4874 BoxF
3450 4876 BoxF
3454 4876 BoxF
3457 4875 BoxF
3460 4873 BoxF
3464 4872 BoxF
3467 4873 BoxF
3471 4875 BoxF
3474 4876 BoxF
3478 4875 BoxF
3481 4873 BoxF
3484 4872 BoxF
3488 4873 BoxF
3491 4875 BoxF
3495 4876 BoxF
3498 4876 BoxF
3502 4874 BoxF
3505 4872 BoxF
3508 4872 BoxF
3512 4873 BoxF
3515 4875 BoxF
3519 4876 BoxF
3522 4875 BoxF
3526 4873 BoxF
3529 4872 BoxF
3532 4872 BoxF
3536 4874 BoxF
3539 4876 BoxF
3543 4876 BoxF
3546 4875 BoxF
3550 4873 BoxF
3553 4871 BoxF
3557 4872 BoxF
3560 4874 BoxF
3563 4875 BoxF
3567 4876 BoxF
3570 4875 BoxF
3574 4873 BoxF
3577 4871 BoxF
3581 4872 BoxF
3584 4873 BoxF
3587 4875 BoxF
3591 4876 BoxF
3594 4875 BoxF
3598 4873 BoxF
3601 4872 BoxF
3605 4871 BoxF
3608 4872 BoxF
3611 4874 BoxF
3615 4876 BoxF
3618 4876 BoxF
3622 4874 BoxF
3625 4872 BoxF
3629 4871 BoxF
3632 4871 BoxF
3635 4873 BoxF
3639 4875 BoxF
3642 4876 BoxF
3646 4875 BoxF
3649 4873 BoxF
3653 4871 BoxF
3656 4870 BoxF
3659 4871 BoxF
3663 4873 BoxF
3666 4875 BoxF
3670 4876 BoxF
3673 4875 BoxF
3677 4873 BoxF
3680 4871 BoxF
3683 4870 BoxF
3687 4870 BoxF
3690 4872 BoxF
3694 4874 BoxF
3697 4875 BoxF
3701 4875 BoxF
3704 4874 BoxF
3708 4872 BoxF
3711 4870 BoxF
3714 4870 BoxF
3718 4871 BoxF
3721 4873 BoxF
3725 4875 BoxF
3728 4875 BoxF
3732 4875 BoxF
3735 4873 BoxF
3738 4871 BoxF
3742 4869 BoxF
3745 4869 BoxF
3749 4870 BoxF
3752 4872 BoxF
3756 4874 BoxF
3759 4875 BoxF
3762 4875 BoxF
3766 4873 BoxF
3769 4871 BoxF
3773 4869 BoxF
3776 4869 BoxF
3780 4869 BoxF
3783 4871 BoxF
3786 4873 BoxF
3790 4874 BoxF
3793 4875 BoxF
3797 4874 BoxF
3800 4872 BoxF
3804 4870 BoxF
3807 4868 BoxF
3810 4868 BoxF
3814 4869 BoxF
3817 4871 BoxF
3821 4873 BoxF
3824 4874 BoxF
3828 4874 BoxF
3831 4873 BoxF
3834 4872 BoxF
3838 4869 BoxF
3841 4868 BoxF
3845 4867 BoxF
3848 4868 BoxF
3852 4869 BoxF
3855 4871 BoxF
3859 4873 BoxF
3862 4874 BoxF
3865 4874 BoxF
3869 4873 BoxF
3872 4871 BoxF
3876 4869 BoxF
3879 4867 BoxF
3883 4866 BoxF
3886 4866 BoxF
3889 4867 BoxF
3893 4869 BoxF
3896 4871 BoxF
3900 4872 BoxF
3903 4873 BoxF
3907 4873 BoxF
3910 4871 BoxF
3913 4869 BoxF
3917 4867 BoxF
3920 4865 BoxF
3924 4864 BoxF
3927 4864 BoxF
3931 4865 BoxF
3934 4867 BoxF
3937 4869 BoxF
3941 4870 BoxF
3944 4872 BoxF
3948 4872 BoxF
3951 4871 BoxF
3955 4870 BoxF
3958 4868 BoxF
3961 4866 BoxF
3965 4864 BoxF
3968 4862 BoxF
3972 4862 BoxF
3975 4862 BoxF
3979 4863 BoxF
3982 4865 BoxF
3985 4867 BoxF
3989 4869 BoxF
3992 4870 BoxF
3996 4870 BoxF
3999 4870 BoxF
4003 4869 BoxF
4006 4867 BoxF
4009 4864 BoxF
4013 4862 BoxF
4016 4861 BoxF
4020 4859 BoxF
4023 4859 BoxF
4027 4859 BoxF
4030 4859 BoxF
4034 4861 BoxF
4037 4863 BoxF
4040 4864 BoxF
4044 4866 BoxF
4047 4867 BoxF
4051 4867 BoxF
4054 4867 BoxF
4058 4866 BoxF
4061 4864 BoxF
4064 4862 BoxF
4068 4860 BoxF
4071 4857 BoxF
4075 4855 BoxF
4078 4854 BoxF
4082 4852 BoxF
4085 4852 BoxF
4088 4852 BoxF
4092 4853 BoxF
4095 4854 BoxF
4099 4855 BoxF
4102 4857 BoxF
4106 4858 BoxF
4109 4860 BoxF
4112 4860 BoxF
4116 4861 BoxF
4119 4860 BoxF
4123 4859 BoxF
4126 4858 BoxF
4130 4856 BoxF
4133 4854 BoxF
4136 4851 BoxF
4140 4848 BoxF
4143 4845 BoxF
4147 4843 BoxF
4150 4841 BoxF
4154 4839 BoxF
4157 4837 BoxF
4160 4836 BoxF
4164 4835 BoxF
4167 4835 BoxF
4171 4835 BoxF
4174 4836 BoxF
4178 4836 BoxF
4181 4837 BoxF
4185 4837 BoxF
4188 4838 BoxF
4191 4839 BoxF
4195 4839 BoxF
4198 4839 BoxF
4202 4838 BoxF
4205 4837 BoxF
4209 4836 BoxF
4212 4834 BoxF
4215 4831 BoxF
4219 4828 BoxF
4222 4825 BoxF
4226 4821 BoxF
4229 4817 BoxF
4233 4812 BoxF
4236 4807 BoxF
4239 4802 BoxF
4243 4797 BoxF
4246 4791 BoxF
4250 4786 BoxF
4253 4780 BoxF
4257 4773 BoxF
4260 4767 BoxF
4263 4761 BoxF
4267 4755 BoxF
4270 4748 BoxF
4274 4741 BoxF
4277 4734 BoxF
4281 4728 BoxF
4284 4721 BoxF
4287 4713 BoxF
4291 4706 BoxF
4294 4697 BoxF
4298 4689 BoxF
4301 4680 BoxF
4305 4671 BoxF
4308 4661 BoxF
4311 4650 BoxF
4315 4638 BoxF
4318 4626 BoxF
4322 4614 BoxF
4325 4600 BoxF
4329 4585 BoxF
4332 4569 BoxF
4336 4551 BoxF
4339 4533 BoxF
4342 4514 BoxF
4346 4492 BoxF
4349 4469 BoxF
4353 4445 BoxF
4356 4419 BoxF
4360 4391 BoxF
4363 4361 BoxF
4366 4329 BoxF
4370 4294 BoxF
4373 4257 BoxF
4377 4218 BoxF
4380 4177 BoxF
4384 4132 BoxF
4387 4085 BoxF
4390 4035 BoxF
4394 3982 BoxF
4397 3926 BoxF
4401 3867 BoxF
4404 3805 BoxF
4408 3740 BoxF
4411 3672 BoxF
4414 3601 BoxF
4418 3527 BoxF
4421 3450 BoxF
4425 3370 BoxF
4428 3288 BoxF
4432 3205 BoxF
4435 3119 BoxF
4438 3032 BoxF
4442 2945 BoxF
4445 2857 BoxF
4449 2769 BoxF
4452 2683 BoxF
4456 2598 BoxF
4459 2515 BoxF
4462 2436 BoxF
4466 2362 BoxF
4469 2293 BoxF
4473 2229 BoxF
4476 2172 BoxF
4480 2123 BoxF
4483 2084 BoxF
4486 2054 BoxF
4490 2034 BoxF
4493 2024 BoxF
4497 2025 BoxF
4500 2039 BoxF
4504 2064 BoxF
4507 2099 BoxF
4511 2145 BoxF
4514 2200 BoxF
4517 2264 BoxF
4521 2337 BoxF
4524 2414 BoxF
4528 2495 BoxF
4531 2577 BoxF
4535 2658 BoxF
4538 2737 BoxF
4541 2809 BoxF
4545 2872 BoxF
4548 2925 BoxF
4552 2966 BoxF
4555 2991 BoxF
4559 3000 BoxF
4562 2992 BoxF
4565 2967 BoxF
4569 2927 BoxF
4572 2872 BoxF
4576 2804 BoxF
4579 2726 BoxF
4583 2643 BoxF
4586 2558 BoxF
4589 2476 BoxF
4593 2401 BoxF
4596 2339 BoxF
4600 2292 BoxF
4603 2265 BoxF
4607 2258 BoxF
4610 2273 BoxF
4613 2309 BoxF
4617 2366 BoxF
4620 2438 BoxF
4624 2521 BoxF
4627 2609 BoxF
4631 2695 BoxF
4634 2773 BoxF
4637 2835 BoxF
4641 2878 BoxF
4644 2896 BoxF
4648 2889 BoxF
4651 2855 BoxF
4655 2798 BoxF
4658 2723 BoxF
4662 2636 BoxF
4665 2547 BoxF
4668 2463 BoxF
4672 2395 BoxF
4675 2348 BoxF
4679 2328 BoxF
4682 2338 BoxF
4686 2376 BoxF
4689 2440 BoxF
4692 2521 BoxF
4696 2610 BoxF
4699 2697 BoxF
4703 2771 BoxF
4706 2822 BoxF
4710 2842 BoxF
4713 2830 BoxF
4716 2788 BoxF
4720 2719 BoxF
4723 2634 BoxF
4727 2545 BoxF
4730 2464 BoxF
4734 2404 BoxF
4737 2372 BoxF
4740 2375 BoxF
4744 2413 BoxF
4747 2480 BoxF
4751 2565 BoxF
4754 2654 BoxF
4758 2733 BoxF
4761 2789 BoxF
4764 2810 BoxF
4768 2793 BoxF
4771 2742 BoxF
4775 2665 BoxF
4778 2576 BoxF
4782 2492 BoxF
4785 2428 BoxF
4788 2399 BoxF
4792 2409 BoxF
4795 2456 BoxF
4799 2531 BoxF
4802 2619 BoxF
4806 2701 BoxF
4809 2759 BoxF
4813 2782 BoxF
4816 2764 BoxF
4819 2709 BoxF
4823 2628 BoxF
4826 2542 BoxF
4830 2470 BoxF
4833 2429 BoxF
4837 2429 BoxF
4840 2469 BoxF
4843 2541 BoxF
4847 2626 BoxF
4850 2701 BoxF
4854 2749 BoxF
4857 2757 BoxF
4861 2721 BoxF
4864 2651 BoxF
4867 2568 BoxF
4871 2495 BoxF
4874 2450 BoxF
4878 2447 BoxF
4881 2489 BoxF
4885 2562 BoxF
4888 2644 BoxF
4891 2711 BoxF
4895 2743 BoxF
4898 2729 BoxF
4902 2673 BoxF
4905 2593 BoxF
4909 2515 BoxF
4912 2464 BoxF
4915 2457 BoxF
4919 2497 BoxF
4922 2572 BoxF
4926 2653 BoxF
4929 2715 BoxF
4933 2736 BoxF
4936 2706 BoxF
4939 2636 BoxF
4943 2552 BoxF
4946 2485 BoxF
4950 2459 BoxF
4953 2486 BoxF
4957 2555 BoxF
4960 2641 BoxF
4963 2708 BoxF
4967 2732 BoxF
4970 2701 BoxF
4974 2627 BoxF
4977 2540 BoxF
4981 2477 BoxF
4984 2465 BoxF
4988 2508 BoxF
4991 2590 BoxF
4994 2674 BoxF
4998 2724 BoxF
5001 2717 BoxF
5005 2656 BoxF
5008 2568 BoxF
5012 2493 BoxF
5015 2466 BoxF
5018 2500 BoxF
5022 2579 BoxF
5025 2667 BoxF
5029 2720 BoxF
5032 2713 BoxF
5036 2648 BoxF
5039 2559 BoxF
5042 2489 BoxF
5046 2473 BoxF
5049 2521 BoxF
5053 2608 BoxF
5056 2687 BoxF
5060 2719 BoxF
5063 2685 BoxF
5066 2604 BoxF
5070 2519 BoxF
5073 2477 BoxF
5077 2501 BoxF
5080 2577 BoxF
5084 2665 BoxF
5087 2713 BoxF
5090 2695 BoxF
5094 2620 BoxF
5097 2532 BoxF
5101 2482 BoxF
5104 2500 BoxF
5108 2576 BoxF
5111 2663 BoxF
5114 2709 BoxF
5118 2686 BoxF
5121 2608 BoxF
5125 2522 BoxF
5128 2484 BoxF
5132 2517 BoxF
5135 2600 BoxF
5139 2680 BoxF
5142 2706 BoxF
5145 2659 BoxF
5149 2571 BoxF
5152 2501 BoxF
5156 2495 BoxF
5159 2557 BoxF
5163 2646 BoxF
5166 2700 BoxF
5169 2682 BoxF
5173 2604 BoxF
5176 2523 BoxF
5180 2493 BoxF
5183 2538 BoxF
5187 2625 BoxF
5190 2689 BoxF
5193 2685 BoxF
5197 2616 BoxF
5200 2532 BoxF
5204 2497 BoxF
5207 2538 BoxF
5211 2622 BoxF
5214 2685 BoxF
5217 2679 BoxF
5221 2609 BoxF
5224 2529 BoxF
5228 2504 BoxF
5231 2552 BoxF
5235 2635 BoxF
5238 2687 BoxF
5241 2664 BoxF
5245 2586 BoxF
5248 2518 BoxF
5252 2516 BoxF
5255 2581 BoxF
5259 2660 BoxF
5262 2684 BoxF
5265 2632 BoxF
5269 2551 BoxF
5272 2510 BoxF
5276 2545 BoxF
5279 2627 BoxF
5283 2681 BoxF
5286 2659 BoxF
5290 2581 BoxF
5293 2517 BoxF
5296 2526 BoxF
5300 2601 BoxF
5303 2671 BoxF
5307 2671 BoxF
5310 2601 BoxF
5314 2526 BoxF
5317 2518 BoxF
5320 2586 BoxF
5324 2664 BoxF
5327 2675 BoxF
5331 2609 BoxF
5334 2529 BoxF
5338 2516 BoxF
5341 2584 BoxF
5344 2663 BoxF
5348 2675 BoxF
5351 2606 BoxF
5355 2526 BoxF
5358 2519 BoxF
5362 2593 BoxF
5365 2669 BoxF
5368 2669 BoxF
5372 2591 BoxF
5375 2518 BoxF
5379 2530 BoxF
5382 2613 BoxF
5386 2678 BoxF
5389 2653 BoxF
5392 2565 BoxF
5396 2512 BoxF
5399 2553 BoxF
5403 2642 BoxF
5406 2679 BoxF
5410 2622 BoxF
5413 2535 BoxF
5416 2519 BoxF
5420 2592 BoxF
5423 2669 BoxF
5427 2661 BoxF
5430 2576 BoxF
5434 2515 BoxF
5437 2551 BoxF
5440 2640 BoxF
5444 2677 BoxF
5447 2616 BoxF
5451 2531 BoxF
5454 2527 BoxF
5458 2607 BoxF
5461 2674 BoxF
5465 2644 BoxF
5468 2554 BoxF
5471 2518 BoxF
5475 2581 BoxF
5478 2663 BoxF
5482 2660 BoxF
5485 2575 BoxF
5489 2518 BoxF
5492 2563 BoxF
5495 2651 BoxF
5499 2667 BoxF
5502 2590 BoxF
5506 2521 BoxF
5509 2553 BoxF
5513 2642 BoxF
5516 2669 BoxF
5519 2598 BoxF
5523 2524 BoxF
5526 2549 BoxF
5530 2639 BoxF
5533 2669 BoxF
5537 2599 BoxF
5540 2526 BoxF
5543 2552 BoxF
5547 2641 BoxF
5550 2666 BoxF
5554 2593 BoxF
5557 2526 BoxF
5561 2560 BoxF
5564 2648 BoxF
5567 2660 BoxF
5571 2580 BoxF
5574 2526 BoxF
5578 2575 BoxF
5581 2656 BoxF
5585 2648 BoxF
5588 2563 BoxF
5591 2530 BoxF
5595 2596 BoxF
5598 2663 BoxF
5602 2628 BoxF
5605 2544 BoxF
5609 2542 BoxF
5612 2622 BoxF
5616 2661 BoxF
5619 2599 BoxF
5622 2532 BoxF
5626 2567 BoxF
5629 2647 BoxF
5633 2646 BoxF
5636 2566 BoxF
5640 2535 BoxF
5643 2604 BoxF
5646 2660 BoxF
5650 2613 BoxF
5653 2540 BoxF
5657 2560 BoxF
5660 2642 BoxF
5664 2648 BoxF
5667 2569 BoxF
5670 2537 BoxF
5674 2604 BoxF
5677 2660 BoxF
5681 2607 BoxF
5684 2536 BoxF
5688 2569 BoxF
5691 2648 BoxF
5694 2638 BoxF
5698 2555 BoxF
5701 2543 BoxF
5705 2625 BoxF
5708 2656 BoxF
5712 2582 BoxF
5715 2533 BoxF
5718 2597 BoxF
5722 2660 BoxF
5725 2609 BoxF
5729 2536 BoxF
5732 2572 BoxF
5736 2654 BoxF
5739 2630 BoxF
5742 2545 BoxF
5746 2554 BoxF
5749 2641 BoxF
5753 2645 BoxF
5756 2557 BoxF
5760 2542 BoxF
5763 2629 BoxF
5767 2654 BoxF
5770 2570 BoxF
5773 2536 BoxF
5777 2618 BoxF
5780 2658 BoxF
5784 2581 BoxF
5787 2534 BoxF
5791 2609 BoxF
5794 2660 BoxF
5797 2587 BoxF
5801 2533 BoxF
5804 2603 BoxF
5808 2659 BoxF
5811 2589 BoxF
5815 2533 BoxF
5818 2602 BoxF
5821 2659 BoxF
5825 2589 BoxF
5828 2534 BoxF
5832 2606 BoxF
5835 2658 BoxF
5839 2585 BoxF
5842 2535 BoxF
5845 2611 BoxF
5849 2656 BoxF
5852 2577 BoxF
5856 2538 BoxF
5859 2620 BoxF
5863 2652 BoxF
5866 2567 BoxF
5869 2544 BoxF
5873 2632 BoxF
5876 2644 BoxF
5880 2556 BoxF
5883 2555 BoxF
5887 2644 BoxF
5890 2631 BoxF
5893 2544 BoxF
5897 2570 BoxF
5900 2653 BoxF
5904 2612 BoxF
5907 2537 BoxF
5911 2593 BoxF
5914 2657 BoxF
5918 2588 BoxF
5921 2539 BoxF
5924 2619 BoxF
5928 2649 BoxF
5931 2563 BoxF
5935 2553 BoxF
5938 2641 BoxF
5942 2629 BoxF
5945 2544 BoxF
5948 2580 BoxF
5952 2654 BoxF
5955 2598 BoxF
5959 2541 BoxF
5962 2614 BoxF
5966 2648 BoxF
5969 2564 BoxF
5972 2557 BoxF
5976 2642 BoxF
5979 2621 BoxF
5983 2543 BoxF
5986 2593 BoxF
5990 2652 BoxF
5993 2582 BoxF
5996 2550 BoxF
6000 2631 BoxF
6003 2631 BoxF
6007 2549 BoxF
6010 2583 BoxF
6014 2649 BoxF
6017 2590 BoxF
6020 2548 BoxF
6024 2627 BoxF
6027 2632 BoxF
6031 2552 BoxF
6034 2583 BoxF
6038 2649 BoxF
6041 2586 BoxF
6044 2551 BoxF
6048 2630 BoxF
6051 2627 BoxF
6055 2550 BoxF
6058 2592 BoxF
6062 2648 BoxF
6065 2575 BoxF
6068 2559 BoxF
6072 2639 BoxF
6075 2613 BoxF
6079 2545 BoxF
6082 2612 BoxF
6086 2641 BoxF
6089 2559 BoxF
6093 2576 BoxF
6096 2649 BoxF
6099 2586 BoxF
6103 2551 BoxF
6106 2635 BoxF
6110 2619 BoxF
6113 2545 BoxF
6117 2609 BoxF
6120 2642 BoxF
6123 2556 BoxF
6127 2579 BoxF
6130 2650 BoxF
6134 2579 BoxF
6137 2556 BoxF
6141 2644 BoxF
6144 2606 BoxF
6147 2545 BoxF
6151 2625 BoxF
6154 2629 BoxF
6158 2545 BoxF
6161 2603 BoxF
6165 2645 BoxF
6168 2557 BoxF
6171 2581 BoxF
6175 2651 BoxF
6178 2572 BoxF
6182 2562 BoxF
6185 2648 BoxF
6189 2592 BoxF
6192 2551 BoxF
6195 2640 BoxF
6199 2609 BoxF
6202 2545 BoxF
6206 2627 BoxF
6209 2624 BoxF
6213 2544 BoxF
6216 2615 BoxF
6219 2635 BoxF
6223 2548 BoxF
6226 2602 BoxF
6230 2642 BoxF
6233 2552 BoxF
6237 2591 BoxF
6240 2647 BoxF
6244 2559 BoxF
6247 2582 BoxF
6250 2649 BoxF
6254 2565 BoxF
6257 2575 BoxF
6261 2649 BoxF
6264 2571 BoxF
6268 2570 BoxF
6271 2649 BoxF
6274 2574 BoxF
6278 2567 BoxF
6281 2648 BoxF
6285 2577 BoxF
6288 2565 BoxF
6292 2649 BoxF
6295 2579 BoxF
6298 2564 BoxF
6302 2648 BoxF
6305 2578 BoxF
6309 2566 BoxF
6312 2648 BoxF
6316 2577 BoxF
6319 2567 BoxF
6322 2648 BoxF
6326 2573 BoxF
6329 2572 BoxF
6333 2648 BoxF
6336 2569 BoxF
6340 2577 BoxF
6343 2647 BoxF
6346 2563 BoxF
6350 2585 BoxF
6353 2644 BoxF
6357 2559 BoxF
6360 2593 BoxF
6364 2640 BoxF
6367 2552 BoxF
6370 2605 BoxF
6374 2632 BoxF
6377 2551 BoxF
6381 2616 BoxF
6384 2622 BoxF
6388 2549 BoxF
6391 2627 BoxF
6395 2609 BoxF
6398 2554 BoxF
6401 2637 BoxF
6405 2593 BoxF
6408 2563 BoxF
6412 2642 BoxF
6415 2578 BoxF
6419 2576 BoxF
6422 2642 BoxF
6425 2562 BoxF
6429 2595 BoxF
6432 2634 BoxF
6436 2555 BoxF
6439 2614 BoxF
6443 2618 BoxF
6446 2553 BoxF
6449 2631 BoxF
6453 2598 BoxF
6456 2563 BoxF
6460 2641 BoxF
6463 2574 BoxF
6467 2583 BoxF
6470 2639 BoxF
6473 2558 BoxF
6477 2607 BoxF
6480 2623 BoxF
6484 2552 BoxF
6487 2631 BoxF
6491 2597 BoxF
6494 2564 BoxF
6497 2642 BoxF
6501 2568 BoxF
6504 2590 BoxF
6508 2635 BoxF
6511 2553 BoxF
6515 2621 BoxF
6518 2609 BoxF
6521 2556 BoxF
6525 2642 BoxF
6528 2576 BoxF
6532 2583 BoxF
6535 2639 BoxF
6539 2552 BoxF
6542 2619 BoxF
6545 2611 BoxF
6549 2556 BoxF
6552 2643 BoxF
6556 2572 BoxF
6559 2587 BoxF
6563 2637 BoxF
6566 2550 BoxF
6570 2626 BoxF
6573 2601 BoxF
6576 2562 BoxF
6580 2645 BoxF
6583 2562 BoxF
6587 2602 BoxF
6590 2624 BoxF
6594 2551 BoxF
6597 2640 BoxF
6600 2580 BoxF
6604 2581 BoxF
6607 2638 BoxF
6611 2550 BoxF
6614 2628 BoxF
6618 2597 BoxF
6621 2566 BoxF
6624 2644 BoxF
6628 2556 BoxF
6631 2615 BoxF
6635 2611 BoxF
6638 2558 BoxF
6642 2644 BoxF
6645 2563 BoxF
6648 2605 BoxF
6652 2619 BoxF
6655 2554 BoxF
6659 2643 BoxF
6662 2568 BoxF
6666 2599 BoxF
6669 2624 BoxF
6672 2552 BoxF
6676 2642 BoxF
6679 2570 BoxF
6683 2597 BoxF
6686 2624 BoxF
6690 2553 BoxF
6693 2642 BoxF
6696 2568 BoxF
6700 2599 BoxF
6703 2622 BoxF
6707 2554 BoxF
6710 2644 BoxF
6714 2564 BoxF
6717 2606 BoxF
6721 2615 BoxF
6724 2559 BoxF
6727 2644 BoxF
6731 2557 BoxF
6734 2617 BoxF
6738 2604 BoxF
6741 2567 BoxF
6745 2641 BoxF
6748 2552 BoxF
6751 2630 BoxF
6755 2587 BoxF
6758 2582 BoxF
6762 2632 BoxF
6765 2552 BoxF
6769 2640 BoxF
6772 2569 BoxF
6775 2603 BoxF
6779 2614 BoxF
6782 2562 BoxF
6786 2641 BoxF
6789 2555 BoxF
6793 2625 BoxF
6796 2590 BoxF
6799 2583 BoxF
6803 2629 BoxF
6806 2555 BoxF
6810 2639 BoxF
6813 2565 BoxF
6817 2612 BoxF
6820 2602 BoxF
6823 2574 BoxF
6827 2634 BoxF
6830 2555 BoxF
6834 2635 BoxF
6837 2571 BoxF
6841 2607 BoxF
6844 2605 BoxF
6847 2572 BoxF
6851 2634 BoxF
6854 2556 BoxF
6858 2635 BoxF
6861 2569 BoxF
6865 2610 BoxF
6868 2603 BoxF
6872 2575 BoxF
6875 2631 BoxF
6878 2556 BoxF
6882 2638 BoxF
6885 2563 BoxF
6889 2618 BoxF
6892 2592 BoxF
6896 2586 BoxF
6899 2622 BoxF
6902 2561 BoxF
6906 2639 BoxF
6909 2557 BoxF
6913 2631 BoxF
6916 2574 BoxF
6920 2607 BoxF
6923 2603 BoxF
6926 2576 BoxF
6930 2630 BoxF
6933 2557 BoxF
6937 2640 BoxF
6940 2556 BoxF
6944 2631 BoxF
6947 2575 BoxF
6579 4766 BoxF
% End plot #2
2.000 UL
LTb
LCb setrgbcolor
1.000 UL
LTB
LCb setrgbcolor
770 4899 N
770 448 L
6177 0 V
0 4451 V
-6177 0 V
Z stroke
1.000 UP
1.000 UL
LTb
LCb setrgbcolor
stroke
grestore
end
showpage
%%Trailer
%%DocumentFonts: Helvetica
