%!PS-Adobe-2.0 EPSF-2.0
%%Title: gnuplot_avrgFromFai_awk_SZ.eps
%%Creator: gnuplot 5.2 patchlevel 2
%%CreationDate: Wed Aug 25 09:18:52 2021
%%DocumentFonts: (atend)
%%BoundingBox: 50 50 410 302
%%EndComments
%%BeginProlog
/gnudict 256 dict def
gnudict begin
%
% The following true/false flags may be edited by hand if desired.
% The unit line width and grayscale image gamma correction may also be changed.
%
/Color true def
/Blacktext true def
/Solid false def
/Dashlength 1 def
/Landscape false def
/Level1 false def
/Level3 false def
/Rounded false def
/ClipToBoundingBox false def
/SuppressPDFMark false def
/TransparentPatterns false def
/gnulinewidth 5.000 def
/userlinewidth gnulinewidth def
/Gamma 1.0 def
/BackgroundColor {-1.000 -1.000 -1.000} def
%
/vshift -46 def
/dl1 {
  10.0 Dashlength userlinewidth gnulinewidth div mul mul mul
  Rounded { currentlinewidth 0.75 mul sub dup 0 le { pop 0.01 } if } if
} def
/dl2 {
  10.0 Dashlength userlinewidth gnulinewidth div mul mul mul
  Rounded { currentlinewidth 0.75 mul add } if
} def
/hpt_ 31.5 def
/vpt_ 31.5 def
/hpt hpt_ def
/vpt vpt_ def
/doclip {
  ClipToBoundingBox {
    newpath 50 50 moveto 410 50 lineto 410 302 lineto 50 302 lineto closepath
    clip
  } if
} def
%
% Gnuplot Prolog Version 5.1 (Oct 2015)
%
%/SuppressPDFMark true def
%
/M {moveto} bind def
/L {lineto} bind def
/R {rmoveto} bind def
/V {rlineto} bind def
/N {newpath moveto} bind def
/Z {closepath} bind def
/C {setrgbcolor} bind def
/f {rlineto fill} bind def
/g {setgray} bind def
/Gshow {show} def   % May be redefined later in the file to support UTF-8
/vpt2 vpt 2 mul def
/hpt2 hpt 2 mul def
/Lshow {currentpoint stroke M 0 vshift R 
	Blacktext {gsave 0 setgray textshow grestore} {textshow} ifelse} def
/Rshow {currentpoint stroke M dup stringwidth pop neg vshift R
	Blacktext {gsave 0 setgray textshow grestore} {textshow} ifelse} def
/Cshow {currentpoint stroke M dup stringwidth pop -2 div vshift R 
	Blacktext {gsave 0 setgray textshow grestore} {textshow} ifelse} def
/UP {dup vpt_ mul /vpt exch def hpt_ mul /hpt exch def
  /hpt2 hpt 2 mul def /vpt2 vpt 2 mul def} def
/DL {Color {setrgbcolor Solid {pop []} if 0 setdash}
 {pop pop pop 0 setgray Solid {pop []} if 0 setdash} ifelse} def
/BL {stroke userlinewidth 2 mul setlinewidth
	Rounded {1 setlinejoin 1 setlinecap} if} def
/AL {stroke userlinewidth 2 div setlinewidth
	Rounded {1 setlinejoin 1 setlinecap} if} def
/UL {dup gnulinewidth mul /userlinewidth exch def
	dup 1 lt {pop 1} if 10 mul /udl exch def} def
/PL {stroke userlinewidth setlinewidth
	Rounded {1 setlinejoin 1 setlinecap} if} def
3.8 setmiterlimit
% Classic Line colors (version 5.0)
/LCw {1 1 1} def
/LCb {0 0 0} def
/LCa {0 0 0} def
/LC0 {1 0 0} def
/LC1 {0 1 0} def
/LC2 {0 0 1} def
/LC3 {1 0 1} def
/LC4 {0 1 1} def
/LC5 {1 1 0} def
/LC6 {0 0 0} def
/LC7 {1 0.3 0} def
/LC8 {0.5 0.5 0.5} def
% Default dash patterns (version 5.0)
/LTB {BL [] LCb DL} def
/LTw {PL [] 1 setgray} def
/LTb {PL [] LCb DL} def
/LTa {AL [1 udl mul 2 udl mul] 0 setdash LCa setrgbcolor} def
/LT0 {PL [] LC0 DL} def
/LT1 {PL [2 dl1 3 dl2] LC1 DL} def
/LT2 {PL [1 dl1 1.5 dl2] LC2 DL} def
/LT3 {PL [6 dl1 2 dl2 1 dl1 2 dl2] LC3 DL} def
/LT4 {PL [1 dl1 2 dl2 6 dl1 2 dl2 1 dl1 2 dl2] LC4 DL} def
/LT5 {PL [4 dl1 2 dl2] LC5 DL} def
/LT6 {PL [1.5 dl1 1.5 dl2 1.5 dl1 1.5 dl2 1.5 dl1 6 dl2] LC6 DL} def
/LT7 {PL [3 dl1 3 dl2 1 dl1 3 dl2] LC7 DL} def
/LT8 {PL [2 dl1 2 dl2 2 dl1 6 dl2] LC8 DL} def
/SL {[] 0 setdash} def
/Pnt {stroke [] 0 setdash gsave 1 setlinecap M 0 0 V stroke grestore} def
/Dia {stroke [] 0 setdash 2 copy vpt add M
  hpt neg vpt neg V hpt vpt neg V
  hpt vpt V hpt neg vpt V closepath stroke
  Pnt} def
/Pls {stroke [] 0 setdash vpt sub M 0 vpt2 V
  currentpoint stroke M
  hpt neg vpt neg R hpt2 0 V stroke
 } def
/Box {stroke [] 0 setdash 2 copy exch hpt sub exch vpt add M
  0 vpt2 neg V hpt2 0 V 0 vpt2 V
  hpt2 neg 0 V closepath stroke
  Pnt} def
/Crs {stroke [] 0 setdash exch hpt sub exch vpt add M
  hpt2 vpt2 neg V currentpoint stroke M
  hpt2 neg 0 R hpt2 vpt2 V stroke} def
/TriU {stroke [] 0 setdash 2 copy vpt 1.12 mul add M
  hpt neg vpt -1.62 mul V
  hpt 2 mul 0 V
  hpt neg vpt 1.62 mul V closepath stroke
  Pnt} def
/Star {2 copy Pls Crs} def
/BoxF {stroke [] 0 setdash exch hpt sub exch vpt add M
  0 vpt2 neg V hpt2 0 V 0 vpt2 V
  hpt2 neg 0 V closepath fill} def
/TriUF {stroke [] 0 setdash vpt 1.12 mul add M
  hpt neg vpt -1.62 mul V
  hpt 2 mul 0 V
  hpt neg vpt 1.62 mul V closepath fill} def
/TriD {stroke [] 0 setdash 2 copy vpt 1.12 mul sub M
  hpt neg vpt 1.62 mul V
  hpt 2 mul 0 V
  hpt neg vpt -1.62 mul V closepath stroke
  Pnt} def
/TriDF {stroke [] 0 setdash vpt 1.12 mul sub M
  hpt neg vpt 1.62 mul V
  hpt 2 mul 0 V
  hpt neg vpt -1.62 mul V closepath fill} def
/DiaF {stroke [] 0 setdash vpt add M
  hpt neg vpt neg V hpt vpt neg V
  hpt vpt V hpt neg vpt V closepath fill} def
/Pent {stroke [] 0 setdash 2 copy gsave
  translate 0 hpt M 4 {72 rotate 0 hpt L} repeat
  closepath stroke grestore Pnt} def
/PentF {stroke [] 0 setdash gsave
  translate 0 hpt M 4 {72 rotate 0 hpt L} repeat
  closepath fill grestore} def
/Circle {stroke [] 0 setdash 2 copy
  hpt 0 360 arc stroke Pnt} def
/CircleF {stroke [] 0 setdash hpt 0 360 arc fill} def
/C0 {BL [] 0 setdash 2 copy moveto vpt 90 450 arc} bind def
/C1 {BL [] 0 setdash 2 copy moveto
	2 copy vpt 0 90 arc closepath fill
	vpt 0 360 arc closepath} bind def
/C2 {BL [] 0 setdash 2 copy moveto
	2 copy vpt 90 180 arc closepath fill
	vpt 0 360 arc closepath} bind def
/C3 {BL [] 0 setdash 2 copy moveto
	2 copy vpt 0 180 arc closepath fill
	vpt 0 360 arc closepath} bind def
/C4 {BL [] 0 setdash 2 copy moveto
	2 copy vpt 180 270 arc closepath fill
	vpt 0 360 arc closepath} bind def
/C5 {BL [] 0 setdash 2 copy moveto
	2 copy vpt 0 90 arc
	2 copy moveto
	2 copy vpt 180 270 arc closepath fill
	vpt 0 360 arc} bind def
/C6 {BL [] 0 setdash 2 copy moveto
	2 copy vpt 90 270 arc closepath fill
	vpt 0 360 arc closepath} bind def
/C7 {BL [] 0 setdash 2 copy moveto
	2 copy vpt 0 270 arc closepath fill
	vpt 0 360 arc closepath} bind def
/C8 {BL [] 0 setdash 2 copy moveto
	2 copy vpt 270 360 arc closepath fill
	vpt 0 360 arc closepath} bind def
/C9 {BL [] 0 setdash 2 copy moveto
	2 copy vpt 270 450 arc closepath fill
	vpt 0 360 arc closepath} bind def
/C10 {BL [] 0 setdash 2 copy 2 copy moveto vpt 270 360 arc closepath fill
	2 copy moveto
	2 copy vpt 90 180 arc closepath fill
	vpt 0 360 arc closepath} bind def
/C11 {BL [] 0 setdash 2 copy moveto
	2 copy vpt 0 180 arc closepath fill
	2 copy moveto
	2 copy vpt 270 360 arc closepath fill
	vpt 0 360 arc closepath} bind def
/C12 {BL [] 0 setdash 2 copy moveto
	2 copy vpt 180 360 arc closepath fill
	vpt 0 360 arc closepath} bind def
/C13 {BL [] 0 setdash 2 copy moveto
	2 copy vpt 0 90 arc closepath fill
	2 copy moveto
	2 copy vpt 180 360 arc closepath fill
	vpt 0 360 arc closepath} bind def
/C14 {BL [] 0 setdash 2 copy moveto
	2 copy vpt 90 360 arc closepath fill
	vpt 0 360 arc} bind def
/C15 {BL [] 0 setdash 2 copy vpt 0 360 arc closepath fill
	vpt 0 360 arc closepath} bind def
/Rec {newpath 4 2 roll moveto 1 index 0 rlineto 0 exch rlineto
	neg 0 rlineto closepath} bind def
/Square {dup Rec} bind def
/Bsquare {vpt sub exch vpt sub exch vpt2 Square} bind def
/S0 {BL [] 0 setdash 2 copy moveto 0 vpt rlineto BL Bsquare} bind def
/S1 {BL [] 0 setdash 2 copy vpt Square fill Bsquare} bind def
/S2 {BL [] 0 setdash 2 copy exch vpt sub exch vpt Square fill Bsquare} bind def
/S3 {BL [] 0 setdash 2 copy exch vpt sub exch vpt2 vpt Rec fill Bsquare} bind def
/S4 {BL [] 0 setdash 2 copy exch vpt sub exch vpt sub vpt Square fill Bsquare} bind def
/S5 {BL [] 0 setdash 2 copy 2 copy vpt Square fill
	exch vpt sub exch vpt sub vpt Square fill Bsquare} bind def
/S6 {BL [] 0 setdash 2 copy exch vpt sub exch vpt sub vpt vpt2 Rec fill Bsquare} bind def
/S7 {BL [] 0 setdash 2 copy exch vpt sub exch vpt sub vpt vpt2 Rec fill
	2 copy vpt Square fill Bsquare} bind def
/S8 {BL [] 0 setdash 2 copy vpt sub vpt Square fill Bsquare} bind def
/S9 {BL [] 0 setdash 2 copy vpt sub vpt vpt2 Rec fill Bsquare} bind def
/S10 {BL [] 0 setdash 2 copy vpt sub vpt Square fill 2 copy exch vpt sub exch vpt Square fill
	Bsquare} bind def
/S11 {BL [] 0 setdash 2 copy vpt sub vpt Square fill 2 copy exch vpt sub exch vpt2 vpt Rec fill
	Bsquare} bind def
/S12 {BL [] 0 setdash 2 copy exch vpt sub exch vpt sub vpt2 vpt Rec fill Bsquare} bind def
/S13 {BL [] 0 setdash 2 copy exch vpt sub exch vpt sub vpt2 vpt Rec fill
	2 copy vpt Square fill Bsquare} bind def
/S14 {BL [] 0 setdash 2 copy exch vpt sub exch vpt sub vpt2 vpt Rec fill
	2 copy exch vpt sub exch vpt Square fill Bsquare} bind def
/S15 {BL [] 0 setdash 2 copy Bsquare fill Bsquare} bind def
/D0 {gsave translate 45 rotate 0 0 S0 stroke grestore} bind def
/D1 {gsave translate 45 rotate 0 0 S1 stroke grestore} bind def
/D2 {gsave translate 45 rotate 0 0 S2 stroke grestore} bind def
/D3 {gsave translate 45 rotate 0 0 S3 stroke grestore} bind def
/D4 {gsave translate 45 rotate 0 0 S4 stroke grestore} bind def
/D5 {gsave translate 45 rotate 0 0 S5 stroke grestore} bind def
/D6 {gsave translate 45 rotate 0 0 S6 stroke grestore} bind def
/D7 {gsave translate 45 rotate 0 0 S7 stroke grestore} bind def
/D8 {gsave translate 45 rotate 0 0 S8 stroke grestore} bind def
/D9 {gsave translate 45 rotate 0 0 S9 stroke grestore} bind def
/D10 {gsave translate 45 rotate 0 0 S10 stroke grestore} bind def
/D11 {gsave translate 45 rotate 0 0 S11 stroke grestore} bind def
/D12 {gsave translate 45 rotate 0 0 S12 stroke grestore} bind def
/D13 {gsave translate 45 rotate 0 0 S13 stroke grestore} bind def
/D14 {gsave translate 45 rotate 0 0 S14 stroke grestore} bind def
/D15 {gsave translate 45 rotate 0 0 S15 stroke grestore} bind def
/DiaE {stroke [] 0 setdash vpt add M
  hpt neg vpt neg V hpt vpt neg V
  hpt vpt V hpt neg vpt V closepath stroke} def
/BoxE {stroke [] 0 setdash exch hpt sub exch vpt add M
  0 vpt2 neg V hpt2 0 V 0 vpt2 V
  hpt2 neg 0 V closepath stroke} def
/TriUE {stroke [] 0 setdash vpt 1.12 mul add M
  hpt neg vpt -1.62 mul V
  hpt 2 mul 0 V
  hpt neg vpt 1.62 mul V closepath stroke} def
/TriDE {stroke [] 0 setdash vpt 1.12 mul sub M
  hpt neg vpt 1.62 mul V
  hpt 2 mul 0 V
  hpt neg vpt -1.62 mul V closepath stroke} def
/PentE {stroke [] 0 setdash gsave
  translate 0 hpt M 4 {72 rotate 0 hpt L} repeat
  closepath stroke grestore} def
/CircE {stroke [] 0 setdash 
  hpt 0 360 arc stroke} def
/Opaque {gsave closepath 1 setgray fill grestore 0 setgray closepath} def
/DiaW {stroke [] 0 setdash vpt add M
  hpt neg vpt neg V hpt vpt neg V
  hpt vpt V hpt neg vpt V Opaque stroke} def
/BoxW {stroke [] 0 setdash exch hpt sub exch vpt add M
  0 vpt2 neg V hpt2 0 V 0 vpt2 V
  hpt2 neg 0 V Opaque stroke} def
/TriUW {stroke [] 0 setdash vpt 1.12 mul add M
  hpt neg vpt -1.62 mul V
  hpt 2 mul 0 V
  hpt neg vpt 1.62 mul V Opaque stroke} def
/TriDW {stroke [] 0 setdash vpt 1.12 mul sub M
  hpt neg vpt 1.62 mul V
  hpt 2 mul 0 V
  hpt neg vpt -1.62 mul V Opaque stroke} def
/PentW {stroke [] 0 setdash gsave
  translate 0 hpt M 4 {72 rotate 0 hpt L} repeat
  Opaque stroke grestore} def
/CircW {stroke [] 0 setdash 
  hpt 0 360 arc Opaque stroke} def
/BoxFill {gsave Rec 1 setgray fill grestore} def
/Density {
  /Fillden exch def
  currentrgbcolor
  /ColB exch def /ColG exch def /ColR exch def
  /ColR ColR Fillden mul Fillden sub 1 add def
  /ColG ColG Fillden mul Fillden sub 1 add def
  /ColB ColB Fillden mul Fillden sub 1 add def
  ColR ColG ColB setrgbcolor} def
/BoxColFill {gsave Rec PolyFill} def
/PolyFill {gsave Density fill grestore grestore} def
/h {rlineto rlineto rlineto gsave closepath fill grestore} bind def
%
% PostScript Level 1 Pattern Fill routine for rectangles
% Usage: x y w h s a XX PatternFill
%	x,y = lower left corner of box to be filled
%	w,h = width and height of box
%	  a = angle in degrees between lines and x-axis
%	 XX = 0/1 for no/yes cross-hatch
%
/PatternFill {gsave /PFa [ 9 2 roll ] def
  PFa 0 get PFa 2 get 2 div add PFa 1 get PFa 3 get 2 div add translate
  PFa 2 get -2 div PFa 3 get -2 div PFa 2 get PFa 3 get Rec
  TransparentPatterns {} {gsave 1 setgray fill grestore} ifelse
  clip
  currentlinewidth 0.5 mul setlinewidth
  /PFs PFa 2 get dup mul PFa 3 get dup mul add sqrt def
  0 0 M PFa 5 get rotate PFs -2 div dup translate
  0 1 PFs PFa 4 get div 1 add floor cvi
	{PFa 4 get mul 0 M 0 PFs V} for
  0 PFa 6 get ne {
	0 1 PFs PFa 4 get div 1 add floor cvi
	{PFa 4 get mul 0 2 1 roll M PFs 0 V} for
 } if
  stroke grestore} def
%
/languagelevel where
 {pop languagelevel} {1} ifelse
dup 2 lt
	{/InterpretLevel1 true def
	 /InterpretLevel3 false def}
	{/InterpretLevel1 Level1 def
	 2 gt
	    {/InterpretLevel3 Level3 def}
	    {/InterpretLevel3 false def}
	 ifelse }
 ifelse
%
% PostScript level 2 pattern fill definitions
%
/Level2PatternFill {
/Tile8x8 {/PaintType 2 /PatternType 1 /TilingType 1 /BBox [0 0 8 8] /XStep 8 /YStep 8}
	bind def
/KeepColor {currentrgbcolor [/Pattern /DeviceRGB] setcolorspace} bind def
<< Tile8x8
 /PaintProc {0.5 setlinewidth pop 0 0 M 8 8 L 0 8 M 8 0 L stroke} 
>> matrix makepattern
/Pat1 exch def
<< Tile8x8
 /PaintProc {0.5 setlinewidth pop 0 0 M 8 8 L 0 8 M 8 0 L stroke
	0 4 M 4 8 L 8 4 L 4 0 L 0 4 L stroke}
>> matrix makepattern
/Pat2 exch def
<< Tile8x8
 /PaintProc {0.5 setlinewidth pop 0 0 M 0 8 L
	8 8 L 8 0 L 0 0 L fill}
>> matrix makepattern
/Pat3 exch def
<< Tile8x8
 /PaintProc {0.5 setlinewidth pop -4 8 M 8 -4 L
	0 12 M 12 0 L stroke}
>> matrix makepattern
/Pat4 exch def
<< Tile8x8
 /PaintProc {0.5 setlinewidth pop -4 0 M 8 12 L
	0 -4 M 12 8 L stroke}
>> matrix makepattern
/Pat5 exch def
<< Tile8x8
 /PaintProc {0.5 setlinewidth pop -2 8 M 4 -4 L
	0 12 M 8 -4 L 4 12 M 10 0 L stroke}
>> matrix makepattern
/Pat6 exch def
<< Tile8x8
 /PaintProc {0.5 setlinewidth pop -2 0 M 4 12 L
	0 -4 M 8 12 L 4 -4 M 10 8 L stroke}
>> matrix makepattern
/Pat7 exch def
<< Tile8x8
 /PaintProc {0.5 setlinewidth pop 8 -2 M -4 4 L
	12 0 M -4 8 L 12 4 M 0 10 L stroke}
>> matrix makepattern
/Pat8 exch def
<< Tile8x8
 /PaintProc {0.5 setlinewidth pop 0 -2 M 12 4 L
	-4 0 M 12 8 L -4 4 M 8 10 L stroke}
>> matrix makepattern
/Pat9 exch def
/Pattern1 {PatternBgnd KeepColor Pat1 setpattern} bind def
/Pattern2 {PatternBgnd KeepColor Pat2 setpattern} bind def
/Pattern3 {PatternBgnd KeepColor Pat3 setpattern} bind def
/Pattern4 {PatternBgnd KeepColor Landscape {Pat5} {Pat4} ifelse setpattern} bind def
/Pattern5 {PatternBgnd KeepColor Landscape {Pat4} {Pat5} ifelse setpattern} bind def
/Pattern6 {PatternBgnd KeepColor Landscape {Pat9} {Pat6} ifelse setpattern} bind def
/Pattern7 {PatternBgnd KeepColor Landscape {Pat8} {Pat7} ifelse setpattern} bind def
} def
%
%
%End of PostScript Level 2 code
%
/PatternBgnd {
  TransparentPatterns {} {gsave 1 setgray fill grestore} ifelse
} def
%
% Substitute for Level 2 pattern fill codes with
% grayscale if Level 2 support is not selected.
%
/Level1PatternFill {
/Pattern1 {0.250 Density} bind def
/Pattern2 {0.500 Density} bind def
/Pattern3 {0.750 Density} bind def
/Pattern4 {0.125 Density} bind def
/Pattern5 {0.375 Density} bind def
/Pattern6 {0.625 Density} bind def
/Pattern7 {0.875 Density} bind def
} def
%
% Now test for support of Level 2 code
%
Level1 {Level1PatternFill} {Level2PatternFill} ifelse
%
/Symbol-Oblique /Symbol findfont [1 0 .167 1 0 0] makefont
dup length dict begin {1 index /FID eq {pop pop} {def} ifelse} forall
currentdict end definefont pop
%
/Metrics {ExtendTextBox Gswidth} def
/Lwidth {currentpoint stroke M 0 vshift R Metrics} def
/Rwidth {currentpoint stroke M dup stringwidth pop neg vshift R Metrics} def
/Cwidth {currentpoint stroke M dup stringwidth pop -2 div vshift R Metrics} def
/GLwidth {currentpoint stroke M 0 vshift R {ExtendTextBox} forall} def
/GRwidth {currentpoint stroke M dup Gwidth vshift R {ExtendTextBox} forall} def
/GCwidth {currentpoint stroke M dup Gwidth 2 div vshift R {ExtendTextBox} forall} def
/GLwidth2 {0 Gwidth AddGlyphWidth} def
/GRwidth2 {Gwidth -1 mul 0 AddGlyphWidth} def
/GCwidth2 {Gwidth 2 div dup -1 mul AddGlyphWidth} def
/AddGlyphWidth { dup TBx2 gt {userdict /TBx2 3 -1 roll put} {pop} ifelse
                 dup TBx1 lt {userdict /TBx1 3 -1 roll put} {pop} ifelse } def
/MFshow {
   { dup 5 get 3 ge
     { 5 get 3 eq {gsave} {grestore} ifelse }
     {dup dup 0 get findfont exch 1 get scalefont setfont
     [ currentpoint ] exch dup 2 get 0 exch R dup 5 get 2 ne {dup dup 6
     get exch 4 get {textshow} {Metrics pop 0 R} ifelse }if dup 5 get 0 eq
     {dup 3 get {2 get neg 0 exch R pop} {pop aload pop M} ifelse} {dup 5
     get 1 eq {dup 2 get exch dup 3 get exch 6 get Gswidth pop -2 div
     dup 0 R} {dup 6 get Gswidth pop -2 div 0 R 6 get
     textshow 2 index {aload pop M neg 3 -1 roll neg R pop pop} {pop pop pop
     pop aload pop M} ifelse }ifelse }ifelse }
     ifelse }
   forall} def
/Gswidth {dup type /stringtype eq {stringwidth} {pop (n) stringwidth} ifelse} def
/MFwidth {0 exch { dup 5 get 3 ge { 5 get 3 eq { 0 } { pop } ifelse }
 {dup 3 get{dup dup 0 get findfont exch 1 get scalefont setfont
     6 get Gswidth pop add} {pop} ifelse} ifelse} forall} def
/MLshow { currentpoint stroke M
  0 exch R
  Blacktext {gsave 0 setgray MFshow grestore} {MFshow} ifelse } bind def
/MRshow { currentpoint stroke M
  exch dup MFwidth neg 3 -1 roll R
  Blacktext {gsave 0 setgray MFshow grestore} {MFshow} ifelse } bind def
/MCshow { currentpoint stroke M
  exch dup MFwidth -2 div 3 -1 roll R
  Blacktext {gsave 0 setgray MFshow grestore} {MFshow} ifelse } bind def
/XYsave    { [( ) 1 2 true false 3 ()] } bind def
/XYrestore { [( ) 1 2 true false 4 ()] } bind def
Level1 SuppressPDFMark or 
{} {
/SDict 10 dict def
systemdict /pdfmark known not {
  userdict /pdfmark systemdict /cleartomark get put
} if
SDict begin [
  /Title (gnuplot_avrgFromFai_awk_SZ.eps)
  /Subject (gnuplot plot)
  /Creator (gnuplot 5.2 patchlevel 2)
%  /Producer (gnuplot)
%  /Keywords ()
  /CreationDate (Wed Aug 25 09:18:52 2021)
  /DOCINFO pdfmark
end
} ifelse
%
% Support for boxed text - Ethan A Merritt Sep 2016
%
/InitTextBox { userdict /TBy2 3 -1 roll put userdict /TBx2 3 -1 roll put
           userdict /TBy1 3 -1 roll put userdict /TBx1 3 -1 roll put
	   /Boxing true def } def
/ExtendTextBox { dup type /stringtype eq
    { Boxing { gsave dup false charpath pathbbox
      dup TBy2 gt {userdict /TBy2 3 -1 roll put} {pop} ifelse
      dup TBx2 gt {userdict /TBx2 3 -1 roll put} {pop} ifelse
      dup TBy1 lt {userdict /TBy1 3 -1 roll put} {pop} ifelse
      dup TBx1 lt {userdict /TBx1 3 -1 roll put} {pop} ifelse
      grestore } if }
    {} ifelse} def
/PopTextBox { newpath TBx1 TBxmargin sub TBy1 TBymargin sub M
               TBx1 TBxmargin sub TBy2 TBymargin add L
	       TBx2 TBxmargin add TBy2 TBymargin add L
	       TBx2 TBxmargin add TBy1 TBymargin sub L closepath } def
/DrawTextBox { PopTextBox stroke /Boxing false def} def
/FillTextBox { gsave PopTextBox fill grestore /Boxing false def} def
0 0 0 0 InitTextBox
/TBxmargin 20 def
/TBymargin 20 def
/Boxing false def
/textshow { ExtendTextBox Gshow } def
%
end
%%EndProlog
%%Page: 1 1
gnudict begin
gsave
doclip
50 50 translate
0.050 0.050 scale
0 setgray
newpath
(Helvetica) findfont 140 scalefont setfont
BackgroundColor 0 lt 3 1 roll 0 lt exch 0 lt or or not {BackgroundColor C 1.000 0 0 7200.00 5040.00 BoxColFill} if
1.000 UL
LTb
LCb setrgbcolor
770 470 M
63 0 V
6114 0 R
-63 0 V
stroke
686 470 M
[ [(Helvetica) 140.0 0.0 true true 0 (-1.00)]
] -46.7 MRshow
1.000 UL
LTb
LCb setrgbcolor
770 1572 M
63 0 V
6114 0 R
-63 0 V
stroke
686 1572 M
[ [(Helvetica) 140.0 0.0 true true 0 (-0.50)]
] -46.7 MRshow
1.000 UL
LTb
LCb setrgbcolor
770 2674 M
63 0 V
6114 0 R
-63 0 V
stroke
686 2674 M
[ [(Helvetica) 140.0 0.0 true true 0 (0.00)]
] -46.7 MRshow
1.000 UL
LTb
LCb setrgbcolor
770 3775 M
63 0 V
6114 0 R
-63 0 V
stroke
686 3775 M
[ [(Helvetica) 140.0 0.0 true true 0 (0.50)]
] -46.7 MRshow
1.000 UL
LTb
LCb setrgbcolor
770 4877 M
63 0 V
6114 0 R
-63 0 V
stroke
686 4877 M
[ [(Helvetica) 140.0 0.0 true true 0 (1.00)]
] -46.7 MRshow
1.000 UL
LTb
LCb setrgbcolor
770 448 M
0 63 V
0 4388 R
0 -63 V
stroke
770 308 M
[ [(Helvetica) 140.0 0.0 true true 0 ( 0)]
] -46.7 MCshow
1.000 UL
LTb
LCb setrgbcolor
1456 448 M
0 63 V
0 4388 R
0 -63 V
stroke
1456 308 M
[ [(Helvetica) 140.0 0.0 true true 0 ( 200)]
] -46.7 MCshow
1.000 UL
LTb
LCb setrgbcolor
2143 448 M
0 63 V
0 4388 R
0 -63 V
stroke
2143 308 M
[ [(Helvetica) 140.0 0.0 true true 0 ( 400)]
] -46.7 MCshow
1.000 UL
LTb
LCb setrgbcolor
2829 448 M
0 63 V
0 4388 R
0 -63 V
stroke
2829 308 M
[ [(Helvetica) 140.0 0.0 true true 0 ( 600)]
] -46.7 MCshow
1.000 UL
LTb
LCb setrgbcolor
3515 448 M
0 63 V
0 4388 R
0 -63 V
stroke
3515 308 M
[ [(Helvetica) 140.0 0.0 true true 0 ( 800)]
] -46.7 MCshow
1.000 UL
LTb
LCb setrgbcolor
4202 448 M
0 63 V
0 4388 R
0 -63 V
stroke
4202 308 M
[ [(Helvetica) 140.0 0.0 true true 0 ( 1000)]
] -46.7 MCshow
1.000 UL
LTb
LCb setrgbcolor
4888 448 M
0 63 V
0 4388 R
0 -63 V
stroke
4888 308 M
[ [(Helvetica) 140.0 0.0 true true 0 ( 1200)]
] -46.7 MCshow
1.000 UL
LTb
LCb setrgbcolor
5574 448 M
0 63 V
0 4388 R
0 -63 V
stroke
5574 308 M
[ [(Helvetica) 140.0 0.0 true true 0 ( 1400)]
] -46.7 MCshow
1.000 UL
LTb
LCb setrgbcolor
6261 448 M
0 63 V
0 4388 R
0 -63 V
stroke
6261 308 M
[ [(Helvetica) 140.0 0.0 true true 0 ( 1600)]
] -46.7 MCshow
1.000 UL
LTb
LCb setrgbcolor
6947 448 M
0 63 V
0 4388 R
0 -63 V
stroke
6947 308 M
[ [(Helvetica) 140.0 0.0 true true 0 ( 1800)]
] -46.7 MCshow
1.000 UL
LTb
LCb setrgbcolor
1.000 UL
LTB
LCb setrgbcolor
770 4899 N
770 448 L
6177 0 V
0 4451 V
-6177 0 V
Z stroke
1.000 UP
1.000 UL
LTb
LCb setrgbcolor
LCb setrgbcolor
126 2673 M
currentpoint gsave translate -270 rotate 0 0 moveto
[ [(Helvetica) 140.0 0.0 true true 0 (Average S)]
[(Helvetica) 112.0 -42.0 true true 0 (y)]
[(Helvetica) 140.0 0.0 true true 0 ( over particles)]
] -32.7 MCshow
grestore
LTb
LCb setrgbcolor
3858 98 M
[ [(Helvetica) 140.0 0.0 true true 0 (turns)]
] -46.7 MCshow
LTb
% Begin plot #1
0.100 UP
1.000 UL
LTb
0.93 0.51 0.93 C 773 4877 CircleF
777 4872 CircleF
780 4876 CircleF
784 4876 CircleF
787 4874 CircleF
791 4876 CircleF
794 4875 CircleF
797 4874 CircleF
801 4876 CircleF
804 4875 CircleF
808 4874 CircleF
811 4877 CircleF
815 4873 CircleF
818 4877 CircleF
821 4875 CircleF
825 4875 CircleF
828 4877 CircleF
832 4873 CircleF
835 4876 CircleF
839 4874 CircleF
842 4875 CircleF
845 4876 CircleF
849 4874 CircleF
852 4875 CircleF
856 4875 CircleF
859 4875 CircleF
863 4876 CircleF
866 4875 CircleF
870 4874 CircleF
873 4876 CircleF
876 4874 CircleF
880 4876 CircleF
883 4876 CircleF
887 4873 CircleF
890 4876 CircleF
894 4873 CircleF
897 4877 CircleF
900 4876 CircleF
904 4873 CircleF
907 4877 CircleF
911 4873 CircleF
914 4877 CircleF
918 4876 CircleF
921 4874 CircleF
924 4877 CircleF
928 4873 CircleF
931 4877 CircleF
935 4875 CircleF
938 4874 CircleF
942 4877 CircleF
945 4873 CircleF
948 4877 CircleF
952 4874 CircleF
955 4875 CircleF
959 4877 CircleF
962 4873 CircleF
966 4877 CircleF
969 4873 CircleF
972 4876 CircleF
976 4877 CircleF
979 4873 CircleF
983 4877 CircleF
986 4873 CircleF
990 4877 CircleF
993 4876 CircleF
996 4874 CircleF
1000 4877 CircleF
1003 4873 CircleF
1007 4877 CircleF
1010 4875 CircleF
1014 4875 CircleF
1017 4877 CircleF
1021 4873 CircleF
1024 4877 CircleF
1027 4874 CircleF
1031 4876 CircleF
1034 4877 CircleF
1038 4873 CircleF
1041 4877 CircleF
1045 4873 CircleF
1048 4877 CircleF
1051 4876 CircleF
1055 4874 CircleF
1058 4877 CircleF
1062 4873 CircleF
1065 4877 CircleF
1069 4874 CircleF
1072 4876 CircleF
1075 4876 CircleF
1079 4873 CircleF
1082 4876 CircleF
1086 4874 CircleF
1089 4877 CircleF
1093 4875 CircleF
1096 4875 CircleF
1099 4875 CircleF
1103 4875 CircleF
1106 4876 CircleF
1110 4875 CircleF
1113 4876 CircleF
1117 4874 CircleF
1120 4876 CircleF
1123 4874 CircleF
1127 4876 CircleF
1130 4877 CircleF
1134 4873 CircleF
1137 4877 CircleF
1141 4873 CircleF
1144 4877 CircleF
1147 4875 CircleF
1151 4874 CircleF
1154 4876 CircleF
1158 4874 CircleF
1161 4876 CircleF
1165 4875 CircleF
1168 4877 CircleF
1172 4874 CircleF
1175 4877 CircleF
1178 4873 CircleF
1182 4876 CircleF
1185 4876 CircleF
1189 4873 CircleF
1192 4877 CircleF
1196 4874 CircleF
1199 4876 CircleF
1202 4875 CircleF
1206 4876 CircleF
1209 4874 CircleF
1213 4876 CircleF
1216 4874 CircleF
1220 4876 CircleF
1223 4877 CircleF
1226 4873 CircleF
1230 4877 CircleF
1233 4874 CircleF
1237 4877 CircleF
1240 4875 CircleF
1244 4876 CircleF
1247 4874 CircleF
1250 4876 CircleF
1254 4874 CircleF
1257 4876 CircleF
1261 4876 CircleF
1264 4873 CircleF
1268 4877 CircleF
1271 4874 CircleF
1274 4876 CircleF
1278 4875 CircleF
1281 4876 CircleF
1285 4874 CircleF
1288 4876 CircleF
1292 4873 CircleF
1295 4877 CircleF
1298 4876 CircleF
1302 4874 CircleF
1305 4876 CircleF
1309 4874 CircleF
1312 4876 CircleF
1316 4875 CircleF
1319 4877 CircleF
1322 4874 CircleF
1326 4877 CircleF
1329 4873 CircleF
1333 4877 CircleF
1336 4875 CircleF
1340 4876 CircleF
1343 4875 CircleF
1347 4875 CircleF
1350 4874 CircleF
1353 4876 CircleF
1357 4876 CircleF
1360 4874 CircleF
1364 4877 CircleF
1367 4874 CircleF
1371 4876 CircleF
1374 4875 CircleF
1377 4877 CircleF
1381 4873 CircleF
1384 4877 CircleF
1388 4873 CircleF
1391 4877 CircleF
1395 4875 CircleF
1398 4876 CircleF
1401 4874 CircleF
1405 4877 CircleF
1408 4873 CircleF
1412 4877 CircleF
1415 4875 CircleF
1419 4876 CircleF
1422 4874 CircleF
1425 4877 CircleF
1429 4874 CircleF
1432 4876 CircleF
1436 4875 CircleF
1439 4875 CircleF
1443 4874 CircleF
1446 4877 CircleF
1449 4875 CircleF
1453 4875 CircleF
1456 4875 CircleF
1460 4875 CircleF
1463 4874 CircleF
1467 4876 CircleF
1470 4876 CircleF
1473 4875 CircleF
1477 4875 CircleF
1480 4876 CircleF
1484 4874 CircleF
1487 4876 CircleF
1491 4876 CircleF
1494 4874 CircleF
1498 4875 CircleF
1501 4876 CircleF
1504 4875 CircleF
1508 4876 CircleF
1511 4876 CircleF
1515 4875 CircleF
1518 4874 CircleF
1522 4877 CircleF
1525 4875 CircleF
1528 4875 CircleF
1532 4875 CircleF
1535 4876 CircleF
1539 4874 CircleF
1542 4877 CircleF
1546 4875 CircleF
1549 4875 CircleF
1552 4875 CircleF
1556 4876 CircleF
1559 4874 CircleF
1563 4877 CircleF
1566 4875 CircleF
1570 4876 CircleF
1573 4874 CircleF
1576 4877 CircleF
1580 4874 CircleF
1583 4877 CircleF
1587 4875 CircleF
1590 4876 CircleF
1594 4873 CircleF
1597 4877 CircleF
1600 4874 CircleF
1604 4877 CircleF
1607 4874 CircleF
1611 4877 CircleF
1614 4873 CircleF
1618 4876 CircleF
1621 4875 CircleF
1624 4876 CircleF
1628 4874 CircleF
1631 4876 CircleF
1635 4875 CircleF
1638 4875 CircleF
1642 4876 CircleF
1645 4876 CircleF
1649 4874 CircleF
1652 4875 CircleF
1655 4877 CircleF
1659 4874 CircleF
1662 4876 CircleF
1666 4874 CircleF
1669 4877 CircleF
1673 4873 CircleF
1676 4877 CircleF
1679 4875 CircleF
1683 4877 CircleF
1686 4873 CircleF
1690 4876 CircleF
1693 4875 CircleF
1697 4875 CircleF
1700 4876 CircleF
1703 4876 CircleF
1707 4875 CircleF
1710 4874 CircleF
1714 4877 CircleF
1717 4875 CircleF
1721 4877 CircleF
1724 4873 CircleF
1727 4877 CircleF
1731 4875 CircleF
1734 4875 CircleF
1738 4875 CircleF
1741 4876 CircleF
1745 4875 CircleF
1748 4874 CircleF
1751 4877 CircleF
1755 4875 CircleF
1758 4877 CircleF
1762 4873 CircleF
1765 4877 CircleF
1769 4875 CircleF
1772 4876 CircleF
1775 4875 CircleF
1779 4876 CircleF
1782 4876 CircleF
1786 4874 CircleF
1789 4877 CircleF
1793 4875 CircleF
1796 4877 CircleF
1800 4873 CircleF
1803 4876 CircleF
1806 4876 CircleF
1810 4875 CircleF
1813 4876 CircleF
1817 4875 CircleF
1820 4876 CircleF
1824 4873 CircleF
1827 4876 CircleF
1830 4875 CircleF
1834 4877 CircleF
1837 4873 CircleF
1841 4875 CircleF
1844 4876 CircleF
1848 4874 CircleF
1851 4877 CircleF
1854 4874 CircleF
1858 4877 CircleF
1861 4874 CircleF
1865 4875 CircleF
1868 4876 CircleF
1872 4876 CircleF
1875 4875 CircleF
1878 4874 CircleF
1882 4877 CircleF
1885 4874 CircleF
1889 4876 CircleF
1892 4874 CircleF
1896 4876 CircleF
1899 4875 CircleF
1902 4874 CircleF
1906 4877 CircleF
1909 4875 CircleF
1913 4877 CircleF
1916 4873 CircleF
1920 4875 CircleF
1923 4876 CircleF
1926 4874 CircleF
1930 4877 CircleF
1933 4873 CircleF
1937 4877 CircleF
1940 4874 CircleF
1944 4875 CircleF
1947 4876 CircleF
1950 4875 CircleF
1954 4877 CircleF
1957 4873 CircleF
1961 4876 CircleF
1964 4876 CircleF
1968 4875 CircleF
1971 4876 CircleF
1975 4873 CircleF
1978 4877 CircleF
1981 4875 CircleF
1985 4876 CircleF
1988 4875 CircleF
1992 4874 CircleF
1995 4877 CircleF
1999 4874 CircleF
2002 4876 CircleF
2005 4875 CircleF
2009 4875 CircleF
2012 4877 CircleF
2016 4874 CircleF
2019 4876 CircleF
2023 4876 CircleF
2026 4875 CircleF
2029 4876 CircleF
2033 4873 CircleF
2036 4876 CircleF
2040 4876 CircleF
2043 4876 CircleF
2047 4876 CircleF
2050 4873 CircleF
2053 4876 CircleF
2057 4876 CircleF
2060 4875 CircleF
2064 4876 CircleF
2067 4873 CircleF
2071 4877 CircleF
2074 4876 CircleF
2077 4875 CircleF
2081 4876 CircleF
2084 4873 CircleF
2088 4877 CircleF
2091 4875 CircleF
2095 4875 CircleF
2098 4876 CircleF
2101 4874 CircleF
2105 4877 CircleF
2108 4875 CircleF
2112 4874 CircleF
2115 4877 CircleF
2119 4874 CircleF
2122 4877 CircleF
2126 4874 CircleF
2129 4874 CircleF
2132 4877 CircleF
2136 4875 CircleF
2139 4877 CircleF
2143 4874 CircleF
2146 4874 CircleF
2150 4877 CircleF
2153 4875 CircleF
2156 4876 CircleF
2160 4875 CircleF
2163 4873 CircleF
2167 4877 CircleF
2170 4875 CircleF
2174 4875 CircleF
2177 4876 CircleF
2180 4873 CircleF
2184 4877 CircleF
2187 4875 CircleF
2191 4874 CircleF
2194 4877 CircleF
2198 4874 CircleF
2201 4876 CircleF
2204 4876 CircleF
2208 4874 CircleF
2211 4876 CircleF
2215 4875 CircleF
2218 4875 CircleF
2222 4877 CircleF
2225 4873 CircleF
2228 4875 CircleF
2232 4877 CircleF
2235 4874 CircleF
2239 4877 CircleF
2242 4874 CircleF
2246 4874 CircleF
2249 4877 CircleF
2252 4875 CircleF
2256 4876 CircleF
2259 4876 CircleF
2263 4873 CircleF
2266 4876 CircleF
2270 4876 CircleF
2273 4875 CircleF
2277 4877 CircleF
2280 4874 CircleF
2283 4874 CircleF
2287 4877 CircleF
2290 4875 CircleF
2294 4876 CircleF
2297 4876 CircleF
2301 4873 CircleF
2304 4875 CircleF
2307 4876 CircleF
2311 4874 CircleF
2314 4877 CircleF
2318 4875 CircleF
2321 4874 CircleF
2325 4876 CircleF
2328 4875 CircleF
2331 4875 CircleF
2335 4877 CircleF
2338 4874 CircleF
2342 4874 CircleF
2345 4877 CircleF
2349 4874 CircleF
2352 4876 CircleF
2355 4876 CircleF
2359 4874 CircleF
2362 4875 CircleF
2366 4876 CircleF
2369 4873 CircleF
2373 4877 CircleF
2376 4876 CircleF
2379 4874 CircleF
2383 4876 CircleF
2386 4875 CircleF
2390 4873 CircleF
2393 4877 CircleF
2397 4876 CircleF
2400 4874 CircleF
2403 4877 CircleF
2407 4874 CircleF
2410 4874 CircleF
2414 4877 CircleF
2417 4875 CircleF
2421 4875 CircleF
2424 4877 CircleF
2427 4873 CircleF
2431 4875 CircleF
2434 4877 CircleF
2438 4875 CircleF
2441 4875 CircleF
2445 4876 CircleF
2448 4872 CircleF
2452 4875 CircleF
2455 4877 CircleF
2458 4875 CircleF
2462 4876 CircleF
2465 4876 CircleF
2469 4872 CircleF
2472 4875 CircleF
2476 4877 CircleF
2479 4875 CircleF
2482 4876 CircleF
2486 4876 CircleF
2489 4872 CircleF
2493 4875 CircleF
2496 4877 CircleF
2500 4875 CircleF
2503 4875 CircleF
2506 4876 CircleF
2510 4873 CircleF
2513 4874 CircleF
2517 4877 CircleF
2520 4875 CircleF
2524 4875 CircleF
2527 4877 CircleF
2530 4874 CircleF
2534 4874 CircleF
2537 4877 CircleF
2541 4875 CircleF
2544 4873 CircleF
2548 4877 CircleF
2551 4876 CircleF
2554 4874 CircleF
2558 4876 CircleF
2561 4875 CircleF
2565 4872 CircleF
2568 4876 CircleF
2572 4877 CircleF
2575 4875 CircleF
2578 4876 CircleF
2582 4876 CircleF
2585 4873 CircleF
2589 4874 CircleF
2592 4877 CircleF
2596 4875 CircleF
2599 4874 CircleF
2603 4877 CircleF
2606 4876 CircleF
2609 4874 CircleF
2613 4876 CircleF
2616 4876 CircleF
2620 4872 CircleF
2623 4875 CircleF
2627 4877 CircleF
2630 4875 CircleF
2633 4875 CircleF
2637 4877 CircleF
2640 4874 CircleF
2644 4873 CircleF
2647 4875 CircleF
2651 4877 CircleF
2654 4873 CircleF
2657 4875 CircleF
2661 4877 CircleF
2664 4875 CircleF
2668 4874 CircleF
2671 4877 CircleF
2675 4875 CircleF
2678 4872 CircleF
2681 4875 CircleF
2685 4877 CircleF
2688 4875 CircleF
2692 4874 CircleF
2695 4877 CircleF
2699 4875 CircleF
2702 4874 CircleF
2705 4876 CircleF
2709 4876 CircleF
2712 4873 CircleF
2716 4874 CircleF
2719 4877 CircleF
2723 4876 CircleF
2726 4874 CircleF
2729 4877 CircleF
2733 4875 CircleF
2736 4872 CircleF
2740 4874 CircleF
2743 4877 CircleF
2747 4875 CircleF
2750 4873 CircleF
2754 4876 CircleF
2757 4876 CircleF
2760 4874 CircleF
2764 4875 CircleF
2767 4877 CircleF
2771 4874 CircleF
2774 4872 CircleF
2778 4876 CircleF
2781 4877 CircleF
2784 4875 CircleF
2788 4875 CircleF
2791 4877 CircleF
2795 4874 CircleF
2798 4873 CircleF
2802 4875 CircleF
2805 4877 CircleF
2808 4873 CircleF
2812 4873 CircleF
2815 4876 CircleF
2819 4876 CircleF
2822 4874 CircleF
2826 4875 CircleF
2829 4877 CircleF
2832 4874 CircleF
2836 4872 CircleF
2839 4875 CircleF
2843 4877 CircleF
2846 4874 CircleF
2850 4872 CircleF
2853 4876 CircleF
2856 4877 CircleF
2860 4875 CircleF
2863 4874 CircleF
2867 4877 CircleF
2870 4875 CircleF
2874 4872 CircleF
2877 4874 CircleF
2880 4876 CircleF
2884 4875 CircleF
2887 4871 CircleF
2891 4874 CircleF
2894 4877 CircleF
2898 4876 CircleF
2901 4873 CircleF
2904 4875 CircleF
2908 4877 CircleF
2911 4875 CircleF
2915 4873 CircleF
2918 4875 CircleF
2922 4877 CircleF
2925 4873 CircleF
2929 4871 CircleF
2932 4874 CircleF
2935 4877 CircleF
2939 4875 CircleF
2942 4871 CircleF
2946 4874 CircleF
2949 4877 CircleF
2953 4876 CircleF
2956 4874 CircleF
2959 4874 CircleF
2963 4877 CircleF
2966 4875 CircleF
2970 4873 CircleF
2973 4874 CircleF
2977 4877 CircleF
2980 4875 CircleF
2983 4871 CircleF
2987 4873 CircleF
2990 4876 CircleF
2994 4876 CircleF
2997 4872 CircleF
3001 4872 CircleF
3004 4876 CircleF
3007 4877 CircleF
3011 4875 CircleF
3014 4873 CircleF
3018 4875 CircleF
3021 4877 CircleF
3025 4875 CircleF
3028 4873 CircleF
3031 4875 CircleF
3035 4877 CircleF
3038 4874 CircleF
3042 4871 CircleF
3045 4873 CircleF
3049 4876 CircleF
3052 4876 CircleF
3055 4872 CircleF
3059 4872 CircleF
3062 4876 CircleF
3066 4877 CircleF
3069 4875 CircleF
3073 4873 CircleF
3076 4875 CircleF
3080 4877 CircleF
3083 4875 CircleF
3086 4874 CircleF
3090 4874 CircleF
3093 4877 CircleF
3097 4876 CircleF
3100 4872 CircleF
3104 4872 CircleF
3107 4875 CircleF
3110 4877 CircleF
3114 4874 CircleF
3117 4870 CircleF
3121 4873 CircleF
3124 4876 CircleF
3128 4877 CircleF
3131 4874 CircleF
3134 4871 CircleF
3138 4874 CircleF
3141 4877 CircleF
3145 4876 CircleF
3148 4874 CircleF
3152 4873 CircleF
3155 4876 CircleF
3158 4877 CircleF
3162 4875 CircleF
3165 4873 CircleF
3169 4874 CircleF
3172 4877 CircleF
3176 4876 CircleF
3179 4873 CircleF
3182 4873 CircleF
3186 4874 CircleF
3189 4877 CircleF
3193 4875 CircleF
3196 4872 CircleF
3200 4872 CircleF
3203 4875 CircleF
3206 4877 CircleF
3210 4875 CircleF
3213 4871 CircleF
3217 4871 CircleF
3220 4874 CircleF
3224 4877 CircleF
3227 4876 CircleF
3231 4871 CircleF
3234 4870 CircleF
3237 4874 CircleF
3241 4877 CircleF
3244 4876 CircleF
3248 4872 CircleF
3251 4870 CircleF
3255 4873 CircleF
3258 4876 CircleF
3261 4877 CircleF
3265 4873 CircleF
3268 4870 CircleF
3272 4872 CircleF
3275 4876 CircleF
3279 4877 CircleF
3282 4875 CircleF
3285 4870 CircleF
3289 4871 CircleF
3292 4875 CircleF
3296 4877 CircleF
3299 4876 CircleF
3303 4872 CircleF
3306 4870 CircleF
3309 4873 CircleF
3313 4876 CircleF
3316 4877 CircleF
3320 4874 CircleF
3323 4870 CircleF
3327 4871 CircleF
3330 4875 CircleF
3333 4877 CircleF
3337 4876 CircleF
3340 4871 CircleF
3344 4869 CircleF
3347 4873 CircleF
3351 4876 CircleF
3354 4877 CircleF
3357 4874 CircleF
3361 4870 CircleF
3364 4870 CircleF
3368 4874 CircleF
3371 4877 CircleF
3375 4876 CircleF
3378 4872 CircleF
3381 4869 CircleF
3385 4871 CircleF
3388 4875 CircleF
3392 4877 CircleF
3395 4875 CircleF
3399 4871 CircleF
3402 4869 CircleF
3406 4872 CircleF
3409 4876 CircleF
3412 4877 CircleF
3416 4875 CircleF
3419 4870 CircleF
3423 4869 CircleF
3426 4873 CircleF
3430 4876 CircleF
3433 4877 CircleF
3436 4874 CircleF
3440 4869 CircleF
3443 4869 CircleF
3447 4873 CircleF
3450 4876 CircleF
3454 4877 CircleF
3457 4874 CircleF
3460 4869 CircleF
3464 4869 CircleF
3467 4873 CircleF
3471 4876 CircleF
3474 4877 CircleF
3478 4874 CircleF
3481 4870 CircleF
3484 4870 CircleF
3488 4872 CircleF
3491 4875 CircleF
3495 4877 CircleF
3498 4875 CircleF
3502 4872 CircleF
3505 4871 CircleF
3508 4872 CircleF
3512 4873 CircleF
3515 4876 CircleF
3519 4876 CircleF
3522 4875 CircleF
3526 4873 CircleF
3529 4872 CircleF
3532 4871 CircleF
3536 4872 CircleF
3539 4875 CircleF
3543 4877 CircleF
3546 4876 CircleF
3550 4873 CircleF
3553 4868 CircleF
3557 4868 CircleF
3560 4872 CircleF
3563 4876 CircleF
3567 4877 CircleF
3570 4875 CircleF
3574 4870 CircleF
3577 4868 CircleF
3581 4870 CircleF
3584 4873 CircleF
3587 4875 CircleF
3591 4876 CircleF
3594 4875 CircleF
3598 4873 CircleF
3601 4872 CircleF
3605 4870 CircleF
3608 4870 CircleF
3611 4872 CircleF
3615 4875 CircleF
3618 4877 CircleF
3622 4876 CircleF
3625 4872 CircleF
3629 4867 CircleF
3632 4867 CircleF
3635 4870 CircleF
3639 4874 CircleF
3642 4876 CircleF
3646 4876 CircleF
3649 4873 CircleF
3653 4871 CircleF
3656 4870 CircleF
3659 4870 CircleF
3663 4871 CircleF
3666 4873 CircleF
3670 4875 CircleF
3673 4876 CircleF
3677 4876 CircleF
3680 4873 CircleF
3683 4868 CircleF
3687 4866 CircleF
3690 4868 CircleF
3694 4873 CircleF
3697 4876 CircleF
3701 4877 CircleF
3704 4874 CircleF
3708 4871 CircleF
3711 4869 CircleF
3714 4869 CircleF
3718 4870 CircleF
3721 4871 CircleF
3725 4873 CircleF
3728 4875 CircleF
3732 4876 CircleF
3735 4875 CircleF
3738 4872 CircleF
3742 4868 CircleF
3745 4865 CircleF
3749 4867 CircleF
3752 4872 CircleF
3756 4875 CircleF
3759 4876 CircleF
3762 4875 CircleF
3766 4872 CircleF
3769 4870 CircleF
3773 4869 CircleF
3776 4869 CircleF
3780 4868 CircleF
3783 4869 CircleF
3786 4872 CircleF
3790 4875 CircleF
3793 4876 CircleF
3797 4875 CircleF
3800 4871 CircleF
3804 4866 CircleF
3807 4864 CircleF
3810 4866 CircleF
3814 4869 CircleF
3817 4871 CircleF
3821 4873 CircleF
3824 4874 CircleF
3828 4875 CircleF
3831 4875 CircleF
3834 4873 CircleF
3838 4868 CircleF
3841 4863 CircleF
3845 4862 CircleF
3848 4865 CircleF
3852 4869 CircleF
3855 4872 CircleF
3859 4873 CircleF
3862 4874 CircleF
3865 4875 CircleF
3869 4874 CircleF
3872 4872 CircleF
3876 4867 CircleF
3879 4862 CircleF
3883 4860 CircleF
3886 4863 CircleF
3889 4867 CircleF
3893 4868 CircleF
3896 4869 CircleF
3900 4871 CircleF
3903 4874 CircleF
3907 4875 CircleF
3910 4874 CircleF
3913 4870 CircleF
3917 4864 CircleF
3920 4861 CircleF
3924 4862 CircleF
3927 4863 CircleF
3931 4862 CircleF
3934 4861 CircleF
3937 4863 CircleF
3941 4868 CircleF
3944 4873 CircleF
3948 4874 CircleF
3951 4873 CircleF
3955 4870 CircleF
3958 4869 CircleF
3961 4868 CircleF
3965 4866 CircleF
3968 4861 CircleF
3972 4856 CircleF
3975 4855 CircleF
3979 4858 CircleF
3982 4863 CircleF
3985 4865 CircleF
3989 4866 CircleF
3992 4867 CircleF
3996 4870 CircleF
3999 4873 CircleF
4003 4873 CircleF
4006 4871 CircleF
4009 4866 CircleF
4013 4862 CircleF
4016 4861 CircleF
4020 4861 CircleF
4023 4859 CircleF
4027 4854 CircleF
4030 4852 CircleF
4034 4854 CircleF
4037 4860 CircleF
4040 4864 CircleF
4044 4866 CircleF
4047 4866 CircleF
4051 4867 CircleF
4054 4870 CircleF
4058 4871 CircleF
4061 4871 CircleF
4064 4867 CircleF
4068 4861 CircleF
4071 4857 CircleF
4075 4856 CircleF
4078 4857 CircleF
4082 4854 CircleF
4085 4849 CircleF
4088 4846 CircleF
4092 4847 CircleF
4095 4853 CircleF
4099 4858 CircleF
4102 4859 CircleF
4106 4859 CircleF
4109 4860 CircleF
4112 4863 CircleF
4116 4867 CircleF
4119 4868 CircleF
4123 4866 CircleF
4126 4861 CircleF
4130 4857 CircleF
4133 4857 CircleF
4136 4856 CircleF
4140 4852 CircleF
4143 4845 CircleF
4147 4837 CircleF
4150 4835 CircleF
4154 4837 CircleF
4157 4838 CircleF
4160 4835 CircleF
4164 4830 CircleF
4167 4827 CircleF
4171 4831 CircleF
4174 4837 CircleF
4178 4840 CircleF
4181 4838 CircleF
4185 4835 CircleF
4188 4836 CircleF
4191 4842 CircleF
4195 4846 CircleF
4198 4845 CircleF
4202 4840 CircleF
4205 4836 CircleF
4209 4836 CircleF
4212 4839 CircleF
4215 4837 CircleF
4219 4829 CircleF
4222 4819 CircleF
4226 4813 CircleF
4229 4813 CircleF
4233 4811 CircleF
4236 4802 CircleF
4239 4787 CircleF
4243 4776 CircleF
4246 4772 CircleF
4250 4772 CircleF
4253 4765 CircleF
4257 4749 CircleF
4260 4732 CircleF
4263 4724 CircleF
4267 4724 CircleF
4270 4720 CircleF
4274 4705 CircleF
4277 4684 CircleF
4281 4671 CircleF
4284 4668 CircleF
4287 4668 CircleF
4291 4656 CircleF
4294 4634 CircleF
4298 4613 CircleF
4301 4604 CircleF
4305 4604 CircleF
4308 4596 CircleF
4311 4574 CircleF
4315 4546 CircleF
4318 4529 CircleF
4322 4524 CircleF
4325 4518 CircleF
4329 4498 CircleF
4332 4465 CircleF
4336 4435 CircleF
4339 4421 CircleF
4342 4413 CircleF
4346 4396 CircleF
4349 4360 CircleF
4353 4319 CircleF
4356 4290 CircleF
4360 4274 CircleF
4363 4256 CircleF
4366 4222 CircleF
4370 4172 CircleF
4373 4125 CircleF
4377 4092 CircleF
4380 4068 CircleF
4384 4035 CircleF
4387 3981 CircleF
4390 3918 CircleF
4394 3865 CircleF
4397 3825 CircleF
4401 3786 CircleF
4404 3731 CircleF
4408 3659 CircleF
4411 3585 CircleF
4414 3522 CircleF
4418 3468 CircleF
4421 3408 CircleF
4425 3330 CircleF
4428 3243 CircleF
4432 3160 CircleF
4435 3087 CircleF
4438 3014 CircleF
4442 2930 CircleF
4445 2836 CircleF
4449 2744 CircleF
4452 2658 CircleF
4456 2572 CircleF
4459 2480 CircleF
4462 2383 CircleF
4466 2293 CircleF
4469 2214 CircleF
4473 2137 CircleF
4476 2050 CircleF
4480 1958 CircleF
4483 1880 CircleF
4486 1826 CircleF
4490 1786 CircleF
4493 1737 CircleF
4497 1676 CircleF
4500 1627 CircleF
4504 1614 CircleF
4507 1630 CircleF
4511 1647 CircleF
4514 1652 CircleF
4517 1662 CircleF
4521 1701 CircleF
4524 1769 CircleF
4528 1846 CircleF
4531 1915 CircleF
4535 1987 CircleF
4538 2076 CircleF
4541 2171 CircleF
4545 2252 CircleF
4548 2321 CircleF
4552 2397 CircleF
4555 2483 CircleF
4559 2550 CircleF
4562 2573 CircleF
4565 2564 CircleF
4569 2558 CircleF
4572 2560 CircleF
4576 2538 CircleF
4579 2473 CircleF
4583 2387 CircleF
4586 2307 CircleF
4589 2228 CircleF
4593 2134 CircleF
4596 2038 CircleF
4600 1972 CircleF
4603 1938 CircleF
4607 1905 CircleF
4610 1868 CircleF
4613 1859 CircleF
4617 1903 CircleF
4620 1975 CircleF
4624 2046 CircleF
4627 2120 CircleF
4631 2215 CircleF
4634 2312 CircleF
4637 2375 CircleF
4641 2407 CircleF
4644 2441 CircleF
4648 2474 CircleF
4651 2466 CircleF
4655 2404 CircleF
4658 2323 CircleF
4662 2248 CircleF
4665 2164 CircleF
4668 2065 CircleF
4672 1985 CircleF
4675 1954 CircleF
4679 1952 CircleF
4682 1951 CircleF
4686 1965 CircleF
4689 2026 CircleF
4692 2117 CircleF
4696 2200 CircleF
4699 2272 CircleF
4703 2354 CircleF
4706 2428 CircleF
4710 2449 CircleF
4713 2413 CircleF
4716 2357 CircleF
4720 2300 CircleF
4723 2221 CircleF
4727 2120 CircleF
4730 2038 CircleF
4734 2001 CircleF
4737 1983 CircleF
4740 1968 CircleF
4744 1986 CircleF
4747 2056 CircleF
4751 2148 CircleF
4754 2225 CircleF
4758 2295 CircleF
4761 2371 CircleF
4764 2423 CircleF
4768 2409 CircleF
4771 2345 CircleF
4775 2274 CircleF
4778 2200 CircleF
4782 2105 CircleF
4785 2015 CircleF
4788 1977 CircleF
4792 1993 CircleF
4795 2028 CircleF
4799 2075 CircleF
4802 2158 CircleF
4806 2260 CircleF
4809 2328 CircleF
4813 2350 CircleF
4816 2357 CircleF
4819 2348 CircleF
4823 2289 CircleF
4826 2192 CircleF
4830 2109 CircleF
4833 2061 CircleF
4837 2024 CircleF
4840 2006 CircleF
4843 2047 CircleF
4847 2138 CircleF
4850 2221 CircleF
4854 2280 CircleF
4857 2337 CircleF
4861 2367 CircleF
4864 2328 CircleF
4867 2239 CircleF
4871 2160 CircleF
4874 2094 CircleF
4878 2030 CircleF
4881 2007 CircleF
4885 2061 CircleF
4888 2149 CircleF
4891 2221 CircleF
4895 2290 CircleF
4898 2348 CircleF
4902 2341 CircleF
4905 2263 CircleF
4909 2179 CircleF
4912 2113 CircleF
4915 2047 CircleF
4919 2021 CircleF
4922 2079 CircleF
4926 2169 CircleF
4929 2236 CircleF
4933 2295 CircleF
4936 2333 CircleF
4939 2293 CircleF
4943 2199 CircleF
4946 2126 CircleF
4950 2079 CircleF
4953 2048 CircleF
4957 2081 CircleF
4960 2179 CircleF
4963 2255 CircleF
4967 2287 CircleF
4970 2299 CircleF
4974 2259 CircleF
4977 2157 CircleF
4981 2080 CircleF
4984 2067 CircleF
4988 2084 CircleF
4991 2140 CircleF
4994 2246 CircleF
4998 2315 CircleF
5001 2301 CircleF
5005 2254 CircleF
5008 2184 CircleF
5012 2084 CircleF
5015 2035 CircleF
5018 2079 CircleF
5022 2151 CircleF
5025 2224 CircleF
5029 2303 CircleF
5032 2317 CircleF
5036 2239 CircleF
5039 2156 CircleF
5042 2104 CircleF
5046 2069 CircleF
5049 2103 CircleF
5053 2206 CircleF
5056 2276 CircleF
5060 2283 CircleF
5063 2262 CircleF
5066 2188 CircleF
5070 2083 CircleF
5073 2051 CircleF
5077 2097 CircleF
5080 2160 CircleF
5084 2243 CircleF
5087 2314 CircleF
5090 2289 CircleF
5094 2199 CircleF
5097 2132 CircleF
5101 2089 CircleF
5104 2085 CircleF
5108 2167 CircleF
5111 2266 CircleF
5114 2288 CircleF
5118 2262 CircleF
5121 2204 CircleF
5125 2104 CircleF
5128 2048 CircleF
5132 2095 CircleF
5135 2173 CircleF
5139 2237 CircleF
5142 2288 CircleF
5145 2264 CircleF
5149 2161 CircleF
5152 2092 CircleF
5156 2092 CircleF
5159 2126 CircleF
5163 2210 CircleF
5166 2301 CircleF
5169 2294 CircleF
5173 2216 CircleF
5176 2148 CircleF
5180 2094 CircleF
5183 2094 CircleF
5187 2187 CircleF
5190 2273 CircleF
5193 2275 CircleF
5197 2236 CircleF
5200 2160 CircleF
5204 2072 CircleF
5207 2080 CircleF
5211 2169 CircleF
5214 2233 CircleF
5217 2264 CircleF
5221 2242 CircleF
5224 2139 CircleF
5228 2068 CircleF
5231 2101 CircleF
5235 2165 CircleF
5238 2238 CircleF
5241 2284 CircleF
5245 2221 CircleF
5248 2121 CircleF
5252 2097 CircleF
5255 2123 CircleF
5259 2197 CircleF
5262 2288 CircleF
5265 2272 CircleF
5269 2181 CircleF
5272 2125 CircleF
5276 2107 CircleF
5279 2162 CircleF
5283 2270 CircleF
5286 2285 CircleF
5290 2216 CircleF
5293 2150 CircleF
5296 2100 CircleF
5300 2139 CircleF
5303 2249 CircleF
5307 2275 CircleF
5310 2228 CircleF
5314 2159 CircleF
5317 2090 CircleF
5320 2132 CircleF
5324 2236 CircleF
5327 2261 CircleF
5331 2229 CircleF
5334 2150 CircleF
5338 2080 CircleF
5341 2139 CircleF
5344 2228 CircleF
5348 2250 CircleF
5351 2222 CircleF
5355 2126 CircleF
5358 2080 CircleF
5362 2160 CircleF
5365 2228 CircleF
5368 2247 CircleF
5372 2199 CircleF
5375 2094 CircleF
5379 2098 CircleF
5382 2183 CircleF
5386 2234 CircleF
5389 2242 CircleF
5392 2155 CircleF
5396 2079 CircleF
5399 2134 CircleF
5403 2206 CircleF
5406 2246 CircleF
5410 2213 CircleF
5413 2103 CircleF
5416 2095 CircleF
5420 2174 CircleF
5423 2229 CircleF
5427 2243 CircleF
5430 2153 CircleF
5434 2081 CircleF
5437 2140 CircleF
5440 2211 CircleF
5444 2245 CircleF
5447 2199 CircleF
5451 2094 CircleF
5454 2108 CircleF
5458 2193 CircleF
5461 2237 CircleF
5465 2227 CircleF
5468 2128 CircleF
5471 2089 CircleF
5475 2175 CircleF
5478 2234 CircleF
5482 2237 CircleF
5485 2164 CircleF
5489 2087 CircleF
5492 2152 CircleF
5495 2235 CircleF
5499 2241 CircleF
5502 2191 CircleF
5506 2104 CircleF
5509 2135 CircleF
5513 2239 CircleF
5516 2251 CircleF
5519 2203 CircleF
5523 2126 CircleF
5526 2124 CircleF
5530 2236 CircleF
5533 2263 CircleF
5537 2203 CircleF
5540 2140 CircleF
5543 2125 CircleF
5547 2227 CircleF
5550 2273 CircleF
5554 2195 CircleF
5557 2137 CircleF
5561 2131 CircleF
5564 2216 CircleF
5567 2271 CircleF
5571 2181 CircleF
5574 2121 CircleF
5578 2136 CircleF
5581 2208 CircleF
5585 2256 CircleF
5588 2160 CircleF
5591 2099 CircleF
5595 2147 CircleF
5598 2211 CircleF
5602 2239 CircleF
5605 2141 CircleF
5609 2095 CircleF
5612 2176 CircleF
5616 2229 CircleF
5619 2223 CircleF
5622 2131 CircleF
5626 2115 CircleF
5629 2222 CircleF
5633 2247 CircleF
5636 2201 CircleF
5640 2127 CircleF
5643 2153 CircleF
5646 2261 CircleF
5650 2233 CircleF
5653 2161 CircleF
5657 2128 CircleF
5660 2192 CircleF
5664 2264 CircleF
5667 2177 CircleF
5670 2119 CircleF
5674 2146 CircleF
5677 2222 CircleF
5681 2227 CircleF
5684 2114 CircleF
5688 2124 CircleF
5691 2196 CircleF
5694 2234 CircleF
5698 2171 CircleF
5701 2102 CircleF
5705 2195 CircleF
5708 2244 CircleF
5712 2208 CircleF
5715 2133 CircleF
5718 2159 CircleF
5722 2263 CircleF
5725 2216 CircleF
5729 2148 CircleF
5732 2137 CircleF
5736 2226 CircleF
5739 2233 CircleF
5742 2125 CircleF
5746 2128 CircleF
5749 2189 CircleF
5753 2234 CircleF
5756 2141 CircleF
5760 2111 CircleF
5763 2205 CircleF
5767 2232 CircleF
5770 2183 CircleF
5773 2117 CircleF
5777 2214 CircleF
5780 2253 CircleF
5784 2182 CircleF
5787 2135 CircleF
5791 2184 CircleF
5794 2257 CircleF
5797 2158 CircleF
5801 2121 CircleF
5804 2172 CircleF
5808 2234 CircleF
5811 2171 CircleF
5815 2106 CircleF
5818 2201 CircleF
5821 2236 CircleF
5825 2193 CircleF
5828 2125 CircleF
5832 2210 CircleF
5835 2255 CircleF
5839 2167 CircleF
5842 2133 CircleF
5845 2183 CircleF
5849 2242 CircleF
5852 2137 CircleF
5856 2120 CircleF
5859 2197 CircleF
5863 2228 CircleF
5866 2159 CircleF
5869 2127 CircleF
5873 2241 CircleF
5876 2227 CircleF
5880 2158 CircleF
5883 2136 CircleF
5887 2226 CircleF
5890 2210 CircleF
5893 2108 CircleF
5897 2149 CircleF
5900 2212 CircleF
5904 2205 CircleF
5907 2112 CircleF
5911 2184 CircleF
5914 2247 CircleF
5918 2186 CircleF
5921 2132 CircleF
5924 2181 CircleF
5928 2240 CircleF
5931 2130 CircleF
5935 2124 CircleF
5938 2193 CircleF
5942 2220 CircleF
5945 2133 CircleF
5948 2149 CircleF
5952 2248 CircleF
5955 2196 CircleF
5959 2136 CircleF
5962 2159 CircleF
5966 2237 CircleF
5969 2140 CircleF
5972 2115 CircleF
5976 2194 CircleF
5979 2218 CircleF
5983 2142 CircleF
5986 2148 CircleF
5990 2249 CircleF
5993 2180 CircleF
5996 2127 CircleF
6000 2162 CircleF
6003 2225 CircleF
6007 2122 CircleF
6010 2132 CircleF
6014 2217 CircleF
6017 2205 CircleF
6020 2130 CircleF
6024 2178 CircleF
6027 2237 CircleF
6031 2132 CircleF
6034 2127 CircleF
6038 2192 CircleF
6041 2196 CircleF
6044 2104 CircleF
6048 2197 CircleF
6051 2225 CircleF
6055 2159 CircleF
6058 2132 CircleF
6062 2225 CircleF
6065 2162 CircleF
6068 2108 CircleF
6072 2184 CircleF
6075 2215 CircleF
6079 2136 CircleF
6082 2168 CircleF
6086 2241 CircleF
6089 2151 CircleF
6093 2129 CircleF
6096 2198 CircleF
6099 2185 CircleF
6103 2106 CircleF
6106 2208 CircleF
6110 2216 CircleF
6113 2149 CircleF
6117 2159 CircleF
6120 2234 CircleF
6123 2124 CircleF
6127 2138 CircleF
6130 2206 CircleF
6134 2187 CircleF
6137 2122 CircleF
6141 2234 CircleF
6144 2189 CircleF
6147 2128 CircleF
6151 2166 CircleF
6154 2212 CircleF
6158 2106 CircleF
6161 2184 CircleF
6165 2222 CircleF
6168 2160 CircleF
6171 2142 CircleF
6175 2231 CircleF
6178 2129 CircleF
6182 2136 CircleF
6185 2207 CircleF
6189 2190 CircleF
6192 2127 CircleF
6195 2236 CircleF
6199 2173 CircleF
6202 2123 CircleF
6206 2179 CircleF
6209 2204 CircleF
6213 2113 CircleF
6216 2217 CircleF
6219 2207 CircleF
6223 2137 CircleF
6226 2160 CircleF
6230 2213 CircleF
6233 2107 CircleF
6237 2185 CircleF
6240 2219 CircleF
6244 2155 CircleF
6247 2151 CircleF
6250 2225 CircleF
6254 2113 CircleF
6257 2159 CircleF
6261 2218 CircleF
6264 2168 CircleF
6268 2148 CircleF
6271 2235 CircleF
6274 2127 CircleF
6278 2142 CircleF
6281 2210 CircleF
6285 2171 CircleF
6288 2143 CircleF
6292 2239 CircleF
6295 2140 CircleF
6298 2134 CircleF
6302 2205 CircleF
6305 2168 CircleF
6309 2143 CircleF
6312 2240 CircleF
6316 2151 CircleF
6319 2133 CircleF
6322 2206 CircleF
6326 2160 CircleF
6329 2147 CircleF
6333 2238 CircleF
6336 2155 CircleF
6340 2132 CircleF
6343 2210 CircleF
6346 2144 CircleF
6350 2158 CircleF
6353 2232 CircleF
6357 2153 CircleF
6360 2138 CircleF
6364 2216 CircleF
6367 2127 CircleF
6370 2180 CircleF
6374 2223 CircleF
6377 2147 CircleF
6381 2150 CircleF
6384 2213 CircleF
6388 2112 CircleF
6391 2205 CircleF
6395 2207 CircleF
6398 2135 CircleF
6401 2175 CircleF
6405 2191 CircleF
6408 2117 CircleF
6412 2226 CircleF
6415 2186 CircleF
6419 2129 CircleF
6422 2207 CircleF
6425 2146 CircleF
6429 2153 CircleF
6432 2227 CircleF
6436 2158 CircleF
6439 2144 CircleF
6443 2215 CircleF
6446 2112 CircleF
6449 2207 CircleF
6453 2204 CircleF
6456 2132 CircleF
6460 2191 CircleF
6463 2166 CircleF
6467 2138 CircleF
6470 2228 CircleF
6473 2164 CircleF
6477 2139 CircleF
6480 2215 CircleF
6484 2114 CircleF
6487 2209 CircleF
6491 2200 CircleF
6494 2130 CircleF
6497 2197 CircleF
6501 2154 CircleF
6504 2155 CircleF
6508 2225 CircleF
6511 2149 CircleF
6515 2154 CircleF
6518 2203 CircleF
6521 2119 CircleF
6525 2229 CircleF
6528 2174 CircleF
6532 2130 CircleF
6535 2214 CircleF
6539 2123 CircleF
6542 2205 CircleF
6545 2197 CircleF
6549 2128 CircleF
6552 2195 CircleF
6556 2157 CircleF
6559 2169 CircleF
6563 2218 CircleF
6566 2133 CircleF
6570 2169 CircleF
6573 2190 CircleF
6576 2139 CircleF
6580 2232 CircleF
6583 2137 CircleF
6587 2153 CircleF
6590 2211 CircleF
6594 2127 CircleF
6597 2233 CircleF
6600 2141 CircleF
6604 2145 CircleF
6607 2217 CircleF
6611 2132 CircleF
6614 2221 CircleF
6618 2150 CircleF
6621 2142 CircleF
6624 2216 CircleF
6628 2146 CircleF
6631 2199 CircleF
6635 2162 CircleF
6638 2138 CircleF
6642 2217 CircleF
6645 2158 CircleF
6648 2176 CircleF
6652 2177 CircleF
6655 2134 CircleF
6659 2222 CircleF
6662 2160 CircleF
6666 2157 CircleF
6669 2192 CircleF
6672 2131 CircleF
6676 2229 CircleF
6679 2151 CircleF
6683 2150 CircleF
6686 2204 CircleF
6690 2131 CircleF
6693 2232 CircleF
6696 2134 CircleF
6700 2158 CircleF
6703 2212 CircleF
6707 2132 CircleF
6710 2227 CircleF
6714 2119 CircleF
6717 2177 CircleF
6721 2211 CircleF
6724 2130 CircleF
6727 2218 CircleF
6731 2116 CircleF
6734 2203 CircleF
6738 2195 CircleF
6741 2128 CircleF
6745 2213 CircleF
6748 2124 CircleF
6751 2222 CircleF
6755 2165 CircleF
6758 2134 CircleF
6762 2216 CircleF
6765 2132 CircleF
6769 2223 CircleF
6772 2134 CircleF
6775 2162 CircleF
6779 2216 CircleF
6782 2131 CircleF
6786 2215 CircleF
6789 2119 CircleF
6793 2203 CircleF
6796 2193 CircleF
6799 2127 CircleF
6803 2214 CircleF
6806 2125 CircleF
6810 2228 CircleF
6813 2146 CircleF
6817 2150 CircleF
6820 2215 CircleF
6823 2133 CircleF
6827 2222 CircleF
6830 2115 CircleF
6834 2199 CircleF
6837 2191 CircleF
6841 2140 CircleF
6844 2201 CircleF
6847 2131 CircleF
6851 2226 CircleF
6854 2140 CircleF
6858 2171 CircleF
6861 2180 CircleF
6865 2172 CircleF
6868 2190 CircleF
6872 2128 CircleF
6875 2214 CircleF
6878 2147 CircleF
6882 2202 CircleF
6885 2134 CircleF
6889 2187 CircleF
6892 2200 CircleF
6896 2126 CircleF
6899 2214 CircleF
6902 2126 CircleF
6906 2230 CircleF
6909 2133 CircleF
6913 2171 CircleF
6916 2192 CircleF
6920 2163 CircleF
6923 2182 CircleF
6926 2140 CircleF
6930 2219 CircleF
6933 2135 CircleF
6937 2204 CircleF
6940 2128 CircleF
6944 2219 CircleF
6947 2161 CircleF
% End plot #1
% Begin plot #2
0.300 UP
1.000 UL
LTb
0.55 0.00 0.00 C LCb setrgbcolor
6296 4766 M
[ [(Helvetica) 140.0 0.0 true true 0 (<S)]
[(Helvetica) 112.0 -42.0 true true 0 (y)]
[(Helvetica) 140.0 0.0 true true 0 (>)]
] -32.7 MRshow
0.300 UP
1.000 UL
LTb
0.55 0.00 0.00 C 773 4877 BoxF
777 4874 BoxF
780 4876 BoxF
784 4876 BoxF
787 4875 BoxF
791 4876 BoxF
794 4876 BoxF
797 4875 BoxF
801 4876 BoxF
804 4875 BoxF
808 4875 BoxF
811 4877 BoxF
815 4874 BoxF
818 4877 BoxF
821 4875 BoxF
825 4875 BoxF
828 4877 BoxF
832 4875 BoxF
835 4876 BoxF
839 4875 BoxF
842 4875 BoxF
845 4876 BoxF
849 4875 BoxF
852 4876 BoxF
856 4876 BoxF
859 4875 BoxF
863 4876 BoxF
866 4876 BoxF
870 4875 BoxF
873 4876 BoxF
876 4874 BoxF
880 4876 BoxF
883 4876 BoxF
887 4875 BoxF
890 4877 BoxF
894 4874 BoxF
897 4876 BoxF
900 4876 BoxF
904 4875 BoxF
907 4877 BoxF
911 4874 BoxF
914 4876 BoxF
918 4876 BoxF
921 4875 BoxF
924 4877 BoxF
928 4875 BoxF
931 4876 BoxF
935 4876 BoxF
938 4875 BoxF
942 4877 BoxF
945 4875 BoxF
948 4877 BoxF
952 4875 BoxF
955 4875 BoxF
959 4876 BoxF
962 4875 BoxF
966 4877 BoxF
969 4875 BoxF
972 4876 BoxF
976 4876 BoxF
979 4874 BoxF
983 4877 BoxF
986 4875 BoxF
990 4876 BoxF
993 4876 BoxF
996 4875 BoxF
1000 4877 BoxF
1003 4875 BoxF
1007 4876 BoxF
1010 4875 BoxF
1014 4875 BoxF
1017 4877 BoxF
1021 4875 BoxF
1024 4877 BoxF
1027 4875 BoxF
1031 4876 BoxF
1034 4876 BoxF
1038 4875 BoxF
1041 4877 BoxF
1045 4874 BoxF
1048 4876 BoxF
1051 4875 BoxF
1055 4875 BoxF
1058 4877 BoxF
1062 4874 BoxF
1065 4877 BoxF
1069 4875 BoxF
1072 4876 BoxF
1075 4876 BoxF
1079 4875 BoxF
1082 4876 BoxF
1086 4874 BoxF
1089 4877 BoxF
1093 4875 BoxF
1096 4876 BoxF
1099 4876 BoxF
1103 4875 BoxF
1106 4876 BoxF
1110 4875 BoxF
1113 4876 BoxF
1117 4875 BoxF
1120 4876 BoxF
1123 4875 BoxF
1127 4876 BoxF
1130 4876 BoxF
1134 4875 BoxF
1137 4877 BoxF
1141 4874 BoxF
1144 4877 BoxF
1147 4875 BoxF
1151 4876 BoxF
1154 4876 BoxF
1158 4875 BoxF
1161 4876 BoxF
1165 4875 BoxF
1168 4876 BoxF
1172 4875 BoxF
1175 4877 BoxF
1178 4875 BoxF
1182 4876 BoxF
1185 4876 BoxF
1189 4875 BoxF
1192 4877 BoxF
1196 4875 BoxF
1199 4876 BoxF
1202 4875 BoxF
1206 4876 BoxF
1209 4875 BoxF
1213 4876 BoxF
1216 4875 BoxF
1220 4876 BoxF
1223 4876 BoxF
1226 4875 BoxF
1230 4877 BoxF
1233 4875 BoxF
1237 4876 BoxF
1240 4875 BoxF
1244 4876 BoxF
1247 4875 BoxF
1250 4876 BoxF
1254 4875 BoxF
1257 4876 BoxF
1261 4876 BoxF
1264 4875 BoxF
1268 4877 BoxF
1271 4875 BoxF
1274 4876 BoxF
1278 4875 BoxF
1281 4876 BoxF
1285 4875 BoxF
1288 4877 BoxF
1292 4875 BoxF
1295 4876 BoxF
1298 4876 BoxF
1302 4875 BoxF
1305 4876 BoxF
1309 4875 BoxF
1312 4876 BoxF
1316 4875 BoxF
1319 4877 BoxF
1322 4875 BoxF
1326 4877 BoxF
1329 4875 BoxF
1333 4877 BoxF
1336 4875 BoxF
1340 4876 BoxF
1343 4876 BoxF
1347 4876 BoxF
1350 4875 BoxF
1353 4876 BoxF
1357 4876 BoxF
1360 4875 BoxF
1364 4877 BoxF
1367 4875 BoxF
1371 4876 BoxF
1374 4875 BoxF
1377 4876 BoxF
1381 4875 BoxF
1384 4877 BoxF
1388 4874 BoxF
1391 4877 BoxF
1395 4875 BoxF
1398 4877 BoxF
1401 4875 BoxF
1405 4877 BoxF
1408 4874 BoxF
1412 4877 BoxF
1415 4875 BoxF
1419 4876 BoxF
1422 4875 BoxF
1425 4876 BoxF
1429 4875 BoxF
1432 4876 BoxF
1436 4875 BoxF
1439 4876 BoxF
1443 4875 BoxF
1446 4876 BoxF
1449 4875 BoxF
1453 4876 BoxF
1456 4876 BoxF
1460 4876 BoxF
1463 4875 BoxF
1467 4876 BoxF
1470 4876 BoxF
1473 4876 BoxF
1477 4876 BoxF
1480 4876 BoxF
1484 4875 BoxF
1487 4876 BoxF
1491 4876 BoxF
1494 4876 BoxF
1498 4876 BoxF
1501 4876 BoxF
1504 4875 BoxF
1508 4876 BoxF
1511 4876 BoxF
1515 4876 BoxF
1518 4875 BoxF
1522 4876 BoxF
1525 4876 BoxF
1528 4876 BoxF
1532 4876 BoxF
1535 4876 BoxF
1539 4875 BoxF
1542 4876 BoxF
1546 4875 BoxF
1549 4876 BoxF
1552 4875 BoxF
1556 4877 BoxF
1559 4875 BoxF
1563 4876 BoxF
1566 4875 BoxF
1570 4876 BoxF
1573 4875 BoxF
1576 4877 BoxF
1580 4875 BoxF
1583 4877 BoxF
1587 4875 BoxF
1590 4877 BoxF
1594 4875 BoxF
1597 4877 BoxF
1600 4875 BoxF
1604 4877 BoxF
1607 4875 BoxF
1611 4877 BoxF
1614 4875 BoxF
1618 4876 BoxF
1621 4875 BoxF
1624 4876 BoxF
1628 4875 BoxF
1631 4877 BoxF
1635 4875 BoxF
1638 4875 BoxF
1642 4876 BoxF
1645 4876 BoxF
1649 4876 BoxF
1652 4875 BoxF
1655 4876 BoxF
1659 4875 BoxF
1662 4877 BoxF
1666 4875 BoxF
1669 4877 BoxF
1673 4874 BoxF
1676 4877 BoxF
1679 4875 BoxF
1683 4877 BoxF
1686 4875 BoxF
1690 4877 BoxF
1693 4875 BoxF
1697 4875 BoxF
1700 4876 BoxF
1703 4876 BoxF
1707 4876 BoxF
1710 4875 BoxF
1714 4877 BoxF
1717 4875 BoxF
1721 4877 BoxF
1724 4875 BoxF
1727 4877 BoxF
1731 4875 BoxF
1734 4876 BoxF
1738 4876 BoxF
1741 4876 BoxF
1745 4876 BoxF
1748 4875 BoxF
1751 4876 BoxF
1755 4875 BoxF
1758 4877 BoxF
1762 4875 BoxF
1765 4877 BoxF
1769 4875 BoxF
1772 4876 BoxF
1775 4875 BoxF
1779 4876 BoxF
1782 4876 BoxF
1786 4875 BoxF
1789 4876 BoxF
1793 4875 BoxF
1796 4877 BoxF
1800 4875 BoxF
1803 4877 BoxF
1806 4876 BoxF
1810 4876 BoxF
1813 4876 BoxF
1817 4875 BoxF
1820 4877 BoxF
1824 4875 BoxF
1827 4876 BoxF
1830 4875 BoxF
1834 4877 BoxF
1837 4875 BoxF
1841 4876 BoxF
1844 4876 BoxF
1848 4875 BoxF
1851 4877 BoxF
1854 4875 BoxF
1858 4877 BoxF
1861 4875 BoxF
1865 4876 BoxF
1868 4876 BoxF
1872 4876 BoxF
1875 4876 BoxF
1878 4875 BoxF
1882 4877 BoxF
1885 4875 BoxF
1889 4876 BoxF
1892 4875 BoxF
1896 4876 BoxF
1899 4876 BoxF
1902 4875 BoxF
1906 4877 BoxF
1909 4875 BoxF
1913 4877 BoxF
1916 4875 BoxF
1920 4876 BoxF
1923 4876 BoxF
1926 4875 BoxF
1930 4877 BoxF
1933 4875 BoxF
1937 4877 BoxF
1940 4875 BoxF
1944 4875 BoxF
1947 4876 BoxF
1950 4875 BoxF
1954 4877 BoxF
1957 4874 BoxF
1961 4876 BoxF
1964 4876 BoxF
1968 4876 BoxF
1971 4876 BoxF
1975 4875 BoxF
1978 4877 BoxF
1981 4875 BoxF
1985 4876 BoxF
1988 4876 BoxF
1992 4875 BoxF
1995 4877 BoxF
1999 4875 BoxF
2002 4876 BoxF
2005 4876 BoxF
2009 4875 BoxF
2012 4877 BoxF
2016 4875 BoxF
2019 4876 BoxF
2023 4876 BoxF
2026 4876 BoxF
2029 4876 BoxF
2033 4875 BoxF
2036 4876 BoxF
2040 4875 BoxF
2043 4876 BoxF
2047 4876 BoxF
2050 4875 BoxF
2053 4877 BoxF
2057 4875 BoxF
2060 4876 BoxF
2064 4876 BoxF
2067 4875 BoxF
2071 4877 BoxF
2074 4875 BoxF
2077 4876 BoxF
2081 4876 BoxF
2084 4874 BoxF
2088 4877 BoxF
2091 4876 BoxF
2095 4875 BoxF
2098 4876 BoxF
2101 4875 BoxF
2105 4877 BoxF
2108 4876 BoxF
2112 4875 BoxF
2115 4876 BoxF
2119 4875 BoxF
2122 4877 BoxF
2126 4875 BoxF
2129 4875 BoxF
2132 4876 BoxF
2136 4875 BoxF
2139 4876 BoxF
2143 4876 BoxF
2146 4875 BoxF
2150 4877 BoxF
2153 4875 BoxF
2156 4876 BoxF
2160 4876 BoxF
2163 4875 BoxF
2167 4877 BoxF
2170 4875 BoxF
2174 4875 BoxF
2177 4877 BoxF
2180 4875 BoxF
2184 4877 BoxF
2187 4876 BoxF
2191 4875 BoxF
2194 4877 BoxF
2198 4875 BoxF
2201 4876 BoxF
2204 4876 BoxF
2208 4874 BoxF
2211 4876 BoxF
2215 4876 BoxF
2218 4875 BoxF
2222 4877 BoxF
2225 4874 BoxF
2228 4875 BoxF
2232 4876 BoxF
2235 4875 BoxF
2239 4877 BoxF
2242 4875 BoxF
2246 4875 BoxF
2249 4877 BoxF
2252 4875 BoxF
2256 4876 BoxF
2259 4876 BoxF
2263 4874 BoxF
2266 4876 BoxF
2270 4876 BoxF
2273 4875 BoxF
2277 4877 BoxF
2280 4875 BoxF
2283 4875 BoxF
2287 4877 BoxF
2290 4875 BoxF
2294 4876 BoxF
2297 4876 BoxF
2301 4874 BoxF
2304 4876 BoxF
2307 4876 BoxF
2311 4875 BoxF
2314 4877 BoxF
2318 4876 BoxF
2321 4875 BoxF
2325 4876 BoxF
2328 4875 BoxF
2331 4875 BoxF
2335 4877 BoxF
2338 4875 BoxF
2342 4875 BoxF
2345 4876 BoxF
2349 4875 BoxF
2352 4876 BoxF
2355 4877 BoxF
2359 4875 BoxF
2362 4876 BoxF
2366 4876 BoxF
2369 4874 BoxF
2373 4877 BoxF
2376 4876 BoxF
2379 4875 BoxF
2383 4876 BoxF
2386 4875 BoxF
2390 4875 BoxF
2393 4877 BoxF
2397 4876 BoxF
2400 4875 BoxF
2403 4877 BoxF
2407 4875 BoxF
2410 4875 BoxF
2414 4877 BoxF
2417 4875 BoxF
2421 4875 BoxF
2424 4877 BoxF
2427 4875 BoxF
2431 4876 BoxF
2434 4877 BoxF
2438 4875 BoxF
2441 4875 BoxF
2445 4877 BoxF
2448 4874 BoxF
2452 4876 BoxF
2455 4877 BoxF
2458 4875 BoxF
2462 4876 BoxF
2465 4877 BoxF
2469 4874 BoxF
2472 4876 BoxF
2476 4876 BoxF
2479 4875 BoxF
2482 4876 BoxF
2486 4877 BoxF
2489 4874 BoxF
2493 4875 BoxF
2496 4876 BoxF
2500 4875 BoxF
2503 4876 BoxF
2506 4877 BoxF
2510 4874 BoxF
2513 4875 BoxF
2517 4877 BoxF
2520 4875 BoxF
2524 4875 BoxF
2527 4877 BoxF
2530 4875 BoxF
2534 4874 BoxF
2537 4876 BoxF
2541 4876 BoxF
2544 4875 BoxF
2548 4877 BoxF
2551 4876 BoxF
2554 4874 BoxF
2558 4876 BoxF
2561 4876 BoxF
2565 4874 BoxF
2568 4876 BoxF
2572 4876 BoxF
2575 4875 BoxF
2578 4876 BoxF
2582 4877 BoxF
2585 4874 BoxF
2589 4875 BoxF
2592 4876 BoxF
2596 4876 BoxF
2599 4875 BoxF
2603 4877 BoxF
2606 4876 BoxF
2609 4874 BoxF
2613 4876 BoxF
2616 4876 BoxF
2620 4874 BoxF
2623 4876 BoxF
2627 4877 BoxF
2630 4875 BoxF
2633 4875 BoxF
2637 4877 BoxF
2640 4875 BoxF
2644 4874 BoxF
2647 4876 BoxF
2651 4876 BoxF
2654 4874 BoxF
2657 4875 BoxF
2661 4877 BoxF
2664 4875 BoxF
2668 4875 BoxF
2671 4877 BoxF
2675 4876 BoxF
2678 4874 BoxF
2681 4876 BoxF
2685 4876 BoxF
2688 4875 BoxF
2692 4875 BoxF
2695 4877 BoxF
2699 4876 BoxF
2702 4874 BoxF
2705 4876 BoxF
2709 4876 BoxF
2712 4874 BoxF
2716 4875 BoxF
2719 4877 BoxF
2723 4875 BoxF
2726 4875 BoxF
2729 4876 BoxF
2733 4876 BoxF
2736 4874 BoxF
2740 4875 BoxF
2743 4876 BoxF
2747 4875 BoxF
2750 4875 BoxF
2754 4877 BoxF
2757 4876 BoxF
2760 4874 BoxF
2764 4875 BoxF
2767 4877 BoxF
2771 4875 BoxF
2774 4874 BoxF
2778 4876 BoxF
2781 4876 BoxF
2784 4875 BoxF
2788 4875 BoxF
2791 4877 BoxF
2795 4875 BoxF
2798 4874 BoxF
2802 4875 BoxF
2805 4877 BoxF
2808 4875 BoxF
2812 4874 BoxF
2815 4877 BoxF
2819 4876 BoxF
2822 4875 BoxF
2826 4875 BoxF
2829 4877 BoxF
2832 4875 BoxF
2836 4874 BoxF
2839 4875 BoxF
2843 4877 BoxF
2846 4875 BoxF
2850 4874 BoxF
2853 4876 BoxF
2856 4876 BoxF
2860 4875 BoxF
2863 4875 BoxF
2867 4877 BoxF
2870 4876 BoxF
2874 4874 BoxF
2877 4874 BoxF
2880 4876 BoxF
2884 4876 BoxF
2887 4874 BoxF
2891 4875 BoxF
2894 4876 BoxF
2898 4876 BoxF
2901 4874 BoxF
2904 4875 BoxF
2908 4877 BoxF
2911 4875 BoxF
2915 4874 BoxF
2918 4875 BoxF
2922 4877 BoxF
2925 4875 BoxF
2929 4874 BoxF
2932 4875 BoxF
2935 4876 BoxF
2939 4875 BoxF
2942 4874 BoxF
2946 4875 BoxF
2949 4877 BoxF
2953 4875 BoxF
2956 4874 BoxF
2959 4875 BoxF
2963 4877 BoxF
2966 4876 BoxF
2970 4874 BoxF
2973 4875 BoxF
2977 4876 BoxF
2980 4876 BoxF
2983 4874 BoxF
2987 4875 BoxF
2990 4876 BoxF
2994 4876 BoxF
2997 4874 BoxF
3001 4874 BoxF
3004 4876 BoxF
3007 4876 BoxF
3011 4875 BoxF
3014 4874 BoxF
3018 4876 BoxF
3021 4877 BoxF
3025 4875 BoxF
3028 4874 BoxF
3031 4875 BoxF
3035 4877 BoxF
3038 4875 BoxF
3042 4874 BoxF
3045 4874 BoxF
3049 4876 BoxF
3052 4876 BoxF
3055 4874 BoxF
3059 4874 BoxF
3062 4876 BoxF
3066 4876 BoxF
3069 4875 BoxF
3073 4874 BoxF
3076 4875 BoxF
3080 4877 BoxF
3083 4875 BoxF
3086 4874 BoxF
3090 4874 BoxF
3093 4876 BoxF
3097 4876 BoxF
3100 4874 BoxF
3104 4873 BoxF
3107 4875 BoxF
3110 4877 BoxF
3114 4875 BoxF
3117 4873 BoxF
3121 4874 BoxF
3124 4876 BoxF
3128 4876 BoxF
3131 4875 BoxF
3134 4874 BoxF
3138 4875 BoxF
3141 4876 BoxF
3145 4875 BoxF
3148 4874 BoxF
3152 4874 BoxF
3155 4876 BoxF
3158 4876 BoxF
3162 4875 BoxF
3165 4874 BoxF
3169 4875 BoxF
3172 4877 BoxF
3176 4876 BoxF
3179 4874 BoxF
3182 4873 BoxF
3186 4875 BoxF
3189 4877 BoxF
3193 4876 BoxF
3196 4873 BoxF
3200 4873 BoxF
3203 4875 BoxF
3206 4876 BoxF
3210 4876 BoxF
3213 4873 BoxF
3217 4873 BoxF
3220 4874 BoxF
3224 4876 BoxF
3227 4876 BoxF
3231 4874 BoxF
3234 4873 BoxF
3237 4874 BoxF
3241 4876 BoxF
3244 4876 BoxF
3248 4874 BoxF
3251 4873 BoxF
3255 4874 BoxF
3258 4876 BoxF
3261 4876 BoxF
3265 4874 BoxF
3268 4873 BoxF
3272 4874 BoxF
3275 4876 BoxF
3279 4876 BoxF
3282 4875 BoxF
3285 4873 BoxF
3289 4873 BoxF
3292 4875 BoxF
3296 4876 BoxF
3299 4875 BoxF
3303 4873 BoxF
3306 4873 BoxF
3309 4874 BoxF
3313 4876 BoxF
3316 4876 BoxF
3320 4874 BoxF
3323 4873 BoxF
3327 4873 BoxF
3330 4875 BoxF
3333 4876 BoxF
3337 4875 BoxF
3340 4873 BoxF
3344 4873 BoxF
3347 4874 BoxF
3351 4876 BoxF
3354 4876 BoxF
3357 4874 BoxF
3361 4873 BoxF
3364 4873 BoxF
3368 4875 BoxF
3371 4876 BoxF
3375 4875 BoxF
3378 4874 BoxF
3381 4872 BoxF
3385 4874 BoxF
3388 4875 BoxF
3392 4876 BoxF
3395 4875 BoxF
3399 4873 BoxF
3402 4872 BoxF
3406 4874 BoxF
3409 4875 BoxF
3412 4876 BoxF
3416 4875 BoxF
3419 4873 BoxF
3423 4872 BoxF
3426 4874 BoxF
3430 4875 BoxF
3433 4876 BoxF
3436 4875 BoxF
3440 4873 BoxF
3443 4872 BoxF
3447 4874 BoxF
3450 4875 BoxF
3454 4876 BoxF
3457 4875 BoxF
3460 4872 BoxF
3464 4872 BoxF
3467 4873 BoxF
3471 4875 BoxF
3474 4876 BoxF
3478 4875 BoxF
3481 4873 BoxF
3484 4871 BoxF
3488 4872 BoxF
3491 4875 BoxF
3495 4876 BoxF
3498 4876 BoxF
3502 4873 BoxF
3505 4872 BoxF
3508 4872 BoxF
3512 4874 BoxF
3515 4876 BoxF
3519 4876 BoxF
3522 4875 BoxF
3526 4873 BoxF
3529 4872 BoxF
3532 4873 BoxF
3536 4874 BoxF
3539 4875 BoxF
3543 4876 BoxF
3546 4875 BoxF
3550 4873 BoxF
3553 4872 BoxF
3557 4872 BoxF
3560 4873 BoxF
3563 4875 BoxF
3567 4876 BoxF
3570 4875 BoxF
3574 4873 BoxF
3577 4871 BoxF
3581 4871 BoxF
3584 4873 BoxF
3587 4875 BoxF
3591 4876 BoxF
3594 4876 BoxF
3598 4874 BoxF
3601 4872 BoxF
3605 4871 BoxF
3608 4872 BoxF
3611 4874 BoxF
3615 4875 BoxF
3618 4875 BoxF
3622 4874 BoxF
3625 4873 BoxF
3629 4871 BoxF
3632 4871 BoxF
3635 4872 BoxF
3639 4874 BoxF
3642 4875 BoxF
3646 4875 BoxF
3649 4874 BoxF
3653 4872 BoxF
3656 4871 BoxF
3659 4871 BoxF
3663 4872 BoxF
3666 4874 BoxF
3670 4876 BoxF
3673 4876 BoxF
3677 4874 BoxF
3680 4872 BoxF
3683 4870 BoxF
3687 4870 BoxF
3690 4871 BoxF
3694 4873 BoxF
3697 4874 BoxF
3701 4875 BoxF
3704 4874 BoxF
3708 4873 BoxF
3711 4871 BoxF
3714 4870 BoxF
3718 4870 BoxF
3721 4872 BoxF
3725 4874 BoxF
3728 4875 BoxF
3732 4875 BoxF
3735 4873 BoxF
3738 4872 BoxF
3742 4870 BoxF
3745 4869 BoxF
3749 4870 BoxF
3752 4872 BoxF
3756 4873 BoxF
3759 4875 BoxF
3762 4875 BoxF
3766 4873 BoxF
3769 4871 BoxF
3773 4869 BoxF
3776 4869 BoxF
3780 4870 BoxF
3783 4872 BoxF
3786 4873 BoxF
3790 4874 BoxF
3793 4874 BoxF
3797 4874 BoxF
3800 4872 BoxF
3804 4869 BoxF
3807 4867 BoxF
3810 4867 BoxF
3814 4869 BoxF
3817 4872 BoxF
3821 4873 BoxF
3824 4874 BoxF
3828 4874 BoxF
3831 4873 BoxF
3834 4872 BoxF
3838 4870 BoxF
3841 4868 BoxF
3845 4866 BoxF
3848 4867 BoxF
3852 4869 BoxF
3855 4871 BoxF
3859 4873 BoxF
3862 4874 BoxF
3865 4873 BoxF
3869 4872 BoxF
3872 4871 BoxF
3876 4869 BoxF
3879 4867 BoxF
3883 4865 BoxF
3886 4865 BoxF
3889 4867 BoxF
3893 4869 BoxF
3896 4871 BoxF
3900 4872 BoxF
3903 4872 BoxF
3907 4872 BoxF
3910 4871 BoxF
3913 4870 BoxF
3917 4868 BoxF
3920 4866 BoxF
3924 4864 BoxF
3927 4864 BoxF
3931 4865 BoxF
3934 4866 BoxF
3937 4867 BoxF
3941 4869 BoxF
3944 4870 BoxF
3948 4871 BoxF
3951 4872 BoxF
3955 4871 BoxF
3958 4869 BoxF
3961 4867 BoxF
3965 4865 BoxF
3968 4863 BoxF
3972 4862 BoxF
3975 4862 BoxF
3979 4862 BoxF
3982 4863 BoxF
3985 4865 BoxF
3989 4867 BoxF
3992 4869 BoxF
3996 4870 BoxF
3999 4870 BoxF
4003 4869 BoxF
4006 4868 BoxF
4009 4866 BoxF
4013 4865 BoxF
4016 4863 BoxF
4020 4861 BoxF
4023 4859 BoxF
4027 4858 BoxF
4030 4859 BoxF
4034 4860 BoxF
4037 4861 BoxF
4040 4862 BoxF
4044 4864 BoxF
4047 4866 BoxF
4051 4867 BoxF
4054 4867 BoxF
4058 4866 BoxF
4061 4865 BoxF
4064 4864 BoxF
4068 4862 BoxF
4071 4860 BoxF
4075 4857 BoxF
4078 4855 BoxF
4082 4854 BoxF
4085 4854 BoxF
4088 4853 BoxF
4092 4853 BoxF
4095 4853 BoxF
4099 4855 BoxF
4102 4857 BoxF
4106 4859 BoxF
4109 4860 BoxF
4112 4860 BoxF
4116 4860 BoxF
4119 4860 BoxF
4123 4861 BoxF
4126 4860 BoxF
4130 4857 BoxF
4133 4853 BoxF
4136 4851 BoxF
4140 4850 BoxF
4143 4848 BoxF
4147 4844 BoxF
4150 4840 BoxF
4154 4838 BoxF
4157 4839 BoxF
4160 4839 BoxF
4164 4838 BoxF
4167 4835 BoxF
4171 4834 BoxF
4174 4835 BoxF
4178 4838 BoxF
4181 4840 BoxF
4185 4839 BoxF
4188 4837 BoxF
4191 4836 BoxF
4195 4838 BoxF
4198 4839 BoxF
4202 4839 BoxF
4205 4836 BoxF
4209 4832 BoxF
4212 4830 BoxF
4215 4830 BoxF
4219 4828 BoxF
4222 4823 BoxF
4226 4817 BoxF
4229 4812 BoxF
4233 4808 BoxF
4236 4805 BoxF
4239 4800 BoxF
4243 4792 BoxF
4246 4785 BoxF
4250 4779 BoxF
4253 4775 BoxF
4257 4769 BoxF
4260 4761 BoxF
4263 4752 BoxF
4267 4745 BoxF
4270 4738 BoxF
4274 4732 BoxF
4277 4723 BoxF
4281 4714 BoxF
4284 4705 BoxF
4287 4696 BoxF
4291 4688 BoxF
4294 4678 BoxF
4298 4668 BoxF
4301 4657 BoxF
4305 4646 BoxF
4308 4634 BoxF
4311 4621 BoxF
4315 4608 BoxF
4318 4595 BoxF
4322 4581 BoxF
4325 4565 BoxF
4329 4547 BoxF
4332 4529 BoxF
4336 4511 BoxF
4339 4493 BoxF
4342 4471 BoxF
4346 4447 BoxF
4349 4422 BoxF
4353 4397 BoxF
4356 4371 BoxF
4360 4343 BoxF
4363 4311 BoxF
4366 4277 BoxF
4370 4242 BoxF
4373 4206 BoxF
4377 4168 BoxF
4380 4127 BoxF
4384 4082 BoxF
4387 4035 BoxF
4390 3986 BoxF
4394 3935 BoxF
4397 3881 BoxF
4401 3824 BoxF
4404 3764 BoxF
4408 3701 BoxF
4411 3634 BoxF
4414 3563 BoxF
4418 3493 BoxF
4421 3421 BoxF
4425 3345 BoxF
4428 3262 BoxF
4432 3176 BoxF
4435 3092 BoxF
4438 3011 BoxF
4442 2929 BoxF
4445 2838 BoxF
4449 2742 BoxF
4452 2650 BoxF
4456 2568 BoxF
4459 2489 BoxF
4462 2404 BoxF
4466 2312 BoxF
4469 2228 BoxF
4473 2161 BoxF
4476 2105 BoxF
4480 2045 BoxF
4483 1981 BoxF
4486 1926 BoxF
4490 1895 BoxF
4493 1882 BoxF
4497 1870 BoxF
4500 1857 BoxF
4504 1855 BoxF
4507 1878 BoxF
4511 1921 BoxF
4514 1966 BoxF
4517 2010 BoxF
4521 2065 BoxF
4524 2142 BoxF
4528 2229 BoxF
4531 2310 BoxF
4535 2383 BoxF
4538 2464 BoxF
4541 2555 BoxF
4545 2641 BoxF
4548 2701 BoxF
4552 2743 BoxF
4555 2783 BoxF
4559 2823 BoxF
4562 2841 BoxF
4565 2824 BoxF
4569 2787 BoxF
4572 2746 BoxF
4576 2699 BoxF
4579 2628 BoxF
4583 2537 BoxF
4586 2447 BoxF
4589 2370 BoxF
4593 2297 BoxF
4596 2219 BoxF
4600 2150 BoxF
4603 2110 BoxF
4607 2101 BoxF
4610 2108 BoxF
4613 2129 BoxF
4617 2173 BoxF
4620 2243 BoxF
4624 2327 BoxF
4627 2411 BoxF
4631 2493 BoxF
4634 2576 BoxF
4637 2649 BoxF
4641 2699 BoxF
4644 2719 BoxF
4648 2715 BoxF
4651 2687 BoxF
4655 2634 BoxF
4658 2560 BoxF
4662 2473 BoxF
4665 2384 BoxF
4668 2303 BoxF
4672 2235 BoxF
4675 2184 BoxF
4679 2160 BoxF
4682 2168 BoxF
4686 2209 BoxF
4689 2275 BoxF
4692 2355 BoxF
4696 2443 BoxF
4699 2532 BoxF
4703 2606 BoxF
4706 2653 BoxF
4710 2669 BoxF
4713 2658 BoxF
4716 2618 BoxF
4720 2549 BoxF
4723 2462 BoxF
4727 2374 BoxF
4730 2296 BoxF
4734 2233 BoxF
4737 2197 BoxF
4740 2201 BoxF
4744 2242 BoxF
4747 2309 BoxF
4751 2392 BoxF
4754 2483 BoxF
4758 2564 BoxF
4761 2619 BoxF
4764 2640 BoxF
4768 2628 BoxF
4771 2581 BoxF
4775 2503 BoxF
4778 2415 BoxF
4782 2334 BoxF
4785 2269 BoxF
4788 2227 BoxF
4792 2228 BoxF
4795 2274 BoxF
4799 2345 BoxF
4802 2425 BoxF
4806 2511 BoxF
4809 2586 BoxF
4813 2619 BoxF
4816 2603 BoxF
4819 2557 BoxF
4823 2491 BoxF
4826 2401 BoxF
4830 2310 BoxF
4833 2260 BoxF
4837 2258 BoxF
4840 2282 BoxF
4843 2335 BoxF
4847 2426 BoxF
4850 2520 BoxF
4854 2572 BoxF
4857 2584 BoxF
4861 2572 BoxF
4864 2522 BoxF
4867 2428 BoxF
4871 2339 BoxF
4874 2294 BoxF
4878 2280 BoxF
4881 2291 BoxF
4885 2354 BoxF
4888 2452 BoxF
4891 2527 BoxF
4895 2559 BoxF
4898 2569 BoxF
4902 2540 BoxF
4905 2456 BoxF
4909 2361 BoxF
4912 2309 BoxF
4915 2292 BoxF
4919 2303 BoxF
4922 2366 BoxF
4926 2466 BoxF
4929 2537 BoxF
4933 2559 BoxF
4936 2550 BoxF
4939 2501 BoxF
4943 2405 BoxF
4946 2321 BoxF
4950 2294 BoxF
4953 2309 BoxF
4957 2359 BoxF
4960 2449 BoxF
4963 2536 BoxF
4967 2564 BoxF
4970 2538 BoxF
4974 2479 BoxF
4977 2393 BoxF
4981 2312 BoxF
4984 2291 BoxF
4988 2333 BoxF
4991 2406 BoxF
4994 2489 BoxF
4998 2552 BoxF
5001 2554 BoxF
5005 2493 BoxF
5008 2407 BoxF
5012 2334 BoxF
5015 2300 BoxF
5018 2328 BoxF
5022 2408 BoxF
5025 2497 BoxF
5029 2549 BoxF
5032 2543 BoxF
5036 2482 BoxF
5039 2392 BoxF
5042 2318 BoxF
5046 2303 BoxF
5049 2353 BoxF
5053 2438 BoxF
5056 2516 BoxF
5060 2551 BoxF
5063 2517 BoxF
5066 2432 BoxF
5070 2350 BoxF
5073 2312 BoxF
5077 2333 BoxF
5080 2410 BoxF
5084 2501 BoxF
5087 2545 BoxF
5090 2522 BoxF
5094 2450 BoxF
5097 2361 BoxF
5101 2309 BoxF
5104 2331 BoxF
5108 2407 BoxF
5111 2492 BoxF
5114 2540 BoxF
5118 2519 BoxF
5121 2439 BoxF
5125 2355 BoxF
5128 2318 BoxF
5132 2346 BoxF
5135 2430 BoxF
5139 2513 BoxF
5142 2538 BoxF
5145 2496 BoxF
5149 2412 BoxF
5152 2333 BoxF
5156 2322 BoxF
5159 2383 BoxF
5163 2466 BoxF
5166 2526 BoxF
5169 2523 BoxF
5173 2443 BoxF
5176 2355 BoxF
5180 2327 BoxF
5183 2358 BoxF
5187 2437 BoxF
5190 2521 BoxF
5193 2526 BoxF
5197 2456 BoxF
5200 2381 BoxF
5204 2333 BoxF
5207 2349 BoxF
5211 2442 BoxF
5214 2517 BoxF
5217 2513 BoxF
5221 2462 BoxF
5224 2381 BoxF
5228 2324 BoxF
5231 2368 BoxF
5235 2457 BoxF
5238 2505 BoxF
5241 2508 BoxF
5245 2444 BoxF
5248 2348 BoxF
5252 2336 BoxF
5255 2400 BoxF
5259 2466 BoxF
5262 2517 BoxF
5265 2489 BoxF
5269 2388 BoxF
5272 2339 BoxF
5276 2367 BoxF
5279 2428 BoxF
5283 2507 BoxF
5286 2511 BoxF
5290 2421 BoxF
5293 2356 BoxF
5296 2353 BoxF
5300 2403 BoxF
5303 2496 BoxF
5307 2517 BoxF
5310 2440 BoxF
5314 2371 BoxF
5317 2347 BoxF
5320 2394 BoxF
5324 2492 BoxF
5327 2515 BoxF
5331 2448 BoxF
5334 2376 BoxF
5338 2343 BoxF
5341 2397 BoxF
5344 2494 BoxF
5348 2510 BoxF
5351 2446 BoxF
5355 2371 BoxF
5358 2345 BoxF
5362 2414 BoxF
5365 2501 BoxF
5368 2501 BoxF
5372 2430 BoxF
5375 2356 BoxF
5379 2355 BoxF
5382 2441 BoxF
5386 2510 BoxF
5389 2486 BoxF
5392 2403 BoxF
5396 2346 BoxF
5399 2381 BoxF
5403 2473 BoxF
5406 2512 BoxF
5410 2454 BoxF
5413 2369 BoxF
5416 2352 BoxF
5420 2422 BoxF
5423 2503 BoxF
5427 2493 BoxF
5430 2407 BoxF
5434 2350 BoxF
5437 2383 BoxF
5440 2472 BoxF
5444 2510 BoxF
5447 2444 BoxF
5451 2362 BoxF
5454 2361 BoxF
5458 2438 BoxF
5461 2508 BoxF
5465 2474 BoxF
5468 2382 BoxF
5471 2352 BoxF
5475 2412 BoxF
5478 2494 BoxF
5482 2491 BoxF
5485 2402 BoxF
5489 2349 BoxF
5492 2393 BoxF
5495 2480 BoxF
5499 2499 BoxF
5502 2420 BoxF
5506 2352 BoxF
5509 2382 BoxF
5513 2470 BoxF
5516 2502 BoxF
5519 2429 BoxF
5523 2356 BoxF
5526 2376 BoxF
5530 2463 BoxF
5533 2503 BoxF
5537 2431 BoxF
5540 2357 BoxF
5543 2378 BoxF
5547 2461 BoxF
5550 2503 BoxF
5554 2428 BoxF
5557 2355 BoxF
5561 2388 BoxF
5564 2466 BoxF
5567 2499 BoxF
5571 2421 BoxF
5574 2351 BoxF
5578 2402 BoxF
5581 2475 BoxF
5585 2488 BoxF
5588 2408 BoxF
5591 2350 BoxF
5595 2424 BoxF
5598 2487 BoxF
5602 2471 BoxF
5605 2393 BoxF
5609 2358 BoxF
5612 2451 BoxF
5616 2495 BoxF
5619 2443 BoxF
5622 2377 BoxF
5626 2377 BoxF
5629 2478 BoxF
5633 2486 BoxF
5636 2405 BoxF
5640 2369 BoxF
5643 2409 BoxF
5646 2496 BoxF
5650 2455 BoxF
5653 2369 BoxF
5657 2385 BoxF
5660 2450 BoxF
5664 2494 BoxF
5667 2409 BoxF
5670 2358 BoxF
5674 2429 BoxF
5677 2481 BoxF
5681 2461 BoxF
5684 2369 BoxF
5688 2388 BoxF
5691 2480 BoxF
5694 2473 BoxF
5698 2406 BoxF
5701 2363 BoxF
5705 2448 BoxF
5708 2494 BoxF
5712 2418 BoxF
5715 2369 BoxF
5718 2409 BoxF
5722 2492 BoxF
5725 2447 BoxF
5729 2364 BoxF
5732 2398 BoxF
5736 2474 BoxF
5739 2473 BoxF
5742 2378 BoxF
5746 2381 BoxF
5749 2471 BoxF
5753 2478 BoxF
5756 2398 BoxF
5760 2368 BoxF
5763 2458 BoxF
5767 2486 BoxF
5770 2403 BoxF
5773 2367 BoxF
5777 2442 BoxF
5780 2491 BoxF
5784 2412 BoxF
5787 2365 BoxF
5791 2441 BoxF
5794 2491 BoxF
5797 2423 BoxF
5801 2366 BoxF
5804 2437 BoxF
5808 2494 BoxF
5811 2420 BoxF
5815 2367 BoxF
5818 2432 BoxF
5821 2490 BoxF
5825 2417 BoxF
5828 2363 BoxF
5832 2438 BoxF
5835 2486 BoxF
5839 2417 BoxF
5842 2365 BoxF
5845 2447 BoxF
5849 2487 BoxF
5852 2407 BoxF
5856 2371 BoxF
5859 2450 BoxF
5863 2483 BoxF
5866 2391 BoxF
5869 2374 BoxF
5873 2459 BoxF
5876 2473 BoxF
5880 2383 BoxF
5883 2384 BoxF
5887 2475 BoxF
5890 2461 BoxF
5893 2376 BoxF
5897 2398 BoxF
5900 2484 BoxF
5904 2440 BoxF
5907 2366 BoxF
5911 2416 BoxF
5914 2485 BoxF
5918 2416 BoxF
5921 2367 BoxF
5924 2442 BoxF
5928 2480 BoxF
5931 2397 BoxF
5935 2377 BoxF
5938 2470 BoxF
5942 2458 BoxF
5945 2378 BoxF
5948 2395 BoxF
5952 2484 BoxF
5955 2426 BoxF
5959 2368 BoxF
5962 2431 BoxF
5966 2479 BoxF
5969 2402 BoxF
5972 2375 BoxF
5976 2472 BoxF
5979 2450 BoxF
5983 2380 BoxF
5986 2400 BoxF
5990 2485 BoxF
5993 2410 BoxF
5996 2374 BoxF
6000 2445 BoxF
6003 2468 BoxF
6007 2384 BoxF
6010 2395 BoxF
6014 2481 BoxF
6017 2419 BoxF
6020 2375 BoxF
6024 2430 BoxF
6027 2474 BoxF
6031 2372 BoxF
6034 2405 BoxF
6038 2466 BoxF
6041 2432 BoxF
6044 2365 BoxF
6048 2449 BoxF
6051 2457 BoxF
6055 2376 BoxF
6058 2403 BoxF
6062 2470 BoxF
6065 2415 BoxF
6068 2370 BoxF
6072 2466 BoxF
6075 2442 BoxF
6079 2377 BoxF
6082 2414 BoxF
6086 2478 BoxF
6089 2379 BoxF
6093 2399 BoxF
6096 2466 BoxF
6099 2431 BoxF
6103 2366 BoxF
6106 2461 BoxF
6110 2445 BoxF
6113 2375 BoxF
6117 2420 BoxF
6120 2476 BoxF
6123 2385 BoxF
6127 2402 BoxF
6130 2475 BoxF
6134 2412 BoxF
6137 2375 BoxF
6141 2464 BoxF
6144 2436 BoxF
6147 2369 BoxF
6151 2448 BoxF
6154 2458 BoxF
6158 2373 BoxF
6161 2421 BoxF
6165 2470 BoxF
6168 2380 BoxF
6171 2403 BoxF
6175 2475 BoxF
6178 2402 BoxF
6182 2385 BoxF
6185 2473 BoxF
6189 2414 BoxF
6192 2375 BoxF
6195 2463 BoxF
6199 2437 BoxF
6202 2371 BoxF
6206 2456 BoxF
6209 2447 BoxF
6213 2369 BoxF
6216 2438 BoxF
6219 2460 BoxF
6223 2372 BoxF
6226 2432 BoxF
6230 2466 BoxF
6233 2378 BoxF
6237 2414 BoxF
6240 2470 BoxF
6244 2380 BoxF
6247 2411 BoxF
6250 2473 BoxF
6254 2391 BoxF
6257 2399 BoxF
6261 2474 BoxF
6264 2391 BoxF
6268 2398 BoxF
6271 2474 BoxF
6274 2403 BoxF
6278 2392 BoxF
6281 2475 BoxF
6285 2398 BoxF
6288 2390 BoxF
6292 2472 BoxF
6295 2406 BoxF
6298 2389 BoxF
6302 2474 BoxF
6305 2402 BoxF
6309 2387 BoxF
6312 2472 BoxF
6316 2403 BoxF
6319 2393 BoxF
6322 2472 BoxF
6326 2403 BoxF
6329 2389 BoxF
6333 2475 BoxF
6336 2394 BoxF
6340 2403 BoxF
6343 2469 BoxF
6346 2397 BoxF
6350 2398 BoxF
6353 2474 BoxF
6357 2381 BoxF
6360 2417 BoxF
6364 2466 BoxF
6367 2385 BoxF
6370 2419 BoxF
6374 2463 BoxF
6377 2375 BoxF
6381 2433 BoxF
6384 2458 BoxF
6388 2372 BoxF
6391 2449 BoxF
6395 2435 BoxF
6398 2380 BoxF
6401 2449 BoxF
6405 2439 BoxF
6408 2373 BoxF
6412 2473 BoxF
6415 2401 BoxF
6419 2398 BoxF
6422 2463 BoxF
6425 2402 BoxF
6429 2406 BoxF
6432 2465 BoxF
6436 2380 BoxF
6439 2425 BoxF
6443 2460 BoxF
6446 2370 BoxF
6449 2458 BoxF
6453 2422 BoxF
6456 2388 BoxF
6460 2456 BoxF
6463 2419 BoxF
6467 2391 BoxF
6470 2471 BoxF
6473 2383 BoxF
6477 2421 BoxF
6480 2461 BoxF
6484 2372 BoxF
6487 2456 BoxF
6491 2422 BoxF
6494 2389 BoxF
6497 2460 BoxF
6501 2409 BoxF
6504 2401 BoxF
6508 2465 BoxF
6511 2377 BoxF
6515 2436 BoxF
6518 2448 BoxF
6521 2372 BoxF
6525 2469 BoxF
6528 2400 BoxF
6532 2407 BoxF
6535 2465 BoxF
6539 2381 BoxF
6542 2436 BoxF
6545 2438 BoxF
6549 2381 BoxF
6552 2464 BoxF
6556 2405 BoxF
6559 2403 BoxF
6563 2465 BoxF
6566 2374 BoxF
6570 2451 BoxF
6573 2428 BoxF
6576 2382 BoxF
6580 2470 BoxF
6583 2387 BoxF
6587 2429 BoxF
6590 2449 BoxF
6594 2375 BoxF
6597 2462 BoxF
6600 2408 BoxF
6604 2405 BoxF
6607 2463 BoxF
6611 2373 BoxF
6614 2452 BoxF
6618 2425 BoxF
6621 2391 BoxF
6624 2469 BoxF
6628 2376 BoxF
6631 2443 BoxF
6635 2436 BoxF
6638 2383 BoxF
6642 2468 BoxF
6645 2383 BoxF
6648 2436 BoxF
6652 2442 BoxF
6655 2380 BoxF
6659 2465 BoxF
6662 2390 BoxF
6666 2429 BoxF
6669 2446 BoxF
6672 2378 BoxF
6676 2464 BoxF
6679 2396 BoxF
6683 2425 BoxF
6686 2447 BoxF
6690 2377 BoxF
6693 2465 BoxF
6696 2396 BoxF
6700 2425 BoxF
6703 2444 BoxF
6707 2379 BoxF
6710 2467 BoxF
6714 2391 BoxF
6717 2430 BoxF
6721 2438 BoxF
6724 2384 BoxF
6727 2469 BoxF
6731 2385 BoxF
6734 2438 BoxF
6738 2427 BoxF
6741 2393 BoxF
6745 2466 BoxF
6748 2379 BoxF
6751 2450 BoxF
6755 2413 BoxF
6758 2408 BoxF
6762 2456 BoxF
6765 2377 BoxF
6769 2461 BoxF
6772 2397 BoxF
6775 2428 BoxF
6779 2438 BoxF
6782 2385 BoxF
6786 2467 BoxF
6789 2382 BoxF
6793 2450 BoxF
6796 2413 BoxF
6799 2406 BoxF
6803 2460 BoxF
6806 2374 BoxF
6810 2467 BoxF
6813 2387 BoxF
6817 2437 BoxF
6820 2435 BoxF
6823 2384 BoxF
6827 2471 BoxF
6830 2372 BoxF
6834 2462 BoxF
6837 2401 BoxF
6841 2415 BoxF
6844 2452 BoxF
6847 2380 BoxF
6851 2466 BoxF
6854 2381 BoxF
6858 2450 BoxF
6861 2413 BoxF
6865 2415 BoxF
6868 2438 BoxF
6872 2398 BoxF
6875 2454 BoxF
6878 2385 BoxF
6882 2456 BoxF
6885 2394 BoxF
6889 2442 BoxF
6892 2415 BoxF
6896 2405 BoxF
6899 2459 BoxF
6902 2374 BoxF
6906 2471 BoxF
6909 2378 BoxF
6913 2453 BoxF
6916 2411 BoxF
6920 2413 BoxF
6923 2443 BoxF
6926 2395 BoxF
6930 2453 BoxF
6933 2384 BoxF
6937 2462 BoxF
6940 2384 BoxF
6944 2454 BoxF
6947 2399 BoxF
6579 4766 BoxF
% End plot #2
2.000 UL
LTb
LCb setrgbcolor
1.000 UL
LTB
LCb setrgbcolor
770 4899 N
770 448 L
6177 0 V
0 4451 V
-6177 0 V
Z stroke
1.000 UP
1.000 UL
LTb
LCb setrgbcolor
stroke
grestore
end
showpage
%%Trailer
%%DocumentFonts: Helvetica
