%!PS-Adobe-2.0 EPSF-2.0
%%Title: turn-SZ_solenoid.eps
%%Titre: turn-SZ_solenoid.eps
%%Creator: Fminigraf Library
%%BoundingBox: 20 40 567 457
%%EndComments
/offx 20 def
/offy 40 def
/lx 595 def
/ly 842 def
/maxx 1023 def
/maxy 779 def
/reduc 0.92 def
/coeff lx maxx div reduc mul def
offx offy translate
coeff coeff scale
1 setlinewidth newpath 0 0 moveto
/Courier-Bold findfont 32 scalefont setfont
/M {moveto} def
/L {lineto} def
/S {stroke} def
/H {show} def
/D {setdash} def
0 0 0 setrgbcolor
[] 0 D
143 156 M 143 161 L S
143 280 M 143 290 L S
143 735 M 143 740 L S
184 156 M 184 161 L S
184 280 M 184 290 L S
184 735 M 184 740 L S
226 156 M 226 161 L S
226 280 M 226 290 L S
226 735 M 226 740 L S
267 156 M 267 161 L S
267 280 M 267 290 L S
267 735 M 267 740 L S
[2 3] 0 D
309 156 M 309 740 L S
[] 0 D
/Courier-Bold findfont 30 scalefont setfont
291 128 M (500) H
309 156 M 309 166 L S
309 275 M 309 295 L S
309 730 M 309 740 L S
350 156 M 350 161 L S
350 280 M 350 290 L S
350 735 M 350 740 L S
392 156 M 392 161 L S
392 280 M 392 290 L S
392 735 M 392 740 L S
433 156 M 433 161 L S
433 280 M 433 290 L S
433 735 M 433 740 L S
474 156 M 474 161 L S
474 280 M 474 290 L S
474 735 M 474 740 L S
[2 3] 0 D
516 156 M 516 740 L S
[] 0 D
492 128 M (1000) H
516 156 M 516 166 L S
516 275 M 516 295 L S
516 730 M 516 740 L S
557 156 M 557 161 L S
557 280 M 557 290 L S
557 735 M 557 740 L S
599 156 M 599 161 L S
599 280 M 599 290 L S
599 735 M 599 740 L S
640 156 M 640 161 L S
640 280 M 640 290 L S
640 735 M 640 740 L S
682 156 M 682 161 L S
682 280 M 682 290 L S
682 735 M 682 740 L S
[2 3] 0 D
723 156 M 723 740 L S
[] 0 D
699 128 M (1500) H
723 156 M 723 166 L S
723 275 M 723 295 L S
723 730 M 723 740 L S
764 156 M 764 161 L S
764 280 M 764 290 L S
764 735 M 764 740 L S
806 156 M 806 161 L S
806 280 M 806 290 L S
806 735 M 806 740 L S
847 156 M 847 161 L S
847 280 M 847 290 L S
847 735 M 847 740 L S
889 156 M 889 161 L S
889 280 M 889 290 L S
889 735 M 889 740 L S
[2 3] 0 D
930 156 M 930 740 L S
[] 0 D
906 128 M (2000) H
930 156 M 930 166 L S
930 275 M 930 295 L S
930 730 M 930 740 L S
972 156 M 972 161 L S
972 280 M 972 290 L S
972 735 M 972 740 L S
102 172 M 107 172 L S
967 172 M 972 172 L S
[2 3] 0 D
102 195 M 972 195 L S
[] 0 D
33 185 M (-.2) H
102 195 M 112 195 L S
962 195 M 972 195 L S
102 217 M 107 217 L S
967 217 M 972 217 L S
102 240 M 107 240 L S
967 240 M 972 240 L S
102 263 M 107 263 L S
967 263 M 972 263 L S
[2 3] 0 D
102 285 M 972 285 L S
[] 0 D
33 275 M (0.0) H
102 285 M 112 285 L S
962 285 M 972 285 L S
102 308 M 107 308 L S
967 308 M 972 308 L S
102 331 M 107 331 L S
967 331 M 972 331 L S
102 354 M 107 354 L S
967 354 M 972 354 L S
[2 3] 0 D
102 376 M 972 376 L S
[] 0 D
33 366 M (0.2) H
102 376 M 112 376 L S
962 376 M 972 376 L S
102 399 M 107 399 L S
967 399 M 972 399 L S
102 422 M 107 422 L S
967 422 M 972 422 L S
102 445 M 107 445 L S
967 445 M 972 445 L S
[2 3] 0 D
102 467 M 972 467 L S
[] 0 D
33 457 M (0.4) H
102 467 M 112 467 L S
962 467 M 972 467 L S
102 490 M 107 490 L S
967 490 M 972 490 L S
102 513 M 107 513 L S
967 513 M 972 513 L S
102 535 M 107 535 L S
967 535 M 972 535 L S
[2 3] 0 D
102 558 M 972 558 L S
[] 0 D
33 548 M (0.6) H
102 558 M 112 558 L S
962 558 M 972 558 L S
102 581 M 107 581 L S
967 581 M 972 581 L S
102 604 M 107 604 L S
967 604 M 972 604 L S
102 626 M 107 626 L S
967 626 M 972 626 L S
[2 3] 0 D
102 649 M 972 649 L S
[] 0 D
33 639 M (0.8) H
102 649 M 112 649 L S
962 649 M 972 649 L S
102 672 M 107 672 L S
967 672 M 972 672 L S
102 695 M 107 695 L S
967 695 M 972 695 L S
102 717 M 107 717 L S
967 717 M 972 717 L S
[2 3] 0 D
102 740 M 972 740 L S
[] 0 D
39 730 M (1.) H
102 740 M 112 740 L S
962 740 M 972 740 L S
[] 0 D
102 156 M 972 156 L S
972 156 M 972 740 L S
972 740 M 102 740 L S
102 740 M 102 156 L S
102 285 M 972 285 L S
102 740 M 102 741 L S
102 740 M 102 741 L S
102 740 M 102 741 L S
102 740 M 102 741 L S
102 740 M 102 741 L S
103 740 M 103 741 L S
103 740 M 103 741 L S
103 740 M 103 741 L S
103 740 M 103 741 L S
104 740 M 104 741 L S
104 740 M 104 741 L S
104 740 M 104 741 L S
104 740 M 104 741 L S
104 740 M 104 741 L S
104 740 M 104 741 L S
105 740 M 105 741 L S
105 740 M 105 741 L S
105 740 M 105 741 L S
105 740 M 105 741 L S
106 740 M 106 741 L S
106 740 M 106 741 L S
106 740 M 106 741 L S
106 740 M 106 741 L S
107 740 M 107 741 L S
107 740 M 107 741 L S
107 740 M 107 741 L S
107 740 M 107 741 L S
107 740 M 107 741 L S
107 740 M 107 741 L S
108 740 M 108 741 L S
108 740 M 108 741 L S
108 740 M 108 741 L S
108 740 M 108 741 L S
109 740 M 109 741 L S
109 740 M 109 741 L S
109 740 M 109 741 L S
109 740 M 109 741 L S
109 740 M 109 741 L S
109 740 M 109 741 L S
110 740 M 110 741 L S
110 740 M 110 741 L S
110 740 M 110 741 L S
110 740 M 110 741 L S
111 740 M 111 741 L S
111 740 M 111 741 L S
111 740 M 111 741 L S
111 740 M 111 741 L S
112 740 M 112 741 L S
112 740 M 112 741 L S
112 740 M 112 741 L S
112 740 M 112 741 L S
112 740 M 112 741 L S
112 740 M 112 741 L S
113 740 M 113 741 L S
113 740 M 113 741 L S
113 740 M 113 741 L S
113 740 M 113 741 L S
114 740 M 114 741 L S
114 740 M 114 741 L S
114 740 M 114 741 L S
114 740 M 114 741 L S
114 740 M 114 741 L S
114 740 M 114 741 L S
115 740 M 115 741 L S
115 740 M 115 741 L S
115 740 M 115 741 L S
115 740 M 115 741 L S
116 740 M 116 741 L S
116 740 M 116 741 L S
116 740 M 116 741 L S
116 740 M 116 741 L S
117 740 M 117 741 L S
117 740 M 117 741 L S
117 740 M 117 741 L S
117 740 M 117 741 L S
117 740 M 117 741 L S
117 740 M 117 741 L S
118 740 M 118 741 L S
118 740 M 118 741 L S
118 740 M 118 741 L S
118 740 M 118 741 L S
119 740 M 119 741 L S
119 740 M 119 741 L S
119 740 M 119 741 L S
119 740 M 119 741 L S
119 740 M 119 741 L S
119 740 M 119 741 L S
120 740 M 120 741 L S
120 740 M 120 741 L S
120 740 M 120 741 L S
120 740 M 120 741 L S
121 740 M 121 741 L S
121 740 M 121 741 L S
121 740 M 121 741 L S
121 740 M 121 741 L S
121 740 M 121 741 L S
121 740 M 121 741 L S
122 740 M 122 741 L S
122 740 M 122 741 L S
122 740 M 122 741 L S
122 740 M 122 741 L S
123 740 M 123 741 L S
123 740 M 123 741 L S
123 740 M 123 741 L S
123 740 M 123 741 L S
124 740 M 124 741 L S
124 740 M 124 741 L S
124 740 M 124 741 L S
124 740 M 124 741 L S
124 740 M 124 741 L S
124 740 M 124 741 L S
125 740 M 125 741 L S
125 740 M 125 741 L S
125 740 M 125 741 L S
125 740 M 125 741 L S
126 740 M 126 741 L S
126 740 M 126 741 L S
126 740 M 126 741 L S
126 740 M 126 741 L S
126 740 M 126 741 L S
126 740 M 126 741 L S
127 740 M 127 741 L S
127 740 M 127 741 L S
127 740 M 127 741 L S
127 740 M 127 741 L S
128 740 M 128 741 L S
128 740 M 128 741 L S
128 740 M 128 741 L S
128 740 M 128 741 L S
129 740 M 129 741 L S
129 740 M 129 741 L S
129 740 M 129 741 L S
129 740 M 129 741 L S
129 740 M 129 741 L S
129 740 M 129 741 L S
130 740 M 130 741 L S
130 740 M 130 741 L S
130 740 M 130 741 L S
130 740 M 130 741 L S
131 740 M 131 741 L S
131 740 M 131 741 L S
131 740 M 131 741 L S
131 740 M 131 741 L S
131 740 M 131 741 L S
131 740 M 131 741 L S
132 740 M 132 741 L S
132 740 M 132 741 L S
132 740 M 132 741 L S
132 740 M 132 741 L S
133 740 M 133 741 L S
133 740 M 133 741 L S
133 740 M 133 741 L S
133 740 M 133 741 L S
133 740 M 133 741 L S
133 740 M 133 741 L S
134 740 M 134 741 L S
134 740 M 134 741 L S
134 740 M 134 741 L S
134 740 M 134 741 L S
135 740 M 135 741 L S
135 740 M 135 741 L S
135 740 M 135 741 L S
135 740 M 135 741 L S
136 740 M 136 741 L S
136 740 M 136 741 L S
136 740 M 136 741 L S
136 740 M 136 741 L S
136 740 M 136 741 L S
136 740 M 136 741 L S
137 740 M 137 741 L S
137 740 M 137 741 L S
137 740 M 137 741 L S
137 740 M 137 741 L S
138 740 M 138 741 L S
138 740 M 138 741 L S
138 740 M 138 741 L S
138 740 M 138 741 L S
138 740 M 138 741 L S
138 740 M 138 741 L S
139 740 M 139 741 L S
139 740 M 139 741 L S
139 740 M 139 741 L S
139 740 M 139 741 L S
140 740 M 140 741 L S
140 740 M 140 741 L S
140 740 M 140 741 L S
140 740 M 140 741 L S
141 740 M 141 741 L S
141 740 M 141 741 L S
141 740 M 141 741 L S
141 740 M 141 741 L S
141 740 M 141 741 L S
141 740 M 141 741 L S
142 740 M 142 741 L S
142 740 M 142 741 L S
142 740 M 142 741 L S
142 740 M 142 741 L S
143 740 M 143 741 L S
143 740 M 143 741 L S
143 740 M 143 741 L S
143 740 M 143 741 L S
143 740 M 143 741 L S
143 740 M 143 741 L S
144 740 M 144 741 L S
144 740 M 144 741 L S
144 740 M 144 741 L S
144 740 M 144 741 L S
145 740 M 145 741 L S
145 740 M 145 741 L S
145 740 M 145 741 L S
145 740 M 145 741 L S
146 740 M 146 741 L S
146 740 M 146 741 L S
146 740 M 146 741 L S
146 740 M 146 741 L S
146 740 M 146 741 L S
146 740 M 146 741 L S
147 740 M 147 741 L S
147 740 M 147 741 L S
147 740 M 147 741 L S
147 740 M 147 741 L S
148 740 M 148 741 L S
148 740 M 148 741 L S
148 740 M 148 741 L S
148 740 M 148 741 L S
148 740 M 148 741 L S
148 740 M 148 741 L S
149 740 M 149 741 L S
149 740 M 149 741 L S
149 740 M 149 741 L S
149 740 M 149 741 L S
150 740 M 150 741 L S
150 740 M 150 741 L S
150 740 M 150 741 L S
150 740 M 150 741 L S
150 740 M 150 741 L S
150 740 M 150 741 L S
151 740 M 151 741 L S
151 740 M 151 741 L S
151 740 M 151 741 L S
151 740 M 151 741 L S
152 740 M 152 741 L S
152 740 M 152 741 L S
152 740 M 152 741 L S
152 740 M 152 741 L S
153 740 M 153 741 L S
153 740 M 153 741 L S
153 740 M 153 741 L S
153 740 M 153 741 L S
153 740 M 153 741 L S
153 740 M 153 741 L S
154 740 M 154 741 L S
154 740 M 154 741 L S
154 740 M 154 741 L S
154 740 M 154 741 L S
155 740 M 155 741 L S
155 740 M 155 741 L S
155 740 M 155 741 L S
155 740 M 155 741 L S
155 740 M 155 741 L S
155 740 M 155 741 L S
156 740 M 156 741 L S
156 740 M 156 741 L S
156 740 M 156 741 L S
156 740 M 156 741 L S
157 740 M 157 741 L S
157 740 M 157 741 L S
157 740 M 157 741 L S
157 740 M 157 741 L S
158 740 M 158 741 L S
158 740 M 158 741 L S
158 740 M 158 741 L S
158 740 M 158 741 L S
158 740 M 158 741 L S
158 740 M 158 741 L S
159 740 M 159 741 L S
159 740 M 159 741 L S
159 740 M 159 741 L S
159 740 M 159 741 L S
160 740 M 160 741 L S
160 740 M 160 741 L S
160 740 M 160 741 L S
160 740 M 160 741 L S
160 740 M 160 741 L S
160 740 M 160 741 L S
161 740 M 161 741 L S
161 740 M 161 741 L S
161 740 M 161 741 L S
161 740 M 161 741 L S
162 740 M 162 741 L S
162 740 M 162 741 L S
162 740 M 162 741 L S
162 740 M 162 741 L S
162 740 M 162 741 L S
162 740 M 162 741 L S
163 740 M 163 741 L S
163 740 M 163 741 L S
163 740 M 163 741 L S
163 740 M 163 741 L S
164 740 M 164 741 L S
164 740 M 164 741 L S
164 740 M 164 741 L S
164 740 M 164 741 L S
165 740 M 165 741 L S
165 740 M 165 741 L S
165 740 M 165 741 L S
165 740 M 165 741 L S
165 740 M 165 741 L S
165 740 M 165 741 L S
166 740 M 166 741 L S
166 740 M 166 741 L S
166 740 M 166 741 L S
166 740 M 166 741 L S
167 740 M 167 741 L S
167 740 M 167 741 L S
167 740 M 167 741 L S
167 740 M 167 741 L S
167 740 M 167 741 L S
167 740 M 167 741 L S
168 740 M 168 741 L S
168 740 M 168 741 L S
168 740 M 168 741 L S
168 740 M 168 741 L S
169 740 M 169 741 L S
169 740 M 169 741 L S
169 740 M 169 741 L S
169 740 M 169 741 L S
170 740 M 170 741 L S
170 740 M 170 741 L S
170 740 M 170 741 L S
170 740 M 170 741 L S
170 740 M 170 741 L S
170 740 M 170 741 L S
171 740 M 171 741 L S
171 740 M 171 741 L S
171 740 M 171 741 L S
171 740 M 171 741 L S
172 740 M 172 741 L S
172 740 M 172 741 L S
172 740 M 172 741 L S
172 740 M 172 741 L S
172 740 M 172 741 L S
172 740 M 172 741 L S
173 740 M 173 741 L S
173 740 M 173 741 L S
173 740 M 173 741 L S
173 740 M 173 741 L S
174 740 M 174 741 L S
174 740 M 174 741 L S
174 740 M 174 741 L S
174 740 M 174 741 L S
175 740 M 175 741 L S
175 740 M 175 741 L S
175 740 M 175 741 L S
175 740 M 175 741 L S
175 740 M 175 741 L S
175 740 M 175 741 L S
176 740 M 176 741 L S
176 740 M 176 741 L S
176 740 M 176 741 L S
176 740 M 176 741 L S
177 740 M 177 741 L S
177 740 M 177 741 L S
177 740 M 177 741 L S
177 740 M 177 741 L S
177 740 M 177 741 L S
177 740 M 177 741 L S
178 740 M 178 741 L S
178 740 M 178 741 L S
178 740 M 178 741 L S
178 740 M 178 741 L S
179 740 M 179 741 L S
179 740 M 179 741 L S
179 740 M 179 741 L S
179 740 M 179 741 L S
179 740 M 179 741 L S
179 740 M 179 741 L S
180 740 M 180 741 L S
180 740 M 180 741 L S
180 740 M 180 741 L S
180 740 M 180 741 L S
181 740 M 181 741 L S
181 740 M 181 741 L S
181 740 M 181 741 L S
181 740 M 181 741 L S
182 740 M 182 741 L S
182 740 M 182 741 L S
182 740 M 182 741 L S
182 740 M 182 741 L S
182 740 M 182 741 L S
182 740 M 182 741 L S
183 740 M 183 741 L S
183 740 M 183 741 L S
183 740 M 183 741 L S
183 740 M 183 741 L S
184 740 M 184 741 L S
184 740 M 184 741 L S
184 740 M 184 741 L S
184 740 M 184 741 L S
184 740 M 184 741 L S
184 740 M 184 741 L S
185 740 M 185 741 L S
185 740 M 185 741 L S
185 740 M 185 741 L S
185 740 M 185 741 L S
186 740 M 186 741 L S
186 740 M 186 741 L S
186 740 M 186 741 L S
186 740 M 186 741 L S
187 740 M 187 741 L S
187 740 M 187 741 L S
187 740 M 187 741 L S
187 740 M 187 741 L S
187 740 M 187 741 L S
187 740 M 187 741 L S
188 740 M 188 741 L S
188 740 M 188 741 L S
188 740 M 188 741 L S
188 740 M 188 741 L S
189 740 M 189 741 L S
189 740 M 189 741 L S
189 740 M 189 741 L S
189 740 M 189 741 L S
189 740 M 189 741 L S
189 740 M 189 741 L S
190 740 M 190 741 L S
190 740 M 190 741 L S
190 740 M 190 741 L S
190 740 M 190 741 L S
191 740 M 191 741 L S
191 740 M 191 741 L S
191 740 M 191 741 L S
191 740 M 191 741 L S
191 740 M 191 741 L S
191 740 M 191 741 L S
192 740 M 192 741 L S
192 740 M 192 741 L S
192 740 M 192 741 L S
192 740 M 192 741 L S
193 740 M 193 741 L S
193 740 M 193 741 L S
193 740 M 193 741 L S
193 740 M 193 741 L S
194 740 M 194 741 L S
194 740 M 194 741 L S
194 740 M 194 741 L S
194 740 M 194 741 L S
194 740 M 194 741 L S
194 740 M 194 741 L S
195 740 M 195 741 L S
195 740 M 195 741 L S
195 740 M 195 741 L S
195 740 M 195 741 L S
196 740 M 196 741 L S
196 740 M 196 741 L S
196 740 M 196 741 L S
196 740 M 196 741 L S
196 740 M 196 741 L S
196 740 M 196 741 L S
197 740 M 197 741 L S
197 740 M 197 741 L S
197 740 M 197 741 L S
197 740 M 197 741 L S
198 740 M 198 741 L S
198 740 M 198 741 L S
198 740 M 198 741 L S
198 740 M 198 741 L S
199 740 M 199 741 L S
199 740 M 199 741 L S
199 740 M 199 741 L S
199 740 M 199 741 L S
199 740 M 199 741 L S
199 740 M 199 741 L S
200 740 M 200 741 L S
200 740 M 200 741 L S
200 740 M 200 741 L S
200 740 M 200 741 L S
201 740 M 201 741 L S
201 740 M 201 741 L S
201 740 M 201 741 L S
201 740 M 201 741 L S
201 740 M 201 741 L S
201 740 M 201 741 L S
202 740 M 202 741 L S
202 740 M 202 741 L S
202 740 M 202 741 L S
202 740 M 202 741 L S
203 740 M 203 741 L S
203 740 M 203 741 L S
203 740 M 203 741 L S
203 740 M 203 741 L S
204 740 M 204 741 L S
204 740 M 204 741 L S
204 740 M 204 741 L S
204 740 M 204 741 L S
204 740 M 204 741 L S
204 740 M 204 741 L S
205 740 M 205 741 L S
205 740 M 205 741 L S
205 740 M 205 741 L S
205 740 M 205 741 L S
206 740 M 206 741 L S
206 740 M 206 741 L S
206 740 M 206 741 L S
206 740 M 206 741 L S
206 740 M 206 741 L S
206 740 M 206 741 L S
207 740 M 207 741 L S
207 740 M 207 741 L S
207 740 M 207 741 L S
207 740 M 207 741 L S
208 740 M 208 741 L S
208 740 M 208 741 L S
208 740 M 208 741 L S
208 740 M 208 741 L S
208 740 M 208 741 L S
208 740 M 208 741 L S
209 740 M 209 741 L S
209 740 M 209 741 L S
209 740 M 209 741 L S
209 740 M 209 741 L S
210 740 M 210 741 L S
210 740 M 210 741 L S
210 740 M 210 741 L S
210 740 M 210 741 L S
211 740 M 211 741 L S
211 740 M 211 741 L S
211 740 M 211 741 L S
211 740 M 211 741 L S
211 740 M 211 741 L S
211 740 M 211 741 L S
212 740 M 212 741 L S
212 740 M 212 741 L S
212 740 M 212 741 L S
212 740 M 212 741 L S
213 740 M 213 741 L S
213 740 M 213 741 L S
213 740 M 213 741 L S
213 740 M 213 741 L S
213 740 M 213 741 L S
213 740 M 213 741 L S
214 740 M 214 741 L S
214 740 M 214 741 L S
214 740 M 214 741 L S
214 740 M 214 741 L S
215 740 M 215 741 L S
215 740 M 215 741 L S
215 740 M 215 741 L S
215 740 M 215 741 L S
216 740 M 216 741 L S
216 740 M 216 741 L S
216 740 M 216 741 L S
216 740 M 216 741 L S
216 740 M 216 741 L S
216 740 M 216 741 L S
217 740 M 217 741 L S
217 740 M 217 741 L S
217 740 M 217 741 L S
217 740 M 217 741 L S
218 740 M 218 741 L S
218 740 M 218 741 L S
218 740 M 218 741 L S
218 740 M 218 741 L S
218 740 M 218 741 L S
218 740 M 218 741 L S
219 740 M 219 741 L S
219 740 M 219 741 L S
219 740 M 219 741 L S
219 740 M 219 741 L S
220 740 M 220 741 L S
220 740 M 220 741 L S
220 740 M 220 741 L S
220 740 M 220 741 L S
220 740 M 220 741 L S
220 740 M 220 741 L S
221 740 M 221 741 L S
221 740 M 221 741 L S
221 740 M 221 741 L S
221 740 M 221 741 L S
222 740 M 222 741 L S
222 740 M 222 741 L S
222 740 M 222 741 L S
222 740 M 222 741 L S
223 740 M 223 741 L S
223 740 M 223 741 L S
223 740 M 223 741 L S
223 740 M 223 741 L S
223 740 M 223 741 L S
223 740 M 223 741 L S
224 740 M 224 741 L S
224 740 M 224 741 L S
224 740 M 224 741 L S
224 740 M 224 741 L S
225 740 M 225 741 L S
225 740 M 225 741 L S
225 740 M 225 741 L S
225 740 M 225 741 L S
225 740 M 225 741 L S
225 740 M 225 741 L S
226 740 M 226 741 L S
226 740 M 226 741 L S
226 740 M 226 741 L S
226 740 M 226 741 L S
227 740 M 227 741 L S
227 740 M 227 741 L S
227 740 M 227 741 L S
227 740 M 227 741 L S
228 740 M 228 741 L S
228 740 M 228 741 L S
228 740 M 228 741 L S
228 740 M 228 741 L S
228 740 M 228 741 L S
228 740 M 228 741 L S
229 740 M 229 741 L S
229 740 M 229 741 L S
229 740 M 229 741 L S
229 740 M 229 741 L S
230 740 M 230 741 L S
230 740 M 230 741 L S
230 740 M 230 741 L S
230 740 M 230 741 L S
230 740 M 230 741 L S
230 740 M 230 741 L S
231 740 M 231 741 L S
231 740 M 231 741 L S
231 740 M 231 741 L S
231 740 M 231 741 L S
232 740 M 232 741 L S
232 740 M 232 741 L S
232 740 M 232 741 L S
232 740 M 232 741 L S
233 740 M 233 741 L S
233 740 M 233 741 L S
233 740 M 233 741 L S
233 740 M 233 741 L S
233 740 M 233 741 L S
233 740 M 233 741 L S
234 740 M 234 741 L S
234 740 M 234 741 L S
234 740 M 234 741 L S
234 740 M 234 741 L S
235 740 M 235 741 L S
235 740 M 235 741 L S
235 740 M 235 741 L S
235 740 M 235 741 L S
235 740 M 235 741 L S
235 740 M 235 741 L S
236 740 M 236 741 L S
236 740 M 236 741 L S
236 740 M 236 741 L S
236 740 M 236 741 L S
237 740 M 237 741 L S
237 740 M 237 741 L S
237 740 M 237 741 L S
237 740 M 237 741 L S
237 740 M 237 741 L S
237 740 M 237 741 L S
238 740 M 238 741 L S
238 740 M 238 741 L S
238 740 M 238 741 L S
238 740 M 238 741 L S
239 740 M 239 741 L S
239 740 M 239 741 L S
239 740 M 239 741 L S
239 740 M 239 741 L S
240 740 M 240 741 L S
240 740 M 240 741 L S
240 740 M 240 741 L S
240 740 M 240 741 L S
240 740 M 240 741 L S
240 740 M 240 741 L S
241 740 M 241 741 L S
241 740 M 241 741 L S
241 740 M 241 741 L S
241 740 M 241 741 L S
242 740 M 242 741 L S
242 740 M 242 741 L S
242 740 M 242 741 L S
242 740 M 242 741 L S
242 740 M 242 741 L S
242 740 M 242 741 L S
243 740 M 243 741 L S
243 740 M 243 741 L S
243 740 M 243 741 L S
243 740 M 243 741 L S
244 740 M 244 741 L S
244 740 M 244 741 L S
244 740 M 244 741 L S
244 740 M 244 741 L S
245 740 M 245 741 L S
245 740 M 245 741 L S
245 740 M 245 741 L S
245 740 M 245 741 L S
245 740 M 245 741 L S
245 740 M 245 741 L S
246 740 M 246 741 L S
246 740 M 246 741 L S
246 740 M 246 741 L S
246 740 M 246 741 L S
247 740 M 247 741 L S
247 740 M 247 741 L S
247 740 M 247 741 L S
247 740 M 247 741 L S
247 740 M 247 741 L S
247 740 M 247 741 L S
248 740 M 248 741 L S
248 740 M 248 741 L S
248 740 M 248 741 L S
248 740 M 248 741 L S
249 740 M 249 741 L S
249 740 M 249 741 L S
249 740 M 249 741 L S
249 740 M 249 741 L S
249 740 M 249 741 L S
249 740 M 249 741 L S
250 740 M 250 741 L S
250 740 M 250 741 L S
250 740 M 250 741 L S
250 740 M 250 741 L S
251 740 M 251 741 L S
251 740 M 251 741 L S
251 740 M 251 741 L S
251 740 M 251 741 L S
252 740 M 252 741 L S
252 740 M 252 741 L S
252 740 M 252 741 L S
252 740 M 252 741 L S
252 740 M 252 741 L S
252 740 M 252 741 L S
253 740 M 253 741 L S
253 740 M 253 741 L S
253 740 M 253 741 L S
253 740 M 253 741 L S
254 740 M 254 741 L S
254 740 M 254 741 L S
254 740 M 254 741 L S
254 740 M 254 741 L S
254 740 M 254 741 L S
254 740 M 254 741 L S
255 740 M 255 741 L S
255 740 M 255 741 L S
255 740 M 255 741 L S
255 740 M 255 741 L S
256 740 M 256 741 L S
256 740 M 256 741 L S
256 740 M 256 741 L S
256 740 M 256 741 L S
257 740 M 257 741 L S
257 740 M 257 741 L S
257 740 M 257 741 L S
257 740 M 257 741 L S
257 740 M 257 741 L S
257 740 M 257 741 L S
258 740 M 258 741 L S
258 740 M 258 741 L S
258 740 M 258 741 L S
258 740 M 258 741 L S
259 740 M 259 741 L S
259 740 M 259 741 L S
259 740 M 259 741 L S
259 740 M 259 741 L S
259 740 M 259 741 L S
259 740 M 259 741 L S
260 740 M 260 741 L S
260 740 M 260 741 L S
260 740 M 260 741 L S
260 740 M 260 741 L S
261 740 M 261 741 L S
261 740 M 261 741 L S
261 740 M 261 741 L S
261 740 M 261 741 L S
262 740 M 262 741 L S
262 740 M 262 741 L S
262 740 M 262 741 L S
262 740 M 262 741 L S
262 740 M 262 741 L S
262 740 M 262 741 L S
263 740 M 263 741 L S
263 740 M 263 741 L S
263 740 M 263 741 L S
263 740 M 263 741 L S
264 740 M 264 741 L S
264 740 M 264 741 L S
264 740 M 264 741 L S
264 740 M 264 741 L S
264 740 M 264 741 L S
264 740 M 264 741 L S
265 740 M 265 741 L S
265 740 M 265 741 L S
265 740 M 265 741 L S
265 740 M 265 741 L S
266 740 M 266 741 L S
266 740 M 266 741 L S
266 740 M 266 741 L S
266 740 M 266 741 L S
266 740 M 266 741 L S
266 740 M 266 741 L S
267 740 M 267 741 L S
267 740 M 267 741 L S
267 740 M 267 741 L S
267 740 M 267 741 L S
268 740 M 268 741 L S
268 740 M 268 741 L S
268 740 M 268 741 L S
268 740 M 268 741 L S
269 740 M 269 741 L S
269 740 M 269 741 L S
269 740 M 269 741 L S
269 740 M 269 741 L S
269 740 M 269 741 L S
269 740 M 269 741 L S
270 740 M 270 741 L S
270 740 M 270 741 L S
270 740 M 270 741 L S
270 740 M 270 741 L S
271 740 M 271 741 L S
271 740 M 271 741 L S
271 740 M 271 741 L S
271 740 M 271 741 L S
271 740 M 271 741 L S
271 740 M 271 741 L S
272 740 M 272 741 L S
272 740 M 272 741 L S
272 740 M 272 741 L S
272 740 M 272 741 L S
273 740 M 273 741 L S
273 740 M 273 741 L S
273 740 M 273 741 L S
273 740 M 273 741 L S
274 740 M 274 741 L S
274 740 M 274 741 L S
274 740 M 274 741 L S
274 740 M 274 741 L S
274 740 M 274 741 L S
274 740 M 274 741 L S
275 740 M 275 741 L S
275 740 M 275 741 L S
275 740 M 275 741 L S
275 740 M 275 741 L S
276 740 M 276 741 L S
276 740 M 276 741 L S
276 740 M 276 741 L S
276 740 M 276 741 L S
276 740 M 276 741 L S
276 740 M 276 741 L S
277 740 M 277 741 L S
277 740 M 277 741 L S
277 740 M 277 741 L S
277 740 M 277 741 L S
278 740 M 278 741 L S
278 740 M 278 741 L S
278 740 M 278 741 L S
278 740 M 278 741 L S
278 740 M 278 741 L S
278 740 M 278 741 L S
279 740 M 279 741 L S
279 740 M 279 741 L S
279 740 M 279 741 L S
279 740 M 279 741 L S
280 740 M 280 741 L S
280 740 M 280 741 L S
280 740 M 280 741 L S
280 740 M 280 741 L S
281 740 M 281 741 L S
281 740 M 281 741 L S
281 740 M 281 741 L S
281 740 M 281 741 L S
281 740 M 281 741 L S
281 740 M 281 741 L S
282 740 M 282 741 L S
282 740 M 282 741 L S
282 740 M 282 741 L S
282 740 M 282 741 L S
283 740 M 283 741 L S
283 740 M 283 741 L S
283 740 M 283 741 L S
283 740 M 283 741 L S
283 740 M 283 741 L S
283 740 M 283 741 L S
284 740 M 284 741 L S
284 740 M 284 741 L S
284 740 M 284 741 L S
284 740 M 284 741 L S
285 740 M 285 741 L S
285 740 M 285 741 L S
285 740 M 285 741 L S
285 740 M 285 741 L S
286 740 M 286 741 L S
286 740 M 286 741 L S
286 740 M 286 741 L S
286 740 M 286 741 L S
286 740 M 286 741 L S
286 740 M 286 741 L S
287 740 M 287 741 L S
287 740 M 287 741 L S
287 740 M 287 741 L S
287 740 M 287 741 L S
288 740 M 288 741 L S
288 740 M 288 741 L S
288 740 M 288 741 L S
288 740 M 288 741 L S
288 740 M 288 741 L S
288 740 M 288 741 L S
289 740 M 289 741 L S
289 740 M 289 741 L S
289 740 M 289 741 L S
289 740 M 289 741 L S
290 740 M 290 741 L S
290 740 M 290 741 L S
290 740 M 290 741 L S
290 740 M 290 741 L S
291 740 M 291 741 L S
291 740 M 291 741 L S
291 740 M 291 741 L S
291 740 M 291 741 L S
291 740 M 291 741 L S
291 740 M 291 741 L S
292 740 M 292 741 L S
292 740 M 292 741 L S
292 740 M 292 741 L S
292 740 M 292 741 L S
293 740 M 293 741 L S
293 740 M 293 741 L S
293 740 M 293 741 L S
293 740 M 293 741 L S
293 740 M 293 741 L S
293 740 M 293 741 L S
294 740 M 294 741 L S
294 740 M 294 741 L S
294 740 M 294 741 L S
294 740 M 294 741 L S
295 740 M 295 741 L S
295 740 M 295 741 L S
295 740 M 295 741 L S
295 740 M 295 741 L S
295 740 M 295 741 L S
295 740 M 295 741 L S
296 740 M 296 741 L S
296 740 M 296 741 L S
296 740 M 296 741 L S
296 740 M 296 741 L S
297 740 M 297 741 L S
297 740 M 297 741 L S
297 740 M 297 741 L S
297 740 M 297 741 L S
298 740 M 298 741 L S
298 740 M 298 741 L S
298 740 M 298 741 L S
298 740 M 298 741 L S
298 740 M 298 741 L S
298 740 M 298 741 L S
299 740 M 299 741 L S
299 740 M 299 741 L S
299 740 M 299 741 L S
299 740 M 299 741 L S
300 740 M 300 741 L S
300 740 M 300 741 L S
300 740 M 300 741 L S
300 740 M 300 741 L S
300 740 M 300 741 L S
300 740 M 300 741 L S
301 740 M 301 741 L S
301 740 M 301 741 L S
301 740 M 301 741 L S
301 740 M 301 741 L S
302 740 M 302 741 L S
302 740 M 302 741 L S
302 740 M 302 741 L S
302 740 M 302 741 L S
303 740 M 303 741 L S
303 740 M 303 741 L S
303 740 M 303 741 L S
303 740 M 303 741 L S
303 740 M 303 741 L S
303 740 M 303 741 L S
304 740 M 304 741 L S
304 740 M 304 741 L S
304 740 M 304 741 L S
304 740 M 304 741 L S
305 740 M 305 741 L S
305 740 M 305 741 L S
305 740 M 305 741 L S
305 740 M 305 741 L S
305 740 M 305 741 L S
305 740 M 305 741 L S
306 740 M 306 741 L S
306 740 M 306 741 L S
306 740 M 306 741 L S
306 740 M 306 741 L S
307 740 M 307 741 L S
307 740 M 307 741 L S
307 740 M 307 741 L S
307 740 M 307 741 L S
307 740 M 307 741 L S
307 740 M 307 741 L S
308 740 M 308 741 L S
308 740 M 308 741 L S
308 740 M 308 741 L S
308 740 M 308 741 L S
309 740 M 309 741 L S
309 740 M 309 741 L S
309 740 M 309 741 L S
309 740 M 309 741 L S
310 740 M 310 741 L S
310 740 M 310 741 L S
310 740 M 310 741 L S
310 740 M 310 741 L S
310 740 M 310 741 L S
310 740 M 310 741 L S
311 740 M 311 741 L S
311 740 M 311 741 L S
311 740 M 311 741 L S
311 740 M 311 741 L S
312 740 M 312 741 L S
312 740 M 312 741 L S
312 740 M 312 741 L S
312 740 M 312 741 L S
312 740 M 312 741 L S
312 740 M 312 741 L S
313 740 M 313 741 L S
313 740 M 313 741 L S
313 740 M 313 741 L S
313 740 M 313 741 L S
314 740 M 314 741 L S
314 740 M 314 741 L S
314 740 M 314 741 L S
314 740 M 314 741 L S
315 740 M 315 741 L S
315 740 M 315 741 L S
315 740 M 315 741 L S
315 740 M 315 741 L S
315 740 M 315 741 L S
315 740 M 315 741 L S
316 740 M 316 741 L S
316 740 M 316 741 L S
316 740 M 316 741 L S
316 740 M 316 741 L S
317 740 M 317 741 L S
317 740 M 317 741 L S
317 740 M 317 741 L S
317 740 M 317 741 L S
317 740 M 317 741 L S
317 740 M 317 741 L S
318 740 M 318 741 L S
318 740 M 318 741 L S
318 740 M 318 741 L S
318 740 M 318 741 L S
319 740 M 319 741 L S
319 740 M 319 741 L S
319 740 M 319 741 L S
319 740 M 319 741 L S
320 740 M 320 741 L S
320 740 M 320 741 L S
320 740 M 320 741 L S
320 740 M 320 741 L S
320 740 M 320 741 L S
320 740 M 320 741 L S
321 740 M 321 741 L S
321 740 M 321 741 L S
321 740 M 321 741 L S
321 740 M 321 741 L S
322 740 M 322 741 L S
322 740 M 322 741 L S
322 740 M 322 741 L S
322 740 M 322 741 L S
322 740 M 322 741 L S
322 740 M 322 741 L S
323 740 M 323 741 L S
323 740 M 323 741 L S
323 740 M 323 741 L S
323 740 M 323 741 L S
324 740 M 324 741 L S
324 740 M 324 741 L S
324 740 M 324 741 L S
324 740 M 324 741 L S
324 740 M 324 741 L S
324 740 M 324 741 L S
325 739 M 325 740 L S
325 739 M 325 740 L S
325 740 M 325 741 L S
325 740 M 325 741 L S
326 740 M 326 741 L S
326 740 M 326 741 L S
326 740 M 326 741 L S
326 740 M 326 741 L S
327 740 M 327 741 L S
327 740 M 327 741 L S
327 740 M 327 741 L S
327 740 M 327 741 L S
327 740 M 327 741 L S
327 740 M 327 741 L S
328 740 M 328 741 L S
328 740 M 328 741 L S
328 740 M 328 741 L S
328 740 M 328 741 L S
329 740 M 329 741 L S
329 740 M 329 741 L S
329 739 M 329 740 L S
329 739 M 329 740 L S
329 740 M 329 741 L S
329 740 M 329 741 L S
330 740 M 330 741 L S
330 740 M 330 741 L S
330 740 M 330 741 L S
330 740 M 330 741 L S
331 740 M 331 741 L S
331 740 M 331 741 L S
331 740 M 331 741 L S
331 740 M 331 741 L S
332 740 M 332 741 L S
332 740 M 332 741 L S
332 740 M 332 741 L S
332 740 M 332 741 L S
332 740 M 332 741 L S
332 740 M 332 741 L S
333 740 M 333 741 L S
333 740 M 333 741 L S
333 739 M 333 740 L S
333 739 M 333 740 L S
334 740 M 334 741 L S
334 740 M 334 741 L S
334 740 M 334 741 L S
334 740 M 334 741 L S
334 740 M 334 741 L S
334 740 M 334 741 L S
335 740 M 335 741 L S
335 740 M 335 741 L S
335 740 M 335 741 L S
335 740 M 335 741 L S
336 740 M 336 741 L S
336 740 M 336 741 L S
336 739 M 336 740 L S
336 739 M 336 740 L S
336 740 M 336 741 L S
336 740 M 336 741 L S
337 740 M 337 741 L S
337 740 M 337 741 L S
337 740 M 337 741 L S
337 740 M 337 741 L S
338 740 M 338 741 L S
338 740 M 338 741 L S
338 740 M 338 741 L S
338 740 M 338 741 L S
339 740 M 339 741 L S
339 740 M 339 741 L S
339 739 M 339 740 L S
339 739 M 339 740 L S
339 740 M 339 741 L S
339 740 M 339 741 L S
340 740 M 340 741 L S
340 740 M 340 741 L S
340 740 M 340 741 L S
340 740 M 340 741 L S
341 740 M 341 741 L S
341 740 M 341 741 L S
341 740 M 341 741 L S
341 740 M 341 741 L S
341 740 M 341 741 L S
341 740 M 341 741 L S
342 739 M 342 740 L S
342 739 M 342 740 L S
342 740 M 342 741 L S
342 740 M 342 741 L S
343 740 M 343 741 L S
343 740 M 343 741 L S
343 740 M 343 741 L S
343 740 M 343 741 L S
344 740 M 344 741 L S
344 740 M 344 741 L S
344 740 M 344 741 L S
344 740 M 344 741 L S
344 740 M 344 741 L S
344 740 M 344 741 L S
345 739 M 345 740 L S
345 739 M 345 740 L S
345 740 M 345 741 L S
345 740 M 345 741 L S
346 740 M 346 741 L S
346 740 M 346 741 L S
346 740 M 346 741 L S
346 740 M 346 741 L S
346 739 M 346 740 L S
346 739 M 346 740 L S
347 740 M 347 741 L S
347 740 M 347 741 L S
347 740 M 347 741 L S
347 740 M 347 741 L S
348 740 M 348 741 L S
348 740 M 348 741 L S
348 740 M 348 741 L S
348 740 M 348 741 L S
349 740 M 349 741 L S
349 740 M 349 741 L S
349 740 M 349 741 L S
349 740 M 349 741 L S
349 739 M 349 740 L S
349 739 M 349 740 L S
350 740 M 350 741 L S
350 740 M 350 741 L S
350 740 M 350 741 L S
350 740 M 350 741 L S
351 740 M 351 741 L S
351 740 M 351 741 L S
351 739 M 351 740 L S
351 739 M 351 740 L S
351 740 M 351 741 L S
351 740 M 351 741 L S
352 740 M 352 741 L S
352 740 M 352 741 L S
352 740 M 352 741 L S
352 740 M 352 741 L S
353 739 M 353 740 L S
353 739 M 353 740 L S
353 740 M 353 741 L S
353 740 M 353 741 L S
353 740 M 353 741 L S
353 740 M 353 741 L S
354 740 M 354 741 L S
354 740 M 354 741 L S
354 740 M 354 741 L S
354 740 M 354 741 L S
355 740 M 355 741 L S
355 740 M 355 741 L S
355 740 M 355 741 L S
355 740 M 355 741 L S
356 739 M 356 740 L S
356 739 M 356 740 L S
356 740 M 356 741 L S
356 740 M 356 741 L S
356 740 M 356 741 L S
356 740 M 356 741 L S
357 740 M 357 741 L S
357 740 M 357 741 L S
357 739 M 357 740 L S
357 739 M 357 740 L S
358 740 M 358 741 L S
358 740 M 358 741 L S
358 740 M 358 741 L S
358 740 M 358 741 L S
358 740 M 358 741 L S
358 740 M 358 741 L S
359 739 M 359 740 L S
359 739 M 359 740 L S
359 740 M 359 741 L S
359 740 M 359 741 L S
360 740 M 360 741 L S
360 740 M 360 741 L S
360 740 M 360 741 L S
360 740 M 360 741 L S
361 739 M 361 740 L S
361 739 M 361 740 L S
361 740 M 361 741 L S
361 740 M 361 741 L S
361 740 M 361 741 L S
361 740 M 361 741 L S
362 740 M 362 741 L S
362 740 M 362 741 L S
362 739 M 362 740 L S
362 739 M 362 740 L S
363 740 M 363 741 L S
363 740 M 363 741 L S
363 740 M 363 741 L S
363 740 M 363 741 L S
363 740 M 363 741 L S
363 740 M 363 741 L S
364 739 M 364 740 L S
364 739 M 364 740 L S
364 740 M 364 741 L S
364 740 M 364 741 L S
365 740 M 365 741 L S
365 740 M 365 741 L S
365 740 M 365 741 L S
365 740 M 365 741 L S
365 739 M 365 740 L S
365 739 M 365 740 L S
366 740 M 366 741 L S
366 740 M 366 741 L S
366 740 M 366 741 L S
366 740 M 366 741 L S
367 740 M 367 741 L S
367 740 M 367 741 L S
367 739 M 367 740 L S
367 739 M 367 740 L S
368 740 M 368 741 L S
368 740 M 368 741 L S
368 740 M 368 741 L S
368 740 M 368 741 L S
368 740 M 368 741 L S
368 740 M 368 741 L S
369 739 M 369 740 L S
369 739 M 369 740 L S
369 740 M 369 741 L S
369 740 M 369 741 L S
370 740 M 370 741 L S
370 740 M 370 741 L S
370 740 M 370 741 L S
370 740 M 370 741 L S
370 739 M 370 740 L S
370 739 M 370 740 L S
371 740 M 371 741 L S
371 740 M 371 741 L S
371 740 M 371 741 L S
371 740 M 371 741 L S
372 740 M 372 741 L S
372 740 M 372 741 L S
372 739 M 372 740 L S
372 739 M 372 740 L S
373 739 M 373 740 L S
373 739 M 373 740 L S
373 740 M 373 741 L S
373 740 M 373 741 L S
373 740 M 373 741 L S
373 740 M 373 741 L S
374 740 M 374 741 L S
374 740 M 374 741 L S
374 739 M 374 740 L S
374 739 M 374 740 L S
375 740 M 375 741 L S
375 740 M 375 741 L S
375 740 M 375 741 L S
375 740 M 375 741 L S
375 740 M 375 741 L S
375 740 M 375 741 L S
376 739 M 376 740 L S
376 739 M 376 740 L S
376 740 M 376 741 L S
376 740 M 376 741 L S
377 740 M 377 741 L S
377 740 M 377 741 L S
377 740 M 377 741 L S
377 740 M 377 741 L S
378 739 M 378 740 L S
378 739 M 378 740 L S
378 739 M 378 740 L S
378 739 M 378 740 L S
378 740 M 378 741 L S
378 740 M 378 741 L S
379 740 M 379 741 L S
379 740 M 379 741 L S
379 739 M 379 740 L S
379 739 M 379 740 L S
380 739 M 380 740 L S
380 739 M 380 740 L S
380 740 M 380 741 L S
380 740 M 380 741 L S
380 740 M 380 741 L S
380 740 M 380 741 L S
381 740 M 381 741 L S
381 740 M 381 741 L S
381 739 M 381 740 L S
381 739 M 381 740 L S
382 740 M 382 741 L S
382 740 M 382 741 L S
382 740 M 382 741 L S
382 740 M 382 741 L S
382 740 M 382 741 L S
382 740 M 382 741 L S
383 739 M 383 740 L S
383 739 M 383 740 L S
383 739 M 383 740 L S
383 739 M 383 740 L S
384 740 M 384 741 L S
384 740 M 384 741 L S
384 740 M 384 741 L S
384 740 M 384 741 L S
385 740 M 385 741 L S
385 740 M 385 741 L S
385 739 M 385 740 L S
385 739 M 385 740 L S
385 740 M 385 741 L S
385 740 M 385 741 L S
386 740 M 386 741 L S
386 740 M 386 741 L S
386 740 M 386 741 L S
386 740 M 386 741 L S
387 739 M 387 740 L S
387 739 M 387 740 L S
387 739 M 387 740 L S
387 739 M 387 740 L S
387 740 M 387 741 L S
387 740 M 387 741 L S
388 740 M 388 741 L S
388 740 M 388 741 L S
388 740 M 388 741 L S
388 740 M 388 741 L S
389 739 M 389 740 L S
389 739 M 389 740 L S
389 739 M 389 740 L S
389 739 M 389 740 L S
390 740 M 390 741 L S
390 740 M 390 741 L S
390 740 M 390 741 L S
390 740 M 390 741 L S
390 740 M 390 741 L S
390 740 M 390 741 L S
391 739 M 391 740 L S
391 739 M 391 740 L S
391 739 M 391 740 L S
391 739 M 391 740 L S
392 740 M 392 741 L S
392 740 M 392 741 L S
392 740 M 392 741 L S
392 740 M 392 741 L S
392 740 M 392 741 L S
392 740 M 392 741 L S
393 739 M 393 740 L S
393 739 M 393 740 L S
393 740 M 393 741 L S
393 740 M 393 741 L S
394 740 M 394 741 L S
394 740 M 394 741 L S
394 740 M 394 741 L S
394 740 M 394 741 L S
394 739 M 394 740 L S
394 739 M 394 740 L S
395 739 M 395 740 L S
395 739 M 395 740 L S
395 740 M 395 741 L S
395 740 M 395 741 L S
396 740 M 396 741 L S
396 740 M 396 741 L S
396 740 M 396 741 L S
396 740 M 396 741 L S
397 739 M 397 740 L S
397 739 M 397 740 L S
397 739 M 397 740 L S
397 739 M 397 740 L S
397 740 M 397 741 L S
397 740 M 397 741 L S
398 740 M 398 741 L S
398 740 M 398 741 L S
398 740 M 398 741 L S
398 740 M 398 741 L S
399 739 M 399 740 L S
399 739 M 399 740 L S
399 739 M 399 740 L S
399 739 M 399 740 L S
399 740 M 399 741 L S
399 740 M 399 741 L S
400 740 M 400 741 L S
400 740 M 400 741 L S
400 740 M 400 741 L S
400 740 M 400 741 L S
401 739 M 401 740 L S
401 739 M 401 740 L S
401 739 M 401 740 L S
401 739 M 401 740 L S
402 740 M 402 741 L S
402 740 M 402 741 L S
402 740 M 402 741 L S
402 740 M 402 741 L S
402 740 M 402 741 L S
402 740 M 402 741 L S
403 739 M 403 740 L S
403 739 M 403 740 L S
403 739 M 403 740 L S
403 739 M 403 740 L S
404 740 M 404 741 L S
404 740 M 404 741 L S
404 740 M 404 741 L S
404 740 M 404 741 L S
404 740 M 404 741 L S
404 740 M 404 741 L S
405 739 M 405 740 L S
405 739 M 405 740 L S
405 739 M 405 740 L S
405 739 M 405 740 L S
406 739 M 406 740 L S
406 739 M 406 740 L S
406 740 M 406 741 L S
406 740 M 406 741 L S
407 740 M 407 741 L S
407 740 M 407 741 L S
407 740 M 407 741 L S
407 740 M 407 741 L S
407 739 M 407 740 L S
407 739 M 407 740 L S
408 739 M 408 740 L S
408 739 M 408 740 L S
408 740 M 408 741 L S
408 740 M 408 741 L S
409 740 M 409 741 L S
409 740 M 409 741 L S
409 740 M 409 741 L S
409 740 M 409 741 L S
409 739 M 409 740 L S
409 739 M 409 740 L S
410 739 M 410 740 L S
410 739 M 410 740 L S
410 739 M 410 740 L S
410 739 M 410 740 L S
411 740 M 411 741 L S
411 740 M 411 741 L S
411 740 M 411 741 L S
411 740 M 411 741 L S
411 740 M 411 741 L S
411 740 M 411 741 L S
412 739 M 412 740 L S
412 739 M 412 740 L S
412 739 M 412 740 L S
412 739 M 412 740 L S
413 740 M 413 741 L S
413 740 M 413 741 L S
413 740 M 413 741 L S
413 740 M 413 741 L S
414 740 M 414 741 L S
414 740 M 414 741 L S
414 739 M 414 740 L S
414 739 M 414 740 L S
414 739 M 414 740 L S
414 739 M 414 740 L S
415 739 M 415 740 L S
415 739 M 415 740 L S
415 740 M 415 741 L S
415 740 M 415 741 L S
416 740 M 416 741 L S
416 740 M 416 741 L S
416 740 M 416 741 L S
416 740 M 416 741 L S
416 739 M 416 740 L S
416 739 M 416 740 L S
417 739 M 417 740 L S
417 739 M 417 740 L S
417 739 M 417 740 L S
417 739 M 417 740 L S
418 740 M 418 741 L S
418 740 M 418 741 L S
418 740 M 418 741 L S
418 740 M 418 741 L S
419 740 M 419 741 L S
419 740 M 419 741 L S
419 739 M 419 740 L S
419 739 M 419 740 L S
419 739 M 419 740 L S
419 739 M 419 740 L S
420 740 M 420 741 L S
420 740 M 420 741 L S
420 740 M 420 741 L S
420 740 M 420 741 L S
421 740 M 421 741 L S
421 740 M 421 741 L S
421 739 M 421 740 L S
421 739 M 421 740 L S
421 739 M 421 740 L S
421 739 M 421 740 L S
422 739 M 422 740 L S
422 739 M 422 740 L S
422 740 M 422 741 L S
422 740 M 422 741 L S
423 740 M 423 741 L S
423 740 M 423 741 L S
423 740 M 423 741 L S
423 740 M 423 741 L S
423 739 M 423 740 L S
423 739 M 423 740 L S
424 739 M 424 740 L S
424 739 M 424 740 L S
424 739 M 424 740 L S
424 739 M 424 740 L S
425 739 M 425 740 L S
425 739 M 425 740 L S
425 740 M 425 741 L S
425 740 M 425 741 L S
426 740 M 426 741 L S
426 740 M 426 741 L S
426 740 M 426 741 L S
426 740 M 426 741 L S
426 739 M 426 740 L S
426 739 M 426 740 L S
427 739 M 427 740 L S
427 739 M 427 740 L S
427 739 M 427 740 L S
427 739 M 427 740 L S
428 740 M 428 741 L S
428 740 M 428 741 L S
428 740 M 428 741 L S
428 740 M 428 741 L S
428 740 M 428 741 L S
428 740 M 428 741 L S
429 739 M 429 740 L S
429 739 M 429 740 L S
429 739 M 429 740 L S
429 739 M 429 740 L S
430 739 M 430 740 L S
430 739 M 430 740 L S
430 740 M 430 741 L S
430 740 M 430 741 L S
431 740 M 431 741 L S
431 740 M 431 741 L S
431 740 M 431 741 L S
431 740 M 431 741 L S
431 739 M 431 740 L S
431 739 M 431 740 L S
432 739 M 432 740 L S
432 739 M 432 740 L S
432 739 M 432 740 L S
432 739 M 432 740 L S
433 739 M 433 740 L S
433 739 M 433 740 L S
433 740 M 433 741 L S
433 740 M 433 741 L S
433 740 M 433 741 L S
433 740 M 433 741 L S
434 740 M 434 741 L S
434 740 M 434 741 L S
434 739 M 434 740 L S
434 739 M 434 740 L S
435 739 M 435 740 L S
435 739 M 435 740 L S
435 739 M 435 740 L S
435 739 M 435 740 L S
436 739 M 436 740 L S
436 739 M 436 740 L S
436 740 M 436 741 L S
436 740 M 436 741 L S
436 740 M 436 741 L S
436 740 M 436 741 L S
437 740 M 437 741 L S
437 740 M 437 741 L S
437 739 M 437 740 L S
437 739 M 437 740 L S
438 739 M 438 740 L S
438 739 M 438 740 L S
438 739 M 438 740 L S
438 739 M 438 740 L S
438 739 M 438 740 L S
438 739 M 438 740 L S
439 740 M 439 741 L S
439 740 M 439 741 L S
439 740 M 439 741 L S
439 740 M 439 741 L S
440 740 M 440 741 L S
440 740 M 440 741 L S
440 739 M 440 740 L S
440 739 M 440 740 L S
440 739 M 440 740 L S
440 739 M 440 740 L S
441 739 M 441 740 L S
441 739 M 441 740 L S
441 739 M 441 740 L S
441 739 M 441 740 L S
442 740 M 442 741 L S
442 740 M 442 741 L S
442 740 M 442 741 L S
442 740 M 442 741 L S
443 740 M 443 741 L S
443 740 M 443 741 L S
443 739 M 443 740 L S
443 739 M 443 740 L S
443 739 M 443 740 L S
443 739 M 443 740 L S
444 739 M 444 740 L S
444 739 M 444 740 L S
444 739 M 444 740 L S
444 739 M 444 740 L S
445 740 M 445 741 L S
445 740 M 445 741 L S
445 740 M 445 741 L S
445 740 M 445 741 L S
445 740 M 445 741 L S
445 740 M 445 741 L S
446 739 M 446 740 L S
446 739 M 446 740 L S
446 739 M 446 740 L S
446 739 M 446 740 L S
447 739 M 447 740 L S
447 739 M 447 740 L S
447 739 M 447 740 L S
447 739 M 447 740 L S
448 739 M 448 740 L S
448 739 M 448 740 L S
448 740 M 448 741 L S
448 740 M 448 741 L S
448 740 M 448 741 L S
448 740 M 448 741 L S
449 740 M 449 741 L S
449 740 M 449 741 L S
449 739 M 449 740 L S
449 739 M 449 740 L S
450 739 M 450 740 L S
450 739 M 450 740 L S
450 739 M 450 740 L S
450 739 M 450 740 L S
450 739 M 450 740 L S
450 739 M 450 740 L S
451 739 M 451 740 L S
451 739 M 451 740 L S
451 740 M 451 741 L S
451 740 M 451 741 L S
452 740 M 452 741 L S
452 740 M 452 741 L S
452 740 M 452 741 L S
452 740 M 452 741 L S
452 739 M 452 740 L S
452 739 M 452 740 L S
453 739 M 453 740 L S
453 739 M 453 740 L S
453 739 M 453 740 L S
453 739 M 453 740 L S
454 739 M 454 740 L S
454 739 M 454 740 L S
454 739 M 454 740 L S
454 739 M 454 740 L S
455 739 M 455 740 L S
455 739 M 455 740 L S
455 740 M 455 741 L S
455 740 M 455 741 L S
455 740 M 455 741 L S
455 740 M 455 741 L S
456 739 M 456 740 L S
456 739 M 456 740 L S
456 739 M 456 740 L S
456 739 M 456 740 L S
457 739 M 457 740 L S
457 739 M 457 740 L S
457 739 M 457 740 L S
457 739 M 457 740 L S
457 739 M 457 740 L S
457 739 M 457 740 L S
458 739 M 458 740 L S
458 739 M 458 740 L S
458 740 M 458 741 L S
458 740 M 458 741 L S
459 740 M 459 741 L S
459 740 M 459 741 L S
459 740 M 459 741 L S
459 740 M 459 741 L S
460 739 M 460 740 L S
460 739 M 460 740 L S
460 739 M 460 740 L S
460 739 M 460 740 L S
460 738 M 460 739 L S
460 738 M 460 739 L S
461 738 M 461 739 L S
461 738 M 461 739 L S
461 739 M 461 740 L S
461 739 M 461 740 L S
462 739 M 462 740 L S
462 739 M 462 740 L S
462 739 M 462 740 L S
462 739 M 462 740 L S
462 740 M 462 741 L S
462 740 M 462 741 L S
463 740 M 463 741 L S
463 740 M 463 741 L S
463 739 M 463 740 L S
463 739 M 463 740 L S
464 739 M 464 740 L S
464 739 M 464 740 L S
464 738 M 464 739 L S
464 738 M 464 739 L S
465 738 M 465 739 L S
465 738 M 465 739 L S
465 739 M 465 740 L S
465 739 M 465 740 L S
465 739 M 465 740 L S
465 739 M 465 740 L S
466 739 M 466 740 L S
466 739 M 466 740 L S
466 740 M 466 741 L S
466 740 M 466 741 L S
467 740 M 467 741 L S
467 740 M 467 741 L S
467 739 M 467 740 L S
467 739 M 467 740 L S
467 739 M 467 740 L S
467 739 M 467 740 L S
468 739 M 468 740 L S
468 739 M 468 740 L S
468 738 M 468 739 L S
468 738 M 468 739 L S
469 738 M 469 739 L S
469 738 M 469 739 L S
469 738 M 469 739 L S
469 738 M 469 739 L S
469 739 M 469 740 L S
469 739 M 469 740 L S
470 739 M 470 740 L S
470 739 M 470 740 L S
470 739 M 470 740 L S
470 739 M 470 740 L S
471 739 M 471 740 L S
471 739 M 471 740 L S
471 739 M 471 740 L S
471 739 M 471 740 L S
472 739 M 472 740 L S
472 739 M 472 740 L S
472 739 M 472 740 L S
472 739 M 472 740 L S
472 738 M 472 739 L S
472 738 M 472 739 L S
473 738 M 473 739 L S
473 738 M 473 739 L S
473 738 M 473 739 L S
473 738 M 473 739 L S
474 738 M 474 739 L S
474 738 M 474 739 L S
474 739 M 474 740 L S
474 739 M 474 740 L S
474 739 M 474 740 L S
474 739 M 474 740 L S
475 739 M 475 740 L S
475 739 M 475 740 L S
475 739 M 475 740 L S
475 739 M 475 740 L S
476 739 M 476 740 L S
476 739 M 476 740 L S
476 739 M 476 740 L S
476 739 M 476 740 L S
477 738 M 477 739 L S
477 738 M 477 739 L S
477 738 M 477 739 L S
477 738 M 477 739 L S
477 738 M 477 739 L S
477 738 M 477 739 L S
478 738 M 478 739 L S
478 738 M 478 739 L S
478 738 M 478 739 L S
478 738 M 478 739 L S
479 738 M 479 739 L S
479 738 M 479 739 L S
479 739 M 479 740 L S
479 739 M 479 740 L S
479 739 M 479 740 L S
479 739 M 479 740 L S
480 739 M 480 740 L S
480 739 M 480 740 L S
480 739 M 480 740 L S
480 739 M 480 740 L S
481 739 M 481 740 L S
481 739 M 481 740 L S
481 738 M 481 739 L S
481 738 M 481 739 L S
481 738 M 481 739 L S
481 738 M 481 739 L S
482 738 M 482 739 L S
482 738 M 482 739 L S
482 737 M 482 738 L S
482 737 M 482 738 L S
483 737 M 483 738 L S
483 737 M 483 738 L S
483 738 M 483 739 L S
483 738 M 483 739 L S
484 738 M 484 739 L S
484 738 M 484 739 L S
484 738 M 484 739 L S
484 738 M 484 739 L S
484 739 M 484 740 L S
484 739 M 484 740 L S
485 739 M 485 740 L S
485 739 M 485 740 L S
485 739 M 485 740 L S
485 739 M 485 740 L S
486 739 M 486 740 L S
486 739 M 486 740 L S
486 739 M 486 740 L S
486 739 M 486 740 L S
486 738 M 486 739 L S
486 738 M 486 739 L S
487 738 M 487 739 L S
487 738 M 487 739 L S
487 737 M 487 738 L S
487 737 M 487 738 L S
488 737 M 488 738 L S
488 737 M 488 738 L S
488 737 M 488 738 L S
488 737 M 488 738 L S
489 737 M 489 738 L S
489 737 M 489 738 L S
489 737 M 489 738 L S
489 737 M 489 738 L S
489 738 M 489 739 L S
489 738 M 489 739 L S
490 738 M 490 739 L S
490 738 M 490 739 L S
490 738 M 490 739 L S
490 738 M 490 739 L S
491 739 M 491 740 L S
491 739 M 491 740 L S
491 739 M 491 740 L S
491 739 M 491 740 L S
491 739 M 491 740 L S
491 739 M 491 740 L S
492 738 M 492 739 L S
492 738 M 492 739 L S
492 738 M 492 739 L S
492 738 M 492 739 L S
493 737 M 493 738 L S
493 737 M 493 738 L S
493 737 M 493 738 L S
493 737 M 493 738 L S
494 737 M 494 738 L S
494 737 M 494 738 L S
494 736 M 494 737 L S
494 736 M 494 737 L S
494 736 M 494 737 L S
494 736 M 494 737 L S
495 736 M 495 737 L S
495 736 M 495 737 L S
495 736 M 495 737 L S
495 736 M 495 737 L S
496 737 M 496 738 L S
496 737 M 496 738 L S
496 737 M 496 738 L S
496 737 M 496 738 L S
496 738 M 496 739 L S
496 738 M 496 739 L S
497 738 M 497 739 L S
497 738 M 497 739 L S
497 738 M 497 739 L S
497 738 M 497 739 L S
498 738 M 498 739 L S
498 738 M 498 739 L S
498 738 M 498 739 L S
498 738 M 498 739 L S
498 738 M 498 739 L S
498 738 M 498 739 L S
499 737 M 499 738 L S
499 737 M 499 738 L S
499 737 M 499 738 L S
499 737 M 499 738 L S
500 736 M 500 737 L S
500 736 M 500 737 L S
500 736 M 500 737 L S
500 736 M 500 737 L S
501 736 M 501 737 L S
501 736 M 501 737 L S
501 735 M 501 736 L S
501 735 M 501 736 L S
501 735 M 501 736 L S
501 735 M 501 736 L S
502 735 M 502 736 L S
502 735 M 502 736 L S
502 735 M 502 736 L S
502 735 M 502 736 L S
503 735 M 503 736 L S
503 735 M 503 736 L S
503 735 M 503 736 L S
503 735 M 503 736 L S
503 736 M 503 737 L S
503 736 M 503 737 L S
504 736 M 504 737 L S
504 736 M 504 737 L S
504 736 M 504 737 L S
504 736 M 504 737 L S
505 736 M 505 737 L S
505 736 M 505 737 L S
505 737 M 505 738 L S
505 737 M 505 738 L S
506 737 M 506 738 L S
506 737 M 506 738 L S
506 737 M 506 738 L S
506 737 M 506 738 L S
506 736 M 506 737 L S
506 736 M 506 737 L S
507 736 M 507 737 L S
507 736 M 507 737 L S
507 736 M 507 737 L S
507 736 M 507 737 L S
508 735 M 508 736 L S
508 735 M 508 736 L S
508 735 M 508 736 L S
508 735 M 508 736 L S
508 734 M 508 735 L S
508 734 M 508 735 L S
509 733 M 509 734 L S
509 733 M 509 734 L S
509 733 M 509 734 L S
509 733 M 509 734 L S
510 733 M 510 734 L S
510 733 M 510 734 L S
510 732 M 510 733 L S
510 732 M 510 733 L S
510 732 M 510 733 L S
510 732 M 510 733 L S
511 732 M 511 733 L S
511 732 M 511 733 L S
511 731 M 511 732 L S
511 731 M 511 732 L S
512 731 M 512 732 L S
512 731 M 512 732 L S
512 731 M 512 732 L S
512 731 M 512 732 L S
513 732 M 513 733 L S
513 732 M 513 733 L S
513 732 M 513 733 L S
513 732 M 513 733 L S
513 732 M 513 733 L S
513 732 M 513 733 L S
514 732 M 514 733 L S
514 732 M 514 733 L S
514 732 M 514 733 L S
514 732 M 514 733 L S
515 732 M 515 733 L S
515 732 M 515 733 L S
515 732 M 515 733 L S
515 732 M 515 733 L S
515 732 M 515 733 L S
515 732 M 515 733 L S
516 732 M 516 733 L S
516 732 M 516 733 L S
516 732 M 516 733 L S
516 732 M 516 733 L S
517 732 M 517 733 L S
517 732 M 517 733 L S
517 731 M 517 732 L S
517 731 M 517 732 L S
518 731 M 518 732 L S
518 731 M 518 732 L S
518 730 M 518 731 L S
518 730 M 518 731 L S
518 729 M 518 730 L S
518 729 M 518 730 L S
519 729 M 519 730 L S
519 729 M 519 730 L S
519 728 M 519 729 L S
519 728 M 519 729 L S
520 727 M 520 728 L S
520 727 M 520 728 L S
520 726 M 520 727 L S
520 726 M 520 727 L S
520 725 M 520 726 L S
520 725 M 520 726 L S
521 724 M 521 725 L S
521 724 M 521 725 L S
521 723 M 521 724 L S
521 723 M 521 724 L S
522 722 M 522 723 L S
522 722 M 522 723 L S
522 721 M 522 722 L S
522 721 M 522 722 L S
523 719 M 523 720 L S
523 719 M 523 720 L S
523 718 M 523 719 L S
523 718 M 523 719 L S
523 717 M 523 718 L S
523 717 M 523 718 L S
524 716 M 524 717 L S
524 716 M 524 717 L S
524 715 M 524 716 L S
524 715 M 524 716 L S
525 713 M 525 714 L S
525 713 M 525 714 L S
525 712 M 525 713 L S
525 712 M 525 713 L S
525 711 M 525 712 L S
525 711 M 525 712 L S
526 709 M 526 710 L S
526 709 M 526 710 L S
526 708 M 526 709 L S
526 708 M 526 709 L S
527 707 M 527 708 L S
527 707 M 527 708 L S
527 705 M 527 706 L S
527 705 M 527 706 L S
527 704 M 527 705 L S
527 704 M 527 705 L S
528 702 M 528 703 L S
528 702 M 528 703 L S
528 700 M 528 701 L S
528 700 M 528 701 L S
529 698 M 529 699 L S
529 698 M 529 699 L S
529 696 M 529 697 L S
529 696 M 529 697 L S
530 694 M 530 695 L S
530 694 M 530 695 L S
530 692 M 530 693 L S
530 692 M 530 693 L S
530 689 M 530 690 L S
530 689 M 530 690 L S
531 687 M 531 688 L S
531 687 M 531 688 L S
531 684 M 531 685 L S
531 684 M 531 685 L S
532 681 M 532 682 L S
532 681 M 532 682 L S
532 678 M 532 679 L S
532 678 M 532 679 L S
532 674 M 532 675 L S
532 674 M 532 675 L S
533 670 M 533 671 L S
533 670 M 533 671 L S
533 666 M 533 667 L S
533 666 M 533 667 L S
534 662 M 534 663 L S
534 662 M 534 663 L S
534 657 M 534 658 L S
534 657 M 534 658 L S
535 652 M 535 653 L S
535 652 M 535 653 L S
535 646 M 535 647 L S
535 646 M 535 647 L S
535 640 M 535 641 L S
535 640 M 535 641 L S
536 634 M 536 635 L S
536 634 M 536 635 L S
536 627 M 536 628 L S
536 627 M 536 628 L S
537 619 M 537 620 L S
537 619 M 537 620 L S
537 611 M 537 612 L S
537 611 M 537 612 L S
537 603 M 537 604 L S
537 603 M 537 604 L S
538 594 M 538 595 L S
538 594 M 538 595 L S
538 584 M 538 585 L S
538 584 M 538 585 L S
539 574 M 539 575 L S
539 574 M 539 575 L S
539 563 M 539 564 L S
539 563 M 539 564 L S
539 552 M 539 553 L S
539 552 M 539 553 L S
540 539 M 540 540 L S
540 539 M 540 540 L S
540 527 M 540 528 L S
540 527 M 540 528 L S
541 513 M 541 514 L S
541 513 M 541 514 L S
541 499 M 541 500 L S
541 499 M 541 500 L S
542 484 M 542 485 L S
542 484 M 542 485 L S
542 469 M 542 470 L S
542 469 M 542 470 L S
542 453 M 542 454 L S
542 453 M 542 454 L S
543 436 M 543 437 L S
543 436 M 543 437 L S
543 419 M 543 420 L S
543 419 M 543 420 L S
544 402 M 544 403 L S
544 402 M 544 403 L S
544 384 M 544 385 L S
544 384 M 544 385 L S
544 365 M 544 366 L S
544 365 M 544 366 L S
545 347 M 545 348 L S
545 347 M 545 348 L S
545 328 M 545 329 L S
545 328 M 545 329 L S
546 310 M 546 311 L S
546 310 M 546 311 L S
546 292 M 546 293 L S
546 292 M 546 293 L S
547 274 M 547 275 L S
547 274 M 547 275 L S
547 256 M 547 257 L S
547 256 M 547 257 L S
547 240 M 547 241 L S
547 240 M 547 241 L S
548 224 M 548 225 L S
548 224 M 548 225 L S
548 210 M 548 211 L S
548 210 M 548 211 L S
549 196 M 549 197 L S
549 196 M 549 197 L S
549 185 M 549 186 L S
549 185 M 549 186 L S
549 175 M 549 176 L S
549 175 M 549 176 L S
550 167 M 550 168 L S
550 167 M 550 168 L S
550 161 M 550 162 L S
550 161 M 550 162 L S
551 157 M 551 158 L S
551 157 M 551 158 L S
551 156 M 551 157 L S
551 156 M 551 157 L S
552 157 M 552 158 L S
552 157 M 552 158 L S
552 161 M 552 162 L S
552 161 M 552 162 L S
552 167 M 552 168 L S
552 167 M 552 168 L S
553 176 M 553 177 L S
553 176 M 553 177 L S
553 187 M 553 188 L S
553 187 M 553 188 L S
554 200 M 554 201 L S
554 200 M 554 201 L S
554 215 M 554 216 L S
554 215 M 554 216 L S
554 232 M 554 233 L S
554 232 M 554 233 L S
555 250 M 555 251 L S
555 250 M 555 251 L S
555 268 M 555 269 L S
555 268 M 555 269 L S
556 287 M 556 288 L S
556 287 M 556 288 L S
556 305 M 556 306 L S
556 305 M 556 306 L S
556 323 M 556 324 L S
556 323 M 556 324 L S
557 338 M 557 339 L S
557 338 M 557 339 L S
557 352 M 557 353 L S
557 352 M 557 353 L S
558 363 M 558 364 L S
558 363 M 558 364 L S
558 372 M 558 373 L S
558 372 M 558 373 L S
559 376 M 559 377 L S
559 376 M 559 377 L S
559 377 M 559 378 L S
559 377 M 559 378 L S
559 375 M 559 376 L S
559 375 M 559 376 L S
560 368 M 560 369 L S
560 368 M 560 369 L S
560 359 M 560 360 L S
560 359 M 560 360 L S
561 346 M 561 347 L S
561 346 M 561 347 L S
561 330 M 561 331 L S
561 330 M 561 331 L S
561 313 M 561 314 L S
561 313 M 561 314 L S
562 294 M 562 295 L S
562 294 M 562 295 L S
562 276 M 562 277 L S
562 276 M 562 277 L S
563 258 M 563 259 L S
563 258 M 563 259 L S
563 242 M 563 243 L S
563 242 M 563 243 L S
564 229 M 564 230 L S
564 229 M 564 230 L S
564 219 M 564 220 L S
564 219 M 564 220 L S
564 214 M 564 215 L S
564 214 M 564 215 L S
565 213 M 565 214 L S
565 213 M 565 214 L S
565 217 M 565 218 L S
565 217 M 565 218 L S
566 226 M 566 227 L S
566 226 M 566 227 L S
566 238 M 566 239 L S
566 238 M 566 239 L S
566 254 M 566 255 L S
566 254 M 566 255 L S
567 272 M 567 273 L S
567 272 M 567 273 L S
567 291 M 567 292 L S
567 291 M 567 292 L S
568 309 M 568 310 L S
568 309 M 568 310 L S
568 325 M 568 326 L S
568 325 M 568 326 L S
568 338 M 568 339 L S
568 338 M 568 339 L S
569 346 M 569 347 L S
569 346 M 569 347 L S
569 350 M 569 351 L S
569 350 M 569 351 L S
570 348 M 570 349 L S
570 348 M 570 349 L S
570 340 M 570 341 L S
570 340 M 570 341 L S
571 328 M 571 329 L S
571 328 M 571 329 L S
571 312 M 571 313 L S
571 312 M 571 313 L S
571 294 M 571 295 L S
571 294 M 571 295 L S
572 276 M 572 277 L S
572 276 M 572 277 L S
572 258 M 572 259 L S
572 258 M 572 259 L S
573 244 M 573 245 L S
573 244 M 573 245 L S
573 234 M 573 235 L S
573 234 M 573 235 L S
573 230 M 573 231 L S
573 230 M 573 231 L S
574 232 M 574 233 L S
574 232 M 574 233 L S
574 241 M 574 242 L S
574 241 M 574 242 L S
575 254 M 575 255 L S
575 254 M 575 255 L S
575 271 M 575 272 L S
575 271 M 575 272 L S
576 289 M 576 290 L S
576 289 M 576 290 L S
576 307 M 576 308 L S
576 307 M 576 308 L S
576 323 M 576 324 L S
576 323 M 576 324 L S
577 333 M 577 334 L S
577 333 M 577 334 L S
577 338 M 577 339 L S
577 338 M 577 339 L S
578 335 M 578 336 L S
578 335 M 578 336 L S
578 327 M 578 328 L S
578 327 M 578 328 L S
578 313 M 578 314 L S
578 313 M 578 314 L S
579 295 M 579 296 L S
579 295 M 579 296 L S
579 276 M 579 277 L S
579 276 M 579 277 L S
580 259 M 580 260 L S
580 259 M 580 260 L S
580 247 M 580 248 L S
580 247 M 580 248 L S
581 240 M 581 241 L S
581 240 M 581 241 L S
581 241 M 581 242 L S
581 241 M 581 242 L S
581 248 M 581 249 L S
581 248 M 581 249 L S
582 262 M 582 263 L S
582 262 M 582 263 L S
582 280 M 582 281 L S
582 280 M 582 281 L S
583 298 M 583 299 L S
583 298 M 583 299 L S
583 315 M 583 316 L S
583 315 M 583 316 L S
583 326 M 583 327 L S
583 326 M 583 327 L S
584 331 M 584 332 L S
584 331 M 584 332 L S
584 327 M 584 328 L S
584 327 M 584 328 L S
585 317 M 585 318 L S
585 317 M 585 318 L S
585 301 M 585 302 L S
585 301 M 585 302 L S
585 282 M 585 283 L S
585 282 M 585 283 L S
586 264 M 586 265 L S
586 264 M 586 265 L S
586 251 M 586 252 L S
586 251 M 586 252 L S
587 245 M 587 246 L S
587 245 M 587 246 L S
587 247 M 587 248 L S
587 247 M 587 248 L S
588 257 M 588 258 L S
588 257 M 588 258 L S
588 273 M 588 274 L S
588 273 M 588 274 L S
588 292 M 588 293 L S
588 292 M 588 293 L S
589 309 M 589 310 L S
589 309 M 589 310 L S
589 322 M 589 323 L S
589 322 M 589 323 L S
590 326 M 590 327 L S
590 326 M 590 327 L S
590 322 M 590 323 L S
590 322 M 590 323 L S
590 310 M 590 311 L S
590 310 M 590 311 L S
591 292 M 591 293 L S
591 292 M 591 293 L S
591 274 M 591 275 L S
591 274 M 591 275 L S
592 258 M 592 259 L S
592 258 M 592 259 L S
592 250 M 592 251 L S
592 250 M 592 251 L S
593 250 M 593 251 L S
593 250 M 593 251 L S
593 260 M 593 261 L S
593 260 M 593 261 L S
593 276 M 593 277 L S
593 276 M 593 277 L S
594 295 M 594 296 L S
594 295 M 594 296 L S
594 311 M 594 312 L S
594 311 M 594 312 L S
595 321 M 595 322 L S
595 321 M 595 322 L S
595 322 M 595 323 L S
595 322 M 595 323 L S
595 313 M 595 314 L S
595 313 M 595 314 L S
596 297 M 596 298 L S
596 297 M 596 298 L S
596 279 M 596 280 L S
596 279 M 596 280 L S
597 262 M 597 263 L S
597 262 M 597 263 L S
597 253 M 597 254 L S
597 253 M 597 254 L S
597 254 M 597 255 L S
597 254 M 597 255 L S
598 264 M 598 265 L S
598 264 M 598 265 L S
598 280 M 598 281 L S
598 280 M 598 281 L S
599 299 M 599 300 L S
599 299 M 599 300 L S
599 314 M 599 315 L S
599 314 M 599 315 L S
600 320 M 600 321 L S
600 320 M 600 321 L S
600 316 M 600 317 L S
600 316 M 600 317 L S
600 302 M 600 303 L S
600 302 M 600 303 L S
601 284 M 601 285 L S
601 284 M 601 285 L S
601 267 M 601 268 L S
601 267 M 601 268 L S
602 256 M 602 257 L S
602 256 M 602 257 L S
602 255 M 602 256 L S
602 255 M 602 256 L S
602 265 M 602 266 L S
602 265 M 602 266 L S
603 282 M 603 283 L S
603 282 M 603 283 L S
603 301 M 603 302 L S
603 301 M 603 302 L S
604 314 M 604 315 L S
604 314 M 604 315 L S
604 318 M 604 319 L S
604 318 M 604 319 L S
605 310 M 605 311 L S
605 310 M 605 311 L S
605 294 M 605 295 L S
605 294 M 605 295 L S
605 275 M 605 276 L S
605 275 M 605 276 L S
606 261 M 606 262 L S
606 261 M 606 262 L S
606 256 M 606 257 L S
606 256 M 606 257 L S
607 263 M 607 264 L S
607 263 M 607 264 L S
607 279 M 607 280 L S
607 279 M 607 280 L S
607 297 M 607 298 L S
607 297 M 607 298 L S
608 312 M 608 313 L S
608 312 M 608 313 L S
608 316 M 608 317 L S
608 316 M 608 317 L S
609 308 M 609 309 L S
609 308 M 609 309 L S
609 292 M 609 293 L S
609 292 M 609 293 L S
610 274 M 610 275 L S
610 274 M 610 275 L S
610 261 M 610 262 L S
610 261 M 610 262 L S
610 259 M 610 260 L S
610 259 M 610 260 L S
611 268 M 611 269 L S
611 268 M 611 269 L S
611 286 M 611 287 L S
611 286 M 611 287 L S
612 304 M 612 305 L S
612 304 M 612 305 L S
612 314 M 612 315 L S
612 314 M 612 315 L S
612 312 M 612 313 L S
612 312 M 612 313 L S
613 299 M 613 300 L S
613 299 M 613 300 L S
613 280 M 613 281 L S
613 280 M 613 281 L S
614 265 M 614 266 L S
614 265 M 614 266 L S
614 259 M 614 260 L S
614 259 M 614 260 L S
614 267 M 614 268 L S
614 267 M 614 268 L S
615 283 M 615 284 L S
615 283 M 615 284 L S
615 301 M 615 302 L S
615 301 M 615 302 L S
616 312 M 616 313 L S
616 312 M 616 313 L S
616 311 M 616 312 L S
616 311 M 616 312 L S
617 297 M 617 298 L S
617 297 M 617 298 L S
617 279 M 617 280 L S
617 279 M 617 280 L S
617 264 M 617 265 L S
617 264 M 617 265 L S
618 261 M 618 262 L S
618 261 M 618 262 L S
618 271 M 618 272 L S
618 271 M 618 272 L S
619 289 M 619 290 L S
619 289 M 619 290 L S
619 306 M 619 307 L S
619 306 M 619 307 L S
619 312 M 619 313 L S
619 312 M 619 313 L S
620 305 M 620 306 L S
620 305 M 620 306 L S
620 288 M 620 289 L S
620 288 M 620 289 L S
621 271 M 621 272 L S
621 271 M 621 272 L S
621 262 M 621 263 L S
621 262 M 621 263 L S
622 266 M 622 267 L S
622 266 M 622 267 L S
622 282 M 622 283 L S
622 282 M 622 283 L S
622 301 M 622 302 L S
622 301 M 622 302 L S
623 311 M 623 312 L S
623 311 M 623 312 L S
623 307 M 623 308 L S
623 307 M 623 308 L S
624 292 M 624 293 L S
624 292 M 624 293 L S
624 273 M 624 274 L S
624 273 M 624 274 L S
624 263 M 624 264 L S
624 263 M 624 264 L S
625 267 M 625 268 L S
625 267 M 625 268 L S
625 282 M 625 283 L S
625 282 M 625 283 L S
626 300 M 626 301 L S
626 300 M 626 301 L S
626 310 M 626 311 L S
626 310 M 626 311 L S
626 305 M 626 306 L S
626 305 M 626 306 L S
627 289 M 627 290 L S
627 289 M 627 290 L S
627 271 M 627 272 L S
627 271 M 627 272 L S
628 263 M 628 264 L S
628 263 M 628 264 L S
628 270 M 628 271 L S
628 270 M 628 271 L S
629 287 M 629 288 L S
629 287 M 629 288 L S
629 304 M 629 305 L S
629 304 M 629 305 L S
629 309 M 629 310 L S
629 309 M 629 310 L S
630 300 M 630 301 L S
630 300 M 630 301 L S
630 281 M 630 282 L S
630 281 M 630 282 L S
631 267 M 631 268 L S
631 267 M 631 268 L S
631 265 M 631 266 L S
631 265 M 631 266 L S
631 279 M 631 280 L S
631 279 M 631 280 L S
632 297 M 632 298 L S
632 297 M 632 298 L S
632 308 M 632 309 L S
632 308 M 632 309 L S
633 304 M 633 305 L S
633 304 M 633 305 L S
633 288 M 633 289 L S
633 288 M 633 289 L S
634 271 M 634 272 L S
634 271 M 634 272 L S
634 265 M 634 266 L S
634 265 M 634 266 L S
634 275 M 634 276 L S
634 275 M 634 276 L S
635 293 M 635 294 L S
635 293 M 635 294 L S
635 307 M 635 308 L S
635 307 M 635 308 L S
636 305 M 636 306 L S
636 305 M 636 306 L S
636 290 M 636 291 L S
636 290 M 636 291 L S
636 272 M 636 273 L S
636 272 M 636 273 L S
637 265 M 637 266 L S
637 265 M 637 266 L S
637 274 M 637 275 L S
637 274 M 637 275 L S
638 293 M 638 294 L S
638 293 M 638 294 L S
638 306 M 638 307 L S
638 306 M 638 307 L S
639 304 M 639 305 L S
639 304 M 639 305 L S
639 289 M 639 290 L S
639 289 M 639 290 L S
639 271 M 639 272 L S
639 271 M 639 272 L S
640 266 M 640 267 L S
640 266 M 640 267 L S
640 278 M 640 279 L S
640 278 M 640 279 L S
641 296 M 641 297 L S
641 296 M 641 297 L S
641 307 M 641 308 L S
641 307 M 641 308 L S
641 301 M 641 302 L S
641 301 M 641 302 L S
642 283 M 642 284 L S
642 283 M 642 284 L S
642 268 M 642 269 L S
642 268 M 642 269 L S
643 269 M 643 270 L S
643 269 M 643 270 L S
643 284 M 643 285 L S
643 284 M 643 285 L S
643 302 M 643 303 L S
643 302 M 643 303 L S
644 306 M 644 307 L S
644 306 M 644 307 L S
644 294 M 644 295 L S
644 294 M 644 295 L S
645 275 M 645 276 L S
645 275 M 645 276 L S
645 267 M 645 268 L S
645 267 M 645 268 L S
646 276 M 646 277 L S
646 276 M 646 277 L S
646 294 M 646 295 L S
646 294 M 646 295 L S
646 306 M 646 307 L S
646 306 M 646 307 L S
647 300 M 647 301 L S
647 300 M 647 301 L S
647 282 M 647 283 L S
647 282 M 647 283 L S
648 268 M 648 269 L S
648 268 M 648 269 L S
648 271 M 648 272 L S
648 271 M 648 272 L S
648 288 M 648 289 L S
648 288 M 648 289 L S
649 304 M 649 305 L S
649 304 M 649 305 L S
649 303 M 649 304 L S
649 303 M 649 304 L S
650 287 M 650 288 L S
650 287 M 650 288 L S
650 270 M 650 271 L S
650 270 M 650 271 L S
651 270 M 651 271 L S
651 270 M 651 271 L S
651 285 M 651 286 L S
651 285 M 651 286 L S
651 302 M 651 303 L S
651 302 M 651 303 L S
652 304 M 652 305 L S
652 304 M 652 305 L S
652 289 M 652 290 L S
652 289 M 652 290 L S
653 272 M 653 273 L S
653 272 M 653 273 L S
653 270 M 653 271 L S
653 270 M 653 271 L S
653 285 M 653 286 L S
653 285 M 653 286 L S
654 302 M 654 303 L S
654 302 M 654 303 L S
654 303 M 654 304 L S
654 303 M 654 304 L S
655 288 M 655 289 L S
655 288 M 655 289 L S
655 271 M 655 272 L S
655 271 M 655 272 L S
655 270 M 655 271 L S
655 270 M 655 271 L S
656 286 M 656 287 L S
656 286 M 656 287 L S
656 302 M 656 303 L S
656 302 M 656 303 L S
657 302 M 657 303 L S
657 302 M 657 303 L S
657 285 M 657 286 L S
657 285 M 657 286 L S
658 270 M 658 271 L S
658 270 M 658 271 L S
658 273 M 658 274 L S
658 273 M 658 274 L S
658 290 M 658 291 L S
658 290 M 658 291 L S
659 304 M 659 305 L S
659 304 M 659 305 L S
659 298 M 659 299 L S
659 298 M 659 299 L S
660 280 M 660 281 L S
660 280 M 660 281 L S
660 269 M 660 270 L S
660 269 M 660 270 L S
660 278 M 660 279 L S
660 278 M 660 279 L S
661 296 M 661 297 L S
661 296 M 661 297 L S
661 304 M 661 305 L S
661 304 M 661 305 L S
662 292 M 662 293 L S
662 292 M 662 293 L S
662 274 M 662 275 L S
662 274 M 662 275 L S
663 270 M 663 271 L S
663 270 M 663 271 L S
663 286 M 663 287 L S
663 286 M 663 287 L S
663 302 M 663 303 L S
663 302 M 663 303 L S
664 300 M 664 301 L S
664 300 M 664 301 L S
664 283 M 664 284 L S
664 283 M 664 284 L S
665 270 M 665 271 L S
665 270 M 665 271 L S
665 277 M 665 278 L S
665 277 M 665 278 L S
665 296 M 665 297 L S
665 296 M 665 297 L S
666 303 M 666 304 L S
666 303 M 666 304 L S
666 291 M 666 292 L S
666 291 M 666 292 L S
667 273 M 667 274 L S
667 273 M 667 274 L S
667 272 M 667 273 L S
667 272 M 667 273 L S
668 289 M 668 290 L S
668 289 M 668 290 L S
668 303 M 668 304 L S
668 303 M 668 304 L S
668 297 M 668 298 L S
668 297 M 668 298 L S
669 278 M 669 279 L S
669 278 M 669 279 L S
669 270 M 669 271 L S
669 270 M 669 271 L S
670 283 M 670 284 L S
670 283 M 670 284 L S
670 300 M 670 301 L S
670 300 M 670 301 L S
670 300 M 670 301 L S
670 300 M 670 301 L S
671 282 M 671 283 L S
671 282 M 671 283 L S
671 270 M 671 271 L S
671 270 M 671 271 L S
672 279 M 672 280 L S
672 279 M 672 280 L S
672 298 M 672 299 L S
672 298 M 672 299 L S
672 301 M 672 302 L S
672 301 M 672 302 L S
673 285 M 673 286 L S
673 285 M 673 286 L S
673 271 M 673 272 L S
673 271 M 673 272 L S
674 277 M 674 278 L S
674 277 M 674 278 L S
674 296 M 674 297 L S
674 296 M 674 297 L S
675 302 M 675 303 L S
675 302 M 675 303 L S
675 287 M 675 288 L S
675 287 M 675 288 L S
675 272 M 675 273 L S
675 272 M 675 273 L S
676 277 M 676 278 L S
676 277 M 676 278 L S
676 295 M 676 296 L S
676 295 M 676 296 L S
677 302 M 677 303 L S
677 302 M 677 303 L S
677 287 M 677 288 L S
677 287 M 677 288 L S
677 272 M 677 273 L S
677 272 M 677 273 L S
678 277 M 678 278 L S
678 277 M 678 278 L S
678 296 M 678 297 L S
678 296 M 678 297 L S
679 301 M 679 302 L S
679 301 M 679 302 L S
679 286 M 679 287 L S
679 286 M 679 287 L S
680 271 M 680 272 L S
680 271 M 680 272 L S
680 279 M 680 280 L S
680 279 M 680 280 L S
680 298 M 680 299 L S
680 298 M 680 299 L S
681 300 M 681 301 L S
681 300 M 681 301 L S
681 283 M 681 284 L S
681 283 M 681 284 L S
682 271 M 682 272 L S
682 271 M 682 272 L S
682 282 M 682 283 L S
682 282 M 682 283 L S
682 300 M 682 301 L S
682 300 M 682 301 L S
683 297 M 683 298 L S
683 297 M 683 298 L S
683 279 M 683 280 L S
683 279 M 683 280 L S
684 272 M 684 273 L S
684 272 M 684 273 L S
684 287 M 684 288 L S
684 287 M 684 288 L S
684 301 M 684 302 L S
684 301 M 684 302 L S
685 293 M 685 294 L S
685 293 M 685 294 L S
685 275 M 685 276 L S
685 275 M 685 276 L S
686 275 M 686 276 L S
686 275 M 686 276 L S
686 293 M 686 294 L S
686 293 M 686 294 L S
687 301 M 687 302 L S
687 301 M 687 302 L S
687 286 M 687 287 L S
687 286 M 687 287 L S
687 272 M 687 273 L S
687 272 M 687 273 L S
688 281 M 688 282 L S
688 281 M 688 282 L S
688 299 M 688 300 L S
688 299 M 688 300 L S
689 297 M 689 298 L S
689 297 M 689 298 L S
689 279 M 689 280 L S
689 279 M 689 280 L S
689 273 M 689 274 L S
689 273 M 689 274 L S
690 289 M 690 290 L S
690 289 M 690 290 L S
690 301 M 690 302 L S
690 301 M 690 302 L S
691 290 M 691 291 L S
691 290 M 691 291 L S
691 273 M 691 274 L S
691 273 M 691 274 L S
692 279 M 692 280 L S
692 279 M 692 280 L S
692 297 M 692 298 L S
692 297 M 692 298 L S
692 298 M 692 299 L S
692 298 M 692 299 L S
693 280 M 693 281 L S
693 280 M 693 281 L S
693 273 M 693 274 L S
693 273 M 693 274 L S
694 289 M 694 290 L S
694 289 M 694 290 L S
694 301 M 694 302 L S
694 301 M 694 302 L S
694 288 M 694 289 L S
694 288 M 694 289 L S
695 273 M 695 274 L S
695 273 M 695 274 L S
695 281 M 695 282 L S
695 281 M 695 282 L S
696 299 M 696 300 L S
696 299 M 696 300 L S
696 296 M 696 297 L S
696 296 M 696 297 L S
697 277 M 697 278 L S
697 277 M 697 278 L S
697 275 M 697 276 L S
697 275 M 697 276 L S
697 293 M 697 294 L S
697 293 M 697 294 L S
698 300 M 698 301 L S
698 300 M 698 301 L S
698 283 M 698 284 L S
698 283 M 698 284 L S
699 273 M 699 274 L S
699 273 M 699 274 L S
699 287 M 699 288 L S
699 287 M 699 288 L S
699 301 M 699 302 L S
699 301 M 699 302 L S
700 289 M 700 290 L S
700 289 M 700 290 L S
700 273 M 700 274 L S
700 273 M 700 274 L S
701 282 M 701 283 L S
701 282 M 701 283 L S
701 299 M 701 300 L S
701 299 M 701 300 L S
701 293 M 701 294 L S
701 293 M 701 294 L S
702 275 M 702 276 L S
702 275 M 702 276 L S
702 278 M 702 279 L S
702 278 M 702 279 L S
703 297 M 703 298 L S
703 297 M 703 298 L S
703 297 M 703 298 L S
703 297 M 703 298 L S
704 278 M 704 279 L S
704 278 M 704 279 L S
704 275 M 704 276 L S
704 275 M 704 276 L S
704 294 M 704 295 L S
704 294 M 704 295 L S
705 299 M 705 300 L S
705 299 M 705 300 L S
705 281 M 705 282 L S
705 281 M 705 282 L S
706 274 M 706 275 L S
706 274 M 706 275 L S
706 291 M 706 292 L S
706 291 M 706 292 L S
706 299 M 706 300 L S
706 299 M 706 300 L S
707 283 M 707 284 L S
707 283 M 707 284 L S
707 274 M 707 275 L S
707 274 M 707 275 L S
708 289 M 708 290 L S
708 289 M 708 290 L S
708 300 M 708 301 L S
708 300 M 708 301 L S
709 285 M 709 286 L S
709 285 M 709 286 L S
709 273 M 709 274 L S
709 273 M 709 274 L S
709 288 M 709 289 L S
709 288 M 709 289 L S
710 300 M 710 301 L S
710 300 M 710 301 L S
710 285 M 710 286 L S
710 285 M 710 286 L S
711 273 M 711 274 L S
711 273 M 711 274 L S
711 288 M 711 289 L S
711 288 M 711 289 L S
711 300 M 711 301 L S
711 300 M 711 301 L S
712 285 M 712 286 L S
712 285 M 712 286 L S
712 274 M 712 275 L S
712 274 M 712 275 L S
713 288 M 713 289 L S
713 288 M 713 289 L S
713 300 M 713 301 L S
713 300 M 713 301 L S
713 284 M 713 285 L S
713 284 M 713 285 L S
714 274 M 714 275 L S
714 274 M 714 275 L S
714 290 M 714 291 L S
714 290 M 714 291 L S
715 299 M 715 300 L S
715 299 M 715 300 L S
715 283 M 715 284 L S
715 283 M 715 284 L S
716 274 M 716 275 L S
716 274 M 716 275 L S
716 291 M 716 292 L S
716 291 M 716 292 L S
716 298 M 716 299 L S
716 298 M 716 299 L S
717 281 M 717 282 L S
717 281 M 717 282 L S
717 276 M 717 277 L S
717 276 M 717 277 L S
718 294 M 718 295 L S
718 294 M 718 295 L S
718 297 M 718 298 L S
718 297 M 718 298 L S
718 278 M 718 279 L S
718 278 M 718 279 L S
719 278 M 719 279 L S
719 278 M 719 279 L S
719 296 M 719 297 L S
719 296 M 719 297 L S
720 294 M 720 295 L S
720 294 M 720 295 L S
720 276 M 720 277 L S
720 276 M 720 277 L S
721 281 M 721 282 L S
721 281 M 721 282 L S
721 298 M 721 299 L S
721 298 M 721 299 L S
721 290 M 721 291 L S
721 290 M 721 291 L S
722 274 M 722 275 L S
722 274 M 722 275 L S
722 286 M 722 287 L S
722 286 M 722 287 L S
723 299 M 723 300 L S
723 299 M 723 300 L S
723 285 M 723 286 L S
723 285 M 723 286 L S
723 275 M 723 276 L S
723 275 M 723 276 L S
724 291 M 724 292 L S
724 291 M 724 292 L S
724 298 M 724 299 L S
724 298 M 724 299 L S
725 279 M 725 280 L S
725 279 M 725 280 L S
725 277 M 725 278 L S
725 277 M 725 278 L S
726 296 M 726 297 L S
726 296 M 726 297 L S
726 293 M 726 294 L S
726 293 M 726 294 L S
726 275 M 726 276 L S
726 275 M 726 276 L S
727 283 M 727 284 L S
727 283 M 727 284 L S
727 299 M 727 300 L S
727 299 M 727 300 L S
728 286 M 728 287 L S
728 286 M 728 287 L S
728 274 M 728 275 L S
728 274 M 728 275 L S
728 291 M 728 292 L S
728 291 M 728 292 L S
729 297 M 729 298 L S
729 297 M 729 298 L S
729 279 M 729 280 L S
729 279 M 729 280 L S
730 278 M 730 279 L S
730 278 M 730 279 L S
730 297 M 730 298 L S
730 297 M 730 298 L S
730 291 M 730 292 L S
730 291 M 730 292 L S
731 275 M 731 276 L S
731 275 M 731 276 L S
731 286 M 731 287 L S
731 286 M 731 287 L S
732 299 M 732 300 L S
732 299 M 732 300 L S
732 283 M 732 284 L S
732 283 M 732 284 L S
733 276 M 733 277 L S
733 276 M 733 277 L S
733 295 M 733 296 L S
733 295 M 733 296 L S
733 294 M 733 295 L S
733 294 M 733 295 L S
734 276 M 734 277 L S
734 276 M 734 277 L S
734 284 M 734 285 L S
734 284 M 734 285 L S
735 299 M 735 300 L S
735 299 M 735 300 L S
735 284 M 735 285 L S
735 284 M 735 285 L S
735 276 M 735 277 L S
735 276 M 735 277 L S
736 294 M 736 295 L S
736 294 M 736 295 L S
736 294 M 736 295 L S
736 294 M 736 295 L S
737 276 M 737 277 L S
737 276 M 737 277 L S
737 284 M 737 285 L S
737 284 M 737 285 L S
738 298 M 738 299 L S
738 298 M 738 299 L S
738 284 M 738 285 L S
738 284 M 738 285 L S
738 276 M 738 277 L S
738 276 M 738 277 L S
739 295 M 739 296 L S
739 295 M 739 296 L S
739 293 M 739 294 L S
739 293 M 739 294 L S
740 275 M 740 276 L S
740 275 M 740 276 L S
740 286 M 740 287 L S
740 286 M 740 287 L S
740 298 M 740 299 L S
740 298 M 740 299 L S
741 281 M 741 282 L S
741 281 M 741 282 L S
741 278 M 741 279 L S
741 278 M 741 279 L S
742 297 M 742 298 L S
742 297 M 742 298 L S
742 289 M 742 290 L S
742 289 M 742 290 L S
742 275 M 742 276 L S
742 275 M 742 276 L S
743 290 M 743 291 L S
743 290 M 743 291 L S
743 296 M 743 297 L S
743 296 M 743 297 L S
744 277 M 744 278 L S
744 277 M 744 278 L S
744 283 M 744 284 L S
744 283 M 744 284 L S
745 298 M 745 299 L S
745 298 M 745 299 L S
745 284 M 745 285 L S
745 284 M 745 285 L S
745 277 M 745 278 L S
745 277 M 745 278 L S
746 295 M 746 296 L S
746 295 M 746 296 L S
746 291 M 746 292 L S
746 291 M 746 292 L S
747 275 M 747 276 L S
747 275 M 747 276 L S
747 290 M 747 291 L S
747 290 M 747 291 L S
747 296 M 747 297 L S
747 296 M 747 297 L S
748 277 M 748 278 L S
748 277 M 748 278 L S
748 283 M 748 284 L S
748 283 M 748 284 L S
749 298 M 749 299 L S
749 298 M 749 299 L S
749 282 M 749 283 L S
749 282 M 749 283 L S
750 278 M 750 279 L S
750 278 M 750 279 L S
750 297 M 750 298 L S
750 297 M 750 298 L S
750 288 M 750 289 L S
750 288 M 750 289 L S
751 276 M 751 277 L S
751 276 M 751 277 L S
751 293 M 751 294 L S
751 293 M 751 294 L S
752 293 M 752 294 L S
752 293 M 752 294 L S
752 276 M 752 277 L S
752 276 M 752 277 L S
752 288 M 752 289 L S
752 288 M 752 289 L S
753 296 M 753 297 L S
753 296 M 753 297 L S
753 278 M 753 279 L S
753 278 M 753 279 L S
754 283 M 754 284 L S
754 283 M 754 284 L S
754 298 M 754 299 L S
754 298 M 754 299 L S
755 281 M 755 282 L S
755 281 M 755 282 L S
755 279 M 755 280 L S
755 279 M 755 280 L S
755 297 M 755 298 L S
755 297 M 755 298 L S
756 285 M 756 286 L S
756 285 M 756 286 L S
756 277 M 756 278 L S
756 277 M 756 278 L S
757 296 M 757 297 L S
757 296 M 757 297 L S
757 289 M 757 290 L S
757 289 M 757 290 L S
757 276 M 757 277 L S
757 276 M 757 277 L S
758 293 M 758 294 L S
758 293 M 758 294 L S
758 292 M 758 293 L S
758 292 M 758 293 L S
759 276 M 759 277 L S
759 276 M 759 277 L S
759 290 M 759 291 L S
759 290 M 759 291 L S
759 294 M 759 295 L S
759 294 M 759 295 L S
760 276 M 760 277 L S
760 276 M 760 277 L S
760 288 M 760 289 L S
760 288 M 760 289 L S
761 296 M 761 297 L S
761 296 M 761 297 L S
761 277 M 761 278 L S
761 277 M 761 278 L S
762 285 M 762 286 L S
762 285 M 762 286 L S
762 297 M 762 298 L S
762 297 M 762 298 L S
762 279 M 762 280 L S
762 279 M 762 280 L S
763 283 M 763 284 L S
763 283 M 763 284 L S
763 297 M 763 298 L S
763 297 M 763 298 L S
764 280 M 764 281 L S
764 280 M 764 281 L S
764 282 M 764 283 L S
764 282 M 764 283 L S
764 297 M 764 298 L S
764 297 M 764 298 L S
765 281 M 765 282 L S
765 281 M 765 282 L S
765 281 M 765 282 L S
765 281 M 765 282 L S
766 297 M 766 298 L S
766 297 M 766 298 L S
766 282 M 766 283 L S
766 282 M 766 283 L S
767 280 M 767 281 L S
767 280 M 767 281 L S
767 297 M 767 298 L S
767 297 M 767 298 L S
767 283 M 767 284 L S
767 283 M 767 284 L S
768 280 M 768 281 L S
768 280 M 768 281 L S
768 297 M 768 298 L S
768 297 M 768 298 L S
769 283 M 769 284 L S
769 283 M 769 284 L S
769 280 M 769 281 L S
769 280 M 769 281 L S
769 297 M 769 298 L S
769 297 M 769 298 L S
770 283 M 770 284 L S
770 283 M 770 284 L S
770 280 M 770 281 L S
770 280 M 770 281 L S
771 297 M 771 298 L S
771 297 M 771 298 L S
771 282 M 771 283 L S
771 282 M 771 283 L S
771 280 M 771 281 L S
771 280 M 771 281 L S
772 297 M 772 298 L S
772 297 M 772 298 L S
772 282 M 772 283 L S
772 282 M 772 283 L S
773 281 M 773 282 L S
773 281 M 773 282 L S
773 297 M 773 298 L S
773 297 M 773 298 L S
774 281 M 774 282 L S
774 281 M 774 282 L S
774 283 M 774 284 L S
774 283 M 774 284 L S
774 297 M 774 298 L S
774 297 M 774 298 L S
775 279 M 775 280 L S
775 279 M 775 280 L S
775 284 M 775 285 L S
775 284 M 775 285 L S
776 297 M 776 298 L S
776 297 M 776 298 L S
776 278 M 776 279 L S
776 278 M 776 279 L S
776 286 M 776 287 L S
776 286 M 776 287 L S
777 296 M 777 297 L S
777 296 M 777 297 L S
777 277 M 777 278 L S
777 277 M 777 278 L S
778 289 M 778 290 L S
778 289 M 778 290 L S
778 294 M 778 295 L S
778 294 M 778 295 L S
779 276 M 779 277 L S
779 276 M 779 277 L S
779 291 M 779 292 L S
779 291 M 779 292 L S
779 292 M 779 293 L S
779 292 M 779 293 L S
780 276 M 780 277 L S
780 276 M 780 277 L S
780 294 M 780 295 L S
780 294 M 780 295 L S
781 289 M 781 290 L S
781 289 M 781 290 L S
781 277 M 781 278 L S
781 277 M 781 278 L S
781 296 M 781 297 L S
781 296 M 781 297 L S
782 285 M 782 286 L S
782 285 M 782 286 L S
782 279 M 782 280 L S
782 279 M 782 280 L S
783 297 M 783 298 L S
783 297 M 783 298 L S
783 282 M 783 283 L S
783 282 M 783 283 L S
784 282 M 784 283 L S
784 282 M 784 283 L S
784 297 M 784 298 L S
784 297 M 784 298 L S
784 278 M 784 279 L S
784 278 M 784 279 L S
785 287 M 785 288 L S
785 287 M 785 288 L S
785 295 M 785 296 L S
785 295 M 785 296 L S
786 277 M 786 278 L S
786 277 M 786 278 L S
786 291 M 786 292 L S
786 291 M 786 292 L S
786 291 M 786 292 L S
786 291 M 786 292 L S
787 277 M 787 278 L S
787 277 M 787 278 L S
787 295 M 787 296 L S
787 295 M 787 296 L S
788 286 M 788 287 L S
788 286 M 788 287 L S
788 279 M 788 280 L S
788 279 M 788 280 L S
788 297 M 788 298 L S
788 297 M 788 298 L S
789 281 M 789 282 L S
789 281 M 789 282 L S
789 284 M 789 285 L S
789 284 M 789 285 L S
790 296 M 790 297 L S
790 296 M 790 297 L S
790 277 M 790 278 L S
790 277 M 790 278 L S
791 290 M 791 291 L S
791 290 M 791 291 L S
791 292 M 791 293 L S
791 292 M 791 293 L S
791 277 M 791 278 L S
791 277 M 791 278 L S
792 295 M 792 296 L S
792 295 M 792 296 L S
792 286 M 792 287 L S
792 286 M 792 287 L S
793 280 M 793 281 L S
793 280 M 793 281 L S
793 297 M 793 298 L S
793 297 M 793 298 L S
793 280 M 793 281 L S
793 280 M 793 281 L S
794 286 M 794 287 L S
794 286 M 794 287 L S
794 295 M 794 296 L S
794 295 M 794 296 L S
795 277 M 795 278 L S
795 277 M 795 278 L S
795 292 M 795 293 L S
795 292 M 795 293 L S
796 289 M 796 290 L S
796 289 M 796 290 L S
796 278 M 796 279 L S
796 278 M 796 279 L S
796 296 M 796 297 L S
796 296 M 796 297 L S
797 282 M 797 283 L S
797 282 M 797 283 L S
797 284 M 797 285 L S
797 284 M 797 285 L S
798 295 M 798 296 L S
798 295 M 798 296 L S
798 277 M 798 278 L S
798 277 M 798 278 L S
798 292 M 798 293 L S
798 292 M 798 293 L S
799 289 M 799 290 L S
799 289 M 799 290 L S
799 278 M 799 279 L S
799 278 M 799 279 L S
800 296 M 800 297 L S
800 296 M 800 297 L S
800 281 M 800 282 L S
800 281 M 800 282 L S
800 285 M 800 286 L S
800 285 M 800 286 L S
801 295 M 801 296 L S
801 295 M 801 296 L S
801 277 M 801 278 L S
801 277 M 801 278 L S
802 293 M 802 294 L S
802 293 M 802 294 L S
802 287 M 802 288 L S
802 287 M 802 288 L S
803 279 M 803 280 L S
803 279 M 803 280 L S
803 297 M 803 298 L S
803 297 M 803 298 L S
803 279 M 803 280 L S
803 279 M 803 280 L S
804 288 M 804 289 L S
804 288 M 804 289 L S
804 292 M 804 293 L S
804 292 M 804 293 L S
805 277 M 805 278 L S
805 277 M 805 278 L S
805 295 M 805 296 L S
805 295 M 805 296 L S
805 283 M 805 284 L S
805 283 M 805 284 L S
806 283 M 806 284 L S
806 283 M 806 284 L S
806 295 M 806 296 L S
806 295 M 806 296 L S
807 277 M 807 278 L S
807 277 M 807 278 L S
807 293 M 807 294 L S
807 293 M 807 294 L S
808 287 M 808 288 L S
808 287 M 808 288 L S
808 280 M 808 281 L S
808 280 M 808 281 L S
808 296 M 808 297 L S
808 296 M 808 297 L S
809 278 M 809 279 L S
809 278 M 809 279 L S
809 290 M 809 291 L S
809 290 M 809 291 L S
810 290 M 810 291 L S
810 290 M 810 291 L S
810 278 M 810 279 L S
810 278 M 810 279 L S
810 296 M 810 297 L S
810 296 M 810 297 L S
811 279 M 811 280 L S
811 279 M 811 280 L S
811 288 M 811 289 L S
811 288 M 811 289 L S
812 291 M 812 292 L S
812 291 M 812 292 L S
812 278 M 812 279 L S
812 278 M 812 279 L S
813 296 M 813 297 L S
813 296 M 813 297 L S
813 280 M 813 281 L S
813 280 M 813 281 L S
813 287 M 813 288 L S
813 287 M 813 288 L S
814 292 M 814 293 L S
814 292 M 814 293 L S
814 277 M 814 278 L S
814 277 M 814 278 L S
815 296 M 815 297 L S
815 296 M 815 297 L S
815 281 M 815 282 L S
815 281 M 815 282 L S
815 287 M 815 288 L S
815 287 M 815 288 L S
816 292 M 816 293 L S
816 292 M 816 293 L S
816 277 M 816 278 L S
816 277 M 816 278 L S
817 296 M 817 297 L S
817 296 M 817 297 L S
817 281 M 817 282 L S
817 281 M 817 282 L S
817 287 M 817 288 L S
817 287 M 817 288 L S
818 292 M 818 293 L S
818 292 M 818 293 L S
818 278 M 818 279 L S
818 278 M 818 279 L S
819 296 M 819 297 L S
819 296 M 819 297 L S
819 280 M 819 281 L S
819 280 M 819 281 L S
820 289 M 820 290 L S
820 289 M 820 290 L S
820 290 M 820 291 L S
820 290 M 820 291 L S
820 279 M 820 280 L S
820 279 M 820 280 L S
821 296 M 821 297 L S
821 296 M 821 297 L S
821 278 M 821 279 L S
821 278 M 821 279 L S
822 291 M 822 292 L S
822 291 M 822 292 L S
822 288 M 822 289 L S
822 288 M 822 289 L S
822 280 M 822 281 L S
822 280 M 822 281 L S
823 296 M 823 297 L S
823 296 M 823 297 L S
823 277 M 823 278 L S
823 277 M 823 278 L S
824 293 M 824 294 L S
824 293 M 824 294 L S
824 284 M 824 285 L S
824 284 M 824 285 L S
825 284 M 825 285 L S
825 284 M 825 285 L S
825 294 M 825 295 L S
825 294 M 825 295 L S
825 277 M 825 278 L S
825 277 M 825 278 L S
826 296 M 826 297 L S
826 296 M 826 297 L S
826 280 M 826 281 L S
826 280 M 826 281 L S
827 288 M 827 289 L S
827 288 M 827 289 L S
827 290 M 827 291 L S
827 290 M 827 291 L S
827 279 M 827 280 L S
827 279 M 827 280 L S
828 296 M 828 297 L S
828 296 M 828 297 L S
828 277 M 828 278 L S
828 277 M 828 278 L S
829 293 M 829 294 L S
829 293 M 829 294 L S
829 284 M 829 285 L S
829 284 M 829 285 L S
829 284 M 829 285 L S
829 284 M 829 285 L S
830 293 M 830 294 L S
830 293 M 830 294 L S
830 277 M 830 278 L S
830 277 M 830 278 L S
831 296 M 831 297 L S
831 296 M 831 297 L S
831 279 M 831 280 L S
831 279 M 831 280 L S
832 291 M 832 292 L S
832 291 M 832 292 L S
832 287 M 832 288 L S
832 287 M 832 288 L S
832 282 M 832 283 L S
832 282 M 832 283 L S
833 295 M 833 296 L S
833 295 M 833 296 L S
833 277 M 833 278 L S
833 277 M 833 278 L S
834 296 M 834 297 L S
834 296 M 834 297 L S
834 280 M 834 281 L S
834 280 M 834 281 L S
834 289 M 834 290 L S
834 289 M 834 290 L S
835 288 M 835 289 L S
835 288 M 835 289 L S
835 281 M 835 282 L S
835 281 M 835 282 L S
836 295 M 836 296 L S
836 295 M 836 296 L S
836 277 M 836 278 L S
836 277 M 836 278 L S
837 296 M 837 297 L S
837 296 M 837 297 L S
837 280 M 837 281 L S
837 280 M 837 281 L S
837 290 M 837 291 L S
837 290 M 837 291 L S
838 287 M 838 288 L S
838 287 M 838 288 L S
838 282 M 838 283 L S
838 282 M 838 283 L S
839 294 M 839 295 L S
839 294 M 839 295 L S
839 277 M 839 278 L S
839 277 M 839 278 L S
839 296 M 839 297 L S
839 296 M 839 297 L S
840 279 M 840 280 L S
840 279 M 840 280 L S
840 292 M 840 293 L S
840 292 M 840 293 L S
841 285 M 841 286 L S
841 285 M 841 286 L S
841 285 M 841 286 L S
841 285 M 841 286 L S
842 292 M 842 293 L S
842 292 M 842 293 L S
842 279 M 842 280 L S
842 279 M 842 280 L S
842 296 M 842 297 L S
842 296 M 842 297 L S
843 277 M 843 278 L S
843 277 M 843 278 L S
843 295 M 843 296 L S
843 295 M 843 296 L S
844 281 M 844 282 L S
844 281 M 844 282 L S
844 289 M 844 290 L S
844 289 M 844 290 L S
844 287 M 844 288 L S
844 287 M 844 288 L S
845 282 M 845 283 L S
845 282 M 845 283 L S
845 293 M 845 294 L S
845 293 M 845 294 L S
846 278 M 846 279 L S
846 278 M 846 279 L S
846 296 M 846 297 L S
846 296 M 846 297 L S
846 278 M 846 279 L S
846 278 M 846 279 L S
847 294 M 847 295 L S
847 294 M 847 295 L S
847 281 M 847 282 L S
847 281 M 847 282 L S
848 289 M 848 290 L S
848 289 M 848 290 L S
848 287 M 848 288 L S
848 287 M 848 288 L S
849 283 M 849 284 L S
849 283 M 849 284 L S
849 293 M 849 294 L S
849 293 M 849 294 L S
849 278 M 849 279 L S
849 278 M 849 279 L S
850 296 M 850 297 L S
850 296 M 850 297 L S
850 277 M 850 278 L S
850 277 M 850 278 L S
851 295 M 851 296 L S
851 295 M 851 296 L S
851 279 M 851 280 L S
851 279 M 851 280 L S
851 292 M 851 293 L S
851 292 M 851 293 L S
852 284 M 852 285 L S
852 284 M 852 285 L S
852 286 M 852 287 L S
852 286 M 852 287 L S
853 290 M 853 291 L S
853 290 M 853 291 L S
853 281 M 853 282 L S
853 281 M 853 282 L S
854 294 M 854 295 L S
854 294 M 854 295 L S
854 278 M 854 279 L S
854 278 M 854 279 L S
854 296 M 854 297 L S
854 296 M 854 297 L S
855 277 M 855 278 L S
855 277 M 855 278 L S
855 295 M 855 296 L S
855 295 M 855 296 L S
856 279 M 856 280 L S
856 279 M 856 280 L S
856 292 M 856 293 L S
856 292 M 856 293 L S
856 283 M 856 284 L S
856 283 M 856 284 L S
857 288 M 857 289 L S
857 288 M 857 289 L S
857 288 M 857 289 L S
857 288 M 857 289 L S
858 283 M 858 284 L S
858 283 M 858 284 L S
858 292 M 858 293 L S
858 292 M 858 293 L S
858 279 M 858 280 L S
858 279 M 858 280 L S
859 295 M 859 296 L S
859 295 M 859 296 L S
859 277 M 859 278 L S
859 277 M 859 278 L S
860 296 M 860 297 L S
860 296 M 860 297 L S
860 277 M 860 278 L S
860 277 M 860 278 L S
861 295 M 861 296 L S
861 295 M 861 296 L S
861 279 M 861 280 L S
861 279 M 861 280 L S
861 293 M 861 294 L S
861 293 M 861 294 L S
862 282 M 862 283 L S
862 282 M 862 283 L S
862 289 M 862 290 L S
862 289 M 862 290 L S
863 286 M 863 287 L S
863 286 M 863 287 L S
863 286 M 863 287 L S
863 286 M 863 287 L S
863 289 M 863 290 L S
863 289 M 863 290 L S
864 282 M 864 283 L S
864 282 M 864 283 L S
864 292 M 864 293 L S
864 292 M 864 293 L S
865 280 M 865 281 L S
865 280 M 865 281 L S
865 295 M 865 296 L S
865 295 M 865 296 L S
866 278 M 866 279 L S
866 278 M 866 279 L S
866 296 M 866 297 L S
866 296 M 866 297 L S
866 277 M 866 278 L S
866 277 M 866 278 L S
867 296 M 867 297 L S
867 296 M 867 297 L S
867 278 M 867 279 L S
867 278 M 867 279 L S
868 295 M 868 296 L S
868 295 M 868 296 L S
868 279 M 868 280 L S
868 279 M 868 280 L S
868 293 M 868 294 L S
868 293 M 868 294 L S
869 281 M 869 282 L S
869 281 M 869 282 L S
869 291 M 869 292 L S
869 291 M 869 292 L S
870 283 M 870 284 L S
870 283 M 870 284 L S
870 289 M 870 290 L S
870 289 M 870 290 L S
871 285 M 871 286 L S
871 285 M 871 286 L S
871 287 M 871 288 L S
871 287 M 871 288 L S
871 288 M 871 289 L S
871 288 M 871 289 L S
872 284 M 872 285 L S
872 284 M 872 285 L S
872 290 M 872 291 L S
872 290 M 872 291 L S
873 282 M 873 283 L S
873 282 M 873 283 L S
873 292 M 873 293 L S
873 292 M 873 293 L S
873 281 M 873 282 L S
873 281 M 873 282 L S
874 293 M 874 294 L S
874 293 M 874 294 L S
874 279 M 874 280 L S
874 279 M 874 280 L S
875 294 M 875 295 L S
875 294 M 875 295 L S
875 279 M 875 280 L S
875 279 M 875 280 L S
875 295 M 875 296 L S
875 295 M 875 296 L S
876 278 M 876 279 L S
876 278 M 876 279 L S
876 296 M 876 297 L S
876 296 M 876 297 L S
877 277 M 877 278 L S
877 277 M 877 278 L S
877 296 M 877 297 L S
877 296 M 877 297 L S
878 277 M 878 278 L S
878 277 M 878 278 L S
878 296 M 878 297 L S
878 296 M 878 297 L S
878 277 M 878 278 L S
878 277 M 878 278 L S
879 296 M 879 297 L S
879 296 M 879 297 L S
879 277 M 879 278 L S
879 277 M 879 278 L S
880 296 M 880 297 L S
880 296 M 880 297 L S
880 278 M 880 279 L S
880 278 M 880 279 L S
880 296 M 880 297 L S
880 296 M 880 297 L S
881 278 M 881 279 L S
881 278 M 881 279 L S
881 295 M 881 296 L S
881 295 M 881 296 L S
882 278 M 882 279 L S
882 278 M 882 279 L S
882 295 M 882 296 L S
882 295 M 882 296 L S
883 278 M 883 279 L S
883 278 M 883 279 L S
883 295 M 883 296 L S
883 295 M 883 296 L S
883 278 M 883 279 L S
883 278 M 883 279 L S
884 295 M 884 296 L S
884 295 M 884 296 L S
884 278 M 884 279 L S
884 278 M 884 279 L S
885 295 M 885 296 L S
885 295 M 885 296 L S
885 278 M 885 279 L S
885 278 M 885 279 L S
885 295 M 885 296 L S
885 295 M 885 296 L S
886 278 M 886 279 L S
886 278 M 886 279 L S
886 295 M 886 296 L S
886 295 M 886 296 L S
887 278 M 887 279 L S
887 278 M 887 279 L S
887 295 M 887 296 L S
887 295 M 887 296 L S
887 278 M 887 279 L S
887 278 M 887 279 L S
888 295 M 888 296 L S
888 295 M 888 296 L S
888 278 M 888 279 L S
888 278 M 888 279 L S
889 296 M 889 297 L S
889 296 M 889 297 L S
889 278 M 889 279 L S
889 278 M 889 279 L S
890 296 M 890 297 L S
890 296 M 890 297 L S
890 277 M 890 278 L S
890 277 M 890 278 L S
890 296 M 890 297 L S
890 296 M 890 297 L S
891 277 M 891 278 L S
891 277 M 891 278 L S
891 296 M 891 297 L S
891 296 M 891 297 L S
892 277 M 892 278 L S
892 277 M 892 278 L S
892 296 M 892 297 L S
892 296 M 892 297 L S
892 277 M 892 278 L S
892 277 M 892 278 L S
893 296 M 893 297 L S
893 296 M 893 297 L S
893 278 M 893 279 L S
893 278 M 893 279 L S
894 295 M 894 296 L S
894 295 M 894 296 L S
894 278 M 894 279 L S
894 278 M 894 279 L S
895 294 M 895 295 L S
895 294 M 895 295 L S
895 279 M 895 280 L S
895 279 M 895 280 L S
895 293 M 895 294 L S
895 293 M 895 294 L S
896 281 M 896 282 L S
896 281 M 896 282 L S
896 292 M 896 293 L S
896 292 M 896 293 L S
897 282 M 897 283 L S
897 282 M 897 283 L S
897 290 M 897 291 L S
897 290 M 897 291 L S
897 284 M 897 285 L S
897 284 M 897 285 L S
898 288 M 898 289 L S
898 288 M 898 289 L S
898 286 M 898 287 L S
898 286 M 898 287 L S
899 286 M 899 287 L S
899 286 M 899 287 L S
899 289 M 899 290 L S
899 289 M 899 290 L S
900 283 M 900 284 L S
900 283 M 900 284 L S
900 291 M 900 292 L S
900 291 M 900 292 L S
900 281 M 900 282 L S
900 281 M 900 282 L S
901 293 M 901 294 L S
901 293 M 901 294 L S
901 279 M 901 280 L S
901 279 M 901 280 L S
902 295 M 902 296 L S
902 295 M 902 296 L S
902 278 M 902 279 L S
902 278 M 902 279 L S
902 296 M 902 297 L S
902 296 M 902 297 L S
903 277 M 903 278 L S
903 277 M 903 278 L S
903 296 M 903 297 L S
903 296 M 903 297 L S
904 278 M 904 279 L S
904 278 M 904 279 L S
904 295 M 904 296 L S
904 295 M 904 296 L S
904 279 M 904 280 L S
904 279 M 904 280 L S
905 293 M 905 294 L S
905 293 M 905 294 L S
905 282 M 905 283 L S
905 282 M 905 283 L S
906 290 M 906 291 L S
906 290 M 906 291 L S
906 285 M 906 286 L S
906 285 M 906 286 L S
907 286 M 907 287 L S
907 286 M 907 287 L S
907 289 M 907 290 L S
907 289 M 907 290 L S
907 283 M 907 284 L S
907 283 M 907 284 L S
908 292 M 908 293 L S
908 292 M 908 293 L S
908 280 M 908 281 L S
908 280 M 908 281 L S
909 295 M 909 296 L S
909 295 M 909 296 L S
909 278 M 909 279 L S
909 278 M 909 279 L S
909 296 M 909 297 L S
909 296 M 909 297 L S
910 277 M 910 278 L S
910 277 M 910 278 L S
910 295 M 910 296 L S
910 295 M 910 296 L S
911 279 M 911 280 L S
911 279 M 911 280 L S
911 293 M 911 294 L S
911 293 M 911 294 L S
912 282 M 912 283 L S
912 282 M 912 283 L S
912 289 M 912 290 L S
912 289 M 912 290 L S
912 287 M 912 288 L S
912 287 M 912 288 L S
913 284 M 913 285 L S
913 284 M 913 285 L S
913 291 M 913 292 L S
913 291 M 913 292 L S
914 280 M 914 281 L S
914 280 M 914 281 L S
914 295 M 914 296 L S
914 295 M 914 296 L S
914 277 M 914 278 L S
914 277 M 914 278 L S
915 296 M 915 297 L S
915 296 M 915 297 L S
915 278 M 915 279 L S
915 278 M 915 279 L S
916 294 M 916 295 L S
916 294 M 916 295 L S
916 280 M 916 281 L S
916 280 M 916 281 L S
916 290 M 916 291 L S
916 290 M 916 291 L S
917 285 M 917 286 L S
917 285 M 917 286 L S
917 285 M 917 286 L S
917 285 M 917 286 L S
918 291 M 918 292 L S
918 291 M 918 292 L S
918 280 M 918 281 L S
918 280 M 918 281 L S
919 295 M 919 296 L S
919 295 M 919 296 L S
919 277 M 919 278 L S
919 277 M 919 278 L S
919 296 M 919 297 L S
919 296 M 919 297 L S
920 278 M 920 279 L S
920 278 M 920 279 L S
920 294 M 920 295 L S
920 294 M 920 295 L S
921 282 M 921 283 L S
921 282 M 921 283 L S
921 288 M 921 289 L S
921 288 M 921 289 L S
921 288 M 921 289 L S
921 288 M 921 289 L S
922 282 M 922 283 L S
922 282 M 922 283 L S
922 294 M 922 295 L S
922 294 M 922 295 L S
923 278 M 923 279 L S
923 278 M 923 279 L S
923 296 M 923 297 L S
923 296 M 923 297 L S
924 278 M 924 279 L S
924 278 M 924 279 L S
924 294 M 924 295 L S
924 294 M 924 295 L S
924 281 M 924 282 L S
924 281 M 924 282 L S
925 289 M 925 290 L S
925 289 M 925 290 L S
925 288 M 925 289 L S
925 288 M 925 289 L S
926 282 M 926 283 L S
926 282 M 926 283 L S
926 294 M 926 295 L S
926 294 M 926 295 L S
926 278 M 926 279 L S
926 278 M 926 279 L S
927 296 M 927 297 L S
927 296 M 927 297 L S
927 278 M 927 279 L S
927 278 M 927 279 L S
928 293 M 928 294 L S
928 293 M 928 294 L S
928 284 M 928 285 L S
928 284 M 928 285 L S
929 286 M 929 287 L S
929 286 M 929 287 L S
929 291 M 929 292 L S
929 291 M 929 292 L S
929 279 M 929 280 L S
929 279 M 929 280 L S
930 296 M 930 297 L S
930 296 M 930 297 L S
930 277 M 930 278 L S
930 277 M 930 278 L S
931 295 M 931 296 L S
931 295 M 931 296 L S
931 281 M 931 282 L S
931 281 M 931 282 L S
931 289 M 931 290 L S
931 289 M 931 290 L S
932 289 M 932 290 L S
932 289 M 932 290 L S
932 281 M 932 282 L S
932 281 M 932 282 L S
933 295 M 933 296 L S
933 295 M 933 296 L S
933 277 M 933 278 L S
933 277 M 933 278 L S
933 295 M 933 296 L S
933 295 M 933 296 L S
934 280 M 934 281 L S
934 280 M 934 281 L S
934 289 M 934 290 L S
934 289 M 934 290 L S
935 288 M 935 289 L S
935 288 M 935 289 L S
935 281 M 935 282 L S
935 281 M 935 282 L S
936 295 M 936 296 L S
936 295 M 936 296 L S
936 277 M 936 278 L S
936 277 M 936 278 L S
936 295 M 936 296 L S
936 295 M 936 296 L S
937 281 M 937 282 L S
937 281 M 937 282 L S
937 289 M 937 290 L S
937 289 M 937 290 L S
938 289 M 938 290 L S
938 289 M 938 290 L S
938 280 M 938 281 L S
938 280 M 938 281 L S
938 296 M 938 297 L S
938 296 M 938 297 L S
939 277 M 939 278 L S
939 277 M 939 278 L S
939 294 M 939 295 L S
939 294 M 939 295 L S
940 283 M 940 284 L S
940 283 M 940 284 L S
940 286 M 940 287 L S
940 286 M 940 287 L S
941 292 M 941 293 L S
941 292 M 941 293 L S
941 278 M 941 279 L S
941 278 M 941 279 L S
941 296 M 941 297 L S
941 296 M 941 297 L S
942 278 M 942 279 L S
942 278 M 942 279 L S
942 291 M 942 292 L S
942 291 M 942 292 L S
943 287 M 943 288 L S
943 287 M 943 288 L S
943 282 M 943 283 L S
943 282 M 943 283 L S
943 295 M 943 296 L S
943 295 M 943 296 L S
944 277 M 944 278 L S
944 277 M 944 278 L S
944 295 M 944 296 L S
944 295 M 944 296 L S
945 282 M 945 283 L S
945 282 M 945 283 L S
945 286 M 945 287 L S
945 286 M 945 287 L S
945 292 M 945 293 L S
945 292 M 945 293 L S
946 278 M 946 279 L S
946 278 M 946 279 L S
946 296 M 946 297 L S
946 296 M 946 297 L S
947 279 M 947 280 L S
947 279 M 947 280 L S
947 290 M 947 291 L S
947 290 M 947 291 L S
948 289 M 948 290 L S
948 289 M 948 290 L S
948 279 M 948 280 L S
948 279 M 948 280 L S
948 296 M 948 297 L S
948 296 M 948 297 L S
949 278 M 949 279 L S
949 278 M 949 279 L S
949 292 M 949 293 L S
949 292 M 949 293 L S
950 287 M 950 288 L S
950 287 M 950 288 L S
950 281 M 950 282 L S
950 281 M 950 282 L S
950 296 M 950 297 L S
950 296 M 950 297 L S
951 277 M 951 278 L S
951 277 M 951 278 L S
951 293 M 951 294 L S
951 293 M 951 294 L S
952 285 M 952 286 L S
952 285 M 952 286 L S
952 282 M 952 283 L S
952 282 M 952 283 L S
953 295 M 953 296 L S
953 295 M 953 296 L S
953 277 M 953 278 L S
953 277 M 953 278 L S
953 294 M 953 295 L S
953 294 M 953 295 L S
954 284 M 954 285 L S
954 284 M 954 285 L S
954 283 M 954 284 L S
954 283 M 954 284 L S
955 295 M 955 296 L S
955 295 M 955 296 L S
955 277 M 955 278 L S
955 277 M 955 278 L S
955 294 M 955 295 L S
955 294 M 955 295 L S
956 285 M 956 286 L S
956 285 M 956 286 L S
956 282 M 956 283 L S
956 282 M 956 283 L S
957 295 M 957 296 L S
957 295 M 957 296 L S
957 277 M 957 278 L S
957 277 M 957 278 L S
958 293 M 958 294 L S
958 293 M 958 294 L S
958 286 M 958 287 L S
958 286 M 958 287 L S
958 281 M 958 282 L S
958 281 M 958 282 L S
959 296 M 959 297 L S
959 296 M 959 297 L S
959 277 M 959 278 L S
959 277 M 959 278 L S
960 292 M 960 293 L S
960 292 M 960 293 L S
960 288 M 960 289 L S
960 288 M 960 289 L S
960 279 M 960 280 L S
960 279 M 960 280 L S
961 296 M 961 297 L S
961 296 M 961 297 L S
961 279 M 961 280 L S
961 279 M 961 280 L S
962 289 M 962 290 L S
962 289 M 962 290 L S
962 291 M 962 292 L S
962 291 M 962 292 L S
962 277 M 962 278 L S
962 277 M 962 278 L S
963 296 M 963 297 L S
963 296 M 963 297 L S
963 281 M 963 282 L S
963 281 M 963 282 L S
964 285 M 964 286 L S
964 285 M 964 286 L S
964 294 M 964 295 L S
964 294 M 964 295 L S
965 277 M 965 278 L S
965 277 M 965 278 L S
965 294 M 965 295 L S
965 294 M 965 295 L S
965 285 M 965 286 L S
965 285 M 965 286 L S
966 281 M 966 282 L S
966 281 M 966 282 L S
966 296 M 966 297 L S
966 296 M 966 297 L S
967 278 M 967 279 L S
967 278 M 967 279 L S
967 290 M 967 291 L S
967 290 M 967 291 L S
967 291 M 967 292 L S
967 291 M 967 292 L S
968 277 M 968 278 L S
968 277 M 968 278 L S
968 296 M 968 297 L S
968 296 M 968 297 L S
969 282 M 969 283 L S
969 282 M 969 283 L S
969 283 M 969 284 L S
969 283 M 969 284 L S
970 296 M 970 297 L S
970 296 M 970 297 L S
970 277 M 970 278 L S
970 277 M 970 278 L S
970 292 M 970 293 L S
970 292 M 970 293 L S
971 289 M 971 290 L S
971 289 M 971 290 L S
971 278 M 971 279 L S
971 278 M 971 279 L S
972 296 M 972 297 L S
972 296 M 972 297 L S
972 282 M 972 283 L S
972 282 M 972 283 L S
/Courier-Bold findfont 27 scalefont setfont
101 764 M (Zgoubi|Zpop                                                                     ) H
101 743 M (23-08-2021                                                                      ) H
/Courier-Bold findfont 26 scalefont setfont
160 85 M (* # COORDINATES  - STORAGE FILE, 23-08-2021 18:12:59 *                                                                            ) H
293 755 M (  SZ          vs.  Pass#                                                                                                          ) H
26 42 M (Mi-ma H/V:   1.00000E+00  2.10100E+03/ -2.84870E-01  1.00000E+00                                                                  ) H
26 21 M (Part#  1- 10000 (*); Lmnt#     1; pass#       1-   2101, [    1];   2101 pnts                                                     ) H
showpage
