%!PS-Adobe-2.0 EPSF-2.0
%%Title: X-Bs_atGg_n-solDepolar.eps
%%Titre: X-Bs_atGg_n-solDepolar.eps
%%Creator: Fminigraf Library
%%BoundingBox: 20 40 567 457
%%EndComments
/offx 20 def
/offy 40 def
/lx 595 def
/ly 842 def
/maxx 1023 def
/maxy 779 def
/reduc 0.92 def
/coeff lx maxx div reduc mul def
offx offy translate
coeff coeff scale
1 setlinewidth newpath 0 0 moveto
/Courier-Bold findfont 32 scalefont setfont
/M {moveto} def
/L {lineto} def
/S {stroke} def
/H {show} def
/D {setdash} def
0 0 0 setrgbcolor
[] 0 D
[2 3] 0 D
102 156 M 102 740 L S
[] 0 D
/Courier-Bold findfont 30 scalefont setfont
84 128 M (0.0) H
102 156 M 102 166 L S
102 730 M 102 740 L S
138 156 M 138 161 L S
138 735 M 138 740 L S
174 156 M 174 161 L S
174 735 M 174 740 L S
211 156 M 211 161 L S
211 735 M 211 740 L S
[2 3] 0 D
247 156 M 247 740 L S
[] 0 D
229 128 M (0.2) H
247 156 M 247 166 L S
247 730 M 247 740 L S
283 156 M 283 161 L S
283 735 M 283 740 L S
319 156 M 319 161 L S
319 735 M 319 740 L S
356 156 M 356 161 L S
356 735 M 356 740 L S
[2 3] 0 D
392 156 M 392 740 L S
[] 0 D
374 128 M (0.4) H
392 156 M 392 166 L S
392 730 M 392 740 L S
428 156 M 428 161 L S
428 735 M 428 740 L S
464 156 M 464 161 L S
464 735 M 464 740 L S
501 156 M 501 161 L S
501 735 M 501 740 L S
[2 3] 0 D
537 156 M 537 740 L S
[] 0 D
519 128 M (0.6) H
537 156 M 537 166 L S
537 730 M 537 740 L S
573 156 M 573 161 L S
573 735 M 573 740 L S
609 156 M 609 161 L S
609 735 M 609 740 L S
646 156 M 646 161 L S
646 735 M 646 740 L S
[2 3] 0 D
682 156 M 682 740 L S
[] 0 D
664 128 M (0.8) H
682 156 M 682 166 L S
682 730 M 682 740 L S
718 156 M 718 161 L S
718 735 M 718 740 L S
754 156 M 754 161 L S
754 735 M 754 740 L S
791 156 M 791 161 L S
791 735 M 791 740 L S
[2 3] 0 D
827 156 M 827 740 L S
[] 0 D
815 128 M (1.) H
827 156 M 827 166 L S
827 730 M 827 740 L S
863 156 M 863 161 L S
863 735 M 863 740 L S
899 156 M 899 161 L S
899 735 M 899 740 L S
936 156 M 936 161 L S
936 735 M 936 740 L S
[2 3] 0 D
972 156 M 972 740 L S
[] 0 D
954 128 M (1.2) H
972 156 M 972 166 L S
972 730 M 972 740 L S
[2 3] 0 D
102 156 M 972 156 L S
[] 0 D
33 146 M (0.0) H
102 156 M 112 156 L S
962 156 M 972 156 L S
102 174 M 107 174 L S
967 174 M 972 174 L S
102 192 M 107 192 L S
967 192 M 972 192 L S
102 211 M 107 211 L S
967 211 M 972 211 L S
102 229 M 107 229 L S
967 229 M 972 229 L S
[2 3] 0 D
102 247 M 972 247 L S
[] 0 D
27 237 M (0.01) H
102 247 M 112 247 L S
962 247 M 972 247 L S
102 265 M 107 265 L S
967 265 M 972 265 L S
102 284 M 107 284 L S
967 284 M 972 284 L S
102 302 M 107 302 L S
967 302 M 972 302 L S
102 320 M 107 320 L S
967 320 M 972 320 L S
[2 3] 0 D
102 338 M 972 338 L S
[] 0 D
27 328 M (0.02) H
102 338 M 112 338 L S
962 338 M 972 338 L S
102 357 M 107 357 L S
967 357 M 972 357 L S
102 375 M 107 375 L S
967 375 M 972 375 L S
102 393 M 107 393 L S
967 393 M 972 393 L S
102 411 M 107 411 L S
967 411 M 972 411 L S
[2 3] 0 D
102 430 M 972 430 L S
[] 0 D
27 420 M (0.03) H
102 430 M 112 430 L S
962 430 M 972 430 L S
102 448 M 107 448 L S
967 448 M 972 448 L S
102 466 M 107 466 L S
967 466 M 972 466 L S
102 484 M 107 484 L S
967 484 M 972 484 L S
102 503 M 107 503 L S
967 503 M 972 503 L S
[2 3] 0 D
102 521 M 972 521 L S
[] 0 D
27 511 M (0.04) H
102 521 M 112 521 L S
962 521 M 972 521 L S
102 539 M 107 539 L S
967 539 M 972 539 L S
102 557 M 107 557 L S
967 557 M 972 557 L S
102 576 M 107 576 L S
967 576 M 972 576 L S
102 594 M 107 594 L S
967 594 M 972 594 L S
[2 3] 0 D
102 612 M 972 612 L S
[] 0 D
27 602 M (0.05) H
102 612 M 112 612 L S
962 612 M 972 612 L S
102 630 M 107 630 L S
967 630 M 972 630 L S
102 649 M 107 649 L S
967 649 M 972 649 L S
102 667 M 107 667 L S
967 667 M 972 667 L S
102 685 M 107 685 L S
967 685 M 972 685 L S
[2 3] 0 D
102 703 M 972 703 L S
[] 0 D
27 693 M (0.06) H
102 703 M 112 703 L S
962 703 M 972 703 L S
102 722 M 107 722 L S
967 722 M 972 722 L S
102 740 M 107 740 L S
967 740 M 972 740 L S
[] 0 D
102 156 M 972 156 L S
972 156 M 972 740 L S
972 740 M 102 740 L S
102 740 M 102 156 L S
[] 0 D
102 157 M 102 157 L S
102 157 M 102 157 L S
102 157 M 109 158 L S
109 158 M 116 158 L S
116 158 M 124 159 L S
124 159 M 131 160 L S
131 160 M 138 161 L S
138 161 M 145 164 L S
145 164 M 153 171 L S
153 171 M 160 186 L S
160 186 M 167 239 L S
167 239 M 174 439 L S
174 439 M 182 640 L S
182 640 M 189 693 L S
189 693 M 196 708 L S
196 708 M 203 714 L S
203 714 M 211 717 L S
211 717 M 218 719 L S
218 719 M 225 720 L S
225 720 M 233 720 L S
233 720 M 240 721 L S
240 721 M 247 721 L S
247 721 M 254 721 L S
254 721 M 261 722 L S
261 722 M 269 722 L S
269 722 M 276 722 L S
276 722 M 283 722 L S
283 722 M 290 722 L S
290 722 M 298 722 L S
298 722 M 305 722 L S
305 722 M 312 722 L S
312 722 M 320 722 L S
320 722 M 327 722 L S
327 722 M 334 722 L S
334 722 M 341 722 L S
341 722 M 348 722 L S
348 722 M 356 722 L S
356 722 M 363 722 L S
363 722 M 370 722 L S
370 722 M 377 722 L S
377 722 M 385 722 L S
385 722 M 392 722 L S
392 722 M 399 722 L S
399 722 M 406 722 L S
406 722 M 414 722 L S
414 722 M 421 722 L S
421 722 M 428 722 L S
428 722 M 435 722 L S
435 722 M 443 723 L S
443 723 M 450 723 L S
450 723 M 457 723 L S
457 723 M 464 723 L S
464 723 M 472 723 L S
472 723 M 479 723 L S
479 723 M 486 723 L S
486 723 M 494 723 L S
494 723 M 501 723 L S
501 723 M 508 723 L S
508 723 M 515 723 L S
515 723 M 522 723 L S
522 723 M 530 723 L S
530 723 M 537 723 L S
537 723 M 544 723 L S
544 723 M 551 723 L S
551 723 M 559 723 L S
559 723 M 566 723 L S
566 723 M 573 723 L S
573 723 M 581 723 L S
581 723 M 588 723 L S
588 723 M 595 723 L S
595 723 M 602 723 L S
602 723 M 609 723 L S
609 723 M 617 723 L S
617 723 M 624 723 L S
624 723 M 631 723 L S
631 723 M 638 722 L S
638 722 M 646 722 L S
646 722 M 653 722 L S
653 722 M 660 722 L S
660 722 M 667 722 L S
667 722 M 675 722 L S
675 722 M 682 722 L S
682 722 M 689 722 L S
689 722 M 696 722 L S
696 722 M 704 722 L S
704 722 M 711 722 L S
711 722 M 718 722 L S
718 722 M 725 722 L S
725 722 M 733 722 L S
733 722 M 740 722 L S
740 722 M 747 722 L S
747 722 M 754 722 L S
754 722 M 762 722 L S
762 722 M 769 722 L S
769 722 M 776 722 L S
776 722 M 783 722 L S
783 722 M 791 722 L S
791 722 M 798 722 L S
798 722 M 805 722 L S
805 722 M 812 722 L S
812 722 M 820 721 L S
820 721 M 827 721 L S
827 721 M 834 721 L S
834 721 M 841 720 L S
841 720 M 849 720 L S
849 720 M 856 719 L S
856 719 M 863 717 L S
863 717 M 870 714 L S
870 714 M 878 708 L S
878 708 M 885 693 L S
885 693 M 892 640 L S
892 640 M 899 439 L S
899 439 M 907 239 L S
907 239 M 914 186 L S
914 186 M 921 171 L S
921 171 M 928 164 L S
928 164 M 936 161 L S
936 161 M 943 160 L S
943 160 M 950 159 L S
950 159 M 957 158 L S
957 158 M 965 158 L S
965 158 M 972 157 L S
972 157 M 972 157 L S
972 157 M 972 157 L S
/Courier-Bold findfont 27 scalefont setfont
101 764 M (Zgoubi|Zpop                                                                     ) H
101 743 M (24-08-2021                                                                      ) H
/Courier-Bold findfont 26 scalefont setfont
160 85 M (* # TRAJECTORIES - STORAGE FILE, 24-08-2021 11:26:05 *                                                                            ) H
293 755 M (  BX     (T)  vs.    X     (m)                                                                                                    ) H
26 42 M (Mi-ma H/V:   0.00000E+00  1.20000E+00/  0.00000E+00  6.40000E-02                                                                  ) H
26 21 M (Part#  1- 10000 (*); Lmnt#     1; pass#    1050-   1050, [    1];    122 pnts                                                     ) H
showpage
