%!PS-Adobe-2.0 EPSF-2.0
%%Title: gnuplot_zgoubi.plt_B.vs.X.eps
%%Creator: gnuplot 4.4 patchlevel 3
%%CreationDate: Fri Sep 28 10:12:38 2018
%%DocumentFonts: (atend)
%%BoundingBox: 50 50 410 302
%%EndComments
%%BeginProlog
/gnudict 256 dict def
gnudict begin
%
% The following true/false flags may be edited by hand if desired.
% The unit line width and grayscale image gamma correction may also be changed.
%
/Color true def
/Blacktext true def
/Solid false def
/Dashlength 1 def
/Landscape false def
/Level1 false def
/Rounded false def
/ClipToBoundingBox false def
/TransparentPatterns false def
/gnulinewidth 5.000 def
/userlinewidth gnulinewidth def
/Gamma 1.0 def
%
/vshift -40 def
/dl1 {
  10.0 Dashlength mul mul
  Rounded { currentlinewidth 0.75 mul sub dup 0 le { pop 0.01 } if } if
} def
/dl2 {
  10.0 Dashlength mul mul
  Rounded { currentlinewidth 0.75 mul add } if
} def
/hpt_ 31.5 def
/vpt_ 31.5 def
/hpt hpt_ def
/vpt vpt_ def
Level1 {} {
/SDict 10 dict def
systemdict /pdfmark known not {
  userdict /pdfmark systemdict /cleartomark get put
} if
SDict begin [
  /Title (gnuplot_zgoubi.plt_B.vs.X.eps)
  /Subject (gnuplot plot)
  /Creator (gnuplot 4.4 patchlevel 3)
  /Author (meot)
%  /Producer (gnuplot)
%  /Keywords ()
  /CreationDate (Fri Sep 28 10:12:38 2018)
  /DOCINFO pdfmark
end
} ifelse
/doclip {
  ClipToBoundingBox {
    newpath 50 50 moveto 410 50 lineto 410 302 lineto 50 302 lineto closepath
    clip
  } if
} def
%
% Gnuplot Prolog Version 4.4 (August 2010)
%
%/SuppressPDFMark true def
%
/M {moveto} bind def
/L {lineto} bind def
/R {rmoveto} bind def
/V {rlineto} bind def
/N {newpath moveto} bind def
/Z {closepath} bind def
/C {setrgbcolor} bind def
/f {rlineto fill} bind def
/g {setgray} bind def
/Gshow {show} def   % May be redefined later in the file to support UTF-8
/vpt2 vpt 2 mul def
/hpt2 hpt 2 mul def
/Lshow {currentpoint stroke M 0 vshift R 
	Blacktext {gsave 0 setgray show grestore} {show} ifelse} def
/Rshow {currentpoint stroke M dup stringwidth pop neg vshift R
	Blacktext {gsave 0 setgray show grestore} {show} ifelse} def
/Cshow {currentpoint stroke M dup stringwidth pop -2 div vshift R 
	Blacktext {gsave 0 setgray show grestore} {show} ifelse} def
/UP {dup vpt_ mul /vpt exch def hpt_ mul /hpt exch def
  /hpt2 hpt 2 mul def /vpt2 vpt 2 mul def} def
/DL {Color {setrgbcolor Solid {pop []} if 0 setdash}
 {pop pop pop 0 setgray Solid {pop []} if 0 setdash} ifelse} def
/BL {stroke userlinewidth 2 mul setlinewidth
	Rounded {1 setlinejoin 1 setlinecap} if} def
/AL {stroke userlinewidth 2 div setlinewidth
	Rounded {1 setlinejoin 1 setlinecap} if} def
/UL {dup gnulinewidth mul /userlinewidth exch def
	dup 1 lt {pop 1} if 10 mul /udl exch def} def
/PL {stroke userlinewidth setlinewidth
	Rounded {1 setlinejoin 1 setlinecap} if} def
3.8 setmiterlimit
% Default Line colors
/LCw {1 1 1} def
/LCb {0 0 0} def
/LCa {0 0 0} def
/LC0 {1 0 0} def
/LC1 {0 1 0} def
/LC2 {0 0 1} def
/LC3 {1 0 1} def
/LC4 {0 1 1} def
/LC5 {1 1 0} def
/LC6 {0 0 0} def
/LC7 {1 0.3 0} def
/LC8 {0.5 0.5 0.5} def
% Default Line Types
/LTw {PL [] 1 setgray} def
/LTb {BL [] LCb DL} def
/LTa {AL [1 udl mul 2 udl mul] 0 setdash LCa setrgbcolor} def
/LT0 {PL [] LC0 DL} def
/LT1 {PL [4 dl1 2 dl2] LC1 DL} def
/LT2 {PL [2 dl1 3 dl2] LC2 DL} def
/LT3 {PL [1 dl1 1.5 dl2] LC3 DL} def
/LT4 {PL [6 dl1 2 dl2 1 dl1 2 dl2] LC4 DL} def
/LT5 {PL [3 dl1 3 dl2 1 dl1 3 dl2] LC5 DL} def
/LT6 {PL [2 dl1 2 dl2 2 dl1 6 dl2] LC6 DL} def
/LT7 {PL [1 dl1 2 dl2 6 dl1 2 dl2 1 dl1 2 dl2] LC7 DL} def
/LT8 {PL [2 dl1 2 dl2 2 dl1 2 dl2 2 dl1 2 dl2 2 dl1 4 dl2] LC8 DL} def
/Pnt {stroke [] 0 setdash gsave 1 setlinecap M 0 0 V stroke grestore} def
/Dia {stroke [] 0 setdash 2 copy vpt add M
  hpt neg vpt neg V hpt vpt neg V
  hpt vpt V hpt neg vpt V closepath stroke
  Pnt} def
/Pls {stroke [] 0 setdash vpt sub M 0 vpt2 V
  currentpoint stroke M
  hpt neg vpt neg R hpt2 0 V stroke
 } def
/Box {stroke [] 0 setdash 2 copy exch hpt sub exch vpt add M
  0 vpt2 neg V hpt2 0 V 0 vpt2 V
  hpt2 neg 0 V closepath stroke
  Pnt} def
/Crs {stroke [] 0 setdash exch hpt sub exch vpt add M
  hpt2 vpt2 neg V currentpoint stroke M
  hpt2 neg 0 R hpt2 vpt2 V stroke} def
/TriU {stroke [] 0 setdash 2 copy vpt 1.12 mul add M
  hpt neg vpt -1.62 mul V
  hpt 2 mul 0 V
  hpt neg vpt 1.62 mul V closepath stroke
  Pnt} def
/Star {2 copy Pls Crs} def
/BoxF {stroke [] 0 setdash exch hpt sub exch vpt add M
  0 vpt2 neg V hpt2 0 V 0 vpt2 V
  hpt2 neg 0 V closepath fill} def
/TriUF {stroke [] 0 setdash vpt 1.12 mul add M
  hpt neg vpt -1.62 mul V
  hpt 2 mul 0 V
  hpt neg vpt 1.62 mul V closepath fill} def
/TriD {stroke [] 0 setdash 2 copy vpt 1.12 mul sub M
  hpt neg vpt 1.62 mul V
  hpt 2 mul 0 V
  hpt neg vpt -1.62 mul V closepath stroke
  Pnt} def
/TriDF {stroke [] 0 setdash vpt 1.12 mul sub M
  hpt neg vpt 1.62 mul V
  hpt 2 mul 0 V
  hpt neg vpt -1.62 mul V closepath fill} def
/DiaF {stroke [] 0 setdash vpt add M
  hpt neg vpt neg V hpt vpt neg V
  hpt vpt V hpt neg vpt V closepath fill} def
/Pent {stroke [] 0 setdash 2 copy gsave
  translate 0 hpt M 4 {72 rotate 0 hpt L} repeat
  closepath stroke grestore Pnt} def
/PentF {stroke [] 0 setdash gsave
  translate 0 hpt M 4 {72 rotate 0 hpt L} repeat
  closepath fill grestore} def
/Circle {stroke [] 0 setdash 2 copy
  hpt 0 360 arc stroke Pnt} def
/CircleF {stroke [] 0 setdash hpt 0 360 arc fill} def
/C0 {BL [] 0 setdash 2 copy moveto vpt 90 450 arc} bind def
/C1 {BL [] 0 setdash 2 copy moveto
	2 copy vpt 0 90 arc closepath fill
	vpt 0 360 arc closepath} bind def
/C2 {BL [] 0 setdash 2 copy moveto
	2 copy vpt 90 180 arc closepath fill
	vpt 0 360 arc closepath} bind def
/C3 {BL [] 0 setdash 2 copy moveto
	2 copy vpt 0 180 arc closepath fill
	vpt 0 360 arc closepath} bind def
/C4 {BL [] 0 setdash 2 copy moveto
	2 copy vpt 180 270 arc closepath fill
	vpt 0 360 arc closepath} bind def
/C5 {BL [] 0 setdash 2 copy moveto
	2 copy vpt 0 90 arc
	2 copy moveto
	2 copy vpt 180 270 arc closepath fill
	vpt 0 360 arc} bind def
/C6 {BL [] 0 setdash 2 copy moveto
	2 copy vpt 90 270 arc closepath fill
	vpt 0 360 arc closepath} bind def
/C7 {BL [] 0 setdash 2 copy moveto
	2 copy vpt 0 270 arc closepath fill
	vpt 0 360 arc closepath} bind def
/C8 {BL [] 0 setdash 2 copy moveto
	2 copy vpt 270 360 arc closepath fill
	vpt 0 360 arc closepath} bind def
/C9 {BL [] 0 setdash 2 copy moveto
	2 copy vpt 270 450 arc closepath fill
	vpt 0 360 arc closepath} bind def
/C10 {BL [] 0 setdash 2 copy 2 copy moveto vpt 270 360 arc closepath fill
	2 copy moveto
	2 copy vpt 90 180 arc closepath fill
	vpt 0 360 arc closepath} bind def
/C11 {BL [] 0 setdash 2 copy moveto
	2 copy vpt 0 180 arc closepath fill
	2 copy moveto
	2 copy vpt 270 360 arc closepath fill
	vpt 0 360 arc closepath} bind def
/C12 {BL [] 0 setdash 2 copy moveto
	2 copy vpt 180 360 arc closepath fill
	vpt 0 360 arc closepath} bind def
/C13 {BL [] 0 setdash 2 copy moveto
	2 copy vpt 0 90 arc closepath fill
	2 copy moveto
	2 copy vpt 180 360 arc closepath fill
	vpt 0 360 arc closepath} bind def
/C14 {BL [] 0 setdash 2 copy moveto
	2 copy vpt 90 360 arc closepath fill
	vpt 0 360 arc} bind def
/C15 {BL [] 0 setdash 2 copy vpt 0 360 arc closepath fill
	vpt 0 360 arc closepath} bind def
/Rec {newpath 4 2 roll moveto 1 index 0 rlineto 0 exch rlineto
	neg 0 rlineto closepath} bind def
/Square {dup Rec} bind def
/Bsquare {vpt sub exch vpt sub exch vpt2 Square} bind def
/S0 {BL [] 0 setdash 2 copy moveto 0 vpt rlineto BL Bsquare} bind def
/S1 {BL [] 0 setdash 2 copy vpt Square fill Bsquare} bind def
/S2 {BL [] 0 setdash 2 copy exch vpt sub exch vpt Square fill Bsquare} bind def
/S3 {BL [] 0 setdash 2 copy exch vpt sub exch vpt2 vpt Rec fill Bsquare} bind def
/S4 {BL [] 0 setdash 2 copy exch vpt sub exch vpt sub vpt Square fill Bsquare} bind def
/S5 {BL [] 0 setdash 2 copy 2 copy vpt Square fill
	exch vpt sub exch vpt sub vpt Square fill Bsquare} bind def
/S6 {BL [] 0 setdash 2 copy exch vpt sub exch vpt sub vpt vpt2 Rec fill Bsquare} bind def
/S7 {BL [] 0 setdash 2 copy exch vpt sub exch vpt sub vpt vpt2 Rec fill
	2 copy vpt Square fill Bsquare} bind def
/S8 {BL [] 0 setdash 2 copy vpt sub vpt Square fill Bsquare} bind def
/S9 {BL [] 0 setdash 2 copy vpt sub vpt vpt2 Rec fill Bsquare} bind def
/S10 {BL [] 0 setdash 2 copy vpt sub vpt Square fill 2 copy exch vpt sub exch vpt Square fill
	Bsquare} bind def
/S11 {BL [] 0 setdash 2 copy vpt sub vpt Square fill 2 copy exch vpt sub exch vpt2 vpt Rec fill
	Bsquare} bind def
/S12 {BL [] 0 setdash 2 copy exch vpt sub exch vpt sub vpt2 vpt Rec fill Bsquare} bind def
/S13 {BL [] 0 setdash 2 copy exch vpt sub exch vpt sub vpt2 vpt Rec fill
	2 copy vpt Square fill Bsquare} bind def
/S14 {BL [] 0 setdash 2 copy exch vpt sub exch vpt sub vpt2 vpt Rec fill
	2 copy exch vpt sub exch vpt Square fill Bsquare} bind def
/S15 {BL [] 0 setdash 2 copy Bsquare fill Bsquare} bind def
/D0 {gsave translate 45 rotate 0 0 S0 stroke grestore} bind def
/D1 {gsave translate 45 rotate 0 0 S1 stroke grestore} bind def
/D2 {gsave translate 45 rotate 0 0 S2 stroke grestore} bind def
/D3 {gsave translate 45 rotate 0 0 S3 stroke grestore} bind def
/D4 {gsave translate 45 rotate 0 0 S4 stroke grestore} bind def
/D5 {gsave translate 45 rotate 0 0 S5 stroke grestore} bind def
/D6 {gsave translate 45 rotate 0 0 S6 stroke grestore} bind def
/D7 {gsave translate 45 rotate 0 0 S7 stroke grestore} bind def
/D8 {gsave translate 45 rotate 0 0 S8 stroke grestore} bind def
/D9 {gsave translate 45 rotate 0 0 S9 stroke grestore} bind def
/D10 {gsave translate 45 rotate 0 0 S10 stroke grestore} bind def
/D11 {gsave translate 45 rotate 0 0 S11 stroke grestore} bind def
/D12 {gsave translate 45 rotate 0 0 S12 stroke grestore} bind def
/D13 {gsave translate 45 rotate 0 0 S13 stroke grestore} bind def
/D14 {gsave translate 45 rotate 0 0 S14 stroke grestore} bind def
/D15 {gsave translate 45 rotate 0 0 S15 stroke grestore} bind def
/DiaE {stroke [] 0 setdash vpt add M
  hpt neg vpt neg V hpt vpt neg V
  hpt vpt V hpt neg vpt V closepath stroke} def
/BoxE {stroke [] 0 setdash exch hpt sub exch vpt add M
  0 vpt2 neg V hpt2 0 V 0 vpt2 V
  hpt2 neg 0 V closepath stroke} def
/TriUE {stroke [] 0 setdash vpt 1.12 mul add M
  hpt neg vpt -1.62 mul V
  hpt 2 mul 0 V
  hpt neg vpt 1.62 mul V closepath stroke} def
/TriDE {stroke [] 0 setdash vpt 1.12 mul sub M
  hpt neg vpt 1.62 mul V
  hpt 2 mul 0 V
  hpt neg vpt -1.62 mul V closepath stroke} def
/PentE {stroke [] 0 setdash gsave
  translate 0 hpt M 4 {72 rotate 0 hpt L} repeat
  closepath stroke grestore} def
/CircE {stroke [] 0 setdash 
  hpt 0 360 arc stroke} def
/Opaque {gsave closepath 1 setgray fill grestore 0 setgray closepath} def
/DiaW {stroke [] 0 setdash vpt add M
  hpt neg vpt neg V hpt vpt neg V
  hpt vpt V hpt neg vpt V Opaque stroke} def
/BoxW {stroke [] 0 setdash exch hpt sub exch vpt add M
  0 vpt2 neg V hpt2 0 V 0 vpt2 V
  hpt2 neg 0 V Opaque stroke} def
/TriUW {stroke [] 0 setdash vpt 1.12 mul add M
  hpt neg vpt -1.62 mul V
  hpt 2 mul 0 V
  hpt neg vpt 1.62 mul V Opaque stroke} def
/TriDW {stroke [] 0 setdash vpt 1.12 mul sub M
  hpt neg vpt 1.62 mul V
  hpt 2 mul 0 V
  hpt neg vpt -1.62 mul V Opaque stroke} def
/PentW {stroke [] 0 setdash gsave
  translate 0 hpt M 4 {72 rotate 0 hpt L} repeat
  Opaque stroke grestore} def
/CircW {stroke [] 0 setdash 
  hpt 0 360 arc Opaque stroke} def
/BoxFill {gsave Rec 1 setgray fill grestore} def
/Density {
  /Fillden exch def
  currentrgbcolor
  /ColB exch def /ColG exch def /ColR exch def
  /ColR ColR Fillden mul Fillden sub 1 add def
  /ColG ColG Fillden mul Fillden sub 1 add def
  /ColB ColB Fillden mul Fillden sub 1 add def
  ColR ColG ColB setrgbcolor} def
/BoxColFill {gsave Rec PolyFill} def
/PolyFill {gsave Density fill grestore grestore} def
/h {rlineto rlineto rlineto gsave closepath fill grestore} bind def
%
% PostScript Level 1 Pattern Fill routine for rectangles
% Usage: x y w h s a XX PatternFill
%	x,y = lower left corner of box to be filled
%	w,h = width and height of box
%	  a = angle in degrees between lines and x-axis
%	 XX = 0/1 for no/yes cross-hatch
%
/PatternFill {gsave /PFa [ 9 2 roll ] def
  PFa 0 get PFa 2 get 2 div add PFa 1 get PFa 3 get 2 div add translate
  PFa 2 get -2 div PFa 3 get -2 div PFa 2 get PFa 3 get Rec
  gsave 1 setgray fill grestore clip
  currentlinewidth 0.5 mul setlinewidth
  /PFs PFa 2 get dup mul PFa 3 get dup mul add sqrt def
  0 0 M PFa 5 get rotate PFs -2 div dup translate
  0 1 PFs PFa 4 get div 1 add floor cvi
	{PFa 4 get mul 0 M 0 PFs V} for
  0 PFa 6 get ne {
	0 1 PFs PFa 4 get div 1 add floor cvi
	{PFa 4 get mul 0 2 1 roll M PFs 0 V} for
 } if
  stroke grestore} def
%
/languagelevel where
 {pop languagelevel} {1} ifelse
 2 lt
	{/InterpretLevel1 true def}
	{/InterpretLevel1 Level1 def}
 ifelse
%
% PostScript level 2 pattern fill definitions
%
/Level2PatternFill {
/Tile8x8 {/PaintType 2 /PatternType 1 /TilingType 1 /BBox [0 0 8 8] /XStep 8 /YStep 8}
	bind def
/KeepColor {currentrgbcolor [/Pattern /DeviceRGB] setcolorspace} bind def
<< Tile8x8
 /PaintProc {0.5 setlinewidth pop 0 0 M 8 8 L 0 8 M 8 0 L stroke} 
>> matrix makepattern
/Pat1 exch def
<< Tile8x8
 /PaintProc {0.5 setlinewidth pop 0 0 M 8 8 L 0 8 M 8 0 L stroke
	0 4 M 4 8 L 8 4 L 4 0 L 0 4 L stroke}
>> matrix makepattern
/Pat2 exch def
<< Tile8x8
 /PaintProc {0.5 setlinewidth pop 0 0 M 0 8 L
	8 8 L 8 0 L 0 0 L fill}
>> matrix makepattern
/Pat3 exch def
<< Tile8x8
 /PaintProc {0.5 setlinewidth pop -4 8 M 8 -4 L
	0 12 M 12 0 L stroke}
>> matrix makepattern
/Pat4 exch def
<< Tile8x8
 /PaintProc {0.5 setlinewidth pop -4 0 M 8 12 L
	0 -4 M 12 8 L stroke}
>> matrix makepattern
/Pat5 exch def
<< Tile8x8
 /PaintProc {0.5 setlinewidth pop -2 8 M 4 -4 L
	0 12 M 8 -4 L 4 12 M 10 0 L stroke}
>> matrix makepattern
/Pat6 exch def
<< Tile8x8
 /PaintProc {0.5 setlinewidth pop -2 0 M 4 12 L
	0 -4 M 8 12 L 4 -4 M 10 8 L stroke}
>> matrix makepattern
/Pat7 exch def
<< Tile8x8
 /PaintProc {0.5 setlinewidth pop 8 -2 M -4 4 L
	12 0 M -4 8 L 12 4 M 0 10 L stroke}
>> matrix makepattern
/Pat8 exch def
<< Tile8x8
 /PaintProc {0.5 setlinewidth pop 0 -2 M 12 4 L
	-4 0 M 12 8 L -4 4 M 8 10 L stroke}
>> matrix makepattern
/Pat9 exch def
/Pattern1 {PatternBgnd KeepColor Pat1 setpattern} bind def
/Pattern2 {PatternBgnd KeepColor Pat2 setpattern} bind def
/Pattern3 {PatternBgnd KeepColor Pat3 setpattern} bind def
/Pattern4 {PatternBgnd KeepColor Landscape {Pat5} {Pat4} ifelse setpattern} bind def
/Pattern5 {PatternBgnd KeepColor Landscape {Pat4} {Pat5} ifelse setpattern} bind def
/Pattern6 {PatternBgnd KeepColor Landscape {Pat9} {Pat6} ifelse setpattern} bind def
/Pattern7 {PatternBgnd KeepColor Landscape {Pat8} {Pat7} ifelse setpattern} bind def
} def
%
%
%End of PostScript Level 2 code
%
/PatternBgnd {
  TransparentPatterns {} {gsave 1 setgray fill grestore} ifelse
} def
%
% Substitute for Level 2 pattern fill codes with
% grayscale if Level 2 support is not selected.
%
/Level1PatternFill {
/Pattern1 {0.250 Density} bind def
/Pattern2 {0.500 Density} bind def
/Pattern3 {0.750 Density} bind def
/Pattern4 {0.125 Density} bind def
/Pattern5 {0.375 Density} bind def
/Pattern6 {0.625 Density} bind def
/Pattern7 {0.875 Density} bind def
} def
%
% Now test for support of Level 2 code
%
Level1 {Level1PatternFill} {Level2PatternFill} ifelse
%
/Symbol-Oblique /Symbol findfont [1 0 .167 1 0 0] makefont
dup length dict begin {1 index /FID eq {pop pop} {def} ifelse} forall
currentdict end definefont pop
/MFshow {
   { dup 5 get 3 ge
     { 5 get 3 eq {gsave} {grestore} ifelse }
     {dup dup 0 get findfont exch 1 get scalefont setfont
     [ currentpoint ] exch dup 2 get 0 exch R dup 5 get 2 ne {dup dup 6
     get exch 4 get {Gshow} {stringwidth pop 0 R} ifelse }if dup 5 get 0 eq
     {dup 3 get {2 get neg 0 exch R pop} {pop aload pop M} ifelse} {dup 5
     get 1 eq {dup 2 get exch dup 3 get exch 6 get stringwidth pop -2 div
     dup 0 R} {dup 6 get stringwidth pop -2 div 0 R 6 get
     show 2 index {aload pop M neg 3 -1 roll neg R pop pop} {pop pop pop
     pop aload pop M} ifelse }ifelse }ifelse }
     ifelse }
   forall} def
/Gswidth {dup type /stringtype eq {stringwidth} {pop (n) stringwidth} ifelse} def
/MFwidth {0 exch { dup 5 get 3 ge { 5 get 3 eq { 0 } { pop } ifelse }
 {dup 3 get{dup dup 0 get findfont exch 1 get scalefont setfont
     6 get Gswidth pop add} {pop} ifelse} ifelse} forall} def
/MLshow { currentpoint stroke M
  0 exch R
  Blacktext {gsave 0 setgray MFshow grestore} {MFshow} ifelse } bind def
/MRshow { currentpoint stroke M
  exch dup MFwidth neg 3 -1 roll R
  Blacktext {gsave 0 setgray MFshow grestore} {MFshow} ifelse } bind def
/MCshow { currentpoint stroke M
  exch dup MFwidth -2 div 3 -1 roll R
  Blacktext {gsave 0 setgray MFshow grestore} {MFshow} ifelse } bind def
/XYsave    { [( ) 1 2 true false 3 ()] } bind def
/XYrestore { [( ) 1 2 true false 4 ()] } bind def
end
%%EndProlog
gnudict begin
gsave
doclip
50 50 translate
0.050 0.050 scale
0 setgray
newpath
(Times-Sans) findfont 120 scalefont setfont
1.000 UL
LTb
516 504 M
63 0 V
6404 0 R
-63 0 V
stroke
444 504 M
[ [(sans) 140.0 0.0 true true 0 (-10)]
] -46.7 MRshow
1.000 UL
LTb
516 1180 M
63 0 V
6404 0 R
-63 0 V
stroke
444 1180 M
[ [(sans) 140.0 0.0 true true 0 (-5)]
] -46.7 MRshow
1.000 UL
LTb
516 1856 M
63 0 V
6404 0 R
-63 0 V
stroke
444 1856 M
[ [(sans) 140.0 0.0 true true 0 ( 0)]
] -46.7 MRshow
1.000 UL
LTb
516 2531 M
63 0 V
6404 0 R
-63 0 V
stroke
444 2531 M
[ [(sans) 140.0 0.0 true true 0 ( 5)]
] -46.7 MRshow
1.000 UL
LTb
516 3207 M
63 0 V
6404 0 R
-63 0 V
stroke
444 3207 M
[ [(sans) 140.0 0.0 true true 0 ( 10)]
] -46.7 MRshow
1.000 UL
LTb
516 3883 M
63 0 V
6404 0 R
-63 0 V
stroke
444 3883 M
[ [(sans) 140.0 0.0 true true 0 ( 15)]
] -46.7 MRshow
1.000 UL
LTb
516 4559 M
63 0 V
6404 0 R
-63 0 V
stroke
444 4559 M
[ [(sans) 140.0 0.0 true true 0 ( 20)]
] -46.7 MRshow
1.000 UL
LTb
516 504 M
0 63 V
0 3992 R
0 -63 V
stroke
516 384 M
[ [(sans) 140.0 0.0 true true 0 ( 0)]
] -46.7 MCshow
1.000 UL
LTb
1594 504 M
0 63 V
0 3992 R
0 -63 V
stroke
1594 384 M
[ [(sans) 140.0 0.0 true true 0 ( 0.1)]
] -46.7 MCshow
1.000 UL
LTb
2672 504 M
0 63 V
0 3992 R
0 -63 V
stroke
2672 384 M
[ [(sans) 140.0 0.0 true true 0 ( 0.2)]
] -46.7 MCshow
1.000 UL
LTb
3750 504 M
0 63 V
0 3992 R
0 -63 V
stroke
3750 384 M
[ [(sans) 140.0 0.0 true true 0 ( 0.3)]
] -46.7 MCshow
1.000 UL
LTb
4827 504 M
0 63 V
0 3992 R
0 -63 V
stroke
4827 384 M
[ [(sans) 140.0 0.0 true true 0 ( 0.4)]
] -46.7 MCshow
1.000 UL
LTb
5905 504 M
0 63 V
0 3992 R
0 -63 V
stroke
5905 384 M
[ [(sans) 140.0 0.0 true true 0 ( 0.5)]
] -46.7 MCshow
1.000 UL
LTb
6983 504 M
0 63 V
0 3992 R
0 -63 V
stroke
6983 384 M
[ [(sans) 140.0 0.0 true true 0 ( 0.6)]
] -46.7 MCshow
1.000 UL
LTb
1.000 UL
LTb
516 4559 N
516 504 L
6467 0 V
0 4055 V
-6467 0 V
Z stroke
LCb setrgbcolor
96 2531 M
currentpoint gsave translate -270 rotate 0 0 moveto
[ [(sans) 140.0 0.0 true true 0 (X=Angle [rd])]
] -46.7 MCshow
grestore
LTb
LCb setrgbcolor
3749 204 M
[ [(sans) 140.0 0.0 true true 0 (B)]
[(sans) 112.0 -42.0 true true 0 (Z)]
[(sans) 140.0 0.0 true true 0 ( [T])]
] -32.7 MCshow
LTb
3749 4859 M
[ [(sans) 140.0 0.0 true true 0 (Plotted from file ./usingFFAG/zgoubi.plt and ./usingTOSCA/zgoubi.plt  )]
] -46.7 MCshow
3749 4719 M
[ [(sans) 140.0 0.0 true true 0 ( Better match requires working of fall-off \(Enge\) modelk in FFAG)]
] -46.7 MCshow
1.000 UP
1.000 UL
LTb
% Begin plot #1
1.000 UL
LT0
1.00 0.00 0.00 C LCb setrgbcolor
6416 4436 M
[ [(Times-Sans) 120.0 0.0 true true 0 (using FFAG)]
] -40.0 MRshow
LT0
1.00 0.00 0.00 C 6488 4436 M
351 0 V
516 1776 M
6 0 V
6 0 V
6 0 V
6 0 V
6 0 V
6 0 V
6 0 V
7 0 V
6 0 V
6 0 V
6 0 V
6 0 V
6 0 V
6 0 V
6 0 V
6 0 V
6 0 V
6 0 V
6 0 V
6 0 V
6 0 V
6 0 V
6 0 V
7 0 V
6 0 V
6 0 V
6 0 V
6 0 V
6 0 V
6 0 V
6 0 V
6 0 V
6 -1 V
6 0 V
6 0 V
6 0 V
6 0 V
6 0 V
6 0 V
7 -1 V
6 0 V
6 0 V
6 0 V
6 0 V
6 -1 V
6 0 V
6 0 V
6 -1 V
6 0 V
6 -1 V
6 0 V
6 -1 V
6 0 V
6 -1 V
6 -1 V
6 0 V
6 -1 V
7 -1 V
6 -1 V
6 0 V
6 -1 V
6 -1 V
6 -1 V
6 -1 V
6 -2 V
6 -1 V
6 -1 V
6 -1 V
6 -1 V
6 -2 V
6 -1 V
6 -2 V
6 -1 V
6 -2 V
6 -1 V
6 -2 V
6 -2 V
6 -1 V
6 -2 V
7 -2 V
6 -2 V
6 -2 V
6 -1 V
6 -2 V
6 -2 V
6 -2 V
6 -2 V
6 -2 V
6 -2 V
6 -2 V
6 -2 V
6 -3 V
6 -2 V
6 -2 V
6 -2 V
6 -2 V
6 -2 V
6 -2 V
6 -2 V
6 -2 V
6 -3 V
6 -2 V
stroke 1133 1692 M
6 -2 V
6 -2 V
6 -2 V
6 -2 V
6 -2 V
6 -2 V
6 -2 V
6 -2 V
6 -2 V
6 -2 V
6 -2 V
6 -2 V
6 -2 V
6 -1 V
6 -2 V
6 -2 V
6 -2 V
6 -2 V
6 -2 V
6 -1 V
6 -2 V
6 -2 V
6 -2 V
6 -2 V
6 -2 V
6 -2 V
6 -2 V
6 -2 V
6 -2 V
6 -2 V
6 -2 V
6 -3 V
6 -2 V
6 -2 V
6 -3 V
6 -2 V
6 -2 V
6 -3 V
6 -2 V
6 -3 V
6 -3 V
6 -2 V
6 -3 V
6 -3 V
6 -2 V
6 -3 V
6 -3 V
6 -2 V
6 -3 V
6 -3 V
6 -2 V
6 -3 V
6 -3 V
6 -2 V
5 -3 V
6 -2 V
6 -3 V
6 -2 V
6 -2 V
6 -2 V
6 -2 V
6 -2 V
6 -2 V
6 -2 V
6 -1 V
6 -2 V
6 -2 V
5 -1 V
6 -1 V
6 -1 V
6 -2 V
6 -1 V
6 0 V
6 -1 V
6 -1 V
6 -1 V
6 0 V
5 -1 V
6 -1 V
6 0 V
6 0 V
6 -1 V
6 0 V
6 0 V
6 -1 V
5 0 V
6 0 V
6 0 V
6 0 V
6 -1 V
6 0 V
5 0 V
6 0 V
6 0 V
6 0 V
6 -1 V
6 0 V
5 0 V
6 0 V
6 0 V
6 0 V
6 0 V
5 0 V
6 0 V
stroke 1750 1531 M
6 0 V
6 0 V
6 0 V
5 0 V
6 0 V
6 0 V
6 1 V
6 0 V
5 1 V
6 0 V
6 1 V
6 1 V
5 1 V
6 1 V
6 1 V
6 2 V
5 2 V
6 1 V
6 2 V
6 3 V
5 2 V
6 3 V
6 3 V
5 3 V
6 3 V
6 3 V
6 4 V
5 4 V
6 4 V
6 4 V
5 4 V
6 5 V
6 4 V
5 5 V
6 5 V
6 5 V
5 5 V
6 5 V
6 5 V
5 6 V
6 5 V
6 6 V
5 5 V
6 6 V
6 5 V
5 6 V
6 6 V
6 6 V
5 6 V
6 6 V
5 6 V
6 7 V
6 6 V
5 6 V
6 7 V
5 7 V
6 6 V
6 7 V
5 8 V
6 7 V
5 7 V
6 8 V
6 7 V
5 8 V
6 8 V
5 8 V
6 8 V
5 8 V
6 9 V
6 8 V
5 9 V
6 9 V
5 8 V
6 9 V
5 9 V
6 10 V
6 9 V
5 9 V
6 9 V
5 10 V
6 9 V
5 10 V
6 10 V
5 9 V
6 10 V
5 10 V
6 9 V
5 10 V
6 10 V
6 10 V
5 9 V
6 10 V
5 10 V
6 10 V
5 10 V
6 10 V
5 10 V
6 10 V
5 10 V
6 10 V
5 10 V
6 10 V
5 10 V
6 11 V
stroke 2336 2161 M
6 10 V
5 11 V
6 10 V
5 11 V
6 11 V
5 10 V
6 11 V
5 11 V
6 11 V
5 12 V
6 11 V
5 11 V
6 12 V
5 11 V
6 11 V
6 12 V
5 11 V
6 11 V
5 12 V
6 11 V
5 10 V
6 11 V
5 10 V
6 10 V
5 10 V
6 9 V
6 9 V
5 9 V
6 8 V
5 8 V
6 7 V
5 7 V
6 6 V
6 6 V
5 6 V
6 5 V
5 4 V
6 5 V
6 4 V
5 3 V
6 3 V
5 3 V
6 3 V
6 2 V
5 2 V
6 2 V
5 2 V
6 2 V
6 1 V
5 2 V
6 1 V
5 1 V
6 1 V
6 1 V
5 1 V
6 1 V
6 1 V
5 1 V
6 0 V
5 1 V
6 1 V
6 1 V
5 1 V
6 0 V
6 1 V
5 1 V
6 0 V
6 1 V
5 1 V
6 0 V
6 1 V
5 1 V
6 0 V
6 1 V
5 1 V
6 0 V
6 1 V
5 1 V
6 0 V
6 1 V
5 0 V
6 1 V
6 1 V
5 0 V
6 1 V
6 0 V
6 1 V
5 1 V
6 0 V
6 1 V
5 0 V
6 1 V
6 0 V
5 1 V
6 0 V
6 1 V
6 0 V
5 1 V
6 1 V
6 0 V
5 1 V
6 0 V
6 0 V
6 1 V
stroke 2921 2587 M
5 0 V
6 1 V
6 0 V
5 1 V
6 0 V
6 1 V
6 0 V
5 1 V
6 0 V
6 0 V
6 1 V
5 0 V
6 1 V
6 0 V
6 0 V
5 1 V
6 0 V
6 1 V
6 0 V
5 0 V
6 1 V
6 0 V
6 0 V
5 1 V
6 0 V
6 0 V
6 1 V
5 0 V
6 0 V
6 0 V
6 1 V
5 0 V
6 0 V
6 0 V
6 1 V
5 0 V
6 0 V
6 0 V
6 1 V
6 0 V
5 0 V
6 0 V
6 1 V
6 0 V
5 0 V
6 0 V
6 0 V
6 0 V
5 1 V
6 0 V
6 0 V
6 0 V
6 0 V
5 0 V
6 0 V
6 1 V
6 0 V
5 0 V
6 0 V
6 0 V
6 0 V
6 0 V
5 0 V
6 0 V
6 0 V
6 0 V
5 0 V
6 0 V
6 0 V
6 0 V
6 0 V
5 0 V
6 0 V
6 0 V
6 0 V
5 0 V
6 0 V
6 0 V
6 0 V
6 0 V
5 0 V
6 0 V
6 0 V
6 0 V
5 0 V
6 0 V
6 0 V
6 0 V
6 0 V
5 -1 V
6 0 V
6 0 V
6 0 V
5 0 V
6 0 V
6 0 V
6 -1 V
6 0 V
5 0 V
6 0 V
6 0 V
6 -1 V
5 0 V
6 0 V
stroke 3520 2601 M
6 0 V
6 0 V
5 -1 V
6 0 V
6 0 V
6 0 V
5 -1 V
6 0 V
6 0 V
6 0 V
6 -1 V
5 0 V
6 0 V
6 -1 V
6 0 V
5 0 V
6 0 V
6 -1 V
6 0 V
5 0 V
6 -1 V
6 0 V
6 -1 V
5 0 V
6 0 V
6 -1 V
6 0 V
5 0 V
6 -1 V
6 0 V
6 -1 V
5 0 V
6 0 V
6 -1 V
5 0 V
6 -1 V
6 0 V
6 -1 V
5 0 V
6 -1 V
6 0 V
6 -1 V
5 0 V
6 -1 V
6 0 V
5 -1 V
6 0 V
6 -1 V
6 0 V
5 -1 V
6 0 V
6 -1 V
5 0 V
6 -1 V
6 0 V
5 -1 V
6 0 V
6 -1 V
6 -1 V
5 0 V
6 -1 V
6 0 V
5 -1 V
6 -1 V
6 0 V
5 -1 V
6 0 V
6 -1 V
5 -1 V
6 0 V
6 -1 V
5 -1 V
6 0 V
6 -1 V
5 -1 V
6 0 V
6 -1 V
5 -1 V
6 0 V
6 -1 V
5 -1 V
6 -1 V
6 0 V
5 -1 V
6 -1 V
6 -1 V
5 0 V
6 -1 V
5 -1 V
6 -1 V
6 -1 V
5 -1 V
6 -1 V
6 -1 V
5 -2 V
6 -1 V
5 -2 V
6 -1 V
6 -2 V
5 -2 V
6 -2 V
5 -3 V
6 -2 V
6 -3 V
stroke 4113 2532 M
5 -3 V
6 -4 V
5 -4 V
6 -4 V
6 -5 V
5 -5 V
6 -6 V
5 -6 V
6 -6 V
5 -7 V
6 -7 V
6 -8 V
5 -8 V
6 -9 V
5 -9 V
6 -10 V
5 -9 V
6 -10 V
6 -11 V
5 -10 V
6 -11 V
5 -11 V
6 -11 V
5 -12 V
6 -11 V
5 -11 V
6 -12 V
5 -11 V
6 -11 V
6 -12 V
5 -11 V
6 -11 V
5 -11 V
6 -11 V
5 -11 V
6 -11 V
5 -11 V
6 -10 V
5 -11 V
6 -10 V
5 -11 V
6 -10 V
5 -10 V
6 -10 V
5 -11 V
6 -10 V
6 -10 V
5 -10 V
6 -10 V
5 -10 V
6 -9 V
5 -10 V
6 -10 V
5 -10 V
6 -10 V
5 -10 V
6 -9 V
5 -10 V
6 -10 V
5 -10 V
6 -9 V
6 -10 V
5 -10 V
6 -9 V
5 -10 V
6 -9 V
5 -9 V
6 -10 V
5 -9 V
6 -9 V
6 -9 V
5 -9 V
6 -9 V
5 -9 V
6 -8 V
5 -9 V
6 -8 V
5 -8 V
6 -8 V
6 -8 V
5 -8 V
6 -8 V
5 -8 V
6 -7 V
6 -7 V
5 -8 V
6 -7 V
5 -7 V
6 -6 V
6 -7 V
5 -7 V
6 -6 V
5 -6 V
6 -7 V
6 -6 V
5 -6 V
6 -6 V
5 -6 V
6 -6 V
6 -5 V
5 -6 V
6 -6 V
6 -5 V
5 -6 V
stroke 4691 1634 M
6 -5 V
6 -6 V
5 -5 V
6 -5 V
6 -5 V
5 -5 V
6 -5 V
6 -4 V
5 -5 V
6 -5 V
6 -4 V
5 -4 V
6 -4 V
6 -4 V
6 -3 V
5 -4 V
6 -3 V
6 -3 V
5 -3 V
6 -2 V
6 -3 V
6 -2 V
5 -2 V
6 -2 V
6 -1 V
6 -2 V
5 -1 V
6 -1 V
6 -1 V
6 -1 V
5 -1 V
6 -1 V
6 0 V
6 0 V
5 -1 V
6 0 V
6 0 V
6 0 V
6 0 V
5 0 V
6 0 V
6 0 V
6 0 V
6 0 V
5 0 V
6 0 V
6 0 V
6 0 V
6 0 V
5 1 V
6 0 V
6 0 V
6 0 V
6 0 V
6 0 V
5 1 V
6 0 V
6 0 V
6 0 V
6 0 V
6 1 V
6 0 V
6 0 V
5 1 V
6 0 V
6 1 V
6 0 V
6 1 V
6 0 V
6 1 V
6 1 V
5 1 V
6 1 V
6 1 V
6 1 V
6 1 V
6 1 V
6 2 V
6 1 V
6 2 V
6 1 V
6 2 V
5 2 V
6 2 V
6 2 V
6 2 V
6 3 V
6 2 V
6 2 V
6 3 V
6 2 V
6 3 V
6 2 V
6 3 V
6 3 V
6 2 V
6 3 V
6 3 V
6 2 V
5 3 V
6 3 V
6 2 V
6 3 V
6 3 V
stroke 5297 1608 M
6 2 V
6 3 V
6 3 V
6 2 V
6 2 V
6 3 V
6 2 V
6 3 V
6 2 V
6 2 V
6 2 V
6 2 V
6 2 V
6 2 V
6 2 V
6 2 V
6 2 V
6 2 V
6 2 V
6 2 V
6 2 V
6 2 V
6 1 V
6 2 V
6 2 V
6 2 V
6 2 V
6 2 V
6 2 V
6 2 V
6 1 V
6 2 V
6 2 V
6 2 V
6 2 V
6 2 V
6 2 V
6 2 V
6 2 V
6 3 V
6 2 V
6 2 V
6 2 V
6 2 V
6 2 V
6 2 V
6 2 V
6 2 V
6 3 V
6 2 V
6 2 V
7 2 V
6 2 V
6 2 V
6 2 V
6 2 V
6 2 V
6 2 V
6 2 V
6 2 V
6 2 V
6 2 V
6 1 V
6 2 V
6 2 V
6 2 V
6 1 V
6 2 V
6 1 V
6 2 V
6 2 V
6 1 V
6 1 V
6 2 V
6 1 V
6 1 V
7 1 V
6 2 V
6 1 V
6 1 V
6 1 V
6 1 V
6 1 V
6 1 V
6 0 V
6 1 V
6 1 V
6 1 V
6 0 V
6 1 V
6 0 V
6 1 V
6 0 V
6 1 V
6 0 V
7 1 V
6 0 V
6 0 V
6 1 V
6 0 V
6 0 V
6 0 V
6 1 V
6 0 V
stroke 5924 1775 M
6 0 V
6 0 V
6 0 V
6 0 V
6 0 V
6 0 V
6 1 V
6 0 V
7 0 V
6 0 V
6 0 V
6 0 V
6 0 V
6 0 V
6 0 V
6 0 V
6 0 V
6 0 V
6 0 V
6 0 V
6 0 V
6 0 V
6 0 V
6 0 V
7 0 V
6 0 V
6 0 V
6 0 V
6 0 V
6 0 V
6 0 V
6 0 V
6 0 V
6 0 V
6 0 V
6 0 V
6 0 V
6 0 V
6 0 V
-5644 0 V
6 0 V
6 0 V
6 0 V
6 0 V
6 0 V
6 0 V
6 0 V
7 0 V
6 0 V
6 0 V
6 0 V
6 0 V
6 0 V
6 0 V
6 0 V
6 0 V
6 0 V
6 0 V
6 0 V
6 0 V
6 0 V
6 0 V
6 0 V
7 0 V
6 0 V
6 0 V
6 0 V
6 0 V
6 0 V
6 0 V
6 0 V
6 0 V
6 -1 V
6 0 V
6 0 V
6 0 V
6 0 V
6 0 V
6 0 V
7 -1 V
6 0 V
6 0 V
6 0 V
6 0 V
6 -1 V
6 0 V
6 0 V
6 -1 V
6 0 V
6 -1 V
6 0 V
6 -1 V
6 0 V
6 -1 V
6 -1 V
6 0 V
6 -1 V
7 -1 V
6 -1 V
6 0 V
6 -1 V
6 -1 V
6 -1 V
6 -1 V
stroke 904 1761 M
6 -2 V
6 -1 V
6 -1 V
6 -1 V
6 -1 V
6 -2 V
6 -1 V
6 -2 V
6 -1 V
6 -2 V
6 -1 V
6 -2 V
6 -2 V
6 -1 V
6 -2 V
7 -2 V
6 -2 V
6 -2 V
6 -1 V
6 -2 V
6 -2 V
6 -2 V
6 -2 V
6 -2 V
6 -2 V
6 -2 V
6 -2 V
6 -3 V
6 -2 V
6 -2 V
6 -2 V
6 -2 V
6 -2 V
6 -2 V
6 -2 V
6 -2 V
6 -3 V
6 -2 V
6 -2 V
6 -2 V
6 -2 V
6 -2 V
6 -2 V
6 -2 V
6 -2 V
6 -2 V
6 -2 V
6 -2 V
6 -2 V
6 -2 V
6 -2 V
6 -1 V
6 -2 V
6 -2 V
6 -2 V
6 -2 V
6 -2 V
6 -1 V
6 -2 V
6 -2 V
6 -2 V
6 -2 V
6 -2 V
6 -2 V
6 -2 V
6 -2 V
6 -2 V
6 -2 V
6 -2 V
6 -3 V
6 -2 V
6 -2 V
6 -3 V
6 -2 V
6 -2 V
6 -3 V
6 -2 V
6 -3 V
6 -3 V
6 -2 V
6 -3 V
6 -3 V
6 -2 V
6 -3 V
6 -3 V
6 -2 V
6 -3 V
6 -3 V
6 -2 V
6 -3 V
6 -3 V
6 -2 V
5 -3 V
6 -2 V
6 -3 V
6 -2 V
6 -2 V
6 -2 V
6 -2 V
6 -2 V
6 -2 V
6 -2 V
6 -1 V
6 -2 V
stroke 1528 1548 M
6 -2 V
5 -1 V
6 -1 V
6 -1 V
6 -2 V
6 -1 V
6 0 V
6 -1 V
6 -1 V
6 -1 V
6 0 V
5 -1 V
6 -1 V
6 0 V
6 0 V
6 -1 V
6 0 V
6 0 V
6 -1 V
5 0 V
6 0 V
6 0 V
6 0 V
6 -1 V
6 0 V
5 0 V
6 0 V
6 0 V
6 0 V
6 -1 V
6 0 V
5 0 V
6 0 V
6 0 V
6 0 V
6 0 V
5 0 V
6 0 V
6 0 V
6 0 V
6 0 V
5 0 V
6 0 V
6 0 V
6 1 V
6 0 V
5 1 V
6 0 V
6 1 V
6 1 V
5 1 V
6 1 V
6 1 V
6 2 V
5 2 V
6 1 V
6 2 V
6 3 V
5 2 V
6 3 V
6 3 V
5 3 V
6 3 V
6 3 V
6 4 V
5 4 V
6 4 V
6 4 V
5 4 V
6 5 V
6 4 V
5 5 V
6 5 V
6 5 V
5 5 V
6 5 V
6 5 V
5 6 V
6 5 V
6 6 V
5 5 V
6 6 V
6 5 V
5 6 V
6 6 V
6 6 V
5 6 V
6 6 V
5 6 V
6 7 V
6 6 V
5 6 V
6 7 V
5 7 V
6 6 V
6 7 V
5 8 V
6 7 V
5 7 V
6 8 V
6 7 V
5 8 V
6 8 V
5 8 V
stroke 2125 1800 M
6 8 V
5 8 V
6 9 V
6 8 V
5 9 V
6 9 V
5 8 V
6 9 V
5 9 V
6 10 V
6 9 V
5 9 V
6 9 V
5 10 V
6 9 V
5 10 V
6 10 V
5 9 V
6 10 V
5 10 V
6 9 V
5 10 V
6 10 V
6 10 V
5 9 V
6 10 V
5 10 V
6 10 V
5 10 V
6 10 V
5 10 V
6 10 V
5 10 V
6 10 V
5 10 V
6 10 V
5 10 V
6 11 V
6 10 V
5 11 V
6 10 V
5 11 V
6 11 V
5 10 V
6 11 V
5 11 V
6 11 V
5 12 V
6 11 V
5 11 V
6 12 V
5 11 V
6 11 V
6 12 V
5 11 V
6 11 V
5 12 V
6 11 V
5 10 V
6 11 V
5 10 V
6 10 V
5 10 V
6 9 V
6 9 V
5 9 V
6 8 V
5 8 V
6 7 V
5 7 V
6 6 V
6 6 V
5 6 V
6 5 V
5 4 V
6 5 V
6 4 V
5 3 V
6 3 V
5 3 V
6 3 V
6 2 V
5 2 V
6 2 V
5 2 V
6 2 V
6 1 V
5 2 V
6 1 V
5 1 V
6 1 V
6 1 V
5 1 V
6 1 V
6 1 V
5 1 V
6 0 V
5 1 V
6 1 V
6 1 V
5 1 V
6 0 V
6 1 V
5 1 V
stroke 2704 2565 M
6 0 V
6 1 V
5 1 V
6 0 V
6 1 V
5 1 V
6 0 V
6 1 V
5 1 V
6 0 V
6 1 V
5 1 V
6 0 V
6 1 V
5 0 V
6 1 V
6 1 V
5 0 V
6 1 V
6 0 V
6 1 V
5 1 V
6 0 V
6 1 V
5 0 V
6 1 V
6 0 V
5 1 V
6 0 V
6 1 V
6 0 V
5 1 V
6 1 V
6 0 V
5 1 V
6 0 V
6 0 V
6 1 V
5 0 V
6 1 V
6 0 V
5 1 V
6 0 V
6 1 V
6 0 V
5 1 V
6 0 V
6 0 V
6 1 V
5 0 V
6 1 V
6 0 V
6 0 V
5 1 V
6 0 V
6 1 V
6 0 V
5 0 V
6 1 V
6 0 V
6 0 V
5 1 V
6 0 V
6 0 V
6 1 V
5 0 V
6 0 V
6 0 V
6 1 V
5 0 V
6 0 V
6 0 V
6 1 V
5 0 V
6 0 V
6 0 V
6 1 V
6 0 V
5 0 V
6 0 V
6 1 V
6 0 V
5 0 V
6 0 V
6 0 V
6 0 V
5 1 V
6 0 V
6 0 V
6 0 V
6 0 V
5 0 V
6 0 V
6 1 V
6 0 V
5 0 V
6 0 V
6 0 V
6 0 V
6 0 V
5 0 V
6 0 V
6 0 V
6 0 V
stroke 3301 2604 M
5 0 V
6 0 V
6 0 V
6 0 V
6 0 V
5 0 V
6 0 V
6 0 V
6 0 V
5 0 V
6 0 V
6 0 V
6 0 V
6 0 V
5 0 V
6 0 V
6 0 V
6 0 V
5 0 V
6 0 V
6 0 V
6 0 V
6 0 V
5 -1 V
6 0 V
6 0 V
6 0 V
5 0 V
6 0 V
6 0 V
6 -1 V
6 0 V
5 0 V
6 0 V
6 0 V
6 -1 V
5 0 V
6 0 V
6 0 V
6 0 V
5 -1 V
6 0 V
6 0 V
6 0 V
5 -1 V
6 0 V
6 0 V
6 0 V
6 -1 V
5 0 V
6 0 V
6 -1 V
6 0 V
5 0 V
6 0 V
6 -1 V
6 0 V
5 0 V
6 -1 V
6 0 V
6 -1 V
5 0 V
6 0 V
6 -1 V
6 0 V
5 0 V
6 -1 V
6 0 V
6 -1 V
5 0 V
6 0 V
6 -1 V
5 0 V
6 -1 V
6 0 V
6 -1 V
5 0 V
6 -1 V
6 0 V
6 -1 V
5 0 V
6 -1 V
6 0 V
5 -1 V
6 0 V
6 -1 V
6 0 V
5 -1 V
6 0 V
6 -1 V
5 0 V
6 -1 V
6 0 V
5 -1 V
6 0 V
6 -1 V
6 -1 V
5 0 V
6 -1 V
6 0 V
5 -1 V
6 -1 V
6 0 V
5 -1 V
stroke 3898 2573 M
6 0 V
6 -1 V
5 -1 V
6 0 V
6 -1 V
5 -1 V
6 0 V
6 -1 V
5 -1 V
6 0 V
6 -1 V
5 -1 V
6 0 V
6 -1 V
5 -1 V
6 -1 V
6 0 V
5 -1 V
6 -1 V
6 -1 V
5 0 V
6 -1 V
5 -1 V
6 -1 V
6 -1 V
5 -1 V
6 -1 V
6 -1 V
5 -2 V
6 -1 V
5 -2 V
6 -1 V
6 -2 V
5 -2 V
6 -2 V
5 -3 V
6 -2 V
6 -3 V
5 -3 V
6 -4 V
5 -4 V
6 -4 V
6 -5 V
5 -5 V
6 -6 V
5 -6 V
6 -6 V
5 -7 V
6 -7 V
6 -8 V
5 -8 V
6 -9 V
5 -9 V
6 -10 V
5 -9 V
6 -10 V
6 -11 V
5 -10 V
6 -11 V
5 -11 V
6 -11 V
5 -12 V
6 -11 V
5 -11 V
6 -12 V
5 -11 V
6 -11 V
6 -12 V
5 -11 V
6 -11 V
5 -11 V
6 -11 V
5 -11 V
6 -11 V
5 -11 V
6 -10 V
5 -11 V
6 -10 V
5 -11 V
6 -10 V
5 -10 V
6 -10 V
5 -11 V
6 -10 V
6 -10 V
5 -10 V
6 -10 V
5 -10 V
6 -9 V
5 -10 V
6 -10 V
5 -10 V
6 -10 V
5 -10 V
6 -9 V
5 -10 V
6 -10 V
5 -10 V
6 -9 V
6 -10 V
5 -10 V
6 -9 V
5 -10 V
6 -9 V
stroke 4479 1913 M
5 -9 V
6 -10 V
5 -9 V
6 -9 V
6 -9 V
5 -9 V
6 -9 V
5 -9 V
6 -8 V
5 -9 V
6 -8 V
5 -8 V
6 -8 V
6 -8 V
5 -8 V
6 -8 V
5 -8 V
6 -7 V
6 -7 V
5 -8 V
6 -7 V
5 -7 V
6 -6 V
6 -7 V
5 -7 V
6 -6 V
5 -6 V
6 -7 V
6 -6 V
5 -6 V
6 -6 V
5 -6 V
6 -6 V
6 -5 V
5 -6 V
6 -6 V
6 -5 V
5 -6 V
6 -5 V
6 -6 V
5 -5 V
6 -5 V
6 -5 V
5 -5 V
6 -5 V
6 -4 V
5 -5 V
6 -5 V
6 -4 V
5 -4 V
6 -4 V
6 -4 V
6 -3 V
5 -4 V
6 -3 V
6 -3 V
5 -3 V
6 -2 V
6 -3 V
6 -2 V
5 -2 V
6 -2 V
6 -1 V
6 -2 V
5 -1 V
6 -1 V
6 -1 V
6 -1 V
5 -1 V
6 -1 V
6 0 V
6 0 V
5 -1 V
6 0 V
6 0 V
6 0 V
6 0 V
5 0 V
6 0 V
6 0 V
6 0 V
6 0 V
5 0 V
6 0 V
6 0 V
6 0 V
6 0 V
5 1 V
6 0 V
6 0 V
6 0 V
6 0 V
6 0 V
5 1 V
6 0 V
6 0 V
6 0 V
6 0 V
6 1 V
6 0 V
6 0 V
5 1 V
6 0 V
6 1 V
stroke 5072 1536 M
6 0 V
6 1 V
6 0 V
6 1 V
6 1 V
5 1 V
6 1 V
6 1 V
6 1 V
6 1 V
6 1 V
6 2 V
6 1 V
6 2 V
6 1 V
6 2 V
5 2 V
6 2 V
6 2 V
6 2 V
6 3 V
6 2 V
6 2 V
6 3 V
6 2 V
6 3 V
6 2 V
6 3 V
6 3 V
6 2 V
6 3 V
6 3 V
6 2 V
5 3 V
6 3 V
6 2 V
6 3 V
6 3 V
6 2 V
6 3 V
6 3 V
6 2 V
6 2 V
6 3 V
6 2 V
6 3 V
6 2 V
6 2 V
6 2 V
6 2 V
6 2 V
6 2 V
6 2 V
6 2 V
6 2 V
6 2 V
6 2 V
6 2 V
6 2 V
6 2 V
6 1 V
6 2 V
6 2 V
6 2 V
6 2 V
6 2 V
6 2 V
6 2 V
6 1 V
6 2 V
6 2 V
6 2 V
6 2 V
6 2 V
6 2 V
6 2 V
6 2 V
6 3 V
6 2 V
6 2 V
6 2 V
6 2 V
6 2 V
6 2 V
6 2 V
6 2 V
6 3 V
6 2 V
6 2 V
7 2 V
6 2 V
6 2 V
6 2 V
6 2 V
6 2 V
6 2 V
6 2 V
6 2 V
6 2 V
6 2 V
6 1 V
6 2 V
6 2 V
6 2 V
stroke 5694 1743 M
6 1 V
6 2 V
6 1 V
6 2 V
6 2 V
6 1 V
6 1 V
6 2 V
6 1 V
6 1 V
7 1 V
6 2 V
6 1 V
6 1 V
6 1 V
6 1 V
6 1 V
6 1 V
6 0 V
6 1 V
6 1 V
6 1 V
6 0 V
6 1 V
6 0 V
6 1 V
6 0 V
6 1 V
6 0 V
7 1 V
6 0 V
6 0 V
6 1 V
6 0 V
6 0 V
6 0 V
6 1 V
6 0 V
6 0 V
6 0 V
6 0 V
6 0 V
6 0 V
6 0 V
6 1 V
6 0 V
7 0 V
6 0 V
6 0 V
6 0 V
6 0 V
6 0 V
6 0 V
6 0 V
6 0 V
6 0 V
6 0 V
6 0 V
6 0 V
6 0 V
6 0 V
6 0 V
7 0 V
6 0 V
6 0 V
6 0 V
6 0 V
6 0 V
6 0 V
6 0 V
6 0 V
6 0 V
6 0 V
6 0 V
6 0 V
6 0 V
6 0 V
-5644 0 V
6 0 V
6 0 V
6 0 V
5 0 V
6 0 V
6 0 V
6 0 V
6 0 V
6 0 V
5 0 V
6 0 V
6 0 V
6 0 V
6 0 V
6 0 V
6 0 V
5 0 V
6 0 V
6 0 V
6 0 V
6 0 V
6 0 V
6 0 V
5 0 V
6 0 V
6 0 V
stroke 668 1776 M
6 0 V
6 0 V
6 0 V
5 0 V
6 0 V
6 0 V
6 0 V
6 0 V
6 0 V
6 0 V
5 0 V
6 0 V
6 0 V
6 0 V
6 0 V
6 -1 V
5 0 V
6 0 V
6 0 V
6 0 V
6 0 V
6 0 V
5 0 V
6 -1 V
6 0 V
6 0 V
6 0 V
6 -1 V
6 0 V
5 0 V
6 -1 V
6 0 V
6 -1 V
6 0 V
6 -1 V
5 0 V
6 -1 V
6 -1 V
6 -1 V
6 -1 V
6 -1 V
5 -1 V
6 -1 V
6 -1 V
6 -1 V
6 -2 V
6 -1 V
5 -2 V
6 -1 V
6 -2 V
6 -2 V
6 -1 V
6 -2 V
5 -2 V
6 -2 V
6 -3 V
6 -2 V
6 -2 V
6 -2 V
5 -3 V
6 -2 V
6 -3 V
6 -3 V
6 -2 V
6 -3 V
5 -3 V
6 -3 V
6 -3 V
6 -3 V
6 -2 V
5 -4 V
6 -3 V
6 -3 V
6 -3 V
6 -3 V
6 -3 V
5 -3 V
6 -3 V
6 -4 V
6 -3 V
6 -3 V
5 -3 V
6 -4 V
6 -3 V
6 -3 V
6 -3 V
6 -4 V
5 -3 V
6 -3 V
6 -3 V
6 -4 V
6 -3 V
5 -3 V
6 -3 V
6 -4 V
6 -3 V
6 -3 V
5 -3 V
6 -3 V
6 -3 V
6 -4 V
6 -3 V
5 -3 V
6 -3 V
stroke 1274 1596 M
6 -4 V
6 -3 V
6 -3 V
5 -4 V
6 -3 V
6 -4 V
6 -3 V
5 -4 V
6 -4 V
6 -3 V
6 -4 V
6 -4 V
5 -4 V
6 -4 V
6 -4 V
6 -4 V
5 -4 V
6 -4 V
6 -4 V
6 -5 V
5 -4 V
6 -4 V
6 -4 V
6 -4 V
6 -4 V
5 -4 V
6 -4 V
6 -4 V
6 -4 V
5 -3 V
6 -4 V
6 -3 V
5 -3 V
6 -3 V
6 -3 V
6 -3 V
5 -3 V
6 -2 V
6 -2 V
6 -2 V
5 -2 V
6 -2 V
6 -2 V
6 -1 V
5 -2 V
6 -1 V
6 -1 V
5 -1 V
6 -1 V
6 -1 V
6 0 V
5 -1 V
6 0 V
6 -1 V
5 0 V
6 0 V
6 -1 V
5 0 V
6 0 V
6 0 V
5 -1 V
6 0 V
6 0 V
5 0 V
6 0 V
6 0 V
5 -1 V
6 0 V
6 0 V
5 0 V
6 0 V
6 -1 V
5 0 V
6 0 V
6 -1 V
5 0 V
6 0 V
6 0 V
5 -1 V
6 0 V
5 0 V
6 -1 V
6 0 V
5 0 V
6 -1 V
6 0 V
5 0 V
6 0 V
5 -1 V
6 0 V
6 0 V
5 0 V
6 0 V
5 0 V
6 1 V
5 0 V
6 0 V
6 1 V
5 1 V
6 1 V
5 1 V
6 2 V
5 1 V
6 2 V
stroke 1866 1438 M
6 2 V
5 3 V
6 3 V
5 3 V
6 3 V
5 4 V
6 4 V
5 4 V
6 5 V
5 5 V
6 5 V
5 6 V
6 6 V
5 6 V
6 6 V
5 7 V
6 6 V
5 7 V
6 7 V
5 7 V
6 8 V
5 7 V
6 7 V
5 8 V
6 7 V
5 8 V
6 7 V
5 8 V
6 7 V
5 8 V
5 8 V
6 7 V
5 8 V
6 8 V
5 8 V
6 8 V
5 8 V
5 9 V
6 8 V
5 9 V
6 8 V
5 9 V
6 10 V
5 9 V
5 10 V
6 10 V
5 10 V
6 10 V
5 11 V
5 11 V
6 11 V
5 11 V
6 12 V
5 11 V
5 12 V
6 12 V
5 13 V
6 12 V
5 13 V
5 13 V
6 13 V
5 13 V
5 13 V
6 13 V
5 13 V
6 13 V
5 14 V
5 13 V
6 13 V
5 13 V
5 14 V
6 13 V
5 13 V
6 13 V
5 13 V
5 14 V
6 13 V
5 13 V
5 13 V
6 13 V
5 14 V
5 13 V
6 14 V
5 13 V
6 14 V
5 14 V
5 13 V
6 15 V
5 14 V
5 14 V
6 15 V
5 15 V
5 15 V
6 16 V
5 15 V
5 16 V
6 16 V
5 15 V
6 16 V
5 16 V
5 16 V
6 16 V
5 16 V
5 16 V
stroke 2429 2531 M
6 15 V
5 15 V
6 15 V
5 14 V
5 14 V
6 13 V
5 12 V
6 12 V
5 11 V
5 11 V
6 10 V
5 9 V
5 8 V
6 8 V
5 7 V
6 6 V
5 6 V
5 5 V
6 5 V
5 4 V
6 4 V
5 3 V
6 3 V
5 3 V
5 2 V
6 2 V
5 2 V
6 2 V
5 1 V
6 2 V
5 1 V
5 1 V
6 2 V
5 1 V
6 1 V
5 1 V
6 1 V
5 1 V
6 1 V
5 1 V
5 1 V
6 0 V
5 1 V
6 1 V
5 1 V
6 1 V
5 1 V
6 1 V
5 1 V
6 0 V
5 1 V
6 1 V
5 1 V
6 1 V
5 1 V
6 0 V
5 1 V
5 1 V
6 1 V
5 1 V
6 0 V
5 1 V
6 1 V
5 1 V
6 0 V
5 1 V
6 1 V
5 1 V
6 0 V
5 1 V
6 1 V
5 0 V
6 1 V
6 1 V
5 0 V
6 1 V
5 1 V
6 0 V
5 1 V
6 1 V
5 0 V
6 1 V
5 1 V
6 0 V
5 1 V
6 0 V
5 1 V
6 1 V
5 0 V
6 1 V
5 0 V
6 1 V
6 0 V
5 1 V
6 1 V
5 0 V
6 1 V
5 0 V
6 1 V
5 0 V
6 1 V
5 0 V
6 1 V
6 0 V
stroke 2999 2810 M
5 1 V
6 0 V
5 0 V
6 1 V
5 0 V
6 1 V
5 0 V
6 1 V
6 0 V
5 0 V
6 1 V
5 0 V
6 1 V
5 0 V
6 0 V
6 1 V
5 0 V
6 0 V
5 1 V
6 0 V
5 0 V
6 1 V
6 0 V
5 0 V
6 0 V
5 1 V
6 0 V
5 0 V
6 1 V
6 0 V
5 0 V
6 0 V
5 0 V
6 1 V
5 0 V
6 0 V
6 0 V
5 0 V
6 1 V
5 0 V
6 0 V
6 0 V
5 0 V
6 0 V
5 1 V
6 0 V
5 0 V
6 0 V
6 0 V
5 0 V
6 0 V
5 0 V
6 0 V
6 0 V
5 0 V
6 0 V
5 0 V
6 1 V
6 0 V
5 0 V
6 0 V
5 0 V
6 0 V
5 0 V
6 -1 V
6 0 V
5 0 V
6 0 V
5 0 V
6 0 V
6 0 V
5 0 V
6 0 V
5 0 V
6 0 V
5 0 V
6 0 V
6 -1 V
5 0 V
6 0 V
5 0 V
6 0 V
6 0 V
5 -1 V
6 0 V
5 0 V
6 0 V
5 0 V
6 -1 V
6 0 V
5 0 V
6 0 V
5 -1 V
6 0 V
5 0 V
6 0 V
6 -1 V
5 0 V
6 0 V
5 0 V
6 -1 V
6 0 V
5 0 V
6 -1 V
stroke 3579 2817 M
5 0 V
6 0 V
5 -1 V
6 0 V
5 -1 V
6 0 V
6 0 V
5 -1 V
6 0 V
5 -1 V
6 0 V
5 0 V
6 -1 V
6 0 V
5 -1 V
6 0 V
5 -1 V
6 0 V
5 -1 V
6 0 V
5 -1 V
6 0 V
6 -1 V
5 0 V
6 -1 V
5 0 V
6 -1 V
5 0 V
6 -1 V
5 0 V
6 -1 V
5 0 V
6 -1 V
5 -1 V
6 0 V
6 -1 V
5 0 V
6 -1 V
5 -1 V
6 0 V
5 -1 V
6 0 V
5 -1 V
6 -1 V
5 0 V
6 -1 V
5 -1 V
6 0 V
5 -1 V
6 -1 V
5 -1 V
6 0 V
5 -1 V
6 -1 V
5 0 V
6 -1 V
5 -1 V
6 -1 V
5 0 V
6 -1 V
5 -1 V
6 -1 V
5 -1 V
6 0 V
5 -1 V
6 -1 V
5 -1 V
6 -1 V
5 0 V
6 -1 V
5 -1 V
6 -1 V
5 -1 V
6 -1 V
5 0 V
6 -1 V
5 -1 V
5 -1 V
6 -1 V
5 -1 V
6 -1 V
5 -1 V
6 -1 V
5 -1 V
6 -1 V
5 -1 V
6 -1 V
5 -1 V
5 -1 V
6 -1 V
5 -1 V
6 -2 V
5 -1 V
6 -2 V
5 -2 V
5 -2 V
6 -2 V
5 -2 V
6 -3 V
5 -3 V
6 -3 V
5 -4 V
5 -5 V
6 -4 V
stroke 4151 2721 M
5 -6 V
6 -6 V
5 -6 V
5 -8 V
6 -7 V
5 -9 V
6 -9 V
5 -10 V
5 -11 V
6 -12 V
5 -12 V
6 -12 V
5 -14 V
5 -14 V
6 -14 V
5 -15 V
5 -15 V
6 -15 V
5 -16 V
6 -16 V
5 -16 V
5 -16 V
6 -16 V
5 -16 V
5 -16 V
6 -15 V
5 -16 V
6 -15 V
5 -16 V
5 -15 V
6 -15 V
5 -14 V
5 -15 V
6 -14 V
5 -14 V
5 -14 V
6 -14 V
5 -13 V
6 -14 V
5 -13 V
5 -14 V
6 -13 V
5 -13 V
5 -13 V
6 -14 V
5 -13 V
5 -13 V
6 -13 V
5 -13 V
5 -13 V
6 -14 V
5 -13 V
6 -13 V
5 -13 V
5 -14 V
6 -13 V
5 -13 V
5 -13 V
6 -14 V
5 -13 V
6 -13 V
5 -12 V
5 -13 V
6 -13 V
5 -12 V
5 -13 V
6 -12 V
5 -12 V
6 -11 V
5 -12 V
5 -11 V
6 -11 V
5 -11 V
6 -10 V
5 -11 V
5 -10 V
6 -9 V
5 -10 V
6 -9 V
5 -10 V
6 -9 V
5 -8 V
5 -9 V
6 -8 V
5 -9 V
6 -8 V
5 -8 V
6 -8 V
5 -7 V
5 -8 V
6 -8 V
5 -8 V
6 -7 V
5 -8 V
6 -7 V
5 -8 V
6 -7 V
5 -8 V
6 -7 V
5 -7 V
6 -8 V
5 -7 V
6 -7 V
5 -7 V
stroke 4712 1521 M
6 -7 V
5 -6 V
6 -7 V
5 -6 V
6 -6 V
5 -6 V
6 -5 V
5 -6 V
6 -4 V
5 -5 V
6 -4 V
5 -4 V
6 -4 V
5 -3 V
6 -3 V
5 -3 V
6 -2 V
5 -2 V
6 -2 V
6 -2 V
5 -1 V
6 -1 V
5 -1 V
6 -1 V
5 -1 V
6 0 V
5 0 V
6 -1 V
6 0 V
5 0 V
6 0 V
5 0 V
6 0 V
6 1 V
5 0 V
6 0 V
5 0 V
6 1 V
6 0 V
5 0 V
6 1 V
6 0 V
5 0 V
6 1 V
5 0 V
6 0 V
6 1 V
5 0 V
6 0 V
6 0 V
5 1 V
6 0 V
6 0 V
5 0 V
6 0 V
6 1 V
5 0 V
6 0 V
6 0 V
5 0 V
6 0 V
6 1 V
5 0 V
6 0 V
6 0 V
5 1 V
6 0 V
6 0 V
5 1 V
6 0 V
6 1 V
6 1 V
5 0 V
6 1 V
6 1 V
5 1 V
6 2 V
6 1 V
6 2 V
5 1 V
6 2 V
6 2 V
6 2 V
5 3 V
6 2 V
6 3 V
5 3 V
6 3 V
6 3 V
6 3 V
5 3 V
6 4 V
6 4 V
6 3 V
5 4 V
6 4 V
6 4 V
6 4 V
5 4 V
6 4 V
6 5 V
6 4 V
5 4 V
6 4 V
stroke 5299 1530 M
6 4 V
6 4 V
6 4 V
5 4 V
6 4 V
6 4 V
6 4 V
5 4 V
6 4 V
6 3 V
6 4 V
6 4 V
5 3 V
6 3 V
6 4 V
6 3 V
6 4 V
5 3 V
6 3 V
6 3 V
6 3 V
5 4 V
6 3 V
6 3 V
6 3 V
6 3 V
5 4 V
6 3 V
6 3 V
6 3 V
6 3 V
5 4 V
6 3 V
6 3 V
6 3 V
6 4 V
6 3 V
5 3 V
6 3 V
6 4 V
6 3 V
6 3 V
5 3 V
6 4 V
6 3 V
6 3 V
6 3 V
5 3 V
6 3 V
6 3 V
6 3 V
6 3 V
6 3 V
5 3 V
6 3 V
6 3 V
6 3 V
6 3 V
6 2 V
5 3 V
6 2 V
6 3 V
6 2 V
6 3 V
6 2 V
5 2 V
6 2 V
6 2 V
6 2 V
6 2 V
5 2 V
6 2 V
6 1 V
6 2 V
6 1 V
6 2 V
5 1 V
6 1 V
6 2 V
6 1 V
6 1 V
6 1 V
6 0 V
5 1 V
6 1 V
6 1 V
6 0 V
6 1 V
6 1 V
5 0 V
6 0 V
6 1 V
6 0 V
6 1 V
6 0 V
5 0 V
6 0 V
6 1 V
6 0 V
6 0 V
6 0 V
5 0 V
6 0 V
6 0 V
stroke 5904 1775 M
6 0 V
6 0 V
6 1 V
6 0 V
5 0 V
6 0 V
6 0 V
6 0 V
6 0 V
6 0 V
5 0 V
6 0 V
6 0 V
6 0 V
6 0 V
6 0 V
6 0 V
5 0 V
6 0 V
6 0 V
6 0 V
6 0 V
6 0 V
5 0 V
6 0 V
6 0 V
6 0 V
6 0 V
6 0 V
6 0 V
5 0 V
6 0 V
6 0 V
6 0 V
6 0 V
6 0 V
6 0 V
5 0 V
6 0 V
6 0 V
6 0 V
6 0 V
6 0 V
-5640 0 V
6 0 V
5 0 V
6 0 V
6 0 V
5 0 V
6 0 V
6 0 V
6 0 V
5 0 V
6 0 V
6 0 V
5 0 V
6 0 V
6 0 V
5 0 V
6 0 V
6 0 V
5 0 V
6 0 V
6 0 V
5 0 V
6 0 V
6 0 V
6 0 V
5 0 V
6 0 V
6 0 V
5 0 V
6 0 V
6 0 V
5 0 V
6 0 V
6 0 V
5 0 V
6 0 V
6 0 V
6 0 V
5 0 V
6 0 V
6 0 V
5 0 V
6 0 V
6 0 V
5 0 V
6 0 V
6 -1 V
5 0 V
6 0 V
6 0 V
5 0 V
6 0 V
6 0 V
5 0 V
6 0 V
6 0 V
6 0 V
5 0 V
6 -1 V
6 0 V
5 0 V
stroke 857 1774 M
6 0 V
6 -1 V
5 0 V
6 -1 V
6 0 V
5 -1 V
6 0 V
6 -1 V
5 -1 V
6 0 V
6 -1 V
5 -1 V
6 -1 V
6 -2 V
5 -1 V
6 -1 V
6 -2 V
5 -1 V
6 -2 V
6 -2 V
6 -2 V
5 -2 V
6 -2 V
6 -2 V
5 -3 V
6 -2 V
6 -3 V
5 -2 V
6 -3 V
6 -3 V
5 -3 V
6 -4 V
6 -3 V
5 -3 V
6 -4 V
6 -3 V
5 -4 V
6 -4 V
6 -3 V
5 -4 V
6 -4 V
6 -4 V
5 -4 V
6 -4 V
6 -4 V
5 -5 V
6 -4 V
6 -4 V
5 -4 V
6 -5 V
6 -4 V
5 -5 V
6 -4 V
6 -4 V
5 -5 V
6 -4 V
5 -5 V
6 -5 V
6 -4 V
5 -5 V
6 -4 V
6 -5 V
5 -4 V
6 -5 V
6 -5 V
5 -4 V
6 -5 V
6 -4 V
5 -5 V
6 -5 V
6 -4 V
5 -5 V
6 -5 V
5 -5 V
6 -4 V
6 -5 V
5 -5 V
6 -5 V
6 -5 V
5 -5 V
6 -6 V
6 -5 V
5 -5 V
6 -6 V
5 -5 V
6 -6 V
6 -5 V
5 -6 V
6 -5 V
6 -6 V
5 -6 V
6 -6 V
5 -5 V
6 -6 V
6 -6 V
5 -5 V
6 -6 V
6 -5 V
5 -5 V
6 -5 V
5 -5 V
6 -5 V
6 -5 V
5 -4 V
stroke 1445 1386 M
6 -4 V
5 -4 V
6 -4 V
6 -3 V
5 -4 V
6 -3 V
5 -2 V
6 -3 V
5 -2 V
6 -2 V
6 -2 V
5 -2 V
6 -1 V
5 -2 V
6 -1 V
5 -1 V
6 -1 V
6 0 V
5 -1 V
6 0 V
5 -1 V
6 0 V
5 -1 V
6 0 V
6 0 V
5 0 V
6 0 V
5 -1 V
6 0 V
5 0 V
6 0 V
5 0 V
6 0 V
5 0 V
6 -1 V
5 0 V
6 0 V
6 0 V
5 -1 V
6 0 V
5 0 V
6 -1 V
5 0 V
6 0 V
5 -1 V
6 0 V
5 0 V
6 -1 V
5 0 V
6 -1 V
5 0 V
6 -1 V
5 0 V
6 -1 V
5 0 V
5 0 V
6 -1 V
5 0 V
6 -1 V
5 0 V
6 -1 V
5 0 V
6 0 V
5 -1 V
6 0 V
5 0 V
6 0 V
5 0 V
5 0 V
6 0 V
5 0 V
6 0 V
5 1 V
6 1 V
5 1 V
5 1 V
6 2 V
5 2 V
6 2 V
5 2 V
5 3 V
6 4 V
5 4 V
6 4 V
5 5 V
5 5 V
6 6 V
5 6 V
6 6 V
5 8 V
5 7 V
6 8 V
5 8 V
5 8 V
6 9 V
5 9 V
5 9 V
6 10 V
5 9 V
5 10 V
6 9 V
5 10 V
5 9 V
6 10 V
stroke 2015 1517 M
5 10 V
5 9 V
6 10 V
5 9 V
5 10 V
6 9 V
5 10 V
5 9 V
6 10 V
5 9 V
5 10 V
6 10 V
5 9 V
5 11 V
5 10 V
6 10 V
5 11 V
5 11 V
6 11 V
5 12 V
5 12 V
5 12 V
6 13 V
5 13 V
5 13 V
5 14 V
6 14 V
5 14 V
5 15 V
5 15 V
6 15 V
5 16 V
5 16 V
6 16 V
5 16 V
5 16 V
5 17 V
5 16 V
6 17 V
5 16 V
5 17 V
5 17 V
6 16 V
5 17 V
5 16 V
5 16 V
6 17 V
5 16 V
5 16 V
5 16 V
6 17 V
5 16 V
5 16 V
5 16 V
6 17 V
5 16 V
5 17 V
5 17 V
5 17 V
6 18 V
5 17 V
5 18 V
5 19 V
6 18 V
5 19 V
5 20 V
5 19 V
6 20 V
5 21 V
5 20 V
5 21 V
5 21 V
6 21 V
5 21 V
5 20 V
5 21 V
6 21 V
5 20 V
5 19 V
5 19 V
6 19 V
5 17 V
5 17 V
5 16 V
6 15 V
5 14 V
5 13 V
5 11 V
6 11 V
5 10 V
5 9 V
5 8 V
6 7 V
5 7 V
5 5 V
6 5 V
5 5 V
5 4 V
5 3 V
6 3 V
5 3 V
5 2 V
6 2 V
5 2 V
stroke 2562 2947 M
5 2 V
5 2 V
6 1 V
5 2 V
5 1 V
6 1 V
5 1 V
5 2 V
6 1 V
5 1 V
5 1 V
5 1 V
6 1 V
5 1 V
5 1 V
6 1 V
5 2 V
5 1 V
6 1 V
5 1 V
5 1 V
6 1 V
5 1 V
5 1 V
6 1 V
5 1 V
5 1 V
6 1 V
5 1 V
5 0 V
6 1 V
5 1 V
5 1 V
6 1 V
5 1 V
5 1 V
6 1 V
5 1 V
6 1 V
5 1 V
5 0 V
6 1 V
5 1 V
5 1 V
6 1 V
5 1 V
5 1 V
6 0 V
5 1 V
6 1 V
5 1 V
5 1 V
6 0 V
5 1 V
5 1 V
6 1 V
5 0 V
6 1 V
5 1 V
5 1 V
6 0 V
5 1 V
6 1 V
5 0 V
5 1 V
6 1 V
5 0 V
6 1 V
5 1 V
5 0 V
6 1 V
5 1 V
6 0 V
5 1 V
5 0 V
6 1 V
5 1 V
6 0 V
5 1 V
5 0 V
6 1 V
5 0 V
6 1 V
5 1 V
5 0 V
6 1 V
5 0 V
6 1 V
5 0 V
6 1 V
5 0 V
5 0 V
6 1 V
5 0 V
6 1 V
5 0 V
6 1 V
5 0 V
5 0 V
6 1 V
5 0 V
6 1 V
5 0 V
6 0 V
stroke 3121 3030 M
5 1 V
5 0 V
6 0 V
5 1 V
6 0 V
5 0 V
6 1 V
5 0 V
5 0 V
6 0 V
5 1 V
6 0 V
5 0 V
6 0 V
5 1 V
5 0 V
6 0 V
5 0 V
6 0 V
5 1 V
6 0 V
5 0 V
6 0 V
5 0 V
5 0 V
6 1 V
5 0 V
6 0 V
5 0 V
6 0 V
5 0 V
6 0 V
5 0 V
5 0 V
6 0 V
5 0 V
6 0 V
5 0 V
6 0 V
5 0 V
5 0 V
6 0 V
5 0 V
6 0 V
5 0 V
6 0 V
5 0 V
6 0 V
5 0 V
5 0 V
6 0 V
5 0 V
6 0 V
5 0 V
6 -1 V
5 0 V
6 0 V
5 0 V
5 0 V
6 0 V
5 -1 V
6 0 V
5 0 V
6 0 V
5 0 V
5 -1 V
6 0 V
5 0 V
6 0 V
5 -1 V
6 0 V
5 0 V
6 0 V
5 -1 V
5 0 V
6 0 V
5 -1 V
6 0 V
5 0 V
6 -1 V
5 0 V
5 0 V
6 -1 V
5 0 V
6 -1 V
5 0 V
6 0 V
5 -1 V
5 0 V
6 -1 V
5 0 V
6 -1 V
5 0 V
6 -1 V
5 0 V
5 0 V
6 -1 V
5 0 V
6 -1 V
5 -1 V
5 0 V
6 -1 V
5 0 V
6 -1 V
stroke 3686 3019 M
5 0 V
5 -1 V
6 0 V
5 -1 V
6 -1 V
5 0 V
6 -1 V
5 0 V
5 -1 V
6 -1 V
5 0 V
6 -1 V
5 -1 V
5 0 V
6 -1 V
5 -1 V
5 0 V
6 -1 V
5 -1 V
6 -1 V
5 0 V
5 -1 V
6 -1 V
5 0 V
6 -1 V
5 -1 V
5 -1 V
6 -1 V
5 0 V
5 -1 V
6 -1 V
5 -1 V
6 -1 V
5 0 V
5 -1 V
6 -1 V
5 -1 V
5 -1 V
6 -1 V
5 -1 V
6 0 V
5 -1 V
5 -1 V
6 -1 V
5 -1 V
5 -1 V
6 -1 V
5 -1 V
5 -1 V
6 -1 V
5 -1 V
5 -1 V
6 -1 V
5 0 V
5 -1 V
6 -1 V
5 -1 V
5 -1 V
6 -1 V
5 -1 V
5 -2 V
6 -1 V
5 -1 V
5 -1 V
6 -1 V
5 -1 V
5 -1 V
6 -1 V
5 -1 V
5 -1 V
6 -1 V
5 -1 V
5 -2 V
5 -1 V
6 -1 V
5 -1 V
5 -2 V
6 -1 V
5 -2 V
5 -2 V
6 -2 V
5 -2 V
5 -2 V
5 -3 V
6 -3 V
5 -4 V
5 -4 V
6 -4 V
5 -5 V
5 -6 V
5 -6 V
6 -8 V
5 -8 V
5 -9 V
5 -10 V
6 -11 V
5 -12 V
5 -13 V
5 -14 V
6 -15 V
5 -16 V
5 -17 V
5 -17 V
6 -19 V
stroke 4241 2737 M
5 -19 V
5 -19 V
5 -21 V
6 -20 V
5 -21 V
5 -21 V
5 -20 V
6 -21 V
5 -21 V
5 -21 V
5 -20 V
6 -21 V
5 -20 V
5 -19 V
5 -20 V
5 -19 V
6 -18 V
5 -18 V
5 -18 V
5 -18 V
6 -18 V
5 -17 V
5 -17 V
5 -16 V
6 -17 V
5 -16 V
5 -17 V
5 -16 V
5 -16 V
6 -16 V
5 -16 V
5 -17 V
5 -16 V
6 -16 V
5 -17 V
5 -16 V
5 -17 V
6 -16 V
5 -17 V
5 -16 V
5 -17 V
6 -16 V
5 -17 V
5 -16 V
5 -17 V
6 -16 V
5 -16 V
5 -16 V
5 -15 V
6 -15 V
5 -15 V
5 -15 V
5 -15 V
6 -14 V
5 -13 V
5 -14 V
5 -13 V
6 -12 V
5 -13 V
5 -11 V
6 -12 V
5 -11 V
5 -11 V
5 -11 V
6 -10 V
5 -11 V
5 -10 V
6 -9 V
5 -10 V
5 -10 V
5 -9 V
6 -10 V
5 -9 V
5 -10 V
6 -9 V
5 -10 V
5 -9 V
6 -10 V
5 -9 V
5 -10 V
6 -10 V
5 -9 V
5 -10 V
6 -9 V
5 -10 V
5 -9 V
6 -10 V
5 -9 V
5 -9 V
6 -9 V
5 -8 V
5 -8 V
6 -8 V
5 -7 V
6 -7 V
5 -7 V
5 -6 V
6 -6 V
5 -5 V
5 -4 V
6 -5 V
5 -4 V
6 -3 V
5 -3 V
stroke 4790 1341 M
5 -2 V
6 -3 V
5 -1 V
6 -2 V
5 -1 V
6 -1 V
5 -1 V
5 -1 V
6 0 V
5 0 V
6 0 V
5 0 V
6 0 V
5 0 V
5 0 V
6 0 V
5 1 V
6 0 V
5 0 V
6 1 V
5 0 V
6 1 V
5 0 V
6 1 V
5 0 V
6 1 V
5 0 V
6 0 V
5 1 V
6 0 V
5 1 V
5 0 V
6 1 V
5 0 V
6 0 V
6 1 V
5 0 V
6 0 V
5 1 V
6 0 V
5 0 V
6 1 V
5 0 V
6 0 V
5 0 V
6 1 V
5 0 V
6 0 V
5 0 V
6 0 V
5 0 V
6 1 V
5 0 V
6 0 V
6 0 V
5 0 V
6 0 V
5 1 V
6 0 V
5 1 V
6 0 V
5 1 V
6 0 V
6 1 V
5 1 V
6 1 V
5 2 V
6 1 V
5 2 V
6 2 V
6 2 V
5 2 V
6 3 V
5 3 V
6 3 V
6 3 V
5 3 V
6 4 V
5 4 V
6 4 V
6 5 V
5 4 V
6 5 V
5 5 V
6 5 V
6 5 V
5 6 V
6 5 V
5 6 V
6 6 V
6 5 V
5 6 V
6 6 V
6 5 V
5 6 V
6 6 V
5 5 V
6 6 V
6 6 V
5 5 V
6 5 V
6 6 V
5 5 V
6 5 V
stroke 5366 1515 M
5 5 V
6 5 V
6 5 V
5 5 V
6 5 V
6 5 V
5 5 V
6 4 V
6 5 V
5 5 V
6 4 V
5 5 V
6 5 V
6 4 V
5 5 V
6 4 V
6 5 V
5 5 V
6 4 V
6 5 V
5 4 V
6 5 V
6 4 V
5 5 V
6 4 V
6 5 V
5 4 V
6 5 V
6 4 V
5 5 V
6 4 V
6 4 V
5 5 V
6 4 V
6 4 V
5 4 V
6 4 V
6 4 V
5 4 V
6 4 V
6 4 V
5 4 V
6 4 V
6 3 V
5 4 V
6 3 V
6 4 V
5 3 V
6 3 V
6 3 V
5 3 V
6 3 V
6 3 V
5 2 V
6 3 V
6 2 V
5 2 V
6 2 V
6 2 V
5 2 V
6 2 V
6 2 V
5 1 V
6 2 V
6 1 V
5 2 V
6 1 V
6 1 V
5 1 V
6 1 V
6 0 V
5 1 V
6 1 V
6 0 V
5 1 V
6 0 V
6 1 V
5 0 V
6 1 V
6 0 V
6 0 V
5 0 V
6 1 V
6 0 V
5 0 V
6 0 V
6 0 V
5 0 V
6 0 V
6 0 V
5 0 V
6 0 V
6 0 V
5 0 V
6 1 V
6 0 V
5 0 V
6 0 V
6 0 V
6 0 V
5 0 V
6 0 V
6 0 V
5 0 V
stroke 5955 1776 M
6 0 V
6 0 V
5 0 V
6 0 V
6 0 V
5 0 V
6 0 V
6 0 V
5 0 V
6 0 V
6 0 V
6 0 V
5 0 V
6 0 V
6 0 V
5 0 V
6 0 V
6 0 V
5 0 V
6 0 V
6 0 V
5 0 V
6 0 V
6 0 V
6 0 V
5 0 V
6 0 V
6 0 V
5 0 V
6 0 V
6 0 V
5 0 V
6 0 V
6 0 V
5 0 V
6 0 V
516 1775 L
6 0 V
5 0 V
6 0 V
5 0 V
6 0 V
5 0 V
6 0 V
6 0 V
5 0 V
6 0 V
5 0 V
6 0 V
5 0 V
6 0 V
5 0 V
6 0 V
6 0 V
5 0 V
6 0 V
5 0 V
6 0 V
5 0 V
6 0 V
6 0 V
5 0 V
6 0 V
5 0 V
6 0 V
5 0 V
6 0 V
6 0 V
5 0 V
6 0 V
5 0 V
6 0 V
5 0 V
6 0 V
5 0 V
6 0 V
6 0 V
5 0 V
6 0 V
5 0 V
6 0 V
5 0 V
6 0 V
6 0 V
5 0 V
6 0 V
5 0 V
6 0 V
5 0 V
6 0 V
5 0 V
6 0 V
6 0 V
5 0 V
6 0 V
5 0 V
6 0 V
5 0 V
6 0 V
5 -1 V
6 0 V
6 0 V
5 0 V
6 -1 V
5 0 V
6 0 V
5 -1 V
6 0 V
5 -1 V
6 0 V
6 -1 V
5 -1 V
6 -1 V
5 -1 V
6 -1 V
5 -1 V
6 -2 V
5 -1 V
6 -2 V
6 -2 V
5 -2 V
6 -2 V
5 -2 V
6 -3 V
5 -2 V
6 -3 V
5 -3 V
6 -3 V
6 -3 V
5 -3 V
6 -4 V
5 -3 V
6 -4 V
5 -4 V
6 -4 V
5 -4 V
6 -5 V
5 -4 V
6 -5 V
6 -5 V
5 -4 V
stroke 1094 1686 M
6 -5 V
5 -5 V
6 -5 V
5 -5 V
6 -6 V
5 -5 V
6 -5 V
5 -6 V
6 -5 V
5 -6 V
6 -5 V
6 -6 V
5 -6 V
6 -5 V
5 -6 V
6 -6 V
5 -6 V
6 -5 V
5 -6 V
6 -6 V
5 -6 V
6 -6 V
5 -6 V
6 -6 V
5 -6 V
6 -7 V
5 -6 V
6 -6 V
6 -6 V
5 -6 V
6 -7 V
5 -6 V
6 -6 V
5 -7 V
6 -6 V
5 -7 V
6 -7 V
5 -6 V
6 -7 V
5 -7 V
6 -7 V
5 -7 V
6 -7 V
5 -8 V
6 -7 V
5 -7 V
6 -8 V
5 -7 V
6 -7 V
5 -8 V
6 -7 V
5 -7 V
6 -8 V
5 -7 V
6 -7 V
5 -6 V
6 -7 V
5 -6 V
6 -6 V
5 -6 V
6 -6 V
5 -5 V
6 -5 V
5 -5 V
6 -4 V
5 -4 V
6 -4 V
5 -3 V
6 -3 V
5 -3 V
6 -3 V
5 -2 V
5 -2 V
6 -2 V
5 -1 V
6 -1 V
5 -1 V
6 -1 V
5 -1 V
6 -1 V
5 0 V
6 -1 V
5 0 V
5 0 V
6 0 V
5 -1 V
6 0 V
5 0 V
6 0 V
5 0 V
6 0 V
5 0 V
5 0 V
6 -1 V
5 0 V
6 0 V
5 0 V
6 0 V
5 -1 V
5 0 V
6 0 V
5 -1 V
6 0 V
5 -1 V
stroke 1665 1246 M
5 0 V
6 0 V
5 -1 V
6 0 V
5 -1 V
5 0 V
6 -1 V
5 0 V
5 -1 V
6 0 V
5 -1 V
6 0 V
5 -1 V
5 0 V
6 -1 V
5 0 V
5 -1 V
6 0 V
5 -1 V
6 0 V
5 -1 V
5 -1 V
6 0 V
5 -1 V
5 0 V
6 -1 V
5 0 V
5 0 V
6 -1 V
5 0 V
5 0 V
6 -1 V
5 0 V
5 0 V
6 1 V
5 0 V
5 1 V
5 1 V
6 1 V
5 1 V
5 2 V
6 3 V
5 2 V
5 4 V
6 3 V
5 5 V
5 5 V
5 5 V
6 6 V
5 7 V
5 8 V
5 8 V
6 8 V
5 10 V
5 9 V
5 11 V
6 10 V
5 11 V
5 12 V
5 11 V
6 12 V
5 12 V
5 12 V
5 12 V
6 12 V
5 12 V
5 12 V
5 12 V
5 12 V
6 11 V
5 12 V
5 11 V
5 12 V
6 11 V
5 11 V
5 11 V
5 11 V
5 11 V
5 12 V
6 11 V
5 11 V
5 12 V
5 12 V
5 12 V
6 12 V
5 13 V
5 13 V
5 14 V
5 14 V
5 14 V
6 15 V
5 16 V
5 16 V
5 16 V
5 17 V
5 17 V
6 18 V
5 18 V
5 18 V
5 19 V
5 19 V
5 19 V
5 19 V
6 20 V
stroke 2213 1982 M
5 19 V
5 20 V
5 19 V
5 20 V
5 19 V
5 20 V
5 19 V
6 20 V
5 19 V
5 19 V
5 19 V
5 19 V
5 19 V
5 19 V
6 20 V
5 19 V
5 20 V
5 19 V
5 20 V
5 20 V
5 21 V
5 21 V
6 21 V
5 22 V
5 22 V
5 23 V
5 23 V
5 24 V
5 24 V
5 25 V
6 25 V
5 25 V
5 26 V
5 26 V
5 26 V
5 26 V
5 26 V
5 26 V
6 26 V
5 25 V
5 24 V
5 23 V
5 23 V
5 21 V
5 21 V
6 19 V
5 18 V
5 16 V
5 15 V
5 14 V
5 12 V
5 12 V
6 10 V
5 8 V
5 8 V
5 7 V
5 6 V
5 5 V
6 5 V
5 4 V
5 3 V
5 3 V
5 3 V
5 2 V
6 2 V
5 2 V
5 2 V
5 2 V
5 1 V
6 2 V
5 1 V
5 2 V
5 1 V
5 1 V
6 2 V
5 1 V
5 1 V
5 1 V
5 2 V
6 1 V
5 1 V
5 1 V
5 1 V
5 2 V
6 1 V
5 1 V
5 1 V
5 1 V
5 1 V
6 2 V
5 1 V
5 1 V
5 1 V
6 1 V
5 1 V
5 1 V
5 1 V
6 2 V
5 1 V
5 1 V
5 1 V
5 1 V
6 1 V
5 1 V
stroke 2750 3186 M
5 1 V
5 1 V
6 1 V
5 1 V
5 1 V
5 1 V
6 1 V
5 1 V
5 1 V
5 1 V
6 1 V
5 1 V
5 1 V
6 0 V
5 1 V
5 1 V
5 1 V
6 1 V
5 1 V
5 1 V
5 1 V
6 1 V
5 0 V
5 1 V
5 1 V
6 1 V
5 1 V
5 0 V
6 1 V
5 1 V
5 1 V
5 1 V
6 0 V
5 1 V
5 1 V
6 0 V
5 1 V
5 1 V
5 1 V
6 0 V
5 1 V
5 1 V
6 0 V
5 1 V
5 1 V
6 0 V
5 1 V
5 0 V
5 1 V
6 1 V
5 0 V
5 1 V
6 0 V
5 1 V
5 1 V
6 0 V
5 1 V
5 0 V
5 1 V
6 0 V
5 1 V
5 0 V
6 1 V
5 0 V
5 0 V
6 1 V
5 0 V
5 1 V
6 0 V
5 1 V
5 0 V
6 0 V
5 1 V
5 0 V
6 0 V
5 1 V
5 0 V
5 1 V
6 0 V
5 0 V
5 0 V
6 1 V
5 0 V
5 0 V
6 1 V
5 0 V
5 0 V
6 0 V
5 0 V
5 1 V
6 0 V
5 0 V
5 0 V
6 0 V
5 1 V
5 0 V
6 0 V
5 0 V
5 0 V
6 0 V
5 0 V
5 0 V
6 1 V
5 0 V
stroke 3301 3245 M
5 0 V
6 0 V
5 0 V
5 0 V
6 0 V
5 0 V
5 0 V
6 0 V
5 0 V
5 0 V
6 0 V
5 0 V
5 0 V
5 0 V
6 0 V
5 -1 V
5 0 V
6 0 V
5 0 V
5 0 V
6 0 V
5 0 V
5 0 V
6 -1 V
5 0 V
5 0 V
6 0 V
5 0 V
5 -1 V
6 0 V
5 0 V
5 0 V
6 0 V
5 -1 V
5 0 V
6 0 V
5 -1 V
5 0 V
6 0 V
5 -1 V
5 0 V
6 0 V
5 -1 V
5 0 V
6 0 V
5 -1 V
5 0 V
5 0 V
6 -1 V
5 0 V
5 -1 V
6 0 V
5 -1 V
5 0 V
6 -1 V
5 0 V
5 0 V
6 -1 V
5 0 V
5 -1 V
6 -1 V
5 0 V
5 -1 V
5 0 V
6 -1 V
5 0 V
5 -1 V
6 0 V
5 -1 V
5 -1 V
6 0 V
5 -1 V
5 -1 V
5 0 V
6 -1 V
5 0 V
5 -1 V
6 -1 V
5 -1 V
5 0 V
6 -1 V
5 -1 V
5 0 V
5 -1 V
6 -1 V
5 -1 V
5 0 V
6 -1 V
5 -1 V
5 -1 V
5 0 V
6 -1 V
5 -1 V
5 -1 V
5 -1 V
6 -1 V
5 0 V
5 -1 V
6 -1 V
5 -1 V
5 -1 V
5 -1 V
6 -1 V
5 -1 V
stroke 3853 3199 M
5 -1 V
5 -1 V
6 0 V
5 -1 V
5 -1 V
5 -1 V
6 -1 V
5 -1 V
5 -1 V
5 -1 V
6 -1 V
5 -1 V
5 -1 V
5 -1 V
6 -1 V
5 -1 V
5 -1 V
5 -2 V
6 -1 V
5 -1 V
5 -1 V
5 -1 V
6 -1 V
5 -1 V
5 -1 V
5 -1 V
5 -1 V
6 -2 V
5 -1 V
5 -1 V
5 -1 V
6 -1 V
5 -1 V
5 -2 V
5 -1 V
5 -1 V
6 -1 V
5 -1 V
5 -2 V
5 -1 V
5 -1 V
6 -1 V
5 -2 V
5 -1 V
5 -1 V
5 -2 V
6 -1 V
5 -1 V
5 -2 V
5 -2 V
5 -1 V
6 -2 V
5 -2 V
5 -2 V
5 -3 V
5 -2 V
5 -3 V
6 -4 V
5 -4 V
5 -5 V
5 -5 V
5 -6 V
5 -7 V
6 -8 V
5 -9 V
5 -10 V
5 -12 V
5 -12 V
5 -14 V
6 -16 V
5 -16 V
5 -18 V
5 -20 V
5 -20 V
5 -22 V
5 -23 V
6 -23 V
5 -25 V
5 -25 V
5 -25 V
5 -26 V
5 -26 V
5 -26 V
5 -26 V
6 -26 V
5 -26 V
5 -25 V
5 -25 V
5 -25 V
5 -24 V
5 -24 V
5 -23 V
6 -22 V
5 -23 V
5 -21 V
5 -22 V
5 -20 V
5 -21 V
5 -20 V
5 -20 V
6 -20 V
5 -19 V
5 -20 V
5 -19 V
stroke 4392 2249 M
5 -19 V
5 -19 V
5 -19 V
6 -19 V
5 -19 V
5 -20 V
5 -19 V
5 -19 V
5 -20 V
5 -19 V
5 -20 V
6 -20 V
5 -19 V
5 -20 V
5 -19 V
5 -19 V
5 -20 V
5 -18 V
6 -19 V
5 -18 V
5 -18 V
5 -18 V
5 -17 V
5 -17 V
5 -16 V
6 -16 V
5 -15 V
5 -15 V
5 -14 V
5 -14 V
5 -14 V
6 -13 V
5 -13 V
5 -12 V
5 -12 V
5 -12 V
6 -12 V
5 -11 V
5 -11 V
5 -11 V
5 -12 V
5 -11 V
6 -11 V
5 -11 V
5 -11 V
5 -12 V
6 -11 V
5 -12 V
5 -11 V
5 -12 V
5 -12 V
6 -12 V
5 -12 V
5 -12 V
5 -12 V
5 -12 V
6 -12 V
5 -12 V
5 -11 V
5 -12 V
6 -11 V
5 -10 V
5 -10 V
5 -10 V
6 -9 V
5 -9 V
5 -8 V
5 -7 V
6 -7 V
5 -6 V
5 -5 V
6 -5 V
5 -4 V
5 -4 V
5 -3 V
6 -3 V
5 -2 V
5 -2 V
6 -1 V
5 -1 V
5 -1 V
6 -1 V
5 0 V
5 -1 V
5 0 V
6 0 V
5 1 V
5 0 V
6 0 V
5 1 V
5 0 V
6 0 V
5 1 V
5 0 V
6 1 V
5 1 V
6 0 V
5 1 V
5 0 V
6 1 V
5 0 V
5 1 V
6 0 V
5 1 V
stroke 4936 1240 M
5 0 V
6 1 V
5 0 V
6 1 V
5 0 V
5 1 V
6 0 V
5 1 V
5 0 V
6 1 V
5 0 V
6 1 V
5 0 V
5 1 V
6 0 V
5 0 V
6 1 V
5 0 V
6 0 V
5 1 V
5 0 V
6 0 V
5 0 V
6 0 V
5 1 V
5 0 V
6 0 V
5 0 V
6 0 V
5 0 V
6 0 V
5 0 V
6 1 V
5 0 V
5 0 V
6 0 V
5 1 V
6 0 V
5 1 V
6 1 V
5 1 V
6 1 V
5 1 V
6 2 V
5 1 V
5 2 V
6 3 V
5 2 V
6 3 V
5 3 V
6 4 V
5 3 V
6 5 V
5 4 V
6 5 V
5 5 V
6 5 V
5 6 V
6 6 V
5 6 V
6 6 V
5 7 V
6 7 V
5 7 V
6 7 V
5 7 V
6 7 V
5 8 V
6 7 V
5 7 V
6 8 V
5 7 V
6 7 V
5 8 V
6 7 V
5 7 V
6 7 V
5 7 V
6 7 V
5 7 V
6 6 V
5 7 V
6 7 V
5 6 V
6 7 V
5 6 V
6 6 V
5 7 V
6 6 V
5 6 V
6 6 V
5 6 V
6 7 V
6 6 V
5 6 V
6 6 V
5 6 V
6 6 V
5 6 V
6 5 V
5 6 V
6 6 V
5 6 V
6 6 V
stroke 5505 1612 M
5 5 V
6 6 V
5 6 V
6 5 V
6 6 V
5 5 V
6 6 V
5 5 V
6 5 V
5 5 V
6 6 V
5 5 V
6 5 V
5 4 V
6 5 V
5 5 V
6 4 V
6 5 V
5 4 V
6 4 V
5 4 V
6 4 V
5 4 V
6 4 V
5 3 V
6 4 V
5 3 V
6 3 V
6 3 V
5 2 V
6 3 V
5 2 V
6 2 V
5 3 V
6 1 V
5 2 V
6 2 V
6 1 V
5 2 V
6 1 V
5 1 V
6 1 V
5 1 V
6 1 V
5 1 V
6 0 V
6 1 V
5 0 V
6 1 V
5 0 V
6 1 V
5 0 V
6 0 V
5 0 V
6 1 V
6 0 V
5 0 V
6 0 V
5 0 V
6 0 V
5 0 V
6 0 V
5 0 V
6 0 V
6 0 V
5 0 V
6 0 V
5 0 V
6 0 V
5 0 V
6 0 V
5 0 V
6 0 V
6 0 V
5 0 V
6 0 V
5 0 V
6 0 V
5 0 V
6 0 V
6 0 V
5 0 V
6 0 V
5 0 V
6 0 V
5 0 V
6 0 V
5 0 V
6 0 V
6 0 V
5 0 V
6 0 V
5 0 V
6 0 V
5 0 V
6 0 V
6 0 V
5 0 V
6 0 V
5 0 V
6 0 V
5 0 V
6 0 V
6 0 V
stroke 6083 1775 M
5 0 V
6 0 V
5 0 V
6 0 V
5 0 V
6 0 V
5 0 V
6 0 V
6 0 V
5 0 V
6 0 V
5 0 V
6 0 V
-5639 0 V
5 0 V
6 0 V
5 0 V
6 0 V
5 0 V
6 0 V
5 0 V
6 0 V
5 0 V
6 0 V
5 0 V
6 0 V
5 0 V
5 0 V
6 0 V
5 0 V
6 0 V
5 0 V
6 0 V
5 0 V
6 0 V
5 0 V
6 0 V
5 0 V
6 0 V
5 0 V
6 0 V
5 0 V
5 0 V
6 0 V
5 0 V
6 0 V
5 0 V
6 0 V
5 0 V
6 0 V
5 0 V
6 0 V
5 0 V
6 0 V
5 0 V
5 0 V
6 0 V
5 0 V
6 0 V
5 0 V
6 0 V
5 0 V
6 0 V
5 0 V
6 0 V
5 0 V
5 0 V
6 0 V
5 0 V
6 0 V
5 0 V
6 0 V
5 0 V
6 0 V
5 0 V
6 0 V
5 0 V
6 0 V
5 0 V
5 0 V
6 0 V
5 -1 V
6 0 V
5 0 V
6 0 V
5 -1 V
6 0 V
5 0 V
5 -1 V
6 0 V
5 -1 V
6 -1 V
5 -1 V
6 0 V
5 -2 V
6 -1 V
5 -1 V
6 -1 V
5 -2 V
5 -2 V
6 -2 V
5 -2 V
6 -2 V
5 -3 V
stroke 1007 1751 M
6 -2 V
5 -3 V
6 -3 V
5 -4 V
5 -3 V
6 -4 V
5 -4 V
6 -4 V
5 -4 V
6 -5 V
5 -5 V
6 -5 V
5 -5 V
5 -5 V
6 -5 V
5 -6 V
6 -5 V
5 -6 V
6 -6 V
5 -6 V
6 -6 V
5 -7 V
5 -6 V
6 -6 V
5 -7 V
6 -7 V
5 -6 V
6 -7 V
5 -7 V
6 -7 V
5 -7 V
5 -7 V
6 -7 V
5 -7 V
6 -7 V
5 -8 V
6 -7 V
5 -7 V
5 -8 V
6 -7 V
5 -8 V
6 -7 V
5 -8 V
6 -8 V
5 -8 V
5 -8 V
6 -7 V
5 -8 V
6 -9 V
5 -8 V
5 -8 V
6 -8 V
5 -9 V
6 -8 V
5 -9 V
6 -8 V
5 -9 V
5 -9 V
6 -9 V
5 -9 V
6 -9 V
5 -9 V
5 -9 V
6 -10 V
5 -9 V
6 -9 V
5 -9 V
5 -9 V
6 -8 V
5 -9 V
6 -8 V
5 -9 V
5 -7 V
6 -8 V
5 -7 V
6 -7 V
5 -6 V
5 -7 V
6 -5 V
5 -5 V
6 -5 V
5 -5 V
5 -4 V
6 -3 V
5 -4 V
5 -2 V
6 -3 V
5 -2 V
6 -2 V
5 -2 V
5 -1 V
6 -1 V
5 -1 V
5 -1 V
6 -1 V
5 0 V
5 0 V
6 -1 V
5 0 V
6 0 V
5 0 V
5 0 V
6 0 V
5 0 V
stroke 1570 1161 M
5 0 V
6 -1 V
5 0 V
5 0 V
6 0 V
5 0 V
5 0 V
6 -1 V
5 0 V
5 0 V
6 -1 V
5 0 V
5 0 V
6 -1 V
5 0 V
5 -1 V
6 0 V
5 -1 V
5 0 V
5 -1 V
6 0 V
5 -1 V
5 0 V
6 -1 V
5 0 V
5 -1 V
6 0 V
5 -1 V
5 -1 V
5 0 V
6 -1 V
5 0 V
5 -1 V
5 -1 V
6 0 V
5 -1 V
5 0 V
6 -1 V
5 -1 V
5 0 V
5 -1 V
6 0 V
5 -1 V
5 -1 V
5 0 V
6 -1 V
5 0 V
5 -1 V
5 0 V
5 -1 V
6 0 V
5 -1 V
5 0 V
5 0 V
6 0 V
5 0 V
5 1 V
5 1 V
5 1 V
6 1 V
5 2 V
5 2 V
5 3 V
5 4 V
6 4 V
5 5 V
5 5 V
5 6 V
5 8 V
6 7 V
5 9 V
5 10 V
5 10 V
5 11 V
5 12 V
6 12 V
5 13 V
5 13 V
5 14 V
5 14 V
5 15 V
5 14 V
6 15 V
5 14 V
5 15 V
5 15 V
5 14 V
5 14 V
5 14 V
5 14 V
6 14 V
5 14 V
5 13 V
5 13 V
5 13 V
5 13 V
5 13 V
5 12 V
5 13 V
6 13 V
5 13 V
5 13 V
5 13 V
5 13 V
stroke 2113 1631 M
5 14 V
5 14 V
5 15 V
5 15 V
5 15 V
5 16 V
5 17 V
6 17 V
5 17 V
5 19 V
5 18 V
5 20 V
5 20 V
5 20 V
5 21 V
5 21 V
5 21 V
5 22 V
5 22 V
5 22 V
5 22 V
5 22 V
5 22 V
5 23 V
6 22 V
5 22 V
5 22 V
5 22 V
5 22 V
5 22 V
5 22 V
5 22 V
5 22 V
5 22 V
5 22 V
5 23 V
5 23 V
5 23 V
5 23 V
5 24 V
5 25 V
5 25 V
5 25 V
5 26 V
5 27 V
5 28 V
5 28 V
5 28 V
5 30 V
6 30 V
5 30 V
5 31 V
5 31 V
5 32 V
5 31 V
5 32 V
5 31 V
5 31 V
5 30 V
5 29 V
5 28 V
5 27 V
5 26 V
5 25 V
5 22 V
5 21 V
5 20 V
5 17 V
5 16 V
6 14 V
5 13 V
5 11 V
5 10 V
5 8 V
5 8 V
5 6 V
5 5 V
5 5 V
5 4 V
5 4 V
5 3 V
5 3 V
6 2 V
5 2 V
5 2 V
5 2 V
5 2 V
5 2 V
5 1 V
5 2 V
5 1 V
5 2 V
5 1 V
6 2 V
5 1 V
5 2 V
5 1 V
5 1 V
5 2 V
5 1 V
5 1 V
5 2 V
6 1 V
5 1 V
stroke 2640 3354 M
5 2 V
5 1 V
5 1 V
5 2 V
5 1 V
5 1 V
6 2 V
5 1 V
5 1 V
5 1 V
5 2 V
5 1 V
5 1 V
6 1 V
5 2 V
5 1 V
5 1 V
5 1 V
5 1 V
5 1 V
6 2 V
5 1 V
5 1 V
5 1 V
5 1 V
5 1 V
6 1 V
5 1 V
5 2 V
5 1 V
5 1 V
5 1 V
6 1 V
5 1 V
5 1 V
5 1 V
5 1 V
5 1 V
6 1 V
5 1 V
5 1 V
5 1 V
5 1 V
5 1 V
6 1 V
5 1 V
5 0 V
5 1 V
5 1 V
6 1 V
5 1 V
5 1 V
5 1 V
5 1 V
5 0 V
6 1 V
5 1 V
5 1 V
5 1 V
5 0 V
6 1 V
5 1 V
5 1 V
5 1 V
5 0 V
6 1 V
5 1 V
5 0 V
5 1 V
5 1 V
6 0 V
5 1 V
5 1 V
5 0 V
6 1 V
5 1 V
5 0 V
5 1 V
5 1 V
6 0 V
5 1 V
5 0 V
5 1 V
5 0 V
6 1 V
5 0 V
5 1 V
5 0 V
6 1 V
5 0 V
5 1 V
5 0 V
5 1 V
6 0 V
5 1 V
5 0 V
5 0 V
6 1 V
5 0 V
5 1 V
5 0 V
5 0 V
6 1 V
5 0 V
stroke 3179 3443 M
5 0 V
5 1 V
6 0 V
5 0 V
5 1 V
5 0 V
5 0 V
6 0 V
5 1 V
5 0 V
5 0 V
6 0 V
5 0 V
5 1 V
5 0 V
6 0 V
5 0 V
5 0 V
5 0 V
5 0 V
6 1 V
5 0 V
5 0 V
5 0 V
6 0 V
5 0 V
5 0 V
5 0 V
6 0 V
5 0 V
5 0 V
5 0 V
6 0 V
5 0 V
5 0 V
5 0 V
5 0 V
6 0 V
5 0 V
5 -1 V
5 0 V
6 0 V
5 0 V
5 0 V
5 0 V
6 0 V
5 -1 V
5 0 V
5 0 V
5 0 V
6 0 V
5 -1 V
5 0 V
5 0 V
6 0 V
5 -1 V
5 0 V
5 0 V
6 0 V
5 -1 V
5 0 V
5 0 V
5 -1 V
6 0 V
5 0 V
5 -1 V
5 0 V
6 -1 V
5 0 V
5 0 V
5 -1 V
5 0 V
6 -1 V
5 0 V
5 -1 V
5 0 V
6 -1 V
5 0 V
5 -1 V
5 0 V
5 -1 V
6 0 V
5 -1 V
5 0 V
5 -1 V
5 -1 V
6 0 V
5 -1 V
5 0 V
5 -1 V
6 -1 V
5 0 V
5 -1 V
5 -1 V
5 0 V
6 -1 V
5 -1 V
5 0 V
5 -1 V
5 -1 V
6 -1 V
5 0 V
5 -1 V
5 -1 V
stroke 3722 3419 M
5 -1 V
6 -1 V
5 0 V
5 -1 V
5 -1 V
5 -1 V
6 -1 V
5 0 V
5 -1 V
5 -1 V
5 -1 V
5 -1 V
6 -1 V
5 -1 V
5 -1 V
5 -1 V
5 -1 V
6 -1 V
5 0 V
5 -1 V
5 -1 V
5 -1 V
5 -1 V
6 -1 V
5 -1 V
5 -1 V
5 -1 V
5 -1 V
5 -2 V
6 -1 V
5 -1 V
5 -1 V
5 -1 V
5 -1 V
5 -1 V
6 -1 V
5 -1 V
5 -1 V
5 -2 V
5 -1 V
5 -1 V
6 -1 V
5 -1 V
5 -1 V
5 -2 V
5 -1 V
5 -1 V
5 -1 V
6 -1 V
5 -2 V
5 -1 V
5 -1 V
5 -1 V
5 -2 V
5 -1 V
5 -1 V
6 -2 V
5 -1 V
5 -1 V
5 -2 V
5 -1 V
5 -1 V
5 -2 V
5 -1 V
6 -1 V
5 -2 V
5 -1 V
5 -1 V
5 -2 V
5 -1 V
5 -2 V
5 -1 V
5 -2 V
6 -1 V
5 -2 V
5 -1 V
5 -2 V
5 -1 V
5 -2 V
5 -2 V
5 -2 V
5 -3 V
5 -2 V
5 -3 V
6 -3 V
5 -4 V
5 -4 V
5 -5 V
5 -6 V
5 -6 V
5 -8 V
5 -9 V
5 -10 V
5 -11 V
5 -13 V
5 -15 V
5 -16 V
5 -18 V
6 -20 V
5 -21 V
5 -23 V
5 -25 V
5 -26 V
5 -28 V
stroke 4256 3045 M
5 -28 V
5 -30 V
5 -30 V
5 -31 V
5 -31 V
5 -32 V
5 -31 V
5 -32 V
5 -31 V
5 -31 V
5 -30 V
5 -30 V
5 -29 V
5 -28 V
5 -28 V
5 -28 V
5 -26 V
6 -26 V
5 -26 V
5 -24 V
5 -25 V
5 -23 V
5 -24 V
5 -23 V
5 -23 V
5 -22 V
5 -22 V
5 -23 V
5 -22 V
5 -21 V
5 -22 V
5 -22 V
5 -22 V
5 -22 V
5 -23 V
5 -22 V
5 -22 V
5 -22 V
5 -22 V
5 -23 V
6 -22 V
5 -22 V
5 -22 V
5 -21 V
5 -22 V
5 -21 V
5 -20 V
5 -20 V
5 -20 V
5 -19 V
5 -19 V
5 -18 V
5 -18 V
5 -16 V
5 -17 V
5 -16 V
6 -15 V
5 -15 V
5 -14 V
5 -14 V
5 -14 V
5 -13 V
5 -14 V
5 -12 V
5 -13 V
5 -13 V
5 -13 V
6 -13 V
5 -12 V
5 -13 V
5 -13 V
5 -13 V
5 -14 V
5 -13 V
5 -14 V
5 -14 V
6 -14 V
5 -15 V
5 -14 V
5 -15 V
5 -14 V
5 -15 V
5 -15 V
6 -14 V
5 -14 V
5 -14 V
5 -14 V
5 -13 V
5 -13 V
5 -12 V
6 -12 V
5 -11 V
5 -10 V
5 -9 V
5 -9 V
5 -7 V
6 -7 V
5 -6 V
5 -6 V
5 -4 V
5 -4 V
6 -3 V
5 -3 V
5 -2 V
stroke 4785 1142 M
5 -2 V
5 -2 V
6 -1 V
5 0 V
5 -1 V
5 0 V
5 0 V
6 0 V
5 0 V
5 1 V
5 0 V
6 1 V
5 0 V
5 1 V
5 0 V
6 1 V
5 1 V
5 0 V
5 1 V
6 0 V
5 1 V
5 1 V
5 0 V
6 1 V
5 0 V
5 1 V
5 1 V
6 0 V
5 1 V
5 0 V
5 1 V
6 1 V
5 0 V
5 1 V
6 0 V
5 1 V
5 0 V
6 1 V
5 1 V
5 0 V
5 1 V
6 0 V
5 1 V
5 0 V
6 1 V
5 0 V
5 0 V
6 1 V
5 0 V
5 1 V
6 0 V
5 0 V
5 0 V
6 1 V
5 0 V
5 0 V
6 0 V
5 0 V
5 0 V
6 1 V
5 0 V
5 0 V
6 0 V
5 0 V
5 0 V
6 0 V
5 0 V
5 1 V
6 0 V
5 1 V
5 0 V
6 1 V
5 1 V
6 1 V
5 2 V
5 1 V
6 2 V
5 3 V
5 2 V
6 3 V
5 4 V
6 3 V
5 4 V
5 5 V
6 5 V
5 5 V
5 6 V
6 6 V
5 7 V
6 7 V
5 7 V
5 8 V
6 7 V
5 9 V
6 8 V
5 9 V
5 9 V
6 8 V
5 9 V
6 10 V
5 9 V
5 9 V
6 9 V
5 9 V
stroke 5338 1351 M
6 9 V
5 9 V
6 9 V
5 9 V
5 9 V
6 8 V
5 9 V
6 8 V
5 9 V
5 8 V
6 8 V
5 8 V
6 9 V
5 8 V
6 7 V
5 8 V
5 8 V
6 8 V
5 7 V
6 8 V
5 8 V
6 7 V
5 8 V
5 7 V
6 7 V
5 8 V
6 7 V
5 7 V
6 7 V
5 7 V
5 7 V
6 7 V
5 7 V
6 6 V
5 7 V
6 7 V
5 6 V
5 7 V
6 6 V
5 6 V
6 6 V
5 6 V
6 6 V
5 6 V
6 6 V
5 5 V
5 6 V
6 5 V
5 5 V
6 5 V
5 4 V
6 5 V
5 4 V
6 4 V
5 4 V
5 4 V
6 3 V
5 3 V
6 3 V
5 3 V
6 3 V
5 2 V
6 3 V
5 2 V
5 2 V
6 1 V
5 2 V
6 1 V
5 2 V
6 1 V
5 1 V
6 1 V
5 0 V
5 1 V
6 1 V
5 0 V
6 1 V
5 0 V
6 1 V
5 0 V
6 0 V
5 0 V
6 0 V
5 1 V
5 0 V
6 0 V
5 0 V
6 0 V
5 0 V
6 0 V
5 0 V
6 0 V
5 0 V
6 0 V
5 0 V
6 0 V
5 0 V
5 0 V
6 0 V
5 0 V
6 0 V
5 0 V
6 0 V
5 0 V
stroke 5904 1775 M
6 0 V
5 0 V
6 0 V
5 0 V
5 0 V
6 0 V
5 0 V
6 0 V
5 0 V
6 0 V
5 0 V
6 0 V
5 0 V
6 0 V
5 0 V
6 0 V
5 0 V
5 0 V
6 0 V
5 0 V
6 0 V
5 0 V
6 0 V
5 0 V
6 0 V
5 0 V
6 0 V
5 0 V
6 0 V
5 0 V
5 0 V
6 0 V
5 0 V
6 0 V
5 0 V
6 0 V
5 0 V
6 0 V
5 0 V
6 0 V
5 0 V
6 0 V
5 0 V
6 0 V
5 0 V
5 0 V
-5639 0 V
5 0 V
6 0 V
5 0 V
6 0 V
5 0 V
5 0 V
6 0 V
5 0 V
5 0 V
6 0 V
5 0 V
6 0 V
5 0 V
5 0 V
6 0 V
5 0 V
5 0 V
6 0 V
5 0 V
6 0 V
5 0 V
5 0 V
6 0 V
5 0 V
5 0 V
6 0 V
5 0 V
6 0 V
5 0 V
5 0 V
6 0 V
5 0 V
5 0 V
6 0 V
5 0 V
6 0 V
5 0 V
5 0 V
6 0 V
5 0 V
5 0 V
6 0 V
5 0 V
6 0 V
5 0 V
5 0 V
6 0 V
5 0 V
5 0 V
6 0 V
5 0 V
6 0 V
5 0 V
5 0 V
6 0 V
5 0 V
5 0 V
stroke 822 1775 M
6 0 V
5 0 V
5 0 V
6 0 V
5 0 V
6 0 V
5 0 V
5 0 V
6 0 V
5 0 V
5 0 V
6 0 V
5 0 V
6 0 V
5 -1 V
5 0 V
6 0 V
5 0 V
5 0 V
6 -1 V
5 0 V
5 -1 V
6 0 V
5 -1 V
6 -1 V
5 -1 V
5 0 V
6 -2 V
5 -1 V
5 -1 V
6 -2 V
5 -2 V
5 -2 V
6 -2 V
5 -2 V
6 -3 V
5 -3 V
5 -3 V
6 -3 V
5 -4 V
5 -4 V
6 -4 V
5 -4 V
5 -5 V
6 -5 V
5 -5 V
6 -5 V
5 -6 V
5 -6 V
6 -6 V
5 -6 V
5 -6 V
6 -7 V
5 -7 V
5 -7 V
6 -7 V
5 -7 V
5 -7 V
6 -8 V
5 -8 V
5 -7 V
6 -8 V
5 -8 V
6 -8 V
5 -8 V
5 -8 V
6 -9 V
5 -8 V
5 -9 V
6 -8 V
5 -9 V
5 -8 V
6 -9 V
5 -9 V
5 -9 V
6 -9 V
5 -9 V
5 -9 V
6 -10 V
5 -9 V
5 -10 V
6 -9 V
5 -10 V
5 -10 V
6 -10 V
5 -10 V
5 -10 V
6 -10 V
5 -11 V
5 -10 V
6 -11 V
5 -10 V
5 -11 V
6 -11 V
5 -11 V
5 -11 V
6 -11 V
5 -11 V
5 -11 V
6 -11 V
5 -11 V
5 -11 V
6 -10 V
5 -10 V
stroke 1379 1197 M
5 -10 V
6 -10 V
5 -9 V
5 -9 V
6 -9 V
5 -8 V
5 -8 V
5 -7 V
6 -7 V
5 -6 V
5 -5 V
6 -5 V
5 -5 V
5 -4 V
6 -4 V
5 -3 V
5 -3 V
5 -2 V
6 -2 V
5 -2 V
5 -1 V
6 -2 V
5 0 V
5 -1 V
5 -1 V
6 0 V
5 -1 V
5 0 V
6 0 V
5 0 V
5 0 V
5 0 V
6 0 V
5 0 V
5 0 V
5 0 V
6 0 V
5 -1 V
5 0 V
5 0 V
6 0 V
5 0 V
5 -1 V
5 0 V
6 0 V
5 -1 V
5 0 V
5 -1 V
6 0 V
5 -1 V
5 0 V
5 -1 V
6 0 V
5 -1 V
5 0 V
5 -1 V
6 -1 V
5 0 V
5 -1 V
5 0 V
5 -1 V
6 -1 V
5 0 V
5 -1 V
5 0 V
5 -1 V
6 -1 V
5 0 V
5 -1 V
5 -1 V
5 0 V
6 -1 V
5 -1 V
5 0 V
5 -1 V
5 -1 V
6 0 V
5 -1 V
5 -1 V
5 0 V
5 -1 V
5 -1 V
6 -1 V
5 0 V
5 -1 V
5 -1 V
5 0 V
5 -1 V
5 0 V
6 -1 V
5 0 V
5 0 V
5 -1 V
5 0 V
5 1 V
5 0 V
6 1 V
5 1 V
5 2 V
5 2 V
5 3 V
5 3 V
5 5 V
5 4 V
stroke 1922 1064 M
5 6 V
6 7 V
5 8 V
5 8 V
5 10 V
5 11 V
5 11 V
5 13 V
5 14 V
5 14 V
5 15 V
5 16 V
6 16 V
5 17 V
5 17 V
5 17 V
5 17 V
5 18 V
5 17 V
5 17 V
5 17 V
5 17 V
5 17 V
5 16 V
5 16 V
5 16 V
5 16 V
5 15 V
5 15 V
5 14 V
5 15 V
5 14 V
5 15 V
5 14 V
5 14 V
5 15 V
6 14 V
5 15 V
5 15 V
5 15 V
5 16 V
5 16 V
5 17 V
5 17 V
5 18 V
5 18 V
5 19 V
5 19 V
5 21 V
5 20 V
4 22 V
5 22 V
5 22 V
5 23 V
5 23 V
5 24 V
5 24 V
5 24 V
5 24 V
5 25 V
5 24 V
5 25 V
5 25 V
5 24 V
5 25 V
5 25 V
5 24 V
5 25 V
5 25 V
5 25 V
5 25 V
5 25 V
5 25 V
5 26 V
5 26 V
5 27 V
5 27 V
5 28 V
5 28 V
5 29 V
5 30 V
5 30 V
5 32 V
5 32 V
4 33 V
5 33 V
5 35 V
5 35 V
5 36 V
5 36 V
5 37 V
5 37 V
5 37 V
5 37 V
5 37 V
5 35 V
5 35 V
5 34 V
5 33 V
5 31 V
5 29 V
5 27 V
5 25 V
5 24 V
stroke 2443 3355 M
5 20 V
5 19 V
5 17 V
5 15 V
5 13 V
5 11 V
5 10 V
5 8 V
5 8 V
5 6 V
5 5 V
5 4 V
5 4 V
5 4 V
5 3 V
5 2 V
5 3 V
5 2 V
5 2 V
5 2 V
5 2 V
5 1 V
5 2 V
5 2 V
5 1 V
5 2 V
5 2 V
5 1 V
5 2 V
5 1 V
5 2 V
5 1 V
5 2 V
5 1 V
5 2 V
5 1 V
5 2 V
5 1 V
5 2 V
5 1 V
6 2 V
5 1 V
5 2 V
5 1 V
5 1 V
5 2 V
5 1 V
5 2 V
5 1 V
5 1 V
5 2 V
5 1 V
5 1 V
5 2 V
5 1 V
5 1 V
5 2 V
6 1 V
5 1 V
5 2 V
5 1 V
5 1 V
5 1 V
5 2 V
5 1 V
5 1 V
5 1 V
5 1 V
5 2 V
5 1 V
6 1 V
5 1 V
5 1 V
5 1 V
5 2 V
5 1 V
5 1 V
5 1 V
5 1 V
5 1 V
6 1 V
5 1 V
5 1 V
5 1 V
5 1 V
5 1 V
5 1 V
5 1 V
5 1 V
5 1 V
6 1 V
5 1 V
5 1 V
5 1 V
5 1 V
5 1 V
5 1 V
5 1 V
5 1 V
6 0 V
5 1 V
5 1 V
5 1 V
5 1 V
stroke 2969 3618 M
5 1 V
5 0 V
5 1 V
6 1 V
5 1 V
5 1 V
5 0 V
5 1 V
5 1 V
5 0 V
5 1 V
6 1 V
5 1 V
5 0 V
5 1 V
5 1 V
5 0 V
5 1 V
6 0 V
5 1 V
5 1 V
5 0 V
5 1 V
5 0 V
5 1 V
5 0 V
6 1 V
5 0 V
5 1 V
5 0 V
5 1 V
5 0 V
5 1 V
6 0 V
5 1 V
5 0 V
5 0 V
5 1 V
5 0 V
5 1 V
6 0 V
5 0 V
5 1 V
5 0 V
5 0 V
5 1 V
6 0 V
5 0 V
5 1 V
5 0 V
5 0 V
5 0 V
5 0 V
6 1 V
5 0 V
5 0 V
5 0 V
5 0 V
5 1 V
5 0 V
6 0 V
5 0 V
5 0 V
5 0 V
5 0 V
5 0 V
6 0 V
5 0 V
5 0 V
5 1 V
5 0 V
5 0 V
5 0 V
6 -1 V
5 0 V
5 0 V
5 0 V
5 0 V
5 0 V
5 0 V
6 0 V
5 0 V
5 0 V
5 0 V
5 -1 V
5 0 V
6 0 V
5 0 V
5 0 V
5 0 V
5 -1 V
5 0 V
5 0 V
6 0 V
5 -1 V
5 0 V
5 0 V
5 -1 V
5 0 V
5 0 V
6 0 V
5 -1 V
5 0 V
5 -1 V
stroke 3504 3641 M
5 0 V
5 0 V
6 -1 V
5 0 V
5 -1 V
5 0 V
5 0 V
5 -1 V
5 0 V
6 -1 V
5 0 V
5 -1 V
5 0 V
5 -1 V
5 0 V
5 -1 V
5 -1 V
6 0 V
5 -1 V
5 0 V
5 -1 V
5 -1 V
5 0 V
5 -1 V
6 -1 V
5 0 V
5 -1 V
5 -1 V
5 0 V
5 -1 V
5 -1 V
5 0 V
6 -1 V
5 -1 V
5 -1 V
5 0 V
5 -1 V
5 -1 V
5 -1 V
5 -1 V
6 -1 V
5 0 V
5 -1 V
5 -1 V
5 -1 V
5 -1 V
5 -1 V
5 -1 V
6 -1 V
5 0 V
5 -1 V
5 -1 V
5 -1 V
5 -1 V
5 -1 V
5 -1 V
5 -1 V
5 -1 V
6 -1 V
5 -1 V
5 -1 V
5 -1 V
5 -1 V
5 -2 V
5 -1 V
5 -1 V
5 -1 V
5 -1 V
6 -1 V
5 -1 V
5 -1 V
5 -2 V
5 -1 V
5 -1 V
5 -1 V
5 -1 V
5 -1 V
5 -2 V
5 -1 V
6 -1 V
5 -1 V
5 -2 V
5 -1 V
5 -1 V
5 -1 V
5 -2 V
5 -1 V
5 -1 V
5 -2 V
5 -1 V
5 -1 V
5 -2 V
5 -1 V
5 -1 V
6 -2 V
5 -1 V
5 -2 V
5 -1 V
5 -1 V
5 -2 V
5 -1 V
5 -2 V
5 -1 V
5 -2 V
stroke 4035 3543 M
5 -1 V
5 -2 V
5 -1 V
5 -2 V
5 -1 V
5 -2 V
5 -1 V
5 -2 V
5 -1 V
5 -2 V
5 -1 V
5 -2 V
5 -1 V
5 -2 V
6 -2 V
5 -1 V
5 -2 V
5 -2 V
5 -1 V
5 -2 V
5 -2 V
5 -2 V
5 -3 V
5 -2 V
5 -3 V
5 -3 V
5 -4 V
5 -4 V
5 -5 V
5 -6 V
5 -7 V
5 -7 V
5 -10 V
5 -10 V
5 -12 V
5 -15 V
5 -16 V
5 -18 V
5 -20 V
5 -22 V
5 -24 V
4 -27 V
5 -28 V
5 -30 V
5 -32 V
5 -33 V
5 -35 V
5 -36 V
5 -36 V
5 -37 V
5 -37 V
5 -37 V
5 -37 V
5 -36 V
5 -36 V
5 -36 V
5 -35 V
5 -34 V
5 -33 V
5 -32 V
5 -32 V
5 -31 V
5 -30 V
5 -29 V
5 -29 V
5 -28 V
5 -27 V
5 -27 V
5 -26 V
5 -26 V
5 -26 V
4 -25 V
5 -25 V
5 -25 V
5 -25 V
5 -25 V
5 -24 V
5 -25 V
5 -24 V
5 -25 V
5 -25 V
5 -24 V
5 -25 V
5 -25 V
5 -24 V
5 -24 V
5 -24 V
5 -24 V
5 -24 V
5 -23 V
5 -22 V
5 -22 V
5 -22 V
5 -21 V
5 -20 V
5 -20 V
5 -19 V
5 -19 V
5 -18 V
5 -17 V
5 -17 V
5 -16 V
5 -16 V
5 -16 V
stroke 4554 1629 M
5 -15 V
5 -15 V
5 -14 V
5 -15 V
5 -14 V
5 -14 V
5 -15 V
5 -14 V
5 -15 V
5 -14 V
5 -15 V
5 -15 V
5 -16 V
5 -15 V
5 -16 V
5 -16 V
5 -17 V
5 -17 V
5 -17 V
6 -17 V
5 -17 V
5 -17 V
5 -18 V
5 -17 V
5 -17 V
5 -17 V
5 -17 V
5 -16 V
5 -15 V
5 -15 V
5 -13 V
5 -13 V
5 -13 V
6 -11 V
5 -10 V
5 -9 V
5 -8 V
5 -7 V
5 -6 V
5 -6 V
5 -4 V
5 -4 V
5 -3 V
6 -2 V
5 -2 V
5 -1 V
5 -1 V
5 -1 V
5 0 V
5 -1 V
5 0 V
6 1 V
5 0 V
5 0 V
5 1 V
5 1 V
5 0 V
6 1 V
5 0 V
5 1 V
5 1 V
5 1 V
5 0 V
5 1 V
6 1 V
5 0 V
5 1 V
5 1 V
5 0 V
6 1 V
5 1 V
5 0 V
5 1 V
5 1 V
6 0 V
5 1 V
5 1 V
5 0 V
5 1 V
6 1 V
5 0 V
5 1 V
5 0 V
5 1 V
6 1 V
5 0 V
5 1 V
5 0 V
5 1 V
6 1 V
5 0 V
5 1 V
5 0 V
6 1 V
5 0 V
5 1 V
5 0 V
6 0 V
5 1 V
5 0 V
5 0 V
6 1 V
5 0 V
5 0 V
stroke 5088 1072 M
5 0 V
6 1 V
5 0 V
5 0 V
5 0 V
6 0 V
5 0 V
5 0 V
6 0 V
5 0 V
5 0 V
5 0 V
6 1 V
5 0 V
5 1 V
5 0 V
6 1 V
5 1 V
5 1 V
6 2 V
5 2 V
5 2 V
5 3 V
6 3 V
5 3 V
5 4 V
6 5 V
5 5 V
5 5 V
6 6 V
5 6 V
5 7 V
6 8 V
5 8 V
5 8 V
5 9 V
6 9 V
5 10 V
5 10 V
6 10 V
5 10 V
5 11 V
6 11 V
5 10 V
5 11 V
6 11 V
5 11 V
5 11 V
6 11 V
5 11 V
5 11 V
6 11 V
5 10 V
5 11 V
6 10 V
5 11 V
5 10 V
6 10 V
5 10 V
5 10 V
6 10 V
5 9 V
5 10 V
6 9 V
5 10 V
5 9 V
6 9 V
5 9 V
5 9 V
6 9 V
5 9 V
5 9 V
6 8 V
5 9 V
5 8 V
6 9 V
5 8 V
5 8 V
6 9 V
5 8 V
5 8 V
6 7 V
5 8 V
6 8 V
5 7 V
5 8 V
6 7 V
5 7 V
5 7 V
6 7 V
5 7 V
5 6 V
6 7 V
5 6 V
5 6 V
6 5 V
5 6 V
6 5 V
5 5 V
5 5 V
6 4 V
5 5 V
5 4 V
6 3 V
stroke 5642 1741 M
5 4 V
5 3 V
6 3 V
5 3 V
5 2 V
6 2 V
5 2 V
6 2 V
5 2 V
5 2 V
6 1 V
5 1 V
5 1 V
6 1 V
5 1 V
5 1 V
6 0 V
5 1 V
6 0 V
5 0 V
5 1 V
6 0 V
5 0 V
5 0 V
6 1 V
5 0 V
6 0 V
5 0 V
5 0 V
6 0 V
5 0 V
5 0 V
6 0 V
5 0 V
5 0 V
6 0 V
5 0 V
6 0 V
5 0 V
5 0 V
6 0 V
5 0 V
5 0 V
6 0 V
5 0 V
6 0 V
5 0 V
5 0 V
6 0 V
5 0 V
5 0 V
6 0 V
5 0 V
6 0 V
5 0 V
5 0 V
6 0 V
5 0 V
5 0 V
6 0 V
5 0 V
6 0 V
5 0 V
5 0 V
6 0 V
5 0 V
5 0 V
6 0 V
5 0 V
6 0 V
5 0 V
5 0 V
6 0 V
5 0 V
5 0 V
6 0 V
5 0 V
6 0 V
5 0 V
5 0 V
6 0 V
5 0 V
5 0 V
6 0 V
5 0 V
6 0 V
5 0 V
5 0 V
6 0 V
5 0 V
5 0 V
6 0 V
5 0 V
6 0 V
5 0 V
5 0 V
-5641 0 V
5 0 V
6 0 V
5 0 V
5 0 V
6 0 V
5 0 V
5 0 V
stroke 553 1775 M
5 0 V
6 0 V
5 0 V
5 0 V
6 0 V
5 0 V
5 0 V
6 0 V
5 0 V
5 0 V
5 0 V
6 0 V
5 0 V
5 0 V
6 0 V
5 0 V
5 0 V
6 0 V
5 0 V
5 0 V
5 0 V
6 0 V
5 0 V
5 0 V
6 0 V
5 0 V
5 0 V
6 0 V
5 0 V
5 0 V
5 0 V
6 0 V
5 0 V
5 0 V
6 0 V
5 0 V
5 0 V
6 0 V
5 0 V
5 0 V
5 0 V
6 0 V
5 0 V
5 0 V
6 0 V
5 0 V
5 0 V
6 0 V
5 0 V
5 0 V
5 0 V
6 0 V
5 0 V
5 0 V
6 0 V
5 0 V
5 0 V
5 0 V
6 0 V
5 0 V
5 0 V
6 0 V
5 0 V
5 0 V
6 0 V
5 0 V
5 0 V
5 0 V
6 -1 V
5 0 V
5 0 V
6 0 V
5 -1 V
5 0 V
5 0 V
6 -1 V
5 0 V
5 -1 V
6 -1 V
5 -1 V
5 -1 V
5 -1 V
6 -2 V
5 -1 V
5 -2 V
6 -2 V
5 -3 V
5 -2 V
5 -3 V
6 -3 V
5 -3 V
5 -4 V
6 -4 V
5 -4 V
5 -5 V
5 -5 V
6 -5 V
5 -6 V
5 -5 V
6 -6 V
5 -7 V
5 -7 V
5 -6 V
6 -8 V
stroke 1104 1674 M
5 -7 V
5 -8 V
6 -8 V
5 -8 V
5 -8 V
5 -8 V
6 -9 V
5 -9 V
5 -8 V
6 -9 V
5 -10 V
5 -9 V
5 -9 V
6 -10 V
5 -9 V
5 -10 V
5 -10 V
6 -9 V
5 -10 V
5 -11 V
6 -10 V
5 -10 V
5 -11 V
5 -10 V
6 -11 V
5 -11 V
5 -11 V
5 -11 V
6 -11 V
5 -11 V
5 -12 V
5 -12 V
6 -11 V
5 -12 V
5 -12 V
6 -13 V
5 -12 V
5 -12 V
5 -13 V
6 -13 V
5 -13 V
5 -12 V
5 -13 V
6 -13 V
5 -13 V
5 -13 V
5 -13 V
6 -13 V
5 -12 V
5 -13 V
5 -12 V
6 -11 V
5 -12 V
5 -11 V
5 -10 V
6 -10 V
5 -10 V
5 -8 V
5 -9 V
5 -7 V
6 -7 V
5 -6 V
5 -6 V
5 -5 V
6 -5 V
5 -4 V
5 -3 V
5 -3 V
6 -3 V
5 -2 V
5 -2 V
5 -1 V
5 -1 V
6 -1 V
5 -1 V
5 -1 V
5 0 V
5 0 V
6 0 V
5 0 V
5 -1 V
5 0 V
6 0 V
5 0 V
5 0 V
5 0 V
5 0 V
6 0 V
5 0 V
5 0 V
5 0 V
5 0 V
5 -1 V
6 0 V
5 -1 V
5 0 V
5 0 V
5 -1 V
6 0 V
5 -1 V
5 0 V
5 -1 V
5 -1 V
5 0 V
stroke 1648 980 M
6 -1 V
5 0 V
5 -1 V
5 -1 V
5 0 V
5 -1 V
5 0 V
6 -1 V
5 -1 V
5 0 V
5 -1 V
5 -1 V
5 0 V
5 -1 V
6 -1 V
5 -1 V
5 0 V
5 -1 V
5 -1 V
5 0 V
5 -1 V
5 -1 V
6 -1 V
5 0 V
5 -1 V
5 -1 V
5 -1 V
5 0 V
5 -1 V
5 -1 V
5 -1 V
6 0 V
5 -1 V
5 -1 V
5 -1 V
5 0 V
5 -1 V
5 -1 V
5 -1 V
5 0 V
5 -1 V
5 0 V
5 -1 V
5 0 V
6 0 V
5 0 V
5 1 V
5 1 V
5 1 V
5 2 V
5 2 V
5 3 V
5 4 V
5 4 V
5 6 V
5 6 V
5 8 V
5 9 V
5 10 V
5 11 V
5 13 V
5 13 V
5 15 V
5 16 V
5 17 V
5 18 V
5 18 V
5 19 V
5 20 V
5 20 V
5 20 V
5 20 V
5 20 V
5 20 V
5 20 V
5 20 V
5 19 V
5 19 V
5 19 V
5 18 V
5 18 V
5 18 V
5 17 V
5 17 V
5 16 V
5 17 V
5 16 V
5 16 V
5 16 V
5 16 V
5 16 V
5 16 V
5 16 V
4 16 V
5 17 V
5 17 V
5 17 V
5 18 V
5 19 V
5 19 V
5 19 V
5 21 V
5 20 V
5 22 V
stroke 2173 1802 M
5 22 V
5 23 V
5 23 V
4 24 V
5 25 V
5 24 V
5 26 V
5 26 V
5 26 V
5 26 V
5 26 V
5 27 V
5 27 V
5 27 V
4 27 V
5 27 V
5 27 V
5 27 V
5 28 V
5 28 V
5 28 V
5 28 V
5 28 V
5 29 V
5 30 V
4 30 V
5 30 V
5 32 V
5 32 V
5 32 V
5 34 V
5 34 V
5 36 V
5 36 V
4 38 V
5 38 V
5 39 V
5 41 V
5 41 V
5 42 V
5 42 V
5 43 V
5 42 V
5 43 V
4 42 V
5 42 V
5 40 V
5 39 V
5 38 V
5 36 V
5 33 V
5 31 V
5 29 V
5 26 V
5 24 V
4 21 V
5 18 V
5 17 V
5 14 V
5 12 V
5 11 V
5 8 V
5 8 V
5 6 V
5 6 V
5 4 V
5 4 V
5 4 V
5 3 V
5 2 V
4 3 V
5 2 V
5 2 V
5 2 V
5 2 V
5 2 V
5 2 V
5 2 V
5 2 V
5 1 V
5 2 V
5 2 V
5 1 V
5 2 V
5 2 V
5 2 V
5 1 V
5 2 V
5 2 V
5 1 V
5 2 V
5 1 V
5 2 V
5 2 V
4 1 V
5 2 V
5 1 V
5 2 V
5 2 V
5 1 V
5 2 V
5 1 V
5 2 V
5 1 V
stroke 2685 3743 M
5 2 V
5 1 V
5 2 V
5 1 V
5 2 V
5 1 V
5 1 V
5 2 V
5 1 V
5 2 V
5 1 V
5 2 V
5 1 V
5 1 V
5 2 V
5 1 V
5 1 V
5 2 V
5 1 V
5 1 V
5 2 V
5 1 V
5 1 V
5 1 V
6 2 V
5 1 V
5 1 V
5 1 V
5 1 V
5 2 V
5 1 V
5 1 V
5 1 V
5 1 V
5 2 V
5 1 V
5 1 V
5 1 V
5 1 V
5 1 V
5 1 V
5 1 V
5 1 V
5 1 V
5 1 V
5 1 V
5 1 V
5 1 V
5 1 V
5 1 V
5 1 V
5 1 V
6 1 V
5 1 V
5 1 V
5 1 V
5 1 V
5 1 V
5 0 V
5 1 V
5 1 V
5 1 V
5 1 V
5 1 V
5 0 V
5 1 V
5 1 V
5 1 V
5 0 V
5 1 V
6 1 V
5 1 V
5 0 V
5 1 V
5 1 V
5 0 V
5 1 V
5 1 V
5 0 V
5 1 V
5 1 V
5 0 V
5 1 V
5 0 V
5 1 V
6 0 V
5 1 V
5 0 V
5 1 V
5 0 V
5 1 V
5 0 V
5 1 V
5 0 V
5 1 V
5 0 V
5 1 V
5 0 V
6 0 V
5 1 V
5 0 V
5 0 V
5 1 V
5 0 V
stroke 3210 3840 M
5 0 V
5 1 V
5 0 V
5 0 V
5 0 V
5 1 V
5 0 V
6 0 V
5 0 V
5 1 V
5 0 V
5 0 V
5 0 V
5 0 V
5 0 V
5 0 V
5 1 V
5 0 V
5 0 V
6 0 V
5 0 V
5 0 V
5 0 V
5 0 V
5 0 V
5 0 V
5 0 V
5 0 V
5 0 V
5 0 V
5 0 V
6 0 V
5 0 V
5 0 V
5 -1 V
5 0 V
5 0 V
5 0 V
5 0 V
5 0 V
5 -1 V
5 0 V
5 0 V
5 0 V
6 0 V
5 -1 V
5 0 V
5 0 V
5 -1 V
5 0 V
5 0 V
5 -1 V
5 0 V
5 0 V
5 -1 V
5 0 V
5 0 V
6 -1 V
5 0 V
5 -1 V
5 0 V
5 0 V
5 -1 V
5 0 V
5 -1 V
5 0 V
5 -1 V
5 0 V
5 -1 V
5 -1 V
6 0 V
5 -1 V
5 0 V
5 -1 V
5 0 V
5 -1 V
5 -1 V
5 0 V
5 -1 V
5 -1 V
5 0 V
5 -1 V
5 -1 V
5 -1 V
5 0 V
6 -1 V
5 -1 V
5 -1 V
5 0 V
5 -1 V
5 -1 V
5 -1 V
5 -1 V
5 0 V
5 -1 V
5 -1 V
5 -1 V
5 -1 V
5 -1 V
5 -1 V
5 -1 V
5 -1 V
5 0 V
5 -1 V
stroke 3737 3806 M
6 -1 V
5 -1 V
5 -1 V
5 -1 V
5 -1 V
5 -1 V
5 -1 V
5 -1 V
5 -2 V
5 -1 V
5 -1 V
5 -1 V
5 -1 V
5 -1 V
5 -1 V
5 -1 V
5 -1 V
5 -2 V
5 -1 V
5 -1 V
5 -1 V
5 -1 V
5 -2 V
5 -1 V
5 -1 V
5 -1 V
5 -1 V
5 -2 V
5 -1 V
5 -1 V
5 -2 V
5 -1 V
6 -1 V
5 -2 V
5 -1 V
5 -1 V
5 -2 V
5 -1 V
5 -1 V
5 -2 V
5 -1 V
5 -2 V
5 -1 V
5 -1 V
5 -2 V
5 -1 V
5 -2 V
5 -1 V
5 -2 V
5 -1 V
5 -2 V
5 -1 V
5 -2 V
4 -1 V
5 -2 V
5 -2 V
5 -1 V
5 -2 V
5 -1 V
5 -2 V
5 -1 V
5 -2 V
5 -2 V
5 -1 V
5 -2 V
5 -2 V
5 -1 V
5 -2 V
5 -2 V
5 -1 V
5 -2 V
5 -2 V
5 -1 V
5 -2 V
5 -2 V
5 -2 V
5 -1 V
5 -2 V
5 -2 V
5 -2 V
5 -2 V
5 -2 V
4 -2 V
5 -3 V
5 -2 V
5 -3 V
5 -4 V
5 -3 V
5 -5 V
5 -5 V
5 -6 V
5 -7 V
5 -8 V
5 -10 V
5 -12 V
5 -13 V
4 -16 V
5 -18 V
5 -20 V
5 -23 V
5 -25 V
5 -28 V
5 -30 V
5 -33 V
stroke 4256 3414 M
5 -35 V
5 -37 V
5 -39 V
5 -40 V
4 -41 V
5 -42 V
5 -43 V
5 -42 V
5 -43 V
5 -43 V
5 -42 V
5 -41 V
5 -40 V
5 -40 V
4 -39 V
5 -38 V
5 -36 V
5 -36 V
5 -35 V
5 -34 V
5 -33 V
5 -32 V
5 -31 V
5 -31 V
4 -30 V
5 -30 V
5 -29 V
5 -29 V
5 -28 V
5 -28 V
5 -28 V
5 -28 V
5 -27 V
5 -27 V
4 -28 V
5 -27 V
5 -27 V
5 -26 V
5 -27 V
5 -27 V
5 -26 V
5 -26 V
5 -26 V
5 -25 V
5 -25 V
4 -25 V
5 -24 V
5 -24 V
5 -23 V
5 -22 V
5 -22 V
5 -21 V
5 -20 V
5 -20 V
5 -19 V
5 -19 V
5 -18 V
5 -17 V
5 -18 V
4 -16 V
5 -17 V
5 -16 V
5 -16 V
5 -16 V
5 -16 V
5 -16 V
5 -16 V
5 -16 V
5 -16 V
5 -17 V
5 -17 V
5 -17 V
5 -17 V
5 -18 V
5 -18 V
5 -19 V
5 -19 V
5 -19 V
5 -19 V
5 -20 V
5 -20 V
5 -20 V
5 -21 V
5 -20 V
5 -20 V
5 -19 V
5 -20 V
5 -18 V
5 -18 V
5 -18 V
5 -16 V
5 -15 V
5 -14 V
5 -13 V
5 -12 V
5 -10 V
5 -9 V
5 -8 V
5 -7 V
5 -6 V
5 -5 V
5 -4 V
5 -3 V
5 -3 V
stroke 4770 955 M
5 -2 V
5 -1 V
5 -1 V
5 -1 V
5 0 V
5 0 V
5 0 V
6 1 V
5 0 V
5 1 V
5 0 V
5 1 V
5 1 V
5 0 V
5 1 V
5 1 V
5 1 V
5 0 V
5 1 V
6 1 V
5 1 V
5 0 V
5 1 V
5 1 V
5 1 V
5 0 V
5 1 V
5 1 V
5 1 V
6 0 V
5 1 V
5 1 V
5 1 V
5 0 V
5 1 V
5 1 V
6 0 V
5 1 V
5 1 V
5 0 V
5 1 V
5 1 V
5 0 V
6 1 V
5 1 V
5 0 V
5 1 V
5 0 V
5 1 V
5 1 V
6 0 V
5 1 V
5 0 V
5 1 V
5 1 V
5 0 V
6 0 V
5 1 V
5 0 V
5 1 V
5 0 V
6 0 V
5 1 V
5 0 V
5 0 V
5 0 V
6 0 V
5 0 V
5 0 V
5 0 V
5 0 V
6 0 V
5 0 V
5 1 V
5 0 V
5 0 V
6 0 V
5 0 V
5 1 V
5 0 V
5 1 V
6 1 V
5 2 V
5 1 V
5 2 V
5 3 V
6 3 V
5 3 V
5 4 V
5 4 V
6 5 V
5 6 V
5 6 V
5 7 V
6 7 V
5 8 V
5 9 V
5 9 V
6 9 V
5 11 V
5 11 V
5 11 V
5 11 V
6 12 V
stroke 5307 1134 M
5 13 V
5 12 V
5 13 V
6 13 V
5 12 V
5 13 V
5 13 V
6 13 V
5 13 V
5 13 V
6 13 V
5 12 V
5 13 V
5 12 V
6 13 V
5 12 V
5 12 V
5 11 V
6 12 V
5 12 V
5 11 V
5 11 V
6 12 V
5 11 V
5 11 V
5 10 V
6 11 V
5 10 V
5 11 V
6 10 V
5 10 V
5 10 V
5 10 V
6 10 V
5 10 V
5 9 V
5 10 V
6 9 V
5 9 V
5 10 V
6 9 V
5 9 V
5 8 V
5 9 V
6 8 V
5 9 V
5 8 V
5 8 V
6 7 V
5 8 V
5 7 V
6 7 V
5 7 V
5 6 V
5 7 V
6 6 V
5 5 V
5 5 V
6 5 V
5 5 V
5 5 V
5 4 V
6 3 V
5 4 V
5 3 V
6 3 V
5 3 V
5 2 V
5 2 V
6 2 V
5 2 V
5 1 V
6 2 V
5 1 V
5 1 V
5 1 V
6 0 V
5 1 V
5 1 V
6 0 V
5 0 V
5 1 V
6 0 V
5 0 V
5 0 V
5 0 V
6 1 V
5 0 V
5 0 V
6 0 V
5 0 V
5 0 V
5 0 V
6 0 V
5 0 V
5 0 V
6 0 V
5 0 V
5 0 V
6 0 V
5 0 V
5 0 V
5 0 V
6 0 V
stroke 5856 1775 M
5 0 V
5 0 V
6 0 V
5 0 V
5 0 V
5 0 V
6 0 V
5 0 V
5 0 V
6 0 V
5 0 V
5 0 V
6 0 V
5 0 V
5 0 V
5 0 V
6 0 V
5 0 V
5 0 V
6 0 V
5 0 V
5 0 V
6 0 V
5 0 V
5 0 V
5 0 V
6 0 V
5 0 V
5 0 V
6 0 V
5 0 V
5 0 V
6 0 V
5 0 V
5 0 V
5 0 V
6 0 V
5 0 V
5 0 V
6 0 V
5 0 V
5 0 V
6 0 V
5 0 V
5 0 V
5 0 V
6 0 V
5 0 V
5 0 V
6 0 V
5 0 V
5 0 V
6 0 V
5 0 V
5 0 V
5 0 V
6 0 V
-5642 0 V
5 0 V
5 0 V
6 0 V
5 0 V
5 0 V
5 0 V
6 0 V
5 0 V
5 0 V
5 0 V
6 0 V
5 0 V
5 0 V
5 0 V
6 0 V
5 0 V
5 0 V
5 0 V
5 0 V
6 0 V
5 0 V
5 0 V
5 0 V
6 0 V
5 0 V
5 0 V
5 0 V
6 0 V
5 0 V
5 0 V
5 0 V
6 0 V
5 0 V
5 0 V
5 0 V
5 0 V
6 0 V
5 0 V
5 0 V
5 0 V
6 0 V
5 0 V
5 0 V
5 0 V
6 0 V
5 0 V
stroke 757 1775 M
5 0 V
5 0 V
5 0 V
6 0 V
5 0 V
5 0 V
5 0 V
6 0 V
5 0 V
5 0 V
5 0 V
6 0 V
5 0 V
5 0 V
5 0 V
5 0 V
6 0 V
5 0 V
5 0 V
5 0 V
6 0 V
5 0 V
5 0 V
5 0 V
6 0 V
5 0 V
5 0 V
5 0 V
5 0 V
6 0 V
5 0 V
5 0 V
5 -1 V
6 0 V
5 0 V
5 0 V
5 0 V
5 -1 V
6 0 V
5 -1 V
5 0 V
5 -1 V
6 -1 V
5 -1 V
5 -1 V
5 -1 V
6 -2 V
5 -1 V
5 -2 V
5 -3 V
5 -2 V
6 -3 V
5 -3 V
5 -3 V
5 -4 V
5 -4 V
6 -5 V
5 -4 V
5 -5 V
5 -6 V
6 -6 V
5 -6 V
5 -7 V
5 -7 V
5 -7 V
6 -8 V
5 -8 V
5 -8 V
5 -8 V
6 -9 V
5 -9 V
5 -9 V
5 -10 V
5 -10 V
6 -9 V
5 -10 V
5 -11 V
5 -10 V
5 -10 V
6 -11 V
5 -11 V
5 -11 V
5 -11 V
5 -11 V
6 -11 V
5 -12 V
5 -11 V
5 -12 V
6 -12 V
5 -12 V
5 -12 V
5 -12 V
5 -13 V
6 -12 V
5 -13 V
5 -13 V
5 -13 V
5 -14 V
6 -13 V
5 -14 V
5 -14 V
5 -14 V
5 -14 V
6 -15 V
stroke 1300 1247 M
5 -14 V
5 -15 V
5 -15 V
5 -15 V
5 -15 V
6 -15 V
5 -15 V
5 -15 V
5 -15 V
5 -14 V
6 -15 V
5 -14 V
5 -14 V
5 -13 V
5 -13 V
6 -13 V
5 -12 V
5 -11 V
5 -11 V
5 -10 V
5 -9 V
6 -8 V
5 -8 V
5 -7 V
5 -6 V
5 -6 V
5 -5 V
6 -4 V
5 -4 V
5 -3 V
5 -3 V
5 -2 V
5 -2 V
6 -1 V
5 -1 V
5 -1 V
5 -1 V
5 0 V
5 -1 V
5 0 V
6 0 V
5 0 V
5 0 V
5 0 V
5 0 V
5 0 V
5 0 V
6 0 V
5 0 V
5 0 V
5 0 V
5 0 V
5 0 V
5 -1 V
6 0 V
5 0 V
5 -1 V
5 0 V
5 -1 V
5 0 V
5 -1 V
5 0 V
5 -1 V
6 -1 V
5 0 V
5 -1 V
5 0 V
5 -1 V
5 -1 V
5 0 V
5 -1 V
5 -1 V
5 0 V
6 -1 V
5 -1 V
5 -1 V
5 0 V
5 -1 V
5 -1 V
5 0 V
5 -1 V
5 -1 V
5 -1 V
5 0 V
5 -1 V
5 -1 V
6 -1 V
5 0 V
5 -1 V
5 -1 V
5 -1 V
5 -1 V
5 0 V
5 -1 V
5 -1 V
5 -1 V
5 -1 V
5 0 V
5 -1 V
5 -1 V
5 -1 V
5 -1 V
5 -1 V
5 -1 V
stroke 1832 865 M
5 0 V
5 -1 V
5 -1 V
5 -1 V
5 -1 V
5 0 V
5 -1 V
5 0 V
5 -1 V
5 0 V
5 0 V
5 0 V
5 1 V
5 1 V
5 1 V
5 2 V
5 3 V
5 4 V
5 4 V
5 6 V
5 7 V
5 8 V
5 9 V
5 11 V
5 12 V
5 14 V
5 15 V
5 16 V
5 18 V
5 19 V
5 20 V
5 21 V
5 22 V
5 22 V
5 23 V
5 23 V
4 23 V
5 23 V
5 23 V
5 22 V
5 23 V
5 22 V
5 22 V
5 21 V
5 21 V
5 20 V
5 20 V
5 19 V
4 19 V
5 19 V
5 18 V
5 18 V
5 18 V
5 18 V
5 17 V
5 18 V
5 17 V
4 18 V
5 18 V
5 17 V
5 19 V
5 18 V
5 19 V
5 19 V
5 20 V
5 21 V
4 20 V
5 22 V
5 22 V
5 23 V
5 23 V
5 24 V
5 25 V
4 25 V
5 26 V
5 26 V
5 27 V
5 27 V
5 28 V
5 28 V
4 28 V
5 29 V
5 29 V
5 29 V
5 30 V
5 30 V
4 30 V
5 30 V
5 31 V
5 31 V
5 32 V
5 31 V
5 33 V
4 33 V
5 33 V
5 35 V
5 35 V
5 36 V
5 37 V
4 37 V
5 39 V
5 40 V
5 41 V
5 43 V
stroke 2343 2879 M
5 43 V
4 45 V
5 46 V
5 46 V
5 48 V
5 48 V
5 48 V
5 49 V
4 48 V
5 48 V
5 47 V
5 46 V
5 44 V
5 42 V
4 40 V
5 37 V
5 34 V
5 31 V
5 28 V
5 25 V
5 23 V
4 19 V
5 17 V
5 14 V
5 13 V
5 10 V
5 9 V
5 7 V
4 6 V
5 6 V
5 4 V
5 4 V
5 3 V
5 3 V
5 3 V
5 2 V
5 3 V
4 2 V
5 2 V
5 2 V
5 2 V
5 2 V
5 2 V
5 2 V
5 2 V
5 2 V
4 1 V
5 2 V
5 2 V
5 2 V
5 2 V
5 2 V
5 1 V
5 2 V
5 2 V
5 2 V
4 2 V
5 1 V
5 2 V
5 2 V
5 1 V
5 2 V
5 2 V
5 2 V
5 1 V
5 2 V
5 2 V
5 1 V
5 2 V
4 2 V
5 1 V
5 2 V
5 1 V
5 2 V
5 1 V
5 2 V
5 2 V
5 1 V
5 2 V
5 1 V
5 2 V
5 1 V
5 2 V
5 1 V
5 2 V
5 1 V
4 2 V
5 1 V
5 1 V
5 2 V
5 1 V
5 2 V
5 1 V
5 1 V
5 2 V
5 1 V
5 1 V
5 2 V
5 1 V
5 1 V
5 2 V
5 1 V
5 1 V
5 1 V
stroke 2853 3976 M
5 2 V
5 1 V
5 1 V
5 1 V
5 1 V
5 2 V
5 1 V
5 1 V
5 1 V
5 1 V
5 1 V
5 1 V
5 2 V
4 1 V
5 1 V
5 1 V
5 1 V
5 1 V
5 1 V
5 1 V
5 1 V
5 1 V
5 1 V
5 1 V
5 1 V
5 1 V
5 1 V
5 0 V
5 1 V
5 1 V
5 1 V
5 1 V
5 1 V
5 1 V
5 0 V
5 1 V
5 1 V
5 1 V
5 1 V
5 0 V
5 1 V
5 1 V
5 1 V
5 0 V
5 1 V
5 1 V
5 0 V
5 1 V
5 1 V
5 0 V
5 1 V
5 0 V
5 1 V
5 1 V
5 0 V
5 1 V
5 0 V
5 1 V
5 0 V
5 1 V
6 0 V
5 1 V
5 0 V
5 1 V
5 0 V
5 0 V
5 1 V
5 0 V
5 1 V
5 0 V
5 0 V
5 1 V
5 0 V
5 0 V
5 1 V
5 0 V
5 0 V
5 0 V
5 1 V
5 0 V
5 0 V
5 0 V
5 1 V
5 0 V
5 0 V
5 0 V
5 0 V
5 0 V
5 0 V
5 1 V
5 0 V
5 0 V
5 0 V
5 0 V
5 0 V
5 0 V
5 0 V
5 0 V
5 0 V
5 0 V
5 0 V
5 0 V
5 0 V
5 0 V
stroke 3373 4038 M
5 -1 V
5 0 V
5 0 V
5 0 V
5 0 V
5 0 V
5 0 V
5 -1 V
5 0 V
5 0 V
6 0 V
5 -1 V
5 0 V
5 0 V
5 0 V
5 -1 V
5 0 V
5 0 V
5 -1 V
5 0 V
5 0 V
5 -1 V
5 0 V
5 -1 V
5 0 V
5 0 V
5 -1 V
5 0 V
5 -1 V
5 0 V
5 -1 V
5 0 V
5 -1 V
5 0 V
5 -1 V
5 -1 V
5 0 V
5 -1 V
5 0 V
5 -1 V
5 -1 V
5 0 V
5 -1 V
5 0 V
5 -1 V
5 -1 V
5 -1 V
5 0 V
5 -1 V
5 -1 V
5 -1 V
5 0 V
5 -1 V
5 -1 V
5 -1 V
5 -1 V
5 0 V
5 -1 V
5 -1 V
5 -1 V
5 -1 V
5 -1 V
5 -1 V
5 -1 V
5 0 V
5 -1 V
5 -1 V
5 -1 V
5 -1 V
5 -1 V
5 -1 V
5 -1 V
5 -1 V
5 -1 V
5 -1 V
5 -2 V
5 -1 V
5 -1 V
5 -1 V
5 -1 V
5 -1 V
5 -1 V
5 -1 V
5 -2 V
5 -1 V
5 -1 V
5 -1 V
5 -1 V
5 -2 V
4 -1 V
5 -1 V
5 -1 V
5 -2 V
5 -1 V
5 -1 V
5 -2 V
5 -1 V
5 -1 V
5 -2 V
5 -1 V
5 -1 V
5 -2 V
5 -1 V
5 -1 V
stroke 3893 3958 M
5 -2 V
5 -1 V
5 -2 V
5 -1 V
5 -2 V
5 -1 V
5 -2 V
5 -1 V
5 -2 V
4 -1 V
5 -2 V
5 -1 V
5 -2 V
5 -1 V
5 -2 V
5 -1 V
5 -2 V
5 -2 V
5 -1 V
5 -2 V
5 -1 V
5 -2 V
5 -2 V
5 -1 V
4 -2 V
5 -2 V
5 -1 V
5 -2 V
5 -2 V
5 -2 V
5 -1 V
5 -2 V
5 -2 V
5 -2 V
5 -1 V
5 -2 V
4 -2 V
5 -2 V
5 -2 V
5 -1 V
5 -2 V
5 -2 V
5 -2 V
5 -2 V
5 -2 V
5 -2 V
4 -1 V
5 -2 V
5 -2 V
5 -2 V
5 -2 V
5 -2 V
5 -3 V
5 -2 V
5 -2 V
4 -3 V
5 -3 V
5 -4 V
5 -4 V
5 -4 V
5 -5 V
5 -7 V
5 -7 V
4 -9 V
5 -11 V
5 -13 V
5 -15 V
5 -17 V
5 -20 V
5 -22 V
4 -26 V
5 -29 V
5 -31 V
5 -35 V
5 -37 V
5 -40 V
5 -43 V
4 -44 V
5 -46 V
5 -47 V
5 -48 V
5 -49 V
5 -48 V
4 -49 V
5 -48 V
5 -47 V
5 -47 V
5 -45 V
5 -45 V
4 -43 V
5 -42 V
5 -41 V
5 -40 V
5 -39 V
5 -37 V
5 -37 V
4 -36 V
5 -35 V
5 -34 V
5 -33 V
5 -33 V
5 -33 V
4 -31 V
5 -32 V
stroke 4401 2369 M
5 -31 V
5 -30 V
5 -31 V
5 -30 V
4 -30 V
5 -29 V
5 -29 V
5 -29 V
5 -29 V
5 -28 V
5 -28 V
4 -28 V
5 -27 V
5 -27 V
5 -26 V
5 -26 V
5 -25 V
5 -25 V
4 -24 V
5 -23 V
5 -22 V
5 -22 V
5 -22 V
5 -21 V
5 -20 V
5 -20 V
4 -19 V
5 -19 V
5 -18 V
5 -18 V
5 -18 V
5 -18 V
5 -18 V
5 -17 V
4 -18 V
5 -17 V
5 -18 V
5 -18 V
5 -18 V
5 -18 V
5 -19 V
5 -19 V
5 -19 V
5 -20 V
4 -21 V
5 -20 V
5 -22 V
5 -21 V
5 -23 V
5 -22 V
5 -23 V
5 -23 V
5 -23 V
5 -23 V
5 -23 V
5 -23 V
5 -22 V
5 -21 V
4 -21 V
5 -20 V
5 -19 V
5 -17 V
5 -17 V
5 -15 V
5 -13 V
5 -12 V
5 -10 V
5 -10 V
5 -7 V
5 -7 V
5 -5 V
5 -5 V
5 -3 V
5 -3 V
5 -2 V
5 -1 V
5 -1 V
5 -1 V
5 0 V
5 0 V
5 0 V
5 1 V
5 0 V
5 1 V
5 1 V
5 0 V
5 1 V
5 1 V
5 1 V
5 1 V
5 0 V
5 1 V
5 1 V
5 1 V
5 1 V
5 1 V
5 0 V
5 1 V
5 1 V
5 1 V
5 1 V
5 1 V
6 0 V
5 1 V
stroke 4915 877 M
5 1 V
5 1 V
5 0 V
5 1 V
5 1 V
5 1 V
5 0 V
5 1 V
5 1 V
5 1 V
5 0 V
5 1 V
5 1 V
6 1 V
5 0 V
5 1 V
5 1 V
5 0 V
5 1 V
5 1 V
5 0 V
5 1 V
5 1 V
6 0 V
5 1 V
5 1 V
5 0 V
5 1 V
5 0 V
5 1 V
5 0 V
5 1 V
6 0 V
5 1 V
5 0 V
5 0 V
5 1 V
5 0 V
5 0 V
5 0 V
6 0 V
5 0 V
5 0 V
5 0 V
5 0 V
5 0 V
5 0 V
6 0 V
5 0 V
5 0 V
5 0 V
5 1 V
5 0 V
5 1 V
6 1 V
5 1 V
5 2 V
5 1 V
5 3 V
5 2 V
6 4 V
5 3 V
5 5 V
5 5 V
5 6 V
5 6 V
6 7 V
5 8 V
5 9 V
5 9 V
5 10 V
5 11 V
6 11 V
5 12 V
5 13 V
5 13 V
5 13 V
6 14 V
5 15 V
5 14 V
5 15 V
5 15 V
5 15 V
6 15 V
5 15 V
5 14 V
5 15 V
5 15 V
6 15 V
5 14 V
5 15 V
5 14 V
5 14 V
6 14 V
5 14 V
5 13 V
5 14 V
5 13 V
6 13 V
5 13 V
5 12 V
5 13 V
5 12 V
6 12 V
stroke 5450 1435 M
5 12 V
5 12 V
5 12 V
5 11 V
6 12 V
5 11 V
5 11 V
5 11 V
5 11 V
6 11 V
5 10 V
5 11 V
5 10 V
6 10 V
5 10 V
5 10 V
5 10 V
5 9 V
6 9 V
5 9 V
5 9 V
5 8 V
5 9 V
6 8 V
5 7 V
5 7 V
5 7 V
6 7 V
5 6 V
5 6 V
5 5 V
5 5 V
6 5 V
5 5 V
5 4 V
5 3 V
6 4 V
5 3 V
5 2 V
5 3 V
5 2 V
6 2 V
5 1 V
5 2 V
5 1 V
5 1 V
6 1 V
5 1 V
5 1 V
5 0 V
6 1 V
5 0 V
5 1 V
5 0 V
6 0 V
5 0 V
5 0 V
5 1 V
5 0 V
6 0 V
5 0 V
5 0 V
5 0 V
6 0 V
5 0 V
5 0 V
5 0 V
5 0 V
6 0 V
5 0 V
5 0 V
5 0 V
6 0 V
5 0 V
5 0 V
5 0 V
6 0 V
5 0 V
5 0 V
5 0 V
5 0 V
6 0 V
5 0 V
5 0 V
5 0 V
6 0 V
5 0 V
5 0 V
5 0 V
6 0 V
5 0 V
5 0 V
5 0 V
5 0 V
6 0 V
5 0 V
5 0 V
5 0 V
6 0 V
5 0 V
5 0 V
5 0 V
6 0 V
5 0 V
stroke 5993 1775 M
5 0 V
5 0 V
6 0 V
5 0 V
5 0 V
5 0 V
5 0 V
6 0 V
5 0 V
5 0 V
5 0 V
6 0 V
5 0 V
5 0 V
5 0 V
6 0 V
5 0 V
5 0 V
5 0 V
6 0 V
5 0 V
5 0 V
5 0 V
5 0 V
6 0 V
5 0 V
5 0 V
5 0 V
6 0 V
5 0 V
5 0 V
% End plot #1
% Begin plot #2
stroke
LT1
0.00 0.00 1.00 C LCb setrgbcolor
6416 4316 M
[ [(Times-Sans) 120.0 0.0 true true 0 (using TOSCA)]
] -40.0 MRshow
LT1
0.00 0.00 1.00 C 6488 4316 M
351 0 V
516 1796 M
30 0 V
31 0 V
30 -1 V
30 0 V
31 -1 V
30 -1 V
30 -2 V
31 -1 V
30 -2 V
30 -2 V
30 -2 V
31 -3 V
30 -2 V
30 -3 V
31 -4 V
30 -5 V
30 -5 V
30 -5 V
30 -7 V
31 -7 V
30 -7 V
30 -9 V
30 -9 V
30 -10 V
30 -10 V
30 -11 V
30 -11 V
30 -10 V
30 -10 V
30 -11 V
30 -9 V
30 -8 V
29 -7 V
30 -6 V
30 -5 V
29 -4 V
30 -2 V
29 -2 V
30 -1 V
29 -1 V
30 -1 V
29 0 V
29 1 V
29 0 V
29 1 V
29 5 V
29 8 V
29 11 V
28 15 V
29 19 V
29 23 V
28 27 V
29 34 V
28 40 V
28 45 V
29 51 V
28 58 V
28 64 V
28 63 V
28 62 V
29 61 V
28 60 V
28 58 V
28 47 V
28 39 V
29 28 V
28 19 V
28 14 V
29 11 V
28 8 V
29 6 V
28 4 V
29 4 V
28 3 V
29 3 V
29 3 V
28 2 V
29 3 V
29 2 V
29 2 V
29 3 V
28 1 V
29 2 V
29 2 V
29 1 V
29 2 V
29 1 V
29 1 V
29 1 V
29 1 V
29 1 V
29 1 V
29 0 V
30 1 V
29 0 V
29 0 V
29 0 V
29 0 V
29 0 V
29 -1 V
29 0 V
29 -1 V
stroke 3499 2519 M
29 -1 V
29 -1 V
29 -1 V
29 -1 V
29 -1 V
29 -2 V
29 -1 V
29 -2 V
29 -2 V
29 -2 V
29 -2 V
29 -2 V
28 -2 V
29 -3 V
29 -2 V
29 -3 V
28 -3 V
29 -4 V
28 -3 V
29 -5 V
28 -5 V
29 -9 V
28 -11 V
29 -14 V
28 -20 V
28 -30 V
28 -39 V
29 -48 V
28 -59 V
28 -60 V
28 -61 V
28 -62 V
28 -64 V
29 -63 V
28 -57 V
28 -51 V
28 -45 V
29 -39 V
28 -33 V
29 -26 V
28 -23 V
29 -18 V
29 -15 V
29 -11 V
28 -8 V
29 -4 V
29 -1 V
30 0 V
29 -1 V
29 0 V
29 1 V
30 1 V
29 1 V
30 2 V
29 3 V
30 4 V
30 5 V
29 6 V
30 7 V
30 8 V
30 9 V
30 11 V
30 10 V
30 10 V
30 11 V
30 11 V
30 10 V
30 10 V
30 9 V
30 8 V
30 8 V
30 7 V
30 6 V
31 6 V
30 5 V
30 4 V
30 4 V
31 3 V
30 3 V
30 2 V
30 2 V
31 2 V
30 2 V
30 1 V
31 2 V
30 1 V
30 1 V
31 0 V
30 1 V
30 0 V
-5616 0 V
30 0 V
31 0 V
30 -1 V
30 0 V
31 -1 V
30 -1 V
30 -2 V
31 -1 V
30 -2 V
30 -2 V
30 -2 V
31 -3 V
30 -2 V
stroke 910 1779 M
30 -3 V
31 -4 V
30 -5 V
30 -5 V
30 -5 V
30 -7 V
31 -7 V
30 -7 V
30 -9 V
30 -9 V
30 -10 V
30 -10 V
30 -11 V
30 -11 V
30 -10 V
30 -10 V
30 -11 V
30 -9 V
30 -8 V
29 -7 V
30 -6 V
30 -5 V
29 -4 V
30 -2 V
29 -2 V
30 -1 V
29 -1 V
30 -1 V
29 0 V
29 1 V
29 0 V
29 1 V
29 5 V
29 8 V
29 11 V
28 15 V
29 19 V
29 23 V
28 27 V
29 34 V
28 40 V
28 45 V
29 51 V
28 58 V
28 64 V
28 63 V
28 62 V
29 61 V
28 60 V
28 58 V
28 47 V
28 39 V
29 28 V
28 19 V
28 14 V
29 11 V
28 8 V
29 6 V
28 4 V
29 4 V
28 3 V
29 3 V
29 3 V
28 2 V
29 3 V
29 2 V
29 2 V
29 3 V
28 1 V
29 2 V
29 2 V
29 1 V
29 2 V
29 1 V
29 1 V
29 1 V
29 1 V
29 1 V
29 1 V
29 0 V
30 1 V
29 0 V
29 0 V
29 0 V
29 0 V
29 0 V
29 -1 V
29 0 V
29 -1 V
29 -1 V
29 -1 V
29 -1 V
29 -1 V
29 -1 V
29 -2 V
29 -1 V
29 -2 V
29 -2 V
29 -2 V
29 -2 V
29 -2 V
28 -2 V
29 -3 V
29 -2 V
stroke 3933 2494 M
29 -3 V
28 -3 V
29 -4 V
28 -3 V
29 -5 V
28 -5 V
29 -9 V
28 -11 V
29 -14 V
28 -20 V
28 -30 V
28 -39 V
29 -48 V
28 -59 V
28 -60 V
28 -61 V
28 -62 V
28 -64 V
29 -63 V
28 -57 V
28 -51 V
28 -45 V
29 -39 V
28 -33 V
29 -26 V
28 -23 V
29 -18 V
29 -15 V
29 -11 V
28 -8 V
29 -4 V
29 -1 V
30 0 V
29 -1 V
29 0 V
29 1 V
30 1 V
29 1 V
30 2 V
29 3 V
30 4 V
30 5 V
29 6 V
30 7 V
30 8 V
30 9 V
30 11 V
30 10 V
30 10 V
30 11 V
30 11 V
30 10 V
30 10 V
30 9 V
30 8 V
30 8 V
30 7 V
30 6 V
31 6 V
30 5 V
30 4 V
30 4 V
31 3 V
30 3 V
30 2 V
30 2 V
31 2 V
30 2 V
30 1 V
31 2 V
30 1 V
30 1 V
31 0 V
30 1 V
30 0 V
516 1795 L
29 0 V
29 -1 V
30 0 V
29 -1 V
29 -1 V
29 -1 V
29 -1 V
29 -2 V
30 -2 V
29 -2 V
29 -3 V
29 -2 V
29 -3 V
29 -2 V
29 -4 V
29 -4 V
29 -6 V
30 -6 V
29 -8 V
29 -9 V
29 -11 V
29 -11 V
29 -13 V
29 -13 V
29 -15 V
29 -17 V
29 -20 V
28 -21 V
29 -21 V
29 -20 V
29 -20 V
29 -16 V
28 -13 V
29 -12 V
29 -9 V
28 -7 V
29 -4 V
28 -2 V
29 -2 V
28 -2 V
28 -2 V
29 -1 V
28 -2 V
28 -1 V
28 -2 V
28 -2 V
28 -4 V
28 0 V
28 6 V
27 11 V
28 16 V
28 21 V
27 27 V
27 35 V
28 49 V
27 56 V
27 63 V
27 71 V
27 78 V
27 87 V
27 91 V
27 91 V
27 92 V
27 92 V
27 93 V
27 82 V
27 58 V
28 41 V
27 23 V
27 12 V
27 10 V
27 8 V
28 7 V
27 4 V
28 5 V
27 4 V
27 4 V
28 3 V
28 4 V
27 3 V
28 3 V
27 3 V
28 3 V
28 3 V
28 2 V
27 3 V
28 2 V
28 2 V
28 2 V
28 2 V
28 2 V
28 1 V
28 1 V
27 1 V
28 1 V
28 1 V
28 1 V
28 0 V
28 1 V
28 0 V
28 0 V
28 0 V
28 -1 V
28 0 V
stroke 3441 2754 M
28 -1 V
28 -1 V
28 -1 V
28 -1 V
28 -2 V
28 -1 V
28 -2 V
27 -2 V
28 -2 V
28 -2 V
28 -2 V
28 -3 V
27 -2 V
28 -3 V
28 -3 V
27 -3 V
28 -3 V
28 -4 V
27 -3 V
28 -4 V
27 -4 V
28 -4 V
27 -4 V
27 -6 V
28 -7 V
27 -9 V
27 -11 V
27 -13 V
28 -31 V
27 -48 V
27 -64 V
27 -91 V
27 -93 V
27 -92 V
27 -91 V
27 -92 V
27 -91 V
27 -82 V
27 -76 V
27 -67 V
27 -61 V
27 -53 V
28 -45 V
27 -30 V
28 -25 V
27 -19 V
28 -14 V
28 -9 V
27 -3 V
28 1 V
28 4 V
28 2 V
28 1 V
29 2 V
28 1 V
28 2 V
28 2 V
29 2 V
28 1 V
29 3 V
28 5 V
29 8 V
29 10 V
28 13 V
29 14 V
29 18 V
29 20 V
28 20 V
29 22 V
29 20 V
29 19 V
29 16 V
29 14 V
29 13 V
29 13 V
29 11 V
29 9 V
29 9 V
29 7 V
29 7 V
29 5 V
30 4 V
29 3 V
29 2 V
29 3 V
29 2 V
29 3 V
29 2 V
29 2 V
30 1 V
29 1 V
29 2 V
29 0 V
29 1 V
30 0 V
29 1 V
-5626 0 V
28 0 V
29 0 V
28 0 V
28 -1 V
29 -1 V
28 -1 V
28 -2 V
stroke 714 1790 M
29 -1 V
28 -2 V
28 -3 V
29 -2 V
28 -3 V
28 -3 V
29 -1 V
28 -2 V
28 -4 V
28 -5 V
29 -7 V
28 -8 V
28 -9 V
28 -12 V
29 -13 V
28 -14 V
28 -16 V
28 -18 V
28 -19 V
28 -23 V
28 -31 V
29 -35 V
28 -37 V
28 -34 V
28 -30 V
28 -23 V
27 -19 V
28 -15 V
28 -11 V
28 -8 V
28 -3 V
27 0 V
28 -1 V
28 -2 V
27 -3 V
28 -3 V
27 -2 V
28 -2 V
27 -2 V
27 -1 V
27 -9 V
27 -6 V
27 0 V
27 7 V
27 12 V
27 19 V
27 25 V
26 31 V
27 60 V
26 73 V
27 78 V
26 84 V
26 89 V
27 94 V
26 105 V
26 112 V
26 116 V
27 121 V
26 127 V
26 134 V
26 107 V
26 69 V
27 44 V
26 18 V
26 6 V
27 10 V
26 7 V
27 7 V
26 6 V
27 5 V
27 4 V
26 5 V
27 4 V
27 5 V
27 4 V
26 4 V
27 4 V
27 3 V
27 4 V
27 3 V
27 3 V
27 3 V
27 3 V
27 2 V
27 3 V
27 2 V
27 2 V
27 1 V
28 2 V
27 1 V
27 2 V
27 0 V
27 1 V
27 1 V
27 0 V
28 0 V
27 0 V
27 0 V
27 0 V
27 -1 V
27 -1 V
28 -1 V
27 -1 V
27 -2 V
stroke 3548 2974 M
27 -1 V
27 -2 V
27 -2 V
27 -2 V
27 -3 V
27 -3 V
27 -2 V
27 -3 V
27 -4 V
27 -3 V
27 -3 V
27 -4 V
27 -4 V
27 -4 V
26 -4 V
27 -5 V
27 -4 V
27 -5 V
26 -5 V
27 -5 V
26 -6 V
27 -7 V
26 -9 V
27 -8 V
26 -8 V
26 -31 V
27 -56 V
26 -79 V
26 -131 V
26 -131 V
26 -125 V
27 -118 V
26 -114 V
26 -109 V
26 -99 V
27 -92 V
26 -87 V
26 -81 V
27 -76 V
26 -71 V
27 -42 V
27 -28 V
26 -22 V
27 -15 V
27 -10 V
27 -3 V
27 2 V
27 8 V
27 6 V
28 1 V
27 2 V
27 2 V
28 3 V
27 2 V
28 3 V
28 3 V
27 -2 V
28 2 V
28 5 V
28 10 V
27 13 V
28 17 V
28 21 V
28 25 V
28 33 V
28 35 V
28 37 V
28 34 V
29 27 V
28 20 V
28 19 V
28 17 V
28 15 V
28 14 V
29 12 V
28 10 V
28 9 V
28 8 V
29 6 V
28 4 V
28 3 V
28 1 V
29 3 V
28 3 V
28 2 V
29 3 V
28 2 V
28 1 V
29 2 V
28 1 V
28 1 V
29 1 V
28 1 V
28 0 V
29 0 V
-5629 1 V
28 0 V
27 0 V
28 0 V
28 -1 V
27 -1 V
28 -1 V
28 -1 V
27 -2 V
stroke 737 1790 M
28 -2 V
28 -2 V
27 -3 V
28 -3 V
28 -3 V
27 -1 V
28 -1 V
28 -2 V
27 -4 V
28 -6 V
28 -8 V
27 -10 V
28 -11 V
27 -13 V
28 -16 V
27 -17 V
28 -18 V
27 -21 V
28 -22 V
27 -33 V
28 -44 V
27 -54 V
28 -55 V
27 -52 V
28 -39 V
27 -27 V
27 -22 V
27 -18 V
28 -12 V
27 -7 V
27 -1 V
27 5 V
27 -2 V
27 -5 V
27 -3 V
27 -4 V
27 -2 V
26 -2 V
27 -2 V
27 0 V
26 -11 V
27 -11 V
26 -3 V
27 3 V
26 10 V
26 17 V
26 23 V
26 30 V
26 65 V
26 97 V
26 99 V
26 101 V
25 101 V
26 102 V
26 106 V
25 120 V
26 131 V
25 144 V
26 157 V
26 173 V
25 179 V
26 96 V
25 63 V
26 34 V
26 6 V
26 6 V
25 9 V
26 8 V
26 6 V
26 6 V
26 6 V
26 6 V
26 5 V
26 6 V
26 5 V
27 5 V
26 4 V
26 5 V
26 4 V
27 4 V
26 4 V
26 4 V
27 3 V
26 3 V
26 3 V
27 3 V
26 3 V
27 2 V
26 2 V
27 2 V
26 2 V
27 1 V
26 1 V
27 1 V
26 1 V
27 1 V
27 0 V
26 0 V
27 0 V
26 -1 V
27 0 V
26 -1 V
27 -1 V
26 -2 V
stroke 3505 3196 M
27 -1 V
26 -2 V
27 -2 V
26 -2 V
27 -3 V
26 -3 V
27 -3 V
26 -3 V
26 -3 V
27 -4 V
26 -3 V
26 -4 V
27 -5 V
26 -4 V
26 -5 V
26 -5 V
26 -5 V
27 -5 V
26 -5 V
26 -6 V
26 -5 V
26 -6 V
26 -7 V
25 -7 V
26 -9 V
26 -9 V
26 -1 V
26 -22 V
25 -53 V
26 -77 V
26 -158 V
25 -178 V
26 -162 V
25 -149 V
26 -136 V
25 -124 V
26 -111 V
26 -102 V
25 -102 V
26 -101 V
26 -100 V
26 -97 V
26 -87 V
26 -34 V
26 -26 V
26 -18 V
26 -13 V
26 -6 V
27 1 V
26 8 V
27 13 V
27 3 V
26 1 V
27 2 V
27 2 V
27 3 V
26 4 V
27 4 V
27 5 V
27 -5 V
28 -1 V
27 5 V
27 10 V
27 15 V
27 21 V
28 26 V
27 32 V
28 49 V
27 54 V
27 56 V
28 48 V
27 38 V
28 24 V
27 21 V
28 20 V
27 17 V
28 16 V
28 14 V
27 12 V
28 10 V
27 9 V
28 7 V
28 4 V
27 3 V
28 2 V
27 0 V
28 3 V
28 3 V
27 3 V
28 2 V
28 2 V
27 2 V
28 2 V
28 1 V
27 1 V
28 1 V
28 0 V
28 0 V
27 0 V
-5633 2 V
27 0 V
27 0 V
27 0 V
28 -1 V
stroke 625 1797 M
27 -1 V
27 -1 V
27 -2 V
27 -1 V
27 -2 V
28 -3 V
27 -2 V
27 -3 V
27 -3 V
27 -3 V
27 1 V
27 -1 V
27 -3 V
27 -5 V
28 -8 V
27 -9 V
27 -11 V
27 -13 V
27 -15 V
27 -17 V
27 -19 V
27 -21 V
27 -23 V
27 -27 V
27 -46 V
27 -61 V
27 -76 V
27 -77 V
26 -69 V
27 -41 V
27 -29 V
27 -24 V
27 -17 V
26 -11 V
27 -5 V
27 2 V
26 8 V
27 -5 V
26 -5 V
27 -5 V
26 -3 V
26 -3 V
27 -2 V
26 -1 V
26 0 V
26 -13 V
26 -13 V
26 -4 V
26 1 V
25 9 V
26 15 V
26 22 V
25 28 V
26 68 V
25 133 V
26 123 V
25 119 V
25 115 V
25 108 V
25 104 V
26 120 V
25 139 V
25 162 V
25 183 V
25 209 V
25 227 V
25 151 V
25 79 V
25 45 V
26 10 V
25 1 V
25 11 V
26 10 V
25 8 V
25 6 V
26 7 V
25 7 V
26 6 V
25 7 V
26 6 V
26 5 V
25 6 V
26 5 V
26 5 V
26 5 V
25 5 V
26 4 V
26 4 V
26 4 V
26 4 V
26 3 V
26 3 V
26 3 V
26 3 V
26 2 V
26 2 V
26 2 V
26 2 V
26 1 V
26 1 V
26 1 V
26 1 V
26 0 V
26 0 V
stroke 3345 3415 M
26 0 V
26 -1 V
26 0 V
26 -1 V
26 -2 V
26 -1 V
26 -2 V
26 -2 V
26 -2 V
26 -3 V
26 -2 V
26 -4 V
26 -3 V
26 -3 V
26 -4 V
26 -4 V
25 -4 V
26 -5 V
26 -5 V
26 -5 V
26 -5 V
25 -5 V
26 -6 V
26 -6 V
25 -6 V
26 -6 V
25 -7 V
26 -7 V
25 -7 V
26 -7 V
25 -8 V
25 -10 V
26 -7 V
25 -1 V
25 -30 V
25 -64 V
25 -94 V
25 -220 V
25 -221 V
26 -195 V
25 -171 V
25 -149 V
25 -129 V
25 -109 V
25 -105 V
25 -112 V
26 -117 V
25 -121 V
25 -125 V
26 -114 V
25 -34 V
26 -25 V
25 -18 V
26 -12 V
26 -5 V
26 3 V
26 8 V
26 14 V
26 6 V
26 0 V
26 2 V
27 2 V
26 3 V
26 5 V
27 5 V
26 7 V
27 -5 V
27 -5 V
26 2 V
27 8 V
27 15 V
26 20 V
27 27 V
27 33 V
27 57 V
27 76 V
27 78 V
27 69 V
27 52 V
27 36 V
27 23 V
27 22 V
27 20 V
27 18 V
27 16 V
27 14 V
27 12 V
27 10 V
27 8 V
27 6 V
27 4 V
27 2 V
27 0 V
27 0 V
28 4 V
27 3 V
27 2 V
27 3 V
27 2 V
27 2 V
27 1 V
28 2 V
27 1 V
27 0 V
stroke 6066 1797 M
27 1 V
27 0 V
27 0 V
-5631 1 V
27 1 V
26 0 V
27 -1 V
27 0 V
27 -1 V
26 -1 V
27 -2 V
27 -2 V
26 -2 V
27 -2 V
27 -3 V
27 -2 V
26 -4 V
27 -3 V
27 1 V
26 0 V
27 -2 V
27 -4 V
26 -6 V
27 -9 V
26 -10 V
27 -13 V
27 -14 V
26 -17 V
27 -19 V
26 -21 V
27 -23 V
27 -24 V
26 -41 V
27 -60 V
26 -83 V
27 -101 V
26 -104 V
27 -73 V
26 -35 V
26 -30 V
27 -22 V
26 -16 V
26 -8 V
26 -1 V
27 5 V
26 8 V
26 -9 V
26 -6 V
26 -5 V
26 -3 V
26 -3 V
26 -1 V
25 -1 V
26 -1 V
26 -16 V
25 -12 V
26 -5 V
25 2 V
26 8 V
25 14 V
25 22 V
25 28 V
25 87 V
25 167 V
25 147 V
25 136 V
25 125 V
25 112 V
24 101 V
25 115 V
25 145 V
25 177 V
24 209 V
25 245 V
24 276 V
25 198 V
25 87 V
25 53 V
25 14 V
24 0 V
25 13 V
25 11 V
25 9 V
25 8 V
25 8 V
25 8 V
25 7 V
26 7 V
25 7 V
25 7 V
25 6 V
26 6 V
25 6 V
25 6 V
26 5 V
25 5 V
25 5 V
26 4 V
25 5 V
26 4 V
25 3 V
26 4 V
25 3 V
26 3 V
stroke 3095 3611 M
26 2 V
25 3 V
26 1 V
25 2 V
26 2 V
26 1 V
25 1 V
26 0 V
25 1 V
26 0 V
26 -1 V
25 0 V
26 -1 V
26 -1 V
25 -2 V
26 -2 V
25 -2 V
26 -2 V
25 -2 V
26 -3 V
26 -3 V
25 -4 V
26 -4 V
25 -4 V
26 -4 V
25 -4 V
25 -5 V
26 -5 V
25 -6 V
26 -5 V
25 -6 V
25 -6 V
25 -6 V
26 -7 V
25 -7 V
25 -7 V
25 -8 V
25 -8 V
25 -8 V
25 -7 V
25 -9 V
25 -12 V
25 -12 V
25 3 V
25 -18 V
24 -54 V
25 -89 V
25 -204 V
25 -276 V
24 -243 V
25 -208 V
25 -175 V
24 -145 V
25 -113 V
25 -102 V
24 -112 V
25 -126 V
25 -137 V
25 -147 V
25 -167 V
25 -82 V
25 -28 V
26 -21 V
25 -15 V
25 -7 V
26 -2 V
25 6 V
26 12 V
25 15 V
26 1 V
26 1 V
26 1 V
26 3 V
26 4 V
26 5 V
26 6 V
26 8 V
26 -8 V
26 -6 V
26 2 V
26 9 V
27 16 V
26 22 V
27 30 V
26 36 V
26 75 V
27 103 V
26 102 V
27 81 V
26 60 V
27 40 V
26 24 V
27 23 V
27 21 V
26 18 V
27 17 V
26 15 V
27 12 V
27 11 V
26 8 V
27 6 V
27 4 V
26 2 V
27 0 V
stroke 5760 1778 M
27 -1 V
26 4 V
27 3 V
27 3 V
26 2 V
27 2 V
27 3 V
26 1 V
27 2 V
27 1 V
27 1 V
26 0 V
27 1 V
27 0 V
-5618 1 V
26 0 V
27 0 V
26 0 V
26 0 V
27 -1 V
26 -1 V
26 -2 V
27 -2 V
26 -2 V
26 -2 V
27 -3 V
26 -3 V
26 -3 V
27 -4 V
26 2 V
26 0 V
26 -1 V
27 -3 V
26 -6 V
26 -7 V
26 -10 V
27 -12 V
26 -14 V
26 -16 V
26 -19 V
27 -20 V
26 -23 V
26 -25 V
26 -31 V
26 -56 V
26 -80 V
27 -114 V
26 -128 V
26 -121 V
26 -56 V
26 -35 V
26 -27 V
26 -20 V
26 -12 V
26 -5 V
25 2 V
26 10 V
26 0 V
26 -8 V
25 -6 V
26 -5 V
26 -4 V
25 -2 V
26 -1 V
25 0 V
25 -5 V
26 -16 V
25 -11 V
25 -5 V
25 2 V
25 9 V
25 15 V
25 21 V
25 33 V
24 136 V
25 185 V
25 168 V
24 151 V
25 131 V
24 112 V
24 95 V
25 110 V
24 151 V
24 194 V
25 237 V
24 283 V
24 324 V
25 229 V
24 91 V
25 55 V
24 20 V
24 -2 V
25 15 V
25 14 V
24 11 V
25 9 V
25 9 V
24 9 V
25 9 V
25 8 V
25 8 V
25 8 V
24 7 V
25 7 V
stroke 2783 3752 M
25 7 V
25 6 V
25 6 V
25 6 V
25 6 V
26 5 V
25 5 V
25 4 V
25 4 V
25 4 V
25 4 V
25 3 V
26 3 V
25 3 V
25 2 V
25 2 V
26 2 V
25 1 V
25 1 V
25 1 V
26 1 V
25 0 V
25 0 V
25 -1 V
26 -1 V
25 -1 V
25 -1 V
25 -2 V
26 -2 V
25 -2 V
25 -3 V
25 -3 V
26 -3 V
25 -4 V
25 -3 V
25 -5 V
25 -4 V
25 -5 V
25 -5 V
25 -5 V
25 -6 V
25 -6 V
25 -7 V
25 -6 V
25 -7 V
25 -8 V
25 -7 V
25 -8 V
25 -9 V
24 -8 V
25 -9 V
25 -10 V
25 -8 V
24 -11 V
25 -14 V
24 -16 V
25 -1 V
24 -14 V
25 -53 V
24 -89 V
24 -213 V
25 -325 V
24 -286 V
24 -241 V
25 -196 V
24 -155 V
24 -114 V
25 -93 V
24 -110 V
25 -130 V
24 -150 V
25 -167 V
24 -183 V
25 -146 V
25 -36 V
25 -21 V
25 -15 V
25 -9 V
25 -3 V
25 4 V
25 11 V
25 16 V
26 6 V
25 0 V
26 1 V
25 2 V
26 3 V
25 5 V
26 6 V
26 8 V
25 4 V
26 -12 V
26 -3 V
26 4 V
26 12 V
26 19 V
26 27 V
26 34 V
26 52 V
26 119 V
26 128 V
26 116 V
26 82 V
26 58 V
stroke 5395 1590 M
27 32 V
26 25 V
26 23 V
26 21 V
26 18 V
27 17 V
26 14 V
26 12 V
26 10 V
27 8 V
26 6 V
26 3 V
26 1 V
27 0 V
26 -2 V
26 4 V
27 3 V
26 3 V
26 3 V
27 2 V
26 2 V
26 2 V
27 1 V
26 2 V
26 1 V
27 0 V
26 0 V
26 0 V
27 0 V
-5642 2 V
26 0 V
26 1 V
26 -1 V
26 0 V
26 -1 V
26 -1 V
26 -2 V
26 -1 V
26 -2 V
26 -3 V
26 -2 V
26 -3 V
26 -3 V
25 -4 V
26 0 V
26 2 V
26 0 V
26 -3 V
26 -5 V
26 -6 V
26 -10 V
26 -11 V
26 -13 V
25 -16 V
26 -17 V
26 -20 V
26 -23 V
26 -24 V
26 -26 V
25 -47 V
26 -74 V
26 -108 V
26 -151 V
26 -167 V
25 -109 V
26 -37 V
26 -32 V
25 -24 V
26 -17 V
25 -9 V
26 -1 V
25 7 V
26 12 V
25 -9 V
25 -8 V
26 -7 V
25 -5 V
25 -3 V
25 -2 V
25 0 V
25 2 V
25 -11 V
25 -16 V
25 -10 V
25 -4 V
25 3 V
24 9 V
25 15 V
24 21 V
25 31 V
24 194 V
24 213 V
25 188 V
24 163 V
24 137 V
24 110 V
24 83 V
24 104 V
24 155 V
24 208 V
24 264 V
24 322 V
24 376 V
24 290 V
stroke 2388 3665 M
24 74 V
24 61 V
24 26 V
24 1 V
24 18 V
24 19 V
25 15 V
24 13 V
24 11 V
25 11 V
24 10 V
25 9 V
24 8 V
25 7 V
24 7 V
25 6 V
24 6 V
25 4 V
24 5 V
25 4 V
25 3 V
25 4 V
24 3 V
25 14 V
25 -1 V
25 -3 V
24 -5 V
25 -6 V
25 -6 V
25 -8 V
25 -7 V
25 16 V
25 -8 V
25 -7 V
24 -7 V
25 -6 V
25 -4 V
25 -3 V
25 -1 V
25 1 V
25 2 V
25 5 V
25 6 V
25 6 V
24 8 V
25 7 V
25 -16 V
25 8 V
25 7 V
25 7 V
25 6 V
24 5 V
25 3 V
25 1 V
25 -14 V
25 -3 V
24 -4 V
25 -3 V
25 -5 V
24 -4 V
25 -5 V
24 -5 V
25 -6 V
25 -7 V
24 -8 V
25 -8 V
24 -9 V
24 -10 V
25 -11 V
24 -10 V
24 -14 V
25 -20 V
24 -21 V
24 -6 V
24 -14 V
24 -53 V
24 -89 V
24 -189 V
24 -403 V
24 -338 V
24 -279 V
24 -221 V
24 -167 V
24 -115 V
25 -80 V
24 -104 V
24 -132 V
24 -159 V
24 -185 V
25 -209 V
24 -222 V
24 -51 V
25 -18 V
24 -16 V
25 -11 V
25 -4 V
25 3 V
24 8 V
25 15 V
25 14 V
25 -2 V
25 0 V
25 2 V
26 2 V
stroke 4943 814 M
25 5 V
25 6 V
26 8 V
25 10 V
25 -10 V
26 -8 V
25 -1 V
26 8 V
25 14 V
26 23 V
26 31 V
25 32 V
26 95 V
26 166 V
25 158 V
26 119 V
26 79 V
26 53 V
25 28 V
26 25 V
26 23 V
26 20 V
26 18 V
26 16 V
25 14 V
26 12 V
26 9 V
26 8 V
26 5 V
26 3 V
26 0 V
26 -1 V
25 -2 V
26 4 V
26 3 V
26 3 V
26 3 V
26 2 V
26 2 V
26 2 V
26 2 V
26 1 V
26 1 V
26 0 V
26 1 V
25 0 V
26 0 V
% End plot #2
stroke
LTb
516 4559 N
516 504 L
6467 0 V
0 4055 V
-6467 0 V
Z stroke
1.000 UP
1.000 UL
LTb
stroke
grestore
end
showpage
%%Trailer
%%DocumentFonts: sans Times-Sans
