%!PS-Adobe-2.0 EPSF-2.0
%%Title: gnuplot_Zfai_spin.eps
%%Creator: gnuplot 5.2 patchlevel 2
%%CreationDate: Tue May 19 08:36:44 2020
%%DocumentFonts: (atend)
%%BoundingBox: 50 50 410 302
%%EndComments
%%BeginProlog
/gnudict 256 dict def
gnudict begin
%
% The following true/false flags may be edited by hand if desired.
% The unit line width and grayscale image gamma correction may also be changed.
%
/Color true def
/Blacktext true def
/Solid false def
/Dashlength 1 def
/Landscape false def
/Level1 false def
/Level3 false def
/Rounded false def
/ClipToBoundingBox false def
/SuppressPDFMark false def
/TransparentPatterns false def
/gnulinewidth 5.000 def
/userlinewidth gnulinewidth def
/Gamma 1.0 def
/BackgroundColor {-1.000 -1.000 -1.000} def
%
/vshift -46 def
/dl1 {
  10.0 Dashlength userlinewidth gnulinewidth div mul mul mul
  Rounded { currentlinewidth 0.75 mul sub dup 0 le { pop 0.01 } if } if
} def
/dl2 {
  10.0 Dashlength userlinewidth gnulinewidth div mul mul mul
  Rounded { currentlinewidth 0.75 mul add } if
} def
/hpt_ 31.5 def
/vpt_ 31.5 def
/hpt hpt_ def
/vpt vpt_ def
/doclip {
  ClipToBoundingBox {
    newpath 50 50 moveto 410 50 lineto 410 302 lineto 50 302 lineto closepath
    clip
  } if
} def
%
% Gnuplot Prolog Version 5.1 (Oct 2015)
%
%/SuppressPDFMark true def
%
/M {moveto} bind def
/L {lineto} bind def
/R {rmoveto} bind def
/V {rlineto} bind def
/N {newpath moveto} bind def
/Z {closepath} bind def
/C {setrgbcolor} bind def
/f {rlineto fill} bind def
/g {setgray} bind def
/Gshow {show} def   % May be redefined later in the file to support UTF-8
/vpt2 vpt 2 mul def
/hpt2 hpt 2 mul def
/Lshow {currentpoint stroke M 0 vshift R 
	Blacktext {gsave 0 setgray textshow grestore} {textshow} ifelse} def
/Rshow {currentpoint stroke M dup stringwidth pop neg vshift R
	Blacktext {gsave 0 setgray textshow grestore} {textshow} ifelse} def
/Cshow {currentpoint stroke M dup stringwidth pop -2 div vshift R 
	Blacktext {gsave 0 setgray textshow grestore} {textshow} ifelse} def
/UP {dup vpt_ mul /vpt exch def hpt_ mul /hpt exch def
  /hpt2 hpt 2 mul def /vpt2 vpt 2 mul def} def
/DL {Color {setrgbcolor Solid {pop []} if 0 setdash}
 {pop pop pop 0 setgray Solid {pop []} if 0 setdash} ifelse} def
/BL {stroke userlinewidth 2 mul setlinewidth
	Rounded {1 setlinejoin 1 setlinecap} if} def
/AL {stroke userlinewidth 2 div setlinewidth
	Rounded {1 setlinejoin 1 setlinecap} if} def
/UL {dup gnulinewidth mul /userlinewidth exch def
	dup 1 lt {pop 1} if 10 mul /udl exch def} def
/PL {stroke userlinewidth setlinewidth
	Rounded {1 setlinejoin 1 setlinecap} if} def
3.8 setmiterlimit
% Classic Line colors (version 5.0)
/LCw {1 1 1} def
/LCb {0 0 0} def
/LCa {0 0 0} def
/LC0 {1 0 0} def
/LC1 {0 1 0} def
/LC2 {0 0 1} def
/LC3 {1 0 1} def
/LC4 {0 1 1} def
/LC5 {1 1 0} def
/LC6 {0 0 0} def
/LC7 {1 0.3 0} def
/LC8 {0.5 0.5 0.5} def
% Default dash patterns (version 5.0)
/LTB {BL [] LCb DL} def
/LTw {PL [] 1 setgray} def
/LTb {PL [] LCb DL} def
/LTa {AL [1 udl mul 2 udl mul] 0 setdash LCa setrgbcolor} def
/LT0 {PL [] LC0 DL} def
/LT1 {PL [2 dl1 3 dl2] LC1 DL} def
/LT2 {PL [1 dl1 1.5 dl2] LC2 DL} def
/LT3 {PL [6 dl1 2 dl2 1 dl1 2 dl2] LC3 DL} def
/LT4 {PL [1 dl1 2 dl2 6 dl1 2 dl2 1 dl1 2 dl2] LC4 DL} def
/LT5 {PL [4 dl1 2 dl2] LC5 DL} def
/LT6 {PL [1.5 dl1 1.5 dl2 1.5 dl1 1.5 dl2 1.5 dl1 6 dl2] LC6 DL} def
/LT7 {PL [3 dl1 3 dl2 1 dl1 3 dl2] LC7 DL} def
/LT8 {PL [2 dl1 2 dl2 2 dl1 6 dl2] LC8 DL} def
/SL {[] 0 setdash} def
/Pnt {stroke [] 0 setdash gsave 1 setlinecap M 0 0 V stroke grestore} def
/Dia {stroke [] 0 setdash 2 copy vpt add M
  hpt neg vpt neg V hpt vpt neg V
  hpt vpt V hpt neg vpt V closepath stroke
  Pnt} def
/Pls {stroke [] 0 setdash vpt sub M 0 vpt2 V
  currentpoint stroke M
  hpt neg vpt neg R hpt2 0 V stroke
 } def
/Box {stroke [] 0 setdash 2 copy exch hpt sub exch vpt add M
  0 vpt2 neg V hpt2 0 V 0 vpt2 V
  hpt2 neg 0 V closepath stroke
  Pnt} def
/Crs {stroke [] 0 setdash exch hpt sub exch vpt add M
  hpt2 vpt2 neg V currentpoint stroke M
  hpt2 neg 0 R hpt2 vpt2 V stroke} def
/TriU {stroke [] 0 setdash 2 copy vpt 1.12 mul add M
  hpt neg vpt -1.62 mul V
  hpt 2 mul 0 V
  hpt neg vpt 1.62 mul V closepath stroke
  Pnt} def
/Star {2 copy Pls Crs} def
/BoxF {stroke [] 0 setdash exch hpt sub exch vpt add M
  0 vpt2 neg V hpt2 0 V 0 vpt2 V
  hpt2 neg 0 V closepath fill} def
/TriUF {stroke [] 0 setdash vpt 1.12 mul add M
  hpt neg vpt -1.62 mul V
  hpt 2 mul 0 V
  hpt neg vpt 1.62 mul V closepath fill} def
/TriD {stroke [] 0 setdash 2 copy vpt 1.12 mul sub M
  hpt neg vpt 1.62 mul V
  hpt 2 mul 0 V
  hpt neg vpt -1.62 mul V closepath stroke
  Pnt} def
/TriDF {stroke [] 0 setdash vpt 1.12 mul sub M
  hpt neg vpt 1.62 mul V
  hpt 2 mul 0 V
  hpt neg vpt -1.62 mul V closepath fill} def
/DiaF {stroke [] 0 setdash vpt add M
  hpt neg vpt neg V hpt vpt neg V
  hpt vpt V hpt neg vpt V closepath fill} def
/Pent {stroke [] 0 setdash 2 copy gsave
  translate 0 hpt M 4 {72 rotate 0 hpt L} repeat
  closepath stroke grestore Pnt} def
/PentF {stroke [] 0 setdash gsave
  translate 0 hpt M 4 {72 rotate 0 hpt L} repeat
  closepath fill grestore} def
/Circle {stroke [] 0 setdash 2 copy
  hpt 0 360 arc stroke Pnt} def
/CircleF {stroke [] 0 setdash hpt 0 360 arc fill} def
/C0 {BL [] 0 setdash 2 copy moveto vpt 90 450 arc} bind def
/C1 {BL [] 0 setdash 2 copy moveto
	2 copy vpt 0 90 arc closepath fill
	vpt 0 360 arc closepath} bind def
/C2 {BL [] 0 setdash 2 copy moveto
	2 copy vpt 90 180 arc closepath fill
	vpt 0 360 arc closepath} bind def
/C3 {BL [] 0 setdash 2 copy moveto
	2 copy vpt 0 180 arc closepath fill
	vpt 0 360 arc closepath} bind def
/C4 {BL [] 0 setdash 2 copy moveto
	2 copy vpt 180 270 arc closepath fill
	vpt 0 360 arc closepath} bind def
/C5 {BL [] 0 setdash 2 copy moveto
	2 copy vpt 0 90 arc
	2 copy moveto
	2 copy vpt 180 270 arc closepath fill
	vpt 0 360 arc} bind def
/C6 {BL [] 0 setdash 2 copy moveto
	2 copy vpt 90 270 arc closepath fill
	vpt 0 360 arc closepath} bind def
/C7 {BL [] 0 setdash 2 copy moveto
	2 copy vpt 0 270 arc closepath fill
	vpt 0 360 arc closepath} bind def
/C8 {BL [] 0 setdash 2 copy moveto
	2 copy vpt 270 360 arc closepath fill
	vpt 0 360 arc closepath} bind def
/C9 {BL [] 0 setdash 2 copy moveto
	2 copy vpt 270 450 arc closepath fill
	vpt 0 360 arc closepath} bind def
/C10 {BL [] 0 setdash 2 copy 2 copy moveto vpt 270 360 arc closepath fill
	2 copy moveto
	2 copy vpt 90 180 arc closepath fill
	vpt 0 360 arc closepath} bind def
/C11 {BL [] 0 setdash 2 copy moveto
	2 copy vpt 0 180 arc closepath fill
	2 copy moveto
	2 copy vpt 270 360 arc closepath fill
	vpt 0 360 arc closepath} bind def
/C12 {BL [] 0 setdash 2 copy moveto
	2 copy vpt 180 360 arc closepath fill
	vpt 0 360 arc closepath} bind def
/C13 {BL [] 0 setdash 2 copy moveto
	2 copy vpt 0 90 arc closepath fill
	2 copy moveto
	2 copy vpt 180 360 arc closepath fill
	vpt 0 360 arc closepath} bind def
/C14 {BL [] 0 setdash 2 copy moveto
	2 copy vpt 90 360 arc closepath fill
	vpt 0 360 arc} bind def
/C15 {BL [] 0 setdash 2 copy vpt 0 360 arc closepath fill
	vpt 0 360 arc closepath} bind def
/Rec {newpath 4 2 roll moveto 1 index 0 rlineto 0 exch rlineto
	neg 0 rlineto closepath} bind def
/Square {dup Rec} bind def
/Bsquare {vpt sub exch vpt sub exch vpt2 Square} bind def
/S0 {BL [] 0 setdash 2 copy moveto 0 vpt rlineto BL Bsquare} bind def
/S1 {BL [] 0 setdash 2 copy vpt Square fill Bsquare} bind def
/S2 {BL [] 0 setdash 2 copy exch vpt sub exch vpt Square fill Bsquare} bind def
/S3 {BL [] 0 setdash 2 copy exch vpt sub exch vpt2 vpt Rec fill Bsquare} bind def
/S4 {BL [] 0 setdash 2 copy exch vpt sub exch vpt sub vpt Square fill Bsquare} bind def
/S5 {BL [] 0 setdash 2 copy 2 copy vpt Square fill
	exch vpt sub exch vpt sub vpt Square fill Bsquare} bind def
/S6 {BL [] 0 setdash 2 copy exch vpt sub exch vpt sub vpt vpt2 Rec fill Bsquare} bind def
/S7 {BL [] 0 setdash 2 copy exch vpt sub exch vpt sub vpt vpt2 Rec fill
	2 copy vpt Square fill Bsquare} bind def
/S8 {BL [] 0 setdash 2 copy vpt sub vpt Square fill Bsquare} bind def
/S9 {BL [] 0 setdash 2 copy vpt sub vpt vpt2 Rec fill Bsquare} bind def
/S10 {BL [] 0 setdash 2 copy vpt sub vpt Square fill 2 copy exch vpt sub exch vpt Square fill
	Bsquare} bind def
/S11 {BL [] 0 setdash 2 copy vpt sub vpt Square fill 2 copy exch vpt sub exch vpt2 vpt Rec fill
	Bsquare} bind def
/S12 {BL [] 0 setdash 2 copy exch vpt sub exch vpt sub vpt2 vpt Rec fill Bsquare} bind def
/S13 {BL [] 0 setdash 2 copy exch vpt sub exch vpt sub vpt2 vpt Rec fill
	2 copy vpt Square fill Bsquare} bind def
/S14 {BL [] 0 setdash 2 copy exch vpt sub exch vpt sub vpt2 vpt Rec fill
	2 copy exch vpt sub exch vpt Square fill Bsquare} bind def
/S15 {BL [] 0 setdash 2 copy Bsquare fill Bsquare} bind def
/D0 {gsave translate 45 rotate 0 0 S0 stroke grestore} bind def
/D1 {gsave translate 45 rotate 0 0 S1 stroke grestore} bind def
/D2 {gsave translate 45 rotate 0 0 S2 stroke grestore} bind def
/D3 {gsave translate 45 rotate 0 0 S3 stroke grestore} bind def
/D4 {gsave translate 45 rotate 0 0 S4 stroke grestore} bind def
/D5 {gsave translate 45 rotate 0 0 S5 stroke grestore} bind def
/D6 {gsave translate 45 rotate 0 0 S6 stroke grestore} bind def
/D7 {gsave translate 45 rotate 0 0 S7 stroke grestore} bind def
/D8 {gsave translate 45 rotate 0 0 S8 stroke grestore} bind def
/D9 {gsave translate 45 rotate 0 0 S9 stroke grestore} bind def
/D10 {gsave translate 45 rotate 0 0 S10 stroke grestore} bind def
/D11 {gsave translate 45 rotate 0 0 S11 stroke grestore} bind def
/D12 {gsave translate 45 rotate 0 0 S12 stroke grestore} bind def
/D13 {gsave translate 45 rotate 0 0 S13 stroke grestore} bind def
/D14 {gsave translate 45 rotate 0 0 S14 stroke grestore} bind def
/D15 {gsave translate 45 rotate 0 0 S15 stroke grestore} bind def
/DiaE {stroke [] 0 setdash vpt add M
  hpt neg vpt neg V hpt vpt neg V
  hpt vpt V hpt neg vpt V closepath stroke} def
/BoxE {stroke [] 0 setdash exch hpt sub exch vpt add M
  0 vpt2 neg V hpt2 0 V 0 vpt2 V
  hpt2 neg 0 V closepath stroke} def
/TriUE {stroke [] 0 setdash vpt 1.12 mul add M
  hpt neg vpt -1.62 mul V
  hpt 2 mul 0 V
  hpt neg vpt 1.62 mul V closepath stroke} def
/TriDE {stroke [] 0 setdash vpt 1.12 mul sub M
  hpt neg vpt 1.62 mul V
  hpt 2 mul 0 V
  hpt neg vpt -1.62 mul V closepath stroke} def
/PentE {stroke [] 0 setdash gsave
  translate 0 hpt M 4 {72 rotate 0 hpt L} repeat
  closepath stroke grestore} def
/CircE {stroke [] 0 setdash 
  hpt 0 360 arc stroke} def
/Opaque {gsave closepath 1 setgray fill grestore 0 setgray closepath} def
/DiaW {stroke [] 0 setdash vpt add M
  hpt neg vpt neg V hpt vpt neg V
  hpt vpt V hpt neg vpt V Opaque stroke} def
/BoxW {stroke [] 0 setdash exch hpt sub exch vpt add M
  0 vpt2 neg V hpt2 0 V 0 vpt2 V
  hpt2 neg 0 V Opaque stroke} def
/TriUW {stroke [] 0 setdash vpt 1.12 mul add M
  hpt neg vpt -1.62 mul V
  hpt 2 mul 0 V
  hpt neg vpt 1.62 mul V Opaque stroke} def
/TriDW {stroke [] 0 setdash vpt 1.12 mul sub M
  hpt neg vpt 1.62 mul V
  hpt 2 mul 0 V
  hpt neg vpt -1.62 mul V Opaque stroke} def
/PentW {stroke [] 0 setdash gsave
  translate 0 hpt M 4 {72 rotate 0 hpt L} repeat
  Opaque stroke grestore} def
/CircW {stroke [] 0 setdash 
  hpt 0 360 arc Opaque stroke} def
/BoxFill {gsave Rec 1 setgray fill grestore} def
/Density {
  /Fillden exch def
  currentrgbcolor
  /ColB exch def /ColG exch def /ColR exch def
  /ColR ColR Fillden mul Fillden sub 1 add def
  /ColG ColG Fillden mul Fillden sub 1 add def
  /ColB ColB Fillden mul Fillden sub 1 add def
  ColR ColG ColB setrgbcolor} def
/BoxColFill {gsave Rec PolyFill} def
/PolyFill {gsave Density fill grestore grestore} def
/h {rlineto rlineto rlineto gsave closepath fill grestore} bind def
%
% PostScript Level 1 Pattern Fill routine for rectangles
% Usage: x y w h s a XX PatternFill
%	x,y = lower left corner of box to be filled
%	w,h = width and height of box
%	  a = angle in degrees between lines and x-axis
%	 XX = 0/1 for no/yes cross-hatch
%
/PatternFill {gsave /PFa [ 9 2 roll ] def
  PFa 0 get PFa 2 get 2 div add PFa 1 get PFa 3 get 2 div add translate
  PFa 2 get -2 div PFa 3 get -2 div PFa 2 get PFa 3 get Rec
  TransparentPatterns {} {gsave 1 setgray fill grestore} ifelse
  clip
  currentlinewidth 0.5 mul setlinewidth
  /PFs PFa 2 get dup mul PFa 3 get dup mul add sqrt def
  0 0 M PFa 5 get rotate PFs -2 div dup translate
  0 1 PFs PFa 4 get div 1 add floor cvi
	{PFa 4 get mul 0 M 0 PFs V} for
  0 PFa 6 get ne {
	0 1 PFs PFa 4 get div 1 add floor cvi
	{PFa 4 get mul 0 2 1 roll M PFs 0 V} for
 } if
  stroke grestore} def
%
/languagelevel where
 {pop languagelevel} {1} ifelse
dup 2 lt
	{/InterpretLevel1 true def
	 /InterpretLevel3 false def}
	{/InterpretLevel1 Level1 def
	 2 gt
	    {/InterpretLevel3 Level3 def}
	    {/InterpretLevel3 false def}
	 ifelse }
 ifelse
%
% PostScript level 2 pattern fill definitions
%
/Level2PatternFill {
/Tile8x8 {/PaintType 2 /PatternType 1 /TilingType 1 /BBox [0 0 8 8] /XStep 8 /YStep 8}
	bind def
/KeepColor {currentrgbcolor [/Pattern /DeviceRGB] setcolorspace} bind def
<< Tile8x8
 /PaintProc {0.5 setlinewidth pop 0 0 M 8 8 L 0 8 M 8 0 L stroke} 
>> matrix makepattern
/Pat1 exch def
<< Tile8x8
 /PaintProc {0.5 setlinewidth pop 0 0 M 8 8 L 0 8 M 8 0 L stroke
	0 4 M 4 8 L 8 4 L 4 0 L 0 4 L stroke}
>> matrix makepattern
/Pat2 exch def
<< Tile8x8
 /PaintProc {0.5 setlinewidth pop 0 0 M 0 8 L
	8 8 L 8 0 L 0 0 L fill}
>> matrix makepattern
/Pat3 exch def
<< Tile8x8
 /PaintProc {0.5 setlinewidth pop -4 8 M 8 -4 L
	0 12 M 12 0 L stroke}
>> matrix makepattern
/Pat4 exch def
<< Tile8x8
 /PaintProc {0.5 setlinewidth pop -4 0 M 8 12 L
	0 -4 M 12 8 L stroke}
>> matrix makepattern
/Pat5 exch def
<< Tile8x8
 /PaintProc {0.5 setlinewidth pop -2 8 M 4 -4 L
	0 12 M 8 -4 L 4 12 M 10 0 L stroke}
>> matrix makepattern
/Pat6 exch def
<< Tile8x8
 /PaintProc {0.5 setlinewidth pop -2 0 M 4 12 L
	0 -4 M 8 12 L 4 -4 M 10 8 L stroke}
>> matrix makepattern
/Pat7 exch def
<< Tile8x8
 /PaintProc {0.5 setlinewidth pop 8 -2 M -4 4 L
	12 0 M -4 8 L 12 4 M 0 10 L stroke}
>> matrix makepattern
/Pat8 exch def
<< Tile8x8
 /PaintProc {0.5 setlinewidth pop 0 -2 M 12 4 L
	-4 0 M 12 8 L -4 4 M 8 10 L stroke}
>> matrix makepattern
/Pat9 exch def
/Pattern1 {PatternBgnd KeepColor Pat1 setpattern} bind def
/Pattern2 {PatternBgnd KeepColor Pat2 setpattern} bind def
/Pattern3 {PatternBgnd KeepColor Pat3 setpattern} bind def
/Pattern4 {PatternBgnd KeepColor Landscape {Pat5} {Pat4} ifelse setpattern} bind def
/Pattern5 {PatternBgnd KeepColor Landscape {Pat4} {Pat5} ifelse setpattern} bind def
/Pattern6 {PatternBgnd KeepColor Landscape {Pat9} {Pat6} ifelse setpattern} bind def
/Pattern7 {PatternBgnd KeepColor Landscape {Pat8} {Pat7} ifelse setpattern} bind def
} def
%
%
%End of PostScript Level 2 code
%
/PatternBgnd {
  TransparentPatterns {} {gsave 1 setgray fill grestore} ifelse
} def
%
% Substitute for Level 2 pattern fill codes with
% grayscale if Level 2 support is not selected.
%
/Level1PatternFill {
/Pattern1 {0.250 Density} bind def
/Pattern2 {0.500 Density} bind def
/Pattern3 {0.750 Density} bind def
/Pattern4 {0.125 Density} bind def
/Pattern5 {0.375 Density} bind def
/Pattern6 {0.625 Density} bind def
/Pattern7 {0.875 Density} bind def
} def
%
% Now test for support of Level 2 code
%
Level1 {Level1PatternFill} {Level2PatternFill} ifelse
%
/Symbol-Oblique /Symbol findfont [1 0 .167 1 0 0] makefont
dup length dict begin {1 index /FID eq {pop pop} {def} ifelse} forall
currentdict end definefont pop
%
/Metrics {ExtendTextBox Gswidth} def
/Lwidth {currentpoint stroke M 0 vshift R Metrics} def
/Rwidth {currentpoint stroke M dup stringwidth pop neg vshift R Metrics} def
/Cwidth {currentpoint stroke M dup stringwidth pop -2 div vshift R Metrics} def
/GLwidth {currentpoint stroke M 0 vshift R {ExtendTextBox} forall} def
/GRwidth {currentpoint stroke M dup Gwidth vshift R {ExtendTextBox} forall} def
/GCwidth {currentpoint stroke M dup Gwidth 2 div vshift R {ExtendTextBox} forall} def
/GLwidth2 {0 Gwidth AddGlyphWidth} def
/GRwidth2 {Gwidth -1 mul 0 AddGlyphWidth} def
/GCwidth2 {Gwidth 2 div dup -1 mul AddGlyphWidth} def
/AddGlyphWidth { dup TBx2 gt {userdict /TBx2 3 -1 roll put} {pop} ifelse
                 dup TBx1 lt {userdict /TBx1 3 -1 roll put} {pop} ifelse } def
/MFshow {
   { dup 5 get 3 ge
     { 5 get 3 eq {gsave} {grestore} ifelse }
     {dup dup 0 get findfont exch 1 get scalefont setfont
     [ currentpoint ] exch dup 2 get 0 exch R dup 5 get 2 ne {dup dup 6
     get exch 4 get {textshow} {Metrics pop 0 R} ifelse }if dup 5 get 0 eq
     {dup 3 get {2 get neg 0 exch R pop} {pop aload pop M} ifelse} {dup 5
     get 1 eq {dup 2 get exch dup 3 get exch 6 get Gswidth pop -2 div
     dup 0 R} {dup 6 get Gswidth pop -2 div 0 R 6 get
     textshow 2 index {aload pop M neg 3 -1 roll neg R pop pop} {pop pop pop
     pop aload pop M} ifelse }ifelse }ifelse }
     ifelse }
   forall} def
/Gswidth {dup type /stringtype eq {stringwidth} {pop (n) stringwidth} ifelse} def
/MFwidth {0 exch { dup 5 get 3 ge { 5 get 3 eq { 0 } { pop } ifelse }
 {dup 3 get{dup dup 0 get findfont exch 1 get scalefont setfont
     6 get Gswidth pop add} {pop} ifelse} ifelse} forall} def
/MLshow { currentpoint stroke M
  0 exch R
  Blacktext {gsave 0 setgray MFshow grestore} {MFshow} ifelse } bind def
/MRshow { currentpoint stroke M
  exch dup MFwidth neg 3 -1 roll R
  Blacktext {gsave 0 setgray MFshow grestore} {MFshow} ifelse } bind def
/MCshow { currentpoint stroke M
  exch dup MFwidth -2 div 3 -1 roll R
  Blacktext {gsave 0 setgray MFshow grestore} {MFshow} ifelse } bind def
/XYsave    { [( ) 1 2 true false 3 ()] } bind def
/XYrestore { [( ) 1 2 true false 4 ()] } bind def
Level1 SuppressPDFMark or 
{} {
/SDict 10 dict def
systemdict /pdfmark known not {
  userdict /pdfmark systemdict /cleartomark get put
} if
SDict begin [
  /Title (gnuplot_Zfai_spin.eps)
  /Subject (gnuplot plot)
  /Creator (gnuplot 5.2 patchlevel 2)
%  /Producer (gnuplot)
%  /Keywords ()
  /CreationDate (Tue May 19 08:36:44 2020)
  /DOCINFO pdfmark
end
} ifelse
%
% Support for boxed text - Ethan A Merritt Sep 2016
%
/InitTextBox { userdict /TBy2 3 -1 roll put userdict /TBx2 3 -1 roll put
           userdict /TBy1 3 -1 roll put userdict /TBx1 3 -1 roll put
	   /Boxing true def } def
/ExtendTextBox { dup type /stringtype eq
    { Boxing { gsave dup false charpath pathbbox
      dup TBy2 gt {userdict /TBy2 3 -1 roll put} {pop} ifelse
      dup TBx2 gt {userdict /TBx2 3 -1 roll put} {pop} ifelse
      dup TBy1 lt {userdict /TBy1 3 -1 roll put} {pop} ifelse
      dup TBx1 lt {userdict /TBx1 3 -1 roll put} {pop} ifelse
      grestore } if }
    {} ifelse} def
/PopTextBox { newpath TBx1 TBxmargin sub TBy1 TBymargin sub M
               TBx1 TBxmargin sub TBy2 TBymargin add L
	       TBx2 TBxmargin add TBy2 TBymargin add L
	       TBx2 TBxmargin add TBy1 TBymargin sub L closepath } def
/DrawTextBox { PopTextBox stroke /Boxing false def} def
/FillTextBox { gsave PopTextBox fill grestore /Boxing false def} def
0 0 0 0 InitTextBox
/TBxmargin 20 def
/TBymargin 20 def
/Boxing false def
/textshow { ExtendTextBox Gshow } def
%
end
%%EndProlog
%%Page: 1 1
gnudict begin
gsave
doclip
50 50 translate
0.050 0.050 scale
0 setgray
newpath
(Helvetica) findfont 140 scalefont setfont
BackgroundColor 0 lt 3 1 roll 0 lt exch 0 lt or or not {BackgroundColor C 1.000 0 0 7200.00 5040.00 BoxColFill} if
1.000 UL
LTb
LCb setrgbcolor
854 448 M
63 0 V
stroke
770 448 M
[ [(Helvetica) 140.0 0.0 true true 0 ( 645.5)]
] -46.7 MRshow
1.000 UL
LTb
LCb setrgbcolor
854 1084 M
63 0 V
stroke
770 1084 M
[ [(Helvetica) 140.0 0.0 true true 0 ( 646)]
] -46.7 MRshow
1.000 UL
LTb
LCb setrgbcolor
854 1720 M
63 0 V
stroke
770 1720 M
[ [(Helvetica) 140.0 0.0 true true 0 ( 646.5)]
] -46.7 MRshow
1.000 UL
LTb
LCb setrgbcolor
854 2356 M
63 0 V
stroke
770 2356 M
[ [(Helvetica) 140.0 0.0 true true 0 ( 647)]
] -46.7 MRshow
1.000 UL
LTb
LCb setrgbcolor
854 2991 M
63 0 V
stroke
770 2991 M
[ [(Helvetica) 140.0 0.0 true true 0 ( 647.5)]
] -46.7 MRshow
1.000 UL
LTb
LCb setrgbcolor
854 3627 M
63 0 V
stroke
770 3627 M
[ [(Helvetica) 140.0 0.0 true true 0 ( 648)]
] -46.7 MRshow
1.000 UL
LTb
LCb setrgbcolor
854 4263 M
63 0 V
stroke
770 4263 M
[ [(Helvetica) 140.0 0.0 true true 0 ( 648.5)]
] -46.7 MRshow
1.000 UL
LTb
LCb setrgbcolor
854 4899 M
63 0 V
stroke
770 4899 M
[ [(Helvetica) 140.0 0.0 true true 0 ( 649)]
] -46.7 MRshow
1.000 UL
LTb
LCb setrgbcolor
854 448 M
0 63 V
0 4388 R
0 -63 V
stroke
854 308 M
[ [(Helvetica) 140.0 0.0 true true 0 ( 1.793)]
] -46.7 MCshow
1.000 UL
LTb
LCb setrgbcolor
1365 448 M
0 63 V
0 4388 R
0 -63 V
stroke
1365 308 M
[ [(Helvetica) 140.0 0.0 true true 0 ( 1.794)]
] -46.7 MCshow
1.000 UL
LTb
LCb setrgbcolor
1877 448 M
0 63 V
0 4388 R
0 -63 V
stroke
1877 308 M
[ [(Helvetica) 140.0 0.0 true true 0 ( 1.795)]
] -46.7 MCshow
1.000 UL
LTb
LCb setrgbcolor
2388 448 M
0 63 V
0 4388 R
0 -63 V
stroke
2388 308 M
[ [(Helvetica) 140.0 0.0 true true 0 ( 1.796)]
] -46.7 MCshow
1.000 UL
LTb
LCb setrgbcolor
2899 448 M
0 63 V
0 4388 R
0 -63 V
stroke
2899 308 M
[ [(Helvetica) 140.0 0.0 true true 0 ( 1.797)]
] -46.7 MCshow
1.000 UL
LTb
LCb setrgbcolor
3410 448 M
0 63 V
0 4388 R
0 -63 V
stroke
3410 308 M
[ [(Helvetica) 140.0 0.0 true true 0 ( 1.798)]
] -46.7 MCshow
1.000 UL
LTb
LCb setrgbcolor
3922 448 M
0 63 V
0 4388 R
0 -63 V
stroke
3922 308 M
[ [(Helvetica) 140.0 0.0 true true 0 ( 1.799)]
] -46.7 MCshow
1.000 UL
LTb
LCb setrgbcolor
4433 448 M
0 63 V
0 4388 R
0 -63 V
stroke
4433 308 M
[ [(Helvetica) 140.0 0.0 true true 0 ( 1.8)]
] -46.7 MCshow
1.000 UL
LTb
LCb setrgbcolor
4944 448 M
0 63 V
0 4388 R
0 -63 V
stroke
4944 308 M
[ [(Helvetica) 140.0 0.0 true true 0 ( 1.801)]
] -46.7 MCshow
1.000 UL
LTb
LCb setrgbcolor
5456 448 M
0 63 V
0 4388 R
0 -63 V
stroke
5456 308 M
[ [(Helvetica) 140.0 0.0 true true 0 ( 1.802)]
] -46.7 MCshow
1.000 UL
LTb
LCb setrgbcolor
5967 448 M
0 63 V
0 4388 R
0 -63 V
stroke
5967 308 M
[ [(Helvetica) 140.0 0.0 true true 0 ( 1.803)]
] -46.7 MCshow
1.000 UL
LTb
LCb setrgbcolor
5967 448 M
-63 0 V
stroke
6051 448 M
[ [(Helvetica) 140.0 0.0 true true 0 (0.000001)]
] -46.7 MLshow
1.000 UL
LTb
LCb setrgbcolor
5967 783 M
-31 0 V
31 196 R
-31 0 V
31 139 R
-31 0 V
31 108 R
-31 0 V
31 88 R
-31 0 V
31 74 R
-31 0 V
31 65 R
-31 0 V
31 57 R
-31 0 V
31 51 R
-63 0 V
stroke
6051 1561 M
[ [(Helvetica) 140.0 0.0 true true 0 (0.000010)]
] -46.7 MLshow
1.000 UL
LTb
LCb setrgbcolor
5967 1896 M
-31 0 V
31 196 R
-31 0 V
31 139 R
-31 0 V
31 108 R
-31 0 V
31 88 R
-31 0 V
31 74 R
-31 0 V
31 65 R
-31 0 V
31 57 R
-31 0 V
31 51 R
-63 0 V
stroke
6051 2674 M
[ [(Helvetica) 140.0 0.0 true true 0 (0.000100)]
] -46.7 MLshow
1.000 UL
LTb
LCb setrgbcolor
5967 3008 M
-31 0 V
31 196 R
-31 0 V
31 139 R
-31 0 V
31 108 R
-31 0 V
31 88 R
-31 0 V
31 75 R
-31 0 V
31 64 R
-31 0 V
31 57 R
-31 0 V
31 51 R
-63 0 V
stroke
6051 3786 M
[ [(Helvetica) 140.0 0.0 true true 0 (0.001000)]
] -46.7 MLshow
1.000 UL
LTb
LCb setrgbcolor
5967 4121 M
-31 0 V
31 196 R
-31 0 V
31 139 R
-31 0 V
31 108 R
-31 0 V
31 88 R
-31 0 V
31 75 R
-31 0 V
31 64 R
-31 0 V
31 57 R
-31 0 V
31 51 R
-63 0 V
stroke
6051 4899 M
[ [(Helvetica) 140.0 0.0 true true 0 (0.010000)]
] -46.7 MLshow
1.000 UL
LTb
LCb setrgbcolor
1.000 UL
LTB
LCb setrgbcolor
854 4899 N
854 448 L
5113 0 V
0 4451 V
-5113 0 V
Z stroke
1.000 UP
1.000 UL
LTb
LCb setrgbcolor
LCb setrgbcolor
126 2673 M
currentpoint gsave translate -270 rotate 0 0 moveto
[ [(Helvetica) 140.0 0.0 true true 0 (Spin precession angle [deg])]
] -46.7 MCshow
grestore
LTb
LCb setrgbcolor
6975 2673 M
currentpoint gsave translate -270 rotate 0 0 moveto
[ [(Helvetica) 140.0 0.0 true true 0 (difference num./theor.)]
] -46.7 MCshow
grestore
LTb
LCb setrgbcolor
3410 98 M
[ [(Helvetica) 140.0 0.0 true true 0 (G)]
[(Helvetica) 140.0 0.0 true true 0 (Symbol g)]
] -46.7 MCshow
LTb
% Begin plot #1
0.100 UP
1.000 UL
LTb
0.58 0.00 0.83 C LCb setrgbcolor
5316 4766 M
[ [(Helvetica) 140.0 0.0 true true 0 (ray tracing)]
] -46.7 MRshow
0.100 UP
1.000 UL
LTb
0.58 0.00 0.83 C 5400 4766 M
399 0 V
971 526 M
28 25 V
29 26 V
31 28 V
33 30 V
35 31 V
36 33 V
38 34 V
40 36 V
42 38 V
44 39 V
45 40 V
47 43 V
49 44 V
51 45 V
53 47 V
54 49 V
57 50 V
58 52 V
59 54 V
62 55 V
63 57 V
66 58 V
67 60 V
68 62 V
71 63 V
72 65 V
74 66 V
76 68 V
78 70 V
80 71 V
81 73 V
83 74 V
85 76 V
87 78 V
88 79 V
91 81 V
92 83 V
94 84 V
95 85 V
98 88 V
99 88 V
101 91 V
103 92 V
104 94 V
107 95 V
108 97 V
110 98 V
112 100 V
113 102 V
115 103 V
117 105 V
119 106 V
121 108 V
122 110 V
124 111 V
126 113 V
128 114 V
130 116 V
131 118 V
971 526 TriU
971 526 TriU
999 551 TriU
1028 577 TriU
1059 605 TriU
1092 635 TriU
1127 666 TriU
1163 699 TriU
1201 733 TriU
1241 769 TriU
1283 807 TriU
1327 846 TriU
1372 886 TriU
1419 929 TriU
1468 973 TriU
1519 1018 TriU
1572 1065 TriU
1626 1114 TriU
1683 1164 TriU
1741 1216 TriU
1800 1270 TriU
1862 1325 TriU
1925 1382 TriU
1991 1440 TriU
2058 1500 TriU
2126 1562 TriU
2197 1625 TriU
2269 1690 TriU
2343 1756 TriU
2419 1824 TriU
2497 1894 TriU
2577 1965 TriU
2658 2038 TriU
2741 2112 TriU
2826 2188 TriU
2913 2266 TriU
3001 2345 TriU
3092 2426 TriU
3184 2509 TriU
3278 2593 TriU
3373 2678 TriU
3471 2766 TriU
3570 2854 TriU
3671 2945 TriU
3774 3037 TriU
3878 3131 TriU
3985 3226 TriU
4093 3323 TriU
4203 3421 TriU
4315 3521 TriU
4428 3623 TriU
4543 3726 TriU
4660 3831 TriU
4779 3937 TriU
4900 4045 TriU
5022 4155 TriU
5146 4266 TriU
5272 4379 TriU
5400 4493 TriU
5530 4609 TriU
5661 4727 TriU
5599 4766 TriU
% End plot #1
% Begin plot #2
0.100 UP
1.000 UL
LTb
0.00 0.62 0.45 C LCb setrgbcolor
5316 4626 M
[ [(Helvetica) 140.0 0.0 true true 0 (diff.)]
] -46.7 MRshow
0.100 UP
1.000 UL
LTb
0.00 0.62 0.45 C 5400 4626 M
399 0 V
971 3937 M
28 -147 V
29 -118 V
31 -118 V
33 -121 V
35 -98 V
36 -92 V
38 -103 V
40 -83 V
42 -82 V
44 -90 V
45 -71 V
47 -76 V
49 -76 V
51 -69 V
53 -65 V
54 -63 V
57 -65 V
58 -64 V
59 -55 V
62 -53 V
63 -64 V
66 -48 V
67 -54 V
68 -46 V
71 -48 V
72 -47 V
74 -41 V
76 -47 V
78 -54 V
80 -39 V
81 -41 V
83 -55 V
85 -30 V
87 -55 V
88 -9 V
91 -47 V
92 -51 V
94 -53 V
95 24 V
98 -42 V
99 -62 V
101 -26 V
103 -1 V
104 -74 V
107 -55 V
108 24 V
110 -11 V
112 -37 V
113 -36 V
115 -16 V
117 -61 V
119 2 V
121 -29 V
122 -53 V
124 38 V
126 17 V
128 -38 V
5530 848 L
131 82 V
971 3937 TriU
971 3937 TriU
999 3790 TriU
1028 3672 TriU
1059 3554 TriU
1092 3433 TriU
1127 3335 TriU
1163 3243 TriU
1201 3140 TriU
1241 3057 TriU
1283 2975 TriU
1327 2885 TriU
1372 2814 TriU
1419 2738 TriU
1468 2662 TriU
1519 2593 TriU
1572 2528 TriU
1626 2465 TriU
1683 2400 TriU
1741 2336 TriU
1800 2281 TriU
1862 2228 TriU
1925 2164 TriU
1991 2116 TriU
2058 2062 TriU
2126 2016 TriU
2197 1968 TriU
2269 1921 TriU
2343 1880 TriU
2419 1833 TriU
2497 1779 TriU
2577 1740 TriU
2658 1699 TriU
2741 1644 TriU
2826 1614 TriU
2913 1559 TriU
3001 1550 TriU
3092 1503 TriU
3184 1452 TriU
3278 1399 TriU
3373 1423 TriU
3471 1381 TriU
3570 1319 TriU
3671 1293 TriU
3774 1292 TriU
3878 1218 TriU
3985 1163 TriU
4093 1187 TriU
4203 1176 TriU
4315 1139 TriU
4428 1103 TriU
4543 1087 TriU
4660 1026 TriU
4779 1028 TriU
4900 999 TriU
5022 946 TriU
5146 984 TriU
5272 1001 TriU
5400 963 TriU
5530 848 TriU
5661 930 TriU
5599 4626 TriU
% End plot #2
2.000 UL
LTb
LCb setrgbcolor
1.000 UL
LTB
LCb setrgbcolor
854 4899 N
854 448 L
5113 0 V
0 4451 V
-5113 0 V
Z stroke
1.000 UP
1.000 UL
LTb
LCb setrgbcolor
stroke
grestore
end
showpage
%%Trailer
%%DocumentFonts: Helvetica
