*** SPECTRO GSI AVEC Q-POLE CHAMP DE FUITE ANALYT
'OBJET'                                                                             1                        1
1000.                 750MeV/c
1
1  5    1    3   1   1
0. 20.  .0   50.  0. 1.
0. 0. 0. 0. 0. 1.
'FAISCEAU'                                                                          2                        2
'DRIFT     '                                                                        3                        3
60.
'QUADRUPO'                                                                          4                        4
0
80.  15.  -7.6
25.  30.                LAMBDA(ZGOUBI) = 2*RADIUS(RAYTRACE) <=> CHP FUIT ID.
6  .1122 6.2671 -1.4982 3.5882 -2.1209 1.723
25.   30.
6  .1122 6.2671 -1.4982 3.5882 -2.1209 1.723
4.
1 0. 0. 0.
'DRIFT'                                                                             5                        5
9.32978
'CHANGREF'                                                                          6                        6
0. 0. 19.
'AIMANT'            Generate a field map                                          7                          7
2 0 2
300 120
10. 0. 0. 0.                                   HNORM, indices
70.   35.   200. 100. 400.               AT, acent, rm, rmin, rmax
15. -1.                                       face 1
4  .1455   2.2670  -.6395  1.1558  0. 0.  0.
10.   10.    1.E6  -1.E6  1.E6  1.E6
15. -1.                                       face 2
4  .1455   2.2670  -.6395  1.1558  0. 0.  0.
-10.   -10.    1.E6  -1.E6  1.E6  1.E6
0
2                                                  IRD(=2, 25 or 4), resol(*
2.9                                         step
2
200. 0. 0. 0.
'IMAGE'                                                                             8                        8
'OBJET'                                                                             1                        9
1000.                 750MeV/c
1
1  5    1    3   1   1
0. 20.  .0   50.  0. 1.
0. 0. 0. 0. 0. 1.
'FAISCEAU'                                                                          2                       10
'DRIFT     '                                                                        3                       11
60.
'QUADRUPO'                                                                          4                       12
0
80.  15.  -7.6
25.  30.                LAMBDA(ZGOUBI) = 2*RADIUS(RAYTRACE) <=> CHP FUIT ID.
6  .1122 6.2671 -1.4982 3.5882 -2.1209 1.723
25.   30.
6  .1122 6.2671 -1.4982 3.5882 -2.1209 1.723
4.
1 0. 0. 0.
'DRIFT'                                                                             5                       13
9.32978
'CHANGREF'                                                                          6                       14
0. 0. 19.
'DIPOLE-M'            Generate a field map                                          7                       15
2 0 2
300 120
10. 0. 0. 0.                                   HNORM, indices
70.   35.   200. 100. 400.               AT, acent, rm, rmin, rmax
15. -1.                                       face 1
4  .1455   2.2670  -.6395  1.1558  0. 0.  0.
10.   10.    1.E6  -1.E6  1.E6  1.E6
15. -1.                                       face 2
4  .1455   2.2670  -.6395  1.1558  0. 0.  0.
-10.   -10.    1.E6  -1.E6  1.E6  1.E6
0
2                                                  IRD(=2, 25 or 4), resol(*
2.9                                         step
2
200. 0. 0. 0.
'IMAGE'                                                                             8                       16
'END'                                                                               4                       17

************************************************************************************************************************************
      1  Keyword, label(s) :  OBJET       1                                                                            IPASS= 1

                          MAGNETIC  RIGIDITY =       1000.000 kG*cm

                                         TRAJECTOIRY SETTING UP

                              OBJET  (1)  BUILT  UP  FROM      15 POINTS 



                                 D         Y(cm)       T(mrd)      Z(cm)       P(mrd)      X(cm)

                     NUMBER         1           1           5           1           3           0


                    SAMPLING      1.0000      0.00       20.00        0.00       50.00        0.00


************************************************************************************************************************************
      2  Keyword, label(s) :  FAISCEAU    2                                                                            IPASS= 1

0                                             TRACE DU FAISCEAU
                                           (follows element #      1)
                                                 15 TRAJECTOIRES

                                   OBJET                                                  FAISCEAU

          D       Y(cm)     T(mr)     Z(cm)     P(mr)       S(cm)      D-1     Y(cm)    T(mr)    Z(cm)    P(mr)      S(cm)

O  1   1.0000     0.000     0.000     0.000     0.000      0.0000    0.0000    0.000    0.000    0.000    0.000   0.000000E+00     1
O  1   1.0000     0.000     0.000     0.000    50.000      0.0000    0.0000    0.000    0.000    0.000   50.000   0.000000E+00     2
O  1   1.0000     0.000     0.000     0.000   -50.000      0.0000    0.0000    0.000    0.000    0.000  -50.000   0.000000E+00     3
A  1   1.0000     0.000    20.000     0.000     0.000      0.0000    0.0000    0.000   20.000    0.000    0.000   0.000000E+00     4
A  1   1.0000     0.000    20.000     0.000    50.000      0.0000    0.0000    0.000   20.000    0.000   50.000   0.000000E+00     5
A  1   1.0000     0.000    20.000     0.000   -50.000      0.0000    0.0000    0.000   20.000    0.000  -50.000   0.000000E+00     6
B  1   1.0000     0.000   -20.000     0.000     0.000      0.0000    0.0000    0.000  -20.000    0.000    0.000   0.000000E+00     7
B  1   1.0000     0.000   -20.000     0.000    50.000      0.0000    0.0000    0.000  -20.000    0.000   50.000   0.000000E+00     8
B  1   1.0000     0.000   -20.000     0.000   -50.000      0.0000    0.0000    0.000  -20.000    0.000  -50.000   0.000000E+00     9
C  1   1.0000     0.000    40.000     0.000     0.000      0.0000    0.0000    0.000   40.000    0.000    0.000   0.000000E+00    10
C  1   1.0000     0.000    40.000     0.000    50.000      0.0000    0.0000    0.000   40.000    0.000   50.000   0.000000E+00    11
C  1   1.0000     0.000    40.000     0.000   -50.000      0.0000    0.0000    0.000   40.000    0.000  -50.000   0.000000E+00    12
D  1   1.0000     0.000   -40.000     0.000     0.000      0.0000    0.0000    0.000  -40.000    0.000    0.000   0.000000E+00    13
D  1   1.0000     0.000   -40.000     0.000    50.000      0.0000    0.0000    0.000  -40.000    0.000   50.000   0.000000E+00    14
D  1   1.0000     0.000   -40.000     0.000   -50.000      0.0000    0.0000    0.000  -40.000    0.000  -50.000   0.000000E+00    15


---------------  Concentration ellipses : 
surface [pi*m]  alpha        beta         <X>            <XP>           numb. of prtcls   ratio      space      pass# 
                                                                        in ellips,  out 
   0.0000E+00   0.0000E+00   1.0000E+00   0.000000E+00  -9.251859E-19       15        0    0.000      (Y,T)         1
   0.0000E+00   0.0000E+00   1.0000E+00   0.000000E+00   0.000000E+00       15        5   0.3333      (Z,P)         1
   0.0000E+00   0.0000E+00   1.0000E+00   0.000000E+00   2.997925E+02       15        0    0.000      (t,K)         1

(Y,T)  space (units : (cm,rd)   ) :  
      sigma_Y = sqrt(Surface/pi * BET) =   0.000000E+00
      sigma_T = sqrt(Surface/pi * (1+ALF^2)/BET) =   0.000000E+00

(Z,P)  space (units : (cm,rd)   ) :  
      sigma_Z = sqrt(Surface/pi * BET) =   0.000000E+00
      sigma_P = sqrt(Surface/pi * (1+ALF^2)/BET) =   0.000000E+00

(t,K)  space (units : (mu_s,MeV)) :  
      sigma_t = sqrt(Surface/pi * BET) =   0.000000E+00
      sigma_K = sqrt(Surface/pi * (1+ALF^2)/BET) =   0.000000E+00


  Beam  sigma  matrix  and  determinants : 

   0.000000E+00   0.000000E+00   0.000000E+00   0.000000E+00
   0.000000E+00   8.000000E-04   0.000000E+00   0.000000E+00
   0.000000E+00   0.000000E+00   0.000000E+00   0.000000E+00
   0.000000E+00   0.000000E+00   0.000000E+00   1.666667E-03

      sqrt(det_Y), sqrt(det_Z) :     0.000000E+00    0.000000E+00    (Note :  sqrt(determinant) = ellipse surface / pi)

************************************************************************************************************************************
      3  Keyword, label(s) :  DRIFT       '                     3                                                      IPASS= 1


                              Drift,  length =    60.00000  cm

TRAJ #1 IEX,D,Y,T,Z,P,S,time :  1  0.000000E+00  0.000000E+00  0.000000E+00  0.000000E+00  0.000000E+00  6.0000000E+01  0.00000E+00

 Cumulative length of optical axis =   0.600000000     m   ;  Time  (for reference rigidity & particle) =   6.575779E-09 s 

************************************************************************************************************************************
      4  Keyword, label(s) :  QUADRUPO    4                                                                            IPASS= 1


      -----  QUADRUPOLE  : 
                Length  of  element  =    80.000000      cm
                Bore  radius      RO =    15.000      cm                              B/RO^IM/Brho (strength)
               B-QUADRUPOLE  = -7.6000000E+00 kG   (i.e.,  -7.6000000E+00 * SCAL)    -5.0666667E+00

                Entrance  face  
                     with  fringe  field :
                     DX  =  25.000  CM 
                     LAMBDA-QUADRUPOLE = 30.000  CM
                    6 COEFFICIENTS :  0.11220  6.26710 -1.49820  3.58820 -2.12090  1.72300

                Exit  face  
                     with  fringe  field :
                     DX  =  25.000  CM 
                     LAMBDA-QUADRUPOLE = 30.000  CM
                    6 COEFFICIENTS :  0.11220  6.26710 -1.49820  3.58820 -2.12090  1.72300

                    Integration step :   4.000     cm

  A    1  1.0000     0.000     0.000     0.000     0.000          130.000     0.000     0.000     0.000     0.000            1
  A    1  1.0000     0.000     0.000     0.000    50.000          130.000     0.000     0.000     1.534    -0.075            2
  A    1  1.0000     0.000    20.000     0.000     0.000          130.000     6.286     0.144     0.000     0.000            4
  A    1  1.0000     0.000    20.000     0.000    50.000          130.000     6.286     0.144     1.518    -0.076            5
  A    1  1.0000     0.000   -20.000     0.000     0.000          130.000    -6.286    -0.144     0.000     0.000            7
  A    1  1.0000     0.000   -20.000     0.000    50.000          130.000    -6.286    -0.144     1.518    -0.076            8
  A    1  1.0000     0.000    40.000     0.000     0.000          130.000    12.789     0.287     0.000     0.000           10
  A    1  1.0000     0.000    40.000     0.000    50.000          130.000    12.789     0.287     1.464    -0.078           11
  A    1  1.0000     0.000   -40.000     0.000     0.000          130.000   -12.789    -0.287     0.000     0.000           13
  A    1  1.0000     0.000   -40.000     0.000    50.000          130.000   -12.789    -0.287     1.464    -0.078           14

     QUASEX - KPOS =  1 :  Change  of  frame  at  exit  of  element.
          X =   0.000     CM   Y =   0.000     cm,  tilt  angle =   0.0000000     RAD


 Cumulative length of optical axis =    1.40000000     m ;  Time  (for ref. rigidity & particle) =   1.534348E-08 s 

************************************************************************************************************************************
      5  Keyword, label(s) :  DRIFT       5                                                                            IPASS= 1


                              Drift,  length =     9.32978  cm

TRAJ #1 IEX,D,Y,T,Z,P,S,time :  1  0.000000E+00  0.000000E+00  0.000000E+00  0.000000E+00  0.000000E+00  1.4932978E+02  2.66851E-03

 Cumulative length of optical axis =    1.49329780     m   ;  Time  (for reference rigidity & particle) =   1.636599E-08 s 

************************************************************************************************************************************
      6  Keyword, label(s) :  CHANGREF    6                                                                            IPASS= 1


 CHANGE  OF  REFERENCE  FRAME,   XC =     0.000 cm , YC =     0.000  cm ,   A =    19.00000 deg  (  0.331613 rad)

TRAJ #1 IEX,D,Y,T,Z,P,S,time :  1  0.000000E+00  0.000000E+00 -3.316126E+02  0.000000E+00  0.000000E+00  1.4932978E+02  2.66851E-03

************************************************************************************************************************************
      7  Keyword, label(s) :  AIMANT      Generate              a                                                      IPASS= 1


                OPEN FILE zgoubi.plt                                                                      
                FOR PRINTING TRAJECTORIES

                    AIMANT  PRINCIPAL


           ANGLES : A.TOTAL = 70.00 degrees     A.CENTRAL = 35.00 degrees

           RM = 200.00 cm     RMIN = 100.00 cm     RMAX = 400.00 cm

           HNORM = 10.0000 kGauss     COEF.N =  0.00000     COEF.B =  0.00000     COEF.G=  0.00000
                    Number  of  steps,  in  angle :  300  in  radius :  120
                    Angular  step =  0.2341 deg.,  i.e.,    0.8172 cm  at  mean  radius
                    Radial  step  =  2.5210 cm

   Exponential  entrance  fringe  field


     Entrance  EFB
          Fringe  field :  LAMBDA =  15.00 CM
           COEFFICIENTS :   0.14550   2.26700  -0.63950   1.15580   0.00000   0.00000
           COEFFICIENTS 1 A 4 PRIS EN COMPTE
           DECALAGE  FACE  MAGNETIQUE =    0.000     CM

          OMEGA =  10.00 deg.     Wedge  angle  =  10.00 deg.
           Radius 1 =  1.00E+06 cm,

           Straight  segment 1 = -1.00E+06 cm

           Straight  segment 2 =  1.00E+06 cm

           Radius 2 =  1.00E+06 cm

   Exponential  exit  fringe  field


     Exit  EFB
          Fringe  field :  Lambda =  15.00 CM
           COEFFICIENTS :   0.14550   2.26700  -0.63950   1.15580   0.00000   0.00000
           COEFFICIENTS 1 A 4 PRIS EN COMPTE
           DECALAGE  FACE  MAGNETIQUE =    0.000     CM

          OMEGA = -10.00 deg.     Wedge  angle  = -10.00 deg.
           Radius 1 =  1.00E+06 cm,

           Straight  segment 1 = -1.00E+06 cm

           Straight  segment 2 =  1.00E+06 cm

           Radius 2 =  1.00E+06 cm


     Field map limits, angle :  min, max, max-min (rad) :   0.00000000E+00   0.12217305E+01   0.12217305E+01
     Field map limits, radius :  min, max, max-min (cm) :   0.10000000E+03   0.40000000E+03   0.30000000E+03
      Min / max  fields  drawn  from  map  data :  -0.91667                     /   0.91667    
       @  X-node, Y-node, Z-node :              -1.300E+08-1.400E+08-1.500E+08  /  1.300E+08 1.400E+08 1.500E+08
     Normalisation  coeff.  BNORM   :  1.200000E+08
     Field  min/max  normalised  :              -1.10000E+08    /   1.10000E+08
     Nbre  of  nodes  in  X/Y/Z :  300/ 120/   0
     Node  distance  in   X/Y/Z :   4.086055E-03/   2.52101    /   0.00000    

                     Option  for  interpolation : 2
                     Smoothing  using  9  points 

                    Integration step :   2.900     cm   (i.e.,   1.4500E-02 rad  at mean radius RM =    200.0    )

                              AIMANT - KPOS = 2 ;  position of reference orbit on mechanical  faces
                                         at entrance    RE =   200.000     cm  TE =   0.00000     rad
                                         at exit        RS =   0.00000     cm  TS =   0.00000     rad

  A    1  1.0000     0.000     0.000     0.000     0.000            1.222   182.274     0.179     0.000     0.000            1
  A    1  1.0000     0.000     0.000     0.000    50.000            1.222   186.322     0.220   -12.204    -0.031            2
  A    1  1.0000     0.000    20.000     0.000     0.000            1.222   225.427     0.322     0.000     0.000            4
  A    1  1.0000     0.000    20.000     0.000    50.000            1.222   220.937     0.273   -11.729    -0.021            5
  A    1  1.0000     0.000   -20.000     0.000     0.000            1.222   144.658     0.016     0.000     0.000            7
  A    1  1.0000     0.000   -20.000     0.000    50.000            1.222   141.918    -0.047   -10.626    -0.002            8
  A    1  1.0000     0.000    40.000     0.000     0.000            1.222   277.125     0.455     0.000     0.000           10
  A    1  1.0000     0.000    40.000     0.000    50.000            1.222   284.778     0.500   -12.382    -0.023           11
  A    1  1.0000     0.000   -40.000     0.000     0.000            1.222   111.030    -0.174     0.000     0.000           13
  A    1  1.0000     0.000   -40.000     0.000    50.000            1.222   107.723    -0.409   -10.202     0.066           14


                CONDITIONS  DE  MAXWELL  (      828.  PAS )  :
                       DIV(B)        LAPLACIEN(B)     ROTATIONNEL(B)
                      0.000            0.000             0.000    
                                       0.000             0.000    
                                       0.000             0.000    
                       LAPLACIEN SCALAIRE =   0.000    



 Cumulative length of optical axis =    1.49329780     m ;  Time  (for ref. rigidity & particle) =   1.636599E-08 s 

************************************************************************************************************************************
      8  Keyword, label(s) :  IMAGE       8                                                                            IPASS= 1


     RECHERCHE DU POINT DE FOCALISATION HORIZONTAL DE     15 TRAJECTOIRES (SUR     15)

     POINT DE FOCALISATION HORIZONTAL SUR L ORBITE MOYENNE    X =  -190.969     CM    Y =   147.747     CM

     DECALAGE DU CENTRE DE GRAVITE EN Y =    15.2735     CM

     LARGEUR IMAGE,  A MI-HAUTEUR =   41.4650     CM,  TOTALE =   48.8790     CM
                                      .........                 .........

0                                             TRACE DU FAISCEAU
                                           (follows element #      7)
                                                 15 TRAJECTOIRES

                                   OBJET                                                  FAISCEAU

          D       Y(cm)     T(mr)     Z(cm)     P(mr)       S(cm)      D-1     Y(cm)    T(mr)    Z(cm)    P(mr)      S(cm)

O  1   1.0000     0.000     0.000     0.000     0.000      0.0000    0.0000  182.274  178.864    0.000    0.000   3.803120E+02     1
O  1   1.0000     0.000     0.000     0.000    50.000      0.0000    0.0000  186.322  219.849  -12.204  -30.524   3.821458E+02     2
O  1   1.0000     0.000     0.000     0.000   -50.000      0.0000    0.0000  186.322  219.849   12.204   30.524   3.821458E+02     3
A  1   1.0000     0.000    20.000     0.000     0.000      0.0000    0.0000  225.427  322.207    0.000    0.000   4.091386E+02     4
A  1   1.0000     0.000    20.000     0.000    50.000      0.0000    0.0000  220.937  272.789  -11.729  -21.237   4.087591E+02     5
A  1   1.0000     0.000    20.000     0.000   -50.000      0.0000    0.0000  220.937  272.789   11.729   21.237   4.087591E+02     6
B  1   1.0000     0.000   -20.000     0.000     0.000      0.0000    0.0000  144.658   15.745    0.000    0.000   3.590756E+02     7
B  1   1.0000     0.000   -20.000     0.000    50.000      0.0000    0.0000  141.918  -46.633  -10.626   -2.411   3.597946E+02     8
B  1   1.0000     0.000   -20.000     0.000   -50.000      0.0000    0.0000  141.918  -46.633   10.626    2.411   3.597946E+02     9
C  1   1.0000     0.000    40.000     0.000     0.000      0.0000    0.0000  277.125  454.939    0.000    0.000   4.484168E+02    10
C  1   1.0000     0.000    40.000     0.000    50.000      0.0000    0.0000  284.778  499.971  -12.382  -23.421   4.534598E+02    11
C  1   1.0000     0.000    40.000     0.000   -50.000      0.0000    0.0000  284.778  499.971   12.382   23.421   4.534598E+02    12
D  1   1.0000     0.000   -40.000     0.000     0.000      0.0000    0.0000  111.030 -173.860    0.000    0.000   3.438040E+02    13
D  1   1.0000     0.000   -40.000     0.000    50.000      0.0000    0.0000  107.723 -409.144  -10.202   65.586   3.464593E+02    14
D  1   1.0000     0.000   -40.000     0.000   -50.000      0.0000    0.0000  107.723 -409.144   10.202  -65.586   3.464593E+02    15


---------------  Concentration ellipses : 
surface [pi*m]  alpha        beta         <X>            <XP>           numb. of prtcls   ratio      space      pass# 
                                                                        in ellips,  out 
   1.6504E-01  -3.1445E+00   7.0078E+00   1.882582E+00   1.247706E-01       15       13   0.8667      (Y,T)         1
   8.4044E-03  -1.3361E-01   3.2735E+00   0.000000E+00   0.000000E+00       15       13   0.8667      (Z,P)         1
   2.2506E-16   9.1762E-17   2.2171E+10   1.066888E-02   2.997925E+02       15       12   0.8000      (t,K)         1

(Y,T)  space (units : (cm,rd)   ) :  
      sigma_Y = sqrt(Surface/pi * BET) =   6.067503E-01
      sigma_T = sqrt(Surface/pi * (1+ALF^2)/BET) =   2.856947E-01

(Z,P)  space (units : (cm,rd)   ) :  
      sigma_Z = sqrt(Surface/pi * BET) =   9.358096E-02
      sigma_P = sqrt(Surface/pi * (1+ALF^2)/BET) =   2.884109E-02

(t,K)  space (units : (mu_s,MeV)) :  
      sigma_t = sqrt(Surface/pi * BET) =   1.260300E-03
      sigma_K = sqrt(Surface/pi * (1+ALF^2)/BET) =   5.684342E-14


  Beam  sigma  matrix  and  determinants : 

   3.681460E-01   1.651933E-01   0.000000E+00   0.000000E+00
   1.651933E-01   8.162147E-02   0.000000E+00   0.000000E+00
   0.000000E+00   0.000000E+00   8.757396E-03   3.574449E-04
   0.000000E+00   0.000000E+00   3.574449E-04   8.318084E-04

      sqrt(det_Y), sqrt(det_Z) :     5.253363E-02    2.675203E-03    (Note :  sqrt(determinant) = ellipse surface / pi)

************************************************************************************************************************************
      9  Keyword, label(s) :  OBJET       1                                                                            IPASS= 1

                          MAGNETIC  RIGIDITY =       1000.000 kG*cm

                                         TRAJECTOIRY SETTING UP

                              OBJET  (1)  BUILT  UP  FROM      15 POINTS 



                                 D         Y(cm)       T(mrd)      Z(cm)       P(mrd)      X(cm)

                     NUMBER         1           1           5           1           3           0


                    SAMPLING      1.0000      0.00       20.00        0.00       50.00        0.00


************************************************************************************************************************************
     10  Keyword, label(s) :  FAISCEAU    2                                                                            IPASS= 1

0                                             TRACE DU FAISCEAU
                                           (follows element #      9)
                                                 15 TRAJECTOIRES

                                   OBJET                                                  FAISCEAU

          D       Y(cm)     T(mr)     Z(cm)     P(mr)       S(cm)      D-1     Y(cm)    T(mr)    Z(cm)    P(mr)      S(cm)

O  1   1.0000     0.000     0.000     0.000     0.000      0.0000    0.0000    0.000    0.000    0.000    0.000   0.000000E+00     1
O  1   1.0000     0.000     0.000     0.000    50.000      0.0000    0.0000    0.000    0.000    0.000   50.000   0.000000E+00     2
O  1   1.0000     0.000     0.000     0.000   -50.000      0.0000    0.0000    0.000    0.000    0.000  -50.000   0.000000E+00     3
A  1   1.0000     0.000    20.000     0.000     0.000      0.0000    0.0000    0.000   20.000    0.000    0.000   0.000000E+00     4
A  1   1.0000     0.000    20.000     0.000    50.000      0.0000    0.0000    0.000   20.000    0.000   50.000   0.000000E+00     5
A  1   1.0000     0.000    20.000     0.000   -50.000      0.0000    0.0000    0.000   20.000    0.000  -50.000   0.000000E+00     6
B  1   1.0000     0.000   -20.000     0.000     0.000      0.0000    0.0000    0.000  -20.000    0.000    0.000   0.000000E+00     7
B  1   1.0000     0.000   -20.000     0.000    50.000      0.0000    0.0000    0.000  -20.000    0.000   50.000   0.000000E+00     8
B  1   1.0000     0.000   -20.000     0.000   -50.000      0.0000    0.0000    0.000  -20.000    0.000  -50.000   0.000000E+00     9
C  1   1.0000     0.000    40.000     0.000     0.000      0.0000    0.0000    0.000   40.000    0.000    0.000   0.000000E+00    10
C  1   1.0000     0.000    40.000     0.000    50.000      0.0000    0.0000    0.000   40.000    0.000   50.000   0.000000E+00    11
C  1   1.0000     0.000    40.000     0.000   -50.000      0.0000    0.0000    0.000   40.000    0.000  -50.000   0.000000E+00    12
D  1   1.0000     0.000   -40.000     0.000     0.000      0.0000    0.0000    0.000  -40.000    0.000    0.000   0.000000E+00    13
D  1   1.0000     0.000   -40.000     0.000    50.000      0.0000    0.0000    0.000  -40.000    0.000   50.000   0.000000E+00    14
D  1   1.0000     0.000   -40.000     0.000   -50.000      0.0000    0.0000    0.000  -40.000    0.000  -50.000   0.000000E+00    15


---------------  Concentration ellipses : 
surface [pi*m]  alpha        beta         <X>            <XP>           numb. of prtcls   ratio      space      pass# 
                                                                        in ellips,  out 
   0.0000E+00   0.0000E+00   1.0000E+00   0.000000E+00  -9.251859E-19       15        0    0.000      (Y,T)         1
   0.0000E+00   0.0000E+00   1.0000E+00   0.000000E+00   0.000000E+00       15        5   0.3333      (Z,P)         1
   0.0000E+00   0.0000E+00   1.0000E+00   0.000000E+00   2.997925E+02       15        0    0.000      (t,K)         1

(Y,T)  space (units : (cm,rd)   ) :  
      sigma_Y = sqrt(Surface/pi * BET) =   0.000000E+00
      sigma_T = sqrt(Surface/pi * (1+ALF^2)/BET) =   0.000000E+00

(Z,P)  space (units : (cm,rd)   ) :  
      sigma_Z = sqrt(Surface/pi * BET) =   0.000000E+00
      sigma_P = sqrt(Surface/pi * (1+ALF^2)/BET) =   0.000000E+00

(t,K)  space (units : (mu_s,MeV)) :  
      sigma_t = sqrt(Surface/pi * BET) =   0.000000E+00
      sigma_K = sqrt(Surface/pi * (1+ALF^2)/BET) =   0.000000E+00


  Beam  sigma  matrix  and  determinants : 

   0.000000E+00   0.000000E+00   0.000000E+00   0.000000E+00
   0.000000E+00   8.000000E-04   0.000000E+00   0.000000E+00
   0.000000E+00   0.000000E+00   0.000000E+00   0.000000E+00
   0.000000E+00   0.000000E+00   0.000000E+00   1.666667E-03

      sqrt(det_Y), sqrt(det_Z) :     0.000000E+00    0.000000E+00    (Note :  sqrt(determinant) = ellipse surface / pi)

************************************************************************************************************************************
     11  Keyword, label(s) :  DRIFT       '                     3                                                      IPASS= 1


                              Drift,  length =    60.00000  cm

TRAJ #1 IEX,D,Y,T,Z,P,S,time :  1  0.000000E+00  0.000000E+00  0.000000E+00  0.000000E+00  0.000000E+00  6.0000000E+01  0.00000E+00

 Cumulative length of optical axis =    2.09329780     m   ;  Time  (for reference rigidity & particle) =   2.294177E-08 s 

************************************************************************************************************************************
     12  Keyword, label(s) :  QUADRUPO    4                                                                            IPASS= 1


      -----  QUADRUPOLE  : 
                Length  of  element  =    80.000000      cm
                Bore  radius      RO =    15.000      cm                              B/RO^IM/Brho (strength)
               B-QUADRUPOLE  = -7.6000000E+00 kG   (i.e.,  -7.6000000E+00 * SCAL)    -5.0666667E+00

                Entrance  face  
                     with  fringe  field :
                     DX  =  25.000  CM 
                     LAMBDA-QUADRUPOLE = 30.000  CM
                    6 COEFFICIENTS :  0.11220  6.26710 -1.49820  3.58820 -2.12090  1.72300

                Exit  face  
                     with  fringe  field :
                     DX  =  25.000  CM 
                     LAMBDA-QUADRUPOLE = 30.000  CM
                    6 COEFFICIENTS :  0.11220  6.26710 -1.49820  3.58820 -2.12090  1.72300

                    Integration step :   4.000     cm

  A    1  1.0000     0.000     0.000     0.000     0.000          130.000     0.000     0.000     0.000     0.000            1
  A    1  1.0000     0.000     0.000     0.000    50.000          130.000     0.000     0.000     1.534    -0.075            2
  A    1  1.0000     0.000    20.000     0.000     0.000          130.000     6.286     0.144     0.000     0.000            4
  A    1  1.0000     0.000    20.000     0.000    50.000          130.000     6.286     0.144     1.518    -0.076            5
  A    1  1.0000     0.000   -20.000     0.000     0.000          130.000    -6.286    -0.144     0.000     0.000            7
  A    1  1.0000     0.000   -20.000     0.000    50.000          130.000    -6.286    -0.144     1.518    -0.076            8
  A    1  1.0000     0.000    40.000     0.000     0.000          130.000    12.789     0.287     0.000     0.000           10
  A    1  1.0000     0.000    40.000     0.000    50.000          130.000    12.789     0.287     1.464    -0.078           11
  A    1  1.0000     0.000   -40.000     0.000     0.000          130.000   -12.789    -0.287     0.000     0.000           13
  A    1  1.0000     0.000   -40.000     0.000    50.000          130.000   -12.789    -0.287     1.464    -0.078           14

     QUASEX - KPOS =  1 :  Change  of  frame  at  exit  of  element.
          X =   0.000     CM   Y =   0.000     cm,  tilt  angle =   0.0000000     RAD


 Cumulative length of optical axis =    2.89329780     m ;  Time  (for ref. rigidity & particle) =   3.170948E-08 s 

************************************************************************************************************************************
     13  Keyword, label(s) :  DRIFT       5                                                                            IPASS= 1


                              Drift,  length =     9.32978  cm

TRAJ #1 IEX,D,Y,T,Z,P,S,time :  1  0.000000E+00  0.000000E+00  0.000000E+00  0.000000E+00  0.000000E+00  1.4932978E+02  2.66851E-03

 Cumulative length of optical axis =    2.98659560     m   ;  Time  (for reference rigidity & particle) =   3.273199E-08 s 

************************************************************************************************************************************
     14  Keyword, label(s) :  CHANGREF    6                                                                            IPASS= 1


 CHANGE  OF  REFERENCE  FRAME,   XC =     0.000 cm , YC =     0.000  cm ,   A =    19.00000 deg  (  0.331613 rad)

TRAJ #1 IEX,D,Y,T,Z,P,S,time :  1  0.000000E+00  0.000000E+00 -3.316126E+02  0.000000E+00  0.000000E+00  1.4932978E+02  2.66851E-03

************************************************************************************************************************************
     15  Keyword, label(s) :  DIPOLE-M    Generate              a                                                      IPASS= 1


     zgoubi.plt                                                                      
      already open...
                    AIMANT  PRINCIPAL

           ANGLES : A.TOTAL = 70.00 degrees     A.CENTRAL = 35.00 degrees
           RM = 200.00 cm     RMIN = 100.00 cm     RMAX = 400.00 cm
           HNORM = 10.0000 kGauss     COEF.N =  0.00000     COEF.B =  0.00000     COEF.G=  0.00000
                    NBRE PAS ANGULAIRE=  300  NBRE PAS RAYON=  120
                    PAS ANGULAIRE =  0.2341 DEG. OU   0.8172 CM AU RAYON MOYEN
                    PAS EN RAYON  =  2.5210 CM

     Entrance  face
          Champ FUITE : LAMBDA =  15.00 CM
           COEFFICIENTS :   0.14550   2.26700  -0.63950   1.15580   0.00000   0.00000
           DECALAGE  FACE  MAGNETIQUE =    0.000     CM

          OMEGA =  10.00 deg.     Wedge  angle  =  10.00 deg.
           Radius 1 =  1.00E+06 cm
           Straight  segment 1 = -1.00E+06 cm
           Straight  segment 2 =  1.00E+06 cm
           Radius 2 =  1.00E+06 cm

     Exit  face
          Champ FUITE : LAMBDA =  15.00 CM
           COEFFICIENTS :   0.14550   2.26700  -0.63950   1.15580   0.00000   0.00000
           DECALAGE  FACE  MAGNETIQUE =    0.000     CM

          OMEGA = -10.00 deg.     Wedge  angle  = -10.00 deg.
           Radius 1 =  1.00E+06 cm
           Straight  segment 1 = -1.00E+06 cm
           Straight  segment 2 =  1.00E+06 cm
           Radius 2 =  1.00E+06 cm


     Field map limits, angle :  min, max, max-min (rad) :   0.00000000E+00   0.12217305E+01   0.12217305E+01
     Field map limits, radius :  min, max, max-min (cm) :   0.10000000E+03   0.40000000E+03   0.30000000E+03
      Min / max  fields  drawn  from  map  data :    0.0000                     /    1.0000    
       @  X-node, Y-node, Z-node :                0.00      115.      0.00      /  0.527      100.      0.00    
     Normalisation  coeff.  BNORM   :   10.0000    
     Field  min/max  normalised  :                0.0000        /    10.000    
     Nbre  of  nodes  in  X/Y/Z :  300/ 120/   0
     Node  distance  in   X/Y/Z :   4.086055E-03/   2.52101    /   0.00000    

                     Option  for  interpolation : 2
                     Smoothing  using  9  points 

                    Integration step :   2.900     cm   (i.e.,   1.4500E-02 rad  at mean radius RM =    200.0    )

                              AIMANT - KPOS = 2 ;  position of reference orbit on mechanical  faces
                                         at entrance    RE =   200.000     cm  TE =   0.00000     rad
                                         at exit        RS =   0.00000     cm  TS =   0.00000     rad

  A    1  1.0000     0.000     0.000     0.000     0.000            1.222   182.219     0.178     0.000     0.000            1
  A    1  1.0000     0.000     0.000     0.000    50.000            1.222   181.593     0.177   -11.609    -0.022            2
  A    1  1.0000     0.000    20.000     0.000     0.000            1.222   225.409     0.322     0.000     0.000            4
  A    1  1.0000     0.000    20.000     0.000    50.000            1.222   224.888     0.321   -12.530    -0.027            5
  A    1  1.0000     0.000   -20.000     0.000     0.000            1.222   144.723     0.017     0.000     0.000            7
  A    1  1.0000     0.000   -20.000     0.000    50.000            1.222   144.024     0.016   -10.955    -0.009            8
  A    1  1.0000     0.000    40.000     0.000     0.000            1.222   276.559     0.452     0.000     0.000           10
  A    1  1.0000     0.000    40.000     0.000    50.000            1.222   275.898     0.449   -13.215    -0.026           11
  A    1  1.0000     0.000   -40.000     0.000     0.000            1.222   111.410    -0.168     0.000     0.000           13
  A    1  1.0000     0.000   -40.000     0.000    50.000            1.222   110.224    -0.171   -10.798     0.019           14


                CONDITIONS  DE  MAXWELL  (      825.  PAS )  :
                       DIV(B)        LAPLACIEN(B)     ROTATIONNEL(B)
                      0.000            0.000             0.000    
                                       0.000             0.000    
                                       0.000             0.000    
                       LAPLACIEN SCALAIRE =   0.000    



 Cumulative length of optical axis =    2.98659560     m ;  Time  (for ref. rigidity & particle) =   3.273199E-08 s 

************************************************************************************************************************************
     16  Keyword, label(s) :  IMAGE       8                                                                            IPASS= 1


     RECHERCHE DU POINT DE FOCALISATION HORIZONTAL DE     15 TRAJECTOIRES (SUR     15)

     POINT DE FOCALISATION HORIZONTAL SUR L ORBITE MOYENNE    X =  -251.904     CM    Y =   136.851     CM

     DECALAGE DU CENTRE DE GRAVITE EN Y =    8.42507     CM

     LARGEUR IMAGE,  A MI-HAUTEUR =   17.4492     CM,  TOTALE =   17.9215     CM
                                      .........                 .........

0                                             TRACE DU FAISCEAU
                                           (follows element #     15)
                                                 15 TRAJECTOIRES

                                   OBJET                                                  FAISCEAU

          D       Y(cm)     T(mr)     Z(cm)     P(mr)       S(cm)      D-1     Y(cm)    T(mr)    Z(cm)    P(mr)      S(cm)

O  1   1.0000     0.000     0.000     0.000     0.000      0.0000    0.0000  182.219  178.191    0.000    0.000   3.802723E+02     1
O  1   1.0000     0.000     0.000     0.000    50.000      0.0000    0.0000  181.593  176.597  -11.609  -21.626   3.807908E+02     2
O  1   1.0000     0.000     0.000     0.000   -50.000      0.0000    0.0000  181.593  176.597   11.609   21.626   3.807908E+02     3
A  1   1.0000     0.000    20.000     0.000     0.000      0.0000    0.0000  225.409  322.297    0.000    0.000   4.091101E+02     4
A  1   1.0000     0.000    20.000     0.000    50.000      0.0000    0.0000  224.888  320.996  -12.530  -27.458   4.096175E+02     5
A  1   1.0000     0.000    20.000     0.000   -50.000      0.0000    0.0000  224.888  320.996   12.530   27.458   4.096175E+02     6
B  1   1.0000     0.000   -20.000     0.000     0.000      0.0000    0.0000  144.723   16.826    0.000    0.000   3.590613E+02     7
B  1   1.0000     0.000   -20.000     0.000    50.000      0.0000    0.0000  144.024   16.214  -10.955   -8.529   3.596726E+02     8
B  1   1.0000     0.000   -20.000     0.000   -50.000      0.0000    0.0000  144.024   16.214   10.955    8.529   3.596726E+02     9
C  1   1.0000     0.000    40.000     0.000     0.000      0.0000    0.0000  276.559  451.584    0.000    0.000   4.481061E+02    10
C  1   1.0000     0.000    40.000     0.000    50.000      0.0000    0.0000  275.898  448.885  -13.215  -26.191   4.485792E+02    11
C  1   1.0000     0.000    40.000     0.000   -50.000      0.0000    0.0000  275.898  448.885   13.215   26.191   4.485792E+02    12
D  1   1.0000     0.000   -40.000     0.000     0.000      0.0000    0.0000  111.410 -168.119    0.000    0.000   3.437931E+02    13
D  1   1.0000     0.000   -40.000     0.000    50.000      0.0000    0.0000  110.224 -170.950  -10.798   19.495   3.446502E+02    14
D  1   1.0000     0.000   -40.000     0.000   -50.000      0.0000    0.0000  110.224 -170.950   10.798  -19.495   3.446502E+02    15


---------------  Concentration ellipses : 
surface [pi*m]  alpha        beta         <X>            <XP>           numb. of prtcls   ratio      space      pass# 
                                                                        in ellips,  out 
   6.2279E-02  -6.3789E+00   1.7229E+01   1.875716E+00   1.589508E-01       15        9   0.6000      (Y,T)         1
   4.1471E-03  -8.3243E-01   7.1010E+00   0.000000E+00   0.000000E+00       15       13   0.8667      (Z,P)         1
   2.2081E-16  -1.4965E-15   2.1752E+10   1.063548E-02   2.997925E+02       15       12   0.8000      (t,K)         1

(Y,T)  space (units : (cm,rd)   ) :  
      sigma_Y = sqrt(Surface/pi * BET) =   5.844261E-01
      sigma_T = sqrt(Surface/pi * (1+ALF^2)/BET) =   2.190190E-01

(Z,P)  space (units : (cm,rd)   ) :  
      sigma_Z = sqrt(Surface/pi * BET) =   9.681792E-02
      sigma_P = sqrt(Surface/pi * (1+ALF^2)/BET) =   1.774014E-02

(t,K)  space (units : (mu_s,MeV)) :  
      sigma_t = sqrt(Surface/pi * BET) =   1.236467E-03
      sigma_K = sqrt(Surface/pi * (1+ALF^2)/BET) =   5.684342E-14


  Beam  sigma  matrix  and  determinants : 

   3.415539E-01   1.264560E-01   0.000000E+00   0.000000E+00
   1.264560E-01   4.796933E-02   0.000000E+00   0.000000E+00
   0.000000E+00   0.000000E+00   9.373709E-03   1.098852E-03
   0.000000E+00   0.000000E+00   1.098852E-03   3.147124E-04

      sqrt(det_Y), sqrt(det_Z) :     1.982418E-02    1.320056E-03    (Note :  sqrt(determinant) = ellipse surface / pi)

************************************************************************************************************************************
     17  Keyword, label(s) :  END                                                                                      IPASS= 1


                            15 particles have been launched
                     Made  it  to  the  end :     15

************************************************************************************************************************************
 Pgm zgoubi : Execution ended normally, upon keyword END or FIN
   
 File in:   aimant.res
 File out:  zgoubi.res

  Zgoubi, author's dvlpmnt version.
  Job  started  on  20-07-2020,  at  07:51:28 
  JOB  ENDED  ON    20-07-2020,  AT  07:51:28 

   CPU time, total :     4.6772000000000001E-002
