%!PS-Adobe-2.0 EPSF-2.0
%%Title: gnuplot_SVDOrbits.eps
%%Creator: gnuplot 5.2 patchlevel 2
%%CreationDate: Thu Feb  7 13:41:00 2019
%%DocumentFonts: (atend)
%%BoundingBox: 50 50 410 302
%%EndComments
%%BeginProlog
/gnudict 256 dict def
gnudict begin
%
% The following true/false flags may be edited by hand if desired.
% The unit line width and grayscale image gamma correction may also be changed.
%
/Color true def
/Blacktext true def
/Solid false def
/Dashlength 1 def
/Landscape false def
/Level1 false def
/Level3 false def
/Rounded false def
/ClipToBoundingBox false def
/SuppressPDFMark false def
/TransparentPatterns false def
/gnulinewidth 5.000 def
/userlinewidth gnulinewidth def
/Gamma 1.0 def
/BackgroundColor {-1.000 -1.000 -1.000} def
%
/vshift -46 def
/dl1 {
  10.0 Dashlength userlinewidth gnulinewidth div mul mul mul
  Rounded { currentlinewidth 0.75 mul sub dup 0 le { pop 0.01 } if } if
} def
/dl2 {
  10.0 Dashlength userlinewidth gnulinewidth div mul mul mul
  Rounded { currentlinewidth 0.75 mul add } if
} def
/hpt_ 31.5 def
/vpt_ 31.5 def
/hpt hpt_ def
/vpt vpt_ def
/doclip {
  ClipToBoundingBox {
    newpath 50 50 moveto 410 50 lineto 410 302 lineto 50 302 lineto closepath
    clip
  } if
} def
%
% Gnuplot Prolog Version 5.1 (Oct 2015)
%
%/SuppressPDFMark true def
%
/M {moveto} bind def
/L {lineto} bind def
/R {rmoveto} bind def
/V {rlineto} bind def
/N {newpath moveto} bind def
/Z {closepath} bind def
/C {setrgbcolor} bind def
/f {rlineto fill} bind def
/g {setgray} bind def
/Gshow {show} def   % May be redefined later in the file to support UTF-8
/vpt2 vpt 2 mul def
/hpt2 hpt 2 mul def
/Lshow {currentpoint stroke M 0 vshift R 
	Blacktext {gsave 0 setgray textshow grestore} {textshow} ifelse} def
/Rshow {currentpoint stroke M dup stringwidth pop neg vshift R
	Blacktext {gsave 0 setgray textshow grestore} {textshow} ifelse} def
/Cshow {currentpoint stroke M dup stringwidth pop -2 div vshift R 
	Blacktext {gsave 0 setgray textshow grestore} {textshow} ifelse} def
/UP {dup vpt_ mul /vpt exch def hpt_ mul /hpt exch def
  /hpt2 hpt 2 mul def /vpt2 vpt 2 mul def} def
/DL {Color {setrgbcolor Solid {pop []} if 0 setdash}
 {pop pop pop 0 setgray Solid {pop []} if 0 setdash} ifelse} def
/BL {stroke userlinewidth 2 mul setlinewidth
	Rounded {1 setlinejoin 1 setlinecap} if} def
/AL {stroke userlinewidth 2 div setlinewidth
	Rounded {1 setlinejoin 1 setlinecap} if} def
/UL {dup gnulinewidth mul /userlinewidth exch def
	dup 1 lt {pop 1} if 10 mul /udl exch def} def
/PL {stroke userlinewidth setlinewidth
	Rounded {1 setlinejoin 1 setlinecap} if} def
3.8 setmiterlimit
% Classic Line colors (version 5.0)
/LCw {1 1 1} def
/LCb {0 0 0} def
/LCa {0 0 0} def
/LC0 {1 0 0} def
/LC1 {0 1 0} def
/LC2 {0 0 1} def
/LC3 {1 0 1} def
/LC4 {0 1 1} def
/LC5 {1 1 0} def
/LC6 {0 0 0} def
/LC7 {1 0.3 0} def
/LC8 {0.5 0.5 0.5} def
% Default dash patterns (version 5.0)
/LTB {BL [] LCb DL} def
/LTw {PL [] 1 setgray} def
/LTb {PL [] LCb DL} def
/LTa {AL [1 udl mul 2 udl mul] 0 setdash LCa setrgbcolor} def
/LT0 {PL [] LC0 DL} def
/LT1 {PL [2 dl1 3 dl2] LC1 DL} def
/LT2 {PL [1 dl1 1.5 dl2] LC2 DL} def
/LT3 {PL [6 dl1 2 dl2 1 dl1 2 dl2] LC3 DL} def
/LT4 {PL [1 dl1 2 dl2 6 dl1 2 dl2 1 dl1 2 dl2] LC4 DL} def
/LT5 {PL [4 dl1 2 dl2] LC5 DL} def
/LT6 {PL [1.5 dl1 1.5 dl2 1.5 dl1 1.5 dl2 1.5 dl1 6 dl2] LC6 DL} def
/LT7 {PL [3 dl1 3 dl2 1 dl1 3 dl2] LC7 DL} def
/LT8 {PL [2 dl1 2 dl2 2 dl1 6 dl2] LC8 DL} def
/SL {[] 0 setdash} def
/Pnt {stroke [] 0 setdash gsave 1 setlinecap M 0 0 V stroke grestore} def
/Dia {stroke [] 0 setdash 2 copy vpt add M
  hpt neg vpt neg V hpt vpt neg V
  hpt vpt V hpt neg vpt V closepath stroke
  Pnt} def
/Pls {stroke [] 0 setdash vpt sub M 0 vpt2 V
  currentpoint stroke M
  hpt neg vpt neg R hpt2 0 V stroke
 } def
/Box {stroke [] 0 setdash 2 copy exch hpt sub exch vpt add M
  0 vpt2 neg V hpt2 0 V 0 vpt2 V
  hpt2 neg 0 V closepath stroke
  Pnt} def
/Crs {stroke [] 0 setdash exch hpt sub exch vpt add M
  hpt2 vpt2 neg V currentpoint stroke M
  hpt2 neg 0 R hpt2 vpt2 V stroke} def
/TriU {stroke [] 0 setdash 2 copy vpt 1.12 mul add M
  hpt neg vpt -1.62 mul V
  hpt 2 mul 0 V
  hpt neg vpt 1.62 mul V closepath stroke
  Pnt} def
/Star {2 copy Pls Crs} def
/BoxF {stroke [] 0 setdash exch hpt sub exch vpt add M
  0 vpt2 neg V hpt2 0 V 0 vpt2 V
  hpt2 neg 0 V closepath fill} def
/TriUF {stroke [] 0 setdash vpt 1.12 mul add M
  hpt neg vpt -1.62 mul V
  hpt 2 mul 0 V
  hpt neg vpt 1.62 mul V closepath fill} def
/TriD {stroke [] 0 setdash 2 copy vpt 1.12 mul sub M
  hpt neg vpt 1.62 mul V
  hpt 2 mul 0 V
  hpt neg vpt -1.62 mul V closepath stroke
  Pnt} def
/TriDF {stroke [] 0 setdash vpt 1.12 mul sub M
  hpt neg vpt 1.62 mul V
  hpt 2 mul 0 V
  hpt neg vpt -1.62 mul V closepath fill} def
/DiaF {stroke [] 0 setdash vpt add M
  hpt neg vpt neg V hpt vpt neg V
  hpt vpt V hpt neg vpt V closepath fill} def
/Pent {stroke [] 0 setdash 2 copy gsave
  translate 0 hpt M 4 {72 rotate 0 hpt L} repeat
  closepath stroke grestore Pnt} def
/PentF {stroke [] 0 setdash gsave
  translate 0 hpt M 4 {72 rotate 0 hpt L} repeat
  closepath fill grestore} def
/Circle {stroke [] 0 setdash 2 copy
  hpt 0 360 arc stroke Pnt} def
/CircleF {stroke [] 0 setdash hpt 0 360 arc fill} def
/C0 {BL [] 0 setdash 2 copy moveto vpt 90 450 arc} bind def
/C1 {BL [] 0 setdash 2 copy moveto
	2 copy vpt 0 90 arc closepath fill
	vpt 0 360 arc closepath} bind def
/C2 {BL [] 0 setdash 2 copy moveto
	2 copy vpt 90 180 arc closepath fill
	vpt 0 360 arc closepath} bind def
/C3 {BL [] 0 setdash 2 copy moveto
	2 copy vpt 0 180 arc closepath fill
	vpt 0 360 arc closepath} bind def
/C4 {BL [] 0 setdash 2 copy moveto
	2 copy vpt 180 270 arc closepath fill
	vpt 0 360 arc closepath} bind def
/C5 {BL [] 0 setdash 2 copy moveto
	2 copy vpt 0 90 arc
	2 copy moveto
	2 copy vpt 180 270 arc closepath fill
	vpt 0 360 arc} bind def
/C6 {BL [] 0 setdash 2 copy moveto
	2 copy vpt 90 270 arc closepath fill
	vpt 0 360 arc closepath} bind def
/C7 {BL [] 0 setdash 2 copy moveto
	2 copy vpt 0 270 arc closepath fill
	vpt 0 360 arc closepath} bind def
/C8 {BL [] 0 setdash 2 copy moveto
	2 copy vpt 270 360 arc closepath fill
	vpt 0 360 arc closepath} bind def
/C9 {BL [] 0 setdash 2 copy moveto
	2 copy vpt 270 450 arc closepath fill
	vpt 0 360 arc closepath} bind def
/C10 {BL [] 0 setdash 2 copy 2 copy moveto vpt 270 360 arc closepath fill
	2 copy moveto
	2 copy vpt 90 180 arc closepath fill
	vpt 0 360 arc closepath} bind def
/C11 {BL [] 0 setdash 2 copy moveto
	2 copy vpt 0 180 arc closepath fill
	2 copy moveto
	2 copy vpt 270 360 arc closepath fill
	vpt 0 360 arc closepath} bind def
/C12 {BL [] 0 setdash 2 copy moveto
	2 copy vpt 180 360 arc closepath fill
	vpt 0 360 arc closepath} bind def
/C13 {BL [] 0 setdash 2 copy moveto
	2 copy vpt 0 90 arc closepath fill
	2 copy moveto
	2 copy vpt 180 360 arc closepath fill
	vpt 0 360 arc closepath} bind def
/C14 {BL [] 0 setdash 2 copy moveto
	2 copy vpt 90 360 arc closepath fill
	vpt 0 360 arc} bind def
/C15 {BL [] 0 setdash 2 copy vpt 0 360 arc closepath fill
	vpt 0 360 arc closepath} bind def
/Rec {newpath 4 2 roll moveto 1 index 0 rlineto 0 exch rlineto
	neg 0 rlineto closepath} bind def
/Square {dup Rec} bind def
/Bsquare {vpt sub exch vpt sub exch vpt2 Square} bind def
/S0 {BL [] 0 setdash 2 copy moveto 0 vpt rlineto BL Bsquare} bind def
/S1 {BL [] 0 setdash 2 copy vpt Square fill Bsquare} bind def
/S2 {BL [] 0 setdash 2 copy exch vpt sub exch vpt Square fill Bsquare} bind def
/S3 {BL [] 0 setdash 2 copy exch vpt sub exch vpt2 vpt Rec fill Bsquare} bind def
/S4 {BL [] 0 setdash 2 copy exch vpt sub exch vpt sub vpt Square fill Bsquare} bind def
/S5 {BL [] 0 setdash 2 copy 2 copy vpt Square fill
	exch vpt sub exch vpt sub vpt Square fill Bsquare} bind def
/S6 {BL [] 0 setdash 2 copy exch vpt sub exch vpt sub vpt vpt2 Rec fill Bsquare} bind def
/S7 {BL [] 0 setdash 2 copy exch vpt sub exch vpt sub vpt vpt2 Rec fill
	2 copy vpt Square fill Bsquare} bind def
/S8 {BL [] 0 setdash 2 copy vpt sub vpt Square fill Bsquare} bind def
/S9 {BL [] 0 setdash 2 copy vpt sub vpt vpt2 Rec fill Bsquare} bind def
/S10 {BL [] 0 setdash 2 copy vpt sub vpt Square fill 2 copy exch vpt sub exch vpt Square fill
	Bsquare} bind def
/S11 {BL [] 0 setdash 2 copy vpt sub vpt Square fill 2 copy exch vpt sub exch vpt2 vpt Rec fill
	Bsquare} bind def
/S12 {BL [] 0 setdash 2 copy exch vpt sub exch vpt sub vpt2 vpt Rec fill Bsquare} bind def
/S13 {BL [] 0 setdash 2 copy exch vpt sub exch vpt sub vpt2 vpt Rec fill
	2 copy vpt Square fill Bsquare} bind def
/S14 {BL [] 0 setdash 2 copy exch vpt sub exch vpt sub vpt2 vpt Rec fill
	2 copy exch vpt sub exch vpt Square fill Bsquare} bind def
/S15 {BL [] 0 setdash 2 copy Bsquare fill Bsquare} bind def
/D0 {gsave translate 45 rotate 0 0 S0 stroke grestore} bind def
/D1 {gsave translate 45 rotate 0 0 S1 stroke grestore} bind def
/D2 {gsave translate 45 rotate 0 0 S2 stroke grestore} bind def
/D3 {gsave translate 45 rotate 0 0 S3 stroke grestore} bind def
/D4 {gsave translate 45 rotate 0 0 S4 stroke grestore} bind def
/D5 {gsave translate 45 rotate 0 0 S5 stroke grestore} bind def
/D6 {gsave translate 45 rotate 0 0 S6 stroke grestore} bind def
/D7 {gsave translate 45 rotate 0 0 S7 stroke grestore} bind def
/D8 {gsave translate 45 rotate 0 0 S8 stroke grestore} bind def
/D9 {gsave translate 45 rotate 0 0 S9 stroke grestore} bind def
/D10 {gsave translate 45 rotate 0 0 S10 stroke grestore} bind def
/D11 {gsave translate 45 rotate 0 0 S11 stroke grestore} bind def
/D12 {gsave translate 45 rotate 0 0 S12 stroke grestore} bind def
/D13 {gsave translate 45 rotate 0 0 S13 stroke grestore} bind def
/D14 {gsave translate 45 rotate 0 0 S14 stroke grestore} bind def
/D15 {gsave translate 45 rotate 0 0 S15 stroke grestore} bind def
/DiaE {stroke [] 0 setdash vpt add M
  hpt neg vpt neg V hpt vpt neg V
  hpt vpt V hpt neg vpt V closepath stroke} def
/BoxE {stroke [] 0 setdash exch hpt sub exch vpt add M
  0 vpt2 neg V hpt2 0 V 0 vpt2 V
  hpt2 neg 0 V closepath stroke} def
/TriUE {stroke [] 0 setdash vpt 1.12 mul add M
  hpt neg vpt -1.62 mul V
  hpt 2 mul 0 V
  hpt neg vpt 1.62 mul V closepath stroke} def
/TriDE {stroke [] 0 setdash vpt 1.12 mul sub M
  hpt neg vpt 1.62 mul V
  hpt 2 mul 0 V
  hpt neg vpt -1.62 mul V closepath stroke} def
/PentE {stroke [] 0 setdash gsave
  translate 0 hpt M 4 {72 rotate 0 hpt L} repeat
  closepath stroke grestore} def
/CircE {stroke [] 0 setdash 
  hpt 0 360 arc stroke} def
/Opaque {gsave closepath 1 setgray fill grestore 0 setgray closepath} def
/DiaW {stroke [] 0 setdash vpt add M
  hpt neg vpt neg V hpt vpt neg V
  hpt vpt V hpt neg vpt V Opaque stroke} def
/BoxW {stroke [] 0 setdash exch hpt sub exch vpt add M
  0 vpt2 neg V hpt2 0 V 0 vpt2 V
  hpt2 neg 0 V Opaque stroke} def
/TriUW {stroke [] 0 setdash vpt 1.12 mul add M
  hpt neg vpt -1.62 mul V
  hpt 2 mul 0 V
  hpt neg vpt 1.62 mul V Opaque stroke} def
/TriDW {stroke [] 0 setdash vpt 1.12 mul sub M
  hpt neg vpt 1.62 mul V
  hpt 2 mul 0 V
  hpt neg vpt -1.62 mul V Opaque stroke} def
/PentW {stroke [] 0 setdash gsave
  translate 0 hpt M 4 {72 rotate 0 hpt L} repeat
  Opaque stroke grestore} def
/CircW {stroke [] 0 setdash 
  hpt 0 360 arc Opaque stroke} def
/BoxFill {gsave Rec 1 setgray fill grestore} def
/Density {
  /Fillden exch def
  currentrgbcolor
  /ColB exch def /ColG exch def /ColR exch def
  /ColR ColR Fillden mul Fillden sub 1 add def
  /ColG ColG Fillden mul Fillden sub 1 add def
  /ColB ColB Fillden mul Fillden sub 1 add def
  ColR ColG ColB setrgbcolor} def
/BoxColFill {gsave Rec PolyFill} def
/PolyFill {gsave Density fill grestore grestore} def
/h {rlineto rlineto rlineto gsave closepath fill grestore} bind def
%
% PostScript Level 1 Pattern Fill routine for rectangles
% Usage: x y w h s a XX PatternFill
%	x,y = lower left corner of box to be filled
%	w,h = width and height of box
%	  a = angle in degrees between lines and x-axis
%	 XX = 0/1 for no/yes cross-hatch
%
/PatternFill {gsave /PFa [ 9 2 roll ] def
  PFa 0 get PFa 2 get 2 div add PFa 1 get PFa 3 get 2 div add translate
  PFa 2 get -2 div PFa 3 get -2 div PFa 2 get PFa 3 get Rec
  TransparentPatterns {} {gsave 1 setgray fill grestore} ifelse
  clip
  currentlinewidth 0.5 mul setlinewidth
  /PFs PFa 2 get dup mul PFa 3 get dup mul add sqrt def
  0 0 M PFa 5 get rotate PFs -2 div dup translate
  0 1 PFs PFa 4 get div 1 add floor cvi
	{PFa 4 get mul 0 M 0 PFs V} for
  0 PFa 6 get ne {
	0 1 PFs PFa 4 get div 1 add floor cvi
	{PFa 4 get mul 0 2 1 roll M PFs 0 V} for
 } if
  stroke grestore} def
%
/languagelevel where
 {pop languagelevel} {1} ifelse
dup 2 lt
	{/InterpretLevel1 true def
	 /InterpretLevel3 false def}
	{/InterpretLevel1 Level1 def
	 2 gt
	    {/InterpretLevel3 Level3 def}
	    {/InterpretLevel3 false def}
	 ifelse }
 ifelse
%
% PostScript level 2 pattern fill definitions
%
/Level2PatternFill {
/Tile8x8 {/PaintType 2 /PatternType 1 /TilingType 1 /BBox [0 0 8 8] /XStep 8 /YStep 8}
	bind def
/KeepColor {currentrgbcolor [/Pattern /DeviceRGB] setcolorspace} bind def
<< Tile8x8
 /PaintProc {0.5 setlinewidth pop 0 0 M 8 8 L 0 8 M 8 0 L stroke} 
>> matrix makepattern
/Pat1 exch def
<< Tile8x8
 /PaintProc {0.5 setlinewidth pop 0 0 M 8 8 L 0 8 M 8 0 L stroke
	0 4 M 4 8 L 8 4 L 4 0 L 0 4 L stroke}
>> matrix makepattern
/Pat2 exch def
<< Tile8x8
 /PaintProc {0.5 setlinewidth pop 0 0 M 0 8 L
	8 8 L 8 0 L 0 0 L fill}
>> matrix makepattern
/Pat3 exch def
<< Tile8x8
 /PaintProc {0.5 setlinewidth pop -4 8 M 8 -4 L
	0 12 M 12 0 L stroke}
>> matrix makepattern
/Pat4 exch def
<< Tile8x8
 /PaintProc {0.5 setlinewidth pop -4 0 M 8 12 L
	0 -4 M 12 8 L stroke}
>> matrix makepattern
/Pat5 exch def
<< Tile8x8
 /PaintProc {0.5 setlinewidth pop -2 8 M 4 -4 L
	0 12 M 8 -4 L 4 12 M 10 0 L stroke}
>> matrix makepattern
/Pat6 exch def
<< Tile8x8
 /PaintProc {0.5 setlinewidth pop -2 0 M 4 12 L
	0 -4 M 8 12 L 4 -4 M 10 8 L stroke}
>> matrix makepattern
/Pat7 exch def
<< Tile8x8
 /PaintProc {0.5 setlinewidth pop 8 -2 M -4 4 L
	12 0 M -4 8 L 12 4 M 0 10 L stroke}
>> matrix makepattern
/Pat8 exch def
<< Tile8x8
 /PaintProc {0.5 setlinewidth pop 0 -2 M 12 4 L
	-4 0 M 12 8 L -4 4 M 8 10 L stroke}
>> matrix makepattern
/Pat9 exch def
/Pattern1 {PatternBgnd KeepColor Pat1 setpattern} bind def
/Pattern2 {PatternBgnd KeepColor Pat2 setpattern} bind def
/Pattern3 {PatternBgnd KeepColor Pat3 setpattern} bind def
/Pattern4 {PatternBgnd KeepColor Landscape {Pat5} {Pat4} ifelse setpattern} bind def
/Pattern5 {PatternBgnd KeepColor Landscape {Pat4} {Pat5} ifelse setpattern} bind def
/Pattern6 {PatternBgnd KeepColor Landscape {Pat9} {Pat6} ifelse setpattern} bind def
/Pattern7 {PatternBgnd KeepColor Landscape {Pat8} {Pat7} ifelse setpattern} bind def
} def
%
%
%End of PostScript Level 2 code
%
/PatternBgnd {
  TransparentPatterns {} {gsave 1 setgray fill grestore} ifelse
} def
%
% Substitute for Level 2 pattern fill codes with
% grayscale if Level 2 support is not selected.
%
/Level1PatternFill {
/Pattern1 {0.250 Density} bind def
/Pattern2 {0.500 Density} bind def
/Pattern3 {0.750 Density} bind def
/Pattern4 {0.125 Density} bind def
/Pattern5 {0.375 Density} bind def
/Pattern6 {0.625 Density} bind def
/Pattern7 {0.875 Density} bind def
} def
%
% Now test for support of Level 2 code
%
Level1 {Level1PatternFill} {Level2PatternFill} ifelse
%
/Symbol-Oblique /Symbol findfont [1 0 .167 1 0 0] makefont
dup length dict begin {1 index /FID eq {pop pop} {def} ifelse} forall
currentdict end definefont pop
%
/Metrics {ExtendTextBox Gswidth} def
/Lwidth {currentpoint stroke M 0 vshift R Metrics} def
/Rwidth {currentpoint stroke M dup stringwidth pop neg vshift R Metrics} def
/Cwidth {currentpoint stroke M dup stringwidth pop -2 div vshift R Metrics} def
/GLwidth {currentpoint stroke M 0 vshift R {ExtendTextBox} forall} def
/GRwidth {currentpoint stroke M dup Gwidth vshift R {ExtendTextBox} forall} def
/GCwidth {currentpoint stroke M dup Gwidth 2 div vshift R {ExtendTextBox} forall} def
/GLwidth2 {0 Gwidth AddGlyphWidth} def
/GRwidth2 {Gwidth -1 mul 0 AddGlyphWidth} def
/GCwidth2 {Gwidth 2 div dup -1 mul AddGlyphWidth} def
/AddGlyphWidth { dup TBx2 gt {userdict /TBx2 3 -1 roll put} {pop} ifelse
                 dup TBx1 lt {userdict /TBx1 3 -1 roll put} {pop} ifelse } def
/MFshow {
   { dup 5 get 3 ge
     { 5 get 3 eq {gsave} {grestore} ifelse }
     {dup dup 0 get findfont exch 1 get scalefont setfont
     [ currentpoint ] exch dup 2 get 0 exch R dup 5 get 2 ne {dup dup 6
     get exch 4 get {textshow} {Metrics pop 0 R} ifelse }if dup 5 get 0 eq
     {dup 3 get {2 get neg 0 exch R pop} {pop aload pop M} ifelse} {dup 5
     get 1 eq {dup 2 get exch dup 3 get exch 6 get Gswidth pop -2 div
     dup 0 R} {dup 6 get Gswidth pop -2 div 0 R 6 get
     textshow 2 index {aload pop M neg 3 -1 roll neg R pop pop} {pop pop pop
     pop aload pop M} ifelse }ifelse }ifelse }
     ifelse }
   forall} def
/Gswidth {dup type /stringtype eq {stringwidth} {pop (n) stringwidth} ifelse} def
/MFwidth {0 exch { dup 5 get 3 ge { 5 get 3 eq { 0 } { pop } ifelse }
 {dup 3 get{dup dup 0 get findfont exch 1 get scalefont setfont
     6 get Gswidth pop add} {pop} ifelse} ifelse} forall} def
/MLshow { currentpoint stroke M
  0 exch R
  Blacktext {gsave 0 setgray MFshow grestore} {MFshow} ifelse } bind def
/MRshow { currentpoint stroke M
  exch dup MFwidth neg 3 -1 roll R
  Blacktext {gsave 0 setgray MFshow grestore} {MFshow} ifelse } bind def
/MCshow { currentpoint stroke M
  exch dup MFwidth -2 div 3 -1 roll R
  Blacktext {gsave 0 setgray MFshow grestore} {MFshow} ifelse } bind def
/XYsave    { [( ) 1 2 true false 3 ()] } bind def
/XYrestore { [( ) 1 2 true false 4 ()] } bind def
Level1 SuppressPDFMark or 
{} {
/SDict 10 dict def
systemdict /pdfmark known not {
  userdict /pdfmark systemdict /cleartomark get put
} if
SDict begin [
  /Title (gnuplot_SVDOrbits.eps)
  /Subject (gnuplot plot)
  /Creator (gnuplot 5.2 patchlevel 2)
%  /Producer (gnuplot)
%  /Keywords ()
  /CreationDate (Thu Feb  7 13:41:00 2019)
  /DOCINFO pdfmark
end
} ifelse
%
% Support for boxed text - Ethan A Merritt Sep 2016
%
/InitTextBox { userdict /TBy2 3 -1 roll put userdict /TBx2 3 -1 roll put
           userdict /TBy1 3 -1 roll put userdict /TBx1 3 -1 roll put
	   /Boxing true def } def
/ExtendTextBox { dup type /stringtype eq
    { Boxing { gsave dup false charpath pathbbox
      dup TBy2 gt {userdict /TBy2 3 -1 roll put} {pop} ifelse
      dup TBx2 gt {userdict /TBx2 3 -1 roll put} {pop} ifelse
      dup TBy1 lt {userdict /TBy1 3 -1 roll put} {pop} ifelse
      dup TBx1 lt {userdict /TBx1 3 -1 roll put} {pop} ifelse
      grestore } if }
    {} ifelse} def
/PopTextBox { newpath TBx1 TBxmargin sub TBy1 TBymargin sub M
               TBx1 TBxmargin sub TBy2 TBymargin add L
	       TBx2 TBxmargin add TBy2 TBymargin add L
	       TBx2 TBxmargin add TBy1 TBymargin sub L closepath } def
/DrawTextBox { PopTextBox stroke /Boxing false def} def
/FillTextBox { gsave PopTextBox fill grestore /Boxing false def} def
0 0 0 0 InitTextBox
/TBxmargin 20 def
/TBymargin 20 def
/Boxing false def
/textshow { ExtendTextBox Gshow } def
%
end
%%EndProlog
%%Page: 1 1
gnudict begin
gsave
doclip
50 50 translate
0.050 0.050 scale
0 setgray
newpath
(Helvetica) findfont 140 scalefont setfont
BackgroundColor 0 lt 3 1 roll 0 lt exch 0 lt or or not {BackgroundColor C 1.000 0 0 7200.00 5040.00 BoxColFill} if
1.000 UL
LTb
LCb setrgbcolor
686 448 M
63 0 V
stroke
602 448 M
[ [(roman) 160.0 0.0 true true 0 (-1.2)]
] -53.3 MRshow
1.000 UL
LTb
LCb setrgbcolor
686 857 M
63 0 V
stroke
602 857 M
[ [(roman) 160.0 0.0 true true 0 (-1)]
] -53.3 MRshow
1.000 UL
LTb
LCb setrgbcolor
686 1266 M
63 0 V
stroke
602 1266 M
[ [(roman) 160.0 0.0 true true 0 (-0.8)]
] -53.3 MRshow
1.000 UL
LTb
LCb setrgbcolor
686 1675 M
63 0 V
stroke
602 1675 M
[ [(roman) 160.0 0.0 true true 0 (-0.6)]
] -53.3 MRshow
1.000 UL
LTb
LCb setrgbcolor
686 2084 M
63 0 V
stroke
602 2084 M
[ [(roman) 160.0 0.0 true true 0 (-0.4)]
] -53.3 MRshow
1.000 UL
LTb
LCb setrgbcolor
686 2494 M
63 0 V
stroke
602 2494 M
[ [(roman) 160.0 0.0 true true 0 (-0.2)]
] -53.3 MRshow
1.000 UL
LTb
LCb setrgbcolor
686 2903 M
63 0 V
stroke
602 2903 M
[ [(roman) 160.0 0.0 true true 0 ( 0)]
] -53.3 MRshow
1.000 UL
LTb
LCb setrgbcolor
686 3312 M
63 0 V
stroke
602 3312 M
[ [(roman) 160.0 0.0 true true 0 ( 0.2)]
] -53.3 MRshow
1.000 UL
LTb
LCb setrgbcolor
686 3721 M
63 0 V
stroke
602 3721 M
[ [(roman) 160.0 0.0 true true 0 ( 0.4)]
] -53.3 MRshow
1.000 UL
LTb
LCb setrgbcolor
686 4130 M
63 0 V
stroke
602 4130 M
[ [(roman) 160.0 0.0 true true 0 ( 0.6)]
] -53.3 MRshow
1.000 UL
LTb
LCb setrgbcolor
686 4539 M
63 0 V
stroke
602 4539 M
[ [(roman) 160.0 0.0 true true 0 ( 0.8)]
] -53.3 MRshow
1.000 UL
LTb
LCb setrgbcolor
686 448 M
0 63 V
0 4028 R
0 -63 V
stroke
686 308 M
[ [(roman) 160.0 0.0 true true 0 ( 0)]
] -53.3 MCshow
1.000 UL
LTb
LCb setrgbcolor
1388 448 M
0 63 V
0 4028 R
0 -63 V
stroke
1388 308 M
[ [(roman) 160.0 0.0 true true 0 ( 500)]
] -53.3 MCshow
1.000 UL
LTb
LCb setrgbcolor
2090 448 M
0 63 V
0 4028 R
0 -63 V
stroke
2090 308 M
[ [(roman) 160.0 0.0 true true 0 ( 1000)]
] -53.3 MCshow
1.000 UL
LTb
LCb setrgbcolor
2792 448 M
0 63 V
0 4028 R
0 -63 V
stroke
2792 308 M
[ [(roman) 160.0 0.0 true true 0 ( 1500)]
] -53.3 MCshow
1.000 UL
LTb
LCb setrgbcolor
3495 448 M
0 63 V
0 4028 R
0 -63 V
stroke
3495 308 M
[ [(roman) 160.0 0.0 true true 0 ( 2000)]
] -53.3 MCshow
1.000 UL
LTb
LCb setrgbcolor
4197 448 M
0 63 V
0 4028 R
0 -63 V
stroke
4197 308 M
[ [(roman) 160.0 0.0 true true 0 ( 2500)]
] -53.3 MCshow
1.000 UL
LTb
LCb setrgbcolor
4899 448 M
0 63 V
0 4028 R
0 -63 V
stroke
4899 308 M
[ [(roman) 160.0 0.0 true true 0 ( 3000)]
] -53.3 MCshow
1.000 UL
LTb
LCb setrgbcolor
5601 448 M
0 63 V
0 4028 R
0 -63 V
stroke
5601 308 M
[ [(roman) 160.0 0.0 true true 0 ( 3500)]
] -53.3 MCshow
1.000 UL
LTb
LCb setrgbcolor
6303 448 M
0 63 V
0 4028 R
0 -63 V
stroke
6303 308 M
[ [(roman) 160.0 0.0 true true 0 ( 4000)]
] -53.3 MCshow
1.000 UL
LTb
LCb setrgbcolor
6303 448 M
-63 0 V
stroke
6387 448 M
[ [(roman) 160.0 0.0 true true 0 (-0.8)]
] -53.3 MLshow
1.000 UL
LTb
LCb setrgbcolor
6303 903 M
-63 0 V
stroke
6387 903 M
[ [(roman) 160.0 0.0 true true 0 (-0.6)]
] -53.3 MLshow
1.000 UL
LTb
LCb setrgbcolor
6303 1357 M
-63 0 V
stroke
6387 1357 M
[ [(roman) 160.0 0.0 true true 0 (-0.4)]
] -53.3 MLshow
1.000 UL
LTb
LCb setrgbcolor
6303 1812 M
-63 0 V
stroke
6387 1812 M
[ [(roman) 160.0 0.0 true true 0 (-0.2)]
] -53.3 MLshow
1.000 UL
LTb
LCb setrgbcolor
6303 2266 M
-63 0 V
stroke
6387 2266 M
[ [(roman) 160.0 0.0 true true 0 ( 0)]
] -53.3 MLshow
1.000 UL
LTb
LCb setrgbcolor
6303 2721 M
-63 0 V
stroke
6387 2721 M
[ [(roman) 160.0 0.0 true true 0 ( 0.2)]
] -53.3 MLshow
1.000 UL
LTb
LCb setrgbcolor
6303 3175 M
-63 0 V
stroke
6387 3175 M
[ [(roman) 160.0 0.0 true true 0 ( 0.4)]
] -53.3 MLshow
1.000 UL
LTb
LCb setrgbcolor
6303 3630 M
-63 0 V
stroke
6387 3630 M
[ [(roman) 160.0 0.0 true true 0 ( 0.6)]
] -53.3 MLshow
1.000 UL
LTb
LCb setrgbcolor
6303 4084 M
-63 0 V
stroke
6387 4084 M
[ [(roman) 160.0 0.0 true true 0 ( 0.8)]
] -53.3 MLshow
1.000 UL
LTb
LCb setrgbcolor
6303 4539 M
-63 0 V
stroke
6387 4539 M
[ [(roman) 160.0 0.0 true true 0 ( 1)]
] -53.3 MLshow
1.000 UL
LTb
LCb setrgbcolor
1.000 UL
LTB
LCb setrgbcolor
686 4539 N
686 448 L
5617 0 V
0 4091 V
-5617 0 V
Z stroke
1.000 UP
1.000 UL
LTb
LCb setrgbcolor
LCb setrgbcolor
126 2493 M
currentpoint gsave translate -270 rotate 0 0 moveto
[ [(roman) 220.0 0.0 true true 0 (x [cm])]
] -73.3 MCshow
grestore
LTb
LCb setrgbcolor
6975 2493 M
currentpoint gsave translate -270 rotate 0 0 moveto
[ [(roman) 220.0 0.0 true true 0 (y [cm])]
] -73.3 MCshow
grestore
LTb
LCb setrgbcolor
3494 98 M
[ [(roman) 220.0 0.0 true true 0 (s [m])]
] -73.3 MCshow
LTb
LCb setrgbcolor
3494 4829 M
[ [(roman) 220.0 0.0 true true 0 (SVD Orbits, from SVDOC > zgoubi.SVDOrbits.out)]
] -73.3 MCshow
% Begin plot #1
1.400 UP
2.000 UL
LTb
1.00 0.00 0.00 C LCb setrgbcolor
3179 721 M
[ [(roman) 140.0 0.0 true true 0 (H, non-corrected)]
] -46.7 MRshow
1.400 UP
2.000 UL
LTb
1.00 0.00 0.00 C 821 3175 Box
904 3244 Box
945 1618 Box
987 2293 Box
1029 4121 Box
1070 4109 Box
1112 2309 Box
1153 1629 Box
1195 2784 Box
1237 4047 Box
1278 3373 Box
1320 1709 Box
1362 1911 Box
1449 3930 Box
1698 1608 Box
1785 3784 Box
1827 4028 Box
1868 2320 Box
1910 1602 Box
1951 2795 Box
1993 3973 Box
2035 3304 Box
2076 2164 Box
2118 2100 Box
2159 3168 Box
2201 4004 Box
2242 2737 Box
2279 1809 Box
2367 3815 Box
2615 2079 Box
2698 3445 Box
2740 4024 Box
2781 2465 Box
2823 1403 Box
2865 2957 Box
2906 4255 Box
2948 3282 Box
2990 1930 Box
3031 2333 Box
3073 3746 Box
3115 3855 Box
3156 2468 Box
3244 2925 Box
3492 4527 Box
3580 1356 Box
3621 2471 Box
3663 4282 Box
3705 3580 Box
3746 1922 Box
3788 1761 Box
3829 3420 Box
3871 4227 Box
3912 2929 Box
3954 1382 Box
3995 2228 Box
4037 4387 Box
4074 4041 Box
4161 821 Box
4410 3623 Box
4493 2653 Box
4534 1725 Box
4576 2908 Box
4618 4044 Box
4659 3187 Box
4701 1954 Box
4743 2162 Box
4784 3576 Box
4826 3986 Box
4868 2609 Box
4909 1586 Box
4951 2737 Box
5038 3545 Box
5287 2446 Box
5374 4239 Box
5416 1655 Box
5458 1249 Box
5499 3517 Box
5541 4521 Box
5582 2796 Box
5624 1208 Box
5665 2261 Box
5707 4303 Box
5748 3840 Box
5790 1926 Box
5831 1738 Box
5868 3547 Box
5956 3175 Box
3336 721 Box
% End plot #1
% Begin plot #2
0.900 UP
2.000 UL
LTb
0.00 1.00 0.00 C LCb setrgbcolor
3179 581 M
[ [(roman) 140.0 0.0 true true 0 (H,  corrected)]
] -46.7 MRshow
0.900 UP
2.000 UL
LTb
0.00 1.00 0.00 C 821 2876 BoxF
904 2932 BoxF
945 2915 BoxF
987 2922 BoxF
1029 2905 BoxF
1070 2920 BoxF
1112 2946 BoxF
1153 2909 BoxF
1195 2917 BoxF
1237 2905 BoxF
1278 2934 BoxF
1320 2919 BoxF
1362 2930 BoxF
1449 2888 BoxF
1698 2892 BoxF
1785 2928 BoxF
1827 2899 BoxF
1868 2929 BoxF
1910 2950 BoxF
1951 2963 BoxF
1993 2916 BoxF
2035 2912 BoxF
2076 2952 BoxF
2118 2951 BoxF
2159 2924 BoxF
2201 2886 BoxF
2242 2945 BoxF
2279 2951 BoxF
2367 2860 BoxF
2615 2923 BoxF
2698 2905 BoxF
2740 2860 BoxF
2781 2924 BoxF
2823 2953 BoxF
2865 2964 BoxF
2906 2871 BoxF
2948 2882 BoxF
2990 2928 BoxF
3031 2961 BoxF
3073 2906 BoxF
3115 2870 BoxF
3156 2917 BoxF
3244 2904 BoxF
3492 2867 BoxF
3580 2945 BoxF
3621 2973 BoxF
3663 2884 BoxF
3705 2879 BoxF
3746 2922 BoxF
3788 2955 BoxF
3829 2936 BoxF
3871 2862 BoxF
3912 2897 BoxF
3954 2933 BoxF
3995 2975 BoxF
4037 2903 BoxF
4074 2885 BoxF
4161 2908 BoxF
4410 2911 BoxF
4493 2884 BoxF
4534 2917 BoxF
4576 2961 BoxF
4618 2907 BoxF
4659 2879 BoxF
4701 2892 BoxF
4743 2948 BoxF
4784 2944 BoxF
4826 2885 BoxF
4868 2888 BoxF
4909 2916 BoxF
4951 2969 BoxF
5038 2842 BoxF
5287 2932 BoxF
5374 2915 BoxF
5416 2896 BoxF
5458 2921 BoxF
5499 2982 BoxF
5541 2915 BoxF
5582 2898 BoxF
5624 2884 BoxF
5665 2975 BoxF
5707 2951 BoxF
5748 2900 BoxF
5790 2872 BoxF
5831 2914 BoxF
5868 2968 BoxF
5956 2844 BoxF
3336 581 BoxF
% End plot #2
% Begin plot #3
1.400 UP
2.000 UL
LTb
0.00 0.00 1.00 C LCb setrgbcolor
5174 721 M
[ [(roman) 140.0 0.0 true true 0 (V, non-corrected)]
] -46.7 MRshow
1.400 UP
2.000 UL
LTb
0.00 0.00 1.00 C 780 2194 Circle
800 1836 Circle
886 2267 Circle
924 2871 Circle
966 2318 Circle
1008 1662 Circle
1049 2104 Circle
1091 3013 Circle
1133 2660 Circle
1174 1282 Circle
1216 1874 Circle
1258 3075 Circle
1299 2775 Circle
1341 1229 Circle
1382 1878 Circle
1470 3121 Circle
1490 2438 Circle
1678 2852 Circle
1719 1964 Circle
1806 2319 Circle
1848 3735 Circle
1889 1985 Circle
1931 553 Circle
1972 2675 Circle
2014 4142 Circle
2055 1596 Circle
2097 650 Circle
2138 2615 Circle
2180 3905 Circle
2222 2098 Circle
2263 769 Circle
2313 2432 Circle
2346 3564 Circle
2594 2319 Circle
2682 1995 Circle
2719 2646 Circle
2761 2632 Circle
2802 2172 Circle
2844 1797 Circle
2886 2548 Circle
2927 2609 Circle
2969 2120 Circle
3010 1669 Circle
3052 2140 Circle
3094 3057 Circle
3135 2468 Circle
3177 1742 Circle
3265 2629 Circle
3513 2511 Circle
3601 2002 Circle
3642 2039 Circle
3684 2453 Circle
3725 2363 Circle
3767 2271 Circle
3808 2194 Circle
3850 2309 Circle
3891 2361 Circle
3933 2327 Circle
3975 1924 Circle
4016 1936 Circle
4058 2402 Circle
4141 2132 Circle
4389 2285 Circle
4477 2595 Circle
4514 1965 Circle
4555 1930 Circle
4597 2688 Circle
4638 2518 Circle
4680 1755 Circle
4722 1730 Circle
4763 2626 Circle
4805 2901 Circle
4847 1955 Circle
4888 1774 Circle
4930 2690 Circle
4972 2627 Circle
5005 2212 Circle
5059 1456 Circle
5308 1658 Circle
5395 2800 Circle
5437 2266 Circle
5478 1730 Circle
5520 2148 Circle
5561 2970 Circle
5603 2507 Circle
5644 1714 Circle
5686 1855 Circle
5728 2779 Circle
5769 2375 Circle
5811 2032 Circle
5852 2141 Circle
5935 2800 Circle
5976 1867 Circle
5331 721 Circle
% End plot #3
% Begin plot #4
0.900 UP
2.000 UL
LTb
0.65 0.16 0.16 C LCb setrgbcolor
5174 581 M
[ [(roman) 140.0 0.0 true true 0 (V,  corrected)]
] -46.7 MRshow
0.900 UP
2.000 UL
LTb
0.65 0.16 0.16 C 780 2296 CircleF
800 2298 CircleF
886 2230 CircleF
924 2266 CircleF
966 2289 CircleF
1008 2266 CircleF
1049 2238 CircleF
1091 2254 CircleF
1133 2315 CircleF
1174 2254 CircleF
1216 2264 CircleF
1258 2263 CircleF
1299 2311 CircleF
1341 2253 CircleF
1382 2292 CircleF
1470 2250 CircleF
1490 2246 CircleF
1678 2278 CircleF
1719 2239 CircleF
1806 2299 CircleF
1848 2266 CircleF
1889 2248 CircleF
1931 2273 CircleF
1972 2345 CircleF
2014 2261 CircleF
2055 2268 CircleF
2097 2270 CircleF
2138 2336 CircleF
2180 2250 CircleF
2222 2271 CircleF
2263 2267 CircleF
2313 2314 CircleF
2346 2290 CircleF
2594 2192 CircleF
2682 2310 CircleF
2719 2315 CircleF
2761 2241 CircleF
2802 2223 CircleF
2844 2292 CircleF
2886 2330 CircleF
2927 2248 CircleF
2969 2217 CircleF
3010 2281 CircleF
3052 2340 CircleF
3094 2245 CircleF
3135 2230 CircleF
3177 2284 CircleF
3265 2298 CircleF
3513 2216 CircleF
3601 2307 CircleF
3642 2334 CircleF
3684 2217 CircleF
3725 2209 CircleF
3767 2312 CircleF
3808 2324 CircleF
3850 2222 CircleF
3891 2209 CircleF
3933 2312 CircleF
3975 2318 CircleF
4016 2242 CircleF
4058 2200 CircleF
4141 2341 CircleF
4389 2238 CircleF
4477 2243 CircleF
4514 2337 CircleF
4555 2305 CircleF
4597 2207 CircleF
4638 2238 CircleF
4680 2334 CircleF
4722 2299 CircleF
4763 2224 CircleF
4805 2225 CircleF
4847 2340 CircleF
4888 2294 CircleF
4930 2217 CircleF
4972 2213 CircleF
5005 2292 CircleF
5059 2373 CircleF
5308 2274 CircleF
5395 2236 CircleF
5437 2338 CircleF
5478 2296 CircleF
5520 2207 CircleF
5561 2222 CircleF
5603 2353 CircleF
5644 2293 CircleF
5686 2216 CircleF
5728 2220 CircleF
5769 2353 CircleF
5811 2309 CircleF
5852 2195 CircleF
5935 2319 CircleF
5976 2260 CircleF
5331 581 CircleF
% End plot #4
2.000 UL
LTb
LCb setrgbcolor
1.000 UL
LTB
LCb setrgbcolor
686 4539 N
686 448 L
5617 0 V
0 4091 V
-5617 0 V
Z stroke
1.000 UP
1.000 UL
LTb
LCb setrgbcolor
stroke
grestore
end
showpage
%%Trailer
%%DocumentFonts: roman Helvetica
