%!PS-Adobe-2.0 EPSF-2.0
%%Title: orbit_corrected_Y.eps
%%Titre: orbit_corrected_Y.eps
%%Creator: Fminigraf Library
%%BoundingBox: 20 40 567 457
%%EndComments
/offx 20 def
/offy 40 def
/lx 595 def
/ly 842 def
/maxx 1023 def
/maxy 779 def
/reduc 0.92 def
/coeff lx maxx div reduc mul def
offx offy translate
coeff coeff scale
1 setlinewidth newpath 0 0 moveto
/Courier-Bold findfont 32 scalefont setfont
/M {moveto} def
/L {lineto} def
/S {stroke} def
/H {show} def
/D {setdash} def
0 0 0 setrgbcolor
[] 0 D
[] 0 D
130 156 M 130 161 L S
130 425 M 130 435 L S
130 735 M 130 740 L S
160 156 M 160 161 L S
160 425 M 160 435 L S
160 735 M 160 740 L S
189 156 M 189 161 L S
189 425 M 189 435 L S
189 735 M 189 740 L S
218 156 M 218 161 L S
218 425 M 218 435 L S
218 735 M 218 740 L S
[2 3] 0 D
247 156 M 247 740 L S
[] 0 D
/Courier-Bold findfont 30 scalefont setfont
229 128 M (500) H
247 156 M 247 166 L S
247 420 M 247 440 L S
247 730 M 247 740 L S
277 156 M 277 161 L S
277 425 M 277 435 L S
277 735 M 277 740 L S
306 156 M 306 161 L S
306 425 M 306 435 L S
306 735 M 306 740 L S
335 156 M 335 161 L S
335 425 M 335 435 L S
335 735 M 335 740 L S
364 156 M 364 161 L S
364 425 M 364 435 L S
364 735 M 364 740 L S
[2 3] 0 D
394 156 M 394 740 L S
[] 0 D
370 128 M (1000) H
394 156 M 394 166 L S
394 420 M 394 440 L S
394 730 M 394 740 L S
423 156 M 423 161 L S
423 425 M 423 435 L S
423 735 M 423 740 L S
452 156 M 452 161 L S
452 425 M 452 435 L S
452 735 M 452 740 L S
481 156 M 481 161 L S
481 425 M 481 435 L S
481 735 M 481 740 L S
511 156 M 511 161 L S
511 425 M 511 435 L S
511 735 M 511 740 L S
[2 3] 0 D
540 156 M 540 740 L S
[] 0 D
516 128 M (1500) H
540 156 M 540 166 L S
540 420 M 540 440 L S
540 730 M 540 740 L S
569 156 M 569 161 L S
569 425 M 569 435 L S
569 735 M 569 740 L S
598 156 M 598 161 L S
598 425 M 598 435 L S
598 735 M 598 740 L S
628 156 M 628 161 L S
628 425 M 628 435 L S
628 735 M 628 740 L S
657 156 M 657 161 L S
657 425 M 657 435 L S
657 735 M 657 740 L S
[2 3] 0 D
686 156 M 686 740 L S
[] 0 D
662 128 M (2000) H
686 156 M 686 166 L S
686 420 M 686 440 L S
686 730 M 686 740 L S
715 156 M 715 161 L S
715 425 M 715 435 L S
715 735 M 715 740 L S
745 156 M 745 161 L S
745 425 M 745 435 L S
745 735 M 745 740 L S
774 156 M 774 161 L S
774 425 M 774 435 L S
774 735 M 774 740 L S
803 156 M 803 161 L S
803 425 M 803 435 L S
803 735 M 803 740 L S
[2 3] 0 D
832 156 M 832 740 L S
[] 0 D
808 128 M (2500) H
832 156 M 832 166 L S
832 420 M 832 440 L S
832 730 M 832 740 L S
862 156 M 862 161 L S
862 425 M 862 435 L S
862 735 M 862 740 L S
891 156 M 891 161 L S
891 425 M 891 435 L S
891 735 M 891 740 L S
920 156 M 920 161 L S
920 425 M 920 435 L S
920 735 M 920 740 L S
949 156 M 949 161 L S
949 425 M 949 435 L S
949 735 M 949 740 L S
102 162 M 107 162 L S
967 162 M 972 162 L S
102 184 M 107 184 L S
967 184 M 972 184 L S
[2 3] 0 D
102 207 M 972 207 L S
[] 0 D
21 197 M (-.002) H
102 207 M 112 207 L S
962 207 M 972 207 L S
102 229 M 107 229 L S
967 229 M 972 229 L S
102 251 M 107 251 L S
967 251 M 972 251 L S
102 274 M 107 274 L S
967 274 M 972 274 L S
102 296 M 107 296 L S
967 296 M 972 296 L S
[2 3] 0 D
102 318 M 972 318 L S
[] 0 D
21 308 M (-.001) H
102 318 M 112 318 L S
962 318 M 972 318 L S
102 341 M 107 341 L S
967 341 M 972 341 L S
102 363 M 107 363 L S
967 363 M 972 363 L S
102 386 M 107 386 L S
967 386 M 972 386 L S
102 408 M 107 408 L S
967 408 M 972 408 L S
[2 3] 0 D
102 430 M 972 430 L S
[] 0 D
33 420 M (0.0) H
102 430 M 112 430 L S
962 430 M 972 430 L S
102 453 M 107 453 L S
967 453 M 972 453 L S
102 475 M 107 475 L S
967 475 M 972 475 L S
102 498 M 107 498 L S
967 498 M 972 498 L S
102 520 M 107 520 L S
967 520 M 972 520 L S
[2 3] 0 D
102 542 M 972 542 L S
[] 0 D
21 532 M (0.001) H
102 542 M 112 542 L S
962 542 M 972 542 L S
102 565 M 107 565 L S
967 565 M 972 565 L S
102 587 M 107 587 L S
967 587 M 972 587 L S
102 609 M 107 609 L S
967 609 M 972 609 L S
102 632 M 107 632 L S
967 632 M 972 632 L S
[2 3] 0 D
102 654 M 972 654 L S
[] 0 D
21 644 M (0.002) H
102 654 M 112 654 L S
962 654 M 972 654 L S
102 677 M 107 677 L S
967 677 M 972 677 L S
102 699 M 107 699 L S
967 699 M 972 699 L S
102 721 M 107 721 L S
967 721 M 972 721 L S
[] 0 D
102 156 M 972 156 L S
972 156 M 972 740 L S
972 740 M 102 740 L S
102 740 M 102 156 L S
102 430 M 972 430 L S
[] 0 D
102 281 M 102 281 L S
102 281 M 102 281 L S
102 281 M 102 281 L S
102 281 M 103 281 L S
103 281 M 103 281 L S
103 281 M 103 281 L S
103 281 M 103 281 L S
103 281 M 104 281 L S
104 281 M 104 281 L S
104 281 M 104 319 L S
104 319 M 105 319 L S
105 319 M 105 328 L S
105 328 M 105 328 L S
105 328 M 106 328 L S
106 328 M 106 345 L S
106 345 M 106 345 L S
106 345 M 106 345 L S
106 345 M 107 356 L S
107 356 M 107 365 L S
107 365 M 107 379 L S
107 379 M 108 379 L S
108 379 M 108 396 L S
108 396 M 108 396 L S
108 396 M 108 401 L S
108 401 M 109 401 L S
109 401 M 109 402 L S
109 402 M 109 408 L S
109 408 M 110 411 L S
110 411 M 110 411 L S
110 411 M 110 413 L S
110 413 M 110 419 L S
110 419 M 111 418 L S
111 418 M 111 418 L S
111 418 M 111 417 L S
111 417 M 112 414 L S
112 414 M 112 412 L S
112 412 M 112 412 L S
112 412 M 113 411 L S
113 411 M 113 411 L S
113 411 M 113 406 L S
113 406 M 113 406 L S
113 406 M 114 364 L S
114 364 M 114 364 L S
114 364 M 114 354 L S
114 354 M 115 354 L S
115 354 M 115 354 L S
115 354 M 115 352 L S
115 352 M 115 351 L S
115 351 M 116 353 L S
116 353 M 116 357 L S
116 357 M 116 357 L S
116 357 M 117 357 L S
117 357 M 117 384 L S
117 384 M 117 384 L S
117 384 M 118 385 L S
118 385 M 118 390 L S
118 390 M 118 390 L S
118 390 M 118 394 L S
118 394 M 119 395 L S
119 395 M 119 395 L S
119 395 M 119 395 L S
119 395 M 120 399 L S
120 399 M 120 399 L S
120 399 M 120 413 L S
120 413 M 120 413 L S
120 413 M 121 416 L S
121 416 M 121 416 L S
121 416 M 121 416 L S
121 416 M 122 418 L S
122 418 M 122 418 L S
122 418 M 122 421 L S
122 421 M 122 423 L S
122 423 M 123 423 L S
123 423 M 123 423 L S
123 423 M 123 440 L S
123 440 M 124 440 L S
124 440 M 124 446 L S
124 446 M 124 446 L S
124 446 M 125 450 L S
125 450 M 125 450 L S
125 450 M 125 450 L S
125 450 M 125 451 L S
125 451 M 126 454 L S
126 454 M 126 455 L S
126 455 M 126 455 L S
126 455 M 127 499 L S
127 499 M 127 499 L S
127 499 M 127 507 L S
127 507 M 127 507 L S
127 507 M 128 508 L S
128 508 M 128 508 L S
128 508 M 128 507 L S
128 507 M 129 507 L S
129 507 M 129 507 L S
129 507 M 129 500 L S
129 500 M 129 500 L S
129 500 M 130 464 L S
130 464 M 130 464 L S
130 464 M 130 458 L S
130 458 M 131 458 L S
131 458 M 131 458 L S
131 458 M 131 456 L S
131 456 M 132 452 L S
132 452 M 132 452 L S
132 452 M 132 452 L S
132 452 M 132 449 L S
132 449 M 133 448 L S
133 448 M 133 448 L S
133 448 M 133 447 L S
133 447 M 134 446 L S
134 446 M 134 446 L S
134 446 M 134 445 L S
134 445 M 134 445 L S
134 445 M 135 445 L S
135 445 M 135 445 L S
135 445 M 135 445 L S
135 445 M 136 446 L S
136 446 M 136 446 L S
136 446 M 136 446 L S
136 446 M 137 446 L S
137 446 M 137 446 L S
137 446 M 137 447 L S
137 447 M 137 447 L S
137 447 M 138 446 L S
138 446 M 138 445 L S
138 445 M 138 445 L S
138 445 M 139 445 L S
139 445 M 139 444 L S
139 444 M 139 444 L S
139 444 M 139 438 L S
139 438 M 140 438 L S
140 438 M 140 438 L S
140 438 M 140 438 L S
140 438 M 141 438 L S
141 438 M 141 437 L S
141 437 M 141 437 L S
141 437 M 141 437 L S
141 437 M 142 437 L S
142 437 M 142 437 L S
142 437 M 142 437 L S
142 437 M 143 437 L S
143 437 M 143 437 L S
143 437 M 143 437 L S
143 437 M 144 437 L S
144 437 M 144 437 L S
144 437 M 144 437 L S
144 437 M 144 437 L S
144 437 M 145 437 L S
145 437 M 145 437 L S
145 437 M 145 438 L S
145 438 M 146 439 L S
146 439 M 146 439 L S
146 439 M 146 439 L S
146 439 M 146 439 L S
146 439 M 147 439 L S
147 439 M 147 437 L S
147 437 M 147 437 L S
147 437 M 148 437 L S
148 437 M 148 437 L S
148 437 M 148 437 L S
148 437 M 149 437 L S
149 437 M 149 436 L S
149 436 M 149 437 L S
149 437 M 149 437 L S
149 437 M 150 437 L S
150 437 M 150 437 L S
150 437 M 150 437 L S
150 437 M 151 437 L S
151 437 M 151 441 L S
151 441 M 151 441 L S
151 441 M 151 441 L S
151 441 M 152 441 L S
152 441 M 152 441 L S
152 441 M 152 442 L S
152 442 M 153 442 L S
153 442 M 153 442 L S
153 442 M 153 443 L S
153 443 M 153 443 L S
153 443 M 154 443 L S
154 443 M 154 442 L S
154 442 M 154 442 L S
154 442 M 155 436 L S
155 436 M 155 436 L S
155 436 M 155 436 L S
155 436 M 156 436 L S
156 436 M 156 435 L S
156 435 M 156 435 L S
156 435 M 156 435 L S
156 435 M 157 434 L S
157 434 M 157 434 L S
157 434 M 157 434 L S
157 434 M 158 434 L S
158 434 M 158 434 L S
158 434 M 158 434 L S
158 434 M 158 432 L S
158 432 M 159 432 L S
159 432 M 159 432 L S
159 432 M 159 432 L S
159 432 M 160 432 L S
160 432 M 160 431 L S
160 431 M 160 431 L S
160 431 M 161 433 L S
161 433 M 161 434 L S
161 434 M 161 434 L S
161 434 M 161 434 L S
161 434 M 162 434 L S
162 434 M 162 434 L S
162 434 M 162 434 L S
162 434 M 163 434 L S
163 434 M 163 434 L S
163 434 M 163 434 L S
163 434 M 163 434 L S
163 434 M 164 434 L S
164 434 M 164 434 L S
164 434 M 164 434 L S
164 434 M 165 435 L S
165 435 M 165 435 L S
165 435 M 165 435 L S
165 435 M 165 435 L S
165 435 M 166 435 L S
166 435 M 166 439 L S
166 439 M 166 439 L S
166 439 M 167 440 L S
167 440 M 167 440 L S
167 440 M 167 440 L S
167 440 M 168 440 L S
168 440 M 168 440 L S
168 440 M 168 442 L S
168 442 M 168 443 L S
168 443 M 169 443 L S
169 443 M 169 443 L S
169 443 M 169 443 L S
169 443 M 170 443 L S
170 443 M 170 442 L S
170 442 M 170 442 L S
170 442 M 170 442 L S
170 442 M 171 442 L S
171 442 M 171 442 L S
171 442 M 171 442 L S
171 442 M 172 442 L S
172 442 M 172 442 L S
172 442 M 172 443 L S
172 443 M 173 443 L S
173 443 M 173 444 L S
173 444 M 173 444 L S
173 444 M 173 453 L S
173 453 M 174 453 L S
174 453 M 174 454 L S
174 454 M 174 454 L S
174 454 M 175 455 L S
175 455 M 175 455 L S
175 455 M 175 455 L S
175 455 M 175 456 L S
175 456 M 176 456 L S
176 456 M 176 456 L S
176 456 M 176 454 L S
176 454 M 177 454 L S
177 454 M 177 442 L S
177 442 M 177 442 L S
177 442 M 177 441 L S
177 441 M 178 441 L S
178 441 M 178 441 L S
178 441 M 178 440 L S
178 440 M 179 440 L S
179 440 M 179 439 L S
179 439 M 179 439 L S
179 439 M 180 439 L S
180 439 M 180 438 L S
180 438 M 180 438 L S
180 438 M 180 434 L S
180 434 M 181 434 L S
181 434 M 181 434 L S
181 434 M 181 434 L S
181 434 M 182 434 L S
182 434 M 182 434 L S
182 434 M 182 434 L S
182 434 M 182 431 L S
182 431 M 183 430 L S
183 430 M 183 430 L S
183 430 M 183 430 L S
183 430 M 184 430 L S
184 430 M 184 432 L S
184 432 M 184 432 L S
184 432 M 184 432 L S
184 432 M 185 432 L S
185 432 M 185 432 L S
185 432 M 185 432 L S
185 432 M 186 432 L S
186 432 M 186 433 L S
186 433 M 186 433 L S
186 433 M 187 433 L S
187 433 M 187 434 L S
187 434 M 187 434 L S
187 434 M 187 438 L S
187 438 M 188 438 L S
188 438 M 188 438 L S
188 438 M 188 438 L S
188 438 M 189 438 L S
189 438 M 189 438 L S
189 438 M 189 439 L S
189 439 M 189 438 L S
189 438 M 190 437 L S
190 437 M 190 437 L S
190 437 M 190 437 L S
190 437 M 191 437 L S
191 437 M 191 434 L S
191 434 M 191 434 L S
191 434 M 192 433 L S
192 433 M 192 433 L S
192 433 M 192 433 L S
192 433 M 192 433 L S
192 433 M 193 433 L S
193 433 M 193 433 L S
193 433 M 193 433 L S
193 433 M 194 433 L S
194 433 M 194 433 L S
194 433 M 194 433 L S
194 433 M 194 432 L S
194 432 M 195 432 L S
195 432 M 195 432 L S
195 432 M 195 432 L S
195 432 M 196 432 L S
196 432 M 196 431 L S
196 431 M 196 431 L S
196 431 M 196 431 L S
196 431 M 197 431 L S
197 431 M 197 431 L S
197 431 M 197 432 L S
197 432 M 198 432 L S
198 432 M 198 435 L S
198 435 M 198 435 L S
198 435 M 199 435 L S
199 435 M 199 435 L S
199 435 M 199 435 L S
199 435 M 199 436 L S
199 436 M 200 436 L S
200 436 M 200 436 L S
200 436 M 200 437 L S
200 437 M 201 437 L S
201 437 M 201 438 L S
201 438 M 201 438 L S
201 438 M 201 447 L S
201 447 M 202 447 L S
202 447 M 202 448 L S
202 448 M 202 448 L S
202 448 M 203 448 L S
203 448 M 203 448 L S
203 448 M 203 449 L S
203 449 M 204 447 L S
204 447 M 204 446 L S
204 446 M 204 446 L S
204 446 M 204 445 L S
204 445 M 205 445 L S
205 445 M 205 439 L S
205 439 M 205 439 L S
205 439 M 206 439 L S
206 439 M 206 439 L S
206 439 M 206 438 L S
206 438 M 206 438 L S
206 438 M 207 438 L S
207 438 M 207 438 L S
207 438 M 207 438 L S
207 438 M 208 438 L S
208 438 M 208 438 L S
208 438 M 208 438 L S
208 438 M 208 439 L S
208 439 M 209 439 L S
209 439 M 209 439 L S
209 439 M 209 439 L S
209 439 M 210 439 L S
210 439 M 210 439 L S
210 439 M 210 439 L S
210 439 M 211 439 L S
211 439 M 211 438 L S
211 438 M 211 438 L S
211 438 M 211 438 L S
211 438 M 212 438 L S
212 438 M 212 437 L S
212 437 M 212 437 L S
212 437 M 213 437 L S
213 437 M 213 437 L S
213 437 M 213 437 L S
213 437 M 213 437 L S
213 437 M 214 437 L S
214 437 M 214 438 L S
214 438 M 214 438 L S
214 438 M 215 438 L S
215 438 M 215 439 L S
215 439 M 215 439 L S
215 439 M 216 445 L S
216 445 M 216 445 L S
216 445 M 216 445 L S
216 445 M 216 445 L S
216 445 M 217 446 L S
217 446 M 217 446 L S
217 446 M 217 446 L S
217 446 M 218 445 L S
218 445 M 218 444 L S
218 444 M 218 444 L S
218 444 M 218 444 L S
218 444 M 219 441 L S
219 441 M 219 441 L S
219 441 M 219 436 L S
219 436 M 220 436 L S
220 436 M 220 424 L S
220 424 M 220 424 L S
220 424 M 220 424 L S
220 424 M 221 422 L S
221 422 M 221 422 L S
221 422 M 221 420 L S
221 420 M 222 419 L S
222 419 M 222 419 L S
222 419 M 222 419 L S
222 419 M 223 415 L S
223 415 M 223 415 L S
223 415 M 223 391 L S
223 391 M 223 391 L S
223 391 M 224 387 L S
224 387 M 224 387 L S
224 387 M 224 387 L S
224 387 M 225 388 L S
225 388 M 225 389 L S
225 389 M 225 389 L S
225 389 M 225 389 L S
225 389 M 226 412 L S
226 412 M 226 412 L S
226 412 M 226 412 L S
226 412 M 227 413 L S
227 413 M 227 413 L S
227 413 M 227 413 L S
227 413 M 227 413 L S
227 413 M 228 414 L S
228 414 M 228 414 L S
228 414 M 228 414 L S
228 414 M 229 414 L S
229 414 M 229 417 L S
229 417 M 229 417 L S
229 417 M 230 417 L S
230 417 M 230 417 L S
230 417 M 230 419 L S
230 419 M 230 419 L S
230 419 M 231 422 L S
231 422 M 231 422 L S
231 422 M 231 422 L S
231 422 M 232 426 L S
232 426 M 232 426 L S
232 426 M 232 453 L S
232 453 M 232 453 L S
232 453 M 233 459 L S
233 459 M 233 459 L S
233 459 M 233 459 L S
233 459 M 234 460 L S
234 460 M 234 465 L S
234 465 M 234 466 L S
234 466 M 235 471 L S
235 471 M 235 473 L S
235 473 M 235 473 L S
235 473 M 235 503 L S
235 503 M 236 503 L S
236 503 M 236 503 L S
236 503 M 236 507 L S
236 507 M 237 509 L S
237 509 M 237 508 L S
237 508 M 237 506 L S
237 506 M 237 506 L S
237 506 M 238 506 L S
238 506 M 238 492 L S
238 492 M 238 492 L S
238 492 M 239 432 L S
239 432 M 239 432 L S
239 432 M 239 429 L S
239 429 M 239 429 L S
239 429 M 240 428 L S
240 428 M 240 428 L S
240 428 M 240 426 L S
240 426 M 241 422 L S
241 422 M 241 420 L S
241 420 M 241 420 L S
241 420 M 242 417 L S
242 417 M 242 416 L S
242 416 M 242 418 L S
242 418 M 242 418 L S
242 418 M 243 421 L S
243 421 M 243 425 L S
243 425 M 243 425 L S
243 425 M 244 425 L S
244 425 M 244 428 L S
244 428 M 244 428 L S
244 428 M 244 436 L S
244 436 M 245 436 L S
245 436 M 245 451 L S
245 451 M 245 451 L S
245 451 M 246 451 L S
246 451 M 246 460 L S
246 460 M 246 460 L S
246 460 M 247 460 L S
247 460 M 247 463 L S
247 463 M 247 463 L S
247 463 M 247 481 L S
247 481 M 248 481 L S
248 481 M 248 500 L S
248 500 M 248 500 L S
248 500 M 249 503 L S
249 503 M 249 503 L S
249 503 M 249 503 L S
249 503 M 249 512 L S
249 512 M 250 512 L S
250 512 M 250 512 L S
250 512 M 250 527 L S
250 527 M 251 527 L S
251 527 M 251 535 L S
251 535 M 251 535 L S
251 535 M 251 537 L S
251 537 M 252 537 L S
252 537 M 252 538 L S
252 538 M 252 537 L S
252 537 M 253 531 L S
253 531 M 253 531 L S
253 531 M 253 529 L S
253 529 M 254 544 L S
254 544 M 254 564 L S
254 564 M 254 564 L S
254 564 M 254 571 L S
254 571 M 255 582 L S
255 582 M 255 579 L S
255 579 M 255 579 L S
255 579 M 256 577 L S
256 577 M 256 577 L S
256 577 M 256 570 L S
256 570 M 256 570 L S
256 570 M 257 562 L S
257 562 M 257 561 L S
257 561 M 257 527 L S
257 527 M 258 525 L S
258 525 M 258 505 L S
258 505 M 258 503 L S
258 503 M 259 502 L S
259 502 M 259 500 L S
259 500 M 259 471 L S
259 471 M 259 471 L S
259 471 M 260 447 L S
260 447 M 260 447 L S
260 447 M 260 446 L S
260 446 M 261 443 L S
261 443 M 261 443 L S
261 443 M 261 437 L S
261 437 M 261 436 L S
261 436 M 262 436 L S
262 436 M 262 436 L S
262 436 M 262 424 L S
262 424 M 263 424 L S
263 424 M 263 424 L S
263 424 M 263 422 L S
263 422 M 263 422 L S
263 422 M 264 421 L S
264 421 M 264 421 L S
264 421 M 264 421 L S
264 421 M 265 421 L S
265 421 M 265 422 L S
265 422 M 265 422 L S
265 422 M 266 425 L S
266 425 M 266 425 L S
266 425 M 266 426 L S
266 426 M 266 426 L S
266 426 M 267 426 L S
267 426 M 267 427 L S
267 427 M 267 427 L S
267 427 M 268 427 L S
268 427 M 268 427 L S
268 427 M 268 427 L S
268 427 M 268 427 L S
268 427 M 269 427 L S
269 427 M 269 427 L S
269 427 M 269 427 L S
269 427 M 270 427 L S
270 427 M 270 427 L S
270 427 M 270 427 L S
270 427 M 271 427 L S
271 427 M 271 427 L S
271 427 M 271 426 L S
271 426 M 271 427 L S
271 427 M 272 427 L S
272 427 M 272 433 L S
272 433 M 272 433 L S
272 433 M 273 434 L S
273 434 M 273 434 L S
273 434 M 273 435 L S
273 435 M 273 435 L S
273 435 M 274 435 L S
274 435 M 274 436 L S
274 436 M 274 436 L S
274 436 M 275 444 L S
275 444 M 275 444 L S
275 444 M 275 445 L S
275 445 M 275 445 L S
275 445 M 276 445 L S
276 445 M 276 445 L S
276 445 M 276 445 L S
276 445 M 277 445 L S
277 445 M 277 444 L S
277 444 M 277 444 L S
277 444 M 278 444 L S
278 444 M 278 438 L S
278 438 M 278 438 L S
278 438 M 278 436 L S
278 436 M 279 436 L S
279 436 M 279 434 L S
279 434 M 279 434 L S
279 434 M 280 434 L S
280 434 M 280 434 L S
280 434 M 280 433 L S
280 433 M 280 433 L S
280 433 M 281 433 L S
281 433 M 281 433 L S
281 433 M 281 433 L S
281 433 M 282 432 L S
282 432 M 282 432 L S
282 432 M 282 428 L S
282 428 M 282 428 L S
282 428 M 283 427 L S
283 427 M 283 427 L S
283 427 M 283 427 L S
283 427 M 284 427 L S
284 427 M 284 428 L S
284 428 M 284 428 L S
284 428 M 285 428 L S
285 428 M 285 428 L S
285 428 M 285 428 L S
285 428 M 285 429 L S
285 429 M 286 429 L S
286 429 M 286 433 L S
286 433 M 286 433 L S
286 433 M 287 434 L S
287 434 M 287 434 L S
287 434 M 287 434 L S
287 434 M 287 434 L S
287 434 M 288 435 L S
288 435 M 288 435 L S
288 435 M 288 435 L S
288 435 M 289 435 L S
289 435 M 289 435 L S
289 435 M 289 436 L S
289 436 M 290 436 L S
290 436 M 290 444 L S
290 444 M 290 444 L S
290 444 M 290 445 L S
290 445 M 291 445 L S
291 445 M 291 445 L S
291 445 M 291 445 L S
291 445 M 292 445 L S
292 445 M 292 445 L S
292 445 M 292 445 L S
292 445 M 292 445 L S
292 445 M 293 445 L S
293 445 M 293 445 L S
293 445 M 293 445 L S
293 445 M 294 442 L S
294 442 M 294 442 L S
294 442 M 294 442 L S
294 442 M 294 442 L S
294 442 M 295 442 L S
295 442 M 295 442 L S
295 442 M 295 442 L S
295 442 M 296 442 L S
296 442 M 296 443 L S
296 443 M 296 443 L S
296 443 M 297 443 L S
297 443 M 297 444 L S
297 444 M 297 444 L S
297 444 M 297 452 L S
297 452 M 298 452 L S
298 452 M 298 453 L S
298 453 M 298 453 L S
298 453 M 299 453 L S
299 453 M 299 455 L S
299 455 M 299 457 L S
299 457 M 299 457 L S
299 457 M 300 456 L S
300 456 M 300 456 L S
300 456 M 300 456 L S
300 456 M 301 456 L S
301 456 M 301 456 L S
301 456 M 301 450 L S
301 450 M 302 450 L S
302 450 M 302 449 L S
302 449 M 302 449 L S
302 449 M 302 449 L S
302 449 M 303 448 L S
303 448 M 303 448 L S
303 448 M 303 449 L S
303 449 M 304 449 L S
304 449 M 304 450 L S
304 450 M 304 450 L S
304 450 M 304 451 L S
304 451 M 305 451 L S
305 451 M 305 461 L S
305 461 M 305 461 L S
305 461 M 306 462 L S
306 462 M 306 462 L S
306 462 M 306 462 L S
306 462 M 306 464 L S
306 464 M 307 465 L S
307 465 M 307 465 L S
307 465 M 307 464 L S
307 464 M 308 463 L S
308 463 M 308 463 L S
308 463 M 308 462 L S
308 462 M 309 462 L S
309 462 M 309 447 L S
309 447 M 309 447 L S
309 447 M 309 444 L S
309 444 M 310 444 L S
310 444 M 310 444 L S
310 444 M 310 444 L S
310 444 M 311 443 L S
311 443 M 311 442 L S
311 442 M 311 442 L S
311 442 M 311 442 L S
311 442 M 312 442 L S
312 442 M 312 442 L S
312 442 M 312 442 L S
312 442 M 313 438 L S
313 438 M 313 438 L S
313 438 M 313 438 L S
313 438 M 314 438 L S
314 438 M 314 438 L S
314 438 M 314 438 L S
314 438 M 314 438 L S
314 438 M 315 438 L S
315 438 M 315 438 L S
315 438 M 315 438 L S
315 438 M 316 438 L S
316 438 M 316 438 L S
316 438 M 316 435 L S
316 435 M 316 435 L S
316 435 M 317 435 L S
317 435 M 317 435 L S
317 435 M 317 435 L S
317 435 M 318 435 L S
318 435 M 318 435 L S
318 435 M 318 435 L S
318 435 M 318 435 L S
318 435 M 319 435 L S
319 435 M 319 435 L S
319 435 M 319 435 L S
319 435 M 320 437 L S
320 437 M 320 437 L S
320 437 M 320 437 L S
320 437 M 321 437 L S
321 437 M 321 436 L S
321 436 M 321 435 L S
321 435 M 321 435 L S
321 435 M 322 435 L S
322 435 M 322 435 L S
322 435 M 322 435 L S
322 435 M 323 436 L S
323 436 M 323 436 L S
323 436 M 323 439 L S
323 439 M 323 439 L S
323 439 M 324 439 L S
324 439 M 324 439 L S
324 439 M 324 439 L S
324 439 M 325 440 L S
325 440 M 325 440 L S
325 440 M 325 441 L S
325 441 M 325 441 L S
325 441 M 326 441 L S
326 441 M 326 443 L S
326 443 M 326 443 L S
326 443 M 327 454 L S
327 454 M 327 454 L S
327 454 M 327 456 L S
327 456 M 328 456 L S
328 456 M 328 457 L S
328 457 M 328 458 L S
328 458 M 328 458 L S
328 458 M 329 458 L S
329 458 M 329 457 L S
329 457 M 329 457 L S
329 457 M 330 456 L S
330 456 M 330 456 L S
330 456 M 330 448 L S
330 448 M 330 448 L S
330 448 M 331 447 L S
331 447 M 331 447 L S
331 447 M 331 446 L S
331 446 M 332 446 L S
332 446 M 332 446 L S
332 446 M 332 447 L S
332 447 M 333 447 L S
333 447 M 333 447 L S
333 447 M 333 448 L S
333 448 M 333 448 L S
333 448 M 334 454 L S
334 454 M 334 454 L S
334 454 M 334 455 L S
334 455 M 335 455 L S
335 455 M 335 457 L S
335 457 M 335 458 L S
335 458 M 335 458 L S
335 458 M 336 457 L S
336 457 M 336 457 L S
336 457 M 336 457 L S
336 457 M 337 456 L S
337 456 M 337 456 L S
337 456 M 337 446 L S
337 446 M 337 446 L S
337 446 M 338 444 L S
338 444 M 338 444 L S
338 444 M 338 444 L S
338 444 M 339 443 L S
339 443 M 339 443 L S
339 443 M 339 444 L S
339 444 M 340 444 L S
340 444 M 340 444 L S
340 444 M 340 444 L S
340 444 M 340 444 L S
340 444 M 341 446 L S
341 446 M 341 446 L S
341 446 M 341 447 L S
341 447 M 342 447 L S
342 447 M 342 445 L S
342 445 M 342 443 L S
342 443 M 342 443 L S
342 443 M 343 443 L S
343 443 M 343 442 L S
343 442 M 343 442 L S
343 442 M 344 441 L S
344 441 M 344 441 L S
344 441 M 344 433 L S
344 433 M 345 433 L S
345 433 M 345 431 L S
345 431 M 345 431 L S
345 431 M 345 431 L S
345 431 M 346 430 L S
346 430 M 346 429 L S
346 429 M 346 429 L S
346 429 M 347 429 L S
347 429 M 347 429 L S
347 429 M 347 428 L S
347 428 M 347 428 L S
347 428 M 348 419 L S
348 419 M 348 419 L S
348 419 M 348 417 L S
348 417 M 349 417 L S
349 417 M 349 418 L S
349 418 M 349 420 L S
349 420 M 349 421 L S
349 421 M 350 421 L S
350 421 M 350 422 L S
350 422 M 350 422 L S
350 422 M 351 423 L S
351 423 M 351 423 L S
351 423 M 351 432 L S
351 432 M 352 432 L S
352 432 M 352 434 L S
352 434 M 352 434 L S
352 434 M 352 434 L S
352 434 M 353 435 L S
353 435 M 353 436 L S
353 436 M 353 437 L S
353 437 M 354 437 L S
354 437 M 354 437 L S
354 437 M 354 438 L S
354 438 M 354 438 L S
354 438 M 355 452 L S
355 452 M 355 452 L S
355 452 M 355 454 L S
355 454 M 356 454 L S
356 454 M 356 454 L S
356 454 M 356 454 L S
356 454 M 357 454 L S
357 454 M 357 454 L S
357 454 M 357 454 L S
357 454 M 357 454 L S
357 454 M 358 453 L S
358 453 M 358 453 L S
358 453 M 358 447 L S
358 447 M 359 447 L S
359 447 M 359 446 L S
359 446 M 359 446 L S
359 446 M 359 446 L S
359 446 M 360 446 L S
360 446 M 360 446 L S
360 446 M 360 446 L S
360 446 M 361 447 L S
361 447 M 361 447 L S
361 447 M 361 447 L S
361 447 M 361 448 L S
361 448 M 362 448 L S
362 448 M 362 450 L S
362 450 M 362 450 L S
362 450 M 363 457 L S
363 457 M 363 457 L S
363 457 M 363 458 L S
363 458 M 364 459 L S
364 459 M 364 459 L S
364 459 M 364 459 L S
364 459 M 364 459 L S
364 459 M 365 458 L S
365 458 M 365 458 L S
365 458 M 365 454 L S
365 454 M 366 454 L S
366 454 M 366 453 L S
366 453 M 366 453 L S
366 453 M 366 453 L S
366 453 M 367 453 L S
367 453 M 367 453 L S
367 453 M 367 454 L S
367 454 M 368 454 L S
368 454 M 368 464 L S
368 464 M 368 464 L S
368 464 M 368 464 L S
368 464 M 369 464 L S
369 464 M 369 464 L S
369 464 M 369 474 L S
369 474 M 370 474 L S
370 474 M 370 474 L S
370 474 M 370 474 L S
370 474 M 371 472 L S
371 472 M 371 472 L S
371 472 M 371 472 L S
371 472 M 371 468 L S
371 468 M 372 468 L S
372 468 M 372 460 L S
372 460 M 372 460 L S
372 460 M 373 438 L S
373 438 M 373 438 L S
373 438 M 373 438 L S
373 438 M 373 437 L S
373 437 M 374 434 L S
374 434 M 374 434 L S
374 434 M 374 432 L S
374 432 M 375 431 L S
375 431 M 375 431 L S
375 431 M 375 427 L S
375 427 M 376 427 L S
376 427 M 376 412 L S
376 412 M 376 412 L S
376 412 M 376 405 L S
376 405 M 377 405 L S
377 405 M 377 405 L S
377 405 M 377 405 L S
377 405 M 378 405 L S
378 405 M 378 405 L S
378 405 M 378 407 L S
378 407 M 378 407 L S
378 407 M 379 407 L S
379 407 M 379 416 L S
379 416 M 379 416 L S
379 416 M 380 416 L S
380 416 M 380 417 L S
380 417 M 380 419 L S
380 419 M 380 419 L S
380 419 M 381 420 L S
381 420 M 381 420 L S
381 420 M 381 420 L S
381 420 M 382 423 L S
382 423 M 382 423 L S
382 423 M 382 424 L S
382 424 M 383 424 L S
383 424 M 383 425 L S
383 425 M 383 425 L S
383 425 M 383 426 L S
383 426 M 384 426 L S
384 426 M 384 427 L S
384 427 M 384 427 L S
384 427 M 385 427 L S
385 427 M 385 427 L S
385 427 M 385 428 L S
385 428 M 385 429 L S
385 429 M 386 429 L S
386 429 M 386 429 L S
386 429 M 386 430 L S
386 430 M 387 430 L S
387 430 M 387 431 L S
387 431 M 387 431 L S
387 431 M 388 431 L S
388 431 M 388 431 L S
388 431 M 388 431 L S
388 431 M 388 439 L S
388 439 M 389 439 L S
389 439 M 389 440 L S
389 440 M 389 440 L S
389 440 M 390 441 L S
390 441 M 390 442 L S
390 442 M 390 442 L S
390 442 M 390 442 L S
390 442 M 391 442 L S
391 442 M 391 447 L S
391 447 M 391 448 L S
391 448 M 392 448 L S
392 448 M 392 451 L S
392 451 M 392 454 L S
392 454 M 392 455 L S
392 455 M 393 455 L S
393 455 M 393 456 L S
393 456 M 393 456 L S
393 456 M 394 461 L S
394 461 M 394 461 L S
394 461 M 394 470 L S
394 470 M 395 470 L S
395 470 M 395 470 L S
395 470 M 395 475 L S
395 475 M 395 475 L S
395 475 M 396 475 L S
396 475 M 396 477 L S
396 477 M 396 477 L S
396 477 M 397 482 L S
397 482 M 397 482 L S
397 482 M 397 483 L S
397 483 M 397 483 L S
397 483 M 398 484 L S
398 484 M 398 484 L S
398 484 M 398 488 L S
398 488 M 399 488 L S
399 488 M 399 491 L S
399 491 M 399 491 L S
399 491 M 400 492 L S
400 492 M 400 492 L S
400 492 M 400 493 L S
400 493 M 400 493 L S
400 493 M 401 499 L S
401 499 M 401 499 L S
401 499 M 401 501 L S
401 501 M 402 501 L S
402 501 M 402 501 L S
402 501 M 402 506 L S
402 506 M 402 506 L S
402 506 M 403 506 L S
403 506 M 403 515 L S
403 515 M 403 515 L S
403 515 M 404 520 L S
404 520 M 404 520 L S
404 520 M 404 521 L S
404 521 M 404 521 L S
404 521 M 405 521 L S
405 521 M 405 529 L S
405 529 M 405 540 L S
405 540 M 406 540 L S
406 540 M 406 544 L S
406 544 M 406 543 L S
406 543 M 407 531 L S
407 531 M 407 531 L S
407 531 M 407 527 L S
407 527 M 407 520 L S
407 520 M 408 521 L S
408 521 M 408 521 L S
408 521 M 408 522 L S
408 522 M 409 522 L S
409 522 M 409 525 L S
409 525 M 409 527 L S
409 527 M 409 527 L S
409 527 M 410 529 L S
410 529 M 410 529 L S
410 529 M 410 530 L S
410 530 M 411 530 L S
411 530 M 411 530 L S
411 530 M 411 530 L S
411 530 M 412 530 L S
412 530 M 412 531 L S
412 531 M 412 531 L S
412 531 M 412 530 L S
412 530 M 413 530 L S
413 530 M 413 529 L S
413 529 M 413 529 L S
413 529 M 414 529 L S
414 529 M 414 529 L S
414 529 M 414 529 L S
414 529 M 414 530 L S
414 530 M 415 530 L S
415 530 M 415 525 L S
415 525 M 415 520 L S
415 520 M 416 520 L S
416 520 M 416 520 L S
416 520 M 416 486 L S
416 486 M 416 486 L S
416 486 M 417 484 L S
417 484 M 417 478 L S
417 478 M 417 477 L S
417 477 M 418 472 L S
418 472 M 418 471 L S
418 471 M 418 471 L S
418 471 M 419 471 L S
419 471 M 419 466 L S
419 466 M 419 466 L S
419 466 M 419 445 L S
419 445 M 420 445 L S
420 445 M 420 442 L S
420 442 M 420 442 L S
420 442 M 421 441 L S
421 441 M 421 439 L S
421 439 M 421 439 L S
421 439 M 421 436 L S
421 436 M 422 435 L S
422 435 M 422 435 L S
422 435 M 422 435 L S
422 435 M 423 411 L S
423 411 M 423 411 L S
423 411 M 423 403 L S
423 403 M 423 403 L S
423 403 M 424 398 L S
424 398 M 424 398 L S
424 398 M 424 398 L S
424 398 M 425 397 L S
425 397 M 425 393 L S
425 393 M 425 391 L S
425 391 M 426 391 L S
426 391 M 426 313 L S
426 313 M 426 313 L S
426 313 M 426 311 L S
426 311 M 427 312 L S
427 312 M 427 316 L S
427 316 M 427 316 L S
427 316 M 428 316 L S
428 316 M 428 325 L S
428 325 M 428 325 L S
428 325 M 428 380 L S
428 380 M 429 380 L S
429 380 M 429 389 L S
429 389 M 429 389 L S
429 389 M 430 389 L S
430 389 M 430 393 L S
430 393 M 430 397 L S
430 397 M 431 400 L S
431 400 M 431 400 L S
431 400 M 431 421 L S
431 421 M 431 421 L S
431 421 M 432 429 L S
432 429 M 432 429 L S
432 429 M 432 432 L S
432 432 M 433 432 L S
433 432 M 433 432 L S
433 432 M 433 434 L S
433 434 M 433 435 L S
433 435 M 434 436 L S
434 436 M 434 435 L S
434 435 M 434 435 L S
434 435 M 435 435 L S
435 435 M 435 434 L S
435 434 M 435 434 L S
435 434 M 435 427 L S
435 427 M 436 427 L S
436 427 M 436 426 L S
436 426 M 436 426 L S
436 426 M 437 426 L S
437 426 M 437 425 L S
437 425 M 437 425 L S
437 425 M 438 424 L S
438 424 M 438 423 L S
438 423 M 438 423 L S
438 423 M 438 423 L S
438 423 M 439 421 L S
439 421 M 439 421 L S
439 421 M 439 408 L S
439 408 M 440 408 L S
440 408 M 440 407 L S
440 407 M 440 407 L S
440 407 M 440 407 L S
440 407 M 441 406 L S
441 406 M 441 406 L S
441 406 M 441 404 L S
441 404 M 442 403 L S
442 403 M 442 403 L S
442 403 M 442 403 L S
442 403 M 443 406 L S
443 406 M 443 406 L S
443 406 M 443 421 L S
443 421 M 443 421 L S
443 421 M 444 423 L S
444 423 M 444 423 L S
444 423 M 444 424 L S
444 424 M 445 425 L S
445 425 M 445 425 L S
445 425 M 445 427 L S
445 427 M 445 427 L S
445 427 M 446 427 L S
446 427 M 446 427 L S
446 427 M 446 429 L S
446 429 M 447 429 L S
447 429 M 447 441 L S
447 441 M 447 441 L S
447 441 M 447 442 L S
447 442 M 448 442 L S
448 442 M 448 442 L S
448 442 M 448 443 L S
448 443 M 449 444 L S
449 444 M 449 443 L S
449 443 M 449 441 L S
449 441 M 450 441 L S
450 441 M 450 441 L S
450 441 M 450 441 L S
450 441 M 450 441 L S
450 441 M 451 442 L S
451 442 M 451 442 L S
451 442 M 451 442 L S
451 442 M 452 442 L S
452 442 M 452 442 L S
452 442 M 452 442 L S
452 442 M 452 442 L S
452 442 M 453 443 L S
453 443 M 453 443 L S
453 443 M 453 443 L S
453 443 M 454 443 L S
454 443 M 454 445 L S
454 445 M 454 445 L S
454 445 M 455 457 L S
455 457 M 455 457 L S
455 457 M 455 458 L S
455 458 M 455 458 L S
455 458 M 456 458 L S
456 458 M 456 459 L S
456 459 M 456 459 L S
456 459 M 457 460 L S
457 460 M 457 461 L S
457 461 M 457 461 L S
457 461 M 457 461 L S
457 461 M 458 459 L S
458 459 M 458 459 L S
458 459 M 458 452 L S
458 452 M 459 452 L S
459 452 M 459 451 L S
459 451 M 459 451 L S
459 451 M 459 451 L S
459 451 M 460 450 L S
460 450 M 460 450 L S
460 450 M 460 450 L S
460 450 M 461 451 L S
461 451 M 461 451 L S
461 451 M 461 451 L S
461 451 M 462 453 L S
462 453 M 462 453 L S
462 453 M 462 463 L S
462 463 M 462 463 L S
462 463 M 463 464 L S
463 464 M 463 464 L S
463 464 M 463 464 L S
463 464 M 464 465 L S
464 465 M 464 465 L S
464 465 M 464 464 L S
464 464 M 464 461 L S
464 461 M 465 461 L S
465 461 M 465 461 L S
465 461 M 465 458 L S
465 458 M 466 458 L S
466 458 M 466 440 L S
466 440 M 466 440 L S
466 440 M 466 438 L S
466 438 M 467 438 L S
467 438 M 467 437 L S
467 437 M 467 436 L S
467 436 M 468 435 L S
468 435 M 468 433 L S
468 433 M 468 432 L S
468 432 M 469 432 L S
469 432 M 469 430 L S
469 430 M 469 430 L S
469 430 M 469 415 L S
469 415 M 470 415 L S
470 415 M 470 413 L S
470 413 M 470 413 L S
470 413 M 471 413 L S
471 413 M 471 411 L S
471 411 M 471 411 L S
471 411 M 471 411 L S
471 411 M 472 411 L S
472 411 M 472 411 L S
472 411 M 472 412 L S
472 412 M 473 412 L S
473 412 M 473 419 L S
473 419 M 473 419 L S
473 419 M 474 420 L S
474 420 M 474 420 L S
474 420 M 474 420 L S
474 420 M 474 421 L S
474 421 M 475 421 L S
475 421 M 475 421 L S
475 421 M 475 421 L S
475 421 M 476 421 L S
476 421 M 476 421 L S
476 421 M 476 421 L S
476 421 M 476 419 L S
476 419 M 477 419 L S
477 419 M 477 419 L S
477 419 M 477 419 L S
477 419 M 478 419 L S
478 419 M 478 419 L S
478 419 M 478 419 L S
478 419 M 478 421 L S
478 421 M 479 423 L S
479 423 M 479 423 L S
479 423 M 479 424 L S
479 424 M 480 424 L S
480 424 M 480 431 L S
480 431 M 480 431 L S
480 431 M 481 431 L S
481 431 M 481 431 L S
481 431 M 481 432 L S
481 432 M 481 432 L S
481 432 M 482 432 L S
482 432 M 482 433 L S
482 433 M 482 434 L S
482 434 M 483 434 L S
483 434 M 483 435 L S
483 435 M 483 435 L S
483 435 M 483 443 L S
483 443 M 484 443 L S
484 443 M 484 444 L S
484 444 M 484 444 L S
484 444 M 485 445 L S
485 445 M 485 445 L S
485 445 M 485 445 L S
485 445 M 486 447 L S
486 447 M 486 447 L S
486 447 M 486 447 L S
486 447 M 486 447 L S
486 447 M 487 447 L S
487 447 M 487 446 L S
487 446 M 487 446 L S
487 446 M 488 446 L S
488 446 M 488 446 L S
488 446 M 488 446 L S
488 446 M 488 445 L S
488 445 M 489 445 L S
489 445 M 489 446 L S
489 446 M 489 447 L S
489 447 M 490 447 L S
490 447 M 490 449 L S
490 449 M 490 449 L S
490 449 M 490 461 L S
490 461 M 491 461 L S
491 461 M 491 463 L S
491 463 M 491 463 L S
491 463 M 492 463 L S
492 463 M 492 464 L S
492 464 M 492 464 L S
492 464 M 493 464 L S
493 464 M 493 464 L S
493 464 M 493 464 L S
493 464 M 493 461 L S
493 461 M 494 461 L S
494 461 M 494 445 L S
494 445 M 494 445 L S
494 445 M 495 444 L S
495 444 M 495 444 L S
495 444 M 495 443 L S
495 443 M 495 442 L S
495 442 M 496 442 L S
496 442 M 496 441 L S
496 441 M 496 440 L S
496 440 M 497 440 L S
497 440 M 497 439 L S
497 439 M 497 439 L S
497 439 M 498 433 L S
498 433 M 498 433 L S
498 433 M 498 433 L S
498 433 M 498 433 L S
498 433 M 499 432 L S
499 432 M 499 432 L S
499 432 M 499 432 L S
499 432 M 500 432 L S
500 432 M 500 432 L S
500 432 M 500 432 L S
500 432 M 500 431 L S
500 431 M 501 431 L S
501 431 M 501 427 L S
501 427 M 501 427 L S
501 427 M 502 426 L S
502 426 M 502 426 L S
502 426 M 502 426 L S
502 426 M 502 426 L S
502 426 M 503 426 L S
503 426 M 503 425 L S
503 425 M 503 424 L S
503 424 M 504 424 L S
504 424 M 504 423 L S
504 423 M 504 423 L S
504 423 M 505 414 L S
505 414 M 505 414 L S
505 414 M 505 413 L S
505 413 M 505 413 L S
505 413 M 506 412 L S
506 412 M 506 412 L S
506 412 M 506 412 L S
506 412 M 507 412 L S
507 412 M 507 413 L S
507 413 M 507 413 L S
507 413 M 507 415 L S
507 415 M 508 415 L S
508 415 M 508 425 L S
508 425 M 508 425 L S
508 425 M 509 426 L S
509 426 M 509 426 L S
509 426 M 509 426 L S
509 426 M 510 427 L S
510 427 M 510 427 L S
510 427 M 510 428 L S
510 428 M 510 429 L S
510 429 M 511 429 L S
511 429 M 511 430 L S
511 430 M 511 430 L S
511 430 M 512 437 L S
512 437 M 512 437 L S
512 437 M 512 438 L S
512 438 M 512 438 L S
512 438 M 513 438 L S
513 438 M 513 439 L S
513 439 M 513 439 L S
513 439 M 514 439 L S
514 439 M 514 438 L S
514 438 M 514 438 L S
514 438 M 514 438 L S
514 438 M 515 437 L S
515 437 M 515 437 L S
515 437 M 515 436 L S
515 436 M 516 436 L S
516 436 M 516 433 L S
516 433 M 516 433 L S
516 433 M 517 432 L S
517 432 M 517 432 L S
517 432 M 517 432 L S
517 432 M 517 432 L S
517 432 M 518 431 L S
518 431 M 518 431 L S
518 431 M 518 431 L S
518 431 M 519 431 L S
519 431 M 519 431 L S
519 431 M 519 428 L S
519 428 M 519 428 L S
519 428 M 520 427 L S
520 427 M 520 427 L S
520 427 M 520 427 L S
520 427 M 521 427 L S
521 427 M 521 426 L S
521 426 M 521 426 L S
521 426 M 521 426 L S
521 426 M 522 430 L S
522 430 M 522 430 L S
522 430 M 522 430 L S
522 430 M 523 430 L S
523 430 M 523 430 L S
523 430 M 523 430 L S
523 430 M 524 430 L S
524 430 M 524 431 L S
524 431 M 524 431 L S
524 431 M 524 432 L S
524 432 M 525 432 L S
525 432 M 525 434 L S
525 434 M 525 434 L S
525 434 M 526 434 L S
526 434 M 526 433 L S
526 433 M 526 432 L S
526 432 M 526 432 L S
526 432 M 527 432 L S
527 432 M 527 431 L S
527 431 M 527 431 L S
527 431 M 528 431 L S
528 431 M 528 431 L S
528 431 M 528 427 L S
528 427 M 529 427 L S
529 427 M 529 426 L S
529 426 M 529 426 L S
529 426 M 529 426 L S
529 426 M 530 426 L S
530 426 M 530 426 L S
530 426 M 530 425 L S
530 425 M 531 425 L S
531 425 M 531 425 L S
531 425 M 531 425 L S
531 425 M 531 420 L S
531 420 M 532 420 L S
532 420 M 532 420 L S
532 420 M 532 420 L S
532 420 M 533 417 L S
533 417 M 533 417 L S
533 417 M 533 414 L S
533 414 M 533 413 L S
533 413 M 534 413 L S
534 413 M 534 386 L S
534 386 M 534 289 L S
534 289 M 535 289 L S
535 289 M 535 283 L S
535 283 M 535 283 L S
535 283 M 536 281 L S
536 281 M 536 281 L S
536 281 M 536 280 L S
536 280 M 536 254 L S
536 254 M 537 244 L S
537 244 M 537 244 L S
537 244 M 537 214 L S
537 214 M 538 207 L S
538 207 M 538 216 L S
538 216 M 538 216 L S
538 216 M 538 237 L S
538 237 M 539 252 L S
539 252 M 539 253 L S
539 253 M 539 253 L S
539 253 M 540 255 L S
540 255 M 540 255 L S
540 255 M 540 264 L S
540 264 M 541 264 L S
541 264 M 541 281 L S
541 281 M 541 281 L S
541 281 M 541 281 L S
541 281 M 542 290 L S
542 290 M 542 290 L S
542 290 M 542 290 L S
542 290 M 543 293 L S
543 293 M 543 293 L S
543 293 M 543 313 L S
543 313 M 543 313 L S
543 313 M 544 313 L S
544 313 M 544 317 L S
544 317 M 544 318 L S
544 318 M 545 334 L S
545 334 M 545 334 L S
545 334 M 545 337 L S
545 337 M 545 337 L S
545 337 M 546 337 L S
546 337 M 546 346 L S
546 346 M 546 346 L S
546 346 M 547 346 L S
547 346 M 547 363 L S
547 363 M 547 363 L S
547 363 M 548 372 L S
548 372 M 548 372 L S
548 372 M 548 374 L S
548 374 M 548 374 L S
548 374 M 549 375 L S
549 375 M 549 382 L S
549 382 M 549 390 L S
549 390 M 550 390 L S
550 390 M 550 393 L S
550 393 M 550 406 L S
550 406 M 550 408 L S
550 408 M 551 408 L S
551 408 M 551 408 L S
551 408 M 551 414 L S
551 414 M 552 416 L S
552 416 M 552 416 L S
552 416 M 552 417 L S
552 417 M 553 417 L S
553 417 M 553 420 L S
553 420 M 553 420 L S
553 420 M 553 420 L S
553 420 M 554 420 L S
554 420 M 554 419 L S
554 419 M 554 419 L S
554 419 M 555 419 L S
555 419 M 555 419 L S
555 419 M 555 419 L S
555 419 M 555 419 L S
555 419 M 556 419 L S
556 419 M 556 419 L S
556 419 M 556 419 L S
556 419 M 557 419 L S
557 419 M 557 419 L S
557 419 M 557 419 L S
557 419 M 557 418 L S
557 418 M 558 418 L S
558 418 M 558 418 L S
558 418 M 558 418 L S
558 418 M 559 411 L S
559 411 M 559 411 L S
559 411 M 559 410 L S
559 410 M 560 409 L S
560 409 M 560 409 L S
560 409 M 560 408 L S
560 408 M 560 407 L S
560 407 M 561 407 L S
561 407 M 561 407 L S
561 407 M 561 406 L S
561 406 M 562 406 L S
562 406 M 562 403 L S
562 403 M 562 403 L S
562 403 M 562 402 L S
562 402 M 563 402 L S
563 402 M 563 402 L S
563 402 M 563 402 L S
563 402 M 564 402 L S
564 402 M 564 400 L S
564 400 M 564 398 L S
564 398 M 564 398 L S
564 398 M 565 398 L S
565 398 M 565 368 L S
565 368 M 565 368 L S
565 368 M 566 358 L S
566 358 M 566 358 L S
566 358 M 566 352 L S
566 352 M 567 352 L S
567 352 M 567 352 L S
567 352 M 567 350 L S
567 350 M 567 350 L S
567 350 M 568 351 L S
568 351 M 568 351 L S
568 351 M 568 409 L S
568 409 M 569 409 L S
569 409 M 569 411 L S
569 411 M 569 415 L S
569 415 M 569 416 L S
569 416 M 570 416 L S
570 416 M 570 416 L S
570 416 M 570 421 L S
570 421 M 571 421 L S
571 421 M 571 448 L S
571 448 M 571 448 L S
571 448 M 572 452 L S
572 452 M 572 452 L S
572 452 M 572 452 L S
572 452 M 572 453 L S
572 453 M 573 454 L S
573 454 M 573 454 L S
573 454 M 573 454 L S
573 454 M 574 454 L S
574 454 M 574 454 L S
574 454 M 574 451 L S
574 451 M 574 451 L S
574 451 M 575 450 L S
575 450 M 575 450 L S
575 450 M 575 450 L S
575 450 M 576 450 L S
576 450 M 576 450 L S
576 450 M 576 450 L S
576 450 M 576 450 L S
576 450 M 577 451 L S
577 451 M 577 452 L S
577 452 M 577 452 L S
577 452 M 578 452 L S
578 452 M 578 454 L S
578 454 M 578 454 L S
578 454 M 579 468 L S
579 468 M 579 468 L S
579 468 M 579 471 L S
579 471 M 579 471 L S
579 471 M 580 471 L S
580 471 M 580 472 L S
580 472 M 580 471 L S
580 471 M 581 471 L S
581 471 M 581 469 L S
581 469 M 581 469 L S
581 469 M 581 469 L S
581 469 M 582 466 L S
582 466 M 582 466 L S
582 466 M 582 445 L S
582 445 M 583 445 L S
583 445 M 583 441 L S
583 441 M 583 441 L S
583 441 M 584 441 L S
584 441 M 584 440 L S
584 440 M 584 438 L S
584 438 M 584 438 L S
584 438 M 585 436 L S
585 436 M 585 436 L S
585 436 M 585 436 L S
585 436 M 586 435 L S
586 435 M 586 435 L S
586 435 M 586 420 L S
586 420 M 586 420 L S
586 420 M 587 418 L S
587 418 M 587 418 L S
587 418 M 587 418 L S
587 418 M 588 419 L S
588 419 M 588 420 L S
588 420 M 588 420 L S
588 420 M 588 420 L S
588 420 M 589 420 L S
589 420 M 589 420 L S
589 420 M 589 420 L S
589 420 M 590 420 L S
590 420 M 590 423 L S
590 423 M 590 423 L S
590 423 M 591 423 L S
591 423 M 591 423 L S
591 423 M 591 423 L S
591 423 M 591 424 L S
591 424 M 592 424 L S
592 424 M 592 424 L S
592 424 M 592 423 L S
592 423 M 593 423 L S
593 423 M 593 423 L S
593 423 M 593 423 L S
593 423 M 593 423 L S
593 423 M 594 419 L S
594 419 M 594 419 L S
594 419 M 594 419 L S
594 419 M 595 419 L S
595 419 M 595 419 L S
595 419 M 595 417 L S
595 417 M 596 417 L S
596 417 M 596 417 L S
596 417 M 596 417 L S
596 417 M 596 417 L S
596 417 M 597 417 L S
597 417 M 597 418 L S
597 418 M 597 418 L S
597 418 M 598 426 L S
598 426 M 598 426 L S
598 426 M 598 428 L S
598 428 M 598 428 L S
598 428 M 599 428 L S
599 428 M 599 428 L S
599 428 M 599 429 L S
599 429 M 600 429 L S
600 429 M 600 430 L S
600 430 M 600 430 L S
600 430 M 600 430 L S
600 430 M 601 431 L S
601 431 M 601 431 L S
601 431 M 601 437 L S
601 437 M 602 437 L S
602 437 M 602 438 L S
602 438 M 602 438 L S
602 438 M 603 438 L S
603 438 M 603 440 L S
603 440 M 603 441 L S
603 441 M 603 441 L S
603 441 M 604 441 L S
604 441 M 604 441 L S
604 441 M 604 441 L S
604 441 M 605 441 L S
605 441 M 605 441 L S
605 441 M 605 442 L S
605 442 M 605 442 L S
605 442 M 606 442 L S
606 442 M 606 442 L S
606 442 M 606 442 L S
606 442 M 607 442 L S
607 442 M 607 443 L S
607 443 M 607 443 L S
607 443 M 608 444 L S
608 444 M 608 444 L S
608 444 M 608 444 L S
608 444 M 608 445 L S
608 445 M 609 445 L S
609 445 M 609 457 L S
609 457 M 609 457 L S
609 457 M 610 459 L S
610 459 M 610 459 L S
610 459 M 610 460 L S
610 460 M 610 460 L S
610 460 M 611 460 L S
611 460 M 611 459 L S
611 459 M 611 459 L S
611 459 M 612 459 L S
612 459 M 612 458 L S
612 458 M 612 458 L S
612 458 M 612 448 L S
612 448 M 613 448 L S
613 448 M 613 446 L S
613 446 M 613 446 L S
613 446 M 614 446 L S
614 446 M 614 445 L S
614 445 M 614 446 L S
614 446 M 615 446 L S
615 446 M 615 446 L S
615 446 M 615 446 L S
615 446 M 615 446 L S
615 446 M 616 446 L S
616 446 M 616 450 L S
616 450 M 616 450 L S
616 450 M 617 451 L S
617 451 M 617 451 L S
617 451 M 617 451 L S
617 451 M 617 450 L S
617 450 M 618 450 L S
618 450 M 618 449 L S
618 449 M 618 449 L S
618 449 M 619 449 L S
619 449 M 619 447 L S
619 447 M 619 447 L S
619 447 M 619 434 L S
619 434 M 620 434 L S
620 434 M 620 431 L S
620 431 M 620 431 L S
620 431 M 621 431 L S
621 431 M 621 429 L S
621 429 M 621 429 L S
621 429 M 622 428 L S
622 428 M 622 427 L S
622 427 M 622 427 L S
622 427 M 622 426 L S
622 426 M 623 426 L S
623 426 M 623 412 L S
623 412 M 623 412 L S
623 412 M 624 410 L S
624 410 M 624 410 L S
624 410 M 624 408 L S
624 408 M 624 407 L S
624 407 M 625 407 L S
625 407 M 625 408 L S
625 408 M 625 408 L S
625 408 M 626 408 L S
626 408 M 626 409 L S
626 409 M 626 409 L S
626 409 M 627 419 L S
627 419 M 627 419 L S
627 419 M 627 420 L S
627 420 M 627 420 L S
627 420 M 628 421 L S
628 421 M 628 422 L S
628 422 M 628 422 L S
628 422 M 629 422 L S
629 422 M 629 422 L S
629 422 M 629 422 L S
629 422 M 629 422 L S
629 422 M 630 422 L S
630 422 M 630 423 L S
630 423 M 630 423 L S
630 423 M 631 424 L S
631 424 M 631 424 L S
631 424 M 631 425 L S
631 425 M 631 427 L S
631 427 M 632 427 L S
632 427 M 632 427 L S
632 427 M 632 427 L S
632 427 M 633 427 L S
633 427 M 633 428 L S
633 428 M 633 428 L S
633 428 M 634 432 L S
634 432 M 634 432 L S
634 432 M 634 433 L S
634 433 M 634 433 L S
634 433 M 635 433 L S
635 433 M 635 434 L S
635 434 M 635 434 L S
635 434 M 636 435 L S
636 435 M 636 435 L S
636 435 M 636 435 L S
636 435 M 636 436 L S
636 436 M 637 436 L S
637 436 M 637 443 L S
637 443 M 637 443 L S
637 443 M 638 444 L S
638 444 M 638 444 L S
638 444 M 638 445 L S
638 445 M 639 447 L S
639 447 M 639 447 L S
639 447 M 639 447 L S
639 447 M 639 447 L S
639 447 M 640 447 L S
640 447 M 640 447 L S
640 447 M 640 447 L S
640 447 M 641 448 L S
641 448 M 641 448 L S
641 448 M 641 448 L S
641 448 M 641 448 L S
641 448 M 642 448 L S
642 448 M 642 449 L S
642 449 M 642 450 L S
642 450 M 643 451 L S
643 451 M 643 452 L S
643 452 M 643 452 L S
643 452 M 643 453 L S
643 453 M 644 453 L S
644 453 M 644 471 L S
644 471 M 644 471 L S
644 471 M 645 474 L S
645 474 M 645 474 L S
645 474 M 645 474 L S
645 474 M 646 472 L S
646 472 M 646 472 L S
646 472 M 646 470 L S
646 470 M 646 470 L S
646 470 M 647 470 L S
647 470 M 647 468 L S
647 468 M 647 468 L S
647 468 M 648 448 L S
648 448 M 648 448 L S
648 448 M 648 445 L S
648 445 M 648 445 L S
648 445 M 649 444 L S
649 444 M 649 442 L S
649 442 M 649 442 L S
649 442 M 650 441 L S
650 441 M 650 441 L S
650 441 M 650 441 L S
650 441 M 651 440 L S
651 440 M 651 440 L S
651 440 M 651 431 L S
651 431 M 651 431 L S
651 431 M 652 430 L S
652 430 M 652 430 L S
652 430 M 652 430 L S
652 430 M 653 431 L S
653 431 M 653 431 L S
653 431 M 653 430 L S
653 430 M 653 430 L S
653 430 M 654 430 L S
654 430 M 654 430 L S
654 430 M 654 430 L S
654 430 M 655 428 L S
655 428 M 655 428 L S
655 428 M 655 428 L S
655 428 M 655 428 L S
655 428 M 656 428 L S
656 428 M 656 428 L S
656 428 M 656 427 L S
656 427 M 657 427 L S
657 427 M 657 427 L S
657 427 M 657 427 L S
657 427 M 658 427 L S
658 427 M 658 426 L S
658 426 M 658 426 L S
658 426 M 658 424 L S
658 424 M 659 424 L S
659 424 M 659 421 L S
659 421 M 659 421 L S
659 421 M 660 420 L S
660 420 M 660 419 L S
660 419 M 660 418 L S
660 418 M 660 418 L S
660 418 M 661 418 L S
661 418 M 661 418 L S
661 418 M 661 418 L S
661 418 M 662 414 L S
662 414 M 662 414 L S
662 414 M 662 413 L S
662 413 M 662 413 L S
662 413 M 663 413 L S
663 413 M 663 413 L S
663 413 M 663 411 L S
663 411 M 664 411 L S
664 411 M 664 411 L S
664 411 M 664 384 L S
664 384 M 665 384 L S
665 384 M 665 384 L S
665 384 M 665 383 L S
665 383 M 665 382 L S
665 382 M 666 382 L S
666 382 M 666 382 L S
666 382 M 666 386 L S
666 386 M 667 386 L S
667 386 M 667 393 L S
667 393 M 667 393 L S
667 393 M 667 413 L S
667 413 M 668 413 L S
668 413 M 668 413 L S
668 413 M 668 414 L S
668 414 M 669 416 L S
669 416 M 669 416 L S
669 416 M 669 417 L S
669 417 M 670 417 L S
670 417 M 670 417 L S
670 417 M 670 418 L S
670 418 M 670 418 L S
670 418 M 671 423 L S
671 423 M 671 423 L S
671 423 M 671 425 L S
671 425 M 672 425 L S
672 425 M 672 425 L S
672 425 M 672 426 L S
672 426 M 672 429 L S
672 429 M 673 430 L S
673 430 M 673 433 L S
673 433 M 673 433 L S
673 433 M 674 433 L S
674 433 M 674 449 L S
674 449 M 674 449 L S
674 449 M 674 449 L S
674 449 M 675 451 L S
675 451 M 675 461 L S
675 461 M 675 462 L S
675 462 M 676 468 L S
676 468 M 676 470 L S
676 470 M 676 470 L S
676 470 M 677 710 L S
677 710 M 677 710 L S
677 710 M 677 728 L S
677 728 M 677 728 L S
677 728 M 678 733 L S
678 733 M 678 733 L S
678 733 M 678 740 L S
678 740 M 679 723 L S
679 723 M 679 709 L S
679 709 M 679 709 L S
679 709 M 679 671 L S
679 671 M 680 646 L S
680 646 M 680 652 L S
680 652 M 680 652 L S
680 652 M 681 667 L S
681 667 M 681 671 L S
681 671 M 681 669 L S
681 669 M 682 669 L S
682 669 M 682 662 L S
682 662 M 682 662 L S
682 662 M 682 636 L S
682 636 M 683 636 L S
683 636 M 683 585 L S
683 585 M 683 585 L S
683 585 M 684 585 L S
684 585 M 684 559 L S
684 559 M 684 559 L S
684 559 M 684 559 L S
684 559 M 685 548 L S
685 548 M 685 548 L S
685 548 M 685 488 L S
685 488 M 686 488 L S
686 488 M 686 427 L S
686 427 M 686 427 L S
686 427 M 686 417 L S
686 417 M 687 417 L S
687 417 M 687 417 L S
687 417 M 687 390 L S
687 390 M 688 390 L S
688 390 M 688 390 L S
688 390 M 688 339 L S
688 339 M 689 339 L S
689 339 M 689 313 L S
689 313 M 689 313 L S
689 313 M 689 306 L S
689 306 M 690 306 L S
690 306 M 690 304 L S
690 304 M 690 285 L S
690 285 M 691 263 L S
691 263 M 691 263 L S
691 263 M 691 253 L S
691 253 M 691 253 L S
691 253 M 692 282 L S
692 282 M 692 282 L S
692 282 M 692 293 L S
692 293 M 693 322 L S
693 322 M 693 327 L S
693 327 M 693 327 L S
693 327 M 694 330 L S
694 330 M 694 330 L S
694 330 M 694 344 L S
694 344 M 694 344 L S
694 344 M 695 351 L S
695 351 M 695 363 L S
695 363 M 695 367 L S
695 367 M 696 371 L S
696 371 M 696 383 L S
696 383 M 696 395 L S
696 395 M 696 409 L S
696 409 M 697 421 L S
697 421 M 697 438 L S
697 438 M 697 457 L S
697 457 M 698 468 L S
698 468 M 698 470 L S
698 470 M 698 516 L S
698 516 M 698 520 L S
698 520 M 699 525 L S
699 525 M 699 530 L S
699 530 M 699 554 L S
699 554 M 700 554 L S
700 554 M 700 556 L S
700 556 M 700 562 L S
700 562 M 701 563 L S
701 563 M 701 562 L S
701 562 M 701 555 L S
701 555 M 701 555 L S
701 555 M 702 555 L S
702 555 M 702 506 L S
702 506 M 702 506 L S
702 506 M 703 504 L S
703 504 M 703 495 L S
703 495 M 703 494 L S
703 494 M 703 486 L S
703 486 M 704 484 L S
704 484 M 704 484 L S
704 484 M 704 484 L S
704 484 M 705 476 L S
705 476 M 705 476 L S
705 476 M 705 440 L S
705 440 M 706 440 L S
706 440 M 706 435 L S
706 435 M 706 435 L S
706 435 M 706 434 L S
706 434 M 707 431 L S
707 431 M 707 430 L S
707 430 M 707 427 L S
707 427 M 708 425 L S
708 425 M 708 425 L S
708 425 M 708 425 L S
708 425 M 708 405 L S
708 405 M 709 405 L S
709 405 M 709 398 L S
709 398 M 709 398 L S
709 398 M 710 394 L S
710 394 M 710 394 L S
710 394 M 710 394 L S
710 394 M 710 393 L S
710 393 M 711 389 L S
711 389 M 711 387 L S
711 387 M 711 387 L S
711 387 M 712 311 L S
712 311 M 712 311 L S
712 311 M 712 310 L S
712 310 M 713 309 L S
713 309 M 713 312 L S
713 312 M 713 312 L S
713 312 M 713 312 L S
713 312 M 714 321 L S
714 321 M 714 321 L S
714 321 M 714 376 L S
714 376 M 715 376 L S
715 376 M 715 385 L S
715 385 M 715 385 L S
715 385 M 715 385 L S
715 385 M 716 388 L S
716 388 M 716 392 L S
716 392 M 716 395 L S
716 395 M 717 395 L S
717 395 M 717 412 L S
717 412 M 717 412 L S
717 412 M 717 418 L S
717 418 M 718 418 L S
718 418 M 718 420 L S
718 420 M 718 420 L S
718 420 M 719 421 L S
719 421 M 719 423 L S
719 423 M 719 423 L S
719 423 M 720 424 L S
720 424 M 720 424 L S
720 424 M 720 424 L S
720 424 M 720 424 L S
720 424 M 721 425 L S
721 425 M 721 425 L S
721 425 M 721 430 L S
721 430 M 722 430 L S
722 430 M 722 430 L S
722 430 M 722 430 L S
722 430 M 722 430 L S
722 430 M 723 431 L S
723 431 M 723 431 L S
723 431 M 723 431 L S
723 431 M 724 432 L S
724 432 M 724 432 L S
724 432 M 724 432 L S
724 432 M 725 433 L S
725 433 M 725 433 L S
725 433 M 725 438 L S
725 438 M 725 438 L S
725 438 M 726 438 L S
726 438 M 726 438 L S
726 438 M 726 439 L S
726 439 M 727 439 L S
727 439 M 727 439 L S
727 439 M 727 441 L S
727 441 M 727 442 L S
727 442 M 728 442 L S
728 442 M 728 442 L S
728 442 M 728 442 L S
728 442 M 729 442 L S
729 442 M 729 443 L S
729 443 M 729 443 L S
729 443 M 729 443 L S
729 443 M 730 443 L S
730 443 M 730 443 L S
730 443 M 730 444 L S
730 444 M 731 444 L S
731 444 M 731 444 L S
731 444 M 731 445 L S
731 445 M 732 445 L S
732 445 M 732 445 L S
732 445 M 732 448 L S
732 448 M 732 448 L S
732 448 M 733 461 L S
733 461 M 733 461 L S
733 461 M 733 463 L S
733 463 M 734 463 L S
734 463 M 734 463 L S
734 463 M 734 464 L S
734 464 M 734 464 L S
734 464 M 735 464 L S
735 464 M 735 463 L S
735 463 M 735 463 L S
735 463 M 736 463 L S
736 463 M 736 460 L S
736 460 M 736 460 L S
736 460 M 737 445 L S
737 445 M 737 445 L S
737 445 M 737 443 L S
737 443 M 737 443 L S
737 443 M 738 443 L S
738 443 M 738 442 L S
738 442 M 738 441 L S
738 441 M 739 440 L S
739 440 M 739 440 L S
739 440 M 739 440 L S
739 440 M 739 440 L S
739 440 M 740 439 L S
740 439 M 740 439 L S
740 439 M 740 433 L S
740 433 M 741 433 L S
741 433 M 741 433 L S
741 433 M 741 433 L S
741 433 M 741 432 L S
741 432 M 742 432 L S
742 432 M 742 432 L S
742 432 M 742 431 L S
742 431 M 743 430 L S
743 430 M 743 430 L S
743 430 M 743 430 L S
743 430 M 744 430 L S
744 430 M 744 430 L S
744 430 M 744 427 L S
744 427 M 744 427 L S
744 427 M 745 427 L S
745 427 M 745 427 L S
745 427 M 745 427 L S
745 427 M 746 426 L S
746 426 M 746 426 L S
746 426 M 746 426 L S
746 426 M 746 426 L S
746 426 M 747 426 L S
747 426 M 747 426 L S
747 426 M 747 425 L S
747 425 M 748 425 L S
748 425 M 748 418 L S
748 418 M 748 418 L S
748 418 M 749 417 L S
749 417 M 749 417 L S
749 417 M 749 417 L S
749 417 M 749 417 L S
749 417 M 750 417 L S
750 417 M 750 417 L S
750 417 M 750 418 L S
750 418 M 751 418 L S
751 418 M 751 418 L S
751 418 M 751 419 L S
751 419 M 751 419 L S
751 419 M 752 424 L S
752 424 M 752 424 L S
752 424 M 752 424 L S
752 424 M 753 424 L S
753 424 M 753 424 L S
753 424 M 753 425 L S
753 425 M 753 425 L S
753 425 M 754 425 L S
754 425 M 754 425 L S
754 425 M 754 425 L S
754 425 M 755 425 L S
755 425 M 755 425 L S
755 425 M 755 425 L S
755 425 M 756 425 L S
756 425 M 756 425 L S
756 425 M 756 425 L S
756 425 M 756 425 L S
756 425 M 757 425 L S
757 425 M 757 425 L S
757 425 M 757 424 L S
757 424 M 758 424 L S
758 424 M 758 424 L S
758 424 M 758 425 L S
758 425 M 758 425 L S
758 425 M 759 434 L S
759 434 M 759 434 L S
759 434 M 759 435 L S
759 435 M 760 435 L S
760 435 M 760 435 L S
760 435 M 760 435 L S
760 435 M 760 436 L S
760 436 M 761 437 L S
761 437 M 761 438 L S
761 438 M 761 438 L S
761 438 M 762 440 L S
762 440 M 762 440 L S
762 440 M 762 454 L S
762 454 M 763 454 L S
763 454 M 763 455 L S
763 455 M 763 455 L S
763 455 M 763 456 L S
763 456 M 764 457 L S
764 457 M 764 457 L S
764 457 M 764 457 L S
764 457 M 765 457 L S
765 457 M 765 457 L S
765 457 M 765 455 L S
765 455 M 765 455 L S
765 455 M 766 447 L S
766 447 M 766 447 L S
766 447 M 766 447 L S
766 447 M 767 447 L S
767 447 M 767 446 L S
767 446 M 767 446 L S
767 446 M 768 446 L S
768 446 M 768 445 L S
768 445 M 768 446 L S
768 446 M 768 446 L S
768 446 M 769 447 L S
769 447 M 769 447 L S
769 447 M 769 452 L S
769 452 M 770 452 L S
770 452 M 770 453 L S
770 453 M 770 453 L S
770 453 M 770 453 L S
770 453 M 771 454 L S
771 454 M 771 454 L S
771 454 M 771 454 L S
771 454 M 772 454 L S
772 454 M 772 454 L S
772 454 M 772 452 L S
772 452 M 772 452 L S
772 452 M 773 438 L S
773 438 M 773 438 L S
773 438 M 773 437 L S
773 437 M 774 437 L S
774 437 M 774 436 L S
774 436 M 774 435 L S
774 435 M 775 435 L S
775 435 M 775 434 L S
775 434 M 775 433 L S
775 433 M 775 433 L S
775 433 M 776 432 L S
776 432 M 776 432 L S
776 432 M 776 422 L S
776 422 M 777 422 L S
777 422 M 777 421 L S
777 421 M 777 421 L S
777 421 M 777 420 L S
777 420 M 778 420 L S
778 420 M 778 419 L S
778 419 M 778 419 L S
778 419 M 779 419 L S
779 419 M 779 419 L S
779 419 M 779 420 L S
779 420 M 780 420 L S
780 420 M 780 424 L S
780 424 M 780 424 L S
780 424 M 780 424 L S
780 424 M 781 424 L S
781 424 M 781 424 L S
781 424 M 781 424 L S
781 424 M 782 424 L S
782 424 M 782 425 L S
782 425 M 782 425 L S
782 425 M 782 425 L S
782 425 M 783 424 L S
783 424 M 783 424 L S
783 424 M 783 423 L S
783 423 M 784 423 L S
784 423 M 784 423 L S
784 423 M 784 423 L S
784 423 M 784 422 L S
784 422 M 785 422 L S
785 422 M 785 422 L S
785 422 M 785 422 L S
785 422 M 786 421 L S
786 421 M 786 421 L S
786 421 M 786 422 L S
786 422 M 787 422 L S
787 422 M 787 428 L S
787 428 M 787 428 L S
787 428 M 787 429 L S
787 429 M 788 429 L S
788 429 M 788 429 L S
788 429 M 788 429 L S
788 429 M 789 430 L S
789 430 M 789 430 L S
789 430 M 789 431 L S
789 431 M 789 431 L S
789 431 M 790 431 L S
790 431 M 790 431 L S
790 431 M 790 437 L S
790 437 M 791 437 L S
791 437 M 791 438 L S
791 438 M 791 438 L S
791 438 M 792 438 L S
792 438 M 792 438 L S
792 438 M 792 438 L S
792 438 M 792 439 L S
792 439 M 793 439 L S
793 439 M 793 439 L S
793 439 M 793 440 L S
793 440 M 794 440 L S
794 440 M 794 443 L S
794 443 M 794 443 L S
794 443 M 794 443 L S
794 443 M 795 443 L S
795 443 M 795 444 L S
795 444 M 795 444 L S
795 444 M 796 444 L S
796 444 M 796 445 L S
796 445 M 796 446 L S
796 446 M 796 446 L S
796 446 M 797 449 L S
797 449 M 797 449 L S
797 449 M 797 465 L S
797 465 M 798 465 L S
798 465 M 798 467 L S
798 467 M 798 467 L S
798 467 M 799 467 L S
799 467 M 799 468 L S
799 468 M 799 469 L S
799 469 M 799 469 L S
799 469 M 800 468 L S
800 468 M 800 468 L S
800 468 M 800 468 L S
800 468 M 801 464 L S
801 464 M 801 464 L S
801 464 M 801 457 L S
801 457 M 801 457 L S
801 457 M 802 439 L S
802 439 M 802 439 L S
802 439 M 802 438 L S
802 438 M 803 437 L S
803 437 M 803 436 L S
803 436 M 803 434 L S
803 434 M 803 433 L S
803 433 M 804 433 L S
804 433 M 804 433 L S
804 433 M 804 430 L S
804 430 M 805 430 L S
805 430 M 805 411 L S
805 411 M 805 411 L S
805 411 M 806 408 L S
806 408 M 806 408 L S
806 408 M 806 408 L S
806 408 M 806 408 L S
806 408 M 807 407 L S
807 407 M 807 407 L S
807 407 M 807 407 L S
807 407 M 808 408 L S
808 408 M 808 408 L S
808 408 M 808 408 L S
808 408 M 808 408 L S
808 408 M 809 408 L S
809 408 M 809 409 L S
809 409 M 809 409 L S
809 409 M 810 409 L S
810 409 M 810 409 L S
810 409 M 810 408 L S
810 408 M 811 408 L S
811 408 M 811 408 L S
811 408 M 811 406 L S
811 406 M 811 406 L S
811 406 M 812 401 L S
812 401 M 812 401 L S
812 401 M 812 389 L S
812 389 M 813 389 L S
813 389 M 813 389 L S
813 389 M 813 388 L S
813 388 M 813 391 L S
813 391 M 814 392 L S
814 392 M 814 396 L S
814 396 M 814 397 L S
814 397 M 815 397 L S
815 397 M 815 406 L S
815 406 M 815 406 L S
815 406 M 815 458 L S
815 458 M 816 458 L S
816 458 M 816 470 L S
816 470 M 816 470 L S
816 470 M 817 470 L S
817 470 M 817 473 L S
817 473 M 817 482 L S
817 482 M 818 483 L S
818 483 M 818 492 L S
818 492 M 818 494 L S
818 494 M 818 494 L S
818 494 M 819 545 L S
819 545 M 819 545 L S
819 545 M 819 545 L S
819 545 M 820 550 L S
820 550 M 820 552 L S
820 552 M 820 551 L S
820 551 M 820 547 L S
820 547 M 821 545 L S
821 545 M 821 545 L S
821 545 M 821 523 L S
821 523 M 822 378 L S
822 378 M 822 373 L S
822 373 M 822 373 L S
822 373 M 823 367 L S
823 367 M 823 367 L S
823 367 M 823 366 L S
823 366 M 823 366 L S
823 366 M 824 364 L S
824 364 M 824 349 L S
824 349 M 824 344 L S
824 344 M 825 344 L S
825 344 M 825 328 L S
825 328 M 825 317 L S
825 317 M 825 319 L S
825 319 M 826 319 L S
826 319 M 826 329 L S
826 329 M 826 336 L S
826 336 M 827 336 L S
827 336 M 827 336 L S
827 336 M 827 336 L S
827 336 M 827 336 L S
827 336 M 828 338 L S
828 338 M 828 338 L S
828 338 M 828 340 L S
828 340 M 829 340 L S
829 340 M 829 340 L S
829 340 M 829 342 L S
829 342 M 830 342 L S
830 342 M 830 342 L S
830 342 M 830 342 L S
830 342 M 830 342 L S
830 342 M 831 345 L S
831 345 M 831 345 L S
831 345 M 831 349 L S
831 349 M 832 349 L S
832 349 M 832 349 L S
832 349 M 832 350 L S
832 350 M 832 350 L S
832 350 M 833 350 L S
833 350 M 833 353 L S
833 353 M 833 353 L S
833 353 M 834 354 L S
834 354 M 834 354 L S
834 354 M 834 355 L S
834 355 M 835 355 L S
835 355 M 835 355 L S
835 355 M 835 361 L S
835 361 M 835 370 L S
835 370 M 836 370 L S
836 370 M 836 373 L S
836 373 M 836 383 L S
836 383 M 837 380 L S
837 380 M 837 380 L S
837 380 M 837 380 L S
837 380 M 837 385 L S
837 385 M 838 390 L S
838 390 M 838 390 L S
838 390 M 838 391 L S
838 391 M 839 391 L S
839 391 M 839 400 L S
839 400 M 839 402 L S
839 402 M 839 402 L S
839 402 M 840 429 L S
840 429 M 840 430 L S
840 430 M 840 431 L S
840 431 M 841 434 L S
841 434 M 841 434 L S
841 434 M 841 435 L S
841 435 M 842 435 L S
842 435 M 842 435 L S
842 435 M 842 438 L S
842 438 M 842 439 L S
842 439 M 843 439 L S
843 439 M 843 439 L S
843 439 M 843 447 L S
843 447 M 844 447 L S
844 447 M 844 447 L S
844 447 M 844 448 L S
844 448 M 844 449 L S
844 449 M 845 451 L S
845 451 M 845 453 L S
845 453 M 845 453 L S
845 453 M 846 453 L S
846 453 M 846 453 L S
846 453 M 846 453 L S
846 453 M 847 455 L S
847 455 M 847 455 L S
847 455 M 847 456 L S
847 456 M 847 456 L S
847 456 M 848 456 L S
848 456 M 848 456 L S
848 456 M 848 456 L S
848 456 M 849 458 L S
849 458 M 849 460 L S
849 460 M 849 460 L S
849 460 M 849 460 L S
849 460 M 850 485 L S
850 485 M 850 485 L S
850 485 M 850 495 L S
850 495 M 851 495 L S
851 495 M 851 500 L S
851 500 M 851 500 L S
851 500 M 851 500 L S
851 500 M 852 502 L S
852 502 M 852 502 L S
852 502 M 852 501 L S
852 501 M 853 501 L S
853 501 M 853 457 L S
853 457 M 853 457 L S
853 457 M 854 456 L S
854 456 M 854 453 L S
854 453 M 854 452 L S
854 452 M 854 452 L S
854 452 M 855 452 L S
855 452 M 855 450 L S
855 450 M 855 450 L S
855 450 M 856 439 L S
856 439 M 856 439 L S
856 439 M 856 437 L S
856 437 M 856 437 L S
856 437 M 857 437 L S
857 437 M 857 437 L S
857 437 M 857 438 L S
857 438 M 858 438 L S
858 438 M 858 437 L S
858 437 M 858 437 L S
858 437 M 858 437 L S
858 437 M 859 434 L S
859 434 M 859 434 L S
859 434 M 859 433 L S
859 433 M 860 433 L S
860 433 M 860 432 L S
860 432 M 860 432 L S
860 432 M 861 432 L S
861 432 M 861 432 L S
861 432 M 861 432 L S
861 432 M 861 432 L S
861 432 M 862 431 L S
862 431 M 862 431 L S
862 431 M 862 431 L S
862 431 M 863 431 L S
863 431 M 863 431 L S
863 431 M 863 428 L S
863 428 M 863 428 L S
863 428 M 864 428 L S
864 428 M 864 428 L S
864 428 M 864 428 L S
864 428 M 865 427 L S
865 427 M 865 426 L S
865 426 M 865 426 L S
865 426 M 866 426 L S
866 426 M 866 427 L S
866 427 M 866 427 L S
866 427 M 866 427 L S
866 427 M 867 427 L S
867 427 M 867 431 L S
867 431 M 867 431 L S
867 431 M 868 431 L S
868 431 M 868 431 L S
868 431 M 868 431 L S
868 431 M 868 432 L S
868 432 M 869 432 L S
869 432 M 869 432 L S
869 432 M 869 432 L S
869 432 M 870 433 L S
870 433 M 870 433 L S
870 433 M 870 433 L S
870 433 M 870 433 L S
870 433 M 871 438 L S
871 438 M 871 438 L S
871 438 M 871 439 L S
871 439 M 872 439 L S
872 439 M 872 439 L S
872 439 M 872 439 L S
872 439 M 873 440 L S
873 440 M 873 440 L S
873 440 M 873 441 L S
873 441 M 873 441 L S
873 441 M 874 441 L S
874 441 M 874 441 L S
874 441 M 874 441 L S
874 441 M 875 445 L S
875 445 M 875 445 L S
875 445 M 875 445 L S
875 445 M 875 445 L S
875 445 M 876 445 L S
876 445 M 876 446 L S
876 446 M 876 447 L S
876 447 M 877 447 L S
877 447 M 877 449 L S
877 449 M 877 449 L S
877 449 M 878 449 L S
878 449 M 878 451 L S
878 451 M 878 451 L S
878 451 M 878 469 L S
878 469 M 879 469 L S
879 469 M 879 472 L S
879 472 M 879 472 L S
879 472 M 880 472 L S
880 472 M 880 475 L S
880 475 M 880 476 L S
880 476 M 880 476 L S
880 476 M 881 474 L S
881 474 M 881 474 L S
881 474 M 881 474 L S
881 474 M 882 472 L S
882 472 M 882 472 L S
882 472 M 882 452 L S
882 452 M 882 452 L S
882 452 M 883 448 L S
883 448 M 883 448 L S
883 448 M 883 448 L S
883 448 M 884 447 L S
884 447 M 884 446 L S
884 446 M 884 446 L S
884 446 M 885 445 L S
885 445 M 885 445 L S
885 445 M 885 445 L S
885 445 M 885 444 L S
885 444 M 886 444 L S
886 444 M 886 439 L S
886 439 M 886 439 L S
886 439 M 887 438 L S
887 438 M 887 438 L S
887 438 M 887 438 L S
887 438 M 887 438 L S
887 438 M 888 437 L S
888 437 M 888 437 L S
888 437 M 888 437 L S
888 437 M 889 437 L S
889 437 M 889 437 L S
889 437 M 889 437 L S
889 437 M 890 437 L S
890 437 M 890 433 L S
890 433 M 890 433 L S
890 433 M 890 432 L S
890 432 M 891 432 L S
891 432 M 891 432 L S
891 432 M 891 432 L S
891 432 M 892 432 L S
892 432 M 892 431 L S
892 431 M 892 431 L S
892 431 M 892 431 L S
892 431 M 893 431 L S
893 431 M 893 431 L S
893 431 M 893 431 L S
893 431 M 894 428 L S
894 428 M 894 428 L S
894 428 M 894 428 L S
894 428 M 894 428 L S
894 428 M 895 428 L S
895 428 M 895 428 L S
895 428 M 895 428 L S
895 428 M 896 428 L S
896 428 M 896 428 L S
896 428 M 896 428 L S
896 428 M 897 427 L S
897 427 M 897 427 L S
897 427 M 897 426 L S
897 426 M 897 426 L S
897 426 M 898 426 L S
898 426 M 898 426 L S
898 426 M 898 426 L S
898 426 M 899 425 L S
899 425 M 899 425 L S
899 425 M 899 425 L S
899 425 M 899 424 L S
899 424 M 900 424 L S
900 424 M 900 424 L S
900 424 M 900 424 L S
900 424 M 901 418 L S
901 418 M 901 418 L S
901 418 M 901 417 L S
901 417 M 901 417 L S
901 417 M 902 417 L S
902 417 M 902 419 L S
902 419 M 902 419 L S
902 419 M 903 420 L S
903 420 M 903 420 L S
903 420 M 903 420 L S
903 420 M 904 422 L S
904 422 M 904 422 L S
904 422 M 904 435 L S
904 435 M 904 435 L S
904 435 M 905 437 L S
905 437 M 905 437 L S
905 437 M 905 438 L S
905 438 M 906 440 L S
906 440 M 906 440 L S
906 440 M 906 442 L S
906 442 M 906 443 L S
906 443 M 907 443 L S
907 443 M 907 445 L S
907 445 M 907 445 L S
907 445 M 908 466 L S
908 466 M 908 466 L S
908 466 M 908 469 L S
908 469 M 909 469 L S
909 469 M 909 471 L S
909 471 M 909 472 L S
909 472 M 909 472 L S
909 472 M 910 470 L S
910 470 M 910 470 L S
910 470 M 910 470 L S
910 470 M 911 468 L S
911 468 M 911 468 L S
911 468 M 911 454 L S
911 454 M 911 454 L S
911 454 M 912 452 L S
912 452 M 912 452 L S
912 452 M 912 451 L S
912 451 M 913 450 L S
913 450 M 913 450 L S
913 450 M 913 451 L S
913 451 M 913 451 L S
913 451 M 914 451 L S
914 451 M 914 451 L S
914 451 M 914 451 L S
914 451 M 915 455 L S
915 455 M 915 455 L S
915 455 M 915 456 L S
915 456 M 916 456 L S
916 456 M 916 457 L S
916 457 M 916 458 L S
916 458 M 916 458 L S
916 458 M 917 457 L S
917 457 M 917 457 L S
917 457 M 917 457 L S
917 457 M 918 455 L S
918 455 M 918 455 L S
918 455 M 918 442 L S
918 442 M 918 442 L S
918 442 M 919 440 L S
919 440 M 919 440 L S
919 440 M 919 440 L S
919 440 M 920 439 L S
920 439 M 920 438 L S
920 438 M 920 438 L S
920 438 M 921 438 L S
921 438 M 921 438 L S
921 438 M 921 437 L S
921 437 M 921 437 L S
921 437 M 922 432 L S
922 432 M 922 432 L S
922 432 M 922 431 L S
922 431 M 923 431 L S
923 431 M 923 431 L S
923 431 M 923 429 L S
923 429 M 923 429 L S
923 429 M 924 429 L S
924 429 M 924 429 L S
924 429 M 924 429 L S
924 429 M 925 429 L S
925 429 M 925 429 L S
925 429 M 925 426 L S
925 426 M 925 426 L S
925 426 M 926 426 L S
926 426 M 926 426 L S
926 426 M 926 425 L S
926 425 M 927 425 L S
927 425 M 927 425 L S
927 425 M 927 424 L S
927 424 M 928 424 L S
928 424 M 928 424 L S
928 424 M 928 423 L S
928 423 M 928 423 L S
928 423 M 929 415 L S
929 415 M 929 415 L S
929 415 M 929 414 L S
929 414 M 930 414 L S
930 414 M 930 413 L S
930 413 M 930 412 L S
930 412 M 930 412 L S
930 412 M 931 413 L S
931 413 M 931 414 L S
931 414 M 931 414 L S
931 414 M 932 415 L S
932 415 M 932 415 L S
932 415 M 932 424 L S
932 424 M 933 424 L S
933 424 M 933 426 L S
933 426 M 933 426 L S
933 426 M 933 427 L S
933 427 M 934 428 L S
934 428 M 934 428 L S
934 428 M 934 428 L S
934 428 M 935 428 L S
935 428 M 935 428 L S
935 428 M 935 429 L S
935 429 M 935 429 L S
935 429 M 936 436 L S
936 436 M 936 436 L S
936 436 M 936 437 L S
936 437 M 937 437 L S
937 437 M 937 437 L S
937 437 M 937 436 L S
937 436 M 937 436 L S
937 436 M 938 437 L S
938 437 M 938 437 L S
938 437 M 938 437 L S
938 437 M 939 437 L S
939 437 M 939 437 L S
939 437 M 939 442 L S
939 442 M 940 442 L S
940 442 M 940 443 L S
940 443 M 940 443 L S
940 443 M 940 443 L S
940 443 M 941 443 L S
941 443 M 941 444 L S
941 444 M 941 444 L S
941 444 M 942 446 L S
942 446 M 942 446 L S
942 446 M 942 446 L S
942 446 M 942 448 L S
942 448 M 943 448 L S
943 448 M 943 453 L S
943 453 M 943 453 L S
943 453 M 944 466 L S
944 466 M 944 466 L S
944 466 M 944 468 L S
944 468 M 945 470 L S
945 470 M 945 471 L S
945 471 M 945 471 L S
945 471 M 945 471 L S
945 471 M 946 471 L S
946 471 M 946 471 L S
946 471 M 946 477 L S
946 477 M 947 477 L S
947 477 M 947 478 L S
947 478 M 947 478 L S
947 478 M 947 478 L S
947 478 M 948 478 L S
948 478 M 948 481 L S
948 481 M 948 483 L S
948 483 M 949 483 L S
949 483 M 949 547 L S
949 547 M 949 547 L S
949 547 M 949 548 L S
949 548 M 950 548 L S
950 548 M 950 545 L S
950 545 M 950 545 L S
950 545 M 951 545 L S
951 545 M 951 534 L S
951 534 M 951 534 L S
951 534 M 952 515 L S
952 515 M 952 515 L S
952 515 M 952 462 L S
952 462 M 952 462 L S
952 462 M 953 462 L S
953 462 M 953 459 L S
953 459 M 953 453 L S
953 453 M 954 452 L S
954 452 M 954 450 L S
954 450 M 954 449 L S
954 449 M 954 449 L S
954 449 M 955 440 L S
955 440 M 955 440 L S
955 440 M 955 414 L S
955 414 M 956 414 L S
956 414 M 956 404 L S
956 404 M 956 404 L S
956 404 M 956 404 L S
956 404 M 957 402 L S
957 402 M 957 399 L S
957 399 M 957 399 L S
957 399 M 958 399 L S
958 399 M 958 399 L S
958 399 M 958 399 L S
958 399 M 959 396 L S
959 396 M 959 396 L S
959 396 M 959 396 L S
959 396 M 959 396 L S
959 396 M 960 389 L S
960 389 M 960 388 L S
960 388 M 960 384 L S
960 384 M 961 382 L S
961 382 M 961 382 L S
961 382 M 961 345 L S
961 345 M 961 345 L S
961 345 M 962 295 L S
962 295 M 962 282 L S
962 282 M 962 186 L S
962 186 M 963 186 L S
963 186 M 963 168 L S
963 168 M 963 168 L S
963 168 M 964 164 L S
964 164 M 964 164 L S
964 164 M 964 156 L S
964 156 M 964 164 L S
964 164 M 965 174 L S
965 174 M 965 174 L S
965 174 M 965 202 L S
965 202 M 966 202 L S
966 202 M 966 192 L S
966 192 M 966 192 L S
966 192 M 966 168 L S
966 168 M 967 157 L S
967 157 M 967 159 L S
967 159 M 967 159 L S
967 159 M 968 163 L S
968 163 M 968 163 L S
968 163 M 968 181 L S
968 181 M 968 181 L S
968 181 M 969 215 L S
969 215 M 969 215 L S
969 215 M 969 215 L S
969 215 M 970 233 L S
970 233 M 970 233 L S
970 233 M 970 233 L S
970 233 M 971 240 L S
971 240 M 971 240 L S
971 240 M 971 281 L S
971 281 M 971 281 L S
971 281 M 972 281 L S
972 281 M 972 281 L S
972 281 M 972 281 L S
/Courier-Bold findfont 27 scalefont setfont
101 764 M (Zgoubi|Zpop                                                                     ) H
101 743 M (26-01-2019                                                                      ) H
/Courier-Bold findfont 26 scalefont setfont
160 85 M (* # COORDINATES  - STORAGE FILE, 26-01-2019 18:39:28 *                                                                            ) H
293 755 M (   Y     (m)  vs.  lmnt#                                                                                                          ) H
26 42 M (Mi-ma H/V:    3.00      2.977E+03/ -2.452E-03  2.766E-03                                                                          ) H
26 21 M (Part#  1- 10000 (*); Lmnt#     1; pass#       1-      1, [    1];   2975 pnts                                                     ) H
showpage
