%!PS-Adobe-2.0 EPSF-2.0
%%Title: orbit_corrected_Z.eps
%%Titre: orbit_corrected_Z.eps
%%Creator: Fminigraf Library
%%BoundingBox: 20 40 567 457
%%EndComments
/offx 20 def
/offy 40 def
/lx 595 def
/ly 842 def
/maxx 1023 def
/maxy 779 def
/reduc 0.92 def
/coeff lx maxx div reduc mul def
offx offy translate
coeff coeff scale
1 setlinewidth newpath 0 0 moveto
/Courier-Bold findfont 32 scalefont setfont
/M {moveto} def
/L {lineto} def
/S {stroke} def
/H {show} def
/D {setdash} def
0 0 0 setrgbcolor
[] 0 D
[] 0 D
130 156 M 130 161 L S
130 456 M 130 466 L S
130 735 M 130 740 L S
160 156 M 160 161 L S
160 456 M 160 466 L S
160 735 M 160 740 L S
189 156 M 189 161 L S
189 456 M 189 466 L S
189 735 M 189 740 L S
218 156 M 218 161 L S
218 456 M 218 466 L S
218 735 M 218 740 L S
[2 3] 0 D
247 156 M 247 740 L S
[] 0 D
/Courier-Bold findfont 30 scalefont setfont
229 128 M (500) H
247 156 M 247 166 L S
247 451 M 247 471 L S
247 730 M 247 740 L S
277 156 M 277 161 L S
277 456 M 277 466 L S
277 735 M 277 740 L S
306 156 M 306 161 L S
306 456 M 306 466 L S
306 735 M 306 740 L S
335 156 M 335 161 L S
335 456 M 335 466 L S
335 735 M 335 740 L S
364 156 M 364 161 L S
364 456 M 364 466 L S
364 735 M 364 740 L S
[2 3] 0 D
394 156 M 394 740 L S
[] 0 D
370 128 M (1000) H
394 156 M 394 166 L S
394 451 M 394 471 L S
394 730 M 394 740 L S
423 156 M 423 161 L S
423 456 M 423 466 L S
423 735 M 423 740 L S
452 156 M 452 161 L S
452 456 M 452 466 L S
452 735 M 452 740 L S
481 156 M 481 161 L S
481 456 M 481 466 L S
481 735 M 481 740 L S
511 156 M 511 161 L S
511 456 M 511 466 L S
511 735 M 511 740 L S
[2 3] 0 D
540 156 M 540 740 L S
[] 0 D
516 128 M (1500) H
540 156 M 540 166 L S
540 451 M 540 471 L S
540 730 M 540 740 L S
569 156 M 569 161 L S
569 456 M 569 466 L S
569 735 M 569 740 L S
598 156 M 598 161 L S
598 456 M 598 466 L S
598 735 M 598 740 L S
628 156 M 628 161 L S
628 456 M 628 466 L S
628 735 M 628 740 L S
657 156 M 657 161 L S
657 456 M 657 466 L S
657 735 M 657 740 L S
[2 3] 0 D
686 156 M 686 740 L S
[] 0 D
662 128 M (2000) H
686 156 M 686 166 L S
686 451 M 686 471 L S
686 730 M 686 740 L S
715 156 M 715 161 L S
715 456 M 715 466 L S
715 735 M 715 740 L S
745 156 M 745 161 L S
745 456 M 745 466 L S
745 735 M 745 740 L S
774 156 M 774 161 L S
774 456 M 774 466 L S
774 735 M 774 740 L S
803 156 M 803 161 L S
803 456 M 803 466 L S
803 735 M 803 740 L S
[2 3] 0 D
832 156 M 832 740 L S
[] 0 D
808 128 M (2500) H
832 156 M 832 166 L S
832 451 M 832 471 L S
832 730 M 832 740 L S
862 156 M 862 161 L S
862 456 M 862 466 L S
862 735 M 862 740 L S
891 156 M 891 161 L S
891 456 M 891 466 L S
891 735 M 891 740 L S
920 156 M 920 161 L S
920 456 M 920 466 L S
920 735 M 920 740 L S
949 156 M 949 161 L S
949 456 M 949 466 L S
949 735 M 949 740 L S
102 173 M 107 173 L S
967 173 M 972 173 L S
102 195 M 107 195 L S
967 195 M 972 195 L S
102 217 M 107 217 L S
967 217 M 972 217 L S
[2 3] 0 D
102 239 M 972 239 L S
[] 0 D
21 229 M (-.002) H
102 239 M 112 239 L S
962 239 M 972 239 L S
102 262 M 107 262 L S
967 262 M 972 262 L S
102 284 M 107 284 L S
967 284 M 972 284 L S
102 306 M 107 306 L S
967 306 M 972 306 L S
102 328 M 107 328 L S
967 328 M 972 328 L S
[2 3] 0 D
102 351 M 972 351 L S
[] 0 D
21 341 M (-.001) H
102 351 M 112 351 L S
962 351 M 972 351 L S
102 373 M 107 373 L S
967 373 M 972 373 L S
102 395 M 107 395 L S
967 395 M 972 395 L S
102 417 M 107 417 L S
967 417 M 972 417 L S
102 440 M 107 440 L S
967 440 M 972 440 L S
[2 3] 0 D
102 462 M 972 462 L S
[] 0 D
33 452 M (0.0) H
102 462 M 112 462 L S
962 462 M 972 462 L S
102 484 M 107 484 L S
967 484 M 972 484 L S
102 507 M 107 507 L S
967 507 M 972 507 L S
102 529 M 107 529 L S
967 529 M 972 529 L S
102 551 M 107 551 L S
967 551 M 972 551 L S
[2 3] 0 D
102 573 M 972 573 L S
[] 0 D
21 563 M (0.001) H
102 573 M 112 573 L S
962 573 M 972 573 L S
102 596 M 107 596 L S
967 596 M 972 596 L S
102 618 M 107 618 L S
967 618 M 972 618 L S
102 640 M 107 640 L S
967 640 M 972 640 L S
102 662 M 107 662 L S
967 662 M 972 662 L S
[2 3] 0 D
102 685 M 972 685 L S
[] 0 D
21 675 M (0.002) H
102 685 M 112 685 L S
962 685 M 972 685 L S
102 707 M 107 707 L S
967 707 M 972 707 L S
102 729 M 107 729 L S
967 729 M 972 729 L S
[] 0 D
102 156 M 972 156 L S
972 156 M 972 740 L S
972 740 M 102 740 L S
102 740 M 102 156 L S
102 461 M 972 461 L S
[] 0 D
102 462 M 102 462 L S
102 462 M 102 462 L S
102 462 M 102 462 L S
102 462 M 103 462 L S
103 462 M 103 462 L S
103 462 M 103 462 L S
103 462 M 103 462 L S
103 462 M 104 462 L S
104 462 M 104 462 L S
104 462 M 104 469 L S
104 469 M 105 469 L S
105 469 M 105 470 L S
105 470 M 105 470 L S
105 470 M 106 470 L S
106 470 M 106 473 L S
106 473 M 106 473 L S
106 473 M 106 473 L S
106 473 M 107 475 L S
107 475 M 107 477 L S
107 477 M 107 479 L S
107 479 M 108 479 L S
108 479 M 108 482 L S
108 482 M 108 482 L S
108 482 M 108 483 L S
108 483 M 109 483 L S
109 483 M 109 483 L S
109 483 M 109 483 L S
109 483 M 110 482 L S
110 482 M 110 482 L S
110 482 M 110 481 L S
110 481 M 110 484 L S
110 484 M 111 488 L S
111 488 M 111 488 L S
111 488 M 111 490 L S
111 490 M 112 492 L S
112 492 M 112 492 L S
112 492 M 112 492 L S
112 492 M 113 492 L S
113 492 M 113 492 L S
113 492 M 113 491 L S
113 491 M 113 491 L S
113 491 M 114 477 L S
114 477 M 114 477 L S
114 477 M 114 473 L S
114 473 M 115 473 L S
115 473 M 115 473 L S
115 473 M 115 473 L S
115 473 M 115 473 L S
115 473 M 116 473 L S
116 473 M 116 473 L S
116 473 M 116 473 L S
116 473 M 117 473 L S
117 473 M 117 477 L S
117 477 M 117 477 L S
117 477 M 118 478 L S
118 478 M 118 478 L S
118 478 M 118 478 L S
118 478 M 118 478 L S
118 478 M 119 478 L S
119 478 M 119 478 L S
119 478 M 119 478 L S
119 478 M 120 476 L S
120 476 M 120 476 L S
120 476 M 120 467 L S
120 467 M 120 467 L S
120 467 M 121 466 L S
121 466 M 121 466 L S
121 466 M 121 465 L S
121 465 M 122 465 L S
122 465 M 122 465 L S
122 465 M 122 464 L S
122 464 M 122 463 L S
122 463 M 123 463 L S
123 463 M 123 463 L S
123 463 M 123 458 L S
123 458 M 124 458 L S
124 458 M 124 456 L S
124 456 M 124 456 L S
124 456 M 125 455 L S
125 455 M 125 455 L S
125 455 M 125 455 L S
125 455 M 125 455 L S
125 455 M 126 454 L S
126 454 M 126 454 L S
126 454 M 126 454 L S
126 454 M 127 454 L S
127 454 M 127 454 L S
127 454 M 127 454 L S
127 454 M 127 454 L S
127 454 M 128 454 L S
128 454 M 128 454 L S
128 454 M 128 453 L S
128 453 M 129 453 L S
129 453 M 129 453 L S
129 453 M 129 452 L S
129 452 M 129 452 L S
129 452 M 130 445 L S
130 445 M 130 445 L S
130 445 M 130 444 L S
130 444 M 131 444 L S
131 444 M 131 444 L S
131 444 M 131 444 L S
131 444 M 132 444 L S
132 444 M 132 444 L S
132 444 M 132 444 L S
132 444 M 132 445 L S
132 445 M 133 446 L S
133 446 M 133 446 L S
133 446 M 133 447 L S
133 447 M 134 447 L S
134 447 M 134 448 L S
134 448 M 134 449 L S
134 449 M 134 449 L S
134 449 M 135 450 L S
135 450 M 135 452 L S
135 452 M 135 452 L S
135 452 M 136 454 L S
136 454 M 136 454 L S
136 454 M 136 455 L S
136 455 M 137 455 L S
137 455 M 137 455 L S
137 455 M 137 456 L S
137 456 M 137 456 L S
137 456 M 138 457 L S
138 457 M 138 457 L S
138 457 M 138 457 L S
138 457 M 139 457 L S
139 457 M 139 458 L S
139 458 M 139 458 L S
139 458 M 139 462 L S
139 462 M 140 462 L S
140 462 M 140 462 L S
140 462 M 140 462 L S
140 462 M 141 462 L S
141 462 M 141 462 L S
141 462 M 141 462 L S
141 462 M 141 463 L S
141 463 M 142 463 L S
142 463 M 142 463 L S
142 463 M 142 463 L S
142 463 M 143 463 L S
143 463 M 143 463 L S
143 463 M 143 465 L S
143 465 M 144 465 L S
144 465 M 144 465 L S
144 465 M 144 465 L S
144 465 M 144 466 L S
144 466 M 145 466 L S
145 466 M 145 466 L S
145 466 M 145 466 L S
145 466 M 146 466 L S
146 466 M 146 466 L S
146 466 M 146 466 L S
146 466 M 146 467 L S
146 467 M 147 467 L S
147 467 M 147 472 L S
147 472 M 147 472 L S
147 472 M 148 473 L S
148 473 M 148 473 L S
148 473 M 148 473 L S
148 473 M 149 473 L S
149 473 M 149 474 L S
149 474 M 149 474 L S
149 474 M 149 473 L S
149 473 M 150 473 L S
150 473 M 150 473 L S
150 473 M 150 472 L S
150 472 M 151 472 L S
151 472 M 151 467 L S
151 467 M 151 467 L S
151 467 M 151 466 L S
151 466 M 152 466 L S
152 466 M 152 466 L S
152 466 M 152 466 L S
152 466 M 153 466 L S
153 466 M 153 465 L S
153 465 M 153 465 L S
153 465 M 153 465 L S
153 465 M 154 465 L S
154 465 M 154 465 L S
154 465 M 154 465 L S
154 465 M 155 462 L S
155 462 M 155 462 L S
155 462 M 155 462 L S
155 462 M 156 462 L S
156 462 M 156 462 L S
156 462 M 156 462 L S
156 462 M 156 462 L S
156 462 M 157 461 L S
157 461 M 157 460 L S
157 460 M 157 460 L S
157 460 M 158 460 L S
158 460 M 158 460 L S
158 460 M 158 460 L S
158 460 M 158 458 L S
158 458 M 159 458 L S
159 458 M 159 457 L S
159 457 M 159 457 L S
159 457 M 160 457 L S
160 457 M 160 457 L S
160 457 M 160 457 L S
160 457 M 161 457 L S
161 457 M 161 456 L S
161 456 M 161 456 L S
161 456 M 161 456 L S
161 456 M 162 455 L S
162 455 M 162 455 L S
162 455 M 162 449 L S
162 449 M 163 449 L S
163 449 M 163 448 L S
163 448 M 163 448 L S
163 448 M 163 448 L S
163 448 M 164 448 L S
164 448 M 164 448 L S
164 448 M 164 448 L S
164 448 M 165 450 L S
165 450 M 165 450 L S
165 450 M 165 450 L S
165 450 M 165 450 L S
165 450 M 166 450 L S
166 450 M 166 455 L S
166 455 M 166 455 L S
166 455 M 167 456 L S
167 456 M 167 456 L S
167 456 M 167 456 L S
167 456 M 168 456 L S
168 456 M 168 456 L S
168 456 M 168 456 L S
168 456 M 168 456 L S
168 456 M 169 456 L S
169 456 M 169 456 L S
169 456 M 169 456 L S
169 456 M 170 456 L S
170 456 M 170 456 L S
170 456 M 170 456 L S
170 456 M 170 456 L S
170 456 M 171 456 L S
171 456 M 171 456 L S
171 456 M 171 456 L S
171 456 M 172 456 L S
172 456 M 172 458 L S
172 458 M 172 459 L S
172 459 M 173 459 L S
173 459 M 173 460 L S
173 460 M 173 460 L S
173 460 M 173 467 L S
173 467 M 174 467 L S
174 467 M 174 468 L S
174 468 M 174 468 L S
174 468 M 175 468 L S
175 468 M 175 468 L S
175 468 M 175 468 L S
175 468 M 175 469 L S
175 469 M 176 470 L S
176 470 M 176 470 L S
176 470 M 176 472 L S
176 472 M 177 472 L S
177 472 M 177 485 L S
177 485 M 177 485 L S
177 485 M 177 486 L S
177 486 M 178 486 L S
178 486 M 178 486 L S
178 486 M 178 487 L S
178 487 M 179 487 L S
179 487 M 179 486 L S
179 486 M 179 484 L S
179 484 M 180 484 L S
180 484 M 180 482 L S
180 482 M 180 482 L S
180 482 M 180 470 L S
180 470 M 181 470 L S
181 470 M 181 469 L S
181 469 M 181 469 L S
181 469 M 182 468 L S
182 468 M 182 468 L S
182 468 M 182 467 L S
182 467 M 182 466 L S
182 466 M 183 466 L S
183 466 M 183 466 L S
183 466 M 183 465 L S
183 465 M 184 465 L S
184 465 M 184 457 L S
184 457 M 184 457 L S
184 457 M 184 456 L S
184 456 M 185 456 L S
185 456 M 185 456 L S
185 456 M 185 455 L S
185 455 M 186 455 L S
186 455 M 186 455 L S
186 455 M 186 455 L S
186 455 M 187 455 L S
187 455 M 187 456 L S
187 456 M 187 456 L S
187 456 M 187 459 L S
187 459 M 188 459 L S
188 459 M 188 459 L S
188 459 M 188 459 L S
188 459 M 189 459 L S
189 459 M 189 460 L S
189 460 M 189 460 L S
189 460 M 189 460 L S
189 460 M 190 460 L S
190 460 M 190 460 L S
190 460 M 190 460 L S
190 460 M 191 460 L S
191 460 M 191 461 L S
191 461 M 191 461 L S
191 461 M 192 461 L S
192 461 M 192 461 L S
192 461 M 192 461 L S
192 461 M 192 461 L S
192 461 M 193 461 L S
193 461 M 193 460 L S
193 460 M 193 459 L S
193 459 M 194 459 L S
194 459 M 194 459 L S
194 459 M 194 459 L S
194 459 M 194 460 L S
194 460 M 195 460 L S
195 460 M 195 460 L S
195 460 M 195 460 L S
195 460 M 196 461 L S
196 461 M 196 461 L S
196 461 M 196 461 L S
196 461 M 196 461 L S
196 461 M 197 461 L S
197 461 M 197 461 L S
197 461 M 197 461 L S
197 461 M 198 461 L S
198 461 M 198 460 L S
198 460 M 198 460 L S
198 460 M 199 460 L S
199 460 M 199 460 L S
199 460 M 199 460 L S
199 460 M 199 460 L S
199 460 M 200 460 L S
200 460 M 200 461 L S
200 461 M 200 462 L S
200 462 M 201 462 L S
201 462 M 201 463 L S
201 463 M 201 463 L S
201 463 M 201 468 L S
201 468 M 202 468 L S
202 468 M 202 468 L S
202 468 M 202 468 L S
202 468 M 203 468 L S
203 468 M 203 469 L S
203 469 M 203 469 L S
203 469 M 204 470 L S
204 470 M 204 470 L S
204 470 M 204 470 L S
204 470 M 204 472 L S
204 472 M 205 472 L S
205 472 M 205 483 L S
205 483 M 205 483 L S
205 483 M 206 484 L S
206 484 M 206 484 L S
206 484 M 206 484 L S
206 484 M 206 485 L S
206 485 M 207 485 L S
207 485 M 207 483 L S
207 483 M 207 481 L S
207 481 M 208 481 L S
208 481 M 208 480 L S
208 480 M 208 480 L S
208 480 M 208 469 L S
208 469 M 209 469 L S
209 469 M 209 468 L S
209 468 M 209 468 L S
209 468 M 210 467 L S
210 467 M 210 467 L S
210 467 M 210 466 L S
210 466 M 211 465 L S
211 465 M 211 465 L S
211 465 M 211 465 L S
211 465 M 211 464 L S
211 464 M 212 464 L S
212 464 M 212 456 L S
212 456 M 212 456 L S
212 456 M 213 456 L S
213 456 M 213 456 L S
213 456 M 213 456 L S
213 456 M 213 455 L S
213 455 M 214 455 L S
214 455 M 214 456 L S
214 456 M 214 457 L S
214 457 M 215 457 L S
215 457 M 215 458 L S
215 458 M 215 458 L S
215 458 M 216 463 L S
216 463 M 216 463 L S
216 463 M 216 463 L S
216 463 M 216 463 L S
216 463 M 217 464 L S
217 464 M 217 464 L S
217 464 M 217 464 L S
217 464 M 218 465 L S
218 465 M 218 465 L S
218 465 M 218 465 L S
218 465 M 218 465 L S
218 465 M 219 466 L S
219 466 M 219 466 L S
219 466 M 219 469 L S
219 469 M 220 469 L S
220 469 M 220 474 L S
220 474 M 220 474 L S
220 474 M 220 475 L S
220 475 M 221 475 L S
221 475 M 221 475 L S
221 475 M 221 475 L S
221 475 M 222 473 L S
222 473 M 222 473 L S
222 473 M 222 473 L S
222 473 M 223 471 L S
223 471 M 223 471 L S
223 471 M 223 454 L S
223 454 M 223 454 L S
223 454 M 224 451 L S
224 451 M 224 451 L S
224 451 M 224 451 L S
224 451 M 225 450 L S
225 450 M 225 448 L S
225 448 M 225 447 L S
225 447 M 225 447 L S
225 447 M 226 409 L S
226 409 M 226 409 L S
226 409 M 226 408 L S
226 408 M 227 407 L S
227 407 M 227 407 L S
227 407 M 227 407 L S
227 407 M 227 407 L S
227 407 M 228 411 L S
228 411 M 228 411 L S
228 411 M 228 419 L S
228 419 M 229 419 L S
229 419 M 229 441 L S
229 441 M 229 441 L S
229 441 M 230 441 L S
230 441 M 230 443 L S
230 443 M 230 445 L S
230 445 M 230 445 L S
230 445 M 231 445 L S
231 445 M 231 445 L S
231 445 M 231 445 L S
231 445 M 232 446 L S
232 446 M 232 446 L S
232 446 M 232 450 L S
232 450 M 232 450 L S
232 450 M 233 451 L S
233 451 M 233 451 L S
233 451 M 233 451 L S
233 451 M 234 452 L S
234 452 M 234 454 L S
234 454 M 234 454 L S
234 454 M 235 454 L S
235 454 M 235 454 L S
235 454 M 235 454 L S
235 454 M 235 456 L S
235 456 M 236 456 L S
236 456 M 236 456 L S
236 456 M 236 456 L S
236 456 M 237 456 L S
237 456 M 237 456 L S
237 456 M 237 455 L S
237 455 M 237 455 L S
237 455 M 238 455 L S
238 455 M 238 452 L S
238 452 M 238 452 L S
238 452 M 239 439 L S
239 439 M 239 439 L S
239 439 M 239 438 L S
239 438 M 239 438 L S
239 438 M 240 438 L S
240 438 M 240 438 L S
240 438 M 240 438 L S
240 438 M 241 442 L S
241 442 M 241 444 L S
241 444 M 241 444 L S
241 444 M 242 448 L S
242 448 M 242 455 L S
242 455 M 242 455 L S
242 455 M 242 455 L S
242 455 M 243 456 L S
243 456 M 243 457 L S
243 457 M 243 456 L S
243 456 M 244 456 L S
244 456 M 244 456 L S
244 456 M 244 456 L S
244 456 M 244 453 L S
244 453 M 245 453 L S
245 453 M 245 448 L S
245 448 M 245 448 L S
245 448 M 246 448 L S
246 448 M 246 445 L S
246 445 M 246 445 L S
246 445 M 247 445 L S
247 445 M 247 444 L S
247 444 M 247 444 L S
247 444 M 247 438 L S
247 438 M 248 438 L S
248 438 M 248 432 L S
248 432 M 248 432 L S
248 432 M 249 431 L S
249 431 M 249 431 L S
249 431 M 249 431 L S
249 431 M 249 429 L S
249 429 M 250 429 L S
250 429 M 250 429 L S
250 429 M 250 424 L S
250 424 M 251 424 L S
251 424 M 251 421 L S
251 421 M 251 421 L S
251 421 M 251 420 L S
251 420 M 252 420 L S
252 420 M 252 420 L S
252 420 M 252 417 L S
252 417 M 253 412 L S
253 412 M 253 412 L S
253 412 M 253 411 L S
253 411 M 254 416 L S
254 416 M 254 423 L S
254 423 M 254 423 L S
254 423 M 254 425 L S
254 425 M 255 431 L S
255 431 M 255 432 L S
255 432 M 255 432 L S
255 432 M 256 433 L S
256 433 M 256 433 L S
256 433 M 256 435 L S
256 435 M 256 435 L S
256 435 M 257 437 L S
257 437 M 257 438 L S
257 438 M 257 449 L S
257 449 M 258 450 L S
258 450 M 258 456 L S
258 456 M 258 457 L S
258 457 M 259 458 L S
259 458 M 259 458 L S
259 458 M 259 468 L S
259 468 M 259 468 L S
259 468 M 260 475 L S
260 475 M 260 475 L S
260 475 M 260 476 L S
260 476 M 261 477 L S
261 477 M 261 477 L S
261 477 M 261 479 L S
261 479 M 261 479 L S
261 479 M 262 479 L S
262 479 M 262 479 L S
262 479 M 262 470 L S
262 470 M 263 470 L S
263 470 M 263 470 L S
263 470 M 263 469 L S
263 469 M 263 468 L S
263 468 M 264 466 L S
264 466 M 264 466 L S
264 466 M 264 466 L S
264 466 M 265 466 L S
265 466 M 265 462 L S
265 462 M 265 462 L S
265 462 M 266 452 L S
266 452 M 266 452 L S
266 452 M 266 449 L S
266 449 M 266 449 L S
266 449 M 267 449 L S
267 449 M 267 448 L S
267 448 M 267 447 L S
267 447 M 268 446 L S
268 446 M 268 445 L S
268 445 M 268 445 L S
268 445 M 268 445 L S
268 445 M 269 454 L S
269 454 M 269 454 L S
269 454 M 269 457 L S
269 457 M 270 457 L S
270 457 M 270 459 L S
270 459 M 270 459 L S
270 459 M 271 459 L S
271 459 M 271 459 L S
271 459 M 271 460 L S
271 460 M 271 460 L S
271 460 M 272 460 L S
272 460 M 272 472 L S
272 472 M 272 472 L S
272 472 M 273 472 L S
273 472 M 273 472 L S
273 472 M 273 472 L S
273 472 M 273 472 L S
273 472 M 274 472 L S
274 472 M 274 472 L S
274 472 M 274 472 L S
274 472 M 275 472 L S
275 472 M 275 472 L S
275 472 M 275 471 L S
275 471 M 275 471 L S
275 471 M 276 471 L S
276 471 M 276 471 L S
276 471 M 276 472 L S
276 472 M 277 472 L S
277 472 M 277 472 L S
277 472 M 277 473 L S
277 473 M 278 473 L S
278 473 M 278 478 L S
278 478 M 278 478 L S
278 478 M 278 481 L S
278 481 M 279 481 L S
279 481 M 279 482 L S
279 482 M 279 482 L S
279 482 M 280 482 L S
280 482 M 280 481 L S
280 481 M 280 479 L S
280 479 M 280 479 L S
280 479 M 281 478 L S
281 478 M 281 478 L S
281 478 M 281 478 L S
281 478 M 282 477 L S
282 477 M 282 477 L S
282 477 M 282 469 L S
282 469 M 282 469 L S
282 469 M 283 467 L S
283 467 M 283 467 L S
283 467 M 283 467 L S
283 467 M 284 467 L S
284 467 M 284 466 L S
284 466 M 284 466 L S
284 466 M 285 466 L S
285 466 M 285 466 L S
285 466 M 285 466 L S
285 466 M 285 465 L S
285 465 M 286 465 L S
286 465 M 286 461 L S
286 461 M 286 461 L S
286 461 M 287 460 L S
287 460 M 287 460 L S
287 460 M 287 460 L S
287 460 M 287 461 L S
287 461 M 288 462 L S
288 462 M 288 462 L S
288 462 M 288 462 L S
288 462 M 289 462 L S
289 462 M 289 462 L S
289 462 M 289 462 L S
289 462 M 290 462 L S
290 462 M 290 459 L S
290 459 M 290 459 L S
290 459 M 290 459 L S
290 459 M 291 459 L S
291 459 M 291 459 L S
291 459 M 291 458 L S
291 458 M 292 458 L S
292 458 M 292 458 L S
292 458 M 292 457 L S
292 457 M 292 457 L S
292 457 M 293 457 L S
293 457 M 293 457 L S
293 457 M 293 457 L S
293 457 M 294 451 L S
294 451 M 294 451 L S
294 451 M 294 450 L S
294 450 M 294 450 L S
294 450 M 295 450 L S
295 450 M 295 451 L S
295 451 M 295 452 L S
295 452 M 296 452 L S
296 452 M 296 453 L S
296 453 M 296 453 L S
296 453 M 297 453 L S
297 453 M 297 454 L S
297 454 M 297 454 L S
297 454 M 297 459 L S
297 459 M 298 459 L S
298 459 M 298 460 L S
298 460 M 298 460 L S
298 460 M 299 460 L S
299 460 M 299 460 L S
299 460 M 299 460 L S
299 460 M 299 461 L S
299 461 M 300 461 L S
300 461 M 300 461 L S
300 461 M 300 461 L S
300 461 M 301 461 L S
301 461 M 301 461 L S
301 461 M 301 465 L S
301 465 M 302 465 L S
302 465 M 302 466 L S
302 466 M 302 466 L S
302 466 M 302 466 L S
302 466 M 303 465 L S
303 465 M 303 465 L S
303 465 M 303 465 L S
303 465 M 304 465 L S
304 465 M 304 466 L S
304 466 M 304 466 L S
304 466 M 304 466 L S
304 466 M 305 466 L S
305 466 M 305 474 L S
305 474 M 305 474 L S
305 474 M 306 475 L S
306 475 M 306 475 L S
306 475 M 306 475 L S
306 475 M 306 475 L S
306 475 M 307 477 L S
307 477 M 307 477 L S
307 477 M 307 479 L S
307 479 M 308 479 L S
308 479 M 308 479 L S
308 479 M 308 481 L S
308 481 M 309 481 L S
309 481 M 309 501 L S
309 501 M 309 501 L S
309 501 M 309 504 L S
309 504 M 310 504 L S
310 504 M 310 504 L S
310 504 M 310 504 L S
310 504 M 311 503 L S
311 503 M 311 502 L S
311 502 M 311 501 L S
311 501 M 311 500 L S
311 500 M 312 500 L S
312 500 M 312 498 L S
312 498 M 312 498 L S
312 498 M 313 478 L S
313 478 M 313 478 L S
313 478 M 313 475 L S
313 475 M 314 475 L S
314 475 M 314 474 L S
314 474 M 314 472 L S
314 472 M 314 472 L S
314 472 M 315 471 L S
315 471 M 315 470 L S
315 470 M 315 470 L S
315 470 M 316 469 L S
316 469 M 316 469 L S
316 469 M 316 458 L S
316 458 M 316 458 L S
316 458 M 317 456 L S
317 456 M 317 456 L S
317 456 M 317 458 L S
317 458 M 318 459 L S
318 459 M 318 459 L S
318 459 M 318 459 L S
318 459 M 318 459 L S
318 459 M 319 459 L S
319 459 M 319 459 L S
319 459 M 319 459 L S
319 459 M 320 462 L S
320 462 M 320 462 L S
320 462 M 320 462 L S
320 462 M 321 462 L S
321 462 M 321 462 L S
321 462 M 321 463 L S
321 463 M 321 463 L S
321 463 M 322 463 L S
322 463 M 322 463 L S
322 463 M 322 463 L S
322 463 M 323 463 L S
323 463 M 323 463 L S
323 463 M 323 466 L S
323 466 M 323 466 L S
323 466 M 324 466 L S
324 466 M 324 466 L S
324 466 M 324 465 L S
324 465 M 325 463 L S
325 463 M 325 463 L S
325 463 M 325 463 L S
325 463 M 325 463 L S
325 463 M 326 463 L S
326 463 M 326 463 L S
326 463 M 326 463 L S
326 463 M 327 462 L S
327 462 M 327 462 L S
327 462 M 327 461 L S
327 461 M 328 461 L S
328 461 M 328 461 L S
328 461 M 328 461 L S
328 461 M 328 461 L S
328 461 M 329 461 L S
329 461 M 329 461 L S
329 461 M 329 461 L S
329 461 M 330 461 L S
330 461 M 330 461 L S
330 461 M 330 459 L S
330 459 M 330 459 L S
330 459 M 331 459 L S
331 459 M 331 459 L S
331 459 M 331 461 L S
331 461 M 332 463 L S
332 463 M 332 463 L S
332 463 M 332 464 L S
332 464 M 333 464 L S
333 464 M 333 464 L S
333 464 M 333 465 L S
333 465 M 333 465 L S
333 465 M 334 471 L S
334 471 M 334 471 L S
334 471 M 334 472 L S
334 472 M 335 472 L S
335 472 M 335 473 L S
335 473 M 335 474 L S
335 474 M 335 474 L S
335 474 M 336 476 L S
336 476 M 336 476 L S
336 476 M 336 476 L S
336 476 M 337 478 L S
337 478 M 337 478 L S
337 478 M 337 495 L S
337 495 M 337 495 L S
337 495 M 338 497 L S
338 497 M 338 497 L S
338 497 M 338 498 L S
338 498 M 339 498 L S
339 498 M 339 498 L S
339 498 M 339 497 L S
339 497 M 340 496 L S
340 496 M 340 496 L S
340 496 M 340 494 L S
340 494 M 340 494 L S
340 494 M 341 476 L S
341 476 M 341 476 L S
341 476 M 341 473 L S
341 473 M 342 473 L S
342 473 M 342 472 L S
342 472 M 342 470 L S
342 470 M 342 470 L S
342 470 M 343 469 L S
343 469 M 343 469 L S
343 469 M 343 469 L S
343 469 M 344 468 L S
344 468 M 344 468 L S
344 468 M 344 458 L S
344 458 M 345 458 L S
345 458 M 345 456 L S
345 456 M 345 456 L S
345 456 M 345 455 L S
345 455 M 346 454 L S
346 454 M 346 454 L S
346 454 M 346 454 L S
346 454 M 347 454 L S
347 454 M 347 454 L S
347 454 M 347 455 L S
347 455 M 347 455 L S
347 455 M 348 460 L S
348 460 M 348 460 L S
348 460 M 348 460 L S
348 460 M 349 460 L S
349 460 M 349 461 L S
349 461 M 349 461 L S
349 461 M 349 461 L S
349 461 M 350 461 L S
350 461 M 350 462 L S
350 462 M 350 462 L S
350 462 M 351 462 L S
351 462 M 351 462 L S
351 462 M 351 466 L S
351 466 M 352 466 L S
352 466 M 352 466 L S
352 466 M 352 466 L S
352 466 M 352 466 L S
352 466 M 353 465 L S
353 465 M 353 465 L S
353 465 M 353 465 L S
353 465 M 354 464 L S
354 464 M 354 464 L S
354 464 M 354 464 L S
354 464 M 354 464 L S
354 464 M 355 462 L S
355 462 M 355 462 L S
355 462 M 355 462 L S
355 462 M 356 462 L S
356 462 M 356 462 L S
356 462 M 356 462 L S
356 462 M 357 462 L S
357 462 M 357 462 L S
357 462 M 357 462 L S
357 462 M 357 462 L S
357 462 M 358 461 L S
358 461 M 358 461 L S
358 461 M 358 459 L S
358 459 M 359 459 L S
359 459 M 359 459 L S
359 459 M 359 459 L S
359 459 M 359 459 L S
359 459 M 360 460 L S
360 460 M 360 462 L S
360 462 M 360 462 L S
360 462 M 361 462 L S
361 462 M 361 462 L S
361 462 M 361 462 L S
361 462 M 361 463 L S
361 463 M 362 463 L S
362 463 M 362 465 L S
362 465 M 362 465 L S
362 465 M 363 470 L S
363 470 M 363 470 L S
363 470 M 363 471 L S
363 471 M 364 472 L S
364 472 M 364 473 L S
364 473 M 364 473 L S
364 473 M 364 473 L S
364 473 M 365 476 L S
365 476 M 365 476 L S
365 476 M 365 490 L S
365 490 M 366 490 L S
366 490 M 366 493 L S
366 493 M 366 493 L S
366 493 M 366 493 L S
366 493 M 367 494 L S
367 494 M 367 495 L S
367 495 M 367 495 L S
367 495 M 368 495 L S
368 495 M 368 486 L S
368 486 M 368 486 L S
368 486 M 368 486 L S
368 486 M 369 486 L S
369 486 M 369 486 L S
369 486 M 369 476 L S
369 476 M 370 476 L S
370 476 M 370 476 L S
370 476 M 370 475 L S
370 475 M 371 475 L S
371 475 M 371 475 L S
371 475 M 371 475 L S
371 475 M 371 475 L S
371 475 M 372 475 L S
372 475 M 372 474 L S
372 474 M 372 474 L S
372 474 M 373 473 L S
373 473 M 373 473 L S
373 473 M 373 473 L S
373 473 M 373 473 L S
373 473 M 374 474 L S
374 474 M 374 474 L S
374 474 M 374 474 L S
374 474 M 375 474 L S
375 474 M 375 474 L S
375 474 M 375 473 L S
375 473 M 376 473 L S
376 473 M 376 469 L S
376 469 M 376 469 L S
376 469 M 376 468 L S
376 468 M 377 468 L S
377 468 M 377 468 L S
377 468 M 377 468 L S
377 468 M 378 468 L S
378 468 M 378 468 L S
378 468 M 378 468 L S
378 468 M 378 468 L S
378 468 M 379 468 L S
379 468 M 379 469 L S
379 469 M 379 469 L S
379 469 M 380 469 L S
380 469 M 380 468 L S
380 468 M 380 467 L S
380 467 M 380 467 L S
380 467 M 381 468 L S
381 468 M 381 468 L S
381 468 M 381 468 L S
381 468 M 382 478 L S
382 478 M 382 479 L S
382 479 M 382 480 L S
382 480 M 383 482 L S
383 482 M 383 484 L S
383 484 M 383 485 L S
383 485 M 383 486 L S
383 486 M 384 488 L S
384 488 M 384 489 L S
384 489 M 384 490 L S
384 490 M 385 490 L S
385 490 M 385 491 L S
385 491 M 385 493 L S
385 493 M 385 494 L S
385 494 M 386 496 L S
386 496 M 386 497 L S
386 497 M 386 499 L S
386 499 M 387 500 L S
387 500 M 387 501 L S
387 501 M 387 502 L S
387 502 M 388 502 L S
388 502 M 388 502 L S
388 502 M 388 502 L S
388 502 M 388 514 L S
388 514 M 389 514 L S
389 514 M 389 515 L S
389 515 M 389 515 L S
389 515 M 390 516 L S
390 516 M 390 525 L S
390 525 M 390 529 L S
390 529 M 390 529 L S
390 529 M 391 539 L S
391 539 M 391 536 L S
391 536 M 391 531 L S
391 531 M 392 531 L S
392 531 M 392 523 L S
392 523 M 392 516 L S
392 516 M 392 515 L S
392 515 M 393 515 L S
393 515 M 393 512 L S
393 512 M 393 512 L S
393 512 M 394 503 L S
394 503 M 394 503 L S
394 503 M 394 484 L S
394 484 M 395 484 L S
395 484 M 395 484 L S
395 484 M 395 474 L S
395 474 M 395 474 L S
395 474 M 396 474 L S
396 474 M 396 470 L S
396 470 M 396 470 L S
396 470 M 397 458 L S
397 458 M 397 458 L S
397 458 M 397 456 L S
397 456 M 397 456 L S
397 456 M 398 454 L S
398 454 M 398 454 L S
398 454 M 398 447 L S
398 447 M 399 447 L S
399 447 M 399 440 L S
399 440 M 399 440 L S
399 440 M 400 438 L S
400 438 M 400 438 L S
400 438 M 400 436 L S
400 436 M 400 436 L S
400 436 M 401 425 L S
401 425 M 401 425 L S
401 425 M 401 421 L S
401 421 M 402 421 L S
402 421 M 402 421 L S
402 421 M 402 411 L S
402 411 M 402 411 L S
402 411 M 403 411 L S
403 411 M 403 392 L S
403 392 M 403 392 L S
403 392 M 404 382 L S
404 382 M 404 382 L S
404 382 M 404 380 L S
404 380 M 404 380 L S
404 380 M 405 379 L S
405 379 M 405 378 L S
405 378 M 405 379 L S
405 379 M 406 379 L S
406 379 M 406 380 L S
406 380 M 406 355 L S
406 355 M 407 333 L S
407 333 M 407 333 L S
407 333 M 407 324 L S
407 324 M 407 309 L S
407 309 M 408 311 L S
408 311 M 408 311 L S
408 311 M 408 312 L S
408 312 M 409 312 L S
409 312 M 409 319 L S
409 319 M 409 323 L S
409 323 M 409 323 L S
409 323 M 410 327 L S
410 327 M 410 327 L S
410 327 M 410 331 L S
410 331 M 411 332 L S
411 332 M 411 335 L S
411 335 M 411 336 L S
411 336 M 412 340 L S
412 340 M 412 343 L S
412 343 M 412 343 L S
412 343 M 412 358 L S
412 358 M 413 358 L S
413 358 M 413 392 L S
413 392 M 413 394 L S
413 394 M 414 424 L S
414 424 M 414 424 L S
414 424 M 414 425 L S
414 425 M 414 428 L S
414 428 M 415 428 L S
415 428 M 415 431 L S
415 431 M 415 431 L S
415 431 M 416 431 L S
416 431 M 416 431 L S
416 431 M 416 426 L S
416 426 M 416 426 L S
416 426 M 417 425 L S
417 425 M 417 425 L S
417 425 M 417 425 L S
417 425 M 418 428 L S
418 428 M 418 431 L S
418 431 M 418 431 L S
418 431 M 419 431 L S
419 431 M 419 437 L S
419 437 M 419 437 L S
419 437 M 419 464 L S
419 464 M 420 464 L S
420 464 M 420 469 L S
420 469 M 420 469 L S
420 469 M 421 469 L S
421 469 M 421 472 L S
421 472 M 421 472 L S
421 472 M 421 477 L S
421 477 M 422 479 L S
422 479 M 422 479 L S
422 479 M 422 479 L S
422 479 M 423 517 L S
423 517 M 423 517 L S
423 517 M 423 531 L S
423 531 M 423 531 L S
423 531 M 424 538 L S
424 538 M 424 538 L S
424 538 M 424 538 L S
424 538 M 425 540 L S
425 540 M 425 540 L S
425 540 M 425 539 L S
425 539 M 426 539 L S
426 539 M 426 496 L S
426 496 M 426 496 L S
426 496 M 426 495 L S
426 495 M 427 492 L S
427 492 M 427 492 L S
427 492 M 427 492 L S
427 492 M 428 492 L S
428 492 M 428 491 L S
428 491 M 428 491 L S
428 491 M 428 485 L S
428 485 M 429 485 L S
429 485 M 429 484 L S
429 484 M 429 484 L S
429 484 M 430 484 L S
430 484 M 430 484 L S
430 484 M 430 484 L S
430 484 M 431 484 L S
431 484 M 431 484 L S
431 484 M 431 479 L S
431 479 M 431 479 L S
431 479 M 432 478 L S
432 478 M 432 478 L S
432 478 M 432 477 L S
432 477 M 433 477 L S
433 477 M 433 477 L S
433 477 M 433 477 L S
433 477 M 433 476 L S
433 476 M 434 477 L S
434 477 M 434 477 L S
434 477 M 434 477 L S
434 477 M 435 477 L S
435 477 M 435 478 L S
435 478 M 435 478 L S
435 478 M 435 485 L S
435 485 M 436 485 L S
436 485 M 436 486 L S
436 486 M 436 486 L S
436 486 M 437 486 L S
437 486 M 437 487 L S
437 487 M 437 487 L S
437 487 M 438 487 L S
438 487 M 438 486 L S
438 486 M 438 486 L S
438 486 M 438 486 L S
438 486 M 439 484 L S
439 484 M 439 484 L S
439 484 M 439 470 L S
439 470 M 440 470 L S
440 470 M 440 468 L S
440 468 M 440 468 L S
440 468 M 440 468 L S
440 468 M 441 466 L S
441 466 M 441 466 L S
441 466 M 441 465 L S
441 465 M 442 464 L S
442 464 M 442 464 L S
442 464 M 442 464 L S
442 464 M 443 462 L S
443 462 M 443 462 L S
443 462 M 443 451 L S
443 451 M 443 451 L S
443 451 M 444 450 L S
444 450 M 444 450 L S
444 450 M 444 449 L S
444 449 M 445 448 L S
445 448 M 445 448 L S
445 448 M 445 449 L S
445 449 M 445 451 L S
445 451 M 446 451 L S
446 451 M 446 451 L S
446 451 M 446 451 L S
446 451 M 447 451 L S
447 451 M 447 452 L S
447 452 M 447 452 L S
447 452 M 447 452 L S
447 452 M 448 452 L S
448 452 M 448 452 L S
448 452 M 448 452 L S
448 452 M 449 452 L S
449 452 M 449 452 L S
449 452 M 449 451 L S
449 451 M 450 451 L S
450 451 M 450 451 L S
450 451 M 450 450 L S
450 450 M 450 450 L S
450 450 M 451 442 L S
451 442 M 451 442 L S
451 442 M 451 441 L S
451 441 M 452 441 L S
452 441 M 452 441 L S
452 441 M 452 440 L S
452 440 M 452 440 L S
452 440 M 453 439 L S
453 439 M 453 439 L S
453 439 M 453 439 L S
453 439 M 454 439 L S
454 439 M 454 442 L S
454 442 M 454 442 L S
454 442 M 455 455 L S
455 455 M 455 455 L S
455 455 M 455 457 L S
455 457 M 455 457 L S
455 457 M 456 457 L S
456 457 M 456 458 L S
456 458 M 456 458 L S
456 458 M 457 460 L S
457 460 M 457 460 L S
457 460 M 457 460 L S
457 460 M 457 460 L S
457 460 M 458 462 L S
458 462 M 458 462 L S
458 462 M 458 473 L S
458 473 M 459 473 L S
459 473 M 459 475 L S
459 475 M 459 475 L S
459 475 M 459 475 L S
459 475 M 460 476 L S
460 476 M 460 476 L S
460 476 M 460 478 L S
460 478 M 461 479 L S
461 479 M 461 479 L S
461 479 M 461 479 L S
461 479 M 462 479 L S
462 479 M 462 479 L S
462 479 M 462 477 L S
462 477 M 462 477 L S
462 477 M 463 477 L S
463 477 M 463 477 L S
463 477 M 463 477 L S
463 477 M 464 477 L S
464 477 M 464 477 L S
464 477 M 464 478 L S
464 478 M 464 478 L S
464 478 M 465 478 L S
465 478 M 465 478 L S
465 478 M 465 480 L S
465 480 M 466 480 L S
466 480 M 466 492 L S
466 492 M 466 492 L S
466 492 M 466 493 L S
466 493 M 467 493 L S
467 493 M 467 493 L S
467 493 M 467 494 L S
467 494 M 468 494 L S
468 494 M 468 493 L S
468 493 M 468 491 L S
468 491 M 469 491 L S
469 491 M 469 489 L S
469 489 M 469 489 L S
469 489 M 469 473 L S
469 473 M 470 473 L S
470 473 M 470 471 L S
470 471 M 470 471 L S
470 471 M 471 471 L S
471 471 M 471 469 L S
471 469 M 471 469 L S
471 469 M 471 467 L S
471 467 M 472 467 L S
472 467 M 472 467 L S
472 467 M 472 465 L S
472 465 M 473 465 L S
473 465 M 473 454 L S
473 454 M 473 454 L S
473 454 M 474 453 L S
474 453 M 474 453 L S
474 453 M 474 453 L S
474 453 M 474 452 L S
474 452 M 475 452 L S
475 452 M 475 452 L S
475 452 M 475 453 L S
475 453 M 476 453 L S
476 453 M 476 453 L S
476 453 M 476 453 L S
476 453 M 476 452 L S
476 452 M 477 452 L S
477 452 M 477 452 L S
477 452 M 477 452 L S
477 452 M 478 452 L S
478 452 M 478 452 L S
478 452 M 478 452 L S
478 452 M 478 451 L S
478 451 M 479 450 L S
479 450 M 479 450 L S
479 450 M 479 449 L S
479 449 M 480 449 L S
480 449 M 480 439 L S
480 439 M 480 439 L S
480 439 M 481 438 L S
481 438 M 481 438 L S
481 438 M 481 438 L S
481 438 M 481 437 L S
481 437 M 482 437 L S
482 437 M 482 435 L S
482 435 M 482 435 L S
482 435 M 483 435 L S
483 435 M 483 437 L S
483 437 M 483 437 L S
483 437 M 483 452 L S
483 452 M 484 452 L S
484 452 M 484 453 L S
484 453 M 484 453 L S
484 453 M 485 454 L S
485 454 M 485 455 L S
485 455 M 485 455 L S
485 455 M 486 457 L S
486 457 M 486 457 L S
486 457 M 486 457 L S
486 457 M 486 459 L S
486 459 M 487 459 L S
487 459 M 487 468 L S
487 468 M 487 468 L S
487 468 M 488 469 L S
488 469 M 488 469 L S
488 469 M 488 469 L S
488 469 M 488 470 L S
488 470 M 489 470 L S
489 470 M 489 470 L S
489 470 M 489 468 L S
489 468 M 490 468 L S
490 468 M 490 469 L S
490 469 M 490 469 L S
490 469 M 490 474 L S
490 474 M 491 474 L S
491 474 M 491 474 L S
491 474 M 491 474 L S
491 474 M 492 475 L S
492 475 M 492 475 L S
492 475 M 492 475 L S
492 475 M 493 476 L S
493 476 M 493 477 L S
493 477 M 493 477 L S
493 477 M 493 480 L S
493 480 M 494 480 L S
494 480 M 494 496 L S
494 496 M 494 496 L S
494 496 M 495 498 L S
495 498 M 495 498 L S
495 498 M 495 498 L S
495 498 M 495 500 L S
495 500 M 496 500 L S
496 500 M 496 501 L S
496 501 M 496 501 L S
496 501 M 497 501 L S
497 501 M 497 497 L S
497 497 M 497 497 L S
497 497 M 498 476 L S
498 476 M 498 476 L S
498 476 M 498 474 L S
498 474 M 498 474 L S
498 474 M 499 474 L S
499 474 M 499 472 L S
499 472 M 499 472 L S
499 472 M 500 470 L S
500 470 M 500 469 L S
500 469 M 500 469 L S
500 469 M 500 467 L S
500 467 M 501 467 L S
501 467 M 501 453 L S
501 453 M 501 453 L S
501 453 M 502 452 L S
502 452 M 502 452 L S
502 452 M 502 451 L S
502 451 M 502 450 L S
502 450 M 503 450 L S
503 450 M 503 450 L S
503 450 M 503 450 L S
503 450 M 504 450 L S
504 450 M 504 451 L S
504 451 M 504 451 L S
504 451 M 505 452 L S
505 452 M 505 452 L S
505 452 M 505 453 L S
505 453 M 505 453 L S
505 453 M 506 453 L S
506 453 M 506 453 L S
506 453 M 506 453 L S
506 453 M 507 453 L S
507 453 M 507 452 L S
507 452 M 507 452 L S
507 452 M 507 451 L S
507 451 M 508 451 L S
508 451 M 508 445 L S
508 445 M 508 445 L S
508 445 M 509 444 L S
509 444 M 509 444 L S
509 444 M 509 444 L S
509 444 M 510 444 L S
510 444 M 510 444 L S
510 444 M 510 445 L S
510 445 M 510 448 L S
510 448 M 511 448 L S
511 448 M 511 449 L S
511 449 M 511 449 L S
511 449 M 512 458 L S
512 458 M 512 458 L S
512 458 M 512 459 L S
512 459 M 512 459 L S
512 459 M 513 459 L S
513 459 M 513 460 L S
513 460 M 513 460 L S
513 460 M 514 461 L S
514 461 M 514 461 L S
514 461 M 514 461 L S
514 461 M 514 461 L S
514 461 M 515 462 L S
515 462 M 515 462 L S
515 462 M 515 465 L S
515 465 M 516 465 L S
516 465 M 516 471 L S
516 471 M 516 471 L S
516 471 M 517 471 L S
517 471 M 517 471 L S
517 471 M 517 472 L S
517 472 M 517 474 L S
517 474 M 518 475 L S
518 475 M 518 475 L S
518 475 M 518 475 L S
518 475 M 519 478 L S
519 478 M 519 478 L S
519 478 M 519 497 L S
519 497 M 519 497 L S
519 497 M 520 500 L S
520 500 M 520 500 L S
520 500 M 520 500 L S
520 500 M 521 501 L S
521 501 M 521 506 L S
521 506 M 521 507 L S
521 507 M 521 507 L S
521 507 M 522 580 L S
522 580 M 522 580 L S
522 580 M 522 581 L S
522 581 M 523 581 L S
523 581 M 523 577 L S
523 577 M 523 577 L S
523 577 M 524 577 L S
524 577 M 524 568 L S
524 568 M 524 568 L S
524 568 M 524 552 L S
524 552 M 525 552 L S
525 552 M 525 506 L S
525 506 M 525 506 L S
525 506 M 526 506 L S
526 506 M 526 502 L S
526 502 M 526 498 L S
526 498 M 526 498 L S
526 498 M 527 497 L S
527 497 M 527 497 L S
527 497 M 527 497 L S
527 497 M 528 496 L S
528 496 M 528 496 L S
528 496 M 528 488 L S
528 488 M 529 488 L S
529 488 M 529 486 L S
529 486 M 529 486 L S
529 486 M 529 486 L S
529 486 M 530 486 L S
530 486 M 530 484 L S
530 484 M 530 483 L S
530 483 M 531 479 L S
531 479 M 531 478 L S
531 478 M 531 478 L S
531 478 M 531 455 L S
531 455 M 532 455 L S
532 455 M 532 455 L S
532 455 M 532 452 L S
532 452 M 533 440 L S
533 440 M 533 439 L S
533 439 M 533 433 L S
533 433 M 533 431 L S
533 431 M 534 431 L S
534 431 M 534 375 L S
534 375 M 534 178 L S
534 178 M 535 178 L S
535 178 M 535 165 L S
535 165 M 535 165 L S
535 165 M 536 161 L S
536 161 M 536 161 L S
536 161 M 536 156 L S
536 156 M 536 172 L S
536 172 M 537 184 L S
537 184 M 537 184 L S
537 184 M 537 217 L S
537 217 M 538 221 L S
538 221 M 538 211 L S
538 211 M 538 211 L S
538 211 M 538 186 L S
538 186 M 539 175 L S
539 175 M 539 176 L S
539 176 M 539 176 L S
539 176 M 540 182 L S
540 182 M 540 182 L S
540 182 M 540 202 L S
540 202 M 541 202 L S
541 202 M 541 242 L S
541 242 M 541 242 L S
541 242 M 541 242 L S
541 242 M 542 264 L S
542 264 M 542 264 L S
542 264 M 542 264 L S
542 264 M 543 272 L S
543 272 M 543 272 L S
543 272 M 543 320 L S
543 320 M 543 320 L S
543 320 M 544 320 L S
544 320 M 544 329 L S
544 329 M 544 331 L S
544 331 M 545 368 L S
545 368 M 545 368 L S
545 368 M 545 376 L S
545 376 M 545 376 L S
545 376 M 546 376 L S
546 376 M 546 397 L S
546 397 M 546 397 L S
546 397 M 547 397 L S
547 397 M 547 438 L S
547 438 M 547 438 L S
547 438 M 548 458 L S
548 458 M 548 458 L S
548 458 M 548 464 L S
548 464 M 548 464 L S
548 464 M 549 466 L S
549 466 M 549 474 L S
549 474 M 549 482 L S
549 482 M 550 482 L S
550 482 M 550 485 L S
550 485 M 550 491 L S
550 491 M 550 488 L S
550 488 M 551 488 L S
551 488 M 551 487 L S
551 487 M 551 485 L S
551 485 M 552 485 L S
552 485 M 552 485 L S
552 485 M 552 485 L S
552 485 M 553 485 L S
553 485 M 553 486 L S
553 486 M 553 486 L S
553 486 M 553 487 L S
553 487 M 554 489 L S
554 489 M 554 493 L S
554 493 M 554 493 L S
554 493 M 555 494 L S
555 494 M 555 494 L S
555 494 M 555 495 L S
555 495 M 555 495 L S
555 495 M 556 495 L S
556 495 M 556 495 L S
556 495 M 556 495 L S
556 495 M 557 496 L S
557 496 M 557 496 L S
557 496 M 557 496 L S
557 496 M 557 493 L S
557 493 M 558 491 L S
558 491 M 558 491 L S
558 491 M 558 491 L S
558 491 M 559 476 L S
559 476 M 559 476 L S
559 476 M 559 475 L S
559 475 M 560 472 L S
560 472 M 560 472 L S
560 472 M 560 469 L S
560 469 M 560 467 L S
560 467 M 561 467 L S
561 467 M 561 467 L S
561 467 M 561 460 L S
561 460 M 562 460 L S
562 460 M 562 443 L S
562 443 M 562 443 L S
562 443 M 562 437 L S
562 437 M 563 437 L S
563 437 M 563 437 L S
563 437 M 563 435 L S
563 435 M 564 435 L S
564 435 M 564 434 L S
564 434 M 564 435 L S
564 435 M 564 435 L S
564 435 M 565 435 L S
565 435 M 565 439 L S
565 439 M 565 439 L S
565 439 M 566 440 L S
566 440 M 566 440 L S
566 440 M 566 441 L S
566 441 M 567 441 L S
567 441 M 567 441 L S
567 441 M 567 441 L S
567 441 M 567 441 L S
567 441 M 568 441 L S
568 441 M 568 441 L S
568 441 M 568 424 L S
568 424 M 569 424 L S
569 424 M 569 424 L S
569 424 M 569 424 L S
569 424 M 569 425 L S
569 425 M 570 425 L S
570 425 M 570 425 L S
570 425 M 570 429 L S
570 429 M 571 429 L S
571 429 M 571 450 L S
571 450 M 571 450 L S
571 450 M 572 453 L S
572 453 M 572 453 L S
572 453 M 572 453 L S
572 453 M 572 455 L S
572 455 M 573 457 L S
573 457 M 573 457 L S
573 457 M 573 458 L S
573 458 M 574 459 L S
574 459 M 574 459 L S
574 459 M 574 471 L S
574 471 M 574 471 L S
574 471 M 575 476 L S
575 476 M 575 476 L S
575 476 M 575 479 L S
575 479 M 576 479 L S
576 479 M 576 479 L S
576 479 M 576 480 L S
576 480 M 576 482 L S
576 482 M 577 482 L S
577 482 M 577 482 L S
577 482 M 577 482 L S
577 482 M 578 482 L S
578 482 M 578 482 L S
578 482 M 578 482 L S
578 482 M 579 479 L S
579 479 M 579 479 L S
579 479 M 579 479 L S
579 479 M 579 479 L S
579 479 M 580 479 L S
580 479 M 580 479 L S
580 479 M 580 479 L S
580 479 M 581 480 L S
581 480 M 581 481 L S
581 481 M 581 481 L S
581 481 M 581 481 L S
581 481 M 582 482 L S
582 482 M 582 482 L S
582 482 M 582 495 L S
582 495 M 583 495 L S
583 495 M 583 497 L S
583 497 M 583 497 L S
583 497 M 584 497 L S
584 497 M 584 498 L S
584 498 M 584 498 L S
584 498 M 584 497 L S
584 497 M 585 496 L S
585 496 M 585 495 L S
585 495 M 585 495 L S
585 495 M 586 493 L S
586 493 M 586 493 L S
586 493 M 586 471 L S
586 471 M 586 471 L S
586 471 M 587 468 L S
587 468 M 587 468 L S
587 468 M 587 468 L S
587 468 M 588 466 L S
588 466 M 588 464 L S
588 464 M 588 464 L S
588 464 M 588 462 L S
588 462 M 589 462 L S
589 462 M 589 462 L S
589 462 M 589 460 L S
589 460 M 590 460 L S
590 460 M 590 441 L S
590 441 M 590 441 L S
590 441 M 591 437 L S
591 437 M 591 437 L S
591 437 M 591 437 L S
591 437 M 591 437 L S
591 437 M 592 437 L S
592 437 M 592 437 L S
592 437 M 592 438 L S
592 438 M 593 438 L S
593 438 M 593 438 L S
593 438 M 593 439 L S
593 439 M 593 439 L S
593 439 M 594 444 L S
594 444 M 594 444 L S
594 444 M 594 445 L S
594 445 M 595 445 L S
595 445 M 595 445 L S
595 445 M 595 446 L S
595 446 M 596 445 L S
596 445 M 596 445 L S
596 445 M 596 445 L S
596 445 M 596 444 L S
596 444 M 597 444 L S
597 444 M 597 444 L S
597 444 M 597 444 L S
597 444 M 598 435 L S
598 435 M 598 435 L S
598 435 M 598 434 L S
598 434 M 598 434 L S
598 434 M 599 434 L S
599 434 M 599 432 L S
599 432 M 599 432 L S
599 432 M 600 432 L S
600 432 M 600 433 L S
600 433 M 600 434 L S
600 434 M 600 434 L S
600 434 M 601 436 L S
601 436 M 601 436 L S
601 436 M 601 454 L S
601 454 M 602 454 L S
602 454 M 602 457 L S
602 457 M 602 457 L S
602 457 M 603 457 L S
603 457 M 603 459 L S
603 459 M 603 461 L S
603 461 M 603 461 L S
603 461 M 604 462 L S
604 462 M 604 462 L S
604 462 M 604 462 L S
604 462 M 605 464 L S
605 464 M 605 464 L S
605 464 M 605 481 L S
605 481 M 605 481 L S
605 481 M 606 483 L S
606 483 M 606 483 L S
606 483 M 606 483 L S
606 483 M 607 484 L S
607 484 M 607 485 L S
607 485 M 607 485 L S
607 485 M 608 484 L S
608 484 M 608 484 L S
608 484 M 608 484 L S
608 484 M 608 484 L S
608 484 M 609 484 L S
609 484 M 609 480 L S
609 480 M 609 480 L S
609 480 M 610 479 L S
610 479 M 610 479 L S
610 479 M 610 479 L S
610 479 M 610 479 L S
610 479 M 611 479 L S
611 479 M 611 480 L S
611 480 M 611 480 L S
611 480 M 612 480 L S
612 480 M 612 481 L S
612 481 M 612 481 L S
612 481 M 612 491 L S
612 491 M 613 491 L S
613 491 M 613 493 L S
613 493 M 613 493 L S
613 493 M 614 493 L S
614 493 M 614 493 L S
614 493 M 614 492 L S
614 492 M 615 491 L S
615 491 M 615 490 L S
615 490 M 615 490 L S
615 490 M 615 489 L S
615 489 M 616 489 L S
616 489 M 616 470 L S
616 470 M 616 470 L S
616 470 M 617 467 L S
617 467 M 617 467 L S
617 467 M 617 466 L S
617 466 M 617 464 L S
617 464 M 618 464 L S
618 464 M 618 462 L S
618 462 M 618 462 L S
618 462 M 619 462 L S
619 462 M 619 460 L S
619 460 M 619 460 L S
619 460 M 619 444 L S
619 444 M 620 444 L S
620 444 M 620 442 L S
620 442 M 620 442 L S
620 442 M 621 441 L S
621 441 M 621 440 L S
621 440 M 621 440 L S
621 440 M 622 440 L S
622 440 M 622 441 L S
622 441 M 622 441 L S
622 441 M 622 441 L S
622 441 M 623 441 L S
623 441 M 623 445 L S
623 445 M 623 445 L S
623 445 M 624 446 L S
624 446 M 624 446 L S
624 446 M 624 446 L S
624 446 M 624 446 L S
624 446 M 625 446 L S
625 446 M 625 445 L S
625 445 M 625 445 L S
625 445 M 626 445 L S
626 445 M 626 444 L S
626 444 M 626 444 L S
626 444 M 627 435 L S
627 435 M 627 435 L S
627 435 M 627 433 L S
627 433 M 627 433 L S
627 433 M 628 432 L S
628 432 M 628 432 L S
628 432 M 628 432 L S
628 432 M 629 434 L S
629 434 M 629 434 L S
629 434 M 629 434 L S
629 434 M 629 436 L S
629 436 M 630 436 L S
630 436 M 630 454 L S
630 454 M 630 454 L S
630 454 M 631 457 L S
631 457 M 631 457 L S
631 457 M 631 458 L S
631 458 M 631 460 L S
631 460 M 632 460 L S
632 460 M 632 461 L S
632 461 M 632 461 L S
632 461 M 633 461 L S
633 461 M 633 463 L S
633 463 M 633 463 L S
633 463 M 634 478 L S
634 478 M 634 478 L S
634 478 M 634 481 L S
634 481 M 634 481 L S
634 481 M 635 483 L S
635 483 M 635 485 L S
635 485 M 635 485 L S
635 485 M 636 484 L S
636 484 M 636 484 L S
636 484 M 636 484 L S
636 484 M 636 484 L S
636 484 M 637 484 L S
637 484 M 637 478 L S
637 478 M 637 478 L S
637 478 M 638 477 L S
638 477 M 638 477 L S
638 477 M 638 477 L S
638 477 M 639 477 L S
639 477 M 639 477 L S
639 477 M 639 477 L S
639 477 M 639 478 L S
639 478 M 640 478 L S
640 478 M 640 478 L S
640 478 M 640 478 L S
640 478 M 641 485 L S
641 485 M 641 485 L S
641 485 M 641 486 L S
641 486 M 641 486 L S
641 486 M 642 488 L S
642 488 M 642 489 L S
642 489 M 642 489 L S
642 489 M 643 488 L S
643 488 M 643 487 L S
643 487 M 643 487 L S
643 487 M 643 486 L S
643 486 M 644 486 L S
644 486 M 644 470 L S
644 470 M 644 470 L S
644 470 M 645 468 L S
645 468 M 645 468 L S
645 468 M 645 467 L S
645 467 M 646 465 L S
646 465 M 646 465 L S
646 465 M 646 464 L S
646 464 M 646 464 L S
646 464 M 647 464 L S
647 464 M 647 463 L S
647 463 M 647 463 L S
647 463 M 648 451 L S
648 451 M 648 451 L S
648 451 M 648 449 L S
648 449 M 648 449 L S
648 449 M 649 450 L S
649 450 M 649 450 L S
649 450 M 649 450 L S
649 450 M 650 450 L S
650 450 M 650 450 L S
650 450 M 650 450 L S
650 450 M 651 450 L S
651 450 M 651 450 L S
651 450 M 651 449 L S
651 449 M 651 449 L S
651 449 M 652 448 L S
652 448 M 652 448 L S
652 448 M 652 448 L S
652 448 M 653 447 L S
653 447 M 653 447 L S
653 447 M 653 446 L S
653 446 M 653 446 L S
653 446 M 654 446 L S
654 446 M 654 444 L S
654 444 M 654 444 L S
654 444 M 655 431 L S
655 431 M 655 431 L S
655 431 M 655 429 L S
655 429 M 655 429 L S
655 429 M 656 429 L S
656 429 M 656 429 L S
656 429 M 656 429 L S
656 429 M 657 429 L S
657 429 M 657 430 L S
657 430 M 657 430 L S
657 430 M 658 430 L S
658 430 M 658 431 L S
658 431 M 658 431 L S
658 431 M 658 433 L S
658 433 M 659 433 L S
659 433 M 659 438 L S
659 438 M 659 438 L S
659 438 M 660 439 L S
660 439 M 660 439 L S
660 439 M 660 438 L S
660 438 M 660 438 L S
660 438 M 661 438 L S
661 438 M 661 436 L S
661 436 M 661 436 L S
661 436 M 662 425 L S
662 425 M 662 425 L S
662 425 M 662 423 L S
662 423 M 662 423 L S
662 423 M 663 423 L S
663 423 M 663 423 L S
663 423 M 663 424 L S
663 424 M 664 425 L S
664 425 M 664 425 L S
664 425 M 664 460 L S
664 460 M 665 460 L S
665 460 M 665 461 L S
665 461 M 665 464 L S
665 464 M 665 465 L S
665 465 M 666 465 L S
666 465 M 666 465 L S
666 465 M 666 470 L S
666 470 M 667 470 L S
667 470 M 667 478 L S
667 478 M 667 478 L S
667 478 M 667 500 L S
667 500 M 668 500 L S
668 500 M 668 500 L S
668 500 M 668 501 L S
668 501 M 669 501 L S
669 501 M 669 501 L S
669 501 M 669 499 L S
669 499 M 670 499 L S
670 499 M 670 499 L S
670 499 M 670 493 L S
670 493 M 670 493 L S
670 493 M 671 477 L S
671 477 M 671 477 L S
671 477 M 671 471 L S
671 471 M 672 471 L S
672 471 M 672 471 L S
672 471 M 672 469 L S
672 469 M 672 467 L S
672 467 M 673 467 L S
673 467 M 673 466 L S
673 466 M 673 465 L S
673 465 M 674 465 L S
674 465 M 674 458 L S
674 458 M 674 458 L S
674 458 M 674 458 L S
674 458 M 675 457 L S
675 457 M 675 456 L S
675 456 M 675 456 L S
675 456 M 676 456 L S
676 456 M 676 456 L S
676 456 M 676 456 L S
676 456 M 677 450 L S
677 450 M 677 450 L S
677 450 M 677 449 L S
677 449 M 677 449 L S
677 449 M 678 449 L S
678 449 M 678 449 L S
678 449 M 678 449 L S
678 449 M 679 447 L S
679 447 M 679 447 L S
679 447 M 679 447 L S
679 447 M 679 444 L S
679 444 M 680 448 L S
680 448 M 680 450 L S
680 450 M 680 450 L S
680 450 M 681 455 L S
681 455 M 681 462 L S
681 462 M 681 463 L S
681 463 M 682 463 L S
682 463 M 682 467 L S
682 467 M 682 467 L S
682 467 M 682 483 L S
682 483 M 683 483 L S
683 483 M 683 514 L S
683 514 M 683 514 L S
683 514 M 684 514 L S
684 514 M 684 531 L S
684 531 M 684 531 L S
684 531 M 684 531 L S
684 531 M 685 537 L S
685 537 M 685 537 L S
685 537 M 685 574 L S
685 574 M 686 574 L S
686 574 M 686 611 L S
686 611 M 686 611 L S
686 611 M 686 617 L S
686 617 M 687 617 L S
687 617 M 687 617 L S
687 617 M 687 634 L S
687 634 M 688 634 L S
688 634 M 688 634 L S
688 634 M 688 665 L S
688 665 M 689 665 L S
689 665 M 689 681 L S
689 681 M 689 681 L S
689 681 M 689 685 L S
689 685 M 690 685 L S
690 685 M 690 686 L S
690 686 M 690 677 L S
690 677 M 691 657 L S
691 657 M 691 657 L S
691 657 M 691 648 L S
691 648 M 691 649 L S
691 649 M 692 674 L S
692 674 M 692 674 L S
692 674 M 692 682 L S
692 682 M 693 697 L S
693 697 M 693 694 L S
693 694 M 693 694 L S
693 694 M 694 692 L S
694 692 M 694 692 L S
694 692 M 694 681 L S
694 681 M 694 681 L S
694 681 M 695 674 L S
695 674 M 695 663 L S
695 663 M 695 659 L S
695 659 M 696 656 L S
696 656 M 696 645 L S
696 645 M 696 634 L S
696 634 M 696 621 L S
696 621 M 697 609 L S
697 609 M 697 594 L S
697 594 M 697 576 L S
697 576 M 698 566 L S
698 566 M 698 564 L S
698 564 M 698 521 L S
698 521 M 698 517 L S
698 517 M 699 513 L S
699 513 M 699 508 L S
699 508 M 699 485 L S
699 485 M 700 485 L S
700 485 M 700 484 L S
700 484 M 700 480 L S
700 480 M 701 479 L S
701 479 M 701 469 L S
701 469 M 701 467 L S
701 467 M 701 467 L S
701 467 M 702 467 L S
702 467 M 702 448 L S
702 448 M 702 448 L S
702 448 M 703 447 L S
703 447 M 703 444 L S
703 444 M 703 444 L S
703 444 M 703 441 L S
703 441 M 704 440 L S
704 440 M 704 440 L S
704 440 M 704 440 L S
704 440 M 705 437 L S
705 437 M 705 437 L S
705 437 M 705 422 L S
705 422 M 706 422 L S
706 422 M 706 420 L S
706 420 M 706 420 L S
706 420 M 706 419 L S
706 419 M 707 417 L S
707 417 M 707 417 L S
707 417 M 707 411 L S
707 411 M 708 407 L S
708 407 M 708 407 L S
708 407 M 708 407 L S
708 407 M 708 342 L S
708 342 M 709 342 L S
709 342 M 709 319 L S
709 319 M 709 319 L S
709 319 M 710 306 L S
710 306 M 710 306 L S
710 306 M 710 306 L S
710 306 M 710 302 L S
710 302 M 711 301 L S
711 301 M 711 303 L S
711 303 M 711 303 L S
711 303 M 712 401 L S
712 401 M 712 401 L S
712 401 M 712 403 L S
712 403 M 713 409 L S
713 409 M 713 411 L S
713 411 M 713 411 L S
713 411 M 713 411 L S
713 411 M 714 415 L S
714 415 M 714 415 L S
714 415 M 714 441 L S
714 441 M 715 441 L S
715 441 M 715 446 L S
715 446 M 715 446 L S
715 446 M 715 446 L S
715 446 M 716 447 L S
716 447 M 716 449 L S
716 449 M 716 451 L S
716 451 M 717 451 L S
717 451 M 717 461 L S
717 461 M 717 461 L S
717 461 M 717 466 L S
717 466 M 718 466 L S
718 466 M 718 467 L S
718 467 M 718 467 L S
718 467 M 719 467 L S
719 467 M 719 468 L S
719 468 M 719 469 L S
719 469 M 720 470 L S
720 470 M 720 472 L S
720 472 M 720 472 L S
720 472 M 720 472 L S
720 472 M 721 475 L S
721 475 M 721 475 L S
721 475 M 721 494 L S
721 494 M 722 494 L S
722 494 M 722 497 L S
722 497 M 722 497 L S
722 497 M 722 497 L S
722 497 M 723 499 L S
723 499 M 723 499 L S
723 499 M 723 499 L S
723 499 M 724 499 L S
724 499 M 724 499 L S
724 499 M 724 499 L S
724 499 M 725 496 L S
725 496 M 725 496 L S
725 496 M 725 483 L S
725 483 M 725 483 L S
725 483 M 726 481 L S
726 481 M 726 481 L S
726 481 M 726 481 L S
726 481 M 727 480 L S
727 480 M 727 480 L S
727 480 M 727 479 L S
727 479 M 727 479 L S
727 479 M 728 479 L S
728 479 M 728 479 L S
728 479 M 728 479 L S
728 479 M 729 479 L S
729 479 M 729 481 L S
729 481 M 729 481 L S
729 481 M 729 481 L S
729 481 M 730 481 L S
730 481 M 730 481 L S
730 481 M 730 481 L S
730 481 M 731 481 L S
731 481 M 731 481 L S
731 481 M 731 481 L S
731 481 M 732 481 L S
732 481 M 732 481 L S
732 481 M 732 478 L S
732 478 M 732 478 L S
732 478 M 733 463 L S
733 463 M 733 463 L S
733 463 M 733 461 L S
733 461 M 734 461 L S
734 461 M 734 461 L S
734 461 M 734 460 L S
734 460 M 734 459 L S
734 459 M 735 458 L S
735 458 M 735 456 L S
735 456 M 735 456 L S
735 456 M 736 456 L S
736 456 M 736 453 L S
736 453 M 736 453 L S
736 453 M 737 435 L S
737 435 M 737 435 L S
737 435 M 737 433 L S
737 433 M 737 433 L S
737 433 M 738 433 L S
738 433 M 738 431 L S
738 431 M 738 431 L S
738 431 M 739 430 L S
739 430 M 739 430 L S
739 430 M 739 430 L S
739 430 M 739 430 L S
739 430 M 740 432 L S
740 432 M 740 432 L S
740 432 M 740 445 L S
740 445 M 741 445 L S
741 445 M 741 446 L S
741 446 M 741 446 L S
741 446 M 741 446 L S
741 446 M 742 447 L S
742 447 M 742 447 L S
742 447 M 742 448 L S
742 448 M 743 448 L S
743 448 M 743 448 L S
743 448 M 743 448 L S
743 448 M 744 448 L S
744 448 M 744 448 L S
744 448 M 744 448 L S
744 448 M 744 448 L S
744 448 M 745 448 L S
745 448 M 745 448 L S
745 448 M 745 448 L S
745 448 M 746 448 L S
746 448 M 746 448 L S
746 448 M 746 449 L S
746 449 M 746 449 L S
746 449 M 747 449 L S
747 449 M 747 449 L S
747 449 M 747 451 L S
747 451 M 748 451 L S
748 451 M 748 465 L S
748 465 M 748 465 L S
748 465 M 749 466 L S
749 466 M 749 466 L S
749 466 M 749 466 L S
749 466 M 749 468 L S
749 468 M 750 468 L S
750 468 M 750 470 L S
750 470 M 750 471 L S
750 471 M 751 471 L S
751 471 M 751 471 L S
751 471 M 751 474 L S
751 474 M 751 474 L S
751 474 M 752 493 L S
752 493 M 752 493 L S
752 493 M 752 495 L S
752 495 M 753 495 L S
753 495 M 753 496 L S
753 496 M 753 497 L S
753 497 M 753 498 L S
753 498 M 754 496 L S
754 496 M 754 494 L S
754 494 M 754 494 L S
754 494 M 755 492 L S
755 492 M 755 492 L S
755 492 M 755 480 L S
755 480 M 756 480 L S
756 480 M 756 479 L S
756 479 M 756 479 L S
756 479 M 756 479 L S
756 479 M 757 478 L S
757 478 M 757 477 L S
757 477 M 757 477 L S
757 477 M 758 477 L S
758 477 M 758 477 L S
758 477 M 758 477 L S
758 477 M 758 477 L S
758 477 M 759 478 L S
759 478 M 759 478 L S
759 478 M 759 478 L S
759 478 M 760 478 L S
760 478 M 760 478 L S
760 478 M 760 478 L S
760 478 M 760 478 L S
760 478 M 761 477 L S
761 477 M 761 476 L S
761 476 M 761 476 L S
761 476 M 762 474 L S
762 474 M 762 474 L S
762 474 M 762 463 L S
762 463 M 763 463 L S
763 463 M 763 462 L S
763 462 M 763 462 L S
763 462 M 763 461 L S
763 461 M 764 460 L S
764 460 M 764 460 L S
764 460 M 764 459 L S
764 459 M 765 458 L S
765 458 M 765 458 L S
765 458 M 765 456 L S
765 456 M 765 456 L S
765 456 M 766 443 L S
766 443 M 766 443 L S
766 443 M 766 441 L S
766 441 M 767 441 L S
767 441 M 767 441 L S
767 441 M 767 440 L S
767 440 M 768 440 L S
768 440 M 768 440 L S
768 440 M 768 441 L S
768 441 M 768 441 L S
768 441 M 769 442 L S
769 442 M 769 442 L S
769 442 M 769 448 L S
769 448 M 770 448 L S
770 448 M 770 448 L S
770 448 M 770 448 L S
770 448 M 770 449 L S
770 449 M 771 449 L S
771 449 M 771 449 L S
771 449 M 771 449 L S
771 449 M 772 449 L S
772 449 M 772 449 L S
772 449 M 772 448 L S
772 448 M 772 448 L S
772 448 M 773 443 L S
773 443 M 773 443 L S
773 443 M 773 442 L S
773 442 M 774 442 L S
774 442 M 774 442 L S
774 442 M 774 441 L S
774 441 M 775 441 L S
775 441 M 775 442 L S
775 442 M 775 443 L S
775 443 M 775 443 L S
775 443 M 776 446 L S
776 446 M 776 446 L S
776 446 M 776 463 L S
776 463 M 777 463 L S
777 463 M 777 465 L S
777 465 M 777 465 L S
777 465 M 777 465 L S
777 465 M 778 467 L S
778 467 M 778 467 L S
778 467 M 778 469 L S
778 469 M 779 470 L S
779 470 M 779 470 L S
779 470 M 779 474 L S
779 474 M 780 474 L S
780 474 M 780 496 L S
780 496 M 780 496 L S
780 496 M 780 498 L S
780 498 M 781 498 L S
781 498 M 781 499 L S
781 499 M 781 500 L S
781 500 M 782 501 L S
782 501 M 782 502 L S
782 502 M 782 502 L S
782 502 M 782 502 L S
782 502 M 783 499 L S
783 499 M 783 499 L S
783 499 M 783 483 L S
783 483 M 784 483 L S
784 483 M 784 481 L S
784 481 M 784 481 L S
784 481 M 784 481 L S
784 481 M 785 480 L S
785 480 M 785 479 L S
785 479 M 785 478 L S
785 478 M 786 478 L S
786 478 M 786 478 L S
786 478 M 786 478 L S
786 478 M 787 478 L S
787 478 M 787 476 L S
787 476 M 787 476 L S
787 476 M 787 476 L S
787 476 M 788 476 L S
788 476 M 788 476 L S
788 476 M 788 475 L S
788 475 M 789 475 L S
789 475 M 789 475 L S
789 475 M 789 475 L S
789 475 M 789 475 L S
789 475 M 790 473 L S
790 473 M 790 473 L S
790 473 M 790 462 L S
790 462 M 791 462 L S
791 462 M 791 460 L S
791 460 M 791 460 L S
791 460 M 792 460 L S
792 460 M 792 459 L S
792 459 M 792 459 L S
792 459 M 792 458 L S
792 458 M 793 457 L S
793 457 M 793 457 L S
793 457 M 793 454 L S
793 454 M 794 454 L S
794 454 M 794 439 L S
794 439 M 794 439 L S
794 439 M 794 438 L S
794 438 M 795 438 L S
795 438 M 795 437 L S
795 437 M 795 436 L S
795 436 M 796 436 L S
796 436 M 796 435 L S
796 435 M 796 434 L S
796 434 M 796 434 L S
796 434 M 797 436 L S
797 436 M 797 436 L S
797 436 M 797 443 L S
797 443 M 798 443 L S
798 443 M 798 444 L S
798 444 M 798 444 L S
798 444 M 799 444 L S
799 444 M 799 445 L S
799 445 M 799 445 L S
799 445 M 799 445 L S
799 445 M 800 445 L S
800 445 M 800 445 L S
800 445 M 800 445 L S
800 445 M 801 444 L S
801 444 M 801 444 L S
801 444 M 801 441 L S
801 441 M 801 441 L S
801 441 M 802 436 L S
802 436 M 802 436 L S
802 436 M 802 436 L S
802 436 M 803 435 L S
803 435 M 803 435 L S
803 435 M 803 437 L S
803 437 M 803 439 L S
803 439 M 804 439 L S
804 439 M 804 439 L S
804 439 M 804 442 L S
804 442 M 805 442 L S
805 442 M 805 458 L S
805 458 M 805 458 L S
805 458 M 806 460 L S
806 460 M 806 460 L S
806 460 M 806 460 L S
806 460 M 806 461 L S
806 461 M 807 463 L S
807 463 M 807 464 L S
807 464 M 807 464 L S
807 464 M 808 475 L S
808 475 M 808 475 L S
808 475 M 808 475 L S
808 475 M 808 475 L S
808 475 M 809 475 L S
809 475 M 809 486 L S
809 486 M 809 486 L S
809 486 M 810 486 L S
810 486 M 810 486 L S
810 486 M 810 485 L S
810 485 M 811 485 L S
811 485 M 811 485 L S
811 485 M 811 484 L S
811 484 M 811 484 L S
811 484 M 812 484 L S
812 484 M 812 484 L S
812 484 M 812 482 L S
812 482 M 813 482 L S
813 482 M 813 482 L S
813 482 M 813 482 L S
813 482 M 813 483 L S
813 483 M 814 484 L S
814 484 M 814 485 L S
814 485 M 814 486 L S
814 486 M 815 486 L S
815 486 M 815 489 L S
815 489 M 815 489 L S
815 489 M 815 511 L S
815 511 M 816 511 L S
816 511 M 816 515 L S
816 515 M 816 515 L S
816 515 M 817 515 L S
817 515 M 817 517 L S
817 517 M 817 518 L S
817 518 M 818 517 L S
818 517 M 818 515 L S
818 515 M 818 514 L S
818 514 M 818 514 L S
818 514 M 819 500 L S
819 500 M 819 500 L S
819 500 M 819 500 L S
819 500 M 820 498 L S
820 498 M 820 498 L S
820 498 M 820 498 L S
820 498 M 820 500 L S
820 500 M 821 500 L S
821 500 M 821 500 L S
821 500 M 821 509 L S
821 509 M 822 562 L S
822 562 M 822 564 L S
822 564 M 822 564 L S
822 564 M 823 568 L S
823 568 M 823 568 L S
823 568 M 823 568 L S
823 568 M 823 568 L S
823 568 M 824 570 L S
824 570 M 824 567 L S
824 567 M 824 564 L S
824 564 M 825 564 L S
825 564 M 825 554 L S
825 554 M 825 561 L S
825 561 M 825 566 L S
825 566 M 826 566 L S
826 566 M 826 578 L S
826 578 M 826 588 L S
826 588 M 827 588 L S
827 588 M 827 588 L S
827 588 M 827 590 L S
827 590 M 827 590 L S
827 590 M 828 597 L S
828 597 M 828 597 L S
828 597 M 828 612 L S
828 612 M 829 612 L S
829 612 M 829 612 L S
829 612 M 829 619 L S
829 619 M 830 619 L S
830 619 M 830 619 L S
830 619 M 830 622 L S
830 622 M 830 622 L S
830 622 M 831 639 L S
831 639 M 831 639 L S
831 639 M 831 658 L S
831 658 M 832 658 L S
832 658 M 832 658 L S
832 658 M 832 666 L S
832 666 M 832 666 L S
832 666 M 833 666 L S
833 666 M 833 679 L S
833 679 M 833 679 L S
833 679 M 834 687 L S
834 687 M 834 687 L S
834 687 M 834 688 L S
834 688 M 835 688 L S
835 688 M 835 689 L S
835 689 M 835 705 L S
835 705 M 835 730 L S
835 730 M 836 730 L S
836 730 M 836 740 L S
836 740 M 836 725 L S
836 725 M 837 686 L S
837 686 M 837 686 L S
837 686 M 837 672 L S
837 672 M 837 635 L S
837 635 M 838 630 L S
838 630 M 838 630 L S
838 630 M 838 627 L S
838 627 M 839 627 L S
839 627 M 839 611 L S
839 611 M 839 606 L S
839 606 M 839 606 L S
839 606 M 840 401 L S
840 401 M 840 392 L S
840 392 M 840 384 L S
840 384 M 841 359 L S
841 359 M 841 359 L S
841 359 M 841 357 L S
841 357 M 842 350 L S
842 350 M 842 349 L S
842 349 M 842 348 L S
842 348 M 842 353 L S
842 353 M 843 353 L S
843 353 M 843 353 L S
843 353 M 843 397 L S
843 397 M 844 397 L S
844 397 M 844 399 L S
844 399 M 844 406 L S
844 406 M 844 407 L S
844 407 M 845 415 L S
845 415 M 845 417 L S
845 417 M 845 417 L S
845 417 M 846 417 L S
846 417 M 846 428 L S
846 428 M 846 428 L S
846 428 M 847 456 L S
847 456 M 847 456 L S
847 456 M 847 466 L S
847 466 M 847 466 L S
847 466 M 848 466 L S
848 466 M 848 469 L S
848 469 M 848 470 L S
848 470 M 849 472 L S
849 472 M 849 472 L S
849 472 M 849 472 L S
849 472 M 849 472 L S
849 472 M 850 480 L S
850 480 M 850 480 L S
850 480 M 850 482 L S
850 482 M 851 482 L S
851 482 M 851 484 L S
851 484 M 851 484 L S
851 484 M 851 484 L S
851 484 M 852 484 L S
852 484 M 852 486 L S
852 486 M 852 487 L S
852 487 M 853 487 L S
853 487 M 853 525 L S
853 525 M 853 525 L S
853 525 M 854 526 L S
854 526 M 854 525 L S
854 525 M 854 522 L S
854 522 M 854 522 L S
854 522 M 855 522 L S
855 522 M 855 517 L S
855 517 M 855 517 L S
855 517 M 856 485 L S
856 485 M 856 485 L S
856 485 M 856 480 L S
856 480 M 856 480 L S
856 480 M 857 480 L S
857 480 M 857 478 L S
857 478 M 857 475 L S
857 475 M 858 475 L S
858 475 M 858 473 L S
858 473 M 858 473 L S
858 473 M 858 473 L S
858 473 M 859 457 L S
859 457 M 859 457 L S
859 457 M 859 451 L S
859 451 M 860 451 L S
860 451 M 860 448 L S
860 448 M 860 448 L S
860 448 M 861 448 L S
861 448 M 861 446 L S
861 446 M 861 445 L S
861 445 M 861 446 L S
861 446 M 862 447 L S
862 447 M 862 447 L S
862 447 M 862 447 L S
862 447 M 863 449 L S
863 449 M 863 449 L S
863 449 M 863 464 L S
863 464 M 863 464 L S
863 464 M 864 466 L S
864 466 M 864 466 L S
864 466 M 864 466 L S
864 466 M 865 467 L S
865 467 M 865 469 L S
865 469 M 865 470 L S
865 470 M 866 471 L S
866 471 M 866 472 L S
866 472 M 866 472 L S
866 472 M 866 474 L S
866 474 M 867 474 L S
867 474 M 867 494 L S
867 494 M 867 494 L S
867 494 M 868 497 L S
868 497 M 868 497 L S
868 497 M 868 497 L S
868 497 M 868 499 L S
868 499 M 869 499 L S
869 499 M 869 499 L S
869 499 M 869 498 L S
869 498 M 870 497 L S
870 497 M 870 497 L S
870 497 M 870 496 L S
870 496 M 870 496 L S
870 496 M 871 482 L S
871 482 M 871 482 L S
871 482 M 871 479 L S
871 479 M 872 479 L S
872 479 M 872 479 L S
872 479 M 872 479 L S
872 479 M 873 478 L S
873 478 M 873 478 L S
873 478 M 873 478 L S
873 478 M 873 478 L S
873 478 M 874 478 L S
874 478 M 874 478 L S
874 478 M 874 478 L S
874 478 M 875 477 L S
875 477 M 875 477 L S
875 477 M 875 477 L S
875 477 M 875 477 L S
875 477 M 876 477 L S
876 477 M 876 478 L S
876 478 M 876 478 L S
876 478 M 877 478 L S
877 478 M 877 477 L S
877 477 M 877 476 L S
877 476 M 878 476 L S
878 476 M 878 475 L S
878 475 M 878 475 L S
878 475 M 878 462 L S
878 462 M 879 462 L S
879 462 M 879 460 L S
879 460 M 879 460 L S
879 460 M 880 460 L S
880 460 M 880 459 L S
880 459 M 880 457 L S
880 457 M 880 457 L S
880 457 M 881 456 L S
881 456 M 881 456 L S
881 456 M 881 456 L S
881 456 M 882 454 L S
882 454 M 882 454 L S
882 454 M 882 438 L S
882 438 M 882 438 L S
882 438 M 883 435 L S
883 435 M 883 435 L S
883 435 M 883 435 L S
883 435 M 884 433 L S
884 433 M 884 432 L S
884 432 M 884 432 L S
884 432 M 885 433 L S
885 433 M 885 433 L S
885 433 M 885 433 L S
885 433 M 885 434 L S
885 434 M 886 434 L S
886 434 M 886 443 L S
886 443 M 886 443 L S
886 443 M 887 445 L S
887 445 M 887 445 L S
887 445 M 887 445 L S
887 445 M 887 445 L S
887 445 M 888 445 L S
888 445 M 888 445 L S
888 445 M 888 445 L S
888 445 M 889 445 L S
889 445 M 889 445 L S
889 445 M 889 444 L S
889 444 M 890 444 L S
890 444 M 890 439 L S
890 439 M 890 439 L S
890 439 M 890 439 L S
890 439 M 891 439 L S
891 439 M 891 439 L S
891 439 M 891 438 L S
891 438 M 892 438 L S
892 438 M 892 438 L S
892 438 M 892 440 L S
892 440 M 892 440 L S
892 440 M 893 440 L S
893 440 M 893 443 L S
893 443 M 893 443 L S
893 443 M 894 463 L S
894 463 M 894 463 L S
894 463 M 894 466 L S
894 466 M 894 466 L S
894 466 M 895 467 L S
895 467 M 895 470 L S
895 470 M 895 471 L S
895 471 M 896 473 L S
896 473 M 896 473 L S
896 473 M 896 473 L S
896 473 M 897 476 L S
897 476 M 897 476 L S
897 476 M 897 502 L S
897 502 M 897 502 L S
897 502 M 898 507 L S
898 507 M 898 507 L S
898 507 M 898 507 L S
898 507 M 899 507 L S
899 507 M 899 506 L S
899 506 M 899 505 L S
899 505 M 899 505 L S
899 505 M 900 505 L S
900 505 M 900 503 L S
900 503 M 900 503 L S
900 503 M 901 485 L S
901 485 M 901 485 L S
901 485 M 901 482 L S
901 482 M 901 482 L S
901 482 M 902 480 L S
902 480 M 902 479 L S
902 479 M 902 479 L S
902 479 M 903 479 L S
903 479 M 903 479 L S
903 479 M 903 479 L S
903 479 M 904 479 L S
904 479 M 904 479 L S
904 479 M 904 476 L S
904 476 M 904 476 L S
904 476 M 905 475 L S
905 475 M 905 475 L S
905 475 M 905 476 L S
905 476 M 906 476 L S
906 476 M 906 476 L S
906 476 M 906 475 L S
906 475 M 906 475 L S
906 475 M 907 475 L S
907 475 M 907 474 L S
907 474 M 907 474 L S
907 474 M 908 462 L S
908 462 M 908 462 L S
908 462 M 908 460 L S
908 460 M 909 460 L S
909 460 M 909 460 L S
909 460 M 909 458 L S
909 458 M 909 458 L S
909 458 M 910 457 L S
910 457 M 910 456 L S
910 456 M 910 456 L S
910 456 M 911 455 L S
911 455 M 911 455 L S
911 455 M 911 440 L S
911 440 M 911 440 L S
911 440 M 912 438 L S
912 438 M 912 438 L S
912 438 M 912 437 L S
912 437 M 913 437 L S
913 437 M 913 437 L S
913 437 M 913 437 L S
913 437 M 913 438 L S
913 438 M 914 438 L S
914 438 M 914 438 L S
914 438 M 914 438 L S
914 438 M 915 444 L S
915 444 M 915 444 L S
915 444 M 915 445 L S
915 445 M 916 445 L S
916 445 M 916 445 L S
916 445 M 916 445 L S
916 445 M 916 445 L S
916 445 M 917 444 L S
917 444 M 917 444 L S
917 444 M 917 444 L S
917 444 M 918 443 L S
918 443 M 918 443 L S
918 443 M 918 434 L S
918 434 M 918 434 L S
918 434 M 919 433 L S
919 433 M 919 433 L S
919 433 M 919 434 L S
919 434 M 920 437 L S
920 437 M 920 437 L S
920 437 M 920 439 L S
920 439 M 921 439 L S
921 439 M 921 439 L S
921 439 M 921 442 L S
921 442 M 921 442 L S
921 442 M 922 463 L S
922 463 M 922 463 L S
922 463 M 922 466 L S
922 466 M 923 466 L S
923 466 M 923 467 L S
923 467 M 923 470 L S
923 470 M 923 471 L S
923 471 M 924 473 L S
924 473 M 924 473 L S
924 473 M 924 473 L S
924 473 M 925 476 L S
925 476 M 925 476 L S
925 476 M 925 503 L S
925 503 M 925 503 L S
925 503 M 926 507 L S
926 507 M 926 507 L S
926 507 M 926 507 L S
926 507 M 927 506 L S
927 506 M 927 506 L S
927 506 M 927 505 L S
927 505 M 928 504 L S
928 504 M 928 504 L S
928 504 M 928 503 L S
928 503 M 928 503 L S
928 503 M 929 487 L S
929 487 M 929 487 L S
929 487 M 929 484 L S
929 484 M 930 484 L S
930 484 M 930 483 L S
930 483 M 930 483 L S
930 483 M 930 483 L S
930 483 M 931 483 L S
931 483 M 931 483 L S
931 483 M 931 483 L S
931 483 M 932 483 L S
932 483 M 932 483 L S
932 483 M 932 485 L S
932 485 M 933 485 L S
933 485 M 933 486 L S
933 486 M 933 486 L S
933 486 M 933 486 L S
933 486 M 934 485 L S
934 485 M 934 485 L S
934 485 M 934 483 L S
934 483 M 935 483 L S
935 483 M 935 483 L S
935 483 M 935 481 L S
935 481 M 935 481 L S
935 481 M 936 463 L S
936 463 M 936 463 L S
936 463 M 936 460 L S
936 460 M 937 460 L S
937 460 M 937 459 L S
937 459 M 937 457 L S
937 457 M 937 457 L S
937 457 M 938 455 L S
938 455 M 938 454 L S
938 454 M 938 454 L S
938 454 M 939 452 L S
939 452 M 939 452 L S
939 452 M 939 431 L S
939 431 M 940 431 L S
940 431 M 940 427 L S
940 427 M 940 427 L S
940 427 M 940 427 L S
940 427 M 941 425 L S
941 425 M 941 424 L S
941 424 M 941 425 L S
941 425 M 942 427 L S
942 427 M 942 427 L S
942 427 M 942 427 L S
942 427 M 942 430 L S
942 430 M 943 430 L S
943 430 M 943 438 L S
943 438 M 943 438 L S
943 438 M 944 458 L S
944 458 M 944 458 L S
944 458 M 944 461 L S
944 461 M 945 464 L S
945 464 M 945 466 L S
945 466 M 945 466 L S
945 466 M 945 466 L S
945 466 M 946 470 L S
946 470 M 946 470 L S
946 470 M 946 496 L S
946 496 M 947 496 L S
947 496 M 947 501 L S
947 501 M 947 501 L S
947 501 M 947 501 L S
947 501 M 948 500 L S
948 500 M 948 499 L S
948 499 M 948 499 L S
948 499 M 949 499 L S
949 499 M 949 483 L S
949 483 M 949 483 L S
949 483 M 949 483 L S
949 483 M 950 482 L S
950 482 M 950 483 L S
950 483 M 950 483 L S
950 483 M 951 483 L S
951 483 M 951 483 L S
951 483 M 951 483 L S
951 483 M 952 485 L S
952 485 M 952 485 L S
952 485 M 952 489 L S
952 489 M 952 489 L S
952 489 M 953 489 L S
953 489 M 953 489 L S
953 489 M 953 489 L S
953 489 M 954 489 L S
954 489 M 954 488 L S
954 488 M 954 488 L S
954 488 M 954 488 L S
954 488 M 955 484 L S
955 484 M 955 484 L S
955 484 M 955 474 L S
955 474 M 956 474 L S
956 474 M 956 470 L S
956 470 M 956 470 L S
956 470 M 956 470 L S
956 470 M 957 469 L S
957 469 M 957 468 L S
957 468 M 957 468 L S
957 468 M 958 467 L S
958 467 M 958 467 L S
958 467 M 958 467 L S
958 467 M 959 463 L S
959 463 M 959 463 L S
959 463 M 959 463 L S
959 463 M 959 463 L S
959 463 M 960 463 L S
960 463 M 960 462 L S
960 462 M 960 462 L S
960 462 M 961 462 L S
961 462 M 961 462 L S
961 462 M 961 459 L S
961 459 M 961 459 L S
961 459 M 962 455 L S
962 455 M 962 454 L S
962 454 M 962 445 L S
962 445 M 963 445 L S
963 445 M 963 444 L S
963 444 M 963 444 L S
963 444 M 964 444 L S
964 444 M 964 444 L S
964 444 M 964 444 L S
964 444 M 964 441 L S
964 441 M 965 439 L S
965 439 M 965 439 L S
965 439 M 965 436 L S
965 436 M 966 435 L S
966 435 M 966 437 L S
966 437 M 966 437 L S
966 437 M 966 440 L S
966 440 M 967 442 L S
967 442 M 967 442 L S
967 442 M 967 442 L S
967 442 M 968 443 L S
968 443 M 968 443 L S
968 443 M 968 446 L S
968 446 M 968 446 L S
968 446 M 969 452 L S
969 452 M 969 452 L S
969 452 M 969 452 L S
969 452 M 970 456 L S
970 456 M 970 456 L S
970 456 M 970 456 L S
970 456 M 971 457 L S
971 457 M 971 457 L S
971 457 M 971 464 L S
971 464 M 971 464 L S
971 464 M 972 464 L S
972 464 M 972 464 L S
972 464 M 972 464 L S
/Courier-Bold findfont 27 scalefont setfont
101 764 M (Zgoubi|Zpop                                                                     ) H
101 743 M (26-01-2019                                                                      ) H
/Courier-Bold findfont 26 scalefont setfont
160 85 M (* # COORDINATES  - STORAGE FILE, 26-01-2019 18:39:28 *                                                                            ) H
293 755 M (   Z     (m)  vs.  lmnt#                                                                                                          ) H
26 42 M (Mi-ma H/V:    3.00      2.977E+03/ -2.750E-03  2.499E-03                                                                          ) H
26 21 M (Part#  1- 10000 (*); Lmnt#     1; pass#       1-      1, [    1];   2975 pnts                                                     ) H
showpage
