sol5_6
'OBJET'                                                                                                      1
1000.
5
.001 .01  .001 .01  .0 .0001
.0 .0 .0 .0 .0 1.
 
'SOLENOID' SOLE     sol5_6                                                                                   2
0  .soleno
900.0000     1.    0.1162206E1
100. 100.
.2  ! Soleno step
1 0. 0. 0.
 
'MATRIX'                                                                                                     3
1 0
'END'                                                                                                        4

************************************************************************************************************************************
      1  Keyword, label(s) :  OBJET                                                                                    IPASS= 1

                          MAGNETIC  RIGIDITY =       1000.000 kG*cm

                                         CALCUL  DES  TRAJECTOIRES

                              OBJET  (5)  FORME  DE     11 POINTS 



                                 Y (cm)        T (mrd)       Z (cm)        P (mrd)       S (cm)        dp/p 
                   Sampling :    1.0000E-03    1.0000E-02    1.0000E-03    1.0000E-02    0.0000E+00    1.0000E-04
Reference trajectory #    1 :    0.0000E+00    0.0000E+00    0.0000E+00    0.0000E+00    0.0000E+00     1.000    

************************************************************************************************************************************
      2  Keyword, label(s) :  SOLENOID    SOLE                  sol5_6                                                 IPASS= 1


      -----  SOLENOID    : 
                Length  of  element  :    900.0      cm
                Inner radius  RO =   1.000      cm
                B-CNTRL  =   1.162      kG ;   K=B/Brhof =   1.1622E-03 /m ;   theor. angle  BL/(2*Brho) =   0.5230     rad
                Entrance and exit integration extents : 
                       XE =   100.0     cm,   XS =   100.0     cm
                MODL =  1 -> Solenoid model is axial field model   

                    Integration step :  0.2000     cm

  A    1  1.0000     0.000     0.000     0.000     0.000         1100.000     0.000     0.000     0.000     0.000            1
  A    1  1.0000     0.001     0.000     0.000     0.000         1100.000     0.001    -0.000    -0.000     0.000            2
  A    1  1.0000    -0.001     0.000     0.000     0.000         1100.000    -0.001     0.000     0.000    -0.000            3
  A    1  1.0000     0.000     0.010     0.000     0.000         1100.000     0.007     0.000    -0.004    -0.000            4
  A    1  1.0000     0.000    -0.010     0.000     0.000         1100.000    -0.007    -0.000     0.004     0.000            5
  A    1  1.0000     0.000     0.000     0.001     0.000         1100.000     0.000    -0.000     0.001    -0.000            6
  A    1  1.0000     0.000     0.000    -0.001     0.000         1100.000    -0.000     0.000    -0.001     0.000            7
  A    1  1.0000     0.000     0.000     0.000     0.010         1100.000     0.004     0.000     0.007     0.000            8
  A    1  1.0000     0.000     0.000     0.000    -0.010         1100.000    -0.004    -0.000    -0.007    -0.000            9
  A    1  1.0001     0.000     0.000     0.000     0.000         1100.000     0.000     0.000     0.000     0.000           10
  A    1  0.9999     0.000     0.000     0.000     0.000         1100.000     0.000     0.000     0.000     0.000           11

     QUASEX - KPOS =  1 :  Change  of  frame  at  exit  of  element.
          X =   0.000     CM   Y =   0.000     cm,  tilt  angle =   0.0000000     RAD


 Cumulative length of optical axis =    9.00000000     m ;  Time  (for ref. rigidity & particle) =   9.863668E-08 s 

************************************************************************************************************************************
      3  Keyword, label(s) :  MATRIX                                                                                   IPASS= 1


  Reference, before change of frame (part #     1)  : 
   0.00000000E+00   0.00000000E+00   0.00000000E+00   0.00000000E+00   0.00000000E+00   9.00000000E+02   3.00207686E-02

           Frame for MATRIX calculation moved by :
            XC =    0.000 cm , YC =    0.000 cm ,   A =  0.00000 deg  ( = 0.000000 rad )


  Reference, after change of frame (part #     1)  : 
   0.00000000E+00   0.00000000E+00   0.00000000E+00   0.00000000E+00   0.00000000E+00   9.00000000E+02   3.00207686E-02

  Reference particle (#     1), path length :   900.00000     cm  relative momentum :    1.00000    


                  TRANSFER  MATRIX  ORDRE  1  (MKSA units)

          0.750731         7.44637        0.432808         4.29312         0.00000         0.00000    
         -2.510507E-02    0.750716       -1.447405E-02    0.432834         0.00000         0.00000    
         -0.432808        -4.29312        0.750731         7.44637         0.00000         0.00000    
          1.447405E-02   -0.432834       -2.510507E-02    0.750716         0.00000         0.00000    
           0.00000         0.00000         0.00000         0.00000         1.00000         0.00000    
           0.00000         0.00000         0.00000         0.00000         0.00000         1.00000    

          DetY-1 =      -0.2494730465,    DetZ-1 =      -0.2494730465

          R12=0 at   -9.919     m,        R34=0 at   -9.919     m

      First order symplectic conditions (expected values = 0) :
        -3.4651E-09   -3.4650E-09    2.5670E-05    2.5462E-04    8.5848E-07   -2.5670E-05

************************************************************************************************************************************
      4  Keyword, label(s) :  END                                                                                      IPASS= 1


                            11 particles have been launched
                     Made  it  to  the  end :     11

************************************************************************************************************************************
 Pgm zgoubi : Execution ended normally, upon keyword END or FIN
   
 File in:   sol20_6.res
 File out:  zgoubi.res

  Zgoubi, author's dvlpmnt version.
  Job  started  on  12-08-2020,  at  10:32:57 
  JOB  ENDED  ON    12-08-2020,  AT  10:32:57 

   CPU time, total :     9.3037999999999996E-002
