sol5_6
'OBJET'                                                                                                      1
1000.
5
.001 .01  .001 .01  .0 .0001
.0 .0 .0 .0 .0 1.
 
'SOLENOID' SOLE     sol5_6                                                                                   2
0  .soleno
270.0000     1.    0.09685E1
100. 100.
.2  ! Soleno step
1 0. 0. 0.
 
'MATRIX'                                                                                                     3
1 0
'END'                                                                                                        4

************************************************************************************************************************************
      1  Keyword, label(s) :  OBJET                                                                                    IPASS= 1

                          MAGNETIC  RIGIDITY =       1000.000 kG*cm

                                         CALCUL  DES  TRAJECTOIRES

                              OBJET  (5)  FORME  DE     11 POINTS 



                                 Y (cm)        T (mrd)       Z (cm)        P (mrd)       S (cm)        dp/p 
                   Sampling :    1.0000E-03    1.0000E-02    1.0000E-03    1.0000E-02    0.0000E+00    1.0000E-04
Reference trajectory #    1 :    0.0000E+00    0.0000E+00    0.0000E+00    0.0000E+00    0.0000E+00     1.000    

************************************************************************************************************************************
      2  Keyword, label(s) :  SOLENOID    SOLE                  sol5_6                                                 IPASS= 1


      -----  SOLENOID    : 
                Length  of  element  :    270.0      cm
                Inner radius  RO =   1.000      cm
                B-CNTRL  =  0.9685      kG ;   K=B/Brhof =   9.6850E-04 /m ;   theor. angle  BL/(2*Brho) =   0.1307     rad
                Entrance and exit integration extents : 
                       XE =   100.0     cm,   XS =   100.0     cm
                MODL =  1 -> Solenoid model is axial field model   

                    Integration step :  0.2000     cm

  A    1  1.0000     0.000     0.000     0.000     0.000          470.000     0.000     0.000     0.000     0.000            1
  A    1  1.0000     0.001     0.000     0.000     0.000          470.000     0.001    -0.000    -0.000     0.000            2
  A    1  1.0000    -0.001     0.000     0.000     0.000          470.000    -0.001     0.000     0.000    -0.000            3
  A    1  1.0000     0.000     0.010     0.000     0.000          470.000     0.003     0.000    -0.000    -0.000            4
  A    1  1.0000     0.000    -0.010     0.000     0.000          470.000    -0.003    -0.000     0.000     0.000            5
  A    1  1.0000     0.000     0.000     0.001     0.000          470.000     0.000    -0.000     0.001    -0.000            6
  A    1  1.0000     0.000     0.000    -0.001     0.000          470.000    -0.000     0.000    -0.001     0.000            7
  A    1  1.0000     0.000     0.000     0.000     0.010          470.000     0.000     0.000     0.003     0.000            8
  A    1  1.0000     0.000     0.000     0.000    -0.010          470.000    -0.000    -0.000    -0.003    -0.000            9
  A    1  1.0001     0.000     0.000     0.000     0.000          470.000     0.000     0.000     0.000     0.000           10
  A    1  0.9999     0.000     0.000     0.000     0.000          470.000     0.000     0.000     0.000     0.000           11

     QUASEX - KPOS =  1 :  Change  of  frame  at  exit  of  element.
          X =   0.000     CM   Y =   0.000     cm,  tilt  angle =   0.0000000     RAD


 Cumulative length of optical axis =    2.70000000     m ;  Time  (for ref. rigidity & particle) =   2.959100E-08 s 

************************************************************************************************************************************
      3  Keyword, label(s) :  MATRIX                                                                                   IPASS= 1


  Reference, before change of frame (part #     1)  : 
   0.00000000E+00   0.00000000E+00   0.00000000E+00   0.00000000E+00   0.00000000E+00   2.70000000E+02   9.00623057E-03

           Frame for MATRIX calculation moved by :
            XC =    0.000 cm , YC =    0.000 cm ,   A =  0.00000 deg  ( = 0.000000 rad )


  Reference, after change of frame (part #     1)  : 
   0.00000000E+00   0.00000000E+00   0.00000000E+00   0.00000000E+00   0.00000000E+00   2.70000000E+02   9.00623057E-03

  Reference particle (#     1), path length :   270.00000     cm  relative momentum :    1.00000    


                  TRANSFER  MATRIX  ORDRE  1  (MKSA units)

          0.983052         2.66934        0.129262        0.351007         0.00000         0.00000    
         -6.223408E-03    0.983051       -8.183525E-04    0.129272         0.00000         0.00000    
         -0.129262       -0.351007        0.983052         2.66934         0.00000         0.00000    
          8.183525E-04   -0.129272       -6.223408E-03    0.983051         0.00000         0.00000    
           0.00000         0.00000         0.00000         0.00000         1.00000         0.00000    
           0.00000         0.00000         0.00000         0.00000         0.00000         1.00000    

          DetY-1 =      -0.0169972621,    DetZ-1 =      -0.0169972621

          R12=0 at   -2.715     m,        R34=0 at   -2.715     m

      First order symplectic conditions (expected values = 0) :
        -3.3650E-10   -3.3645E-10    1.0389E-05    2.8211E-05    6.5792E-08   -1.0389E-05

************************************************************************************************************************************
      4  Keyword, label(s) :  END                                                                                      IPASS= 1


                            11 particles have been launched
                     Made  it  to  the  end :     11

************************************************************************************************************************************
 Pgm zgoubi : Execution ended normally, upon keyword END or FIN
   
 File in:   sol5_6.res
 File out:  zgoubi.res

  Zgoubi, author's dvlpmnt version.
  Job  started  on  12-08-2020,  at  10:28:02 
  JOB  ENDED  ON    12-08-2020,  AT  10:28:02 

   CPU time, total :     2.5932000000000000E-002
