%!PS-Adobe-2.0 EPSF-2.0
%%Title: screen-save.ps
%%Titre: screen-save.ps
%%Creator: Fminigraf Library
%%BoundingBox: 20 40 567 457
%%EndComments
/offx 20 def
/offy 40 def
/lx 595 def
/ly 842 def
/maxx 1023 def
/maxy 779 def
/reduc 0.92 def
/coeff lx maxx div reduc mul def
offx offy translate
coeff coeff scale
1 setlinewidth newpath 0 0 moveto
/Courier-Bold findfont 32 scalefont setfont
/M {moveto} def
/L {lineto} def
/S {stroke} def
/H {show} def
/D {setdash} def
0 0 0 setrgbcolor
[] 0 D
[] 0 D
[2 3] 0 D
102 156 M 102 740 L S
[] 0 D
/Courier-Bold findfont 30 scalefont setfont
84 128 M (0.0) H
102 156 M 102 166 L S
102 730 M 102 740 L S
137 156 M 137 161 L S
137 735 M 137 740 L S
172 156 M 172 161 L S
172 735 M 172 740 L S
206 156 M 206 161 L S
206 735 M 206 740 L S
241 156 M 241 161 L S
241 735 M 241 740 L S
[2 3] 0 D
276 156 M 276 740 L S
[] 0 D
258 128 M (0.1) H
276 156 M 276 166 L S
276 730 M 276 740 L S
311 156 M 311 161 L S
311 735 M 311 740 L S
346 156 M 346 161 L S
346 735 M 346 740 L S
380 156 M 380 161 L S
380 735 M 380 740 L S
415 156 M 415 161 L S
415 735 M 415 740 L S
[2 3] 0 D
450 156 M 450 740 L S
[] 0 D
432 128 M (0.2) H
450 156 M 450 166 L S
450 730 M 450 740 L S
485 156 M 485 161 L S
485 735 M 485 740 L S
520 156 M 520 161 L S
520 735 M 520 740 L S
554 156 M 554 161 L S
554 735 M 554 740 L S
589 156 M 589 161 L S
589 735 M 589 740 L S
[2 3] 0 D
624 156 M 624 740 L S
[] 0 D
606 128 M (0.3) H
624 156 M 624 166 L S
624 730 M 624 740 L S
659 156 M 659 161 L S
659 735 M 659 740 L S
693 156 M 693 161 L S
693 735 M 693 740 L S
728 156 M 728 161 L S
728 735 M 728 740 L S
763 156 M 763 161 L S
763 735 M 763 740 L S
[2 3] 0 D
798 156 M 798 740 L S
[] 0 D
780 128 M (0.4) H
798 156 M 798 166 L S
798 730 M 798 740 L S
833 156 M 833 161 L S
833 735 M 833 740 L S
867 156 M 867 161 L S
867 735 M 867 740 L S
902 156 M 902 161 L S
902 735 M 902 740 L S
937 156 M 937 161 L S
937 735 M 937 740 L S
[2 3] 0 D
972 156 M 972 740 L S
[] 0 D
954 128 M (0.5) H
972 156 M 972 166 L S
972 730 M 972 740 L S
102 161 M 107 161 L S
967 161 M 972 161 L S
[2 3] 0 D
102 180 M 972 180 L S
[] 0 D
21 170 M (-.006) H
102 180 M 112 180 L S
962 180 M 972 180 L S
102 198 M 107 198 L S
967 198 M 972 198 L S
102 217 M 107 217 L S
967 217 M 972 217 L S
102 236 M 107 236 L S
967 236 M 972 236 L S
102 254 M 107 254 L S
967 254 M 972 254 L S
[2 3] 0 D
102 273 M 972 273 L S
[] 0 D
21 263 M (-.005) H
102 273 M 112 273 L S
962 273 M 972 273 L S
102 292 M 107 292 L S
967 292 M 972 292 L S
102 310 M 107 310 L S
967 310 M 972 310 L S
102 329 M 107 329 L S
967 329 M 972 329 L S
102 348 M 107 348 L S
967 348 M 972 348 L S
[2 3] 0 D
102 366 M 972 366 L S
[] 0 D
21 356 M (-.004) H
102 366 M 112 366 L S
962 366 M 972 366 L S
102 385 M 107 385 L S
967 385 M 972 385 L S
102 404 M 107 404 L S
967 404 M 972 404 L S
102 422 M 107 422 L S
967 422 M 972 422 L S
102 441 M 107 441 L S
967 441 M 972 441 L S
[2 3] 0 D
102 460 M 972 460 L S
[] 0 D
21 450 M (-.003) H
102 460 M 112 460 L S
962 460 M 972 460 L S
102 479 M 107 479 L S
967 479 M 972 479 L S
102 497 M 107 497 L S
967 497 M 972 497 L S
102 516 M 107 516 L S
967 516 M 972 516 L S
102 535 M 107 535 L S
967 535 M 972 535 L S
[2 3] 0 D
102 553 M 972 553 L S
[] 0 D
21 543 M (-.002) H
102 553 M 112 553 L S
962 553 M 972 553 L S
102 572 M 107 572 L S
967 572 M 972 572 L S
102 591 M 107 591 L S
967 591 M 972 591 L S
102 609 M 107 609 L S
967 609 M 972 609 L S
102 628 M 107 628 L S
967 628 M 972 628 L S
[2 3] 0 D
102 647 M 972 647 L S
[] 0 D
21 637 M (-.001) H
102 647 M 112 647 L S
962 647 M 972 647 L S
102 665 M 107 665 L S
967 665 M 972 665 L S
102 684 M 107 684 L S
967 684 M 972 684 L S
102 703 M 107 703 L S
967 703 M 972 703 L S
102 721 M 107 721 L S
967 721 M 972 721 L S
[2 3] 0 D
102 740 M 972 740 L S
[] 0 D
33 730 M (0.0) H
102 740 M 112 740 L S
962 740 M 972 740 L S
[] 0 D
102 156 M 972 156 L S
972 156 M 972 740 L S
972 740 M 102 740 L S
102 740 M 102 156 L S
[] 0 D
102 740 M 102 740 L S
102 740 M 102 740 L S
102 740 M 172 736 L S
172 736 M 241 724 L S
241 724 M 311 704 L S
311 704 M 380 676 L S
380 676 M 450 640 L S
450 640 M 520 597 L S
520 597 M 589 546 L S
589 546 M 659 489 L S
659 489 M 728 425 L S
728 425 M 798 355 L S
798 355 M 868 279 L S
868 279 M 937 198 L S
937 198 M 972 156 L S
972 156 M 972 156 L S
102 740 M 102 740 L S
102 740 M 102 740 L S
102 740 M 172 736 L S
172 736 M 241 724 L S
241 724 M 311 704 L S
311 704 M 380 676 L S
380 676 M 450 640 L S
450 640 M 520 597 L S
520 597 M 589 546 L S
589 546 M 659 489 L S
659 489 M 728 425 L S
728 425 M 798 355 L S
798 355 M 868 279 L S
868 279 M 937 198 L S
937 198 M 972 156 L S
972 156 M 972 156 L S
102 740 M 102 740 L S
102 740 M 102 740 L S
102 740 M 172 736 L S
172 736 M 241 724 L S
241 724 M 311 704 L S
311 704 M 380 676 L S
380 676 M 450 640 L S
450 640 M 520 597 L S
520 597 M 589 546 L S
589 546 M 659 489 L S
659 489 M 728 425 L S
728 425 M 798 355 L S
798 355 M 868 279 L S
868 279 M 937 198 L S
937 198 M 972 156 L S
972 156 M 972 156 L S
972 156 M 972 156 L S
/Courier-Bold findfont 27 scalefont setfont
101 764 M (Zgoubi|Zpop                                                                     ) H
101 743 M (03-02-2022                                                                      ) H
/Courier-Bold findfont 26 scalefont setfont
160 85 M (* # TRAJECTORIES - STORAGE FILE, 03-02-2022 09:19:25 *                                                                            ) H
293 755 M (   Y     (m)  vs.    X     (m)                                                                                                    ) H
26 42 M (Mi-ma H/V:   0.00000E+00  5.00107E-01/ -6.25347E-03  0.00000E+00                                                                  ) H
26 21 M (Part#  1-100000 (*); Lmnt#     1; pass#       1-      1, [    1];     45 pnts                                                     ) H
showpage
