%!PS-Adobe-2.0 EPSF-2.0
%%Title: gnuplot_image.eps
%%Creator: gnuplot 5.2 patchlevel 2
%%CreationDate: Thu Apr 21 17:42:18 2022
%%DocumentFonts: (atend)
%%BoundingBox: 50 50 410 302
%%EndComments
%%BeginProlog
/gnudict 256 dict def
gnudict begin
%
% The following true/false flags may be edited by hand if desired.
% The unit line width and grayscale image gamma correction may also be changed.
%
/Color true def
/Blacktext true def
/Solid false def
/Dashlength 1 def
/Landscape false def
/Level1 false def
/Level3 false def
/Rounded false def
/ClipToBoundingBox false def
/SuppressPDFMark false def
/TransparentPatterns false def
/gnulinewidth 5.000 def
/userlinewidth gnulinewidth def
/Gamma 1.0 def
/BackgroundColor {-1.000 -1.000 -1.000} def
%
/vshift -46 def
/dl1 {
  10.0 Dashlength userlinewidth gnulinewidth div mul mul mul
  Rounded { currentlinewidth 0.75 mul sub dup 0 le { pop 0.01 } if } if
} def
/dl2 {
  10.0 Dashlength userlinewidth gnulinewidth div mul mul mul
  Rounded { currentlinewidth 0.75 mul add } if
} def
/hpt_ 31.5 def
/vpt_ 31.5 def
/hpt hpt_ def
/vpt vpt_ def
/doclip {
  ClipToBoundingBox {
    newpath 50 50 moveto 410 50 lineto 410 302 lineto 50 302 lineto closepath
    clip
  } if
} def
%
% Gnuplot Prolog Version 5.1 (Oct 2015)
%
%/SuppressPDFMark true def
%
/M {moveto} bind def
/L {lineto} bind def
/R {rmoveto} bind def
/V {rlineto} bind def
/N {newpath moveto} bind def
/Z {closepath} bind def
/C {setrgbcolor} bind def
/f {rlineto fill} bind def
/g {setgray} bind def
/Gshow {show} def   % May be redefined later in the file to support UTF-8
/vpt2 vpt 2 mul def
/hpt2 hpt 2 mul def
/Lshow {currentpoint stroke M 0 vshift R 
	Blacktext {gsave 0 setgray textshow grestore} {textshow} ifelse} def
/Rshow {currentpoint stroke M dup stringwidth pop neg vshift R
	Blacktext {gsave 0 setgray textshow grestore} {textshow} ifelse} def
/Cshow {currentpoint stroke M dup stringwidth pop -2 div vshift R 
	Blacktext {gsave 0 setgray textshow grestore} {textshow} ifelse} def
/UP {dup vpt_ mul /vpt exch def hpt_ mul /hpt exch def
  /hpt2 hpt 2 mul def /vpt2 vpt 2 mul def} def
/DL {Color {setrgbcolor Solid {pop []} if 0 setdash}
 {pop pop pop 0 setgray Solid {pop []} if 0 setdash} ifelse} def
/BL {stroke userlinewidth 2 mul setlinewidth
	Rounded {1 setlinejoin 1 setlinecap} if} def
/AL {stroke userlinewidth 2 div setlinewidth
	Rounded {1 setlinejoin 1 setlinecap} if} def
/UL {dup gnulinewidth mul /userlinewidth exch def
	dup 1 lt {pop 1} if 10 mul /udl exch def} def
/PL {stroke userlinewidth setlinewidth
	Rounded {1 setlinejoin 1 setlinecap} if} def
3.8 setmiterlimit
% Classic Line colors (version 5.0)
/LCw {1 1 1} def
/LCb {0 0 0} def
/LCa {0 0 0} def
/LC0 {1 0 0} def
/LC1 {0 1 0} def
/LC2 {0 0 1} def
/LC3 {1 0 1} def
/LC4 {0 1 1} def
/LC5 {1 1 0} def
/LC6 {0 0 0} def
/LC7 {1 0.3 0} def
/LC8 {0.5 0.5 0.5} def
% Default dash patterns (version 5.0)
/LTB {BL [] LCb DL} def
/LTw {PL [] 1 setgray} def
/LTb {PL [] LCb DL} def
/LTa {AL [1 udl mul 2 udl mul] 0 setdash LCa setrgbcolor} def
/LT0 {PL [] LC0 DL} def
/LT1 {PL [2 dl1 3 dl2] LC1 DL} def
/LT2 {PL [1 dl1 1.5 dl2] LC2 DL} def
/LT3 {PL [6 dl1 2 dl2 1 dl1 2 dl2] LC3 DL} def
/LT4 {PL [1 dl1 2 dl2 6 dl1 2 dl2 1 dl1 2 dl2] LC4 DL} def
/LT5 {PL [4 dl1 2 dl2] LC5 DL} def
/LT6 {PL [1.5 dl1 1.5 dl2 1.5 dl1 1.5 dl2 1.5 dl1 6 dl2] LC6 DL} def
/LT7 {PL [3 dl1 3 dl2 1 dl1 3 dl2] LC7 DL} def
/LT8 {PL [2 dl1 2 dl2 2 dl1 6 dl2] LC8 DL} def
/SL {[] 0 setdash} def
/Pnt {stroke [] 0 setdash gsave 1 setlinecap M 0 0 V stroke grestore} def
/Dia {stroke [] 0 setdash 2 copy vpt add M
  hpt neg vpt neg V hpt vpt neg V
  hpt vpt V hpt neg vpt V closepath stroke
  Pnt} def
/Pls {stroke [] 0 setdash vpt sub M 0 vpt2 V
  currentpoint stroke M
  hpt neg vpt neg R hpt2 0 V stroke
 } def
/Box {stroke [] 0 setdash 2 copy exch hpt sub exch vpt add M
  0 vpt2 neg V hpt2 0 V 0 vpt2 V
  hpt2 neg 0 V closepath stroke
  Pnt} def
/Crs {stroke [] 0 setdash exch hpt sub exch vpt add M
  hpt2 vpt2 neg V currentpoint stroke M
  hpt2 neg 0 R hpt2 vpt2 V stroke} def
/TriU {stroke [] 0 setdash 2 copy vpt 1.12 mul add M
  hpt neg vpt -1.62 mul V
  hpt 2 mul 0 V
  hpt neg vpt 1.62 mul V closepath stroke
  Pnt} def
/Star {2 copy Pls Crs} def
/BoxF {stroke [] 0 setdash exch hpt sub exch vpt add M
  0 vpt2 neg V hpt2 0 V 0 vpt2 V
  hpt2 neg 0 V closepath fill} def
/TriUF {stroke [] 0 setdash vpt 1.12 mul add M
  hpt neg vpt -1.62 mul V
  hpt 2 mul 0 V
  hpt neg vpt 1.62 mul V closepath fill} def
/TriD {stroke [] 0 setdash 2 copy vpt 1.12 mul sub M
  hpt neg vpt 1.62 mul V
  hpt 2 mul 0 V
  hpt neg vpt -1.62 mul V closepath stroke
  Pnt} def
/TriDF {stroke [] 0 setdash vpt 1.12 mul sub M
  hpt neg vpt 1.62 mul V
  hpt 2 mul 0 V
  hpt neg vpt -1.62 mul V closepath fill} def
/DiaF {stroke [] 0 setdash vpt add M
  hpt neg vpt neg V hpt vpt neg V
  hpt vpt V hpt neg vpt V closepath fill} def
/Pent {stroke [] 0 setdash 2 copy gsave
  translate 0 hpt M 4 {72 rotate 0 hpt L} repeat
  closepath stroke grestore Pnt} def
/PentF {stroke [] 0 setdash gsave
  translate 0 hpt M 4 {72 rotate 0 hpt L} repeat
  closepath fill grestore} def
/Circle {stroke [] 0 setdash 2 copy
  hpt 0 360 arc stroke Pnt} def
/CircleF {stroke [] 0 setdash hpt 0 360 arc fill} def
/C0 {BL [] 0 setdash 2 copy moveto vpt 90 450 arc} bind def
/C1 {BL [] 0 setdash 2 copy moveto
	2 copy vpt 0 90 arc closepath fill
	vpt 0 360 arc closepath} bind def
/C2 {BL [] 0 setdash 2 copy moveto
	2 copy vpt 90 180 arc closepath fill
	vpt 0 360 arc closepath} bind def
/C3 {BL [] 0 setdash 2 copy moveto
	2 copy vpt 0 180 arc closepath fill
	vpt 0 360 arc closepath} bind def
/C4 {BL [] 0 setdash 2 copy moveto
	2 copy vpt 180 270 arc closepath fill
	vpt 0 360 arc closepath} bind def
/C5 {BL [] 0 setdash 2 copy moveto
	2 copy vpt 0 90 arc
	2 copy moveto
	2 copy vpt 180 270 arc closepath fill
	vpt 0 360 arc} bind def
/C6 {BL [] 0 setdash 2 copy moveto
	2 copy vpt 90 270 arc closepath fill
	vpt 0 360 arc closepath} bind def
/C7 {BL [] 0 setdash 2 copy moveto
	2 copy vpt 0 270 arc closepath fill
	vpt 0 360 arc closepath} bind def
/C8 {BL [] 0 setdash 2 copy moveto
	2 copy vpt 270 360 arc closepath fill
	vpt 0 360 arc closepath} bind def
/C9 {BL [] 0 setdash 2 copy moveto
	2 copy vpt 270 450 arc closepath fill
	vpt 0 360 arc closepath} bind def
/C10 {BL [] 0 setdash 2 copy 2 copy moveto vpt 270 360 arc closepath fill
	2 copy moveto
	2 copy vpt 90 180 arc closepath fill
	vpt 0 360 arc closepath} bind def
/C11 {BL [] 0 setdash 2 copy moveto
	2 copy vpt 0 180 arc closepath fill
	2 copy moveto
	2 copy vpt 270 360 arc closepath fill
	vpt 0 360 arc closepath} bind def
/C12 {BL [] 0 setdash 2 copy moveto
	2 copy vpt 180 360 arc closepath fill
	vpt 0 360 arc closepath} bind def
/C13 {BL [] 0 setdash 2 copy moveto
	2 copy vpt 0 90 arc closepath fill
	2 copy moveto
	2 copy vpt 180 360 arc closepath fill
	vpt 0 360 arc closepath} bind def
/C14 {BL [] 0 setdash 2 copy moveto
	2 copy vpt 90 360 arc closepath fill
	vpt 0 360 arc} bind def
/C15 {BL [] 0 setdash 2 copy vpt 0 360 arc closepath fill
	vpt 0 360 arc closepath} bind def
/Rec {newpath 4 2 roll moveto 1 index 0 rlineto 0 exch rlineto
	neg 0 rlineto closepath} bind def
/Square {dup Rec} bind def
/Bsquare {vpt sub exch vpt sub exch vpt2 Square} bind def
/S0 {BL [] 0 setdash 2 copy moveto 0 vpt rlineto BL Bsquare} bind def
/S1 {BL [] 0 setdash 2 copy vpt Square fill Bsquare} bind def
/S2 {BL [] 0 setdash 2 copy exch vpt sub exch vpt Square fill Bsquare} bind def
/S3 {BL [] 0 setdash 2 copy exch vpt sub exch vpt2 vpt Rec fill Bsquare} bind def
/S4 {BL [] 0 setdash 2 copy exch vpt sub exch vpt sub vpt Square fill Bsquare} bind def
/S5 {BL [] 0 setdash 2 copy 2 copy vpt Square fill
	exch vpt sub exch vpt sub vpt Square fill Bsquare} bind def
/S6 {BL [] 0 setdash 2 copy exch vpt sub exch vpt sub vpt vpt2 Rec fill Bsquare} bind def
/S7 {BL [] 0 setdash 2 copy exch vpt sub exch vpt sub vpt vpt2 Rec fill
	2 copy vpt Square fill Bsquare} bind def
/S8 {BL [] 0 setdash 2 copy vpt sub vpt Square fill Bsquare} bind def
/S9 {BL [] 0 setdash 2 copy vpt sub vpt vpt2 Rec fill Bsquare} bind def
/S10 {BL [] 0 setdash 2 copy vpt sub vpt Square fill 2 copy exch vpt sub exch vpt Square fill
	Bsquare} bind def
/S11 {BL [] 0 setdash 2 copy vpt sub vpt Square fill 2 copy exch vpt sub exch vpt2 vpt Rec fill
	Bsquare} bind def
/S12 {BL [] 0 setdash 2 copy exch vpt sub exch vpt sub vpt2 vpt Rec fill Bsquare} bind def
/S13 {BL [] 0 setdash 2 copy exch vpt sub exch vpt sub vpt2 vpt Rec fill
	2 copy vpt Square fill Bsquare} bind def
/S14 {BL [] 0 setdash 2 copy exch vpt sub exch vpt sub vpt2 vpt Rec fill
	2 copy exch vpt sub exch vpt Square fill Bsquare} bind def
/S15 {BL [] 0 setdash 2 copy Bsquare fill Bsquare} bind def
/D0 {gsave translate 45 rotate 0 0 S0 stroke grestore} bind def
/D1 {gsave translate 45 rotate 0 0 S1 stroke grestore} bind def
/D2 {gsave translate 45 rotate 0 0 S2 stroke grestore} bind def
/D3 {gsave translate 45 rotate 0 0 S3 stroke grestore} bind def
/D4 {gsave translate 45 rotate 0 0 S4 stroke grestore} bind def
/D5 {gsave translate 45 rotate 0 0 S5 stroke grestore} bind def
/D6 {gsave translate 45 rotate 0 0 S6 stroke grestore} bind def
/D7 {gsave translate 45 rotate 0 0 S7 stroke grestore} bind def
/D8 {gsave translate 45 rotate 0 0 S8 stroke grestore} bind def
/D9 {gsave translate 45 rotate 0 0 S9 stroke grestore} bind def
/D10 {gsave translate 45 rotate 0 0 S10 stroke grestore} bind def
/D11 {gsave translate 45 rotate 0 0 S11 stroke grestore} bind def
/D12 {gsave translate 45 rotate 0 0 S12 stroke grestore} bind def
/D13 {gsave translate 45 rotate 0 0 S13 stroke grestore} bind def
/D14 {gsave translate 45 rotate 0 0 S14 stroke grestore} bind def
/D15 {gsave translate 45 rotate 0 0 S15 stroke grestore} bind def
/DiaE {stroke [] 0 setdash vpt add M
  hpt neg vpt neg V hpt vpt neg V
  hpt vpt V hpt neg vpt V closepath stroke} def
/BoxE {stroke [] 0 setdash exch hpt sub exch vpt add M
  0 vpt2 neg V hpt2 0 V 0 vpt2 V
  hpt2 neg 0 V closepath stroke} def
/TriUE {stroke [] 0 setdash vpt 1.12 mul add M
  hpt neg vpt -1.62 mul V
  hpt 2 mul 0 V
  hpt neg vpt 1.62 mul V closepath stroke} def
/TriDE {stroke [] 0 setdash vpt 1.12 mul sub M
  hpt neg vpt 1.62 mul V
  hpt 2 mul 0 V
  hpt neg vpt -1.62 mul V closepath stroke} def
/PentE {stroke [] 0 setdash gsave
  translate 0 hpt M 4 {72 rotate 0 hpt L} repeat
  closepath stroke grestore} def
/CircE {stroke [] 0 setdash 
  hpt 0 360 arc stroke} def
/Opaque {gsave closepath 1 setgray fill grestore 0 setgray closepath} def
/DiaW {stroke [] 0 setdash vpt add M
  hpt neg vpt neg V hpt vpt neg V
  hpt vpt V hpt neg vpt V Opaque stroke} def
/BoxW {stroke [] 0 setdash exch hpt sub exch vpt add M
  0 vpt2 neg V hpt2 0 V 0 vpt2 V
  hpt2 neg 0 V Opaque stroke} def
/TriUW {stroke [] 0 setdash vpt 1.12 mul add M
  hpt neg vpt -1.62 mul V
  hpt 2 mul 0 V
  hpt neg vpt 1.62 mul V Opaque stroke} def
/TriDW {stroke [] 0 setdash vpt 1.12 mul sub M
  hpt neg vpt 1.62 mul V
  hpt 2 mul 0 V
  hpt neg vpt -1.62 mul V Opaque stroke} def
/PentW {stroke [] 0 setdash gsave
  translate 0 hpt M 4 {72 rotate 0 hpt L} repeat
  Opaque stroke grestore} def
/CircW {stroke [] 0 setdash 
  hpt 0 360 arc Opaque stroke} def
/BoxFill {gsave Rec 1 setgray fill grestore} def
/Density {
  /Fillden exch def
  currentrgbcolor
  /ColB exch def /ColG exch def /ColR exch def
  /ColR ColR Fillden mul Fillden sub 1 add def
  /ColG ColG Fillden mul Fillden sub 1 add def
  /ColB ColB Fillden mul Fillden sub 1 add def
  ColR ColG ColB setrgbcolor} def
/BoxColFill {gsave Rec PolyFill} def
/PolyFill {gsave Density fill grestore grestore} def
/h {rlineto rlineto rlineto gsave closepath fill grestore} bind def
%
% PostScript Level 1 Pattern Fill routine for rectangles
% Usage: x y w h s a XX PatternFill
%	x,y = lower left corner of box to be filled
%	w,h = width and height of box
%	  a = angle in degrees between lines and x-axis
%	 XX = 0/1 for no/yes cross-hatch
%
/PatternFill {gsave /PFa [ 9 2 roll ] def
  PFa 0 get PFa 2 get 2 div add PFa 1 get PFa 3 get 2 div add translate
  PFa 2 get -2 div PFa 3 get -2 div PFa 2 get PFa 3 get Rec
  TransparentPatterns {} {gsave 1 setgray fill grestore} ifelse
  clip
  currentlinewidth 0.5 mul setlinewidth
  /PFs PFa 2 get dup mul PFa 3 get dup mul add sqrt def
  0 0 M PFa 5 get rotate PFs -2 div dup translate
  0 1 PFs PFa 4 get div 1 add floor cvi
	{PFa 4 get mul 0 M 0 PFs V} for
  0 PFa 6 get ne {
	0 1 PFs PFa 4 get div 1 add floor cvi
	{PFa 4 get mul 0 2 1 roll M PFs 0 V} for
 } if
  stroke grestore} def
%
/languagelevel where
 {pop languagelevel} {1} ifelse
dup 2 lt
	{/InterpretLevel1 true def
	 /InterpretLevel3 false def}
	{/InterpretLevel1 Level1 def
	 2 gt
	    {/InterpretLevel3 Level3 def}
	    {/InterpretLevel3 false def}
	 ifelse }
 ifelse
%
% PostScript level 2 pattern fill definitions
%
/Level2PatternFill {
/Tile8x8 {/PaintType 2 /PatternType 1 /TilingType 1 /BBox [0 0 8 8] /XStep 8 /YStep 8}
	bind def
/KeepColor {currentrgbcolor [/Pattern /DeviceRGB] setcolorspace} bind def
<< Tile8x8
 /PaintProc {0.5 setlinewidth pop 0 0 M 8 8 L 0 8 M 8 0 L stroke} 
>> matrix makepattern
/Pat1 exch def
<< Tile8x8
 /PaintProc {0.5 setlinewidth pop 0 0 M 8 8 L 0 8 M 8 0 L stroke
	0 4 M 4 8 L 8 4 L 4 0 L 0 4 L stroke}
>> matrix makepattern
/Pat2 exch def
<< Tile8x8
 /PaintProc {0.5 setlinewidth pop 0 0 M 0 8 L
	8 8 L 8 0 L 0 0 L fill}
>> matrix makepattern
/Pat3 exch def
<< Tile8x8
 /PaintProc {0.5 setlinewidth pop -4 8 M 8 -4 L
	0 12 M 12 0 L stroke}
>> matrix makepattern
/Pat4 exch def
<< Tile8x8
 /PaintProc {0.5 setlinewidth pop -4 0 M 8 12 L
	0 -4 M 12 8 L stroke}
>> matrix makepattern
/Pat5 exch def
<< Tile8x8
 /PaintProc {0.5 setlinewidth pop -2 8 M 4 -4 L
	0 12 M 8 -4 L 4 12 M 10 0 L stroke}
>> matrix makepattern
/Pat6 exch def
<< Tile8x8
 /PaintProc {0.5 setlinewidth pop -2 0 M 4 12 L
	0 -4 M 8 12 L 4 -4 M 10 8 L stroke}
>> matrix makepattern
/Pat7 exch def
<< Tile8x8
 /PaintProc {0.5 setlinewidth pop 8 -2 M -4 4 L
	12 0 M -4 8 L 12 4 M 0 10 L stroke}
>> matrix makepattern
/Pat8 exch def
<< Tile8x8
 /PaintProc {0.5 setlinewidth pop 0 -2 M 12 4 L
	-4 0 M 12 8 L -4 4 M 8 10 L stroke}
>> matrix makepattern
/Pat9 exch def
/Pattern1 {PatternBgnd KeepColor Pat1 setpattern} bind def
/Pattern2 {PatternBgnd KeepColor Pat2 setpattern} bind def
/Pattern3 {PatternBgnd KeepColor Pat3 setpattern} bind def
/Pattern4 {PatternBgnd KeepColor Landscape {Pat5} {Pat4} ifelse setpattern} bind def
/Pattern5 {PatternBgnd KeepColor Landscape {Pat4} {Pat5} ifelse setpattern} bind def
/Pattern6 {PatternBgnd KeepColor Landscape {Pat9} {Pat6} ifelse setpattern} bind def
/Pattern7 {PatternBgnd KeepColor Landscape {Pat8} {Pat7} ifelse setpattern} bind def
} def
%
%
%End of PostScript Level 2 code
%
/PatternBgnd {
  TransparentPatterns {} {gsave 1 setgray fill grestore} ifelse
} def
%
% Substitute for Level 2 pattern fill codes with
% grayscale if Level 2 support is not selected.
%
/Level1PatternFill {
/Pattern1 {0.250 Density} bind def
/Pattern2 {0.500 Density} bind def
/Pattern3 {0.750 Density} bind def
/Pattern4 {0.125 Density} bind def
/Pattern5 {0.375 Density} bind def
/Pattern6 {0.625 Density} bind def
/Pattern7 {0.875 Density} bind def
} def
%
% Now test for support of Level 2 code
%
Level1 {Level1PatternFill} {Level2PatternFill} ifelse
%
/Symbol-Oblique /Symbol findfont [1 0 .167 1 0 0] makefont
dup length dict begin {1 index /FID eq {pop pop} {def} ifelse} forall
currentdict end definefont pop
%
/Metrics {ExtendTextBox Gswidth} def
/Lwidth {currentpoint stroke M 0 vshift R Metrics} def
/Rwidth {currentpoint stroke M dup stringwidth pop neg vshift R Metrics} def
/Cwidth {currentpoint stroke M dup stringwidth pop -2 div vshift R Metrics} def
/GLwidth {currentpoint stroke M 0 vshift R {ExtendTextBox} forall} def
/GRwidth {currentpoint stroke M dup Gwidth vshift R {ExtendTextBox} forall} def
/GCwidth {currentpoint stroke M dup Gwidth 2 div vshift R {ExtendTextBox} forall} def
/GLwidth2 {0 Gwidth AddGlyphWidth} def
/GRwidth2 {Gwidth -1 mul 0 AddGlyphWidth} def
/GCwidth2 {Gwidth 2 div dup -1 mul AddGlyphWidth} def
/AddGlyphWidth { dup TBx2 gt {userdict /TBx2 3 -1 roll put} {pop} ifelse
                 dup TBx1 lt {userdict /TBx1 3 -1 roll put} {pop} ifelse } def
/MFshow {
   { dup 5 get 3 ge
     { 5 get 3 eq {gsave} {grestore} ifelse }
     {dup dup 0 get findfont exch 1 get scalefont setfont
     [ currentpoint ] exch dup 2 get 0 exch R dup 5 get 2 ne {dup dup 6
     get exch 4 get {textshow} {Metrics pop 0 R} ifelse }if dup 5 get 0 eq
     {dup 3 get {2 get neg 0 exch R pop} {pop aload pop M} ifelse} {dup 5
     get 1 eq {dup 2 get exch dup 3 get exch 6 get Gswidth pop -2 div
     dup 0 R} {dup 6 get Gswidth pop -2 div 0 R 6 get
     textshow 2 index {aload pop M neg 3 -1 roll neg R pop pop} {pop pop pop
     pop aload pop M} ifelse }ifelse }ifelse }
     ifelse }
   forall} def
/Gswidth {dup type /stringtype eq {stringwidth} {pop (n) stringwidth} ifelse} def
/MFwidth {0 exch { dup 5 get 3 ge { 5 get 3 eq { 0 } { pop } ifelse }
 {dup 3 get{dup dup 0 get findfont exch 1 get scalefont setfont
     6 get Gswidth pop add} {pop} ifelse} ifelse} forall} def
/MLshow { currentpoint stroke M
  0 exch R
  Blacktext {gsave 0 setgray MFshow grestore} {MFshow} ifelse } bind def
/MRshow { currentpoint stroke M
  exch dup MFwidth neg 3 -1 roll R
  Blacktext {gsave 0 setgray MFshow grestore} {MFshow} ifelse } bind def
/MCshow { currentpoint stroke M
  exch dup MFwidth -2 div 3 -1 roll R
  Blacktext {gsave 0 setgray MFshow grestore} {MFshow} ifelse } bind def
/XYsave    { [( ) 1 2 true false 3 ()] } bind def
/XYrestore { [( ) 1 2 true false 4 ()] } bind def
Level1 SuppressPDFMark or 
{} {
/SDict 10 dict def
systemdict /pdfmark known not {
  userdict /pdfmark systemdict /cleartomark get put
} if
SDict begin [
  /Title (gnuplot_image.eps)
  /Subject (gnuplot plot)
  /Creator (gnuplot 5.2 patchlevel 2)
%  /Producer (gnuplot)
%  /Keywords ()
  /CreationDate (Thu Apr 21 17:42:18 2022)
  /DOCINFO pdfmark
end
} ifelse
%
% Support for boxed text - Ethan A Merritt Sep 2016
%
/InitTextBox { userdict /TBy2 3 -1 roll put userdict /TBx2 3 -1 roll put
           userdict /TBy1 3 -1 roll put userdict /TBx1 3 -1 roll put
	   /Boxing true def } def
/ExtendTextBox { dup type /stringtype eq
    { Boxing { gsave dup false charpath pathbbox
      dup TBy2 gt {userdict /TBy2 3 -1 roll put} {pop} ifelse
      dup TBx2 gt {userdict /TBx2 3 -1 roll put} {pop} ifelse
      dup TBy1 lt {userdict /TBy1 3 -1 roll put} {pop} ifelse
      dup TBx1 lt {userdict /TBx1 3 -1 roll put} {pop} ifelse
      grestore } if }
    {} ifelse} def
/PopTextBox { newpath TBx1 TBxmargin sub TBy1 TBymargin sub M
               TBx1 TBxmargin sub TBy2 TBymargin add L
	       TBx2 TBxmargin add TBy2 TBymargin add L
	       TBx2 TBxmargin add TBy1 TBymargin sub L closepath } def
/DrawTextBox { PopTextBox stroke /Boxing false def} def
/FillTextBox { gsave PopTextBox fill grestore /Boxing false def} def
0 0 0 0 InitTextBox
/TBxmargin 20 def
/TBymargin 20 def
/Boxing false def
/textshow { ExtendTextBox Gshow } def
%
end
%%EndProlog
%%Page: 1 1
gnudict begin
gsave
doclip
50 50 translate
0.050 0.050 scale
0 setgray
newpath
(Helvetica) findfont 140 scalefont setfont
BackgroundColor 0 lt 3 1 roll 0 lt exch 0 lt or or not {BackgroundColor C 1.000 0 0 7200.00 5040.00 BoxColFill} if
/Helvetica findfont 140 scalefont setfont
/vshift -46 def
1.000 UL
LTb
LCb setrgbcolor
1022 448 M
63 0 V
5862 0 R
-63 0 V
stroke
938 448 M
[ [(Helvetica) 140.0 0.0 true true 0 (-0.0002)]
] -46.7 MRshow
1.000 UL
LTb
LCb setrgbcolor
1022 1004 M
63 0 V
5862 0 R
-63 0 V
stroke
938 1004 M
[ [(Helvetica) 140.0 0.0 true true 0 (-0.00015)]
] -46.7 MRshow
1.000 UL
LTb
LCb setrgbcolor
1022 1561 M
63 0 V
5862 0 R
-63 0 V
stroke
938 1561 M
[ [(Helvetica) 140.0 0.0 true true 0 (-0.0001)]
] -46.7 MRshow
1.000 UL
LTb
LCb setrgbcolor
1022 2117 M
63 0 V
5862 0 R
-63 0 V
stroke
938 2117 M
[ [(Helvetica) 140.0 0.0 true true 0 (-5x10)]
[(Helvetica) 112.0 70.0 true true 0 (-5)]
] -60.7 MRshow
1.000 UL
LTb
LCb setrgbcolor
1022 2674 M
63 0 V
5862 0 R
-63 0 V
stroke
938 2674 M
[ [(Helvetica) 140.0 0.0 true true 0 ( 0)]
] -46.7 MRshow
1.000 UL
LTb
LCb setrgbcolor
1022 3230 M
63 0 V
5862 0 R
-63 0 V
stroke
938 3230 M
[ [(Helvetica) 140.0 0.0 true true 0 ( 5x10)]
[(Helvetica) 112.0 70.0 true true 0 (-5)]
] -60.7 MRshow
1.000 UL
LTb
LCb setrgbcolor
1022 3786 M
63 0 V
5862 0 R
-63 0 V
stroke
938 3786 M
[ [(Helvetica) 140.0 0.0 true true 0 ( 0.0001)]
] -46.7 MRshow
1.000 UL
LTb
LCb setrgbcolor
1022 4343 M
63 0 V
5862 0 R
-63 0 V
stroke
938 4343 M
[ [(Helvetica) 140.0 0.0 true true 0 ( 0.00015)]
] -46.7 MRshow
1.000 UL
LTb
LCb setrgbcolor
1022 4899 M
63 0 V
5862 0 R
-63 0 V
stroke
938 4899 M
[ [(Helvetica) 140.0 0.0 true true 0 ( 0.0002)]
] -46.7 MRshow
1.000 UL
LTb
LCb setrgbcolor
1022 448 M
0 63 V
0 4388 R
0 -63 V
stroke
1022 308 M
[ [(Helvetica) 140.0 0.0 true true 0 (-0.0002)]
] -46.7 MCshow
1.000 UL
LTb
LCb setrgbcolor
1763 448 M
0 63 V
0 4388 R
0 -63 V
stroke
1763 308 M
[ [(Helvetica) 140.0 0.0 true true 0 (-0.00015)]
] -46.7 MCshow
1.000 UL
LTb
LCb setrgbcolor
2503 448 M
0 63 V
0 4388 R
0 -63 V
stroke
2503 308 M
[ [(Helvetica) 140.0 0.0 true true 0 (-0.0001)]
] -46.7 MCshow
1.000 UL
LTb
LCb setrgbcolor
3244 448 M
0 63 V
0 4388 R
0 -63 V
stroke
3244 308 M
[ [(Helvetica) 140.0 0.0 true true 0 (-5x10)]
[(Helvetica) 112.0 70.0 true true 0 (-5)]
] -60.7 MCshow
1.000 UL
LTb
LCb setrgbcolor
3984 448 M
0 63 V
0 4388 R
0 -63 V
stroke
3984 308 M
[ [(Helvetica) 140.0 0.0 true true 0 ( 0)]
] -46.7 MCshow
1.000 UL
LTb
LCb setrgbcolor
4725 448 M
0 63 V
0 4388 R
0 -63 V
stroke
4725 308 M
[ [(Helvetica) 140.0 0.0 true true 0 ( 5x10)]
[(Helvetica) 112.0 70.0 true true 0 (-5)]
] -60.7 MCshow
1.000 UL
LTb
LCb setrgbcolor
5466 448 M
0 63 V
0 4388 R
0 -63 V
stroke
5466 308 M
[ [(Helvetica) 140.0 0.0 true true 0 ( 0.0001)]
] -46.7 MCshow
1.000 UL
LTb
LCb setrgbcolor
6206 448 M
0 63 V
0 4388 R
0 -63 V
stroke
6206 308 M
[ [(Helvetica) 140.0 0.0 true true 0 ( 0.00015)]
] -46.7 MCshow
1.000 UL
LTb
LCb setrgbcolor
6947 448 M
0 63 V
0 4388 R
0 -63 V
stroke
6947 308 M
[ [(Helvetica) 140.0 0.0 true true 0 ( 0.0002)]
] -46.7 MCshow
1.000 UL
LTb
LCb setrgbcolor
1.000 UL
LTB
LCb setrgbcolor
1022 4899 N
0 -4451 V
5925 0 V
0 4451 V
-5925 0 V
Z stroke
1.000 UP
1.000 UL
LTb
LCb setrgbcolor
LCb setrgbcolor
126 2673 M
currentpoint gsave translate -270 rotate 0 0 moveto
[ [(Helvetica) 140.0 0.0 true true 0 (Z [cm])]
] -46.7 MCshow
grestore
LTb
LCb setrgbcolor
3984 98 M
[ [(Helvetica) 140.0 0.0 true true 0 (Y [m])]
] -46.7 MCshow
LTb
% Begin plot #1
0.400 UP
1.000 UL
LTb
0.58 0.00 0.83 C /Helvetica findfont 140 scalefont setfont
LCb setrgbcolor
3290 581 M
("zgoubi.fai" u \($10\):\($12\)) Rshow
0.400 UP
1.000 UL
LTb
0.58 0.00 0.83 C 3979 2689 Box
3996 2654 Box
4030 2685 Box
4151 1960 Box
4006 2688 Box
3996 2578 Box
4489 2805 Box
3988 2665 Box
3350 786 Box
3998 2687 Box
3936 2669 Box
4003 2659 Box
4152 2650 Box
4007 2664 Box
4170 2713 Box
3952 2687 Box
4348 2823 Box
4022 2653 Box
4004 2685 Box
4030 2681 Box
3930 2611 Box
4001 2693 Box
3969 2675 Box
3976 2658 Box
4009 2660 Box
4000 2676 Box
4024 2783 Box
3948 2683 Box
4028 2661 Box
3949 2691 Box
3959 2646 Box
4018 2672 Box
3938 2676 Box
3980 2660 Box
4018 2690 Box
3827 2664 Box
3991 2684 Box
3938 2662 Box
3978 2683 Box
3968 2685 Box
3991 2659 Box
4016 2656 Box
3993 2688 Box
3993 2661 Box
3929 2647 Box
4003 2662 Box
3977 2618 Box
3966 2686 Box
3983 2660 Box
4030 2666 Box
4021 2898 Box
4014 2674 Box
3973 2667 Box
3943 2668 Box
3984 2628 Box
4005 2663 Box
3961 2695 Box
3959 2675 Box
4121 2689 Box
3992 2668 Box
3928 2654 Box
3945 2666 Box
3983 2663 Box
4182 2712 Box
3991 2656 Box
3946 2664 Box
3624 2772 Box
4015 2693 Box
3984 2687 Box
3964 2593 Box
3997 2687 Box
3941 2685 Box
3955 2671 Box
3947 2663 Box
3988 2684 Box
4025 2663 Box
3974 2688 Box
3951 2655 Box
3978 2664 Box
4007 2662 Box
3939 2677 Box
3981 2622 Box
3937 2682 Box
4022 2657 Box
3948 2688 Box
3999 2668 Box
3983 2654 Box
3953 2681 Box
3980 2698 Box
3959 2686 Box
3983 2702 Box
3982 2626 Box
3939 2681 Box
3868 2873 Box
4073 2815 Box
3997 2685 Box
3976 2795 Box
3998 2687 Box
4127 2877 Box
3980 2688 Box
3948 2688 Box
4015 2687 Box
4002 2661 Box
3743 2677 Box
3989 2905 Box
4257 2708 Box
3974 2757 Box
4000 2677 Box
3943 2690 Box
4004 2666 Box
4273 4184 Box
3957 2609 Box
3962 2684 Box
3977 2653 Box
3967 2682 Box
4002 2789 Box
4005 2659 Box
4026 2661 Box
4097 2951 Box
3855 2453 Box
4038 3252 Box
4008 2653 Box
3967 2686 Box
3898 3267 Box
3974 2675 Box
3985 2676 Box
3913 2808 Box
3789 2714 Box
3969 2664 Box
3959 2670 Box
3955 2694 Box
3958 2689 Box
3576 2682 Box
3899 2681 Box
3985 2685 Box
3964 2687 Box
4041 2644 Box
4221 2667 Box
3445 2730 Box
4011 2657 Box
3977 2661 Box
3992 2659 Box
4013 2658 Box
3900 2665 Box
3787 2698 Box
3935 2677 Box
3935 2667 Box
4000 2677 Box
3946 2692 Box
3966 2663 Box
3939 2687 Box
3951 2690 Box
3944 2928 Box
3985 2617 Box
4006 2693 Box
3990 2682 Box
4010 2480 Box
3982 2667 Box
3934 2542 Box
3905 2659 Box
3941 2689 Box
3994 2239 Box
4009 2659 Box
3968 2680 Box
4055 2565 Box
3988 2494 Box
3998 2726 Box
3967 2670 Box
3973 2688 Box
3992 2660 Box
4001 2740 Box
3984 2703 Box
3510 2701 Box
4011 2689 Box
3980 2684 Box
3986 2687 Box
3942 2440 Box
3999 2671 Box
3972 2661 Box
3897 2187 Box
3993 2648 Box
4024 2678 Box
3916 2643 Box
3979 2660 Box
3738 2705 Box
4012 2759 Box
3986 2671 Box
3976 2666 Box
3972 2686 Box
4007 2687 Box
3987 2687 Box
4091 2657 Box
3920 2176 Box
4062 2697 Box
3941 2658 Box
4020 2665 Box
3941 2687 Box
4249 2681 Box
3889 2688 Box
4029 2654 Box
4008 2686 Box
4009 2659 Box
3551 2105 Box
3975 2677 Box
3986 2659 Box
4023 2657 Box
3968 2661 Box
3986 2615 Box
3982 2473 Box
3970 2673 Box
3974 2679 Box
3989 2673 Box
3939 2687 Box
3974 2686 Box
4477 2731 Box
3976 2674 Box
4024 2704 Box
4026 2648 Box
3924 2512 Box
3954 2657 Box
4009 2658 Box
4034 2674 Box
3987 2649 Box
4017 2690 Box
3972 2658 Box
3852 2680 Box
3984 2719 Box
3998 2675 Box
3985 2668 Box
3983 2581 Box
3984 2714 Box
4045 3072 Box
3997 2686 Box
4089 2903 Box
4054 2682 Box
3973 2659 Box
4027 2658 Box
3955 2690 Box
3991 2663 Box
3945 2688 Box
3952 2693 Box
4028 2672 Box
3999 2673 Box
3952 2692 Box
3816 2698 Box
3963 2522 Box
4136 2685 Box
4034 2673 Box
3996 2674 Box
3999 2682 Box
4016 2669 Box
3971 2682 Box
4030 2650 Box
3979 2662 Box
3927 2147 Box
5613 2670 Box
3945 2680 Box
3985 2682 Box
3949 2503 Box
4013 2685 Box
4226 2718 Box
3974 2664 Box
3961 2996 Box
4000 2099 Box
3942 2671 Box
3977 2677 Box
3968 2652 Box
3983 2682 Box
4009 2687 Box
3979 2662 Box
3987 2660 Box
3911 2419 Box
3976 2683 Box
3983 2689 Box
4009 2659 Box
3952 2671 Box
3985 2659 Box
4152 2928 Box
3961 2463 Box
3985 2705 Box
3939 2661 Box
3953 2688 Box
3919 2654 Box
3935 2675 Box
3980 2659 Box
3973 2673 Box
3913 2717 Box
4026 2689 Box
3941 2685 Box
3939 2674 Box
4002 2701 Box
3952 2686 Box
3993 2692 Box
3990 2681 Box
3967 2647 Box
3988 2658 Box
3984 2642 Box
4070 2674 Box
3938 2680 Box
4013 2675 Box
4258 3117 Box
3975 2677 Box
3975 2671 Box
3952 2681 Box
3971 2687 Box
3999 2811 Box
3951 2669 Box
4021 2669 Box
3959 2654 Box
3970 2681 Box
3948 2691 Box
4028 2663 Box
3980 2697 Box
3999 2655 Box
4019 2540 Box
3960 2682 Box
3939 2671 Box
3937 2664 Box
3938 2389 Box
4032 2679 Box
4025 2363 Box
3962 2192 Box
4233 2706 Box
3994 2715 Box
3992 2688 Box
3998 2686 Box
3987 2740 Box
3948 2661 Box
3982 2704 Box
3995 2667 Box
3759 2632 Box
3974 2674 Box
3974 2667 Box
3992 2668 Box
4044 2679 Box
3948 2689 Box
4029 2685 Box
3998 2689 Box
4007 2689 Box
3655 2714 Box
3989 2714 Box
3957 2689 Box
3828 2710 Box
3985 2674 Box
4034 2668 Box
4019 2676 Box
3987 2653 Box
3970 2665 Box
3973 2687 Box
3962 2661 Box
4240 2641 Box
4010 2660 Box
3983 2650 Box
3999 2658 Box
3982 2696 Box
3985 2711 Box
3714 2644 Box
3871 2736 Box
3971 2666 Box
3980 2685 Box
3979 2663 Box
3941 2681 Box
3974 2694 Box
4032 2679 Box
3953 2667 Box
3963 2756 Box
4026 2680 Box
4075 2598 Box
4132 3000 Box
3831 2737 Box
3973 2684 Box
3843 2623 Box
3920 2695 Box
3951 2577 Box
4030 2674 Box
2698 2684 Box
4015 2690 Box
3961 2659 Box
4012 2658 Box
3938 2679 Box
4004 2658 Box
3952 2665 Box
3987 2678 Box
3981 2651 Box
4006 2689 Box
3953 2690 Box
3857 2668 Box
3982 2664 Box
3936 2667 Box
4014 2657 Box
3998 2672 Box
3996 2697 Box
3997 2657 Box
4034 2676 Box
4148 2600 Box
3842 3103 Box
4030 2675 Box
3948 2739 Box
3964 2682 Box
4007 2662 Box
3992 2652 Box
3970 2673 Box
3982 2666 Box
3962 2658 Box
4336 2623 Box
3993 2681 Box
3926 2802 Box
4018 2655 Box
3994 2659 Box
3985 2667 Box
5291 2574 Box
3980 2659 Box
3985 2688 Box
3974 2674 Box
4000 2698 Box
4027 2683 Box
4016 3001 Box
3909 2747 Box
4093 2708 Box
3915 2674 Box
3989 2695 Box
3988 2665 Box
4044 2696 Box
4031 2438 Box
3948 2659 Box
3974 2720 Box
3969 2673 Box
3984 2759 Box
3994 2687 Box
3992 2661 Box
3945 2692 Box
4053 2813 Box
3984 2599 Box
3982 2640 Box
3938 2666 Box
4021 2654 Box
4019 2479 Box
4026 2671 Box
3931 2673 Box
4005 2665 Box
4043 2761 Box
4014 2691 Box
3896 2800 Box
3965 2687 Box
4004 2670 Box
4062 2643 Box
3975 2607 Box
3992 2680 Box
3933 2718 Box
3995 2660 Box
4048 2650 Box
3965 2665 Box
3956 2666 Box
3528 2723 Box
3973 2659 Box
3986 2637 Box
3938 2686 Box
3978 2655 Box
3965 2659 Box
4027 2646 Box
3949 2672 Box
3367 2637 Box
3973 2649 Box
4010 2989 Box
4026 2658 Box
3326 2639 Box
4109 2860 Box
3975 2710 Box
3955 2688 Box
3808 2543 Box
3986 2649 Box
3975 3053 Box
4031 2675 Box
3938 2673 Box
3982 2694 Box
3916 2647 Box
3951 2675 Box
3938 2683 Box
3730 2885 Box
4008 2688 Box
4027 2657 Box
3977 2660 Box
3997 2668 Box
3974 2655 Box
4015 2655 Box
4172 2628 Box
3991 2672 Box
4025 2691 Box
3984 2683 Box
3984 2850 Box
4013 2689 Box
4122 2531 Box
3912 2741 Box
3940 2687 Box
3647 2666 Box
3997 2690 Box
3959 2658 Box
3920 2353 Box
3935 2667 Box
3964 2667 Box
4016 2645 Box
3392 2695 Box
4010 2679 Box
3944 2689 Box
4108 2415 Box
3985 2750 Box
3972 3113 Box
3993 2687 Box
4013 2671 Box
4009 2677 Box
3959 2672 Box
3976 2658 Box
3963 2687 Box
4020 2690 Box
3972 2664 Box
3949 2669 Box
3975 2666 Box
3976 2659 Box
4149 2679 Box
4102 3178 Box
3940 2684 Box
4011 2687 Box
4017 2690 Box
4027 2676 Box
4314 3060 Box
3967 2828 Box
4018 2691 Box
3996 2683 Box
3920 2678 Box
3995 2679 Box
3997 2667 Box
3995 2669 Box
3971 2589 Box
3985 2624 Box
3996 2581 Box
3985 2759 Box
3993 1200 Box
3983 2683 Box
3979 2658 Box
3982 2677 Box
3884 2297 Box
3990 2667 Box
4009 2686 Box
4129 2800 Box
3915 2703 Box
3999 2670 Box
3986 2663 Box
3939 2659 Box
3960 2688 Box
3944 2661 Box
3926 2721 Box
4007 2685 Box
3953 2677 Box
3986 2659 Box
3987 2669 Box
3989 2650 Box
4113 2646 Box
3982 2661 Box
4013 2668 Box
4025 2675 Box
3935 2675 Box
3962 2681 Box
3973 2664 Box
4004 2658 Box
3930 2654 Box
4002 2669 Box
4101 2736 Box
4032 2666 Box
4030 2688 Box
4021 2654 Box
3950 2697 Box
4024 2686 Box
4002 2664 Box
4119 2780 Box
3957 2665 Box
4028 2688 Box
3982 2768 Box
3947 2980 Box
4126 2005 Box
4007 2687 Box
3974 2673 Box
3978 2692 Box
4030 2687 Box
3985 2692 Box
3998 2660 Box
3991 2667 Box
3999 2700 Box
4032 2663 Box
3982 2661 Box
3994 2673 Box
3992 2698 Box
3953 2690 Box
3949 2692 Box
4045 2643 Box
4026 2691 Box
3943 2662 Box
3983 2662 Box
3986 2686 Box
4030 2680 Box
4004 2699 Box
3974 2674 Box
3829 2609 Box
3707 3384 Box
3993 2652 Box
4043 2838 Box
3972 2681 Box
4008 2695 Box
3980 2661 Box
3951 2529 Box
3999 2651 Box
3976 2592 Box
3968 2659 Box
3956 2661 Box
4018 2657 Box
3935 2678 Box
3922 2669 Box
4230 2630 Box
4168 2686 Box
3787 3940 Box
3990 2708 Box
3947 2646 Box
3990 2685 Box
3900 2643 Box
3820 3519 Box
3907 2706 Box
3938 2680 Box
3942 2664 Box
3971 2689 Box
3955 2657 Box
4007 2672 Box
3984 2665 Box
3996 2692 Box
3968 2658 Box
3987 2673 Box
3946 2688 Box
3975 2681 Box
3858 2709 Box
3990 2681 Box
3697 3168 Box
3982 2659 Box
3987 2605 Box
3848 2722 Box
4651 2710 Box
3946 2654 Box
4011 2665 Box
3973 2678 Box
3949 3135 Box
4033 2672 Box
4039 2397 Box
3967 2658 Box
4011 2674 Box
4008 2662 Box
4045 2687 Box
3949 2674 Box
3938 2684 Box
3938 2683 Box
3984 2649 Box
3981 2688 Box
3888 3115 Box
3984 2628 Box
4003 2672 Box
4011 2695 Box
3942 2689 Box
3959 2730 Box
3949 2656 Box
4006 2688 Box
4143 2464 Box
4077 2707 Box
3985 2632 Box
4015 2690 Box
3948 2647 Box
3996 2682 Box
3970 2673 Box
3951 2954 Box
3966 2686 Box
3960 2687 Box
3988 2726 Box
3784 2638 Box
4016 2654 Box
3967 2682 Box
4244 2721 Box
3987 2696 Box
3987 2706 Box
3959 2663 Box
3963 2672 Box
4026 2664 Box
3991 2671 Box
3982 2696 Box
3986 2661 Box
4815 2652 Box
3183 1956 Box
3956 2655 Box
3956 2659 Box
4108 3741 Box
3930 2788 Box
4008 2721 Box
3969 2699 Box
3990 2597 Box
4138 3142 Box
3984 2661 Box
3991 2685 Box
4400 3631 Box
3891 2652 Box
3972 2660 Box
4027 2581 Box
4007 2688 Box
3991 2678 Box
3963 2661 Box
3983 2921 Box
3964 2818 Box
3999 2669 Box
4268 3257 Box
3952 2673 Box
3985 2751 Box
4002 2667 Box
3986 2662 Box
4000 2654 Box
3951 2691 Box
3994 2713 Box
4026 2684 Box
3959 2668 Box
3988 2688 Box
3943 2691 Box
4063 2318 Box
3835 2239 Box
4026 2656 Box
3994 2697 Box
4002 2661 Box
3922 2704 Box
4024 2656 Box
3957 2758 Box
3969 2749 Box
4108 2353 Box
3980 2664 Box
3899 2749 Box
3998 2695 Box
3982 2766 Box
3978 2664 Box
4017 2691 Box
4277 2702 Box
3904 2642 Box
4013 2694 Box
3999 2650 Box
4031 2664 Box
3945 2690 Box
3988 2645 Box
4095 2817 Box
3960 2658 Box
3997 2776 Box
3991 2680 Box
3952 2659 Box
3934 2196 Box
3345 2647 Box
4011 2687 Box
3955 2658 Box
3987 2679 Box
4005 2654 Box
3968 2685 Box
4019 2656 Box
4718 2694 Box
3905 2643 Box
3982 2644 Box
3944 2691 Box
3998 2688 Box
4348 2697 Box
4010 2667 Box
3982 2683 Box
3991 2527 Box
3986 2415 Box
3819 2673 Box
3995 2678 Box
4047 2815 Box
3973 2661 Box
3690 2543 Box
3977 2828 Box
4045 2657 Box
3986 2638 Box
4247 2631 Box
3762 2671 Box
3985 2687 Box
3824 2374 Box
3986 2676 Box
4126 2640 Box
3085 2593 Box
3986 2738 Box
4028 2674 Box
3993 2683 Box
3976 2689 Box
3993 2739 Box
3995 2666 Box
4012 2689 Box
3981 2676 Box
3984 2687 Box
3981 2646 Box
4324 2771 Box
3949 2656 Box
3985 2637 Box
3977 2687 Box
3937 2673 Box
4011 2658 Box
3946 2686 Box
3992 2687 Box
4023 2656 Box
4000 2661 Box
3873 2778 Box
3790 2640 Box
3985 2734 Box
3903 2974 Box
3972 2578 Box
3845 2828 Box
4009 2903 Box
4088 3120 Box
3903 4064 Box
4017 3094 Box
4179 2695 Box
3974 2661 Box
3995 2435 Box
3971 2672 Box
3497 3501 Box
4018 2693 Box
3998 2672 Box
4029 2700 Box
3978 2691 Box
3937 2671 Box
3903 2704 Box
4006 2687 Box
3995 2659 Box
4157 2651 Box
3779 3085 Box
4012 2682 Box
3952 2657 Box
4017 2684 Box
3807 2708 Box
3995 2687 Box
3802 2655 Box
3966 2699 Box
3969 2659 Box
3982 2644 Box
3985 2620 Box
4372 2312 Box
3966 2688 Box
3942 2660 Box
3966 2527 Box
4024 2673 Box
4061 2644 Box
3981 2883 Box
4026 2680 Box
4644 2941 Box
4011 2692 Box
4016 2661 Box
3991 2660 Box
4006 2686 Box
3991 2211 Box
3981 2824 Box
3981 2695 Box
3889 2650 Box
3990 2688 Box
3991 2660 Box
4482 2421 Box
3944 2725 Box
3985 2708 Box
4003 2682 Box
4001 2696 Box
3991 2696 Box
3977 2746 Box
3966 2651 Box
3979 2101 Box
3200 2603 Box
3928 2778 Box
4015 2657 Box
4094 2673 Box
4001 2480 Box
3995 2691 Box
3955 2699 Box
4024 2655 Box
3994 2683 Box
3956 2690 Box
3943 2649 Box
3942 2659 Box
4002 2492 Box
4032 2664 Box
4016 2694 Box
3973 2668 Box
4002 2713 Box
3977 2675 Box
3984 2724 Box
4218 2735 Box
3907 2681 Box
3938 2686 Box
4002 2687 Box
3992 2685 Box
4019 2679 Box
3690 3882 Box
3968 2682 Box
3952 2655 Box
4018 2690 Box
4186 3319 Box
3988 2763 Box
3955 2690 Box
3980 2699 Box
3961 2689 Box
3924 2835 Box
4005 2677 Box
3989 2675 Box
4094 3342 Box
3986 2635 Box
4148 2429 Box
4067 2901 Box
4000 2659 Box
3990 2653 Box
3973 2648 Box
3951 2465 Box
3969 2656 Box
3836 2117 Box
3995 2664 Box
3989 2678 Box
4039 2473 Box
3795 2708 Box
3980 2650 Box
4050 3024 Box
3945 2690 Box
3957 2658 Box
3983 2649 Box
4031 2666 Box
3972 2678 Box
3827 2947 Box
4049 2536 Box
3958 2670 Box
3883 2956 Box
3941 2689 Box
3995 2521 Box
3945 2689 Box
3968 2664 Box
3978 2647 Box
3979 2670 Box
3995 2415 Box
3943 2283 Box
4017 2679 Box
3990 2666 Box
4061 2605 Box
3977 2659 Box
3976 2480 Box
3896 3308 Box
3973 2669 Box
4247 2632 Box
3943 2691 Box
3963 2688 Box
3969 2662 Box
4009 2659 Box
4147 2522 Box
3959 2688 Box
3991 2679 Box
4006 2687 Box
3935 2671 Box
3991 2683 Box
3962 2700 Box
3971 2659 Box
3997 2697 Box
4031 2663 Box
3966 2668 Box
3988 2667 Box
4373 2356 Box
3981 2678 Box
3881 3155 Box
4022 2655 Box
3968 2669 Box
3947 2668 Box
4017 2692 Box
4029 2659 Box
3876 2690 Box
4023 2675 Box
4011 2655 Box
3979 2655 Box
3964 2687 Box
3957 2657 Box
3989 2688 Box
3986 2659 Box
3976 2521 Box
3946 2680 Box
4033 2682 Box
4269 3091 Box
3985 2638 Box
4004 2686 Box
3962 2663 Box
3961 2659 Box
3947 2657 Box
4031 2661 Box
3902 2434 Box
3952 2787 Box
4009 2682 Box
3975 2738 Box
4030 2626 Box
4018 2684 Box
3961 2653 Box
4014 2658 Box
4001 2662 Box
4031 2681 Box
4004 2651 Box
3787 3145 Box
3988 2649 Box
3966 2661 Box
3942 2669 Box
4071 2670 Box
3993 2694 Box
3995 2667 Box
3988 2687 Box
4029 2659 Box
3927 2648 Box
3972 2660 Box
4034 2669 Box
4310 2817 Box
4015 2669 Box
4003 2689 Box
3976 2670 Box
4026 2671 Box
3959 2695 Box
4134 2500 Box
4018 2682 Box
4024 2672 Box
3974 2245 Box
3941 2675 Box
4122 2574 Box
3741 1930 Box
3956 2682 Box
3977 2627 Box
3948 2686 Box
4030 2687 Box
3935 2677 Box
4025 2656 Box
3935 2668 Box
3959 2695 Box
4015 2661 Box
3856 2645 Box
3956 2665 Box
3726 3830 Box
3998 2671 Box
3990 2668 Box
4002 2525 Box
4018 2690 Box
3991 2581 Box
3969 2850 Box
4027 2672 Box
3836 2994 Box
3966 2667 Box
4016 2674 Box
3991 2736 Box
3989 3082 Box
3999 2659 Box
4027 2680 Box
3932 2698 Box
3964 2663 Box
3979 2678 Box
3946 2631 Box
3993 2673 Box
4034 2669 Box
3646 2639 Box
3981 2693 Box
3947 2682 Box
3994 2585 Box
3956 2553 Box
3949 2674 Box
4016 2694 Box
4002 2654 Box
3728 2756 Box
4066 2655 Box
4063 3034 Box
4111 2666 Box
3987 2743 Box
3985 2632 Box
3664 2666 Box
3955 2670 Box
3968 2664 Box
3985 2634 Box
3959 2687 Box
3963 2716 Box
4019 2687 Box
3981 2678 Box
3988 2702 Box
3976 2674 Box
3980 2684 Box
3984 2625 Box
3943 2656 Box
3486 2615 Box
3987 2705 Box
3964 2664 Box
3822 2401 Box
4012 2669 Box
3971 2650 Box
3972 2653 Box
4323 2703 Box
4033 2671 Box
4027 2659 Box
4034 2670 Box
3973 2672 Box
3998 2677 Box
4143 2064 Box
4147 2307 Box
4032 2595 Box
3968 2667 Box
3974 2666 Box
4195 2510 Box
3640 2633 Box
3976 2686 Box
3952 2693 Box
4000 2678 Box
3970 3039 Box
3983 2736 Box
3976 2684 Box
4012 2689 Box
3968 2700 Box
4231 2635 Box
4065 2820 Box
4140 2636 Box
4007 2652 Box
3974 2688 Box
4010 2658 Box
3973 2665 Box
3987 2650 Box
4011 2658 Box
4008 2684 Box
3915 2759 Box
4126 2676 Box
3999 2691 Box
4002 2677 Box
3915 2979 Box
3938 2681 Box
4050 2715 Box
4032 2665 Box
3977 2701 Box
3986 2607 Box
4018 2287 Box
3705 2764 Box
4004 2526 Box
3946 2702 Box
3965 2679 Box
3972 2663 Box
3673 2720 Box
4016 2688 Box
3984 2659 Box
3931 2577 Box
3976 2653 Box
4023 2670 Box
3952 2688 Box
3992 2669 Box
3972 2663 Box
3950 2650 Box
3988 2647 Box
3958 2658 Box
3894 2764 Box
3942 2682 Box
3999 2669 Box
4009 2863 Box
3995 2682 Box
3955 2681 Box
4099 2434 Box
4016 2690 Box
3901 2358 Box
3995 2668 Box
3981 2707 Box
3715 1915 Box
3972 2669 Box
3999 2647 Box
3615 2629 Box
3951 2670 Box
3940 2665 Box
3937 2647 Box
3980 2666 Box
4100 2733 Box
3951 2661 Box
3993 2664 Box
3944 2666 Box
3940 2687 Box
4009 2692 Box
3951 2654 Box
3985 2703 Box
3959 2994 Box
3994 2664 Box
3991 2687 Box
3937 2696 Box
3941 2685 Box
3717 2689 Box
3807 2459 Box
3998 2674 Box
3978 2651 Box
3940 2688 Box
4097 2494 Box
4214 3223 Box
4030 2659 Box
3990 2688 Box
3989 2672 Box
3988 2673 Box
4012 2694 Box
4006 2688 Box
3998 2663 Box
3944 2661 Box
3987 2700 Box
4008 2656 Box
4292 2767 Box
4009 2712 Box
3994 2592 Box
4020 2656 Box
3936 2680 Box
3989 2671 Box
3871 2639 Box
4017 2682 Box
4003 2670 Box
4032 2679 Box
3961 2689 Box
4081 2645 Box
3976 2651 Box
3989 2690 Box
4040 2298 Box
3937 2684 Box
3935 2674 Box
3972 2670 Box
3973 2683 Box
3973 2670 Box
4016 2677 Box
4022 2657 Box
4020 2663 Box
4000 2661 Box
3846 2622 Box
4018 2660 Box
3993 2825 Box
4009 2688 Box
3978 2662 Box
4030 2664 Box
4096 2796 Box
4028 2689 Box
4030 2668 Box
3953 2683 Box
4462 3394 Box
3970 2658 Box
3984 2714 Box
4039 1798 Box
3985 2685 Box
3943 2641 Box
3499 2714 Box
3987 2548 Box
3968 2669 Box
3989 2684 Box
3948 2683 Box
3999 2686 Box
4051 2701 Box
4012 2675 Box
3969 2687 Box
3962 2661 Box
3940 2728 Box
4004 2682 Box
4026 2688 Box
4009 2523 Box
4016 2658 Box
3974 2779 Box
3833 2711 Box
3984 2664 Box
4024 3253 Box
3903 2701 Box
3935 2692 Box
3974 2682 Box
4002 2683 Box
4016 2551 Box
4026 2683 Box
4014 2690 Box
4074 2514 Box
4005 2661 Box
3889 3280 Box
3994 2716 Box
3984 2635 Box
3996 2669 Box
3703 2628 Box
3945 2664 Box
3950 2684 Box
4027 2659 Box
3978 2688 Box
3970 2688 Box
3797 2567 Box
3978 2683 Box
3990 2698 Box
4046 2401 Box
4010 2661 Box
3979 2695 Box
3696 2930 Box
3988 2647 Box
4015 2658 Box
3969 2673 Box
4020 2654 Box
4032 2671 Box
3975 2652 Box
3792 1681 Box
4218 3786 Box
4040 2663 Box
3963 2689 Box
4032 2678 Box
4032 2669 Box
4147 2663 Box
3955 2653 Box
4011 2657 Box
3987 2630 Box
4028 2665 Box
3943 2691 Box
4023 2655 Box
4047 2732 Box
3976 1555 Box
3984 2745 Box
3637 3645 Box
4006 2684 Box
4130 3175 Box
3983 2695 Box
3982 2705 Box
3986 2636 Box
4017 2656 Box
3989 2660 Box
4003 2689 Box
4032 2681 Box
4336 2625 Box
3984 2649 Box
3949 2654 Box
4293 2762 Box
4018 2905 Box
4001 2773 Box
3973 2672 Box
3948 2700 Box
3989 2681 Box
3944 2664 Box
3948 2662 Box
3935 2674 Box
3900 2697 Box
3962 2688 Box
3721 2636 Box
4029 2663 Box
3959 2680 Box
4027 2665 Box
3714 2645 Box
3986 2631 Box
4078 2779 Box
4035 2645 Box
4102 2901 Box
3955 2693 Box
3958 2652 Box
4028 2658 Box
4008 2661 Box
3954 2690 Box
4034 2673 Box
3990 2650 Box
3979 2828 Box
3989 2671 Box
4000 2664 Box
4127 3206 Box
3998 2649 Box
3736 2627 Box
4138 2599 Box
3986 2698 Box
4026 2063 Box
3806 2654 Box
3985 2813 Box
4040 2786 Box
3984 2598 Box
3952 2687 Box
3956 2656 Box
3987 2664 Box
3945 2689 Box
3947 2693 Box
3955 2523 Box
3971 2690 Box
3788 2714 Box
3985 2688 Box
3974 2695 Box
3988 2608 Box
3958 2688 Box
3660 2026 Box
3975 2688 Box
3988 2648 Box
3944 2659 Box
3936 2667 Box
4016 2684 Box
3975 2648 Box
4024 2684 Box
3958 2654 Box
4030 2659 Box
4274 2649 Box
3992 2559 Box
4013 2672 Box
3993 2769 Box
4033 2668 Box
3951 2568 Box
3995 2680 Box
3978 2674 Box
3998 2689 Box
4032 2642 Box
3984 2662 Box
3782 1789 Box
3959 2672 Box
3998 2667 Box
3962 2686 Box
3996 1895 Box
3975 2667 Box
3983 2659 Box
3971 2673 Box
4022 2533 Box
3962 2661 Box
3977 2689 Box
3895 2700 Box
3905 2672 Box
4000 2658 Box
3984 2672 Box
3984 2670 Box
4034 2667 Box
4000 2659 Box
3958 2689 Box
4373 2710 Box
4024 2670 Box
3975 2683 Box
4029 2688 Box
4233 2619 Box
3992 2697 Box
4220 2721 Box
4007 2659 Box
3944 2662 Box
4033 2670 Box
4019 2693 Box
3608 2701 Box
3981 2684 Box
3957 2660 Box
4014 2673 Box
3977 2684 Box
3615 2719 Box
3983 2703 Box
3939 2678 Box
4013 2679 Box
3964 2706 Box
3984 2687 Box
3992 2691 Box
3961 2659 Box
4009 2670 Box
3950 2654 Box
3995 2674 Box
3938 2682 Box
4001 2687 Box
3988 2659 Box
3969 2529 Box
3657 2624 Box
3988 2675 Box
3965 2659 Box
3945 2654 Box
4006 2694 Box
3931 2818 Box
3976 2686 Box
3996 2663 Box
4009 2686 Box
3947 2688 Box
3464 3787 Box
4034 2667 Box
3972 2523 Box
4012 2701 Box
3994 2826 Box
4221 2666 Box
4034 2678 Box
3847 2250 Box
3989 2687 Box
3946 2692 Box
3866 2563 Box
3988 2701 Box
4069 3270 Box
4006 2612 Box
4027 2675 Box
4010 2663 Box
3975 2685 Box
3995 2688 Box
4018 2686 Box
3986 2681 Box
3984 2736 Box
4180 2669 Box
3966 2680 Box
3973 2665 Box
3957 2646 Box
4051 2716 Box
4001 2677 Box
3991 2871 Box
3968 2677 Box
4005 2658 Box
3993 2652 Box
3956 2681 Box
3945 2673 Box
4033 2680 Box
3997 2661 Box
4299 2688 Box
4220 2773 Box
4026 2662 Box
4034 2678 Box
3990 2687 Box
3971 2659 Box
3984 2728 Box
3957 2658 Box
3989 2693 Box
3950 2693 Box
3967 2668 Box
3971 2805 Box
3945 3160 Box
3979 2688 Box
3985 2640 Box
4017 2657 Box
3979 2683 Box
3999 2673 Box
3967 2684 Box
4002 2659 Box
4023 2660 Box
3975 2686 Box
3942 2686 Box
4032 2664 Box
3984 2546 Box
4028 2689 Box
3973 2805 Box
4021 2677 Box
3946 2664 Box
4029 2673 Box
3994 2718 Box
4106 2707 Box
3109 2614 Box
3972 2676 Box
3908 2666 Box
4031 2685 Box
3955 2694 Box
3936 2671 Box
3964 2660 Box
3978 2658 Box
3965 2662 Box
4061 2667 Box
4001 2679 Box
3955 2654 Box
3990 2720 Box
3981 2665 Box
4023 2418 Box
3960 2647 Box
3970 2657 Box
3967 2682 Box
4009 2692 Box
4033 2666 Box
3994 2703 Box
3936 2683 Box
3947 2691 Box
3939 2685 Box
4029 2662 Box
4013 2678 Box
3952 2670 Box
3944 2682 Box
3962 2686 Box
4000 2682 Box
3926 2617 Box
3967 2667 Box
4009 2448 Box
4013 2680 Box
3949 2693 Box
3974 2659 Box
4075 2645 Box
3993 2652 Box
3957 2658 Box
4003 2673 Box
4024 2564 Box
3984 2627 Box
3973 2654 Box
4024 2691 Box
4027 2668 Box
4250 2377 Box
4063 2642 Box
3989 2690 Box
3993 2680 Box
3945 2689 Box
3951 2690 Box
3989 2651 Box
4025 2662 Box
4025 2681 Box
3979 2674 Box
3920 2470 Box
3988 2661 Box
4033 2693 Box
4125 2986 Box
4012 2688 Box
4154 2842 Box
4066 2452 Box
3964 2662 Box
3833 3309 Box
3996 2671 Box
3986 2989 Box
3994 2722 Box
3977 2671 Box
4051 2774 Box
3976 2685 Box
3730 3323 Box
3947 2688 Box
3983 2701 Box
3987 2693 Box
4025 2127 Box
3958 2678 Box
3965 2694 Box
3942 2657 Box
4014 2529 Box
3681 2574 Box
4008 2716 Box
4004 2697 Box
3992 2687 Box
3630 2634 Box
3776 2691 Box
3980 2661 Box
3981 2584 Box
4025 2691 Box
3996 2693 Box
3970 2675 Box
3969 2624 Box
3776 2710 Box
3984 2734 Box
3960 2668 Box
4002 2668 Box
3970 2647 Box
3717 2712 Box
3932 2644 Box
3955 2665 Box
3985 2648 Box
4032 2673 Box
4585 2738 Box
3999 2674 Box
3722 2703 Box
3944 2570 Box
3795 2666 Box
3961 2659 Box
3990 2687 Box
3977 2661 Box
3937 2634 Box
3997 2604 Box
3966 2669 Box
4005 2687 Box
4243 2610 Box
3976 2681 Box
4009 2661 Box
4003 2682 Box
4021 2688 Box
3990 2659 Box
4028 2682 Box
3991 2689 Box
3999 2670 Box
3913 2651 Box
3985 2659 Box
3999 2628 Box
3989 2684 Box
3937 2671 Box
3951 2693 Box
3734 2630 Box
3977 2672 Box
3968 2686 Box
4098 2648 Box
4046 2688 Box
4122 3206 Box
4268 3437 Box
4022 2662 Box
4090 3851 Box
3984 2713 Box
3957 2155 Box
3980 2677 Box
4027 2659 Box
4015 2658 Box
3982 2690 Box
4131 2708 Box
4181 2589 Box
4018 2802 Box
3988 2732 Box
3936 2803 Box
4094 3118 Box
3912 2767 Box
4080 2707 Box
3977 2660 Box
3935 2676 Box
3997 2687 Box
3985 2666 Box
3972 2688 Box
3986 2217 Box
3981 2839 Box
4003 2997 Box
3965 2689 Box
3966 2696 Box
4015 2653 Box
3954 2687 Box
4012 2690 Box
4032 2669 Box
4020 2672 Box
4010 2554 Box
4028 2664 Box
4006 2683 Box
3982 2641 Box
4086 3263 Box
3962 2654 Box
4002 2666 Box
3992 2688 Box
3987 2670 Box
4141 2421 Box
3992 2685 Box
3966 2663 Box
3982 2912 Box
3977 2541 Box
4013 2738 Box
4003 2692 Box
3980 2939 Box
3996 2659 Box
4003 2694 Box
4062 2765 Box
3903 2647 Box
3561 2666 Box
4024 2660 Box
3969 2669 Box
3957 2648 Box
4005 2663 Box
3967 2679 Box
3992 2688 Box
4052 2659 Box
3982 2649 Box
4059 2689 Box
3925 2849 Box
3978 2537 Box
3969 2671 Box
4017 2645 Box
3886 3073 Box
4019 2657 Box
4017 2687 Box
3969 2688 Box
4027 2657 Box
4013 2682 Box
4151 2897 Box
3983 2679 Box
3979 2669 Box
3944 2691 Box
3994 2661 Box
3994 2683 Box
3998 2673 Box
3990 3161 Box
3984 2796 Box
4029 2683 Box
3880 2672 Box
3985 2671 Box
4101 2686 Box
4256 4290 Box
4014 2678 Box
3925 2312 Box
4003 2681 Box
3961 2686 Box
3887 2627 Box
3992 2728 Box
3941 2678 Box
3967 2669 Box
3935 2671 Box
3777 2654 Box
3902 2657 Box
3946 2655 Box
4008 2701 Box
4029 2659 Box
4546 3129 Box
4012 2689 Box
4004 2686 Box
3971 1957 Box
3864 2647 Box
3985 2665 Box
4065 2661 Box
4015 2669 Box
3853 2549 Box
3962 2803 Box
4022 2691 Box
3991 2658 Box
3984 2723 Box
3964 2670 Box
4002 2683 Box
4024 2651 Box
3994 2675 Box
4194 3268 Box
3935 2672 Box
3559 3377 Box
4033 2761 Box
3979 2537 Box
3983 2673 Box
3948 2663 Box
3543 2645 Box
3983 2615 Box
3948 2685 Box
3996 2674 Box
4071 2446 Box
3947 2603 Box
3999 2696 Box
4013 2658 Box
3580 2659 Box
3993 2713 Box
4003 2486 Box
3984 2668 Box
4041 2651 Box
3955 2656 Box
3967 2670 Box
3944 2662 Box
3968 2759 Box
3959 2701 Box
4008 2684 Box
4016 2797 Box
4004 2665 Box
4187 2662 Box
4028 2738 Box
3998 2671 Box
3914 2545 Box
3980 2699 Box
3872 2910 Box
3875 3199 Box
3924 2487 Box
3981 2729 Box
3992 2688 Box
4014 2688 Box
3984 2659 Box
3997 2649 Box
3983 2618 Box
3954 2693 Box
4015 2656 Box
4010 2548 Box
3990 2654 Box
4063 2643 Box
4005 2666 Box
3949 2656 Box
3950 2687 Box
3970 2688 Box
3979 2685 Box
4013 2638 Box
4029 2664 Box
3970 2662 Box
4010 2757 Box
4186 2714 Box
3986 2677 Box
3976 2684 Box
3959 2654 Box
4002 2659 Box
4027 2690 Box
3835 2644 Box
4007 2688 Box
3940 2688 Box
3950 2648 Box
3945 2627 Box
3953 2674 Box
3936 2666 Box
3906 2824 Box
3986 2573 Box
3990 2666 Box
3954 2657 Box
4053 2602 Box
4031 2650 Box
4004 2688 Box
3963 2662 Box
4003 2658 Box
4002 2679 Box
3962 2660 Box
4001 2613 Box
3988 2659 Box
4030 2684 Box
4042 2457 Box
3925 2914 Box
4181 2711 Box
4030 2687 Box
4030 2663 Box
3973 2670 Box
4011 2691 Box
3986 2637 Box
3998 2673 Box
3963 2675 Box
3983 2695 Box
3620 2722 Box
4024 2657 Box
4049 2684 Box
3957 2688 Box
3827 2981 Box
3979 2675 Box
3990 2653 Box
3969 2724 Box
4092 2649 Box
4028 2672 Box
3983 2646 Box
3938 2680 Box
4055 2698 Box
4067 2260 Box
3995 2740 Box
3941 2689 Box
3984 2663 Box
3950 2667 Box
3993 2684 Box
3977 2565 Box
4367 2690 Box
3950 2814 Box
3989 2659 Box
3958 2659 Box
4016 2692 Box
3988 2700 Box
3989 2695 Box
3985 2662 Box
3943 2687 Box
4022 2691 Box
3959 2674 Box
4026 2691 Box
3976 2603 Box
3964 2682 Box
3994 2654 Box
4015 2677 Box
4026 2662 Box
4119 2563 Box
4006 2662 Box
4013 2689 Box
4195 2711 Box
3987 2659 Box
3869 3558 Box
4016 2657 Box
3935 2668 Box
3990 2679 Box
3753 2636 Box
3993 2712 Box
4001 2689 Box
3974 2660 Box
3973 2662 Box
3947 2562 Box
4262 2443 Box
4012 2652 Box
3795 2248 Box
4028 2682 Box
4020 2690 Box
3953 2691 Box
4184 2634 Box
3856 2209 Box
4007 2665 Box
4034 2677 Box
3966 2693 Box
4016 2689 Box
3940 2679 Box
3981 2684 Box
4027 2671 Box
3985 2606 Box
3975 2672 Box
3996 2680 Box
3969 2681 Box
4014 2657 Box
3834 3639 Box
3949 2654 Box
3949 2684 Box
3956 2658 Box
3961 2677 Box
3281 2722 Box
3787 2343 Box
4054 2705 Box
4174 3365 Box
4013 2668 Box
3784 2657 Box
3982 2660 Box
4420 2627 Box
3987 2666 Box
3995 2665 Box
3991 2749 Box
4021 2662 Box
3989 2689 Box
3981 2699 Box
4007 2684 Box
3991 2688 Box
3845 2352 Box
3917 2817 Box
3905 2542 Box
3957 2687 Box
3970 2654 Box
3936 2681 Box
4001 2685 Box
4006 2663 Box
4021 2657 Box
3990 2703 Box
3908 2643 Box
3945 2689 Box
3943 2601 Box
4046 2120 Box
3990 2716 Box
3954 2697 Box
4015 2657 Box
3980 2665 Box
3950 2690 Box
3999 2677 Box
3917 2643 Box
3710 3404 Box
3985 2675 Box
3985 2704 Box
3981 2962 Box
3975 2689 Box
3792 2659 Box
3936 2681 Box
3968 2687 Box
4021 2692 Box
3929 3432 Box
3985 2686 Box
3979 2660 Box
4019 2689 Box
3939 2955 Box
4031 2868 Box
4009 2692 Box
3914 2682 Box
3984 2720 Box
4074 2666 Box
4064 2802 Box
3975 2664 Box
3859 2411 Box
3976 2687 Box
3982 2666 Box
3897 2742 Box
3971 2659 Box
3958 2658 Box
3941 2671 Box
4013 2654 Box
4000 2651 Box
3960 2661 Box
4023 2691 Box
3985 2708 Box
3943 2680 Box
4103 2719 Box
3987 2688 Box
4001 2861 Box
3992 2652 Box
3909 2385 Box
4195 2644 Box
3984 2617 Box
3999 2668 Box
4122 2655 Box
4112 2666 Box
3947 2686 Box
3992 2540 Box
4032 2676 Box
3957 2416 Box
3848 2678 Box
3996 2676 Box
3743 3773 Box
3938 2683 Box
3949 2687 Box
3941 2661 Box
3965 2682 Box
3089 1662 Box
4002 2685 Box
3982 2699 Box
4028 2659 Box
4016 2657 Box
3921 2703 Box
3969 2662 Box
3979 2741 Box
3952 2693 Box
3936 2672 Box
3999 2682 Box
3845 2675 Box
4104 2698 Box
3946 2660 Box
4033 2666 Box
3989 2699 Box
3985 2663 Box
3930 2610 Box
4006 2656 Box
3991 2672 Box
3991 2683 Box
3952 2690 Box
4005 2693 Box
3919 2714 Box
4027 2788 Box
3981 2650 Box
3967 2763 Box
3985 2631 Box
3867 2456 Box
3964 2665 Box
3967 2686 Box
4026 2032 Box
3991 2688 Box
3932 2769 Box
3936 2680 Box
3978 2679 Box
3844 2683 Box
4000 2698 Box
3969 2730 Box
3978 2671 Box
3977 2681 Box
3990 2758 Box
3980 2654 Box
3993 2735 Box
3992 2680 Box
3959 2657 Box
3993 2667 Box
4036 2645 Box
3739 2682 Box
3983 2687 Box
3957 2689 Box
4115 2778 Box
4018 2693 Box
4096 2642 Box
4020 2680 Box
3813 2635 Box
3995 2679 Box
4019 2687 Box
4255 2741 Box
4047 2704 Box
4030 2668 Box
3994 2651 Box
3935 2676 Box
3948 2664 Box
4009 2671 Box
3984 2728 Box
4010 2658 Box
4087 2623 Box
3907 2681 Box
3957 2659 Box
4019 2657 Box
3971 2689 Box
3854 2428 Box
4007 2687 Box
4080 2650 Box
3970 2656 Box
3732 1891 Box
4000 2665 Box
3950 2492 Box
3703 2632 Box
3800 2695 Box
4034 2672 Box
3988 2675 Box
3972 2857 Box
3963 2659 Box
4000 2629 Box
3974 2669 Box
4084 3606 Box
3978 2659 Box
3976 2659 Box
3975 2675 Box
3987 2688 Box
4082 2703 Box
3949 2654 Box
4021 2656 Box
3980 2681 Box
4024 2678 Box
3973 2662 Box
3937 2645 Box
4010 2665 Box
3985 2659 Box
3971 2671 Box
4027 2667 Box
3982 2727 Box
3981 2681 Box
4022 2735 Box
3925 2646 Box
3960 2667 Box
3942 2667 Box
4268 1111 Box
4009 2659 Box
4007 2688 Box
3909 2474 Box
3948 2690 Box
3993 2688 Box
3974 2685 Box
3899 2665 Box
4014 2658 Box
4016 2658 Box
3967 2666 Box
4017 2690 Box
3956 2658 Box
4031 3120 Box
4030 2687 Box
4023 2657 Box
3937 2672 Box
3847 2434 Box
3992 2687 Box
3948 2684 Box
3955 2817 Box
4027 2544 Box
4007 2664 Box
3893 1410 Box
3953 2269 Box
4024 2673 Box
3917 2369 Box
3990 2835 Box
4026 2656 Box
4014 2689 Box
3956 2658 Box
4125 2637 Box
3988 2696 Box
4261 2638 Box
3883 2792 Box
4013 2675 Box
3950 2654 Box
3728 2661 Box
4747 2825 Box
3970 2658 Box
4027 2642 Box
4002 2680 Box
3945 2678 Box
3968 2658 Box
3986 2687 Box
3998 2798 Box
3982 2650 Box
3681 2359 Box
3983 2662 Box
4015 2673 Box
4033 2673 Box
3947 2690 Box
3988 2678 Box
4001 2659 Box
4000 2669 Box
3996 2651 Box
4031 2681 Box
3964 2415 Box
3999 2662 Box
3980 2696 Box
4001 2665 Box
3908 2639 Box
3956 2682 Box
3999 2784 Box
3954 2635 Box
3970 2656 Box
4222 2692 Box
3986 2644 Box
3955 2661 Box
3869 2690 Box
3986 2644 Box
3983 2702 Box
3956 2670 Box
4014 2810 Box
3982 2731 Box
4011 2666 Box
4006 2731 Box
3982 2675 Box
3991 2681 Box
3992 2648 Box
3987 2688 Box
3962 2695 Box
3967 2679 Box
4222 2260 Box
3987 2736 Box
3997 2658 Box
4011 2665 Box
4083 2628 Box
3991 2668 Box
3947 2692 Box
3970 2662 Box
3981 2655 Box
4023 2692 Box
3977 2687 Box
4152 2635 Box
4005 2676 Box
3994 2677 Box
4032 2685 Box
4004 2654 Box
4032 2703 Box
3959 2677 Box
3960 2683 Box
4065 2686 Box
3962 2592 Box
3986 2626 Box
4133 2704 Box
3963 2696 Box
3778 3042 Box
3968 2651 Box
3921 3026 Box
3978 2665 Box
3984 2640 Box
3972 2676 Box
4089 2656 Box
3958 2660 Box
4014 2622 Box
3984 2703 Box
3970 2682 Box
3765 2878 Box
3985 2662 Box
3944 2664 Box
3991 2636 Box
4008 2660 Box
3890 2645 Box
3999 2677 Box
4022 2686 Box
4334 3624 Box
4027 2657 Box
3960 2660 Box
3984 2622 Box
3975 2688 Box
4007 2670 Box
3983 2348 Box
3988 2652 Box
3993 2723 Box
3978 2652 Box
3957 2660 Box
3964 3188 Box
3899 2643 Box
4005 2686 Box
3942 2662 Box
3969 2668 Box
3967 2660 Box
3981 2685 Box
4022 2693 Box
3977 2678 Box
4052 2674 Box
4006 2663 Box
4097 2706 Box
3979 2688 Box
3990 2715 Box
3942 2670 Box
3977 2686 Box
3987 2661 Box
3944 2661 Box
4026 2703 Box
3966 2666 Box
3989 2688 Box
3950 2691 Box
3865 2638 Box
4012 2657 Box
3818 2635 Box
4032 2662 Box
3967 2692 Box
4018 2694 Box
4010 2654 Box
4014 2659 Box
3780 2673 Box
4090 2635 Box
3984 2722 Box
4000 2687 Box
3976 2627 Box
3995 2667 Box
3998 2674 Box
3969 2671 Box
4382 2566 Box
4032 2671 Box
3990 2695 Box
3965 2665 Box
4002 2659 Box
4031 2666 Box
3986 2702 Box
3871 2537 Box
3996 2674 Box
3986 2630 Box
4269 2868 Box
3997 2680 Box
3992 2668 Box
4016 2691 Box
4010 2663 Box
4022 2691 Box
3973 2678 Box
4006 2658 Box
3967 2685 Box
3970 2688 Box
3982 2653 Box
3996 2660 Box
3944 2677 Box
3765 2672 Box
3964 2664 Box
3986 2703 Box
3961 2688 Box
3996 2665 Box
4011 2686 Box
3960 2660 Box
4006 2662 Box
3994 2684 Box
3978 2688 Box
3979 2665 Box
3963 2606 Box
3994 2667 Box
3937 2718 Box
3993 2659 Box
3972 2681 Box
3960 2666 Box
3979 2607 Box
3994 2676 Box
3936 2682 Box
4018 2690 Box
3954 2687 Box
3864 2720 Box
3966 2688 Box
3783 2856 Box
3992 2662 Box
3935 2676 Box
3976 2664 Box
3399 2190 Box
4096 2678 Box
4021 2685 Box
4089 2818 Box
3969 2682 Box
4008 2766 Box
3944 2656 Box
3984 2666 Box
3873 2706 Box
3988 2884 Box
3813 2712 Box
3951 2657 Box
3920 2680 Box
3994 2672 Box
3994 2722 Box
3949 2691 Box
3936 2669 Box
3977 2668 Box
3919 2770 Box
3948 2683 Box
3972 2674 Box
3991 2680 Box
3964 2663 Box
4016 2676 Box
3889 3206 Box
3953 2662 Box
3974 2672 Box
3960 2660 Box
3981 2671 Box
3936 2660 Box
4006 2687 Box
4030 2665 Box
4023 2656 Box
3928 2663 Box
3991 2658 Box
3864 2162 Box
4020 2672 Box
3935 2668 Box
3975 2658 Box
4016 2665 Box
3965 2681 Box
3951 2691 Box
4068 2514 Box
3982 2679 Box
4030 2663 Box
3911 2671 Box
4025 2425 Box
3960 2658 Box
4354 3428 Box
3959 2689 Box
3922 2700 Box
3761 2631 Box
4013 2684 Box
3945 2660 Box
3939 2673 Box
4001 2687 Box
3972 2667 Box
3959 2687 Box
3980 2654 Box
3968 2682 Box
4206 2641 Box
4021 2617 Box
4001 2660 Box
3978 2688 Box
3972 2665 Box
3996 2699 Box
4147 2281 Box
3953 2664 Box
4014 2690 Box
3977 2685 Box
3602 2554 Box
3970 2672 Box
3966 2689 Box
4031 2686 Box
4005 2664 Box
3975 2686 Box
3826 2414 Box
3967 2696 Box
3852 2369 Box
3984 2577 Box
3996 2673 Box
4114 3429 Box
3941 2658 Box
3985 2671 Box
3981 2696 Box
3900 2686 Box
4015 2657 Box
3999 2230 Box
4339 3329 Box
4016 2658 Box
3982 2660 Box
4032 2682 Box
3954 2694 Box
3949 2657 Box
3992 2675 Box
3958 2658 Box
4011 2659 Box
2934 2829 Box
3679 2718 Box
3872 2705 Box
3984 2653 Box
3972 2656 Box
3952 2688 Box
4201 2471 Box
4030 2672 Box
4013 2906 Box
3989 2649 Box
3975 2665 Box
4008 2666 Box
4058 2577 Box
3999 2658 Box
4000 2678 Box
3989 2677 Box
4010 2657 Box
3988 2663 Box
4025 2668 Box
4039 2671 Box
3981 2659 Box
4009 2782 Box
3867 2639 Box
3993 2685 Box
3991 2678 Box
3805 2571 Box
3985 2686 Box
3954 2686 Box
3889 2682 Box
3982 2662 Box
3975 2663 Box
4005 2484 Box
3983 2659 Box
3543 2748 Box
4526 2651 Box
4020 2656 Box
3980 2612 Box
3980 2688 Box
3987 2740 Box
3911 2702 Box
4004 2699 Box
3119 2135 Box
3974 2472 Box
3981 2673 Box
3959 2676 Box
4014 2660 Box
4020 2664 Box
3942 2658 Box
4018 2669 Box
4027 2676 Box
3968 2680 Box
3990 2684 Box
4012 2688 Box
3947 2661 Box
3953 2684 Box
4008 2647 Box
3994 2670 Box
3984 2659 Box
4032 2663 Box
3979 2663 Box
3918 2283 Box
3998 2619 Box
3847 2525 Box
3971 2666 Box
3927 2650 Box
3964 2769 Box
4001 2687 Box
3996 2678 Box
3963 2662 Box
3997 2684 Box
3985 2722 Box
4021 2505 Box
3997 2664 Box
3727 3922 Box
3964 2666 Box
3984 2665 Box
4018 2678 Box
3813 2726 Box
4031 2661 Box
3956 2689 Box
3983 2648 Box
3958 2658 Box
3973 2860 Box
4050 2345 Box
3957 2667 Box
3976 2688 Box
3978 2668 Box
4022 2693 Box
4006 2662 Box
3882 2706 Box
3677 2715 Box
3755 646 Box
3950 2654 Box
3972 2687 Box
3951 2656 Box
3943 2664 Box
4462 2674 Box
4024 2670 Box
3991 2659 Box
4004 2996 Box
3855 2667 Box
3978 2656 Box
4055 2696 Box
3962 2659 Box
2838 3109 Box
3983 2664 Box
3938 2665 Box
3998 2683 Box
4020 2683 Box
3945 2572 Box
3979 2699 Box
4022 2701 Box
4033 2681 Box
3958 2683 Box
4034 2678 Box
3958 2378 Box
4124 2999 Box
3987 2634 Box
3993 2662 Box
3997 2742 Box
3989 2668 Box
4031 2684 Box
4213 2711 Box
3487 2961 Box
3984 2608 Box
3904 2643 Box
3903 2825 Box
3980 2566 Box
3993 2685 Box
3983 2638 Box
3940 2703 Box
3953 2666 Box
4009 2687 Box
3986 2674 Box
3922 2797 Box
3990 2652 Box
3998 2742 Box
3986 2627 Box
3993 2681 Box
4000 2676 Box
4004 2689 Box
3840 2355 Box
4007 2659 Box
3969 2672 Box
3994 2689 Box
3994 2695 Box
3985 2670 Box
3937 2681 Box
3957 2645 Box
3932 3101 Box
3963 2666 Box
4006 2661 Box
4049 2712 Box
3972 2700 Box
3985 2688 Box
4014 2665 Box
3982 2666 Box
3953 2661 Box
3947 2687 Box
3986 2708 Box
4028 2673 Box
3937 2645 Box
3998 2673 Box
3818 2109 Box
4004 2689 Box
4018 2670 Box
3985 2685 Box
3952 2684 Box
3976 2662 Box
3986 2820 Box
3897 2685 Box
4005 2688 Box
3929 2658 Box
3901 2871 Box
3975 2682 Box
3978 2612 Box
3928 2626 Box
3921 2652 Box
4003 2700 Box
3961 2685 Box
3978 2684 Box
3935 2671 Box
3985 2675 Box
3974 2673 Box
4001 2663 Box
3984 2663 Box
3993 2787 Box
4025 2683 Box
3978 2923 Box
4020 2660 Box
3977 2658 Box
4015 2685 Box
3953 2694 Box
4086 2802 Box
3990 2785 Box
3998 2665 Box
3885 2594 Box
4096 2676 Box
3997 2603 Box
3960 2585 Box
4017 2230 Box
3992 2727 Box
4807 2744 Box
4002 2687 Box
3993 2650 Box
4022 2920 Box
4103 2724 Box
4000 2490 Box
3935 2671 Box
3986 2702 Box
3939 2665 Box
4006 2724 Box
3937 2663 Box
4019 2689 Box
4011 2690 Box
3939 2701 Box
3963 2695 Box
4642 2612 Box
3984 2637 Box
3946 2663 Box
3939 2758 Box
4026 2673 Box
3985 2625 Box
3988 2686 Box
3966 2653 Box
4018 2654 Box
4157 3087 Box
3880 2637 Box
3982 2662 Box
3860 3066 Box
4215 2712 Box
3999 2666 Box
3980 2679 Box
3985 2635 Box
3982 2768 Box
3990 2693 Box
4017 2653 Box
4122 2639 Box
4012 2659 Box
3955 2659 Box
3960 2689 Box
4025 2686 Box
4018 2657 Box
3941 2662 Box
4015 2660 Box
3992 2654 Box
3986 2661 Box
3983 2795 Box
4004 2688 Box
3974 2671 Box
4710 2667 Box
3937 3773 Box
4012 2658 Box
3840 2709 Box
3953 2693 Box
4011 2672 Box
3947 2687 Box
3988 2688 Box
2797 2760 Box
3980 2695 Box
4023 2462 Box
3987 2664 Box
4005 2664 Box
3961 2660 Box
3823 2636 Box
3987 2703 Box
4022 2692 Box
3965 2688 Box
3949 2657 Box
3461 3657 Box
3982 2674 Box
4012 2662 Box
3835 2424 Box
4096 2910 Box
4027 2657 Box
4000 2689 Box
3926 2697 Box
3961 2658 Box
3979 2688 Box
4067 2644 Box
4022 2656 Box
3947 2676 Box
4009 2687 Box
3991 2662 Box
3937 2663 Box
3979 2660 Box
3962 2652 Box
3887 2695 Box
3979 2694 Box
3843 2672 Box
3905 2629 Box
3976 2661 Box
3868 2617 Box
3977 2680 Box
4030 2675 Box
3983 2674 Box
3988 2676 Box
3946 2670 Box
3952 2657 Box
3954 2679 Box
4034 2898 Box
3964 2689 Box
3825 2036 Box
4008 2685 Box
4018 2328 Box
3863 2468 Box
4052 2741 Box
3985 2664 Box
3995 2687 Box
3945 2657 Box
4022 2663 Box
3957 2701 Box
4016 2690 Box
3888 2465 Box
3680 2716 Box
3984 2701 Box
4002 2684 Box
3974 2681 Box
3990 2660 Box
4078 2767 Box
3995 2746 Box
3947 2660 Box
3991 2684 Box
4066 2698 Box
4016 2658 Box
4063 2854 Box
3939 2671 Box
3946 2607 Box
3937 2813 Box
3965 2661 Box
3982 2643 Box
3959 2653 Box
3984 2638 Box
4004 2689 Box
3939 2669 Box
4029 2689 Box
3984 2688 Box
4012 2658 Box
3957 2659 Box
4117 3079 Box
3941 2673 Box
4024 2682 Box
4267 1821 Box
3974 2662 Box
3990 2693 Box
4002 2647 Box
3985 2717 Box
4114 2137 Box
3979 2680 Box
3985 2688 Box
3972 2672 Box
3952 2696 Box
3913 2662 Box
3982 2666 Box
4017 2659 Box
3745 2717 Box
4002 2683 Box
3988 2682 Box
3948 2656 Box
3959 2667 Box
3978 2686 Box
4018 2656 Box
4004 2677 Box
3945 2675 Box
3994 2684 Box
4015 2658 Box
3999 2681 Box
3998 2650 Box
4079 2642 Box
3946 2670 Box
3987 2658 Box
3801 2005 Box
3971 2659 Box
3993 2771 Box
3983 2722 Box
3959 2647 Box
3993 2676 Box
3985 2659 Box
4000 2659 Box
4073 2453 Box
4005 2758 Box
3978 2680 Box
4012 2689 Box
3987 2628 Box
4033 2678 Box
3989 2614 Box
3955 2683 Box
4017 2680 Box
3914 3143 Box
3976 2679 Box
4081 2346 Box
3952 2671 Box
3986 2576 Box
3946 2686 Box
4028 2681 Box
3987 2719 Box
3982 2652 Box
4023 2656 Box
3940 2670 Box
3981 2680 Box
3979 2732 Box
4009 2817 Box
3961 2669 Box
4016 2657 Box
3960 2688 Box
3973 2694 Box
4009 2633 Box
3902 2705 Box
3858 2408 Box
3998 2689 Box
3882 2707 Box
3896 2609 Box
4055 2842 Box
3818 2850 Box
3983 2767 Box
4063 2849 Box
3984 2705 Box
4002 2688 Box
3999 2761 Box
3971 2660 Box
3992 2682 Box
4046 2678 Box
4004 2660 Box
4010 2536 Box
3949 2767 Box
3972 2670 Box
3993 2688 Box
3944 2691 Box
4134 2799 Box
3972 2677 Box
3996 2676 Box
3986 2685 Box
3946 2656 Box
3975 2668 Box
3961 2666 Box
3940 2688 Box
4011 2653 Box
4653 2502 Box
4014 2660 Box
4274 2159 Box
3980 2651 Box
3987 2627 Box
3540 2680 Box
3971 2695 Box
4001 2679 Box
3985 2816 Box
3955 2693 Box
4007 2689 Box
4007 2658 Box
4201 2675 Box
4014 2689 Box
3999 2682 Box
3964 2692 Box
3940 2659 Box
3953 2669 Box
3981 2608 Box
4000 2679 Box
3993 2650 Box
3961 2659 Box
3994 2674 Box
3946 2656 Box
3994 2654 Box
3975 2665 Box
3949 2692 Box
3939 2675 Box
4024 2667 Box
3969 2693 Box
4005 2682 Box
4054 3276 Box
4004 2677 Box
3946 2691 Box
4014 2660 Box
4010 2687 Box
3939 2663 Box
3939 2659 Box
4033 2682 Box
4006 2509 Box
3986 2677 Box
3970 2856 Box
4003 2659 Box
3963 2688 Box
4142 1382 Box
3949 2535 Box
3992 2651 Box
3948 2655 Box
3985 2717 Box
3984 3145 Box
3980 2649 Box
3977 2655 Box
3990 2664 Box
4080 2389 Box
4000 2663 Box
4023 2687 Box
3975 2748 Box
4004 2685 Box
3895 2978 Box
3992 2523 Box
3989 2669 Box
3579 2990 Box
3988 2990 Box
3997 2673 Box
3986 2698 Box
4020 2506 Box
4134 2844 Box
4023 2692 Box
3943 2657 Box
4107 2690 Box
4017 2690 Box
3977 2660 Box
4011 2754 Box
3960 2659 Box
3833 2733 Box
4016 2662 Box
3776 2712 Box
4018 2693 Box
3938 2685 Box
3547 2453 Box
3978 2978 Box
3994 2669 Box
3981 2659 Box
3774 1786 Box
3973 2679 Box
3972 2675 Box
3880 2563 Box
4000 2685 Box
3961 2678 Box
3957 2659 Box
4014 2666 Box
4029 2673 Box
3965 2666 Box
4006 2690 Box
3985 2652 Box
3969 2687 Box
3950 2664 Box
4072 2692 Box
3936 2667 Box
3938 2672 Box
4086 3057 Box
3968 3427 Box
4135 2563 Box
3961 2693 Box
3960 2688 Box
3951 2709 Box
3992 3396 Box
3994 2659 Box
4022 2659 Box
3982 2676 Box
3997 2669 Box
4283 3185 Box
3993 2663 Box
3986 2692 Box
3963 2658 Box
3992 2662 Box
3859 3020 Box
4014 2675 Box
3996 2659 Box
3987 2759 Box
3997 2659 Box
3999 2684 Box
3970 2686 Box
3832 2554 Box
3994 2664 Box
4013 2661 Box
3994 2665 Box
4015 2690 Box
3985 2667 Box
4001 2660 Box
3941 2554 Box
3970 2659 Box
4008 2679 Box
4021 2673 Box
3758 2702 Box
4365 2403 Box
4004 2666 Box
3979 2589 Box
3895 2707 Box
3992 2687 Box
4005 2685 Box
3861 2665 Box
4119 2708 Box
3994 2681 Box
4021 2691 Box
3985 2660 Box
4022 2655 Box
3939 2616 Box
3978 2676 Box
3983 2641 Box
3981 2667 Box
3944 3023 Box
4186 2417 Box
3999 2674 Box
3829 2653 Box
3959 2670 Box
3951 2399 Box
4028 2685 Box
3941 2781 Box
3779 2717 Box
3948 2654 Box
4006 2701 Box
3939 2670 Box
3935 2676 Box
3997 2685 Box
3950 2667 Box
4003 2546 Box
3902 2697 Box
3706 3668 Box
4153 2545 Box
3989 2651 Box
3983 2683 Box
3998 2682 Box
3795 2486 Box
3990 2672 Box
4021 2656 Box
3998 2685 Box
3991 2657 Box
4010 2605 Box
3949 2731 Box
3981 2573 Box
3938 2663 Box
3984 2387 Box
3987 2688 Box
3993 2662 Box
3950 2655 Box
3974 2660 Box
3974 2277 Box
3944 2691 Box
3988 2692 Box
4034 2670 Box
3981 2683 Box
4018 2670 Box
3958 2687 Box
3998 2651 Box
3881 2706 Box
4016 2690 Box
3983 2649 Box
3972 2684 Box
3683 2360 Box
3941 2672 Box
4022 2665 Box
4000 2675 Box
3964 2660 Box
3961 2685 Box
3996 2671 Box
3752 2638 Box
4014 2657 Box
4023 2664 Box
3915 2691 Box
4013 2672 Box
3939 2861 Box
3957 2701 Box
3895 2303 Box
3988 2670 Box
4012 2659 Box
3999 2660 Box
4065 2703 Box
4028 2744 Box
3946 2692 Box
3979 2728 Box
3985 2659 Box
3998 2682 Box
4009 2689 Box
4025 2698 Box
3795 2639 Box
3721 2051 Box
4115 2481 Box
4022 2660 Box
3968 2699 Box
3984 2662 Box
4014 2657 Box
3988 2647 Box
4001 2659 Box
4035 2410 Box
4027 2684 Box
3837 2351 Box
4026 2671 Box
3972 2518 Box
3970 2660 Box
3981 2924 Box
3950 2684 Box
3994 2684 Box
3984 2632 Box
4036 2701 Box
4474 3379 Box
3837 2694 Box
3553 3167 Box
3961 2695 Box
3921 2717 Box
4004 2666 Box
3918 2648 Box
3940 2688 Box
3961 2836 Box
3986 2646 Box
3995 2686 Box
3966 2670 Box
4264 2634 Box
3940 2687 Box
4025 2688 Box
4015 2657 Box
3983 2660 Box
3997 2687 Box
3943 2691 Box
3982 2787 Box
3949 2654 Box
4034 2674 Box
4002 2689 Box
4033 2681 Box
5099 2422 Box
4028 2937 Box
3955 2690 Box
3554 2716 Box
3993 2688 Box
3955 2678 Box
4049 2699 Box
3947 2656 Box
4200 1467 Box
3986 2659 Box
3982 2694 Box
4248 2708 Box
3733 2972 Box
4049 2704 Box
4015 2676 Box
3970 3322 Box
3897 2387 Box
3965 2681 Box
4007 2662 Box
3997 2685 Box
3987 2692 Box
4001 2686 Box
3986 2645 Box
4028 2657 Box
3954 2666 Box
3937 2665 Box
4005 2687 Box
3975 2661 Box
4012 2724 Box
4017 2905 Box
4084 2668 Box
4012 2685 Box
3994 2664 Box
3859 2926 Box
3942 2676 Box
3879 3200 Box
3821 2744 Box
4107 2645 Box
3941 2678 Box
3916 2899 Box
4023 2601 Box
3975 2675 Box
3721 2650 Box
3989 2675 Box
3593 2120 Box
4026 2685 Box
3997 2672 Box
3985 2621 Box
3964 2659 Box
4013 2686 Box
4027 2659 Box
3964 2673 Box
3856 2706 Box
3899 2911 Box
3958 2659 Box
3989 2665 Box
3953 2654 Box
3921 2678 Box
3990 2659 Box
3942 2537 Box
3948 2646 Box
4011 2688 Box
4026 2666 Box
3837 2752 Box
3980 2649 Box
3966 2677 Box
4404 2640 Box
4152 2771 Box
3969 2668 Box
3955 2691 Box
3971 2670 Box
4026 2667 Box
3824 1839 Box
3817 2669 Box
3990 2662 Box
3959 2685 Box
3985 2771 Box
4012 2155 Box
4141 2689 Box
4026 2668 Box
3851 2562 Box
3972 2686 Box
3986 2662 Box
3948 2645 Box
4014 2654 Box
3951 2688 Box
3963 2682 Box
4031 2671 Box
3958 2689 Box
3963 2663 Box
3972 2648 Box
4028 2667 Box
3959 2658 Box
3990 2682 Box
3992 2601 Box
4087 2749 Box
3984 2633 Box
3986 2677 Box
3986 2690 Box
3982 2680 Box
3997 2683 Box
4009 2659 Box
3976 2839 Box
3986 2694 Box
3955 2694 Box
3970 2649 Box
4100 2815 Box
3972 2651 Box
3982 2659 Box
3976 2672 Box
4118 2727 Box
3976 2666 Box
3935 2689 Box
4001 2675 Box
3977 2656 Box
3980 2451 Box
4126 2702 Box
3994 2681 Box
3986 2688 Box
4069 2453 Box
3926 2488 Box
3984 2690 Box
3942 2677 Box
4026 2684 Box
3978 2675 Box
4004 2701 Box
3969 2684 Box
4003 2693 Box
4019 2579 Box
3981 2675 Box
3992 2679 Box
3983 2668 Box
3992 2673 Box
3983 2689 Box
4000 2678 Box
3981 2688 Box
3992 2668 Box
3977 2539 Box
3937 2423 Box
3993 2664 Box
3881 2643 Box
3982 2939 Box
3973 2679 Box
3971 2348 Box
4376 3088 Box
3945 2673 Box
3891 2509 Box
4019 2691 Box
3995 2668 Box
3967 2674 Box
3985 2727 Box
3976 2671 Box
4006 2663 Box
4014 2665 Box
4017 2657 Box
3997 2659 Box
3984 2667 Box
4032 2682 Box
4008 2659 Box
3948 2660 Box
3992 2670 Box
3981 2697 Box
4006 2687 Box
5193 2628 Box
3999 2688 Box
4005 2696 Box
4009 2694 Box
4003 2428 Box
4023 2746 Box
3955 2693 Box
3887 2657 Box
3867 2673 Box
4006 2678 Box
3981 2651 Box
3986 2704 Box
4001 2687 Box
4027 2658 Box
3982 2644 Box
4043 2586 Box
3999 2347 Box
3894 3000 Box
4029 2638 Box
4006 2680 Box
3968 2661 Box
4002 2686 Box
4052 2722 Box
4145 2665 Box
3943 2672 Box
3985 2683 Box
3990 2658 Box
3946 2660 Box
4044 2690 Box
3960 2688 Box
4388 2726 Box
4000 2713 Box
3973 2841 Box
4026 2691 Box
4322 2637 Box
3851 3123 Box
3937 2214 Box
3984 2598 Box
4017 2728 Box
3994 2690 Box
3942 2668 Box
3989 2481 Box
3965 2678 Box
3754 3768 Box
4016 2692 Box
3974 2697 Box
3702 2470 Box
3972 2518 Box
3973 2697 Box
3986 2682 Box
3992 2693 Box
3968 2663 Box
3972 2581 Box
4002 2724 Box
3959 2659 Box
3946 2690 Box
3991 2483 Box
3973 2662 Box
4160 1713 Box
3827 1847 Box
3993 2651 Box
3988 2662 Box
3964 2661 Box
3972 2688 Box
3975 2687 Box
3910 2645 Box
3966 2687 Box
3975 2659 Box
3999 2668 Box
3982 2665 Box
4055 2692 Box
3970 2696 Box
3961 2662 Box
3686 2308 Box
4020 2683 Box
3980 2662 Box
4035 2767 Box
3962 2789 Box
3995 2682 Box
3898 2641 Box
3960 2689 Box
3984 2688 Box
3996 2679 Box
3989 2681 Box
3994 2699 Box
3962 2662 Box
3982 2672 Box
3939 2646 Box
4005 2664 Box
4343 2500 Box
3987 2661 Box
3998 2646 Box
3962 2670 Box
4021 2517 Box
3940 2688 Box
4451 3333 Box
3992 2686 Box
3984 2680 Box
4094 3298 Box
3970 2687 Box
3968 2659 Box
3993 2621 Box
3640 2257 Box
4027 2657 Box
3967 2661 Box
3936 2683 Box
4006 2661 Box
3992 2671 Box
3935 2678 Box
3961 2661 Box
4189 2666 Box
4030 2660 Box
4022 2672 Box
3992 2668 Box
4026 2691 Box
3944 2656 Box
3974 2666 Box
3954 2780 Box
4041 2635 Box
3951 2693 Box
4169 2838 Box
4027 2682 Box
3859 2843 Box
3985 2670 Box
3989 2603 Box
3979 2664 Box
4011 2482 Box
4015 2657 Box
3981 2648 Box
3973 2670 Box
3986 2638 Box
3790 2808 Box
3975 2761 Box
3910 2643 Box
3984 2720 Box
4001 2659 Box
3949 2690 Box
3714 2867 Box
4011 2665 Box
3992 2749 Box
4002 2687 Box
4027 2660 Box
3976 2635 Box
3985 3181 Box
3980 2681 Box
4006 2695 Box
3955 2693 Box
3978 2727 Box
3971 2663 Box
3986 2622 Box
3983 2674 Box
3938 2677 Box
3954 2692 Box
3991 2676 Box
4022 2669 Box
4001 2656 Box
4083 2548 Box
3943 2690 Box
4018 2690 Box
3852 2466 Box
3573 1836 Box
4031 2672 Box
3951 2668 Box
3880 3328 Box
4298 3167 Box
3888 2717 Box
3972 2659 Box
3906 2211 Box
3988 2696 Box
3956 2689 Box
3897 2794 Box
3931 2649 Box
3994 2679 Box
4023 2892 Box
3950 2693 Box
4131 2805 Box
3980 2669 Box
3951 2679 Box
3964 2673 Box
4031 2836 Box
3960 2679 Box
3957 2776 Box
3976 2646 Box
3961 2715 Box
3938 2674 Box
4017 2655 Box
3995 2233 Box
4034 2671 Box
4006 2674 Box
3961 2656 Box
4014 2679 Box
4272 2794 Box
4002 2940 Box
3990 2659 Box
3970 2648 Box
3983 2644 Box
4032 2900 Box
4019 2693 Box
3940 2686 Box
3983 2674 Box
3984 2625 Box
3987 2680 Box
4006 2749 Box
3948 2656 Box
3908 2550 Box
4020 2689 Box
3974 2688 Box
3989 2659 Box
3954 2674 Box
3996 2687 Box
4092 2705 Box
3963 2696 Box
3978 2661 Box
3962 2662 Box
3990 2656 Box
3996 2658 Box
4000 2695 Box
3968 2696 Box
3807 2642 Box
3985 2692 Box
3829 2459 Box
4022 2691 Box
3987 2688 Box
3980 2376 Box
3999 2675 Box
3976 2648 Box
3983 2678 Box
4029 2667 Box
3995 2667 Box
3993 2688 Box
3935 2678 Box
3983 2642 Box
3648 2639 Box
3994 2651 Box
3984 2659 Box
3967 2667 Box
3933 2671 Box
3712 2811 Box
3950 2665 Box
3992 2665 Box
3981 2691 Box
3956 2637 Box
4028 2672 Box
3977 2662 Box
3963 2679 Box
4393 2060 Box
3944 2645 Box
4002 2678 Box
3967 2591 Box
4079 2573 Box
3855 2679 Box
3962 2684 Box
4000 2665 Box
3954 2657 Box
4029 2677 Box
4019 2656 Box
3942 2658 Box
3948 2691 Box
3969 2677 Box
4012 2663 Box
4000 2653 Box
4523 4465 Box
4057 2681 Box
3974 2661 Box
3557 2786 Box
3977 2676 Box
3959 2660 Box
4018 2690 Box
3956 2681 Box
3949 2692 Box
3966 2690 Box
4005 2676 Box
3964 2659 Box
3994 2664 Box
4008 2685 Box
3860 2644 Box
4021 2686 Box
4025 2548 Box
4015 2659 Box
3970 2587 Box
3991 2592 Box
3971 2638 Box
4073 2954 Box
4154 2646 Box
3996 2577 Box
3984 2669 Box
3859 2693 Box
3994 2678 Box
3964 2684 Box
3964 2685 Box
4017 2691 Box
3947 2688 Box
3950 2677 Box
3960 2659 Box
4029 2542 Box
3989 2677 Box
3978 2690 Box
3989 2666 Box
3975 2669 Box
3988 2754 Box
3976 2659 Box
3960 2695 Box
3908 2583 Box
4002 2695 Box
3975 2651 Box
4019 2654 Box
3996 2663 Box
4009 2701 Box
3941 2658 Box
3984 2720 Box
3906 2652 Box
3988 2694 Box
3943 2687 Box
3992 2683 Box
3965 2666 Box
3417 3316 Box
3985 2606 Box
3847 3096 Box
4066 2514 Box
3965 2666 Box
3995 2662 Box
3906 2675 Box
3938 2684 Box
3969 2750 Box
3985 2665 Box
4230 2666 Box
3950 2693 Box
3939 2661 Box
4010 2688 Box
3976 2936 Box
4005 2655 Box
3973 2667 Box
4100 2530 Box
3980 2686 Box
3988 2671 Box
3992 2627 Box
3991 2593 Box
4028 2659 Box
2573 2440 Box
3946 2692 Box
3935 2674 Box
4015 2659 Box
3807 3062 Box
4101 2707 Box
3966 2597 Box
4014 2657 Box
3998 2638 Box
4007 2662 Box
4014 2690 Box
3968 2672 Box
4028 2680 Box
3938 2665 Box
4001 2682 Box
3983 2722 Box
4011 2684 Box
4000 2659 Box
3680 2413 Box
3979 2665 Box
4024 2561 Box
4311 2169 Box
3982 2650 Box
3899 2641 Box
3999 2659 Box
3947 2537 Box
3997 2685 Box
3578 2679 Box
4012 2657 Box
3966 2678 Box
3941 2658 Box
4033 2676 Box
4005 2548 Box
3971 2664 Box
3977 2694 Box
3972 2658 Box
3744 2610 Box
3946 2527 Box
3963 2491 Box
4063 2704 Box
3950 2684 Box
3969 2672 Box
4038 2504 Box
3947 2690 Box
4025 2678 Box
3961 2659 Box
3986 2688 Box
3939 2684 Box
4008 2685 Box
4026 2689 Box
3985 2639 Box
3983 2615 Box
3941 2659 Box
3949 2702 Box
3918 2653 Box
3995 2639 Box
3998 2593 Box
4008 2648 Box
3949 2686 Box
3938 2625 Box
3959 2659 Box
3977 1675 Box
3993 2664 Box
4009 2661 Box
3996 2688 Box
3963 2663 Box
3938 2663 Box
4034 2783 Box
4114 2705 Box
3957 2664 Box
3988 2901 Box
3996 2818 Box
4174 2472 Box
3989 2659 Box
3999 2660 Box
3921 2655 Box
4020 2688 Box
4000 2698 Box
3986 2600 Box
4113 2506 Box
4006 2674 Box
4004 2660 Box
3988 2667 Box
3933 2652 Box
4004 2663 Box
3969 2682 Box
4029 2685 Box
3951 2637 Box
3966 2667 Box
3988 2655 Box
3978 2692 Box
4029 2679 Box
3950 2661 Box
3964 2665 Box
4113 2806 Box
4019 2718 Box
3778 3113 Box
3887 2679 Box
3981 2697 Box
3990 2659 Box
3947 2691 Box
3991 2667 Box
3940 2660 Box
3979 2664 Box
4002 2661 Box
4023 2661 Box
3935 2669 Box
4020 2690 Box
4019 2657 Box
3980 2499 Box
4275 2640 Box
3962 2315 Box
3889 2579 Box
3794 2697 Box
3986 2702 Box
3992 2812 Box
3998 2697 Box
3941 2688 Box
3859 3050 Box
3943 2686 Box
4005 2664 Box
4043 2685 Box
4013 2695 Box
4037 2613 Box
3940 2688 Box
3954 2675 Box
3983 2649 Box
4001 2692 Box
4019 2656 Box
4012 2554 Box
3750 2652 Box
4053 2694 Box
3957 2439 Box
4000 2667 Box
4019 2688 Box
3983 2637 Box
3996 2776 Box
3946 2663 Box
3965 2707 Box
4089 2826 Box
4015 2657 Box
3836 2350 Box
3997 2811 Box
3972 2664 Box
4024 2678 Box
3966 2698 Box
3980 2677 Box
4031 2678 Box
3934 2409 Box
3788 2714 Box
3952 2688 Box
3986 2699 Box
3986 2686 Box
3831 2930 Box
4030 2666 Box
3948 2656 Box
3984 2620 Box
3942 2702 Box
4012 2649 Box
4034 2678 Box
4011 2659 Box
3987 2702 Box
3938 2685 Box
4017 2692 Box
3987 2664 Box
3998 2672 Box
3983 2636 Box
3995 2651 Box
3944 2488 Box
4004 2686 Box
4261 1854 Box
3957 2676 Box
3993 2671 Box
4027 2699 Box
3955 2658 Box
4027 2661 Box
3952 2586 Box
4055 2756 Box
3978 2680 Box
3980 2698 Box
3980 2682 Box
3935 2677 Box
3738 2315 Box
3902 2705 Box
3978 2689 Box
3965 2872 Box
4771 2275 Box
3939 2674 Box
4027 2684 Box
3933 2647 Box
4005 2662 Box
3981 2613 Box
5253 3913 Box
3955 2657 Box
3985 2670 Box
3419 3293 Box
3985 2670 Box
3846 2908 Box
3970 2651 Box
4014 2656 Box
3973 2665 Box
4021 2693 Box
4010 2698 Box
3917 2185 Box
3958 2689 Box
4232 2605 Box
3976 2877 Box
3987 2588 Box
3991 2606 Box
3981 2671 Box
4030 2599 Box
3829 2100 Box
3965 2681 Box
3988 2689 Box
4027 2690 Box
3985 2301 Box
4001 2687 Box
4004 2681 Box
3996 2655 Box
3990 2712 Box
3948 2667 Box
3984 2655 Box
3985 2673 Box
3986 2708 Box
3993 2688 Box
3973 2660 Box
3980 2766 Box
4095 2696 Box
3999 2545 Box
3956 2845 Box
4030 2673 Box
3977 2689 Box
3969 2757 Box
3938 2680 Box
3677 2196 Box
4009 2689 Box
3976 2660 Box
3977 2642 Box
3971 2688 Box
3965 2666 Box
3908 2642 Box
3986 2664 Box
3972 2814 Box
3808 2777 Box
3951 2725 Box
4006 2681 Box
3998 2658 Box
3477 3023 Box
3647 2416 Box
4109 2733 Box
3954 2676 Box
3970 2673 Box
4019 2688 Box
3952 2690 Box
3914 2881 Box
3801 2219 Box
3958 2659 Box
3960 2654 Box
3747 2693 Box
4034 2647 Box
3989 2674 Box
4002 2664 Box
3985 2631 Box
3968 2691 Box
3943 2686 Box
4127 2678 Box
3927 2666 Box
3976 2667 Box
3978 2685 Box
3951 2743 Box
4031 2684 Box
3998 2685 Box
4033 2439 Box
4021 2664 Box
4032 2664 Box
4009 2660 Box
3936 2674 Box
4021 2656 Box
3944 2656 Box
3939 2683 Box
4617 1120 Box
4008 2695 Box
3475 2331 Box
4007 2683 Box
3968 2688 Box
3791 2614 Box
3975 2692 Box
4027 2688 Box
4017 2758 Box
3997 2675 Box
3973 2671 Box
3983 2664 Box
3974 2609 Box
3934 1252 Box
3993 2654 Box
3988 2649 Box
3990 2697 Box
3910 3007 Box
4022 2657 Box
3974 2680 Box
4023 2656 Box
3988 2658 Box
3997 2670 Box
3966 2658 Box
3953 2657 Box
4005 2688 Box
3948 2691 Box
3944 2669 Box
3977 2583 Box
3987 2662 Box
3958 2657 Box
3818 2268 Box
3988 2652 Box
3955 2644 Box
3851 2648 Box
4021 2900 Box
4011 2692 Box
4031 2686 Box
3954 2657 Box
3973 2659 Box
3970 2671 Box
3972 2667 Box
3986 2665 Box
3982 2700 Box
4019 3499 Box
3975 1918 Box
4030 2660 Box
4029 2691 Box
3977 2661 Box
3573 581 Box
% End plot #1
2.000 UL
LTb
LCb setrgbcolor
1.000 UL
LTB
LCb setrgbcolor
1022 4899 N
0 -4451 V
5925 0 V
0 4451 V
-5925 0 V
Z stroke
1.000 UP
1.000 UL
LTb
LCb setrgbcolor
stroke
grestore
end
showpage
%%Trailer
%%DocumentFonts: Helvetica
