Microsonde + EBqpole
'OBJET'                                                                            1                         1
20.435                                          H+, 20keV
6.1
.01  .01 .01  .01 .01 .0001
0. 0. 0. 0. 0. 1.
'PARTICUL'                                                                        2                          2
938.2723 1.60217733E-19 0. 0. 0.
'FAISCEAU'                                                                                                   3
'DRIFT'                                                                            3                         4
500.
'DRIFT'                                                                            4                         5
59.
'EBMULT'                                        FIRST QUADRUPOLE                   5                         6
0
10.2  10. 0. -9272.986 0. 0. 0. 0. 0. 0. 0. 0.  ELECTRIC Q-POLE COMPONENT
0.  0.  0.  0.  0.  0.  0. 0. 0. 0. 0.         ENTRANCE EFB, SHARP EDGE
6  .1122 6.2671 -1.4982 3.5882 -2.1209 1.723
0.  0.  0.  0.  0.  0.  0. 0. 0. 0. 0.         EXIT EFB, SHARP EDGE
6  .1122 6.2671 -1.4982 3.5882 -2.1209 1.723
0. 0. 0. 0. 0. 0. 0. 0. 0. 0.
10.2  10. 0.  1.89493  0. 0. 0. 0. 0. 0. 0. 0.  MAGNETIC Q-POLE COMPONENT
0.  0.  0.  0.  0.  0.  0.   0. 0. 0. 0.       ENTRANCE EFB, SHARP EDGE
6  .1122 6.2671 -1.4982 3.5882 -2.1209 1.723
0.  0.  0.  0.  0.  0.  0.   0. 0. 0. 0.       EXIT EFB, SHARP EDGE
6  .1122 6.2671 -1.4982 3.5882 -2.1209 1.723
0.  0. 0. 0. 0. 0. 0. 0. 0. 0.
.1                            ! step size
1 0. 0. 0.
'DRIFT'                                                                            6                         7
4.9
'EBMULT'                                        SECOND QUADRUPOLE                  7                         8
0
10.2  10. 0.  13779.90  0. 0. 0. 0. 0. 0. 0. 0.
0.  0.  0.  0.  0.  0.  0.  0. 0. 0. 0.
6  .1122 6.2671 -1.4982 3.5882 -2.1209 1.723
0.  0.  0.  0.  0.  0.  0.  0. 0. 0. 0.
6  .1122 6.2671 -1.4982 3.5882 -2.1209 1.723
0. 0. 0. 0. 0. 0. 0. 0. 0. 0.
10.2  10. 0.   -2.81592  0. 0. 0. 0. 0. 0. 0. 0.
0.  0.  0.  0.  0.  0.  0.  0. 0. 0. 0.
6  .1122 6.2671 -1.4982 3.5882 -2.1209 1.723
0.  0.  0.  0.  0.  0.  0.  0. 0. 0. 0.
6  .1122 6.2671 -1.4982 3.5882 -2.1209 1.723
0. 0. 0. 0. 0. 0. 0. 0. 0. 0.
.1                            ! step size
1 0. 0. 0.
'DRIFT'                                                                            8                         9
25.
'MATRIX'                                                                           9                        10
1 0
'HISTO'                                                                           10                        11
2  -5E-6  5E-6     60  2
20  'Y'  1  'Q'
'HISTO'                                                                           11                        12
4  -5E-6  5E-6     60  2
20  'Z'  1  'Q'
'END'                                                                              12                       12

************************************************************************************************************************************
      1  Keyword, label(s) :  OBJET       1                                                                            IPASS= 1

                          MAGNETIC  RIGIDITY =         20.435 kG*cm

                                         CALCUL  DES  TRAJECTOIRES

                              OBJET  (6)  FORME  DE    102 POINTS 

                    Sampling :                  0.000100     0.010000     0.010000     0.010000     0.010000     0.010000

                    Reference trajectory :      1.000000     0.000000     0.000000     0.000000     0.000000     0.000000

************************************************************************************************************************************
      2  Keyword, label(s) :  PARTICUL    2                                                                            IPASS= 1

     Particle  properties :
     Particle name unknown.
                     Mass          =    938.272        MeV/c2
                     Charge        =   1.602177E-19    C     

              Reference  data :
                    mag. rigidity (kG.cm)   :   20.435000      =p/q, such that dev.=B*L/rigidity
                    mass (MeV/c2)           :   938.27230    
                    momentum (MeV/c)        :   6.1262621    
                    energy, total (MeV)     :   938.29230    
                    energy, kinetic (MeV)   :  1.99998909E-02
                    beta = v/c              :  6.5291616518E-03
                    gamma                   :   1.000021316    
                    beta*gamma              :  6.5293008252E-03
                    electric rigidity (MeV) :  3.9999376635E-02=T[eV]*(gamma+1)/gamma, such that dev.=E*L/rigidity
  
 I, AMQ(1,I), AMQ(2,I)/QE, P/Pref, v/c, time, s :
  
     1   9.38272300E+02  1.00000053E+00  1.00000000E+00  6.52916165E-03  0.00000000E+00  0.00000000E+00
     2   9.38272300E+02  1.00000053E+00  1.00000000E+00  6.52916165E-03  0.00000000E+00  0.00000000E+00
     3   9.38272300E+02  1.00000053E+00  1.00000000E+00  6.52916165E-03  0.00000000E+00  0.00000000E+00
     4   9.38272300E+02  1.00000053E+00  1.00000000E+00  6.52916165E-03  0.00000000E+00  0.00000000E+00
     5   9.38272300E+02  1.00000053E+00  1.00000000E+00  6.52916165E-03  0.00000000E+00  0.00000000E+00
     6   9.38272300E+02  1.00000053E+00  1.00000000E+00  6.52916165E-03  0.00000000E+00  0.00000000E+00
     7   9.38272300E+02  1.00000053E+00  1.00000000E+00  6.52916165E-03  0.00000000E+00  0.00000000E+00
     8   9.38272300E+02  1.00000053E+00  1.00000000E+00  6.52916165E-03  0.00000000E+00  0.00000000E+00
     9   9.38272300E+02  1.00000053E+00  1.00000000E+00  6.52916165E-03  0.00000000E+00  0.00000000E+00
    10   9.38272300E+02  1.00000053E+00  1.00000000E+00  6.52916165E-03  0.00000000E+00  0.00000000E+00
    11   9.38272300E+02  1.00000053E+00  1.00000000E+00  6.52916165E-03  0.00000000E+00  0.00000000E+00
    12   9.38272300E+02  1.00000053E+00  1.00000000E+00  6.52916165E-03  0.00000000E+00  0.00000000E+00
    13   9.38272300E+02  1.00000053E+00  1.00000000E+00  6.52916165E-03  0.00000000E+00  0.00000000E+00
    14   9.38272300E+02  1.00000053E+00  1.00000000E+00  6.52916165E-03  0.00000000E+00  0.00000000E+00
    15   9.38272300E+02  1.00000053E+00  1.00000000E+00  6.52916165E-03  0.00000000E+00  0.00000000E+00
    16   9.38272300E+02  1.00000053E+00  1.00000000E+00  6.52916165E-03  0.00000000E+00  0.00000000E+00
    17   9.38272300E+02  1.00000053E+00  1.00000000E+00  6.52916165E-03  0.00000000E+00  0.00000000E+00
    18   9.38272300E+02  1.00000053E+00  1.00000000E+00  6.52916165E-03  0.00000000E+00  0.00000000E+00
    19   9.38272300E+02  1.00000053E+00  1.00003333E+00  6.52937928E-03  0.00000000E+00  0.00000000E+00
    20   9.38272300E+02  1.00000053E+00  9.99966667E-01  6.52894402E-03  0.00000000E+00  0.00000000E+00
    21   9.38272300E+02  1.00000053E+00  1.00010000E+00  6.52981454E-03  0.00000000E+00  0.00000000E+00
    22   9.38272300E+02  1.00000053E+00  9.99900000E-01  6.52850876E-03  0.00000000E+00  0.00000000E+00
    23   9.38272300E+02  1.00000053E+00  1.00000000E+00  6.52916165E-03  0.00000000E+00  0.00000000E+00
    24   9.38272300E+02  1.00000053E+00  1.00000000E+00  6.52916165E-03  0.00000000E+00  0.00000000E+00
    25   9.38272300E+02  1.00000053E+00  1.00000000E+00  6.52916165E-03  0.00000000E+00  0.00000000E+00
    26   9.38272300E+02  1.00000053E+00  1.00000000E+00  6.52916165E-03  0.00000000E+00  0.00000000E+00
    27   9.38272300E+02  1.00000053E+00  1.00000000E+00  6.52916165E-03  0.00000000E+00  0.00000000E+00
    28   9.38272300E+02  1.00000053E+00  1.00000000E+00  6.52916165E-03  0.00000000E+00  0.00000000E+00
    29   9.38272300E+02  1.00000053E+00  1.00000000E+00  6.52916165E-03  0.00000000E+00  0.00000000E+00
    30   9.38272300E+02  1.00000053E+00  1.00000000E+00  6.52916165E-03  0.00000000E+00  0.00000000E+00
    31   9.38272300E+02  1.00000053E+00  1.00000000E+00  6.52916165E-03  0.00000000E+00  0.00000000E+00
    32   9.38272300E+02  1.00000053E+00  1.00000000E+00  6.52916165E-03  0.00000000E+00  0.00000000E+00
    33   9.38272300E+02  1.00000053E+00  1.00000000E+00  6.52916165E-03  0.00000000E+00  0.00000000E+00
    34   9.38272300E+02  1.00000053E+00  1.00000000E+00  6.52916165E-03  0.00000000E+00  0.00000000E+00
    35   9.38272300E+02  1.00000053E+00  1.00000000E+00  6.52916165E-03  0.00000000E+00  0.00000000E+00
    36   9.38272300E+02  1.00000053E+00  1.00000000E+00  6.52916165E-03  0.00000000E+00  0.00000000E+00
    37   9.38272300E+02  1.00000053E+00  1.00000000E+00  6.52916165E-03  0.00000000E+00  0.00000000E+00
    38   9.38272300E+02  1.00000053E+00  1.00000000E+00  6.52916165E-03  0.00000000E+00  0.00000000E+00
    39   9.38272300E+02  1.00000053E+00  1.00000000E+00  6.52916165E-03  0.00000000E+00  0.00000000E+00
    40   9.38272300E+02  1.00000053E+00  1.00000000E+00  6.52916165E-03  0.00000000E+00  0.00000000E+00
    41   9.38272300E+02  1.00000053E+00  1.00003333E+00  6.52937928E-03  0.00000000E+00  0.00000000E+00
    42   9.38272300E+02  1.00000053E+00  9.99966667E-01  6.52894402E-03  0.00000000E+00  0.00000000E+00
    43   9.38272300E+02  1.00000053E+00  1.00010000E+00  6.52981454E-03  0.00000000E+00  0.00000000E+00
    44   9.38272300E+02  1.00000053E+00  1.00010000E+00  6.52981454E-03  0.00000000E+00  0.00000000E+00
    45   9.38272300E+02  1.00000053E+00  9.99900000E-01  6.52850876E-03  0.00000000E+00  0.00000000E+00
    46   9.38272300E+02  1.00000053E+00  9.99900000E-01  6.52850876E-03  0.00000000E+00  0.00000000E+00
    47   9.38272300E+02  1.00000053E+00  1.00000000E+00  6.52916165E-03  0.00000000E+00  0.00000000E+00
    48   9.38272300E+02  1.00000053E+00  1.00000000E+00  6.52916165E-03  0.00000000E+00  0.00000000E+00
    49   9.38272300E+02  1.00000053E+00  1.00000000E+00  6.52916165E-03  0.00000000E+00  0.00000000E+00
    50   9.38272300E+02  1.00000053E+00  1.00000000E+00  6.52916165E-03  0.00000000E+00  0.00000000E+00
    51   9.38272300E+02  1.00000053E+00  1.00000000E+00  6.52916165E-03  0.00000000E+00  0.00000000E+00
    52   9.38272300E+02  1.00000053E+00  1.00000000E+00  6.52916165E-03  0.00000000E+00  0.00000000E+00
    53   9.38272300E+02  1.00000053E+00  1.00000000E+00  6.52916165E-03  0.00000000E+00  0.00000000E+00
    54   9.38272300E+02  1.00000053E+00  1.00000000E+00  6.52916165E-03  0.00000000E+00  0.00000000E+00
    55   9.38272300E+02  1.00000053E+00  1.00000000E+00  6.52916165E-03  0.00000000E+00  0.00000000E+00
    56   9.38272300E+02  1.00000053E+00  1.00000000E+00  6.52916165E-03  0.00000000E+00  0.00000000E+00
    57   9.38272300E+02  1.00000053E+00  1.00000000E+00  6.52916165E-03  0.00000000E+00  0.00000000E+00
    58   9.38272300E+02  1.00000053E+00  1.00000000E+00  6.52916165E-03  0.00000000E+00  0.00000000E+00
    59   9.38272300E+02  1.00000053E+00  1.00003333E+00  6.52937928E-03  0.00000000E+00  0.00000000E+00
    60   9.38272300E+02  1.00000053E+00  9.99966667E-01  6.52894402E-03  0.00000000E+00  0.00000000E+00
    61   9.38272300E+02  1.00000053E+00  1.00010000E+00  6.52981454E-03  0.00000000E+00  0.00000000E+00
    62   9.38272300E+02  1.00000053E+00  1.00010000E+00  6.52981454E-03  0.00000000E+00  0.00000000E+00
    63   9.38272300E+02  1.00000053E+00  9.99900000E-01  6.52850876E-03  0.00000000E+00  0.00000000E+00
    64   9.38272300E+02  1.00000053E+00  9.99900000E-01  6.52850876E-03  0.00000000E+00  0.00000000E+00
    65   9.38272300E+02  1.00000053E+00  1.00000000E+00  6.52916165E-03  0.00000000E+00  0.00000000E+00
    66   9.38272300E+02  1.00000053E+00  1.00000000E+00  6.52916165E-03  0.00000000E+00  0.00000000E+00
    67   9.38272300E+02  1.00000053E+00  1.00000000E+00  6.52916165E-03  0.00000000E+00  0.00000000E+00
    68   9.38272300E+02  1.00000053E+00  1.00000000E+00  6.52916165E-03  0.00000000E+00  0.00000000E+00
    69   9.38272300E+02  1.00000053E+00  1.00000000E+00  6.52916165E-03  0.00000000E+00  0.00000000E+00
    70   9.38272300E+02  1.00000053E+00  1.00000000E+00  6.52916165E-03  0.00000000E+00  0.00000000E+00
    71   9.38272300E+02  1.00000053E+00  1.00003333E+00  6.52937928E-03  0.00000000E+00  0.00000000E+00
    72   9.38272300E+02  1.00000053E+00  9.99966667E-01  6.52894402E-03  0.00000000E+00  0.00000000E+00
    73   9.38272300E+02  1.00000053E+00  1.00010000E+00  6.52981454E-03  0.00000000E+00  0.00000000E+00
    74   9.38272300E+02  1.00000053E+00  1.00010000E+00  6.52981454E-03  0.00000000E+00  0.00000000E+00
    75   9.38272300E+02  1.00000053E+00  9.99900000E-01  6.52850876E-03  0.00000000E+00  0.00000000E+00
    76   9.38272300E+02  1.00000053E+00  9.99900000E-01  6.52850876E-03  0.00000000E+00  0.00000000E+00
    77   9.38272300E+02  1.00000053E+00  1.00003333E+00  6.52937928E-03  0.00000000E+00  0.00000000E+00
    78   9.38272300E+02  1.00000053E+00  9.99966667E-01  6.52894402E-03  0.00000000E+00  0.00000000E+00
    79   9.38272300E+02  1.00000053E+00  1.00010000E+00  6.52981454E-03  0.00000000E+00  0.00000000E+00
    80   9.38272300E+02  1.00000053E+00  1.00010000E+00  6.52981454E-03  0.00000000E+00  0.00000000E+00
    81   9.38272300E+02  1.00000053E+00  9.99900000E-01  6.52850876E-03  0.00000000E+00  0.00000000E+00
    82   9.38272300E+02  1.00000053E+00  9.99900000E-01  6.52850876E-03  0.00000000E+00  0.00000000E+00
    83   9.38272300E+02  1.00000053E+00  1.00000000E+00  6.52916165E-03  0.00000000E+00  0.00000000E+00
    84   9.38272300E+02  1.00000053E+00  1.00000000E+00  6.52916165E-03  0.00000000E+00  0.00000000E+00
    85   9.38272300E+02  1.00000053E+00  1.00000000E+00  6.52916165E-03  0.00000000E+00  0.00000000E+00
    86   9.38272300E+02  1.00000053E+00  1.00000000E+00  6.52916165E-03  0.00000000E+00  0.00000000E+00
    87   9.38272300E+02  1.00000053E+00  1.00010000E+00  6.52981454E-03  0.00000000E+00  0.00000000E+00
    88   9.38272300E+02  1.00000053E+00  9.99900000E-01  6.52850876E-03  0.00000000E+00  0.00000000E+00
    89   9.38272300E+02  1.00000053E+00  1.00000000E+00  6.52916165E-03  0.00000000E+00  0.00000000E+00
    90   9.38272300E+02  1.00000053E+00  1.00000000E+00  6.52916165E-03  0.00000000E+00  0.00000000E+00
    91   9.38272300E+02  1.00000053E+00  1.00010000E+00  6.52981454E-03  0.00000000E+00  0.00000000E+00
    92   9.38272300E+02  1.00000053E+00  9.99900000E-01  6.52850876E-03  0.00000000E+00  0.00000000E+00
    93   9.38272300E+02  1.00000053E+00  1.00010000E+00  6.52981454E-03  0.00000000E+00  0.00000000E+00
    94   9.38272300E+02  1.00000053E+00  9.99900000E-01  6.52850876E-03  0.00000000E+00  0.00000000E+00
    95   9.38272300E+02  1.00000053E+00  1.00000000E+00  6.52916165E-03  0.00000000E+00  0.00000000E+00
    96   9.38272300E+02  1.00000053E+00  1.00000000E+00  6.52916165E-03  0.00000000E+00  0.00000000E+00
    97   9.38272300E+02  1.00000053E+00  1.00010000E+00  6.52981454E-03  0.00000000E+00  0.00000000E+00
    98   9.38272300E+02  1.00000053E+00  9.99900000E-01  6.52850876E-03  0.00000000E+00  0.00000000E+00
    99   9.38272300E+02  1.00000053E+00  1.00010000E+00  6.52981454E-03  0.00000000E+00  0.00000000E+00
   100   9.38272300E+02  1.00000053E+00  9.99900000E-01  6.52850876E-03  0.00000000E+00  0.00000000E+00
   101   9.38272300E+02  1.00000053E+00  1.00010000E+00  6.52981454E-03  0.00000000E+00  0.00000000E+00
   102   9.38272300E+02  1.00000053E+00  9.99900000E-01  6.52850876E-03  0.00000000E+00  0.00000000E+00

************************************************************************************************************************************
      3  Keyword, label(s) :  FAISCEAU                                                                                 IPASS= 1

0                                             TRACE DU FAISCEAU
                                           (follows element #      2)
                                                102 TRAJECTOIRES

                                   OBJET                                                  FAISCEAU

          D       Y(cm)     T(mr)     Z(cm)     P(mr)       S(cm)      D-1     Y(cm)    T(mr)    Z(cm)    P(mr)      S(cm)

O   1   1.0000     0.000     0.000     0.000     0.000      0.0000   0.0000    0.000    0.000    0.000    0.000   0.000000E+00     1
               Time of flight (mus) :   0.0000000     mass (MeV/c2) :   938.272    
A   1   1.0000     0.000     1.000     0.000     1.000      0.0000   0.0000    0.000    1.000    0.000    1.000   0.000000E+00     2
               Time of flight (mus) :   0.0000000     mass (MeV/c2) :   938.272    
B   1   1.0000     0.003     0.000     0.000     0.000      0.0000   0.0000    0.003    0.000    0.000    0.000   0.000000E+00     3
               Time of flight (mus) :   0.0000000     mass (MeV/c2) :   938.272    
C   1   1.0000    -0.003     0.000     0.000     0.000      0.0000   0.0000   -0.003    0.000    0.000    0.000   0.000000E+00     4
               Time of flight (mus) :   0.0000000     mass (MeV/c2) :   938.272    
D   1   1.0000     0.010     0.000     0.000     0.000      0.0000   0.0000    0.010    0.000    0.000    0.000   0.000000E+00     5
               Time of flight (mus) :   0.0000000     mass (MeV/c2) :   938.272    
E   1   1.0000    -0.010     0.000     0.000     0.000      0.0000   0.0000   -0.010    0.000    0.000    0.000   0.000000E+00     6
               Time of flight (mus) :   0.0000000     mass (MeV/c2) :   938.272    
F   1   1.0000     0.000     0.003     0.000     0.000      0.0000   0.0000    0.000    0.003    0.000    0.000   0.000000E+00     7
               Time of flight (mus) :   0.0000000     mass (MeV/c2) :   938.272    
G   1   1.0000     0.000    -0.003     0.000     0.000      0.0000   0.0000    0.000   -0.003    0.000    0.000   0.000000E+00     8
               Time of flight (mus) :   0.0000000     mass (MeV/c2) :   938.272    
H   1   1.0000     0.000     0.010     0.000     0.000      0.0000   0.0000    0.000    0.010    0.000    0.000   0.000000E+00     9
               Time of flight (mus) :   0.0000000     mass (MeV/c2) :   938.272    
I   1   1.0000     0.000    -0.010     0.000     0.000      0.0000   0.0000    0.000   -0.010    0.000    0.000   0.000000E+00    10
               Time of flight (mus) :   0.0000000     mass (MeV/c2) :   938.272    
J   1   1.0000     0.000     0.000     0.003     0.000      0.0000   0.0000    0.000    0.000    0.003    0.000   0.000000E+00    11
               Time of flight (mus) :   0.0000000     mass (MeV/c2) :   938.272    
K   1   1.0000     0.000     0.000    -0.003     0.000      0.0000   0.0000    0.000    0.000   -0.003    0.000   0.000000E+00    12
               Time of flight (mus) :   0.0000000     mass (MeV/c2) :   938.272    
L   1   1.0000     0.000     0.000     0.010     0.000      0.0000   0.0000    0.000    0.000    0.010    0.000   0.000000E+00    13
               Time of flight (mus) :   0.0000000     mass (MeV/c2) :   938.272    
M   1   1.0000     0.000     0.000    -0.010     0.000      0.0000   0.0000    0.000    0.000   -0.010    0.000   0.000000E+00    14
               Time of flight (mus) :   0.0000000     mass (MeV/c2) :   938.272    
N   1   1.0000     0.000     0.000     0.000     0.003      0.0000   0.0000    0.000    0.000    0.000    0.003   0.000000E+00    15
               Time of flight (mus) :   0.0000000     mass (MeV/c2) :   938.272    
P   1   1.0000     0.000     0.000     0.000    -0.003      0.0000   0.0000    0.000    0.000    0.000   -0.003   0.000000E+00    16
               Time of flight (mus) :   0.0000000     mass (MeV/c2) :   938.272    
Q   1   1.0000     0.000     0.000     0.000     0.010      0.0000   0.0000    0.000    0.000    0.000    0.010   0.000000E+00    17
               Time of flight (mus) :   0.0000000     mass (MeV/c2) :   938.272    
R   1   1.0000     0.000     0.000     0.000    -0.010      0.0000   0.0000    0.000    0.000    0.000   -0.010   0.000000E+00    18
               Time of flight (mus) :   0.0000000     mass (MeV/c2) :   938.272    
U   1   1.0000     0.000     0.000     0.000     0.000      0.0000   0.0000    0.000    0.000    0.000    0.000   0.000000E+00    19
               Time of flight (mus) :   0.0000000     mass (MeV/c2) :   938.272    
V   1   1.0000     0.000     0.000     0.000     0.000      0.0000  -0.0000    0.000    0.000    0.000    0.000   0.000000E+00    20
               Time of flight (mus) :   0.0000000     mass (MeV/c2) :   938.272    
W   1   1.0001     0.000     0.000     0.000     0.000      0.0000   0.0001    0.000    0.000    0.000    0.000   0.000000E+00    21
               Time of flight (mus) :   0.0000000     mass (MeV/c2) :   938.272    
X   1   0.9999     0.000     0.000     0.000     0.000      0.0000  -0.0001    0.000    0.000    0.000    0.000   0.000000E+00    22
               Time of flight (mus) :   0.0000000     mass (MeV/c2) :   938.272    
Y   1   1.0000     0.003     0.003     0.000     0.000      0.0000   0.0000    0.003    0.003    0.000    0.000   0.000000E+00    23
               Time of flight (mus) :   0.0000000     mass (MeV/c2) :   938.272    
Z   1   1.0000    -0.003    -0.003     0.000     0.000      0.0000   0.0000   -0.003   -0.003    0.000    0.000   0.000000E+00    24
               Time of flight (mus) :   0.0000000     mass (MeV/c2) :   938.272    
2   1   1.0000     0.010     0.010     0.000     0.000      0.0000   0.0000    0.010    0.010    0.000    0.000   0.000000E+00    25
               Time of flight (mus) :   0.0000000     mass (MeV/c2) :   938.272    
3   1   1.0000    -0.010     0.010     0.000     0.000      0.0000   0.0000   -0.010    0.010    0.000    0.000   0.000000E+00    26
               Time of flight (mus) :   0.0000000     mass (MeV/c2) :   938.272    
4   1   1.0000     0.010    -0.010     0.000     0.000      0.0000   0.0000    0.010   -0.010    0.000    0.000   0.000000E+00    27
               Time of flight (mus) :   0.0000000     mass (MeV/c2) :   938.272    
5   1   1.0000    -0.010    -0.010     0.000     0.000      0.0000   0.0000   -0.010   -0.010    0.000    0.000   0.000000E+00    28
               Time of flight (mus) :   0.0000000     mass (MeV/c2) :   938.272    
6   1   1.0000     0.003     0.000     0.003     0.000      0.0000   0.0000    0.003    0.000    0.003    0.000   0.000000E+00    29
               Time of flight (mus) :   0.0000000     mass (MeV/c2) :   938.272    
7   1   1.0000    -0.003     0.000    -0.003     0.000      0.0000   0.0000   -0.003    0.000   -0.003    0.000   0.000000E+00    30
               Time of flight (mus) :   0.0000000     mass (MeV/c2) :   938.272    
8   1   1.0000     0.010     0.000     0.010     0.000      0.0000   0.0000    0.010    0.000    0.010    0.000   0.000000E+00    31
               Time of flight (mus) :   0.0000000     mass (MeV/c2) :   938.272    
9   1   1.0000    -0.010     0.000     0.010     0.000      0.0000   0.0000   -0.010    0.000    0.010    0.000   0.000000E+00    32
               Time of flight (mus) :   0.0000000     mass (MeV/c2) :   938.272    
0   1   1.0000     0.010     0.000    -0.010     0.000      0.0000   0.0000    0.010    0.000   -0.010    0.000   0.000000E+00    33
               Time of flight (mus) :   0.0000000     mass (MeV/c2) :   938.272    
(   1   1.0000    -0.010     0.000    -0.010     0.000      0.0000   0.0000   -0.010    0.000   -0.010    0.000   0.000000E+00    34
               Time of flight (mus) :   0.0000000     mass (MeV/c2) :   938.272    
)   1   1.0000     0.003     0.000     0.000     0.003      0.0000   0.0000    0.003    0.000    0.000    0.003   0.000000E+00    35
               Time of flight (mus) :   0.0000000     mass (MeV/c2) :   938.272    
+   1   1.0000    -0.003     0.000     0.000    -0.003      0.0000   0.0000   -0.003    0.000    0.000   -0.003   0.000000E+00    36
               Time of flight (mus) :   0.0000000     mass (MeV/c2) :   938.272    
-   1   1.0000     0.010     0.000     0.000     0.010      0.0000   0.0000    0.010    0.000    0.000    0.010   0.000000E+00    37
               Time of flight (mus) :   0.0000000     mass (MeV/c2) :   938.272    
/   1   1.0000    -0.010     0.000     0.000     0.010      0.0000   0.0000   -0.010    0.000    0.000    0.010   0.000000E+00    38
               Time of flight (mus) :   0.0000000     mass (MeV/c2) :   938.272    
=   1   1.0000     0.010     0.000     0.000    -0.010      0.0000   0.0000    0.010    0.000    0.000   -0.010   0.000000E+00    39
               Time of flight (mus) :   0.0000000     mass (MeV/c2) :   938.272    
"   1   1.0000    -0.010     0.000     0.000    -0.010      0.0000   0.0000   -0.010    0.000    0.000   -0.010   0.000000E+00    40
               Time of flight (mus) :   0.0000000     mass (MeV/c2) :   938.272    
*   1   1.0000     0.003     0.000     0.000     0.000      0.0000   0.0000    0.003    0.000    0.000    0.000   0.000000E+00    41
               Time of flight (mus) :   0.0000000     mass (MeV/c2) :   938.272    
O   1   1.0000    -0.003     0.000     0.000     0.000      0.0000  -0.0000   -0.003    0.000    0.000    0.000   0.000000E+00    42
               Time of flight (mus) :   0.0000000     mass (MeV/c2) :   938.272    
A   1   1.0001     0.010     0.000     0.000     0.000      0.0000   0.0001    0.010    0.000    0.000    0.000   0.000000E+00    43
               Time of flight (mus) :   0.0000000     mass (MeV/c2) :   938.272    
B   1   1.0001    -0.010     0.000     0.000     0.000      0.0000   0.0001   -0.010    0.000    0.000    0.000   0.000000E+00    44
               Time of flight (mus) :   0.0000000     mass (MeV/c2) :   938.272    
C   1   0.9999     0.010     0.000     0.000     0.000      0.0000  -0.0001    0.010    0.000    0.000    0.000   0.000000E+00    45
               Time of flight (mus) :   0.0000000     mass (MeV/c2) :   938.272    
D   1   0.9999    -0.010     0.000     0.000     0.000      0.0000  -0.0001   -0.010    0.000    0.000    0.000   0.000000E+00    46
               Time of flight (mus) :   0.0000000     mass (MeV/c2) :   938.272    
E   1   1.0000     0.000     0.003     0.003     0.000      0.0000   0.0000    0.000    0.003    0.003    0.000   0.000000E+00    47
               Time of flight (mus) :   0.0000000     mass (MeV/c2) :   938.272    
F   1   1.0000     0.000    -0.003    -0.003     0.000      0.0000   0.0000    0.000   -0.003   -0.003    0.000   0.000000E+00    48
               Time of flight (mus) :   0.0000000     mass (MeV/c2) :   938.272    
G   1   1.0000     0.000     0.010     0.010     0.000      0.0000   0.0000    0.000    0.010    0.010    0.000   0.000000E+00    49
               Time of flight (mus) :   0.0000000     mass (MeV/c2) :   938.272    
H   1   1.0000     0.000    -0.010     0.010     0.000      0.0000   0.0000    0.000   -0.010    0.010    0.000   0.000000E+00    50
               Time of flight (mus) :   0.0000000     mass (MeV/c2) :   938.272    
I   1   1.0000     0.000     0.010    -0.010     0.000      0.0000   0.0000    0.000    0.010   -0.010    0.000   0.000000E+00    51
               Time of flight (mus) :   0.0000000     mass (MeV/c2) :   938.272    
J   1   1.0000     0.000    -0.010    -0.010     0.000      0.0000   0.0000    0.000   -0.010   -0.010    0.000   0.000000E+00    52
               Time of flight (mus) :   0.0000000     mass (MeV/c2) :   938.272    
K   1   1.0000     0.000     0.003     0.000     0.003      0.0000   0.0000    0.000    0.003    0.000    0.003   0.000000E+00    53
               Time of flight (mus) :   0.0000000     mass (MeV/c2) :   938.272    
L   1   1.0000     0.000    -0.003     0.000    -0.003      0.0000   0.0000    0.000   -0.003    0.000   -0.003   0.000000E+00    54
               Time of flight (mus) :   0.0000000     mass (MeV/c2) :   938.272    
M   1   1.0000     0.000     0.010     0.000     0.010      0.0000   0.0000    0.000    0.010    0.000    0.010   0.000000E+00    55
               Time of flight (mus) :   0.0000000     mass (MeV/c2) :   938.272    
N   1   1.0000     0.000    -0.010     0.000     0.010      0.0000   0.0000    0.000   -0.010    0.000    0.010   0.000000E+00    56
               Time of flight (mus) :   0.0000000     mass (MeV/c2) :   938.272    
P   1   1.0000     0.000     0.010     0.000    -0.010      0.0000   0.0000    0.000    0.010    0.000   -0.010   0.000000E+00    57
               Time of flight (mus) :   0.0000000     mass (MeV/c2) :   938.272    
Q   1   1.0000     0.000    -0.010     0.000    -0.010      0.0000   0.0000    0.000   -0.010    0.000   -0.010   0.000000E+00    58
               Time of flight (mus) :   0.0000000     mass (MeV/c2) :   938.272    
R   1   1.0000     0.000     0.003     0.000     0.000      0.0000   0.0000    0.000    0.003    0.000    0.000   0.000000E+00    59
               Time of flight (mus) :   0.0000000     mass (MeV/c2) :   938.272    
U   1   1.0000     0.000    -0.003     0.000     0.000      0.0000  -0.0000    0.000   -0.003    0.000    0.000   0.000000E+00    60
               Time of flight (mus) :   0.0000000     mass (MeV/c2) :   938.272    
V   1   1.0001     0.000     0.010     0.000     0.000      0.0000   0.0001    0.000    0.010    0.000    0.000   0.000000E+00    61
               Time of flight (mus) :   0.0000000     mass (MeV/c2) :   938.272    
W   1   1.0001     0.000    -0.010     0.000     0.000      0.0000   0.0001    0.000   -0.010    0.000    0.000   0.000000E+00    62
               Time of flight (mus) :   0.0000000     mass (MeV/c2) :   938.272    
X   1   0.9999     0.000     0.010     0.000     0.000      0.0000  -0.0001    0.000    0.010    0.000    0.000   0.000000E+00    63
               Time of flight (mus) :   0.0000000     mass (MeV/c2) :   938.272    
Y   1   0.9999     0.000    -0.010     0.000     0.000      0.0000  -0.0001    0.000   -0.010    0.000    0.000   0.000000E+00    64
               Time of flight (mus) :   0.0000000     mass (MeV/c2) :   938.272    
Z   1   1.0000     0.000     0.000     0.003     0.003      0.0000   0.0000    0.000    0.000    0.003    0.003   0.000000E+00    65
               Time of flight (mus) :   0.0000000     mass (MeV/c2) :   938.272    
2   1   1.0000     0.000     0.000    -0.003    -0.003      0.0000   0.0000    0.000    0.000   -0.003   -0.003   0.000000E+00    66
               Time of flight (mus) :   0.0000000     mass (MeV/c2) :   938.272    
3   1   1.0000     0.000     0.000     0.010     0.010      0.0000   0.0000    0.000    0.000    0.010    0.010   0.000000E+00    67
               Time of flight (mus) :   0.0000000     mass (MeV/c2) :   938.272    
4   1   1.0000     0.000     0.000    -0.010     0.010      0.0000   0.0000    0.000    0.000   -0.010    0.010   0.000000E+00    68
               Time of flight (mus) :   0.0000000     mass (MeV/c2) :   938.272    
5   1   1.0000     0.000     0.000     0.010    -0.010      0.0000   0.0000    0.000    0.000    0.010   -0.010   0.000000E+00    69
               Time of flight (mus) :   0.0000000     mass (MeV/c2) :   938.272    
6   1   1.0000     0.000     0.000    -0.010    -0.010      0.0000   0.0000    0.000    0.000   -0.010   -0.010   0.000000E+00    70
               Time of flight (mus) :   0.0000000     mass (MeV/c2) :   938.272    
7   1   1.0000     0.000     0.000     0.003     0.000      0.0000   0.0000    0.000    0.000    0.003    0.000   0.000000E+00    71
               Time of flight (mus) :   0.0000000     mass (MeV/c2) :   938.272    
8   1   1.0000     0.000     0.000    -0.003     0.000      0.0000  -0.0000    0.000    0.000   -0.003    0.000   0.000000E+00    72
               Time of flight (mus) :   0.0000000     mass (MeV/c2) :   938.272    
9   1   1.0001     0.000     0.000     0.010     0.000      0.0000   0.0001    0.000    0.000    0.010    0.000   0.000000E+00    73
               Time of flight (mus) :   0.0000000     mass (MeV/c2) :   938.272    
0   1   1.0001     0.000     0.000    -0.010     0.000      0.0000   0.0001    0.000    0.000   -0.010    0.000   0.000000E+00    74
               Time of flight (mus) :   0.0000000     mass (MeV/c2) :   938.272    
(   1   0.9999     0.000     0.000     0.010     0.000      0.0000  -0.0001    0.000    0.000    0.010    0.000   0.000000E+00    75
               Time of flight (mus) :   0.0000000     mass (MeV/c2) :   938.272    
)   1   0.9999     0.000     0.000    -0.010     0.000      0.0000  -0.0001    0.000    0.000   -0.010    0.000   0.000000E+00    76
               Time of flight (mus) :   0.0000000     mass (MeV/c2) :   938.272    
+   1   1.0000     0.000     0.000     0.000     0.003      0.0000   0.0000    0.000    0.000    0.000    0.003   0.000000E+00    77
               Time of flight (mus) :   0.0000000     mass (MeV/c2) :   938.272    
-   1   1.0000     0.000     0.000     0.000    -0.003      0.0000  -0.0000    0.000    0.000    0.000   -0.003   0.000000E+00    78
               Time of flight (mus) :   0.0000000     mass (MeV/c2) :   938.272    
/   1   1.0001     0.000     0.000     0.000     0.010      0.0000   0.0001    0.000    0.000    0.000    0.010   0.000000E+00    79
               Time of flight (mus) :   0.0000000     mass (MeV/c2) :   938.272    
=   1   1.0001     0.000     0.000     0.000    -0.010      0.0000   0.0001    0.000    0.000    0.000   -0.010   0.000000E+00    80
               Time of flight (mus) :   0.0000000     mass (MeV/c2) :   938.272    
"   1   0.9999     0.000     0.000     0.000     0.010      0.0000  -0.0001    0.000    0.000    0.000    0.010   0.000000E+00    81
               Time of flight (mus) :   0.0000000     mass (MeV/c2) :   938.272    
*   1   0.9999     0.000     0.000     0.000    -0.010      0.0000  -0.0001    0.000    0.000    0.000   -0.010   0.000000E+00    82
               Time of flight (mus) :   0.0000000     mass (MeV/c2) :   938.272    
O   1   1.0000     0.010     0.010     0.010     0.000      0.0000   0.0000    0.010    0.010    0.010    0.000   0.000000E+00    83
               Time of flight (mus) :   0.0000000     mass (MeV/c2) :   938.272    
A   1   1.0000    -0.010    -0.010    -0.010     0.000      0.0000   0.0000   -0.010   -0.010   -0.010    0.000   0.000000E+00    84
               Time of flight (mus) :   0.0000000     mass (MeV/c2) :   938.272    
B   1   1.0000     0.010     0.010     0.000     0.010      0.0000   0.0000    0.010    0.010    0.000    0.010   0.000000E+00    85
               Time of flight (mus) :   0.0000000     mass (MeV/c2) :   938.272    
C   1   1.0000    -0.010    -0.010     0.000    -0.010      0.0000   0.0000   -0.010   -0.010    0.000   -0.010   0.000000E+00    86
               Time of flight (mus) :   0.0000000     mass (MeV/c2) :   938.272    
D   1   1.0001     0.010     0.010     0.000     0.000      0.0000   0.0001    0.010    0.010    0.000    0.000   0.000000E+00    87
               Time of flight (mus) :   0.0000000     mass (MeV/c2) :   938.272    
E   1   0.9999    -0.010    -0.010     0.000     0.000      0.0000  -0.0001   -0.010   -0.010    0.000    0.000   0.000000E+00    88
               Time of flight (mus) :   0.0000000     mass (MeV/c2) :   938.272    
F   1   1.0000     0.010     0.000     0.010     0.010      0.0000   0.0000    0.010    0.000    0.010    0.010   0.000000E+00    89
               Time of flight (mus) :   0.0000000     mass (MeV/c2) :   938.272    
G   1   1.0000    -0.010     0.000    -0.010    -0.010      0.0000   0.0000   -0.010    0.000   -0.010   -0.010   0.000000E+00    90
               Time of flight (mus) :   0.0000000     mass (MeV/c2) :   938.272    
H   1   1.0001     0.010     0.000     0.010     0.000      0.0000   0.0001    0.010    0.000    0.010    0.000   0.000000E+00    91
               Time of flight (mus) :   0.0000000     mass (MeV/c2) :   938.272    
I   1   0.9999    -0.010     0.000    -0.010     0.000      0.0000  -0.0001   -0.010    0.000   -0.010    0.000   0.000000E+00    92
               Time of flight (mus) :   0.0000000     mass (MeV/c2) :   938.272    
J   1   1.0001     0.010     0.000     0.000     0.010      0.0000   0.0001    0.010    0.000    0.000    0.010   0.000000E+00    93
               Time of flight (mus) :   0.0000000     mass (MeV/c2) :   938.272    
K   1   0.9999    -0.010     0.000     0.000    -0.010      0.0000  -0.0001   -0.010    0.000    0.000   -0.010   0.000000E+00    94
               Time of flight (mus) :   0.0000000     mass (MeV/c2) :   938.272    
L   1   1.0000     0.000     0.010     0.010     0.010      0.0000   0.0000    0.000    0.010    0.010    0.010   0.000000E+00    95
               Time of flight (mus) :   0.0000000     mass (MeV/c2) :   938.272    
M   1   1.0000     0.000    -0.010    -0.010    -0.010      0.0000   0.0000    0.000   -0.010   -0.010   -0.010   0.000000E+00    96
               Time of flight (mus) :   0.0000000     mass (MeV/c2) :   938.272    
N   1   1.0001     0.000     0.010     0.010     0.000      0.0000   0.0001    0.000    0.010    0.010    0.000   0.000000E+00    97
               Time of flight (mus) :   0.0000000     mass (MeV/c2) :   938.272    
P   1   0.9999     0.000    -0.010    -0.010     0.000      0.0000  -0.0001    0.000   -0.010   -0.010    0.000   0.000000E+00    98
               Time of flight (mus) :   0.0000000     mass (MeV/c2) :   938.272    
Q   1   1.0001     0.000     0.010     0.000     0.010      0.0000   0.0001    0.000    0.010    0.000    0.010   0.000000E+00    99
               Time of flight (mus) :   0.0000000     mass (MeV/c2) :   938.272    
R   1   0.9999     0.000    -0.010     0.000    -0.010      0.0000  -0.0001    0.000   -0.010    0.000   -0.010   0.000000E+00   100
               Time of flight (mus) :   0.0000000     mass (MeV/c2) :   938.272    
U   1   1.0001     0.000     0.000     0.010     0.010      0.0000   0.0001    0.000    0.000    0.010    0.010   0.000000E+00   101
               Time of flight (mus) :   0.0000000     mass (MeV/c2) :   938.272    
V   1   0.9999     0.000     0.000    -0.010    -0.010      0.0000  -0.0001    0.000    0.000   -0.010   -0.010   0.000000E+00   102
               Time of flight (mus) :   0.0000000     mass (MeV/c2) :   938.272    


---------------  Concentration ellipses : 
   surface/pi              alpha        beta         <X>            <XP>           numb. of prtcls   ratio      space      pass# 
                                                                                   in ellips,  out 
   5.4497E-09 [m.rad]     -1.1194E-02   5.5968E-01   0.000000E+00   9.803922E-06      102       71   0.6961      (Y,T)         1
   5.4497E-09 [m.rad]     -1.1194E-02   5.5968E-01   0.000000E+00   9.803922E-06      102       71   0.6961      (Z,P)         1
   0.0000E+00 [mu_s.MeV]   0.0000E+00   1.0000E+00   0.000000E+00   1.999989E-02      102        0    0.000      (t,K)         1

(Y,T)  space (units : m, rad   ) :  
      sigma_Y = sqrt(surface/pi * beta) =   5.522779E-05
      sigma_T = sqrt(surface/pi * (1+alpha^2)/beta) =   9.868285E-05

(Z,P)  space (units : m, rad   ) :  
      sigma_Z = sqrt(surface/pi * beta) =   5.522779E-05
      sigma_P = sqrt(surface/pi * (1+alpha^2)/beta) =   9.868285E-05

(t,K)  space (units : mu_s, MeV) :  
      sigma_t = sqrt(surface/pi * beta) =   0.000000E+00
      sigma_K = sqrt(surface/pi * (1+alpha^2)/beta) =   0.000000E+00


  Beam  sigma  matrix  and  determinants : 

   3.050109E-09   6.100218E-11   6.100218E-10   6.100218E-11
   6.100218E-11   9.738306E-09   6.100218E-11   9.713905E-09
   6.100218E-10   6.100218E-11   3.050109E-09   6.100218E-11
   6.100218E-11   9.713905E-09   6.100218E-11   9.738306E-09

      sqrt(det_Y), sqrt(det_Z) :     5.449695E-09    5.449695E-09    (Note :  sqrt(determinant) = ellipse surface / pi)
      normalized (*beta*gamma) :     3.558270E-11    3.558270E-11

************************************************************************************************************************************
      4  Keyword, label(s) :  DRIFT       3                                                                            IPASS= 1


                              Drift,  length =   500.00000  cm

TRAJ #1 IEX,D,Y,T,Z,P,S,time :  1  0.000000E+00  0.000000E+00  0.000000E+00  0.000000E+00  0.000000E+00  5.0000000E+02  2.55442E+00

 Cumulative length of optical axis =    5.00000000     m   ;  Time  (for reference rigidity & particle) =   2.554417E-06 s 

************************************************************************************************************************************
      5  Keyword, label(s) :  DRIFT       4                                                                            IPASS= 1


                              Drift,  length =    59.00000  cm

TRAJ #1 IEX,D,Y,T,Z,P,S,time :  1  0.000000E+00  0.000000E+00  0.000000E+00  0.000000E+00  0.000000E+00  5.5900000E+02  2.85584E+00

 Cumulative length of optical axis =    5.59000000     m   ;  Time  (for reference rigidity & particle) =   2.855839E-06 s 

************************************************************************************************************************************
      6  Keyword, label(s) :  EBMULT      FIRST                 QUADRUPOLE                                             IPASS= 1


      -----  MULTIPOLE   : 
                Length  of  element  =    10.200000      cm
                Bore  radius      RO =    10.000      cm                              B/RO^IM/Brho (strength)
               E-DIPOLE      =  0.0000000E+00 V/m  (i.e.,   0.0000000E+00 * SCAL)     0.0000000E+00
               E-QUADRUPOLE  = -9.2729860E+03 V/m  (i.e.,  -9.2729860E+03 * SCAL)    -4.5377959E+05
               E-SEXTUPOLE   =  0.0000000E+00 V/m  (i.e.,   0.0000000E+00 * SCAL)     0.0000000E+00
               E-OCTUPOLE    =  0.0000000E+00 V/m  (i.e.,   0.0000000E+00 * SCAL)     0.0000000E+00
               E-DECAPOLE    =  0.0000000E+00 V/m  (i.e.,   0.0000000E+00 * SCAL)     0.0000000E+00
               E-DODECAPOLE  =  0.0000000E+00 V/m  (i.e.,   0.0000000E+00 * SCAL)     0.0000000E+00
               E-14-POLE     =  0.0000000E+00 V/m  (i.e.,   0.0000000E+00 * SCAL)     0.0000000E+00
               E-16-POLE     =  0.0000000E+00 V/m  (i.e.,   0.0000000E+00 * SCAL)     0.0000000E+00
               E-18-POLE     =  0.0000000E+00 V/m  (i.e.,   0.0000000E+00 * SCAL)     0.0000000E+00
               E-20-POLE     =  0.0000000E+00 V/m  (i.e.,   0.0000000E+00 * SCAL)     0.0000000E+00

               Entrance/exit field models are sharp edge
               FINTE, FINTS, gap :    0.0000E+00   0.0000E+00   5.0000E+00

      -----  MULTIPOLE   : 
                Length  of  element  =    10.200000      cm
                Bore  radius      RO =    10.000      cm                              B/RO^IM/Brho (strength)
               B-DIPOLE      =  0.0000000E+00 kG   (i.e.,   0.0000000E+00 * SCAL)     0.0000000E+00
               B-QUADRUPOLE  =  1.8949300E+00 kG   (i.e.,   1.8949300E+00 * SCAL)     9.2729631E+01
               B-SEXTUPOLE   =  0.0000000E+00 kG   (i.e.,   0.0000000E+00 * SCAL)     0.0000000E+00
               B-OCTUPOLE    =  0.0000000E+00 kG   (i.e.,   0.0000000E+00 * SCAL)     0.0000000E+00
               B-DECAPOLE    =  0.0000000E+00 kG   (i.e.,   0.0000000E+00 * SCAL)     0.0000000E+00
               B-DODECAPOLE  =  0.0000000E+00 kG   (i.e.,   0.0000000E+00 * SCAL)     0.0000000E+00
               B-14-POLE     =  0.0000000E+00 kG   (i.e.,   0.0000000E+00 * SCAL)     0.0000000E+00
               B-16-POLE     =  0.0000000E+00 kG   (i.e.,   0.0000000E+00 * SCAL)     0.0000000E+00
               B-18-POLE     =  0.0000000E+00 kG   (i.e.,   0.0000000E+00 * SCAL)     0.0000000E+00
               B-20-POLE     =  0.0000000E+00 kG   (i.e.,   0.0000000E+00 * SCAL)     0.0000000E+00

               Entrance/exit field models are sharp edge
               FINTE, FINTS, gap :    0.0000E+00   0.0000E+00   5.0000E+00

                    Integration step :  0.1000     cm

  A    1  1.0000     0.000     0.000     0.000     0.000           10.200     0.000     0.000     0.000     0.000            1
  A    1  1.0000     0.000     1.000     0.000     1.000           10.200     0.439    -0.024     0.710     0.030            2
  A    1  1.0000     0.003     0.000     0.000     0.000           10.200     0.003    -0.000    -0.000    -0.000            3
  A    1  1.0000    -0.003     0.000     0.000     0.000           10.200    -0.003     0.000     0.000     0.000            4
  A    1  1.0000     0.010     0.000     0.000     0.000           10.200     0.008    -0.000    -0.000    -0.000            5
  A    1  1.0000    -0.010     0.000     0.000     0.000           10.200    -0.008     0.000     0.000     0.000            6
  A    1  1.0000     0.000     0.003     0.000     0.000           10.200     0.001    -0.000    -0.000    -0.000            7
  A    1  1.0000     0.000    -0.003     0.000     0.000           10.200    -0.001     0.000     0.000     0.000            8
  A    1  1.0000     0.000     0.010     0.000     0.000           10.200     0.004    -0.000    -0.000    -0.000            9
  A    1  1.0000     0.000    -0.010     0.000     0.000           10.200    -0.004     0.000     0.000     0.000           10
  A    1  1.0000     0.000     0.000     0.003     0.000           10.200    -0.000    -0.000     0.004     0.000           11
  A    1  1.0000     0.000     0.000    -0.003     0.000           10.200     0.000     0.000    -0.004    -0.000           12
  A    1  1.0000     0.000     0.000     0.010     0.000           10.200    -0.000    -0.000     0.013     0.001           13
  A    1  1.0000     0.000     0.000    -0.010     0.000           10.200     0.000     0.000    -0.013    -0.001           14
  A    1  1.0000     0.000     0.000     0.000     0.003           10.200    -0.000    -0.000     0.002     0.000           15
  A    1  1.0000     0.000     0.000     0.000    -0.003           10.200     0.000     0.000    -0.002    -0.000           16
  A    1  1.0000     0.000     0.000     0.000     0.010           10.200    -0.000    -0.000     0.007     0.000           17
  A    1  1.0000     0.000     0.000     0.000    -0.010           10.200     0.000     0.000    -0.007    -0.000           18
  A    1  1.0000     0.000     0.000     0.000     0.000           10.200     0.000     0.000     0.000     0.000           19
  A    1  1.0000     0.000     0.000     0.000     0.000           10.200     0.000     0.000     0.000     0.000           20
  A    1  1.0001     0.000     0.000     0.000     0.000           10.200     0.000     0.000     0.000     0.000           21
  A    1  0.9999     0.000     0.000     0.000     0.000           10.200     0.000     0.000     0.000     0.000           22
  A    1  1.0000     0.003     0.003     0.000     0.000           10.200     0.004    -0.000    -0.000    -0.000           23
  A    1  1.0000    -0.003    -0.003     0.000     0.000           10.200    -0.004     0.000     0.000     0.000           24
  A    1  1.0000     0.010     0.010     0.000     0.000           10.200     0.012    -0.001    -0.000    -0.000           25
  A    1  1.0000    -0.010     0.010     0.000     0.000           10.200    -0.003     0.000     0.000     0.000           26
  A    1  1.0000     0.010    -0.010     0.000     0.000           10.200     0.003    -0.000    -0.000    -0.000           27
  A    1  1.0000    -0.010    -0.010     0.000     0.000           10.200    -0.012     0.001     0.000     0.000           28
  A    1  1.0000     0.003     0.000     0.003     0.000           10.200     0.003    -0.000     0.004     0.000           29
  A    1  1.0000    -0.003     0.000    -0.003     0.000           10.200    -0.003     0.000    -0.004    -0.000           30
  A    1  1.0000     0.010     0.000     0.010     0.000           10.200     0.008    -0.000     0.013     0.001           31
  A    1  1.0000    -0.010     0.000     0.010     0.000           10.200    -0.008     0.000     0.013     0.001           32
  A    1  1.0000     0.010     0.000    -0.010     0.000           10.200     0.008    -0.000    -0.013    -0.001           33
  A    1  1.0000    -0.010     0.000    -0.010     0.000           10.200    -0.008     0.000    -0.013    -0.001           34
  A    1  1.0000     0.003     0.000     0.000     0.003           10.200     0.003    -0.000     0.002     0.000           35
  A    1  1.0000    -0.003     0.000     0.000    -0.003           10.200    -0.003     0.000    -0.002    -0.000           36
  A    1  1.0000     0.010     0.000     0.000     0.010           10.200     0.008    -0.000     0.007     0.000           37
  A    1  1.0000    -0.010     0.000     0.000     0.010           10.200    -0.008     0.000     0.007     0.000           38
  A    1  1.0000     0.010     0.000     0.000    -0.010           10.200     0.008    -0.000    -0.007    -0.000           39
  A    1  1.0000    -0.010     0.000     0.000    -0.010           10.200    -0.008     0.000    -0.007    -0.000           40
  A    1  1.0000     0.003     0.000     0.000     0.000           10.200     0.003    -0.000    -0.000    -0.000           41
  A    1  1.0000    -0.003     0.000     0.000     0.000           10.200    -0.003     0.000     0.000     0.000           42
  A    1  1.0001     0.010     0.000     0.000     0.000           10.200     0.008    -0.000    -0.000    -0.000           43
  A    1  1.0001    -0.010     0.000     0.000     0.000           10.200    -0.008     0.000     0.000     0.000           44
  A    1  0.9999     0.010     0.000     0.000     0.000           10.200     0.008    -0.000    -0.000    -0.000           45
  A    1  0.9999    -0.010     0.000     0.000     0.000           10.200    -0.008     0.000     0.000     0.000           46
  A    1  1.0000     0.000     0.003     0.003     0.000           10.200     0.001    -0.000     0.004     0.000           47
  A    1  1.0000     0.000    -0.003    -0.003     0.000           10.200    -0.001     0.000    -0.004    -0.000           48
  A    1  1.0000     0.000     0.010     0.010     0.000           10.200     0.004    -0.000     0.013     0.001           49
  A    1  1.0000     0.000    -0.010     0.010     0.000           10.200    -0.004     0.000     0.013     0.001           50
  A    1  1.0000     0.000     0.010    -0.010     0.000           10.200     0.004    -0.000    -0.013    -0.001           51
  A    1  1.0000     0.000    -0.010    -0.010     0.000           10.200    -0.004     0.000    -0.013    -0.001           52
  A    1  1.0000     0.000     0.003     0.000     0.003           10.200     0.001    -0.000     0.002     0.000           53
  A    1  1.0000     0.000    -0.003     0.000    -0.003           10.200    -0.001     0.000    -0.002    -0.000           54
  A    1  1.0000     0.000     0.010     0.000     0.010           10.200     0.004    -0.000     0.007     0.000           55
  A    1  1.0000     0.000    -0.010     0.000     0.010           10.200    -0.004     0.000     0.007     0.000           56
  A    1  1.0000     0.000     0.010     0.000    -0.010           10.200     0.004    -0.000    -0.007    -0.000           57
  A    1  1.0000     0.000    -0.010     0.000    -0.010           10.200    -0.004     0.000    -0.007    -0.000           58
  A    1  1.0000     0.000     0.003     0.000     0.000           10.200     0.001    -0.000    -0.000    -0.000           59
  A    1  1.0000     0.000    -0.003     0.000     0.000           10.200    -0.001     0.000     0.000     0.000           60
  A    1  1.0001     0.000     0.010     0.000     0.000           10.200     0.004    -0.000    -0.000    -0.000           61
  A    1  1.0001     0.000    -0.010     0.000     0.000           10.200    -0.004     0.000     0.000     0.000           62
  A    1  0.9999     0.000     0.010     0.000     0.000           10.200     0.004    -0.000    -0.000    -0.000           63
  A    1  0.9999     0.000    -0.010     0.000     0.000           10.200    -0.004     0.000     0.000     0.000           64
  A    1  1.0000     0.000     0.000     0.003     0.003           10.200    -0.000    -0.000     0.007     0.000           65
  A    1  1.0000     0.000     0.000    -0.003    -0.003           10.200     0.000     0.000    -0.007    -0.000           66
  A    1  1.0000     0.000     0.000     0.010     0.010           10.200    -0.000    -0.000     0.020     0.001           67
  A    1  1.0000     0.000     0.000    -0.010     0.010           10.200     0.000     0.000    -0.005    -0.000           68
  A    1  1.0000     0.000     0.000     0.010    -0.010           10.200    -0.000    -0.000     0.005     0.000           69
  A    1  1.0000     0.000     0.000    -0.010    -0.010           10.200     0.000     0.000    -0.020    -0.001           70
  A    1  1.0000     0.000     0.000     0.003     0.000           10.200    -0.000    -0.000     0.004     0.000           71
  A    1  1.0000     0.000     0.000    -0.003     0.000           10.200     0.000     0.000    -0.004    -0.000           72
  A    1  1.0001     0.000     0.000     0.010     0.000           10.200    -0.000    -0.000     0.013     0.001           73
  A    1  1.0001     0.000     0.000    -0.010     0.000           10.200     0.000     0.000    -0.013    -0.001           74
  A    1  0.9999     0.000     0.000     0.010     0.000           10.200    -0.000    -0.000     0.013     0.001           75
  A    1  0.9999     0.000     0.000    -0.010     0.000           10.200     0.000     0.000    -0.013    -0.001           76
  A    1  1.0000     0.000     0.000     0.000     0.003           10.200    -0.000    -0.000     0.002     0.000           77
  A    1  1.0000     0.000     0.000     0.000    -0.003           10.200     0.000     0.000    -0.002    -0.000           78
  A    1  1.0001     0.000     0.000     0.000     0.010           10.200    -0.000    -0.000     0.007     0.000           79
  A    1  1.0001     0.000     0.000     0.000    -0.010           10.200     0.000     0.000    -0.007    -0.000           80
  A    1  0.9999     0.000     0.000     0.000     0.010           10.200    -0.000    -0.000     0.007     0.000           81
  A    1  0.9999     0.000     0.000     0.000    -0.010           10.200     0.000     0.000    -0.007    -0.000           82
  A    1  1.0000     0.010     0.010     0.010     0.000           10.200     0.012    -0.001     0.013     0.001           83
  A    1  1.0000    -0.010    -0.010    -0.010     0.000           10.200    -0.012     0.001    -0.013    -0.001           84
  A    1  1.0000     0.010     0.010     0.000     0.010           10.200     0.012    -0.001     0.007     0.000           85
  A    1  1.0000    -0.010    -0.010     0.000    -0.010           10.200    -0.012     0.001    -0.007    -0.000           86
  A    1  1.0001     0.010     0.010     0.000     0.000           10.200     0.012    -0.001    -0.000    -0.000           87
  A    1  0.9999    -0.010    -0.010     0.000     0.000           10.200    -0.012     0.001     0.000     0.000           88
  A    1  1.0000     0.010     0.000     0.010     0.010           10.200     0.008    -0.000     0.020     0.001           89
  A    1  1.0000    -0.010     0.000    -0.010    -0.010           10.200    -0.008     0.000    -0.020    -0.001           90
  A    1  1.0001     0.010     0.000     0.010     0.000           10.200     0.008    -0.000     0.013     0.001           91
  A    1  0.9999    -0.010     0.000    -0.010     0.000           10.200    -0.008     0.000    -0.013    -0.001           92
  A    1  1.0001     0.010     0.000     0.000     0.010           10.200     0.008    -0.000     0.007     0.000           93
  A    1  0.9999    -0.010     0.000     0.000    -0.010           10.200    -0.008     0.000    -0.007    -0.000           94
  A    1  1.0000     0.000     0.010     0.010     0.010           10.200     0.004    -0.000     0.020     0.001           95
  A    1  1.0000     0.000    -0.010    -0.010    -0.010           10.200    -0.004     0.000    -0.020    -0.001           96
  A    1  1.0001     0.000     0.010     0.010     0.000           10.200     0.004    -0.000     0.013     0.001           97
  A    1  0.9999     0.000    -0.010    -0.010     0.000           10.200    -0.004     0.000    -0.013    -0.001           98
  A    1  1.0001     0.000     0.010     0.000     0.010           10.200     0.004    -0.000     0.007     0.000           99
  A    1  0.9999     0.000    -0.010     0.000    -0.010           10.200    -0.004     0.000    -0.007    -0.000          100
  A    1  1.0001     0.000     0.000     0.010     0.010           10.200    -0.000    -0.000     0.020     0.001          101
  A    1  0.9999     0.000     0.000    -0.010    -0.010           10.200     0.000     0.000    -0.020    -0.001          102

     QUASEX - KPOS =  1 :  Change  of  frame  at  exit  of  element.
          X =   0.0000000     cm,   Y =   0.0000000     cm,  tilt  angle =   0.0000000     rad,   Z =   0.0000000     cm


 Cumulative length of optical axis =    5.69200000     m ;  Time  (for ref. rigidity & particle) =   2.907949E-06 s 

************************************************************************************************************************************
      7  Keyword, label(s) :  DRIFT       6                                                                            IPASS= 1


                              Drift,  length =     4.90000  cm

TRAJ #1 IEX,D,Y,T,Z,P,S,time :  1  0.000000E+00  0.000000E+00  0.000000E+00  0.000000E+00  0.000000E+00  5.7410000E+02  2.93298E+00

 Cumulative length of optical axis =    5.74100000     m   ;  Time  (for reference rigidity & particle) =   2.932982E-06 s 

************************************************************************************************************************************
      8  Keyword, label(s) :  EBMULT      SECOND                QUADRUPOLE                                             IPASS= 1


      -----  MULTIPOLE   : 
                Length  of  element  =    10.200000      cm
                Bore  radius      RO =    10.000      cm                              B/RO^IM/Brho (strength)
               E-DIPOLE      =  0.0000000E+00 V/m  (i.e.,   0.0000000E+00 * SCAL)     0.0000000E+00
               E-QUADRUPOLE  =  1.3779900E+04 V/m  (i.e.,   1.3779900E+04 * SCAL)     6.7432836E+05
               E-SEXTUPOLE   =  0.0000000E+00 V/m  (i.e.,   0.0000000E+00 * SCAL)     0.0000000E+00
               E-OCTUPOLE    =  0.0000000E+00 V/m  (i.e.,   0.0000000E+00 * SCAL)     0.0000000E+00
               E-DECAPOLE    =  0.0000000E+00 V/m  (i.e.,   0.0000000E+00 * SCAL)     0.0000000E+00
               E-DODECAPOLE  =  0.0000000E+00 V/m  (i.e.,   0.0000000E+00 * SCAL)     0.0000000E+00
               E-14-POLE     =  0.0000000E+00 V/m  (i.e.,   0.0000000E+00 * SCAL)     0.0000000E+00
               E-16-POLE     =  0.0000000E+00 V/m  (i.e.,   0.0000000E+00 * SCAL)     0.0000000E+00
               E-18-POLE     =  0.0000000E+00 V/m  (i.e.,   0.0000000E+00 * SCAL)     0.0000000E+00
               E-20-POLE     =  0.0000000E+00 V/m  (i.e.,   0.0000000E+00 * SCAL)     0.0000000E+00

               Entrance/exit field models are sharp edge
               FINTE, FINTS, gap :    0.0000E+00   0.0000E+00   5.0000E+00

      -----  MULTIPOLE   : 
                Length  of  element  =    10.200000      cm
                Bore  radius      RO =    10.000      cm                              B/RO^IM/Brho (strength)
               B-DIPOLE      =  0.0000000E+00 kG   (i.e.,   0.0000000E+00 * SCAL)     0.0000000E+00
               B-QUADRUPOLE  = -2.8159200E+00 kG   (i.e.,  -2.8159200E+00 * SCAL)    -1.3779887E+02
               B-SEXTUPOLE   =  0.0000000E+00 kG   (i.e.,   0.0000000E+00 * SCAL)     0.0000000E+00
               B-OCTUPOLE    =  0.0000000E+00 kG   (i.e.,   0.0000000E+00 * SCAL)     0.0000000E+00
               B-DECAPOLE    =  0.0000000E+00 kG   (i.e.,   0.0000000E+00 * SCAL)     0.0000000E+00
               B-DODECAPOLE  =  0.0000000E+00 kG   (i.e.,   0.0000000E+00 * SCAL)     0.0000000E+00
               B-14-POLE     =  0.0000000E+00 kG   (i.e.,   0.0000000E+00 * SCAL)     0.0000000E+00
               B-16-POLE     =  0.0000000E+00 kG   (i.e.,   0.0000000E+00 * SCAL)     0.0000000E+00
               B-18-POLE     =  0.0000000E+00 kG   (i.e.,   0.0000000E+00 * SCAL)     0.0000000E+00
               B-20-POLE     =  0.0000000E+00 kG   (i.e.,   0.0000000E+00 * SCAL)     0.0000000E+00

               Entrance/exit field models are sharp edge
               FINTE, FINTS, gap :    0.0000E+00   0.0000E+00   5.0000E+00

                    Integration step :  0.1000     cm

  A    1  1.0000     0.000     0.000     0.000     0.000           10.200     0.000     0.000     0.000     0.000            1
  A    1  1.0000     0.000     1.000     0.000     1.000           10.200     0.176    -0.007     0.837    -0.034            2
  A    1  1.0000     0.003     0.000     0.000     0.000           10.200     0.001    -0.000    -0.000     0.000            3
  A    1  1.0000    -0.003     0.000     0.000     0.000           10.200    -0.001     0.000     0.000    -0.000            4
  A    1  1.0000     0.010     0.000     0.000     0.000           10.200     0.003    -0.000    -0.000     0.000            5
  A    1  1.0000    -0.010     0.000     0.000     0.000           10.200    -0.003     0.000     0.000    -0.000            6
  A    1  1.0000     0.000     0.003     0.000     0.000           10.200     0.001    -0.000    -0.000     0.000            7
  A    1  1.0000     0.000    -0.003     0.000     0.000           10.200    -0.001     0.000     0.000    -0.000            8
  A    1  1.0000     0.000     0.010     0.000     0.000           10.200     0.002    -0.000    -0.000     0.000            9
  A    1  1.0000     0.000    -0.010     0.000     0.000           10.200    -0.002     0.000     0.000    -0.000           10
  A    1  1.0000     0.000     0.000     0.003     0.000           10.200    -0.000    -0.000     0.005    -0.000           11
  A    1  1.0000     0.000     0.000    -0.003     0.000           10.200     0.000     0.000    -0.005     0.000           12
  A    1  1.0000     0.000     0.000     0.010     0.000           10.200    -0.000    -0.000     0.015    -0.001           13
  A    1  1.0000     0.000     0.000    -0.010     0.000           10.200     0.000     0.000    -0.015     0.001           14
  A    1  1.0000     0.000     0.000     0.000     0.003           10.200    -0.000    -0.000     0.003    -0.000           15
  A    1  1.0000     0.000     0.000     0.000    -0.003           10.200     0.000     0.000    -0.003     0.000           16
  A    1  1.0000     0.000     0.000     0.000     0.010           10.200    -0.000    -0.000     0.008    -0.000           17
  A    1  1.0000     0.000     0.000     0.000    -0.010           10.200     0.000     0.000    -0.008     0.000           18
  A    1  1.0000     0.000     0.000     0.000     0.000           10.200     0.000     0.000     0.000     0.000           19
  A    1  1.0000     0.000     0.000     0.000     0.000           10.200     0.000     0.000     0.000     0.000           20
  A    1  1.0001     0.000     0.000     0.000     0.000           10.200     0.000     0.000     0.000     0.000           21
  A    1  0.9999     0.000     0.000     0.000     0.000           10.200     0.000     0.000     0.000     0.000           22
  A    1  1.0000     0.003     0.003     0.000     0.000           10.200     0.001    -0.000    -0.000     0.000           23
  A    1  1.0000    -0.003    -0.003     0.000     0.000           10.200    -0.001     0.000     0.000    -0.000           24
  A    1  1.0000     0.010     0.010     0.000     0.000           10.200     0.004    -0.000    -0.000     0.000           25
  A    1  1.0000    -0.010     0.010     0.000     0.000           10.200    -0.001     0.000     0.000    -0.000           26
  A    1  1.0000     0.010    -0.010     0.000     0.000           10.200     0.001    -0.000    -0.000     0.000           27
  A    1  1.0000    -0.010    -0.010     0.000     0.000           10.200    -0.004     0.000     0.000    -0.000           28
  A    1  1.0000     0.003     0.000     0.003     0.000           10.200     0.001    -0.000     0.005    -0.000           29
  A    1  1.0000    -0.003     0.000    -0.003     0.000           10.200    -0.001     0.000    -0.005     0.000           30
  A    1  1.0000     0.010     0.000     0.010     0.000           10.200     0.003    -0.000     0.015    -0.001           31
  A    1  1.0000    -0.010     0.000     0.010     0.000           10.200    -0.003     0.000     0.015    -0.001           32
  A    1  1.0000     0.010     0.000    -0.010     0.000           10.200     0.003    -0.000    -0.015     0.001           33
  A    1  1.0000    -0.010     0.000    -0.010     0.000           10.200    -0.003     0.000    -0.015     0.001           34
  A    1  1.0000     0.003     0.000     0.000     0.003           10.200     0.001    -0.000     0.003    -0.000           35
  A    1  1.0000    -0.003     0.000     0.000    -0.003           10.200    -0.001     0.000    -0.003     0.000           36
  A    1  1.0000     0.010     0.000     0.000     0.010           10.200     0.003    -0.000     0.008    -0.000           37
  A    1  1.0000    -0.010     0.000     0.000     0.010           10.200    -0.003     0.000     0.008    -0.000           38
  A    1  1.0000     0.010     0.000     0.000    -0.010           10.200     0.003    -0.000    -0.008     0.000           39
  A    1  1.0000    -0.010     0.000     0.000    -0.010           10.200    -0.003     0.000    -0.008     0.000           40
  A    1  1.0000     0.003     0.000     0.000     0.000           10.200     0.001    -0.000    -0.000     0.000           41
  A    1  1.0000    -0.003     0.000     0.000     0.000           10.200    -0.001     0.000     0.000    -0.000           42
  A    1  1.0001     0.010     0.000     0.000     0.000           10.200     0.003    -0.000    -0.000     0.000           43
  A    1  1.0001    -0.010     0.000     0.000     0.000           10.200    -0.003     0.000     0.000    -0.000           44
  A    1  0.9999     0.010     0.000     0.000     0.000           10.200     0.003    -0.000    -0.000     0.000           45
  A    1  0.9999    -0.010     0.000     0.000     0.000           10.200    -0.003     0.000     0.000    -0.000           46
  A    1  1.0000     0.000     0.003     0.003     0.000           10.200     0.001    -0.000     0.005    -0.000           47
  A    1  1.0000     0.000    -0.003    -0.003     0.000           10.200    -0.001     0.000    -0.005     0.000           48
  A    1  1.0000     0.000     0.010     0.010     0.000           10.200     0.002    -0.000     0.015    -0.001           49
  A    1  1.0000     0.000    -0.010     0.010     0.000           10.200    -0.002     0.000     0.015    -0.001           50
  A    1  1.0000     0.000     0.010    -0.010     0.000           10.200     0.002    -0.000    -0.015     0.001           51
  A    1  1.0000     0.000    -0.010    -0.010     0.000           10.200    -0.002     0.000    -0.015     0.001           52
  A    1  1.0000     0.000     0.003     0.000     0.003           10.200     0.001    -0.000     0.003    -0.000           53
  A    1  1.0000     0.000    -0.003     0.000    -0.003           10.200    -0.001     0.000    -0.003     0.000           54
  A    1  1.0000     0.000     0.010     0.000     0.010           10.200     0.002    -0.000     0.008    -0.000           55
  A    1  1.0000     0.000    -0.010     0.000     0.010           10.200    -0.002     0.000     0.008    -0.000           56
  A    1  1.0000     0.000     0.010     0.000    -0.010           10.200     0.002    -0.000    -0.008     0.000           57
  A    1  1.0000     0.000    -0.010     0.000    -0.010           10.200    -0.002     0.000    -0.008     0.000           58
  A    1  1.0000     0.000     0.003     0.000     0.000           10.200     0.001    -0.000    -0.000     0.000           59
  A    1  1.0000     0.000    -0.003     0.000     0.000           10.200    -0.001     0.000     0.000    -0.000           60
  A    1  1.0001     0.000     0.010     0.000     0.000           10.200     0.002    -0.000    -0.000     0.000           61
  A    1  1.0001     0.000    -0.010     0.000     0.000           10.200    -0.002     0.000     0.000    -0.000           62
  A    1  0.9999     0.000     0.010     0.000     0.000           10.200     0.002    -0.000    -0.000     0.000           63
  A    1  0.9999     0.000    -0.010     0.000     0.000           10.200    -0.002     0.000     0.000    -0.000           64
  A    1  1.0000     0.000     0.000     0.003     0.003           10.200    -0.000    -0.000     0.008    -0.000           65
  A    1  1.0000     0.000     0.000    -0.003    -0.003           10.200     0.000     0.000    -0.008     0.000           66
  A    1  1.0000     0.000     0.000     0.010     0.010           10.200    -0.000    -0.000     0.023    -0.001           67
  A    1  1.0000     0.000     0.000    -0.010     0.010           10.200     0.000     0.000    -0.006     0.000           68
  A    1  1.0000     0.000     0.000     0.010    -0.010           10.200    -0.000    -0.000     0.006    -0.000           69
  A    1  1.0000     0.000     0.000    -0.010    -0.010           10.200     0.000     0.000    -0.023     0.001           70
  A    1  1.0000     0.000     0.000     0.003     0.000           10.200    -0.000    -0.000     0.005    -0.000           71
  A    1  1.0000     0.000     0.000    -0.003     0.000           10.200     0.000     0.000    -0.005     0.000           72
  A    1  1.0001     0.000     0.000     0.010     0.000           10.200    -0.000    -0.000     0.015    -0.001           73
  A    1  1.0001     0.000     0.000    -0.010     0.000           10.200     0.000     0.000    -0.015     0.001           74
  A    1  0.9999     0.000     0.000     0.010     0.000           10.200    -0.000    -0.000     0.015    -0.001           75
  A    1  0.9999     0.000     0.000    -0.010     0.000           10.200     0.000     0.000    -0.015     0.001           76
  A    1  1.0000     0.000     0.000     0.000     0.003           10.200    -0.000    -0.000     0.003    -0.000           77
  A    1  1.0000     0.000     0.000     0.000    -0.003           10.200     0.000     0.000    -0.003     0.000           78
  A    1  1.0001     0.000     0.000     0.000     0.010           10.200    -0.000    -0.000     0.008    -0.000           79
  A    1  1.0001     0.000     0.000     0.000    -0.010           10.200     0.000     0.000    -0.008     0.000           80
  A    1  0.9999     0.000     0.000     0.000     0.010           10.200    -0.000    -0.000     0.008    -0.000           81
  A    1  0.9999     0.000     0.000     0.000    -0.010           10.200     0.000     0.000    -0.008     0.000           82
  A    1  1.0000     0.010     0.010     0.010     0.000           10.200     0.004    -0.000     0.015    -0.001           83
  A    1  1.0000    -0.010    -0.010    -0.010     0.000           10.200    -0.004     0.000    -0.015     0.001           84
  A    1  1.0000     0.010     0.010     0.000     0.010           10.200     0.004    -0.000     0.008    -0.000           85
  A    1  1.0000    -0.010    -0.010     0.000    -0.010           10.200    -0.004     0.000    -0.008     0.000           86
  A    1  1.0001     0.010     0.010     0.000     0.000           10.200     0.004    -0.000    -0.000     0.000           87
  A    1  0.9999    -0.010    -0.010     0.000     0.000           10.200    -0.004     0.000     0.000    -0.000           88
  A    1  1.0000     0.010     0.000     0.010     0.010           10.200     0.003    -0.000     0.023    -0.001           89
  A    1  1.0000    -0.010     0.000    -0.010    -0.010           10.200    -0.003     0.000    -0.023     0.001           90
  A    1  1.0001     0.010     0.000     0.010     0.000           10.200     0.003    -0.000     0.015    -0.001           91
  A    1  0.9999    -0.010     0.000    -0.010     0.000           10.200    -0.003     0.000    -0.015     0.001           92
  A    1  1.0001     0.010     0.000     0.000     0.010           10.200     0.003    -0.000     0.008    -0.000           93
  A    1  0.9999    -0.010     0.000     0.000    -0.010           10.200    -0.003     0.000    -0.008     0.000           94
  A    1  1.0000     0.000     0.010     0.010     0.010           10.200     0.002    -0.000     0.023    -0.001           95
  A    1  1.0000     0.000    -0.010    -0.010    -0.010           10.200    -0.002     0.000    -0.023     0.001           96
  A    1  1.0001     0.000     0.010     0.010     0.000           10.200     0.002    -0.000     0.015    -0.001           97
  A    1  0.9999     0.000    -0.010    -0.010     0.000           10.200    -0.002     0.000    -0.015     0.001           98
  A    1  1.0001     0.000     0.010     0.000     0.010           10.200     0.002    -0.000     0.008    -0.000           99
  A    1  0.9999     0.000    -0.010     0.000    -0.010           10.200    -0.002     0.000    -0.008     0.000          100
  A    1  1.0001     0.000     0.000     0.010     0.010           10.200    -0.000    -0.000     0.023    -0.001          101
  A    1  0.9999     0.000     0.000    -0.010    -0.010           10.200     0.000     0.000    -0.023     0.001          102

     QUASEX - KPOS =  1 :  Change  of  frame  at  exit  of  element.
          X =   0.0000000     cm,   Y =   0.0000000     cm,  tilt  angle =   0.0000000     rad,   Z =   0.0000000     cm


 Cumulative length of optical axis =    5.84300000     m ;  Time  (for ref. rigidity & particle) =   2.985092E-06 s 

************************************************************************************************************************************
      9  Keyword, label(s) :  DRIFT       8                                                                            IPASS= 1


                              Drift,  length =    25.00000  cm

TRAJ #1 IEX,D,Y,T,Z,P,S,time :  1  0.000000E+00  0.000000E+00  0.000000E+00  0.000000E+00  0.000000E+00  6.0930000E+02  3.11281E+00

 Cumulative length of optical axis =    6.09300000     m   ;  Time  (for reference rigidity & particle) =   3.112813E-06 s 

************************************************************************************************************************************
     10  Keyword, label(s) :  MATRIX      9                                                                            IPASS= 1


  Reference, before change of frame (particle #  1  - D-1,Y,T,Z,s,time)  : 
   0.00000000E+00   0.00000000E+00   0.00000000E+00   0.00000000E+00   0.00000000E+00   6.09300000E+02   3.11281316E+00

           Frame for MATRIX calculation moved by :
            XC =    0.000 cm , YC =    0.000 cm ,   A =  0.00000 deg  ( = 0.000000 rad )


  Reference, after change of frame (particle #  1  - D-1,Y,T,Z,s,time)  : 
   0.00000000E+00   0.00000000E+00   0.00000000E+00   0.00000000E+00   0.00000000E+00   6.09300000E+02   3.11281316E+00

  Reference particle (#     1), path length :   609.30000     cm  relative momentum :    1.00000    

                                         *1st order TRANSPORT coeffs.* (Units m, rad)
              -0.14214   0.00027  -0.00000  -0.00000   0.00000   0.00000
              -1.63367  -7.03192  -0.00000  -0.00000   0.00000   0.00000
              -0.00000  -0.00000  -0.02983   0.00021   0.00000   0.00000
               0.00000   0.00000  -5.94687 -33.48177   0.00000   0.00000
               0.00000   0.00000   0.00000   0.00000   1.00000   0.00000
               0.00000   0.00000   0.00000   0.00000   0.00000   1.00000

                                          *2nd order TRANSPORT coeffs.* (units m, rad)
            1 11  0.000E+00
            1 12  0.000E+00   1 22  0.000E+00
            1 13  0.000E+00   1 23  0.000E+00   1 33  0.000E+00
            1 14  0.000E+00   1 24  0.000E+00   1 34  0.000E+00   1 44  0.000E+00
            1 15  0.000E+00   1 25  0.000E+00   1 35  0.000E+00   1 45  0.000E+00   1 55  0.000E+00
            1 16  7.136E-06   1 26  3.737E-05   1 36  7.558E-13   1 46  2.447E-13   1 56  0.000E+00   1 66  0.000E+00

            2 11  0.000E+00
            2 12  0.000E+00   2 22  0.000E+00
            2 13  0.000E+00   2 23  0.000E+00   2 33  0.000E+00
            2 14  0.000E+00   2 24  0.000E+00   2 34  0.000E+00   2 44  0.000E+00
            2 15  0.000E+00   2 25  0.000E+00   2 35  0.000E+00   2 45  0.000E+00   2 55  0.000E+00
            2 16  1.531E-05   2 26  7.652E-05   2 36  2.408E-12   2 46  1.041E-12   2 56  0.000E+00   2 66  0.000E+00

            3 11  0.000E+00
            3 12  0.000E+00   3 22  0.000E+00
            3 13  0.000E+00   3 23  0.000E+00   3 33  0.000E+00
            3 14  0.000E+00   3 24  0.000E+00   3 34  0.000E+00   3 44  0.000E+00
            3 15  0.000E+00   3 25  0.000E+00   3 35  0.000E+00   3 45  0.000E+00   3 55  0.000E+00
            3 16 -1.211E-13   3 26 -6.144E-13   3 36  1.833E-05   3 46  1.053E-04   3 56  0.000E+00   3 66  0.000E+00

            4 11  0.000E+00
            4 12  0.000E+00   4 22  0.000E+00
            4 13  0.000E+00   4 23  0.000E+00   4 33  0.000E+00
            4 14  0.000E+00   4 24  0.000E+00   4 34  0.000E+00   4 44  0.000E+00
            4 15  0.000E+00   4 25  0.000E+00   4 35  0.000E+00   4 45  0.000E+00   4 55  0.000E+00
            4 16 -3.753E-13   4 26 -3.543E-12   4 36  7.221E-05   4 46  4.135E-04   4 56  0.000E+00   4 66  0.000E+00

            5 11  1.979E+00
            5 12  1.611E+01   5 22  4.411E+01
            5 13 -7.772E-08   5 23  8.771E-06   5 33  6.024E+00
            5 14 -4.441E-07   5 24 -1.799E-04   5 34  6.842E+01   5 44  1.972E+02
            5 15  0.000E+00   5 25  0.000E+00   5 35  0.000E+00   5 45  0.000E+00   5 55  0.000E+00
            5 16  0.000E+00   5 26  0.000E+00   5 36  2.776E-08   5 46  0.000E+00   5 56  0.000E+00   5 66  0.000E+00


                                         *3rd order TRANSPORT coeffs.* (units m, rad)
           1 111 -1.877E+01
           1 112 -2.997E+02
           1 122 -1.598E+03   1 222 -2.845E+03
           1 113  2.457E-08
           1 123 -2.064E-04   1 223  9.322E-07
           1 133 -3.427E+01   1 233 -1.680E+02   1 333 -8.050E-10
           1 114 -3.224E-07
           1 124 -5.432E-04   1 224  8.895E-06
           1 134 -3.881E+02   1 234 -1.901E+03   1 334  3.508E-08
           1 144 -1.097E+03   1 244 -5.370E+03   1 344  2.245E-07   1 444 -2.686E-06
           1 115  0.000E+00
           1 125  0.000E+00   1 225  0.000E+00
           1 135  0.000E+00   1 235  0.000E+00   1 335  0.000E+00
           1 145  0.000E+00   1 245  0.000E+00   1 345  0.000E+00   1 445  0.000E+00
           1 155  0.000E+00   1 255  0.000E+00   1 355  0.000E+00   1 455  0.000E+00   1 555  0.000E+00
           1 116  0.000E+00
           1 126  2.009E-05   1 226  0.000E+00
           1 136  1.390E-06   1 236  8.618E-06   1 336  0.000E+00
           1 146  5.265E-06   1 246  2.089E-05   1 346 -5.605E-08   1 446  0.000E+00
           1 156  0.000E+00   1 256  0.000E+00   1 356  0.000E+00   1 456  0.000E+00   1 556  0.000E+00
           1 166  2.291E+00   1 266  1.254E+01   1 366  1.155E-10   1 466  3.530E-09   1 566  0.000E+00   1 666  0.000E+00

           2 111 -4.230E+01
           2 112 -6.771E+02
           2 122 -3.619E+03   2 222 -6.459E+03
           2 113  5.514E-08
           2 123 -5.319E-04   2 223  2.126E-06
           2 133 -1.007E+02   2 233 -4.842E+02   2 333 -2.854E-09
           2 114 -6.834E-07
           2 124 -1.332E-03   2 224  1.975E-05
           2 134 -1.134E+03   2 234 -5.447E+03   2 334  1.102E-07
           2 144 -3.190E+03   2 244 -1.530E+04   2 344  6.743E-07   2 444 -8.409E-06
           2 115  0.000E+00
           2 125  0.000E+00   2 225  0.000E+00
           2 135  0.000E+00   2 235  0.000E+00   2 335  0.000E+00
           2 145  0.000E+00   2 245  0.000E+00   2 345  0.000E+00   2 445  0.000E+00
           2 155  0.000E+00   2 255  0.000E+00   2 355  0.000E+00   2 455  0.000E+00   2 555  0.000E+00
           2 116  0.000E+00
           2 126  4.852E-05   2 226  0.000E+00
           2 136  3.945E-06   2 236  2.630E-05   2 336  0.000E+00
           2 146  1.693E-05   2 246  5.407E-05   2 346 -1.676E-07   2 446  0.000E+00
           2 156  0.000E+00   2 256  0.000E+00   2 356  0.000E+00   2 456  0.000E+00   2 556  0.000E+00
           2 166  5.691E+00   2 266  3.080E+01   2 366 -1.580E-11   2 466  8.373E-09   2 566  0.000E+00   2 666  0.000E+00

           3 111  3.419E-09
           3 112  9.831E-09
           3 122 -4.046E-10   3 222 -1.678E-06
           3 113  7.021E+00
           3 123  7.522E+01   3 223  1.989E+02
           3 133  9.075E-10   3 233  1.800E-08   3 333 -4.284E+01
           3 114  4.001E+01
           3 124  4.276E+02   3 224  1.128E+03
           3 134  5.412E-05   3 234  1.073E-04   3 334 -7.275E+02
           3 144 -1.644E-06   3 244  1.915E-05   3 344 -8.238E+03   3 444 -7.775E+03
           3 115  0.000E+00
           3 125  0.000E+00   3 225  0.000E+00
           3 135  0.000E+00   3 235  0.000E+00   3 335  0.000E+00
           3 145  0.000E+00   3 245  0.000E+00   3 345  0.000E+00   3 445  0.000E+00
           3 155  0.000E+00   3 255  0.000E+00   3 355  0.000E+00   3 455  0.000E+00   3 555  0.000E+00
           3 116  0.000E+00
           3 126  2.580E-08   3 226  0.000E+00
           3 136  9.470E-07   3 236  4.773E-06   3 336  0.000E+00
           3 146  4.174E-06   3 246  1.046E-05   3 346  6.991E-05   3 446  0.000E+00
           3 156  0.000E+00   3 256  0.000E+00   3 356  0.000E+00   3 456  0.000E+00   3 556  0.000E+00
           3 166 -1.075E-09   3 266 -5.261E-09   3 366  2.044E+00   3 466  1.178E+01   3 566  0.000E+00   3 666  0.000E+00

           4 111  9.295E-09
           4 112  3.232E-08
           4 122 -6.956E-08   4 222 -5.936E-06
           4 113  1.012E+01
           4 123  8.863E+01   4 223  1.841E+02
           4 133 -1.668E-08   4 233 -5.290E-08   4 333 -1.146E+02
           4 114  5.063E+01
           4 124  4.277E+02   4 224  8.212E+02
           4 134  2.060E-04   4 234  4.337E-04   4 334 -1.968E+03
           4 144 -4.378E-06   4 244  4.892E-05   4 344 -2.252E+04   4 444 -2.151E+04
           4 115  0.000E+00
           4 125  0.000E+00   4 225  0.000E+00
           4 135  0.000E+00   4 235  0.000E+00   4 335  0.000E+00
           4 145  0.000E+00   4 245  0.000E+00   4 345  0.000E+00   4 445  0.000E+00
           4 155  0.000E+00   4 255  0.000E+00   4 355  0.000E+00   4 455  0.000E+00   4 555  0.000E+00
           4 116  0.000E+00
           4 126  6.831E-08   4 226  0.000E+00
           4 136  1.843E-06   4 236  1.084E-05   4 336  0.000E+00
           4 146  1.843E-05   4 246  6.505E-05   4 346  2.065E-04   4 446  0.000E+00
           4 156  0.000E+00   4 256  0.000E+00   4 356  0.000E+00   4 456  0.000E+00   4 556  0.000E+00
           4 166 -2.587E-09   4 266 -1.241E-08   4 366  9.437E+00   4 466  5.404E+01   4 566  0.000E+00   4 666  0.000E+00

           5 111  0.000E+00
           5 112  0.000E+00
           5 122  0.000E+00   5 222  0.000E+00
           5 113  0.000E+00
           5 123  0.000E+00   5 223  0.000E+00
           5 133  0.000E+00   5 233  0.000E+00   5 333  0.000E+00
           5 114  0.000E+00
           5 124  0.000E+00   5 224  0.000E+00
           5 134  0.000E+00   5 234  0.000E+00   5 334  0.000E+00
           5 144  0.000E+00   5 244  0.000E+00   5 344  0.000E+00   5 444  0.000E+00
           5 115  0.000E+00
           5 125  0.000E+00   5 225  0.000E+00
           5 135  0.000E+00   5 235  0.000E+00   5 335  0.000E+00
           5 145  0.000E+00   5 245  0.000E+00   5 345  0.000E+00   5 445  0.000E+00
           5 155  0.000E+00   5 255  0.000E+00   5 355  0.000E+00   5 455  0.000E+00   5 555  0.000E+00
           5 116  0.000E+00
           5 126  0.000E+00   5 226  0.000E+00
           5 136  4.441E-04   5 236  4.441E-03   5 336 -4.441E-04
           5 146  0.000E+00   5 246  0.000E+00   5 346  4.441E-03   5 446  0.000E+00
           5 156  0.000E+00   5 256  0.000E+00   5 356  0.000E+00   5 456  0.000E+00   5 556  0.000E+00
           5 166  0.000E+00   5 266  0.000E+00   5 366  0.000E+00   5 466  0.000E+00   5 566  0.000E+00   5 666  0.000E+00


                                                * Few 4th order TRANSPORT coefficients * 

   1 1111  0.000E+00
   1 1122  0.000E+00   1 2222  0.000E+00
   1 1133  0.000E+00   1 2233  0.000E+00   1 3333  0.000E+00
   1 1144  0.000E+00   1 2244  0.000E+00   1 3344  0.000E+00   1 4444  0.000E+00
   1 1155  0.000E+00   1 2255  0.000E+00   1 3355  0.000E+00   1 4455  0.000E+00   1 5555  0.000E+00
   1 1166  0.000E+00   1 2266  0.000E+00   1 3366  0.000E+00   1 4466  0.000E+00   1 5566  0.000E+00   1 6666  0.000E+00

   2 1111  0.000E+00
   2 1122  0.000E+00   2 2222  0.000E+00
   2 1133  0.000E+00   2 2233  0.000E+00   2 3333  0.000E+00
   2 1144  0.000E+00   2 2244  0.000E+00   2 3344  0.000E+00   2 4444  0.000E+00
   2 1155  0.000E+00   2 2255  0.000E+00   2 3355  0.000E+00   2 4455  0.000E+00   2 5555  0.000E+00
   2 1166  0.000E+00   2 2266  0.000E+00   2 3366  0.000E+00   2 4466  0.000E+00   2 5566  0.000E+00   2 6666  0.000E+00

   3 1111  0.000E+00
   3 1122  0.000E+00   3 2222  0.000E+00
   3 1133  0.000E+00   3 2233  0.000E+00   3 3333  0.000E+00
   3 1144  0.000E+00   3 2244  0.000E+00   3 3344  0.000E+00   3 4444  0.000E+00
   3 1155  0.000E+00   3 2255  0.000E+00   3 3355  0.000E+00   3 4455  0.000E+00   3 5555  0.000E+00
   3 1166  0.000E+00   3 2266  0.000E+00   3 3366  0.000E+00   3 4466  0.000E+00   3 5566  0.000E+00   3 6666  0.000E+00

   4 1111  0.000E+00
   4 1122  0.000E+00   4 2222  0.000E+00
   4 1133  0.000E+00   4 2233  0.000E+00   4 3333  0.000E+00
   4 1144  0.000E+00   4 2244  0.000E+00   4 3344  0.000E+00   4 4444  0.000E+00
   4 1155  0.000E+00   4 2255  0.000E+00   4 3355  0.000E+00   4 4455  0.000E+00   4 5555  0.000E+00
   4 1166  0.000E+00   4 2266  0.000E+00   4 3366  0.000E+00   4 4466  0.000E+00   4 5566  0.000E+00   4 6666  0.000E+00

   5 1111  9.992E+00
   5 1122  7.105E+03   5 2222 -6.994E+05
   5 1133  6.217E+01   5 2233  1.776E+03   5 3333  2.898E+02
   5 1144  3.553E+03   5 2244  0.000E+00   5 3344  5.151E+04   5 4444 -6.994E+05
   5 1155  0.000E+00   5 2255  0.000E+00   5 3355  0.000E+00   5 4455  0.000E+00   5 5555  0.000E+00
   5 1166  0.000E+00   5 2266  0.000E+00   5 3366 -2.220E+01   5 4466  0.000E+00   5 5566  0.000E+00   5 6666  0.000E+00

************************************************************************************************************************************
     11  Keyword, label(s) :  HISTO       10                                                                           IPASS= 1


                              HISTOGRAMME  DE  LA  COORDONNEE  Y     
                              PARTICULES  PRIMAIRES  ET  SECONDAIRES
                              DANS  LA  FENETRE :  -5.0000E-06 /   5.0000E-06 (CM) 
 
   20                                                                                               
   19                                                                                               
   18                                                                 Y                             
   17                                                                 Y                             
   16                                                                 Y                             
   15                                                                 Y                             
   14                                                                 Y                             
   13                                                                 Y                             
   12                                                                 Y                             
   11                                                                 Y                             
   10                                                                 0                             
    9                                                                 Y                             
    8                                                                 Y                             
    7                                                                 Y                             
    6                                                                 Y                             
    5                                                               Y Y Y                           
    4                                                               Y Y Y                           
    3                                                               Y Y Y                           
    2                                                               YYYYY                           
    1                                                               YYYYY                           

                                        123456789012345678901234567890123456789012345678901234567890
                                                 4         5         6         7         8


                TOTAL  COMPTAGE  TOUS  BINS     :      61  PARTICULES  SUR  UN  TOTAL  DE      102  LANCEES
                NUMERO   DU  BIN  MOYEN       :      61
                COMPTAGE  AU   "      "         :      33
                VAL. PHYS. AU  "      "         :   0.00     (CM) 
                RESOLUTION  PAR  BIN          :  1.667E-07 (CM) 

                PARAMETRES  PHYSIQUES  DE  LA  DISTRIBUTION :
                    COMPTAGE =     102  PARTICULES
                    NOMBRE DE BINS =      60  (IC1 - IC2 : 31 - 90)
                    Found min. =  -1.4217E-03, found max. =   1.4217E-03, MAX-MIN =   2.8434E-03 (CM) , DX PAR BIN =   1.6667E-07
                    MOYENNE =  -7.8002E-06 (CM) 
                    SIGMA =   7.8891E-04 (CM) 

 TRAJ 1 IEX,D,Y,T,Z,P,S,time :  1   1.000       0.000       0.000       0.000       0.000           609.30           3.1128    

************************************************************************************************************************************
     12  Keyword, label(s) :  HISTO       11                                                                           IPASS= 1


                              HISTOGRAMME  DE  LA  COORDONNEE  Z     
                              PARTICULES  PRIMAIRES  ET  SECONDAIRES
                              DANS  LA  FENETRE :  -5.0000E-06 /   5.0000E-06 (CM) 
 
   20                                                                                               
   19                                                                                               
   18                                                                 Z                             
   17                                                                 Z                             
   16                                                                 Z                             
   15                                                                 Z                             
   14                                                                 Z                             
   13                                                                 Z                             
   12                                                                 Z                             
   11                                                                 Z                             
   10                                                                 0                             
    9                                                                 Z                             
    8                                                                 Z                             
    7                                                                 Z                             
    6                                                                 Z                             
    5                                                                 Z                             
    4                                                                ZZZ                            
    3                                                                ZZZ                            
    2                                                                ZZZ                            
    1                                                                ZZZ                            

                                        123456789012345678901234567890123456789012345678901234567890
                                                 4         5         6         7         8


                TOTAL  COMPTAGE  TOUS  BINS     :      61  PARTICULES  SUR  UN  TOTAL  DE      102  LANCEES
                NUMERO   DU  BIN  MOYEN       :      61
                COMPTAGE  AU   "      "         :      41
                VAL. PHYS. AU  "      "         :   0.00     (CM) 
                RESOLUTION  PAR  BIN          :  1.667E-07 (CM) 

                PARAMETRES  PHYSIQUES  DE  LA  DISTRIBUTION :
                    COMPTAGE =     102  PARTICULES
                    NOMBRE DE BINS =      60  (IC1 - IC2 : 31 - 90)
                    Found min. =  -6.4486E-04, found max. =   2.9851E-04, MAX-MIN =   9.4337E-04 (CM) , DX PAR BIN =   1.6667E-07
                    MOYENNE =  -6.3222E-06 (CM) 
                    SIGMA =   1.7655E-04 (CM) 

 TRAJ 1 IEX,D,Y,T,Z,P,S,time :  1   1.000       0.000       0.000       0.000       0.000           609.30           3.1128    

************************************************************************************************************************************
     13  Keyword, label(s) :  END                                                                                      IPASS= 1


                           102 particles have been launched
                     Made  it  to  the  end :    102

************************************************************************************************************************************
 Pgm zgoubi : Execution ended normally, upon keyword END or FIN
   
 File in:   microProbe_matrix_3rdOrder.res
 File out:  zgoubi.res

  Zgoubi, author's Revision: 1590.
  Job  started  on  02-02-2022,  at  11:08:02 
  JOB  ENDED  ON    02-02-2022,  AT  11:08:02 

   CPU time, total :     4.5799999999999993E-002
