Nanoprobe achromat animation
'OBJET'                                                                                                      1
20.435                                                               ! H+ ions, 20keV.
6       ! KOBJ=6 creates 61 rays, to allow 2nd order in/out parametrization by MATRIX.
.01  .01 .007 .01 .01 .0001
0. 0. 0. 0. 0. 1.
'PARTICUL'       ! Necessary keyword, due to EBMULT (possibly) including E components.                       2
PROTON
 
'MARKER'           ! OBJET is located 559 cm upstream of entrance of first quadrupole.                       3
'DRIFT'   drift_1                                                                                            4
559.
 
'EBMULT'                                                           ! First quadrupole.                       5
0                                     ! IL=2 for step-by-step print out to zgoubi.plt.
10.2  10. 0. -9446.2968  0. 0. 0. 0. 0. 0. 0. 0.     ! Electric q-pole component is 0.
9.  5.  1.  1.  0.  0.  0. 0. 0. 0. 0.
6  .1122 6.2671 -1.4982 3.5882 -2.1209 1.723
9.  5.  1.  1.  0.  0.  0. 0. 0. 0. 0.                         ! Exit EFB, sharp edge.
6  .1122 6.2671 -1.4982 3.5882 -2.1209 1.723
0. 0. 0. 0. 0. 0. 0. 0. 0. 0.
10.2  10. 0. 1.9303418 0. 0. 0. 0. 0. 0. 0. 0.        ! Magnetic q-pole component set
9.  5.  1.  1.  0.  0.  0. 0. 0. 0. 0.           ! for image located 25 cm downstream
6  .1122 6.2671 -1.4982 3.5882 -2.1209 1.723                     ! of quadrupole exit.
9.  5.  1.  1.  0.  0.  0. 0. 0. 0. 0.
6  .1122 6.2671 -1.4982 3.5882 -2.1209 1.723
0.  0. 0. 0. 0. 0. 0. 0. 0. 0.
1.                                                    ! Integration step size is 1 cm.
1 0. 0. 0.
'DRIFT'   drift_2                                                                                            6
4.9
'EBMULT'                                                          ! Second quadrupole.                       7
0                                     ! IL=2 for step-by-step print out to zgoubi.plt.
10.2  10. 0. 14048.719  0. 0. 0. 0. 0. 0. 0. 0.      ! Electric q-pole component is 0.
9.  5.  1.  1.  0.  0.  0. 0. 0. 0. 0
6  .1122 6.2671 -1.4982 3.5882 -2.1209 1.723
9.  5.  1.  1.  0.  0.  0. 0. 0. 0. 0
6  .1122 6.2671 -1.4982 3.5882 -2.1209 1.723
0. 0. 0. 0. 0. 0. 0. 0. 0. 0.
10.2  10. 0. -2.8708418 0. 0. 0. 0. 0. 0. 0. 0.        ! Magnetic q-pole component set
9.  5.  1.  1.  0.  0.  0. 0. 0. 0. 0             ! for image located 25 cm downstream
6  .1122 6.2671 -1.4982 3.5882 -2.1209 1.723                     ! of quadrupole exit.
9.  5.  1.  1.  0.  0.  0. 0. 0. 0. 0
6  .1122 6.2671 -1.4982 3.5882 -2.1209 1.723
0. 0. 0. 0. 0. 0. 0. 0. 0. 0.
1.                                                    ! Integration step size is 1 cm.
1 0. 0. 0.
'DRIFT'   drift_3                                                                                            8
25.
 
'FIT'               ! Constrints on T_ijk transport coefficients impose OBJET/KOBJ=6.                        9
4                                                                      ! 4 variables:
5  5  0 .1                                                  ! E field in first quad,
5 63  0 .1                                                  ! B field in first quad,
7  5  0 .1                                             ! and E field in second quad.
7 63  0 .1                                             ! and B field in second quad.
6 1E-15 50  ! 6 constraints. Optional: penalty and #iter. values (default otherwise).
1 1  2 #End 0. 1. 0    ! R11=0 at end of sequence (i.e., after the final25 cm drift),
1 3  4 #End 0. 1. 0                                       ! R34=0 at end of sequence.
2 2 16 #End 0. 1. 0                                     ! T_216=0 at end of sequence.
2 2 26 #End 0. 1. 0                                     ! T_226=0 at end of sequence.
2 4 36 #End 0. 1. 0                                     ! T_436=0 at end of sequence.
2 3 46 #End 0. 1. 0                                     ! T_446=0 at end of sequence.
 
'MATRIX'         ! Local value of the 1st and 2nd order tranport matrices, from OBJET.                      10
2  0
'END'                                                                                                       11

************************************************************************************************************************************
      1  Keyword, label(s) :  OBJET                                                                                    IPASS= 1

                          MAGNETIC  RIGIDITY =         20.435 kG*cm

                                         CALCUL  DES  TRAJECTOIRES

                              OBJET  (6)  FORME  DE     61 POINTS 

                    Sampling :                  0.000100     0.010000     0.010000     0.007000     0.010000     0.010000

                    Reference trajectory :      1.000000     0.000000     0.000000     0.000000     0.000000     0.000000

************************************************************************************************************************************
      2  Keyword, label(s) :  PARTICUL                                                                                 IPASS= 1

     Particle  properties :
     PROTON
                     Mass          =    938.272        MeV/c2
                     Charge        =   1.602176E-19    C     
                     G  factor     =    1.79285              
                     COM life-time =   1.000000E+99    s     

              Reference  data :
                    mag. rigidity (kG.cm)   :   20.435000      =p/q, such that dev.=B*L/rigidity
                    mass (MeV/c2)           :   938.27208    
                    momentum (MeV/c)        :   6.1262589    
                    energy, total (MeV)     :   938.29208    
                    energy, kinetic (MeV)   :  1.99998746E-02
                    beta = v/c              :  6.5291597381E-03
                    gamma                   :   1.000021316    
                    beta*gamma              :  6.5292989114E-03
                    G*gamma                 :   1.792885566    
                    m / G                   :   523.3418681    
                    electric rigidity (MeV) :  3.9999322820E-02=T[eV]*(gamma+1)/gamma, such that dev.=E*L/rigidity
  
 I, AMQ(1,I), AMQ(2,I)/QE, P/Pref, v/c, time, s :
  
     1   9.38272081E+02  1.00000000E+00  1.00000000E+00  6.52915974E-03  0.00000000E+00  0.00000000E+00
     2   9.38272081E+02  1.00000000E+00  1.00000000E+00  6.52915974E-03  0.00000000E+00  0.00000000E+00
     3   9.38272081E+02  1.00000000E+00  1.00000000E+00  6.52915974E-03  0.00000000E+00  0.00000000E+00
     4   9.38272081E+02  1.00000000E+00  1.00000000E+00  6.52915974E-03  0.00000000E+00  0.00000000E+00
     5   9.38272081E+02  1.00000000E+00  1.00000000E+00  6.52915974E-03  0.00000000E+00  0.00000000E+00
     6   9.38272081E+02  1.00000000E+00  1.00000000E+00  6.52915974E-03  0.00000000E+00  0.00000000E+00
     7   9.38272081E+02  1.00000000E+00  1.00000000E+00  6.52915974E-03  0.00000000E+00  0.00000000E+00
     8   9.38272081E+02  1.00000000E+00  1.00000000E+00  6.52915974E-03  0.00000000E+00  0.00000000E+00
     9   9.38272081E+02  1.00000000E+00  1.00000000E+00  6.52915974E-03  0.00000000E+00  0.00000000E+00
    10   9.38272081E+02  1.00000000E+00  1.00000000E+00  6.52915974E-03  0.00000000E+00  0.00000000E+00
    11   9.38272081E+02  1.00000000E+00  1.00000000E+00  6.52915974E-03  0.00000000E+00  0.00000000E+00
    12   9.38272081E+02  1.00000000E+00  1.00000000E+00  6.52915974E-03  0.00000000E+00  0.00000000E+00
    13   9.38272081E+02  1.00000000E+00  1.00000000E+00  6.52915974E-03  0.00000000E+00  0.00000000E+00
    14   9.38272081E+02  1.00000000E+00  1.00000000E+00  6.52915974E-03  0.00000000E+00  0.00000000E+00
    15   9.38272081E+02  1.00000000E+00  1.00000000E+00  6.52915974E-03  0.00000000E+00  0.00000000E+00
    16   9.38272081E+02  1.00000000E+00  1.00000000E+00  6.52915974E-03  0.00000000E+00  0.00000000E+00
    17   9.38272081E+02  1.00000000E+00  1.00000000E+00  6.52915974E-03  0.00000000E+00  0.00000000E+00
    18   9.38272081E+02  1.00000000E+00  1.00010000E+00  6.52981263E-03  0.00000000E+00  0.00000000E+00
    19   9.38272081E+02  1.00000000E+00  9.99900000E-01  6.52850685E-03  0.00000000E+00  0.00000000E+00
    20   9.38272081E+02  1.00000000E+00  1.00020000E+00  6.53046551E-03  0.00000000E+00  0.00000000E+00
    21   9.38272081E+02  1.00000000E+00  9.99800000E-01  6.52785396E-03  0.00000000E+00  0.00000000E+00
    22   9.38272081E+02  1.00000000E+00  1.00000000E+00  6.52915974E-03  0.00000000E+00  0.00000000E+00
    23   9.38272081E+02  1.00000000E+00  1.00000000E+00  6.52915974E-03  0.00000000E+00  0.00000000E+00
    24   9.38272081E+02  1.00000000E+00  1.00000000E+00  6.52915974E-03  0.00000000E+00  0.00000000E+00
    25   9.38272081E+02  1.00000000E+00  1.00000000E+00  6.52915974E-03  0.00000000E+00  0.00000000E+00
    26   9.38272081E+02  1.00000000E+00  1.00000000E+00  6.52915974E-03  0.00000000E+00  0.00000000E+00
    27   9.38272081E+02  1.00000000E+00  1.00000000E+00  6.52915974E-03  0.00000000E+00  0.00000000E+00
    28   9.38272081E+02  1.00000000E+00  1.00000000E+00  6.52915974E-03  0.00000000E+00  0.00000000E+00
    29   9.38272081E+02  1.00000000E+00  1.00000000E+00  6.52915974E-03  0.00000000E+00  0.00000000E+00
    30   9.38272081E+02  1.00000000E+00  1.00000000E+00  6.52915974E-03  0.00000000E+00  0.00000000E+00
    31   9.38272081E+02  1.00000000E+00  1.00000000E+00  6.52915974E-03  0.00000000E+00  0.00000000E+00
    32   9.38272081E+02  1.00000000E+00  1.00000000E+00  6.52915974E-03  0.00000000E+00  0.00000000E+00
    33   9.38272081E+02  1.00000000E+00  1.00000000E+00  6.52915974E-03  0.00000000E+00  0.00000000E+00
    34   9.38272081E+02  1.00000000E+00  1.00010000E+00  6.52981263E-03  0.00000000E+00  0.00000000E+00
    35   9.38272081E+02  1.00000000E+00  9.99900000E-01  6.52850685E-03  0.00000000E+00  0.00000000E+00
    36   9.38272081E+02  1.00000000E+00  9.99900000E-01  6.52850685E-03  0.00000000E+00  0.00000000E+00
    37   9.38272081E+02  1.00000000E+00  1.00010000E+00  6.52981263E-03  0.00000000E+00  0.00000000E+00
    38   9.38272081E+02  1.00000000E+00  1.00000000E+00  6.52915974E-03  0.00000000E+00  0.00000000E+00
    39   9.38272081E+02  1.00000000E+00  1.00000000E+00  6.52915974E-03  0.00000000E+00  0.00000000E+00
    40   9.38272081E+02  1.00000000E+00  1.00000000E+00  6.52915974E-03  0.00000000E+00  0.00000000E+00
    41   9.38272081E+02  1.00000000E+00  1.00000000E+00  6.52915974E-03  0.00000000E+00  0.00000000E+00
    42   9.38272081E+02  1.00000000E+00  1.00000000E+00  6.52915974E-03  0.00000000E+00  0.00000000E+00
    43   9.38272081E+02  1.00000000E+00  1.00000000E+00  6.52915974E-03  0.00000000E+00  0.00000000E+00
    44   9.38272081E+02  1.00000000E+00  1.00000000E+00  6.52915974E-03  0.00000000E+00  0.00000000E+00
    45   9.38272081E+02  1.00000000E+00  1.00000000E+00  6.52915974E-03  0.00000000E+00  0.00000000E+00
    46   9.38272081E+02  1.00000000E+00  1.00010000E+00  6.52981263E-03  0.00000000E+00  0.00000000E+00
    47   9.38272081E+02  1.00000000E+00  9.99900000E-01  6.52850685E-03  0.00000000E+00  0.00000000E+00
    48   9.38272081E+02  1.00000000E+00  9.99900000E-01  6.52850685E-03  0.00000000E+00  0.00000000E+00
    49   9.38272081E+02  1.00000000E+00  1.00010000E+00  6.52981263E-03  0.00000000E+00  0.00000000E+00
    50   9.38272081E+02  1.00000000E+00  1.00000000E+00  6.52915974E-03  0.00000000E+00  0.00000000E+00
    51   9.38272081E+02  1.00000000E+00  1.00000000E+00  6.52915974E-03  0.00000000E+00  0.00000000E+00
    52   9.38272081E+02  1.00000000E+00  1.00000000E+00  6.52915974E-03  0.00000000E+00  0.00000000E+00
    53   9.38272081E+02  1.00000000E+00  1.00000000E+00  6.52915974E-03  0.00000000E+00  0.00000000E+00
    54   9.38272081E+02  1.00000000E+00  1.00010000E+00  6.52981263E-03  0.00000000E+00  0.00000000E+00
    55   9.38272081E+02  1.00000000E+00  9.99900000E-01  6.52850685E-03  0.00000000E+00  0.00000000E+00
    56   9.38272081E+02  1.00000000E+00  9.99900000E-01  6.52850685E-03  0.00000000E+00  0.00000000E+00
    57   9.38272081E+02  1.00000000E+00  1.00010000E+00  6.52981263E-03  0.00000000E+00  0.00000000E+00
    58   9.38272081E+02  1.00000000E+00  1.00010000E+00  6.52981263E-03  0.00000000E+00  0.00000000E+00
    59   9.38272081E+02  1.00000000E+00  9.99900000E-01  6.52850685E-03  0.00000000E+00  0.00000000E+00
    60   9.38272081E+02  1.00000000E+00  9.99900000E-01  6.52850685E-03  0.00000000E+00  0.00000000E+00
    61   9.38272081E+02  1.00000000E+00  1.00010000E+00  6.52981263E-03  0.00000000E+00  0.00000000E+00

************************************************************************************************************************************
      3  Keyword, label(s) :  MARKER                                                                                   IPASS= 1


************************************************************************************************************************************
      4  Keyword, label(s) :  DRIFT       drift_1                                                                      IPASS= 1


                              Drift,  length =   559.00000  cm

TRAJ #1 IEX,D,Y,T,Z,P,S,time :  1  0.000000E+00  0.000000E+00  0.000000E+00  0.000000E+00  0.000000E+00  5.5900000E+02  2.85584E+00

 Cumulative length of optical axis =    5.59000000     m   ;  Time  (for reference rigidity & particle) =   2.855840E-06 s 

************************************************************************************************************************************
      5  Keyword, label(s) :  EBMULT                                                                                   IPASS= 1


      -----  MULTIPOLE   : 
                Length  of  element  =    10.200000      cm
                Bore  radius      RO =    10.000      cm                              B/RO^IM/Brho (strength)
               E-DIPOLE      =  0.0000000E+00 V/m  (i.e.,   0.0000000E+00 * SCAL)     0.0000000E+00
               E-QUADRUPOLE  = -9.4462968E+03 V/m  (i.e.,  -9.4462968E+03 * SCAL)    -4.6226067E+05
               E-SEXTUPOLE   =  0.0000000E+00 V/m  (i.e.,   0.0000000E+00 * SCAL)     0.0000000E+00
               E-OCTUPOLE    =  0.0000000E+00 V/m  (i.e.,   0.0000000E+00 * SCAL)     0.0000000E+00
               E-DECAPOLE    =  0.0000000E+00 V/m  (i.e.,   0.0000000E+00 * SCAL)     0.0000000E+00
               E-DODECAPOLE  =  0.0000000E+00 V/m  (i.e.,   0.0000000E+00 * SCAL)     0.0000000E+00
               E-14-POLE     =  0.0000000E+00 V/m  (i.e.,   0.0000000E+00 * SCAL)     0.0000000E+00
               E-16-POLE     =  0.0000000E+00 V/m  (i.e.,   0.0000000E+00 * SCAL)     0.0000000E+00
               E-18-POLE     =  0.0000000E+00 V/m  (i.e.,   0.0000000E+00 * SCAL)     0.0000000E+00
               E-20-POLE     =  0.0000000E+00 V/m  (i.e.,   0.0000000E+00 * SCAL)     0.0000000E+00

                Entrance  face  
                     with  fringe  field :
                     DX  =   9.000  CM 
                     LAMBDA-DIPOLE     =  5.000  CM
                     LAMBDA-QUADRUPOLE =  5.000  CM
                     LAMBDA-SEXTUPOLE  =  5.000  CM
                     LAMBDA-OCTUPOLE   =  0.000  CM
                     LAMBDA-DECAPOLE   =  0.000  CM
                     LAMBDA-DODECAPOLE =  0.000  CM
                     LAMBDA-14-POLE    =  0.000  CM
                     LAMBDA-16-POLE    =  0.000  CM
                     LAMBDA-18-POLE    =  0.000  CM
                     LAMBDA-20-POLE    =  0.000  CM
                    6 COEFFICIENTS :  0.11220  6.26710 -1.49820  3.58820 -2.12090  1.72300

                Exit  face  
                     with  fringe  field :
                     DX  =   9.000  CM 
                     LAMBDA-DIPOLE     =  5.000  CM
                     LAMBDA-QUADRUPOLE =  5.000  CM
                     LAMBDA-SEXTUPOLE  =  5.000  CM
                     LAMBDA-OCTUPOLE   =  0.000  CM
                     LAMBDA-DECAPOLE   =  0.000  CM
                     LAMBDA-DODECAPOLE =  0.000  CM
                     LAMBDA-14-POLE    =  0.000  CM
                     LAMBDA-16-POLE    =  0.000  CM
                     LAMBDA-18-POLE    =  0.000  CM
                     LAMBDA-20-POLE    =  0.000  CM
                    6 COEFFICIENTS :  0.11220  6.26710 -1.49820  3.58820 -2.12090  1.72300

      -----  MULTIPOLE   : 
                Length  of  element  =    10.200000      cm
                Bore  radius      RO =    10.000      cm                              B/RO^IM/Brho (strength)
               B-DIPOLE      =  0.0000000E+00 kG   (i.e.,   0.0000000E+00 * SCAL)     0.0000000E+00
               B-QUADRUPOLE  =  1.9303418E+00 kG   (i.e.,   1.9303418E+00 * SCAL)     9.4462530E+01
               B-SEXTUPOLE   =  0.0000000E+00 kG   (i.e.,   0.0000000E+00 * SCAL)     0.0000000E+00
               B-OCTUPOLE    =  0.0000000E+00 kG   (i.e.,   0.0000000E+00 * SCAL)     0.0000000E+00
               B-DECAPOLE    =  0.0000000E+00 kG   (i.e.,   0.0000000E+00 * SCAL)     0.0000000E+00
               B-DODECAPOLE  =  0.0000000E+00 kG   (i.e.,   0.0000000E+00 * SCAL)     0.0000000E+00
               B-14-POLE     =  0.0000000E+00 kG   (i.e.,   0.0000000E+00 * SCAL)     0.0000000E+00
               B-16-POLE     =  0.0000000E+00 kG   (i.e.,   0.0000000E+00 * SCAL)     0.0000000E+00
               B-18-POLE     =  0.0000000E+00 kG   (i.e.,   0.0000000E+00 * SCAL)     0.0000000E+00
               B-20-POLE     =  0.0000000E+00 kG   (i.e.,   0.0000000E+00 * SCAL)     0.0000000E+00

                Entrance  face  
                     with  fringe  field :
                     DX  =   9.000  CM 
                     LAMBDA-DIPOLE     =  5.000  CM
                     LAMBDA-QUADRUPOLE =  5.000  CM
                     LAMBDA-SEXTUPOLE  =  5.000  CM
                     LAMBDA-OCTUPOLE   =  0.000  CM
                     LAMBDA-DECAPOLE   =  0.000  CM
                     LAMBDA-DODECAPOLE =  0.000  CM
                     LAMBDA-14-POLE    =  0.000  CM
                     LAMBDA-16-POLE    =  0.000  CM
                     LAMBDA-18-POLE    =  0.000  CM
                     LAMBDA-20-POLE    =  0.000  CM
                    6 COEFFICIENTS :  0.11220  6.26710 -1.49820  3.58820 -2.12090  1.72300

                Exit  face  
                     with  fringe  field :
                     DX  =   9.000  CM 
                     LAMBDA-DIPOLE     =  5.000  CM
                     LAMBDA-QUADRUPOLE =  5.000  CM
                     LAMBDA-SEXTUPOLE  =  5.000  CM
                     LAMBDA-OCTUPOLE   =  0.000  CM
                     LAMBDA-DECAPOLE   =  0.000  CM
                     LAMBDA-DODECAPOLE =  0.000  CM
                     LAMBDA-14-POLE    =  0.000  CM
                     LAMBDA-16-POLE    =  0.000  CM
                     LAMBDA-18-POLE    =  0.000  CM
                     LAMBDA-20-POLE    =  0.000  CM
                    6 COEFFICIENTS :  0.11220  6.26710 -1.49820  3.58820 -2.12090  1.72300

                    Integration step :   1.000     cm

  A    1  1.0000     0.000     0.000     0.000     0.000           28.200     0.000     0.000     0.000     0.000            1
  A    1  1.0000     0.010     0.000     0.000     0.000           28.200     0.008    -0.000    -0.000    -0.000            2
  A    1  1.0000    -0.010     0.000     0.000     0.000           28.200    -0.008     0.000     0.000     0.000            3
  A    1  1.0000     0.020     0.000     0.000     0.000           28.200     0.015    -0.001    -0.000    -0.000            4
  A    1  1.0000    -0.020     0.000     0.000     0.000           28.200    -0.015     0.001     0.000     0.000            5
  A    1  1.0000     0.000     0.010     0.000     0.000           28.200     0.004    -0.000    -0.000    -0.000            6
  A    1  1.0000     0.000    -0.010     0.000     0.000           28.200    -0.004     0.000     0.000     0.000            7
  A    1  1.0000     0.000     0.020     0.000     0.000           28.200     0.009    -0.000    -0.000    -0.000            8
  A    1  1.0000     0.000    -0.020     0.000     0.000           28.200    -0.009     0.000     0.000     0.000            9
  A    1  1.0000     0.000     0.000     0.007     0.000           28.200     0.000    -0.000     0.009     0.000           10
  A    1  1.0000     0.000     0.000    -0.007     0.000           28.200    -0.000     0.000    -0.009    -0.000           11
  A    1  1.0000     0.000     0.000     0.014     0.000           28.200     0.000    -0.000     0.018     0.001           12
  A    1  1.0000     0.000     0.000    -0.014     0.000           28.200    -0.000     0.000    -0.018    -0.001           13
  A    1  1.0000     0.000     0.000     0.000     0.010           28.200     0.000    -0.000     0.007     0.000           14
  A    1  1.0000     0.000     0.000     0.000    -0.010           28.200    -0.000     0.000    -0.007    -0.000           15
  A    1  1.0000     0.000     0.000     0.000     0.020           28.200     0.000    -0.000     0.014     0.001           16
  A    1  1.0000     0.000     0.000     0.000    -0.020           28.200    -0.000     0.000    -0.014    -0.001           17
  A    1  1.0001     0.000     0.000     0.000     0.000           28.200     0.000     0.000     0.000     0.000           18
  A    1  0.9999     0.000     0.000     0.000     0.000           28.200     0.000     0.000     0.000     0.000           19
  A    1  1.0002     0.000     0.000     0.000     0.000           28.200     0.000     0.000     0.000     0.000           20
  A    1  0.9998     0.000     0.000     0.000     0.000           28.200     0.000     0.000     0.000     0.000           21
  A    1  1.0000     0.010     0.010     0.000     0.000           28.200     0.012    -0.001    -0.000    -0.000           22
  A    1  1.0000     0.010    -0.010     0.000     0.000           28.200     0.003    -0.000    -0.000    -0.000           23
  A    1  1.0000    -0.010    -0.010     0.000     0.000           28.200    -0.012     0.001     0.000     0.000           24
  A    1  1.0000    -0.010     0.010     0.000     0.000           28.200    -0.003     0.000     0.000     0.000           25
  A    1  1.0000     0.010     0.000     0.007     0.000           28.200     0.008    -0.000     0.009     0.000           26
  A    1  1.0000     0.010     0.000    -0.007     0.000           28.200     0.008    -0.000    -0.009    -0.000           27
  A    1  1.0000    -0.010     0.000    -0.007     0.000           28.200    -0.008     0.000    -0.009    -0.000           28
  A    1  1.0000    -0.010     0.000     0.007     0.000           28.200    -0.008     0.000     0.009     0.000           29
  A    1  1.0000     0.010     0.000     0.000     0.010           28.200     0.008    -0.000     0.007     0.000           30
  A    1  1.0000     0.010     0.000     0.000    -0.010           28.200     0.008    -0.000    -0.007    -0.000           31
  A    1  1.0000    -0.010     0.000     0.000    -0.010           28.200    -0.008     0.000    -0.007    -0.000           32
  A    1  1.0000    -0.010     0.000     0.000     0.010           28.200    -0.008     0.000     0.007     0.000           33
  A    1  1.0001     0.010     0.000     0.000     0.000           28.200     0.008    -0.000    -0.000    -0.000           34
  A    1  0.9999     0.010     0.000     0.000     0.000           28.200     0.008    -0.000    -0.000    -0.000           35
  A    1  0.9999    -0.010     0.000     0.000     0.000           28.200    -0.008     0.000     0.000     0.000           36
  A    1  1.0001    -0.010     0.000     0.000     0.000           28.200    -0.008     0.000     0.000     0.000           37
  A    1  1.0000     0.000     0.010     0.007     0.000           28.200     0.004    -0.000     0.009     0.000           38
  A    1  1.0000     0.000     0.010    -0.007     0.000           28.200     0.004    -0.000    -0.009    -0.000           39
  A    1  1.0000     0.000    -0.010    -0.007     0.000           28.200    -0.004     0.000    -0.009    -0.000           40
  A    1  1.0000     0.000    -0.010     0.007     0.000           28.200    -0.004     0.000     0.009     0.000           41
  A    1  1.0000     0.000     0.010     0.000     0.010           28.200     0.004    -0.000     0.007     0.000           42
  A    1  1.0000     0.000     0.010     0.000    -0.010           28.200     0.004    -0.000    -0.007    -0.000           43
  A    1  1.0000     0.000    -0.010     0.000    -0.010           28.200    -0.004     0.000    -0.007    -0.000           44
  A    1  1.0000     0.000    -0.010     0.000     0.010           28.200    -0.004     0.000     0.007     0.000           45
  A    1  1.0001     0.000     0.010     0.000     0.000           28.200     0.004    -0.000    -0.000    -0.000           46
  A    1  0.9999     0.000     0.010     0.000     0.000           28.200     0.004    -0.000    -0.000    -0.000           47
  A    1  0.9999     0.000    -0.010     0.000     0.000           28.200    -0.004     0.000     0.000     0.000           48
  A    1  1.0001     0.000    -0.010     0.000     0.000           28.200    -0.004     0.000     0.000     0.000           49
  A    1  1.0000     0.000     0.000     0.007     0.010           28.200     0.000    -0.000     0.016     0.001           50
  A    1  1.0000     0.000     0.000     0.007    -0.010           28.200     0.000    -0.000     0.002     0.000           51
  A    1  1.0000     0.000     0.000    -0.007    -0.010           28.200    -0.000     0.000    -0.016    -0.001           52
  A    1  1.0000     0.000     0.000    -0.007     0.010           28.200    -0.000     0.000    -0.002    -0.000           53
  A    1  1.0001     0.000     0.000     0.007     0.000           28.200     0.000    -0.000     0.009     0.000           54
  A    1  0.9999     0.000     0.000     0.007     0.000           28.200     0.000    -0.000     0.009     0.000           55
  A    1  0.9999     0.000     0.000    -0.007     0.000           28.200    -0.000     0.000    -0.009    -0.000           56
  A    1  1.0001     0.000     0.000    -0.007     0.000           28.200    -0.000     0.000    -0.009    -0.000           57
  A    1  1.0001     0.000     0.000     0.000     0.010           28.200     0.000    -0.000     0.007     0.000           58
  A    1  0.9999     0.000     0.000     0.000     0.010           28.200     0.000    -0.000     0.007     0.000           59
  A    1  0.9999     0.000     0.000     0.000    -0.010           28.200    -0.000     0.000    -0.007    -0.000           60
  A    1  1.0001     0.000     0.000     0.000    -0.010           28.200    -0.000     0.000    -0.007    -0.000           61

     QUASEX - KPOS =  1 :  Change  of  frame  at  exit  of  element.
          X =   0.0000000     cm,   Y =   0.0000000     cm,  tilt  angle =   0.0000000     rad,   Z =   0.0000000     cm


 Cumulative length of optical axis =    5.69200000     m ;  Time  (for ref. rigidity & particle) =   2.907950E-06 s 

************************************************************************************************************************************
      6  Keyword, label(s) :  DRIFT       drift_2                                                                      IPASS= 1


                              Drift,  length =     4.90000  cm

TRAJ #1 IEX,D,Y,T,Z,P,S,time :  1  0.000000E+00  0.000000E+00  0.000000E+00  0.000000E+00  0.000000E+00  5.7410000E+02  2.93298E+00

 Cumulative length of optical axis =    5.74100000     m   ;  Time  (for reference rigidity & particle) =   2.932983E-06 s 

************************************************************************************************************************************
      7  Keyword, label(s) :  EBMULT                                                                                   IPASS= 1


      -----  MULTIPOLE   : 
                Length  of  element  =    10.200000      cm
                Bore  radius      RO =    10.000      cm                              B/RO^IM/Brho (strength)
               E-DIPOLE      =  0.0000000E+00 V/m  (i.e.,   0.0000000E+00 * SCAL)     0.0000000E+00
               E-QUADRUPOLE  =  1.4048719E+04 V/m  (i.e.,   1.4048719E+04 * SCAL)     6.8748319E+05
               E-SEXTUPOLE   =  0.0000000E+00 V/m  (i.e.,   0.0000000E+00 * SCAL)     0.0000000E+00
               E-OCTUPOLE    =  0.0000000E+00 V/m  (i.e.,   0.0000000E+00 * SCAL)     0.0000000E+00
               E-DECAPOLE    =  0.0000000E+00 V/m  (i.e.,   0.0000000E+00 * SCAL)     0.0000000E+00
               E-DODECAPOLE  =  0.0000000E+00 V/m  (i.e.,   0.0000000E+00 * SCAL)     0.0000000E+00
               E-14-POLE     =  0.0000000E+00 V/m  (i.e.,   0.0000000E+00 * SCAL)     0.0000000E+00
               E-16-POLE     =  0.0000000E+00 V/m  (i.e.,   0.0000000E+00 * SCAL)     0.0000000E+00
               E-18-POLE     =  0.0000000E+00 V/m  (i.e.,   0.0000000E+00 * SCAL)     0.0000000E+00
               E-20-POLE     =  0.0000000E+00 V/m  (i.e.,   0.0000000E+00 * SCAL)     0.0000000E+00

                Entrance  face  
                     with  fringe  field :
                     DX  =   9.000  CM 
                     LAMBDA-DIPOLE     =  5.000  CM
                     LAMBDA-QUADRUPOLE =  5.000  CM
                     LAMBDA-SEXTUPOLE  =  5.000  CM
                     LAMBDA-OCTUPOLE   =  0.000  CM
                     LAMBDA-DECAPOLE   =  0.000  CM
                     LAMBDA-DODECAPOLE =  0.000  CM
                     LAMBDA-14-POLE    =  0.000  CM
                     LAMBDA-16-POLE    =  0.000  CM
                     LAMBDA-18-POLE    =  0.000  CM
                     LAMBDA-20-POLE    =  0.000  CM
                    6 COEFFICIENTS :  0.11220  6.26710 -1.49820  3.58820 -2.12090  1.72300

                Exit  face  
                     with  fringe  field :
                     DX  =   9.000  CM 
                     LAMBDA-DIPOLE     =  5.000  CM
                     LAMBDA-QUADRUPOLE =  5.000  CM
                     LAMBDA-SEXTUPOLE  =  5.000  CM
                     LAMBDA-OCTUPOLE   =  0.000  CM
                     LAMBDA-DECAPOLE   =  0.000  CM
                     LAMBDA-DODECAPOLE =  0.000  CM
                     LAMBDA-14-POLE    =  0.000  CM
                     LAMBDA-16-POLE    =  0.000  CM
                     LAMBDA-18-POLE    =  0.000  CM
                     LAMBDA-20-POLE    =  0.000  CM
                    6 COEFFICIENTS :  0.11220  6.26710 -1.49820  3.58820 -2.12090  1.72300

      -----  MULTIPOLE   : 
                Length  of  element  =    10.200000      cm
                Bore  radius      RO =    10.000      cm                              B/RO^IM/Brho (strength)
               B-DIPOLE      =  0.0000000E+00 kG   (i.e.,   0.0000000E+00 * SCAL)     0.0000000E+00
               B-QUADRUPOLE  = -2.8708418E+00 kG   (i.e.,  -2.8708418E+00 * SCAL)    -1.4048651E+02
               B-SEXTUPOLE   =  0.0000000E+00 kG   (i.e.,   0.0000000E+00 * SCAL)     0.0000000E+00
               B-OCTUPOLE    =  0.0000000E+00 kG   (i.e.,   0.0000000E+00 * SCAL)     0.0000000E+00
               B-DECAPOLE    =  0.0000000E+00 kG   (i.e.,   0.0000000E+00 * SCAL)     0.0000000E+00
               B-DODECAPOLE  =  0.0000000E+00 kG   (i.e.,   0.0000000E+00 * SCAL)     0.0000000E+00
               B-14-POLE     =  0.0000000E+00 kG   (i.e.,   0.0000000E+00 * SCAL)     0.0000000E+00
               B-16-POLE     =  0.0000000E+00 kG   (i.e.,   0.0000000E+00 * SCAL)     0.0000000E+00
               B-18-POLE     =  0.0000000E+00 kG   (i.e.,   0.0000000E+00 * SCAL)     0.0000000E+00
               B-20-POLE     =  0.0000000E+00 kG   (i.e.,   0.0000000E+00 * SCAL)     0.0000000E+00

                Entrance  face  
                     with  fringe  field :
                     DX  =   9.000  CM 
                     LAMBDA-DIPOLE     =  5.000  CM
                     LAMBDA-QUADRUPOLE =  5.000  CM
                     LAMBDA-SEXTUPOLE  =  5.000  CM
                     LAMBDA-OCTUPOLE   =  0.000  CM
                     LAMBDA-DECAPOLE   =  0.000  CM
                     LAMBDA-DODECAPOLE =  0.000  CM
                     LAMBDA-14-POLE    =  0.000  CM
                     LAMBDA-16-POLE    =  0.000  CM
                     LAMBDA-18-POLE    =  0.000  CM
                     LAMBDA-20-POLE    =  0.000  CM
                    6 COEFFICIENTS :  0.11220  6.26710 -1.49820  3.58820 -2.12090  1.72300

                Exit  face  
                     with  fringe  field :
                     DX  =   9.000  CM 
                     LAMBDA-DIPOLE     =  5.000  CM
                     LAMBDA-QUADRUPOLE =  5.000  CM
                     LAMBDA-SEXTUPOLE  =  5.000  CM
                     LAMBDA-OCTUPOLE   =  0.000  CM
                     LAMBDA-DECAPOLE   =  0.000  CM
                     LAMBDA-DODECAPOLE =  0.000  CM
                     LAMBDA-14-POLE    =  0.000  CM
                     LAMBDA-16-POLE    =  0.000  CM
                     LAMBDA-18-POLE    =  0.000  CM
                     LAMBDA-20-POLE    =  0.000  CM
                    6 COEFFICIENTS :  0.11220  6.26710 -1.49820  3.58820 -2.12090  1.72300

                    Integration step :   1.000     cm

  A    1  1.0000     0.000     0.000     0.000     0.000           28.200     0.000     0.000     0.000     0.000            1
  A    1  1.0000     0.010     0.000     0.000     0.000           28.200     0.003    -0.000    -0.000     0.000            2
  A    1  1.0000    -0.010     0.000     0.000     0.000           28.200    -0.003     0.000     0.000    -0.000            3
  A    1  1.0000     0.020     0.000     0.000     0.000           28.200     0.005    -0.000    -0.000     0.000            4
  A    1  1.0000    -0.020     0.000     0.000     0.000           28.200    -0.005     0.000     0.000    -0.000            5
  A    1  1.0000     0.000     0.010     0.000     0.000           28.200     0.002    -0.000    -0.000     0.000            6
  A    1  1.0000     0.000    -0.010     0.000     0.000           28.200    -0.002     0.000     0.000    -0.000            7
  A    1  1.0000     0.000     0.020     0.000     0.000           28.200     0.003    -0.000    -0.000     0.000            8
  A    1  1.0000     0.000    -0.020     0.000     0.000           28.200    -0.003     0.000     0.000    -0.000            9
  A    1  1.0000     0.000     0.000     0.007     0.000           28.200     0.000     0.000     0.010    -0.000           10
  A    1  1.0000     0.000     0.000    -0.007     0.000           28.200    -0.000    -0.000    -0.010     0.000           11
  A    1  1.0000     0.000     0.000     0.014     0.000           28.200     0.000     0.000     0.021    -0.001           12
  A    1  1.0000     0.000     0.000    -0.014     0.000           28.200    -0.000    -0.000    -0.021     0.001           13
  A    1  1.0000     0.000     0.000     0.000     0.010           28.200     0.000     0.000     0.008    -0.000           14
  A    1  1.0000     0.000     0.000     0.000    -0.010           28.200    -0.000    -0.000    -0.008     0.000           15
  A    1  1.0000     0.000     0.000     0.000     0.020           28.200     0.000     0.000     0.017    -0.001           16
  A    1  1.0000     0.000     0.000     0.000    -0.020           28.200    -0.000    -0.000    -0.017     0.001           17
  A    1  1.0001     0.000     0.000     0.000     0.000           28.200     0.000     0.000     0.000     0.000           18
  A    1  0.9999     0.000     0.000     0.000     0.000           28.200     0.000     0.000     0.000     0.000           19
  A    1  1.0002     0.000     0.000     0.000     0.000           28.200     0.000     0.000     0.000     0.000           20
  A    1  0.9998     0.000     0.000     0.000     0.000           28.200     0.000     0.000     0.000     0.000           21
  A    1  1.0000     0.010     0.010     0.000     0.000           28.200     0.004    -0.000    -0.000     0.000           22
  A    1  1.0000     0.010    -0.010     0.000     0.000           28.200     0.001    -0.000    -0.000     0.000           23
  A    1  1.0000    -0.010    -0.010     0.000     0.000           28.200    -0.004     0.000     0.000    -0.000           24
  A    1  1.0000    -0.010     0.010     0.000     0.000           28.200    -0.001     0.000     0.000    -0.000           25
  A    1  1.0000     0.010     0.000     0.007     0.000           28.200     0.003    -0.000     0.010    -0.000           26
  A    1  1.0000     0.010     0.000    -0.007     0.000           28.200     0.003    -0.000    -0.010     0.000           27
  A    1  1.0000    -0.010     0.000    -0.007     0.000           28.200    -0.003     0.000    -0.010     0.000           28
  A    1  1.0000    -0.010     0.000     0.007     0.000           28.200    -0.003     0.000     0.010    -0.000           29
  A    1  1.0000     0.010     0.000     0.000     0.010           28.200     0.003    -0.000     0.008    -0.000           30
  A    1  1.0000     0.010     0.000     0.000    -0.010           28.200     0.003    -0.000    -0.008     0.000           31
  A    1  1.0000    -0.010     0.000     0.000    -0.010           28.200    -0.003     0.000    -0.008     0.000           32
  A    1  1.0000    -0.010     0.000     0.000     0.010           28.200    -0.003     0.000     0.008    -0.000           33
  A    1  1.0001     0.010     0.000     0.000     0.000           28.200     0.003    -0.000    -0.000     0.000           34
  A    1  0.9999     0.010     0.000     0.000     0.000           28.200     0.003    -0.000    -0.000     0.000           35
  A    1  0.9999    -0.010     0.000     0.000     0.000           28.200    -0.003     0.000     0.000    -0.000           36
  A    1  1.0001    -0.010     0.000     0.000     0.000           28.200    -0.003     0.000     0.000    -0.000           37
  A    1  1.0000     0.000     0.010     0.007     0.000           28.200     0.002    -0.000     0.010    -0.000           38
  A    1  1.0000     0.000     0.010    -0.007     0.000           28.200     0.002    -0.000    -0.010     0.000           39
  A    1  1.0000     0.000    -0.010    -0.007     0.000           28.200    -0.002     0.000    -0.010     0.000           40
  A    1  1.0000     0.000    -0.010     0.007     0.000           28.200    -0.002     0.000     0.010    -0.000           41
  A    1  1.0000     0.000     0.010     0.000     0.010           28.200     0.002    -0.000     0.008    -0.000           42
  A    1  1.0000     0.000     0.010     0.000    -0.010           28.200     0.002    -0.000    -0.008     0.000           43
  A    1  1.0000     0.000    -0.010     0.000    -0.010           28.200    -0.002     0.000    -0.008     0.000           44
  A    1  1.0000     0.000    -0.010     0.000     0.010           28.200    -0.002     0.000     0.008    -0.000           45
  A    1  1.0001     0.000     0.010     0.000     0.000           28.200     0.002    -0.000    -0.000     0.000           46
  A    1  0.9999     0.000     0.010     0.000     0.000           28.200     0.002    -0.000    -0.000     0.000           47
  A    1  0.9999     0.000    -0.010     0.000     0.000           28.200    -0.002     0.000     0.000    -0.000           48
  A    1  1.0001     0.000    -0.010     0.000     0.000           28.200    -0.002     0.000     0.000    -0.000           49
  A    1  1.0000     0.000     0.000     0.007     0.010           28.200     0.000     0.000     0.019    -0.001           50
  A    1  1.0000     0.000     0.000     0.007    -0.010           28.200     0.000     0.000     0.002    -0.000           51
  A    1  1.0000     0.000     0.000    -0.007    -0.010           28.200    -0.000    -0.000    -0.019     0.001           52
  A    1  1.0000     0.000     0.000    -0.007     0.010           28.200    -0.000    -0.000    -0.002     0.000           53
  A    1  1.0001     0.000     0.000     0.007     0.000           28.200     0.000     0.000     0.010    -0.000           54
  A    1  0.9999     0.000     0.000     0.007     0.000           28.200     0.000     0.000     0.010    -0.000           55
  A    1  0.9999     0.000     0.000    -0.007     0.000           28.200    -0.000    -0.000    -0.010     0.000           56
  A    1  1.0001     0.000     0.000    -0.007     0.000           28.200    -0.000    -0.000    -0.010     0.000           57
  A    1  1.0001     0.000     0.000     0.000     0.010           28.200     0.000     0.000     0.008    -0.000           58
  A    1  0.9999     0.000     0.000     0.000     0.010           28.200     0.000     0.000     0.008    -0.000           59
  A    1  0.9999     0.000     0.000     0.000    -0.010           28.200    -0.000    -0.000    -0.008     0.000           60
  A    1  1.0001     0.000     0.000     0.000    -0.010           28.200    -0.000    -0.000    -0.008     0.000           61

     QUASEX - KPOS =  1 :  Change  of  frame  at  exit  of  element.
          X =   0.0000000     cm,   Y =   0.0000000     cm,  tilt  angle =   0.0000000     rad,   Z =   0.0000000     cm


 Cumulative length of optical axis =    5.84300000     m ;  Time  (for ref. rigidity & particle) =   2.985093E-06 s 

************************************************************************************************************************************
      8  Keyword, label(s) :  DRIFT       drift_3                                                                      IPASS= 1


                              Drift,  length =    25.00000  cm

TRAJ #1 IEX,D,Y,T,Z,P,S,time :  1  0.000000E+00  0.000000E+00  0.000000E+00  0.000000E+00  0.000000E+00  6.0930000E+02  3.11281E+00

 Cumulative length of optical axis =    6.09300000     m   ;  Time  (for reference rigidity & particle) =   3.112814E-06 s 

************************************************************************************************************************************
      9  Keyword, label(s) :  FIT                                                                                      IPASS= 1

     Pgm main. FITING=.T., FIT procedure launched.

           variable #            1       IR =            5 ,   ok.
           variable #            1       IP =            5 ,   ok.
           variable #            2       IR =            5 ,   ok.
           variable #            2       IP =           63 ,   ok.
           variable #            3       IR =            7 ,   ok.
           variable #            3       IP =            5 ,   ok.
           variable #            4       IR =            7 ,   ok.
           variable #            4       IP =           63 ,   ok.
           constraint #            1       IR =            8 ,   ok.
           constraint #            2       IR =            8 ,   ok.
           constraint #            3       IR =            8 ,   ok.
           constraint #            4       IR =            8 ,   ok.
           constraint #            5       IR =            8 ,   ok.
           constraint #            6       IR =            8 ,   ok.

                    FIT  variables  and  constraints  in  good  order,  FIT  will proceed. 
 STATUS OF VARIABLES  (Iteration #    51 /     50 max.)
LMNT VAR PARAM  MINIMUM    INITIAL         FINAL         MAXIMUM     STEP        NAME   LBL1                 LBL2
   5   1     5  -1.039E+04  -9.446E+03  -9446.2969     -8.502E+03  1.420E-38  EBMULT     -                    -                   
   5   2    63    1.74        1.93       1.9303418       2.12      2.902E-42  EBMULT     -                    -                   
   7   3     5   1.264E+04   1.405E+04   14048.719      1.545E+04  2.112E-38  EBMULT     -                    -                   
   7   4    63   -3.16       -2.87      -2.8708418      -2.58      4.316E-42  EBMULT     -                    -                   
 STATUS OF CONSTRAINTS (Target penalty =   1.0000E-15)
TYPE  I   J LMNT#     DESIRED          WEIGHT         REACHED         KI2     NAME   LBL1                 LBL2      Nb param. [value]
  1   1   2     8    0.000000E+00    1.000E+00   -2.104009E-08    1.85E-04 DRIFT      drift_3              -                    0
  1   3   4     8    0.000000E+00    1.000E+00   -2.489383E-08    2.60E-04 DRIFT      drift_3              -                    0
  2   2  16     8    0.000000E+00    1.000E+00    1.410114E-06    8.33E-01 DRIFT      drift_3              -                    0
  2   2  26     8    0.000000E+00    1.000E+00   -2.920025E-07    3.57E-02 DRIFT      drift_3              -                    0
  2   4  36     8    0.000000E+00    1.000E+00    4.375964E-07    8.02E-02 DRIFT      drift_3              -                    0
  2   3  46     8    0.000000E+00    1.000E+00   -3.487315E-07    5.09E-02 DRIFT      drift_3              -                    0
 Fit reached penalty value   2.3879E-12



************************************************************************************************************************************

           MAIN PROGRAM :  FIT completed. Now doing a last run using variable values from FIT. 

************************************************************************************************************************************
      1  Keyword, label(s) :  OBJET                                                                                    IPASS= 1

                          MAGNETIC  RIGIDITY =         20.435 kG*cm

                                         CALCUL  DES  TRAJECTOIRES

                              OBJET  (6)  FORME  DE     61 POINTS 

                    Sampling :                  0.000100     0.010000     0.010000     0.007000     0.010000     0.010000

                    Reference trajectory :      1.000000     0.000000     0.000000     0.000000     0.000000     0.000000

************************************************************************************************************************************
      2  Keyword, label(s) :  PARTICUL                                                                                 IPASS= 1


************************************************************************************************************************************
      3  Keyword, label(s) :  MARKER                                                                                   IPASS= 1


************************************************************************************************************************************
      4  Keyword, label(s) :  DRIFT       drift_1                                                                      IPASS= 1


                              Drift,  length =   559.00000  cm

TRAJ #1 IEX,D,Y,T,Z,P,S,time :  1  0.000000E+00  0.000000E+00  0.000000E+00  0.000000E+00  0.000000E+00  5.5900000E+02  2.85584E+00

 Cumulative length of optical axis =    5.59000000     m   ;  Time  (for reference rigidity & particle) =   2.855840E-06 s 

************************************************************************************************************************************
      5  Keyword, label(s) :  EBMULT                                                                                   IPASS= 1


      -----  MULTIPOLE   : 
                Length  of  element  =    10.200000      cm
                Bore  radius      RO =    10.000      cm                              B/RO^IM/Brho (strength)
               E-DIPOLE      =  0.0000000E+00 V/m  (i.e.,   0.0000000E+00 * SCAL)     0.0000000E+00
               E-QUADRUPOLE  = -9.4462969E+03 V/m  (i.e.,  -9.4462969E+03 * SCAL)    -4.6226067E+05
               E-SEXTUPOLE   =  0.0000000E+00 V/m  (i.e.,   0.0000000E+00 * SCAL)     0.0000000E+00
               E-OCTUPOLE    =  0.0000000E+00 V/m  (i.e.,   0.0000000E+00 * SCAL)     0.0000000E+00
               E-DECAPOLE    =  0.0000000E+00 V/m  (i.e.,   0.0000000E+00 * SCAL)     0.0000000E+00
               E-DODECAPOLE  =  0.0000000E+00 V/m  (i.e.,   0.0000000E+00 * SCAL)     0.0000000E+00
               E-14-POLE     =  0.0000000E+00 V/m  (i.e.,   0.0000000E+00 * SCAL)     0.0000000E+00
               E-16-POLE     =  0.0000000E+00 V/m  (i.e.,   0.0000000E+00 * SCAL)     0.0000000E+00
               E-18-POLE     =  0.0000000E+00 V/m  (i.e.,   0.0000000E+00 * SCAL)     0.0000000E+00
               E-20-POLE     =  0.0000000E+00 V/m  (i.e.,   0.0000000E+00 * SCAL)     0.0000000E+00

                Entrance  face  
                     with  fringe  field :
                     DX  =   9.000  CM 
                     LAMBDA-DIPOLE     =  5.000  CM
                     LAMBDA-QUADRUPOLE =  5.000  CM
                     LAMBDA-SEXTUPOLE  =  5.000  CM
                     LAMBDA-OCTUPOLE   =  0.000  CM
                     LAMBDA-DECAPOLE   =  0.000  CM
                     LAMBDA-DODECAPOLE =  0.000  CM
                     LAMBDA-14-POLE    =  0.000  CM
                     LAMBDA-16-POLE    =  0.000  CM
                     LAMBDA-18-POLE    =  0.000  CM
                     LAMBDA-20-POLE    =  0.000  CM
                    6 COEFFICIENTS :  0.11220  6.26710 -1.49820  3.58820 -2.12090  1.72300

                Exit  face  
                     with  fringe  field :
                     DX  =   9.000  CM 
                     LAMBDA-DIPOLE     =  5.000  CM
                     LAMBDA-QUADRUPOLE =  5.000  CM
                     LAMBDA-SEXTUPOLE  =  5.000  CM
                     LAMBDA-OCTUPOLE   =  0.000  CM
                     LAMBDA-DECAPOLE   =  0.000  CM
                     LAMBDA-DODECAPOLE =  0.000  CM
                     LAMBDA-14-POLE    =  0.000  CM
                     LAMBDA-16-POLE    =  0.000  CM
                     LAMBDA-18-POLE    =  0.000  CM
                     LAMBDA-20-POLE    =  0.000  CM
                    6 COEFFICIENTS :  0.11220  6.26710 -1.49820  3.58820 -2.12090  1.72300

      -----  MULTIPOLE   : 
                Length  of  element  =    10.200000      cm
                Bore  radius      RO =    10.000      cm                              B/RO^IM/Brho (strength)
               B-DIPOLE      =  0.0000000E+00 kG   (i.e.,   0.0000000E+00 * SCAL)     0.0000000E+00
               B-QUADRUPOLE  =  1.9303418E+00 kG   (i.e.,   1.9303418E+00 * SCAL)     9.4462529E+01
               B-SEXTUPOLE   =  0.0000000E+00 kG   (i.e.,   0.0000000E+00 * SCAL)     0.0000000E+00
               B-OCTUPOLE    =  0.0000000E+00 kG   (i.e.,   0.0000000E+00 * SCAL)     0.0000000E+00
               B-DECAPOLE    =  0.0000000E+00 kG   (i.e.,   0.0000000E+00 * SCAL)     0.0000000E+00
               B-DODECAPOLE  =  0.0000000E+00 kG   (i.e.,   0.0000000E+00 * SCAL)     0.0000000E+00
               B-14-POLE     =  0.0000000E+00 kG   (i.e.,   0.0000000E+00 * SCAL)     0.0000000E+00
               B-16-POLE     =  0.0000000E+00 kG   (i.e.,   0.0000000E+00 * SCAL)     0.0000000E+00
               B-18-POLE     =  0.0000000E+00 kG   (i.e.,   0.0000000E+00 * SCAL)     0.0000000E+00
               B-20-POLE     =  0.0000000E+00 kG   (i.e.,   0.0000000E+00 * SCAL)     0.0000000E+00

                Entrance  face  
                     with  fringe  field :
                     DX  =   9.000  CM 
                     LAMBDA-DIPOLE     =  5.000  CM
                     LAMBDA-QUADRUPOLE =  5.000  CM
                     LAMBDA-SEXTUPOLE  =  5.000  CM
                     LAMBDA-OCTUPOLE   =  0.000  CM
                     LAMBDA-DECAPOLE   =  0.000  CM
                     LAMBDA-DODECAPOLE =  0.000  CM
                     LAMBDA-14-POLE    =  0.000  CM
                     LAMBDA-16-POLE    =  0.000  CM
                     LAMBDA-18-POLE    =  0.000  CM
                     LAMBDA-20-POLE    =  0.000  CM
                    6 COEFFICIENTS :  0.11220  6.26710 -1.49820  3.58820 -2.12090  1.72300

                Exit  face  
                     with  fringe  field :
                     DX  =   9.000  CM 
                     LAMBDA-DIPOLE     =  5.000  CM
                     LAMBDA-QUADRUPOLE =  5.000  CM
                     LAMBDA-SEXTUPOLE  =  5.000  CM
                     LAMBDA-OCTUPOLE   =  0.000  CM
                     LAMBDA-DECAPOLE   =  0.000  CM
                     LAMBDA-DODECAPOLE =  0.000  CM
                     LAMBDA-14-POLE    =  0.000  CM
                     LAMBDA-16-POLE    =  0.000  CM
                     LAMBDA-18-POLE    =  0.000  CM
                     LAMBDA-20-POLE    =  0.000  CM
                    6 COEFFICIENTS :  0.11220  6.26710 -1.49820  3.58820 -2.12090  1.72300

                    Integration step :   1.000     cm

  A    1  1.0000     0.000     0.000     0.000     0.000           28.200     0.000     0.000     0.000     0.000            1
  A    1  1.0000     0.010     0.000     0.000     0.000           28.200     0.008    -0.000    -0.000    -0.000            2
  A    1  1.0000    -0.010     0.000     0.000     0.000           28.200    -0.008     0.000     0.000     0.000            3
  A    1  1.0000     0.020     0.000     0.000     0.000           28.200     0.015    -0.001    -0.000    -0.000            4
  A    1  1.0000    -0.020     0.000     0.000     0.000           28.200    -0.015     0.001     0.000     0.000            5
  A    1  1.0000     0.000     0.010     0.000     0.000           28.200     0.004    -0.000    -0.000    -0.000            6
  A    1  1.0000     0.000    -0.010     0.000     0.000           28.200    -0.004     0.000     0.000     0.000            7
  A    1  1.0000     0.000     0.020     0.000     0.000           28.200     0.009    -0.000    -0.000    -0.000            8
  A    1  1.0000     0.000    -0.020     0.000     0.000           28.200    -0.009     0.000     0.000     0.000            9
  A    1  1.0000     0.000     0.000     0.007     0.000           28.200     0.000    -0.000     0.009     0.000           10
  A    1  1.0000     0.000     0.000    -0.007     0.000           28.200    -0.000     0.000    -0.009    -0.000           11
  A    1  1.0000     0.000     0.000     0.014     0.000           28.200     0.000    -0.000     0.018     0.001           12
  A    1  1.0000     0.000     0.000    -0.014     0.000           28.200    -0.000     0.000    -0.018    -0.001           13
  A    1  1.0000     0.000     0.000     0.000     0.010           28.200     0.000    -0.000     0.007     0.000           14
  A    1  1.0000     0.000     0.000     0.000    -0.010           28.200    -0.000     0.000    -0.007    -0.000           15
  A    1  1.0000     0.000     0.000     0.000     0.020           28.200     0.000    -0.000     0.014     0.001           16
  A    1  1.0000     0.000     0.000     0.000    -0.020           28.200    -0.000     0.000    -0.014    -0.001           17
  A    1  1.0001     0.000     0.000     0.000     0.000           28.200     0.000     0.000     0.000     0.000           18
  A    1  0.9999     0.000     0.000     0.000     0.000           28.200     0.000     0.000     0.000     0.000           19
  A    1  1.0002     0.000     0.000     0.000     0.000           28.200     0.000     0.000     0.000     0.000           20
  A    1  0.9998     0.000     0.000     0.000     0.000           28.200     0.000     0.000     0.000     0.000           21
  A    1  1.0000     0.010     0.010     0.000     0.000           28.200     0.012    -0.001    -0.000    -0.000           22
  A    1  1.0000     0.010    -0.010     0.000     0.000           28.200     0.003    -0.000    -0.000    -0.000           23
  A    1  1.0000    -0.010    -0.010     0.000     0.000           28.200    -0.012     0.001     0.000     0.000           24
  A    1  1.0000    -0.010     0.010     0.000     0.000           28.200    -0.003     0.000     0.000     0.000           25
  A    1  1.0000     0.010     0.000     0.007     0.000           28.200     0.008    -0.000     0.009     0.000           26
  A    1  1.0000     0.010     0.000    -0.007     0.000           28.200     0.008    -0.000    -0.009    -0.000           27
  A    1  1.0000    -0.010     0.000    -0.007     0.000           28.200    -0.008     0.000    -0.009    -0.000           28
  A    1  1.0000    -0.010     0.000     0.007     0.000           28.200    -0.008     0.000     0.009     0.000           29
  A    1  1.0000     0.010     0.000     0.000     0.010           28.200     0.008    -0.000     0.007     0.000           30
  A    1  1.0000     0.010     0.000     0.000    -0.010           28.200     0.008    -0.000    -0.007    -0.000           31
  A    1  1.0000    -0.010     0.000     0.000    -0.010           28.200    -0.008     0.000    -0.007    -0.000           32
  A    1  1.0000    -0.010     0.000     0.000     0.010           28.200    -0.008     0.000     0.007     0.000           33
  A    1  1.0001     0.010     0.000     0.000     0.000           28.200     0.008    -0.000    -0.000    -0.000           34
  A    1  0.9999     0.010     0.000     0.000     0.000           28.200     0.008    -0.000    -0.000    -0.000           35
  A    1  0.9999    -0.010     0.000     0.000     0.000           28.200    -0.008     0.000     0.000     0.000           36
  A    1  1.0001    -0.010     0.000     0.000     0.000           28.200    -0.008     0.000     0.000     0.000           37
  A    1  1.0000     0.000     0.010     0.007     0.000           28.200     0.004    -0.000     0.009     0.000           38
  A    1  1.0000     0.000     0.010    -0.007     0.000           28.200     0.004    -0.000    -0.009    -0.000           39
  A    1  1.0000     0.000    -0.010    -0.007     0.000           28.200    -0.004     0.000    -0.009    -0.000           40
  A    1  1.0000     0.000    -0.010     0.007     0.000           28.200    -0.004     0.000     0.009     0.000           41
  A    1  1.0000     0.000     0.010     0.000     0.010           28.200     0.004    -0.000     0.007     0.000           42
  A    1  1.0000     0.000     0.010     0.000    -0.010           28.200     0.004    -0.000    -0.007    -0.000           43
  A    1  1.0000     0.000    -0.010     0.000    -0.010           28.200    -0.004     0.000    -0.007    -0.000           44
  A    1  1.0000     0.000    -0.010     0.000     0.010           28.200    -0.004     0.000     0.007     0.000           45
  A    1  1.0001     0.000     0.010     0.000     0.000           28.200     0.004    -0.000    -0.000    -0.000           46
  A    1  0.9999     0.000     0.010     0.000     0.000           28.200     0.004    -0.000    -0.000    -0.000           47
  A    1  0.9999     0.000    -0.010     0.000     0.000           28.200    -0.004     0.000     0.000     0.000           48
  A    1  1.0001     0.000    -0.010     0.000     0.000           28.200    -0.004     0.000     0.000     0.000           49
  A    1  1.0000     0.000     0.000     0.007     0.010           28.200     0.000    -0.000     0.016     0.001           50
  A    1  1.0000     0.000     0.000     0.007    -0.010           28.200     0.000    -0.000     0.002     0.000           51
  A    1  1.0000     0.000     0.000    -0.007    -0.010           28.200    -0.000     0.000    -0.016    -0.001           52
  A    1  1.0000     0.000     0.000    -0.007     0.010           28.200    -0.000     0.000    -0.002    -0.000           53
  A    1  1.0001     0.000     0.000     0.007     0.000           28.200     0.000    -0.000     0.009     0.000           54
  A    1  0.9999     0.000     0.000     0.007     0.000           28.200     0.000    -0.000     0.009     0.000           55
  A    1  0.9999     0.000     0.000    -0.007     0.000           28.200    -0.000     0.000    -0.009    -0.000           56
  A    1  1.0001     0.000     0.000    -0.007     0.000           28.200    -0.000     0.000    -0.009    -0.000           57
  A    1  1.0001     0.000     0.000     0.000     0.010           28.200     0.000    -0.000     0.007     0.000           58
  A    1  0.9999     0.000     0.000     0.000     0.010           28.200     0.000    -0.000     0.007     0.000           59
  A    1  0.9999     0.000     0.000     0.000    -0.010           28.200    -0.000     0.000    -0.007    -0.000           60
  A    1  1.0001     0.000     0.000     0.000    -0.010           28.200    -0.000     0.000    -0.007    -0.000           61

     QUASEX - KPOS =  1 :  Change  of  frame  at  exit  of  element.
          X =   0.0000000     cm,   Y =   0.0000000     cm,  tilt  angle =   0.0000000     rad,   Z =   0.0000000     cm


 Cumulative length of optical axis =    5.69200000     m ;  Time  (for ref. rigidity & particle) =   2.907950E-06 s 

************************************************************************************************************************************
      6  Keyword, label(s) :  DRIFT       drift_2                                                                      IPASS= 1


                              Drift,  length =     4.90000  cm

TRAJ #1 IEX,D,Y,T,Z,P,S,time :  1  0.000000E+00  0.000000E+00  0.000000E+00  0.000000E+00  0.000000E+00  5.7410000E+02  2.93298E+00

 Cumulative length of optical axis =    5.74100000     m   ;  Time  (for reference rigidity & particle) =   2.932983E-06 s 

************************************************************************************************************************************
      7  Keyword, label(s) :  EBMULT                                                                                   IPASS= 1


      -----  MULTIPOLE   : 
                Length  of  element  =    10.200000      cm
                Bore  radius      RO =    10.000      cm                              B/RO^IM/Brho (strength)
               E-DIPOLE      =  0.0000000E+00 V/m  (i.e.,   0.0000000E+00 * SCAL)     0.0000000E+00
               E-QUADRUPOLE  =  1.4048719E+04 V/m  (i.e.,   1.4048719E+04 * SCAL)     6.8748319E+05
               E-SEXTUPOLE   =  0.0000000E+00 V/m  (i.e.,   0.0000000E+00 * SCAL)     0.0000000E+00
               E-OCTUPOLE    =  0.0000000E+00 V/m  (i.e.,   0.0000000E+00 * SCAL)     0.0000000E+00
               E-DECAPOLE    =  0.0000000E+00 V/m  (i.e.,   0.0000000E+00 * SCAL)     0.0000000E+00
               E-DODECAPOLE  =  0.0000000E+00 V/m  (i.e.,   0.0000000E+00 * SCAL)     0.0000000E+00
               E-14-POLE     =  0.0000000E+00 V/m  (i.e.,   0.0000000E+00 * SCAL)     0.0000000E+00
               E-16-POLE     =  0.0000000E+00 V/m  (i.e.,   0.0000000E+00 * SCAL)     0.0000000E+00
               E-18-POLE     =  0.0000000E+00 V/m  (i.e.,   0.0000000E+00 * SCAL)     0.0000000E+00
               E-20-POLE     =  0.0000000E+00 V/m  (i.e.,   0.0000000E+00 * SCAL)     0.0000000E+00

                Entrance  face  
                     with  fringe  field :
                     DX  =   9.000  CM 
                     LAMBDA-DIPOLE     =  5.000  CM
                     LAMBDA-QUADRUPOLE =  5.000  CM
                     LAMBDA-SEXTUPOLE  =  5.000  CM
                     LAMBDA-OCTUPOLE   =  0.000  CM
                     LAMBDA-DECAPOLE   =  0.000  CM
                     LAMBDA-DODECAPOLE =  0.000  CM
                     LAMBDA-14-POLE    =  0.000  CM
                     LAMBDA-16-POLE    =  0.000  CM
                     LAMBDA-18-POLE    =  0.000  CM
                     LAMBDA-20-POLE    =  0.000  CM
                    6 COEFFICIENTS :  0.11220  6.26710 -1.49820  3.58820 -2.12090  1.72300

                Exit  face  
                     with  fringe  field :
                     DX  =   9.000  CM 
                     LAMBDA-DIPOLE     =  5.000  CM
                     LAMBDA-QUADRUPOLE =  5.000  CM
                     LAMBDA-SEXTUPOLE  =  5.000  CM
                     LAMBDA-OCTUPOLE   =  0.000  CM
                     LAMBDA-DECAPOLE   =  0.000  CM
                     LAMBDA-DODECAPOLE =  0.000  CM
                     LAMBDA-14-POLE    =  0.000  CM
                     LAMBDA-16-POLE    =  0.000  CM
                     LAMBDA-18-POLE    =  0.000  CM
                     LAMBDA-20-POLE    =  0.000  CM
                    6 COEFFICIENTS :  0.11220  6.26710 -1.49820  3.58820 -2.12090  1.72300

      -----  MULTIPOLE   : 
                Length  of  element  =    10.200000      cm
                Bore  radius      RO =    10.000      cm                              B/RO^IM/Brho (strength)
               B-DIPOLE      =  0.0000000E+00 kG   (i.e.,   0.0000000E+00 * SCAL)     0.0000000E+00
               B-QUADRUPOLE  = -2.8708418E+00 kG   (i.e.,  -2.8708418E+00 * SCAL)    -1.4048651E+02
               B-SEXTUPOLE   =  0.0000000E+00 kG   (i.e.,   0.0000000E+00 * SCAL)     0.0000000E+00
               B-OCTUPOLE    =  0.0000000E+00 kG   (i.e.,   0.0000000E+00 * SCAL)     0.0000000E+00
               B-DECAPOLE    =  0.0000000E+00 kG   (i.e.,   0.0000000E+00 * SCAL)     0.0000000E+00
               B-DODECAPOLE  =  0.0000000E+00 kG   (i.e.,   0.0000000E+00 * SCAL)     0.0000000E+00
               B-14-POLE     =  0.0000000E+00 kG   (i.e.,   0.0000000E+00 * SCAL)     0.0000000E+00
               B-16-POLE     =  0.0000000E+00 kG   (i.e.,   0.0000000E+00 * SCAL)     0.0000000E+00
               B-18-POLE     =  0.0000000E+00 kG   (i.e.,   0.0000000E+00 * SCAL)     0.0000000E+00
               B-20-POLE     =  0.0000000E+00 kG   (i.e.,   0.0000000E+00 * SCAL)     0.0000000E+00

                Entrance  face  
                     with  fringe  field :
                     DX  =   9.000  CM 
                     LAMBDA-DIPOLE     =  5.000  CM
                     LAMBDA-QUADRUPOLE =  5.000  CM
                     LAMBDA-SEXTUPOLE  =  5.000  CM
                     LAMBDA-OCTUPOLE   =  0.000  CM
                     LAMBDA-DECAPOLE   =  0.000  CM
                     LAMBDA-DODECAPOLE =  0.000  CM
                     LAMBDA-14-POLE    =  0.000  CM
                     LAMBDA-16-POLE    =  0.000  CM
                     LAMBDA-18-POLE    =  0.000  CM
                     LAMBDA-20-POLE    =  0.000  CM
                    6 COEFFICIENTS :  0.11220  6.26710 -1.49820  3.58820 -2.12090  1.72300

                Exit  face  
                     with  fringe  field :
                     DX  =   9.000  CM 
                     LAMBDA-DIPOLE     =  5.000  CM
                     LAMBDA-QUADRUPOLE =  5.000  CM
                     LAMBDA-SEXTUPOLE  =  5.000  CM
                     LAMBDA-OCTUPOLE   =  0.000  CM
                     LAMBDA-DECAPOLE   =  0.000  CM
                     LAMBDA-DODECAPOLE =  0.000  CM
                     LAMBDA-14-POLE    =  0.000  CM
                     LAMBDA-16-POLE    =  0.000  CM
                     LAMBDA-18-POLE    =  0.000  CM
                     LAMBDA-20-POLE    =  0.000  CM
                    6 COEFFICIENTS :  0.11220  6.26710 -1.49820  3.58820 -2.12090  1.72300

                    Integration step :   1.000     cm

  A    1  1.0000     0.000     0.000     0.000     0.000           28.200     0.000     0.000     0.000     0.000            1
  A    1  1.0000     0.010     0.000     0.000     0.000           28.200     0.003    -0.000    -0.000     0.000            2
  A    1  1.0000    -0.010     0.000     0.000     0.000           28.200    -0.003     0.000     0.000    -0.000            3
  A    1  1.0000     0.020     0.000     0.000     0.000           28.200     0.005    -0.000    -0.000     0.000            4
  A    1  1.0000    -0.020     0.000     0.000     0.000           28.200    -0.005     0.000     0.000    -0.000            5
  A    1  1.0000     0.000     0.010     0.000     0.000           28.200     0.002    -0.000    -0.000     0.000            6
  A    1  1.0000     0.000    -0.010     0.000     0.000           28.200    -0.002     0.000     0.000    -0.000            7
  A    1  1.0000     0.000     0.020     0.000     0.000           28.200     0.003    -0.000    -0.000     0.000            8
  A    1  1.0000     0.000    -0.020     0.000     0.000           28.200    -0.003     0.000     0.000    -0.000            9
  A    1  1.0000     0.000     0.000     0.007     0.000           28.200     0.000     0.000     0.010    -0.000           10
  A    1  1.0000     0.000     0.000    -0.007     0.000           28.200    -0.000    -0.000    -0.010     0.000           11
  A    1  1.0000     0.000     0.000     0.014     0.000           28.200     0.000     0.000     0.021    -0.001           12
  A    1  1.0000     0.000     0.000    -0.014     0.000           28.200    -0.000    -0.000    -0.021     0.001           13
  A    1  1.0000     0.000     0.000     0.000     0.010           28.200     0.000     0.000     0.008    -0.000           14
  A    1  1.0000     0.000     0.000     0.000    -0.010           28.200    -0.000    -0.000    -0.008     0.000           15
  A    1  1.0000     0.000     0.000     0.000     0.020           28.200     0.000     0.000     0.017    -0.001           16
  A    1  1.0000     0.000     0.000     0.000    -0.020           28.200    -0.000    -0.000    -0.017     0.001           17
  A    1  1.0001     0.000     0.000     0.000     0.000           28.200     0.000     0.000     0.000     0.000           18
  A    1  0.9999     0.000     0.000     0.000     0.000           28.200     0.000     0.000     0.000     0.000           19
  A    1  1.0002     0.000     0.000     0.000     0.000           28.200     0.000     0.000     0.000     0.000           20
  A    1  0.9998     0.000     0.000     0.000     0.000           28.200     0.000     0.000     0.000     0.000           21
  A    1  1.0000     0.010     0.010     0.000     0.000           28.200     0.004    -0.000    -0.000     0.000           22
  A    1  1.0000     0.010    -0.010     0.000     0.000           28.200     0.001    -0.000    -0.000     0.000           23
  A    1  1.0000    -0.010    -0.010     0.000     0.000           28.200    -0.004     0.000     0.000    -0.000           24
  A    1  1.0000    -0.010     0.010     0.000     0.000           28.200    -0.001     0.000     0.000    -0.000           25
  A    1  1.0000     0.010     0.000     0.007     0.000           28.200     0.003    -0.000     0.010    -0.000           26
  A    1  1.0000     0.010     0.000    -0.007     0.000           28.200     0.003    -0.000    -0.010     0.000           27
  A    1  1.0000    -0.010     0.000    -0.007     0.000           28.200    -0.003     0.000    -0.010     0.000           28
  A    1  1.0000    -0.010     0.000     0.007     0.000           28.200    -0.003     0.000     0.010    -0.000           29
  A    1  1.0000     0.010     0.000     0.000     0.010           28.200     0.003    -0.000     0.008    -0.000           30
  A    1  1.0000     0.010     0.000     0.000    -0.010           28.200     0.003    -0.000    -0.008     0.000           31
  A    1  1.0000    -0.010     0.000     0.000    -0.010           28.200    -0.003     0.000    -0.008     0.000           32
  A    1  1.0000    -0.010     0.000     0.000     0.010           28.200    -0.003     0.000     0.008    -0.000           33
  A    1  1.0001     0.010     0.000     0.000     0.000           28.200     0.003    -0.000    -0.000     0.000           34
  A    1  0.9999     0.010     0.000     0.000     0.000           28.200     0.003    -0.000    -0.000     0.000           35
  A    1  0.9999    -0.010     0.000     0.000     0.000           28.200    -0.003     0.000     0.000    -0.000           36
  A    1  1.0001    -0.010     0.000     0.000     0.000           28.200    -0.003     0.000     0.000    -0.000           37
  A    1  1.0000     0.000     0.010     0.007     0.000           28.200     0.002    -0.000     0.010    -0.000           38
  A    1  1.0000     0.000     0.010    -0.007     0.000           28.200     0.002    -0.000    -0.010     0.000           39
  A    1  1.0000     0.000    -0.010    -0.007     0.000           28.200    -0.002     0.000    -0.010     0.000           40
  A    1  1.0000     0.000    -0.010     0.007     0.000           28.200    -0.002     0.000     0.010    -0.000           41
  A    1  1.0000     0.000     0.010     0.000     0.010           28.200     0.002    -0.000     0.008    -0.000           42
  A    1  1.0000     0.000     0.010     0.000    -0.010           28.200     0.002    -0.000    -0.008     0.000           43
  A    1  1.0000     0.000    -0.010     0.000    -0.010           28.200    -0.002     0.000    -0.008     0.000           44
  A    1  1.0000     0.000    -0.010     0.000     0.010           28.200    -0.002     0.000     0.008    -0.000           45
  A    1  1.0001     0.000     0.010     0.000     0.000           28.200     0.002    -0.000    -0.000     0.000           46
  A    1  0.9999     0.000     0.010     0.000     0.000           28.200     0.002    -0.000    -0.000     0.000           47
  A    1  0.9999     0.000    -0.010     0.000     0.000           28.200    -0.002     0.000     0.000    -0.000           48
  A    1  1.0001     0.000    -0.010     0.000     0.000           28.200    -0.002     0.000     0.000    -0.000           49
  A    1  1.0000     0.000     0.000     0.007     0.010           28.200     0.000     0.000     0.019    -0.001           50
  A    1  1.0000     0.000     0.000     0.007    -0.010           28.200     0.000     0.000     0.002    -0.000           51
  A    1  1.0000     0.000     0.000    -0.007    -0.010           28.200    -0.000    -0.000    -0.019     0.001           52
  A    1  1.0000     0.000     0.000    -0.007     0.010           28.200    -0.000    -0.000    -0.002     0.000           53
  A    1  1.0001     0.000     0.000     0.007     0.000           28.200     0.000     0.000     0.010    -0.000           54
  A    1  0.9999     0.000     0.000     0.007     0.000           28.200     0.000     0.000     0.010    -0.000           55
  A    1  0.9999     0.000     0.000    -0.007     0.000           28.200    -0.000    -0.000    -0.010     0.000           56
  A    1  1.0001     0.000     0.000    -0.007     0.000           28.200    -0.000    -0.000    -0.010     0.000           57
  A    1  1.0001     0.000     0.000     0.000     0.010           28.200     0.000     0.000     0.008    -0.000           58
  A    1  0.9999     0.000     0.000     0.000     0.010           28.200     0.000     0.000     0.008    -0.000           59
  A    1  0.9999     0.000     0.000     0.000    -0.010           28.200    -0.000    -0.000    -0.008     0.000           60
  A    1  1.0001     0.000     0.000     0.000    -0.010           28.200    -0.000    -0.000    -0.008     0.000           61

     QUASEX - KPOS =  1 :  Change  of  frame  at  exit  of  element.
          X =   0.0000000     cm,   Y =   0.0000000     cm,  tilt  angle =   0.0000000     rad,   Z =   0.0000000     cm


 Cumulative length of optical axis =    5.84300000     m ;  Time  (for ref. rigidity & particle) =   2.985093E-06 s 

************************************************************************************************************************************
      8  Keyword, label(s) :  DRIFT       drift_3                                                                      IPASS= 1


                              Drift,  length =    25.00000  cm

TRAJ #1 IEX,D,Y,T,Z,P,S,time :  1  0.000000E+00  0.000000E+00  0.000000E+00  0.000000E+00  0.000000E+00  6.0930000E+02  3.11281E+00

 Cumulative length of optical axis =    6.09300000     m   ;  Time  (for reference rigidity & particle) =   3.112814E-06 s 

************************************************************************************************************************************

      9   Keyword FIT[2] is skipped since this is the (end of) last run following the fitting procedure.

          Now carrying on beyond FIT keyword.


************************************************************************************************************************************
     10  Keyword, label(s) :  MATRIX                                                                                   IPASS= 1


  Reference, before change of frame (particle #  1  - D-1,Y,T,Z,s,time)  : 
   0.00000000E+00   0.00000000E+00   0.00000000E+00   0.00000000E+00   0.00000000E+00   6.09300000E+02   3.11281407E+00

           Frame for MATRIX calculation moved by :
            XC =    0.000 cm , YC =    0.000 cm ,   A =  0.00000 deg  ( = 0.000000 rad )


  Reference, after change of frame (particle #  1  - D-1,Y,T,Z,s,time)  : 
   0.00000000E+00   0.00000000E+00   0.00000000E+00   0.00000000E+00   0.00000000E+00   6.09300000E+02   3.11281407E+00

  Reference particle (#     1), path length :   609.30000     cm  relative momentum :    1.00000    


                  TRANSFER  MATRIX  ORDRE  1  (MKSA units)

         -0.143799       -2.104009E-08   -5.653007E-15   -1.452225E-14     0.00000         0.00000    
          -1.62606        -6.95399       -2.111488E-14   -5.337022E-14     0.00000         0.00000    
         -1.651169E-17   -1.111758E-16   -2.958046E-02   -2.489383E-08     0.00000         0.00000    
          1.785120E-16    7.289459E-16    -6.00354        -33.8052         0.00000         0.00000    
           0.00000         0.00000         0.00000         0.00000         1.00000         0.00000    
           0.00000         0.00000         0.00000         0.00000         0.00000         1.00000    

          DetY-1 =      -0.0000254880,    DetZ-1 =      -0.0000254602

          R12=0 at  -0.3026E-08 m,        R34=0 at  -0.7364E-09 m

      First order symplectic conditions (expected values = 0) :
        -2.5488E-05   -2.5460E-05   -1.5381E-14   -9.7229E-14    6.0514E-15    3.8622E-14


                                        ----------------------------------------
                                        -  EDWARDS AND TENG`S PARAMETRIZATION  -
                                        ----------------------------------------


      COUPLING PARAMETERS:
                           - r:     0.00000000
                           - C:
                                   0.00000000      0.00000000
                                   0.00000000      0.00000000

                                                                              MODE 1               MODE 2

      FRACTIONAL PART OF THE BETATRON TUNES IN THE DECOUPLED FRAME:        0.00000000           0.00000000

      EDWARDS-TENG`S PARAMETERS:
                                - ALPHA:                                    0.00000000           0.00000000
                                - BETA:                                     0.00000000           0.00000000
                                - GAMMA:                                    0.00000000           0.00000000

      HAMILTONIAN PERTURBATION PARAMETERS:

                           - DISTANCE FROM THE NEAREST DIFFERENCE LINEAR RESONANCE:     0.00000000
                           - COUPLING STRENGTH OF THE DIFFERENCE LINEAR RESONANCE:      0.00000000

                           - DISTANCE FROM THE NEAREST SUM LINEAR RESONANCE:            0.00000000
                           - UNPERTURBED HORIZONTAL TUNE:                               0.00000000
                           - UNPERTURBED VERTICAL TUNE:                                 0.00000000

      P MATRIX :

    0.0000000000E+00    0.0000000000E+00    0.0000000000E+00    0.0000000000E+00
    0.0000000000E+00    0.0000000000E+00    0.0000000000E+00    0.0000000000E+00
    0.0000000000E+00    0.0000000000E+00    0.0000000000E+00    0.0000000000E+00
    0.0000000000E+00    0.0000000000E+00    0.0000000000E+00    0.0000000000E+00


                  TRANSFER  MATRIX  ORDRE  2  (MKSA units)

   1 11    0.000       1 21    0.000       1 31    0.000       1 41    0.000       1 51    0.000       1 61   4.0853E-07
   1 12    0.000       1 22    0.000       1 32    0.000       1 42    0.000       1 52    0.000       1 62  -7.2402E-07
   1 13    0.000       1 23    0.000       1 33    0.000       1 43    0.000       1 53    0.000       1 63  -4.9903E-10
   1 14    0.000       1 24    0.000       1 34    0.000       1 44    0.000       1 54    0.000       1 64  -1.9575E-09
   1 15    0.000       1 25    0.000       1 35    0.000       1 45    0.000       1 55    0.000       1 65    0.000    
   1 16   4.0853E-07   1 26  -7.2402E-07   1 36  -4.9903E-10   1 46  -1.9575E-09   1 56    0.000       1 66    0.000    


   2 11    0.000       2 21    0.000       2 31    0.000       2 41    0.000       2 51    0.000       2 61   1.4101E-06
   2 12    0.000       2 22    0.000       2 32    0.000       2 42    0.000       2 52    0.000       2 62  -2.9200E-07
   2 13    0.000       2 23    0.000       2 33    0.000       2 43    0.000       2 53    0.000       2 63  -1.7966E-09
   2 14    0.000       2 24    0.000       2 34    0.000       2 44    0.000       2 54    0.000       2 64  -6.9712E-09
   2 15    0.000       2 25    0.000       2 35    0.000       2 45    0.000       2 55    0.000       2 65    0.000    
   2 16   1.4101E-06   2 26  -2.9200E-07   2 36  -1.7966E-09   2 46  -6.9712E-09   2 56    0.000       2 66    0.000    


   3 11    0.000       3 21    0.000       3 31    0.000       3 41    0.000       3 51    0.000       3 61  -3.7263E-14
   3 12    0.000       3 22    0.000       3 32    0.000       3 42    0.000       3 52    0.000       3 62   2.1153E-13
   3 13    0.000       3 23    0.000       3 33    0.000       3 43    0.000       3 53    0.000       3 63   5.0271E-07
   3 14    0.000       3 24    0.000       3 34    0.000       3 44    0.000       3 54    0.000       3 64  -3.4873E-07
   3 15    0.000       3 25    0.000       3 35    0.000       3 45    0.000       3 55    0.000       3 65    0.000    
   3 16  -3.7263E-14   3 26   2.1153E-13   3 36   5.0271E-07   3 46  -3.4873E-07   3 56    0.000       3 66    0.000    


   4 11    0.000       4 21    0.000       4 31    0.000       4 41    0.000       4 51    0.000       4 61  -7.0589E-14
   4 12    0.000       4 22    0.000       4 32    0.000       4 42    0.000       4 52    0.000       4 62   1.0580E-12
   4 13    0.000       4 23    0.000       4 33    0.000       4 43    0.000       4 53    0.000       4 63   4.3760E-07
   4 14    0.000       4 24    0.000       4 34    0.000       4 44    0.000       4 54    0.000       4 64  -7.0899E-06
   4 15    0.000       4 25    0.000       4 35    0.000       4 45    0.000       4 55    0.000       4 65    0.000    
   4 16  -7.0589E-14   4 26   1.0580E-12   4 36   4.3760E-07   4 46  -7.0899E-06   4 56    0.000       4 66    0.000    


   5 11    1.573       5 21    7.992       5 31    0.000       5 41    0.000       5 51    0.000       5 61    0.000    
   5 12    7.992       5 22    43.71       5 32    0.000       5 42    0.000       5 52    0.000       5 62    0.000    
   5 13    0.000       5 23    0.000       5 33    6.071       5 43    34.47       5 53    0.000       5 63    0.000    
   5 14    0.000       5 24    0.000       5 34    34.47       5 44    198.6       5 54    0.000       5 64    0.000    
   5 15    0.000       5 25    0.000       5 35    0.000       5 45    0.000       5 55    0.000       5 65    0.000    
   5 16    0.000       5 26    0.000       5 36    0.000       5 46    0.000       5 56    0.000       5 66    0.000    


   6 11    0.000       6 21    0.000       6 31    0.000       6 41    0.000       6 51    0.000       6 61    0.000    
   6 12    0.000       6 22    0.000       6 32    0.000       6 42    0.000       6 52    0.000       6 62    0.000    
   6 13    0.000       6 23    0.000       6 33    0.000       6 43    0.000       6 53    0.000       6 63    0.000    
   6 14    0.000       6 24    0.000       6 34    0.000       6 44    0.000       6 54    0.000       6 64    0.000    
   6 15    0.000       6 25    0.000       6 35    0.000       6 45    0.000       6 55    0.000       6 65    0.000    
   6 16    0.000       6 26    0.000       6 36    0.000       6 46    0.000       6 56    0.000       6 66    0.000    

      Second order symplectic conditions (expected values = 0) :

          0.000         0.000       -7.9524E-06     0.000         0.000         0.000         0.000    
          0.000         0.000         0.000         0.000         0.000         0.000       -3.7757E-05


               COEFFICIENTS  D'ORDRE  SUPERIEUR  ( MKSA ):

           Y/Y3           -67.897    
           Y/T3           -12202.    
           Y/Z3           0.10188    
           Y/P3            19.593    

           T/Y3           -185.46    
           T/T3           -33564.    
           T/Z3           0.36675    
           T/P3            69.766    

           Z/Y3           2.42796E-11
           Z/T3          -2.75880E-07
           Z/Z3           -267.55    
           Z/P3           -49861.    

           P/Y3          -1.02967E-09
           P/T3          -4.53865E-07
           P/Z3           -802.66    
           P/P3          -1.50513E+05
 TRAJ 1 IEX,D,Y,T,Z,P,S,time :  1   1.000       0.000       0.000       0.000       0.000           609.30           3.1128    

************************************************************************************************************************************
     11  Keyword, label(s) :  END                                                                                      IPASS= 1


                            61 particles have been launched
                     Made  it  to  the  end :     61

************************************************************************************************************************************
 Pgm zgoubi : Execution ended normally, upon keyword END or FIN
   
 File in:   microProbe_fringeFields_matrix_2rdOrder_r1043.res
 File out:  zgoubi.res

  Zgoubi, author's Revision: 1590.
  Job  started  on  02-02-2022,  at  10:19:53 
  JOB  ENDED  ON    02-02-2022,  AT  10:19:56 

   CPU time, total :     3.0662910000000001     

     An updated version of the input data file, with variables in FIT'ed state, has been saved in zgoubi.FIT.out.dat.


************************************************************************************************************************************
