%!PS-Adobe-3.0 EPSF-3.0
%%Title: cartesianFrame.fig
%%Creator: fig2dev Version 3.2.6a
%%CreationDate: 2021-03-16 12:08:32
%%BoundingBox: 0 0 654 342
%Magnification: 1.0000
%%EndComments
%%BeginProlog
/$F2psDict 200 dict def
$F2psDict begin
$F2psDict /mtrx matrix put
/col-1 {0 setgray} bind def
/col0 {0.000 0.000 0.000 srgb} bind def
/col1 {0.000 0.000 1.000 srgb} bind def
/col7 {1.000 1.000 1.000 srgb} bind def

end

/cp {closepath} bind def
/ef {eofill} bind def
/gr {grestore} bind def
/gs {gsave} bind def
/sa {save} bind def
/rs {restore} bind def
/l {lineto} bind def
/m {moveto} bind def
/rm {rmoveto} bind def
/n {newpath} bind def
/s {stroke} bind def
/sh {show} bind def
/slc {setlinecap} bind def
/slj {setlinejoin} bind def
/slw {setlinewidth} bind def
/srgb {setrgbcolor} bind def
/rot {rotate} bind def
/sc {scale} bind def
/sd {setdash} bind def
/ff {findfont} bind def
/sf {setfont} bind def
/scf {scalefont} bind def
/sw {stringwidth} bind def
/tr {translate} bind def
/tnt {dup dup currentrgbcolor
  4 -2 roll dup 1 exch sub 3 -1 roll mul add
  4 -2 roll dup 1 exch sub 3 -1 roll mul add
  4 -2 roll dup 1 exch sub 3 -1 roll mul add srgb}
  bind def
/shd {dup dup currentrgbcolor 4 -2 roll mul 4 -2 roll mul
  4 -2 roll mul srgb} bind def
 /DrawEllipse {
	/endangle exch def
	/startangle exch def
	/yrad exch def
	/xrad exch def
	/y exch def
	/x exch def
	/savematrix mtrx currentmatrix def
	x y tr xrad yrad sc 0 0 1 startangle endangle arc
	closepath
	savematrix setmatrix
	} def

/$F2psBegin {$F2psDict begin /$F2psEnteredState save def} def
/$F2psEnd {$F2psEnteredState restore end} def

/pageheader {
save
newpath 0 342 moveto 0 0 lineto 654 0 lineto 654 342 lineto closepath clip newpath
-112.6 454.3 translate
1 -1 scale
$F2psBegin
10 setmiterlimit
0 slj 0 slc
 0.06299 0.06299 sc
} bind def
/pagefooter {
$F2psEnd
restore
} bind def
%%EndProlog
pageheader
%
% Fig objects follow
%
% 
% here starts figure with depth 50
% Arc
7.500 slw
0 slc
gs  clippath
9412 3908 m 9412 3922 l 9303 3945 l 9273 3915 l 9303 3885 l cp
eoclip
 [60] 0 sd
n 9352.5 20422.5 16507.6 -106.4424 -89.8178 arc
gs col0 s gr
 gr
 [] 0 sd
% arrowhead
0 slj
n 9303 3945 m 9393 3915 l 9303 3885 l 9273 3915 l 9303 3945 l 
 cp gs 0.00 setgray ef gr  col0 s
% Ellipse
n 7200 4050 41 41 0 360 DrawEllipse gs 0.00 setgray ef gr gs col0 s gr

% Polyline
15.000 slw
n 2700 3150 m 10350 3150 l 10350 6750 l 2700 6750 l
 cp gs col1 s gr 
% Polyline
7.500 slw
gs  clippath
3593 1793 m 3607 1793 l 3645 2104 l 3600 2059 l 3555 2104 l cp
eoclip
n 3600 7200 m
 3600 1800 l gs col0 s gr gr

% arrowhead
30.000 slw
n 3645 2104 m 3600 1879 l 3555 2104 l 3600 2059 l 3645 2104 l 
 cp gs 0.00 setgray ef gr  col0 s
% Polyline
7.500 slw
gs  clippath
12157 4943 m 12157 4957 l 11896 4995 l 11933 4950 l 11896 4905 l cp
eoclip
n 1800 4950 m
 12150 4950 l gs col0 s gr gr

% arrowhead
30.000 slw
n 11896 4995 m 12083 4950 l 11896 4905 l 11933 4950 l 11896 4995 l 
 cp gs 0.00 setgray ef gr  col0 s
% Polyline
7.500 slw
 [60] 0 sd
n 3600 4050 m
 7200 4050 l gs col0 s gr  [] 0 sd
% Polyline
 [60] 0 sd
n 7200 4050 m
 7200 4950 l gs col0 s gr  [] 0 sd
/Times-Roman ff 635.00 scf sf
3000 5550 m
gs 1 -1 sc (O) col0 sh gr
/Times-Roman ff 635.00 scf sf
2970 4140 m
gs 1 -1 sc (Y) col0 sh gr
/Times-Roman ff 635.00 scf sf
7020 5490 m
gs 1 -1 sc (X) col0 sh gr
/Times-Roman ff 635.00 scf sf
6795 3780 m
gs 1 -1 sc (m) col0 sh gr
/Times-Roman ff 635.00 scf sf
4770 2385 m
gs 1 -1 sc (Cartesian Frame) col0 sh gr
% here ends figure;
pagefooter
showpage
%%Trailer
%EOF
