%!PS-Adobe-3.0 EPSF-3.0
%%Title: /home/meot/zgoubi/SVN/zgoubi-code/guide/FigKPOS4A.fig
%%Creator: fig2dev Version 3.2 Patchlevel 5d
%%CreationDate: Mon Sep 18 08:34:33 2017
%%BoundingBox: 0 0 375 276
%Magnification: 1.0000
%%EndComments
%%BeginProlog
/$F2psDict 200 dict def
$F2psDict begin
$F2psDict /mtrx matrix put
/col-1 {0 setgray} bind def
/col0 {0.000 0.000 0.000 srgb} bind def
/col1 {0.000 0.000 1.000 srgb} bind def
/col2 {0.000 1.000 0.000 srgb} bind def
/col3 {0.000 1.000 1.000 srgb} bind def
/col4 {1.000 0.000 0.000 srgb} bind def
/col5 {1.000 0.000 1.000 srgb} bind def
/col6 {1.000 1.000 0.000 srgb} bind def
/col7 {1.000 1.000 1.000 srgb} bind def
/col8 {0.000 0.000 0.560 srgb} bind def
/col9 {0.000 0.000 0.690 srgb} bind def
/col10 {0.000 0.000 0.820 srgb} bind def
/col11 {0.530 0.810 1.000 srgb} bind def
/col12 {0.000 0.560 0.000 srgb} bind def
/col13 {0.000 0.690 0.000 srgb} bind def
/col14 {0.000 0.820 0.000 srgb} bind def
/col15 {0.000 0.560 0.560 srgb} bind def
/col16 {0.000 0.690 0.690 srgb} bind def
/col17 {0.000 0.820 0.820 srgb} bind def
/col18 {0.560 0.000 0.000 srgb} bind def
/col19 {0.690 0.000 0.000 srgb} bind def
/col20 {0.820 0.000 0.000 srgb} bind def
/col21 {0.560 0.000 0.560 srgb} bind def
/col22 {0.690 0.000 0.690 srgb} bind def
/col23 {0.820 0.000 0.820 srgb} bind def
/col24 {0.500 0.190 0.000 srgb} bind def
/col25 {0.630 0.250 0.000 srgb} bind def
/col26 {0.750 0.380 0.000 srgb} bind def
/col27 {1.000 0.500 0.500 srgb} bind def
/col28 {1.000 0.630 0.630 srgb} bind def
/col29 {1.000 0.750 0.750 srgb} bind def
/col30 {1.000 0.880 0.880 srgb} bind def
/col31 {1.000 0.840 0.000 srgb} bind def

end

/cp {closepath} bind def
/ef {eofill} bind def
/gr {grestore} bind def
/gs {gsave} bind def
/sa {save} bind def
/rs {restore} bind def
/l {lineto} bind def
/m {moveto} bind def
/rm {rmoveto} bind def
/n {newpath} bind def
/s {stroke} bind def
/sh {show} bind def
/slc {setlinecap} bind def
/slj {setlinejoin} bind def
/slw {setlinewidth} bind def
/srgb {setrgbcolor} bind def
/rot {rotate} bind def
/sc {scale} bind def
/sd {setdash} bind def
/ff {findfont} bind def
/sf {setfont} bind def
/scf {scalefont} bind def
/sw {stringwidth} bind def
/tr {translate} bind def
/tnt {dup dup currentrgbcolor
  4 -2 roll dup 1 exch sub 3 -1 roll mul add
  4 -2 roll dup 1 exch sub 3 -1 roll mul add
  4 -2 roll dup 1 exch sub 3 -1 roll mul add srgb}
  bind def
/shd {dup dup currentrgbcolor 4 -2 roll mul 4 -2 roll mul
  4 -2 roll mul srgb} bind def
/$F2psBegin {$F2psDict begin /$F2psEnteredState save def} def
/$F2psEnd {$F2psEnteredState restore end} def

/pageheader {
save
newpath 0 276 moveto 0 0 lineto 375 0 lineto 375 276 lineto closepath clip newpath
-161.8 377.4 translate
1 -1 scale
$F2psBegin
10 setmiterlimit
0 slj 0 slc
 0.06299 0.06299 sc
} bind def
/pagefooter {
$F2psEnd
restore
} bind def
%%EndProlog
pageheader
%
% Fig objects follow
%
% 
% here starts figure with depth 50
% Arc
7.500 slw
0 slc
n 7264.0 5195.2 554.1 4.9501 25.7611 arc
gs col0 s gr

% Arc
n 4710.8 4580.5 456.7 -7.9926 25.4849 arc
gs col0 s gr

% Arc
n 6741.2 3320.8 166.9 -15.5642 45.6012 arc
gs col0 s gr

% Polyline
0 slj
 [60] 0 sd
n 3977 2326 m
 3430 5428 l gs col0 s gr  [] 0 sd
% Polyline
 [60] 0 sd
n 7081 2878 m
 6534 5980 l gs col0 s gr  [] 0 sd
% Polyline
gs  clippath
7866 5523 m 8035 5585 l 8066 5500 l 7897 5439 l 7897 5439 l 7995 5523 l 7866 5523 l cp
eoclip
n 2580 4499 m 3597 4499 l 6699 5045 l
 8037 5538 l gs col1 s gr gr

% arrowhead
30.000 slw
n 7866 5523 m 7995 5523 l 7897 5439 l 7866 5523 l  cp gs col1 1.00 shd ef gr  col1 s
% Polyline
7.500 slw
gs  clippath
7072 4163 m 7133 3994 l 7048 3963 l 6987 4132 l 6987 4132 l 7071 4035 l 7072 4163 l cp
eoclip
n 6566 5420 m
 7086 3993 l gs col0 s gr gr

% arrowhead
30.000 slw
n 7072 4163 m 7071 4035 l 6987 4132 l 7072 4163 l  cp gs 0.00 setgray ef gr  col0 s
% Polyline
7.500 slw
gs  clippath
3643 3496 m 3643 3316 l 3553 3316 l 3553 3496 l 3553 3496 l 3598 3376 l 3643 3496 l cp
eoclip
n 3598 4850 m
 3598 3331 l gs col0 s gr gr

% arrowhead
30.000 slw
n 3643 3496 m 3598 3376 l 3553 3496 l 3643 3496 l  cp gs 0.00 setgray ef gr  col0 s
% Polyline
7.500 slw
 [45 22 15 22] 0 sd
gs  clippath
5249 4547 m 5429 4547 l 5429 4457 l 5249 4457 l 5249 4457 l 5369 4502 l 5249 4547 l cp
eoclip
n 3614 4502 m
 5414 4502 l gs col0 s gr gr
 [] 0 sd
% arrowhead
30.000 slw
n 5249 4547 m 5369 4502 l 5249 4457 l 5249 4547 l  cp gs 0.00 setgray ef gr  col0 s
% Polyline
7.500 slw
gs  clippath
4266 4442 m 4230 4637 l 4304 4650 l 4339 4456 l 4339 4456 l 4276 4597 l 4266 4442 l cp
4593 3062 m 4629 2867 l 4555 2854 l 4520 3048 l 4520 3048 l 4584 2908 l 4593 3062 l cp
eoclip
n 4590 2876 m
 4270 4629 l gs col0 s gr gr

% arrowhead
15.000 slw
n 4593 3062 m 4584 2908 l 4520 3048 l 4562 3026 l 4593 3062 l 
 cp gs col7 1.00 shd ef gr  col0 s
% arrowhead
n 4266 4442 m 4276 4597 l 4339 4456 l 4297 4478 l 4266 4442 l 
 cp gs col7 1.00 shd ef gr  col0 s
% Polyline
n 4096 2128 m 3836 2916 l 6832 3888 l 7091 3095 l
 4096 2124 l gs col1 s gr 
% Polyline
7.500 slw
 [68 34 15 34] 0 sd
n 3982 2336 m 3836 3153 l 6938 3698 l 7084 2877 l
 3982 2332 l gs col1 s gr  [] 0 sd
% Polyline
 [45 22 15 22] 0 sd
n 7877 5248 m
 6548 5014 l gs col0 s gr  [] 0 sd
% Polyline
 [60] 0 sd
n 3918 2742 m
 7018 3282 l gs col1 s gr  [] 0 sd
% Polyline
gs  clippath
7237 2791 m 7297 2616 l 7240 2597 l 7180 2771 l 7180 2771 l 7258 2640 l 7237 2791 l cp
eoclip
n 6966 3482 m
 7264 2621 l gs col0 s gr gr

% arrowhead
n 7237 2791 m 7258 2640 l 7180 2771 l 7218 2753 l 7237 2791 l 
 cp gs 0.00 setgray ef gr  col0 s
% Polyline
 [60] 0 sd
n 3970 2531 m
 6964 3496 l gs col1 s gr  [] 0 sd
% Polyline
gs  clippath
4228 1825 m 4287 1650 l 4230 1631 l 4171 1806 l 4171 1806 l 4248 1674 l 4228 1825 l cp
eoclip
n 3966 2516 m
 4254 1655 l gs col0 s gr gr

% arrowhead
n 4228 1825 m 4248 1674 l 4171 1806 l 4209 1787 l 4228 1825 l 
 cp gs 0.00 setgray ef gr  col0 s
% Polyline
gs  clippath
4662 2786 m 4837 2844 l 4856 2787 l 4680 2729 l 4680 2729 l 4814 2805 l 4662 2786 l cp
eoclip
n 3966 2528 m
 4833 2811 l gs col0 s gr gr

% arrowhead
n 4662 2786 m 4814 2805 l 4680 2729 l 4699 2767 l 4662 2786 l 
 cp gs 0.00 setgray ef gr  col0 s
% Polyline
gs  clippath
7636 3749 m 7812 3806 l 7830 3749 l 7654 3692 l 7654 3692 l 7788 3767 l 7636 3749 l cp
eoclip
n 6940 3492 m
 7807 3773 l gs col0 s gr gr

% arrowhead
n 7636 3749 m 7788 3767 l 7654 3692 l 7673 3730 l 7636 3749 l 
 cp gs 0.00 setgray ef gr  col0 s
/Symbol ff 254.00 scf sf
4500 3825 m
gs 1 -1 sc (d) col0 sh gr
/Times-Roman ff 254.00 scf sf
4635 3825 m
gs 1 -1 sc (Y shift) col0 sh gr
/Times-Roman ff 317.50 scf sf
5087 4415 m
gs 1 -1 sc (XE) col0 sh gr
/Times-Roman ff 317.50 scf sf
3110 3365 m
gs 1 -1 sc (YE) col0 sh gr
/Symbol ff 254.00 scf sf
7920 5400 m
gs 1 -1 sc  347.0 rot (a  /2) col0 sh gr
/Times-Roman ff 174.63 scf sf
8074 5510 m
gs 1 -1 sc  343.0 rot (Z) col0 sh gr
/Symbol ff 254.00 scf sf
5309 4680 m
gs 1 -1 sc  351.0 rot (a  /2) col0 sh gr
/Times-Roman ff 174.63 scf sf
5476 4787 m
gs 1 -1 sc  352.0 rot (Z) col0 sh gr
/Symbol ff 254.00 scf sf
6585 3225 m
gs 1 -1 sc (q) col0 sh gr
/Times-Roman ff 158.75 scf sf
6710 3344 m
gs 1 -1 sc (Z) col0 sh gr
/Times-Roman ff 317.50 scf sf
7345 5597 m
gs 1 -1 sc  339.0 rot (XS) col0 sh gr
/Times-Roman ff 317.50 scf sf
6981 4447 m
gs 1 -1 sc  342.8 rot (YS) col0 sh gr
/Times-Roman ff 238.13 scf sf
7218 2742 m
gs 1 -1 sc  342.5 rot (YMS) col0 sh gr
/Times-Roman ff 238.13 scf sf
7346 3558 m
gs 1 -1 sc  342.4 rot (XMS) col0 sh gr
/Times-Roman ff 238.13 scf sf
4226 1795 m
gs 1 -1 sc  342.5 rot (YME) col0 sh gr
/Times-Roman ff 238.13 scf sf
4407 2629 m
gs 1 -1 sc  342.5 rot (XME) col0 sh gr
% here ends figure;
pagefooter
showpage
%%Trailer
%EOF
