%!PS-Adobe-3.0 EPSF-3.0
%%Title: FigKPOS4B.fig
%%Creator: fig2dev Version 3.2 Patchlevel 5d
%%CreationDate: Sun Sep 17 15:18:30 2017
%%BoundingBox: 0 0 634 249
%Magnification: 1.0000
%%EndComments
%%BeginProlog
/$F2psDict 200 dict def
$F2psDict begin
$F2psDict /mtrx matrix put
/col-1 {0 setgray} bind def
/col0 {0.000 0.000 0.000 srgb} bind def
/col1 {0.000 0.000 1.000 srgb} bind def
/col2 {0.000 1.000 0.000 srgb} bind def
/col3 {0.000 1.000 1.000 srgb} bind def
/col4 {1.000 0.000 0.000 srgb} bind def
/col5 {1.000 0.000 1.000 srgb} bind def
/col6 {1.000 1.000 0.000 srgb} bind def
/col7 {1.000 1.000 1.000 srgb} bind def
/col8 {0.000 0.000 0.560 srgb} bind def
/col9 {0.000 0.000 0.690 srgb} bind def
/col10 {0.000 0.000 0.820 srgb} bind def
/col11 {0.530 0.810 1.000 srgb} bind def
/col12 {0.000 0.560 0.000 srgb} bind def
/col13 {0.000 0.690 0.000 srgb} bind def
/col14 {0.000 0.820 0.000 srgb} bind def
/col15 {0.000 0.560 0.560 srgb} bind def
/col16 {0.000 0.690 0.690 srgb} bind def
/col17 {0.000 0.820 0.820 srgb} bind def
/col18 {0.560 0.000 0.000 srgb} bind def
/col19 {0.690 0.000 0.000 srgb} bind def
/col20 {0.820 0.000 0.000 srgb} bind def
/col21 {0.560 0.000 0.560 srgb} bind def
/col22 {0.690 0.000 0.690 srgb} bind def
/col23 {0.820 0.000 0.820 srgb} bind def
/col24 {0.500 0.190 0.000 srgb} bind def
/col25 {0.630 0.250 0.000 srgb} bind def
/col26 {0.750 0.380 0.000 srgb} bind def
/col27 {1.000 0.500 0.500 srgb} bind def
/col28 {1.000 0.630 0.630 srgb} bind def
/col29 {1.000 0.750 0.750 srgb} bind def
/col30 {1.000 0.880 0.880 srgb} bind def
/col31 {1.000 0.840 0.000 srgb} bind def

end

/cp {closepath} bind def
/ef {eofill} bind def
/gr {grestore} bind def
/gs {gsave} bind def
/sa {save} bind def
/rs {restore} bind def
/l {lineto} bind def
/m {moveto} bind def
/rm {rmoveto} bind def
/n {newpath} bind def
/s {stroke} bind def
/sh {show} bind def
/slc {setlinecap} bind def
/slj {setlinejoin} bind def
/slw {setlinewidth} bind def
/srgb {setrgbcolor} bind def
/rot {rotate} bind def
/sc {scale} bind def
/sd {setdash} bind def
/ff {findfont} bind def
/sf {setfont} bind def
/scf {scalefont} bind def
/sw {stringwidth} bind def
/tr {translate} bind def
/tnt {dup dup currentrgbcolor
  4 -2 roll dup 1 exch sub 3 -1 roll mul add
  4 -2 roll dup 1 exch sub 3 -1 roll mul add
  4 -2 roll dup 1 exch sub 3 -1 roll mul add srgb}
  bind def
/shd {dup dup currentrgbcolor 4 -2 roll mul 4 -2 roll mul
  4 -2 roll mul srgb} bind def
/$F2psBegin {$F2psDict begin /$F2psEnteredState save def} def
/$F2psEnd {$F2psEnteredState restore end} def

/pageheader {
save
newpath 0 249 moveto 0 0 lineto 634 0 lineto 634 249 lineto closepath clip newpath
-86.9 409.6 translate
1 -1 scale
$F2psBegin
10 setmiterlimit
0 slj 0 slc
 0.06299 0.06299 sc
} bind def
/pagefooter {
$F2psEnd
restore
} bind def
%%EndProlog
pageheader
%
% Fig objects follow
%
% 
% here starts figure with depth 50
% Arc
7.500 slw
0 slc
n 6862.5 4702.5 2778.5 5.1104 -15.4993 arcn
gs col0 s gr

% Polyline
0 slj
 [60 30 15 30] 0 sd
n 2534 4650 m
 10634 4649 l gs col0 s gr  [] 0 sd
% Polyline
n 2700 4470 m
 2700 4770 l gs col0 s gr 
% Polyline
n 2565 4650 m
 2865 4650 l gs col0 s gr 
% Polyline
 [60 30 15 30] 0 sd
n 2685 4950 m
 3915 4950 l gs col0 s gr  [] 0 sd
% Polyline
n 3195 4950 m
 3675 4950 l gs col0 s gr 
% Polyline
n 9190 3620 m
 8210 3620 l gs col0 s gr 
% Polyline
45.000 slw
gs  clippath
8593 2905 m 8593 2685 l 8503 2685 l 8503 2905 l 8503 2905 l 8548 2755 l 8593 2905 l cp
eoclip
n 8548 4950 m
 8548 2700 l gs col0 s gr gr

% arrowhead
30.000 slw
n 8593 2905 m 8548 2755 l 8503 2905 l 8593 2905 l  cp gs 0.00 setgray ef gr  col0 s
% Polyline
45.000 slw
gs  clippath
11183 4993 m 11403 4993 l 11403 4903 l 11183 4903 l 11183 4903 l 11333 4948 l 11183 4993 l cp
eoclip
n 8550 4948 m
 11388 4948 l gs col0 s gr gr

% arrowhead
30.000 slw
n 11183 4993 m 11333 4948 l 11183 4903 l 11183 4993 l  cp gs 0.00 setgray ef gr  col0 s
% Polyline
45.000 slw
gs  clippath
5333 4995 m 5553 4995 l 5553 4905 l 5333 4905 l 5333 4905 l 5483 4950 l 5333 4995 l cp
eoclip
n 2700 4950 m
 5538 4950 l gs col0 s gr gr

% arrowhead
30.000 slw
n 5333 4995 m 5483 4950 l 5333 4905 l 5333 4995 l  cp gs 0.00 setgray ef gr  col0 s
% Polyline
7.500 slw
n 1537 4950 m
 10987 4950 l gs col0 s gr 
% Polyline
15.000 slw
 [60] 0 sd
n 2693 3600 m 8543 3600 l 8543 6300 l 2693 6300 l
 cp gs col1 s gr  [] 0 sd
% Polyline
45.000 slw
gs  clippath
2735 2915 m 2735 2685 l 2660 2685 l 2660 2915 l 2660 2915 l 2698 2765 l 2735 2915 l cp
eoclip
n 2698 4950 m
 2698 2700 l gs col0 s gr gr

% arrowhead
30.000 slw
n 2735 2915 m 2698 2765 l 2660 2915 l 2735 2915 l  cp gs 0.00 setgray ef gr  col0 s
% Polyline
15.000 slw
n 2486 3822 m
 2956 6481 l gs col1 s gr 
% Polyline
n 2957 6478 m
 8709 5470 l gs col1 s gr 
% Polyline
n 2492 3829 m
 8244 2821 l gs col1 s gr 
% Polyline
n 8245 2818 m
 8715 5477 l gs col1 s gr 
% Polyline
7.500 slw
 [60 30 15 30] 0 sd
n 1780 5332 m
 9757 3925 l gs col0 s gr  [] 0 sd
/Times-Roman ff 317.50 scf sf
10350 5400 m
gs 1 -1 sc (      ZS) col0 sh gr
/Times-Roman ff 317.50 scf sf
4725 5400 m
gs 1 -1 sc (   ZE) col0 sh gr
/Times-Roman ff 317.50 scf sf
8562 2803 m
gs 1 -1 sc (ZS) col0 sh gr
/Times-Roman ff 254.00 scf sf
1530 4860 m
gs 1 -1 sc (Z shift> 0) col0 sh gr
/Symbol ff 254.00 scf sf
1395 4860 m
gs 1 -1 sc (d) col0 sh gr
/Times-Roman ff 317.50 scf sf
2205 2835 m
gs 1 -1 sc (ZE) col0 sh gr
/Symbol ff 254.00 scf sf
9693 4347 m
gs 1 -1 sc  5.0 rot (q   >0) col0 sh gr
/Times-Roman ff 190.50 scf sf
9875 4442 m
gs 1 -1 sc  15.0 rot (Y) col0 sh gr
% here ends figure;
pagefooter
showpage
%%Trailer
%EOF
