%!PS-Adobe-3.0 EPSF-3.0
%%Title: /home/meot/zgoubi/SVN/zgoubi-code/guide/FigKPOS3.fig
%%Creator: fig2dev Version 3.2 Patchlevel 5d
%%CreationDate: Mon Sep 18 08:44:29 2017
%%BoundingBox: 0 0 377 264
%Magnification: 1.0000
%%EndComments
%%BeginProlog
/$F2psDict 200 dict def
$F2psDict begin
$F2psDict /mtrx matrix put
/col-1 {0 setgray} bind def
/col0 {0.000 0.000 0.000 srgb} bind def
/col1 {0.000 0.000 1.000 srgb} bind def
/col2 {0.000 1.000 0.000 srgb} bind def
/col3 {0.000 1.000 1.000 srgb} bind def
/col4 {1.000 0.000 0.000 srgb} bind def
/col5 {1.000 0.000 1.000 srgb} bind def
/col6 {1.000 1.000 0.000 srgb} bind def
/col7 {1.000 1.000 1.000 srgb} bind def
/col8 {0.000 0.000 0.560 srgb} bind def
/col9 {0.000 0.000 0.690 srgb} bind def
/col10 {0.000 0.000 0.820 srgb} bind def
/col11 {0.530 0.810 1.000 srgb} bind def
/col12 {0.000 0.560 0.000 srgb} bind def
/col13 {0.000 0.690 0.000 srgb} bind def
/col14 {0.000 0.820 0.000 srgb} bind def
/col15 {0.000 0.560 0.560 srgb} bind def
/col16 {0.000 0.690 0.690 srgb} bind def
/col17 {0.000 0.820 0.820 srgb} bind def
/col18 {0.560 0.000 0.000 srgb} bind def
/col19 {0.690 0.000 0.000 srgb} bind def
/col20 {0.820 0.000 0.000 srgb} bind def
/col21 {0.560 0.000 0.560 srgb} bind def
/col22 {0.690 0.000 0.690 srgb} bind def
/col23 {0.820 0.000 0.820 srgb} bind def
/col24 {0.500 0.190 0.000 srgb} bind def
/col25 {0.630 0.250 0.000 srgb} bind def
/col26 {0.750 0.380 0.000 srgb} bind def
/col27 {1.000 0.500 0.500 srgb} bind def
/col28 {1.000 0.630 0.630 srgb} bind def
/col29 {1.000 0.750 0.750 srgb} bind def
/col30 {1.000 0.880 0.880 srgb} bind def
/col31 {1.000 0.840 0.000 srgb} bind def

end

/cp {closepath} bind def
/ef {eofill} bind def
/gr {grestore} bind def
/gs {gsave} bind def
/sa {save} bind def
/rs {restore} bind def
/l {lineto} bind def
/m {moveto} bind def
/rm {rmoveto} bind def
/n {newpath} bind def
/s {stroke} bind def
/sh {show} bind def
/slc {setlinecap} bind def
/slj {setlinejoin} bind def
/slw {setlinewidth} bind def
/srgb {setrgbcolor} bind def
/rot {rotate} bind def
/sc {scale} bind def
/sd {setdash} bind def
/ff {findfont} bind def
/sf {setfont} bind def
/scf {scalefont} bind def
/sw {stringwidth} bind def
/tr {translate} bind def
/tnt {dup dup currentrgbcolor
  4 -2 roll dup 1 exch sub 3 -1 roll mul add
  4 -2 roll dup 1 exch sub 3 -1 roll mul add
  4 -2 roll dup 1 exch sub 3 -1 roll mul add srgb}
  bind def
/shd {dup dup currentrgbcolor 4 -2 roll mul 4 -2 roll mul
  4 -2 roll mul srgb} bind def
/$F2psBegin {$F2psDict begin /$F2psEnteredState save def} def
/$F2psEnd {$F2psEnteredState restore end} def

/pageheader {
save
newpath 0 264 moveto 0 0 lineto 377 0 lineto 377 264 lineto closepath clip newpath
-161.8 377.4 translate
1 -1 scale
$F2psBegin
10 setmiterlimit
0 slj 0 slc
 0.06299 0.06299 sc
} bind def
/pagefooter {
$F2psEnd
restore
} bind def
%%EndProlog
pageheader
%
% Fig objects follow
%
% 
% here starts figure with depth 50
% Arc
7.500 slw
0 slc
n 4693.8 4563.5 456.7 -7.9926 25.4849 arc
gs col0 s gr

% Arc
n 7187.0 5179.2 554.1 4.9501 25.7611 arc
gs col0 s gr

% Polyline
0 slj
 [60] 0 sd
n 3977 2326 m
 3430 5428 l gs col0 s gr  [] 0 sd
% Polyline
 [60] 0 sd
n 7081 2878 m
 6534 5980 l gs col0 s gr  [] 0 sd
% Polyline
gs  clippath
7866 5523 m 8035 5585 l 8066 5500 l 7897 5439 l 7897 5439 l 7995 5523 l 7866 5523 l cp
eoclip
n 2580 4499 m 3597 4499 l 6699 5045 l
 8037 5538 l gs col1 s gr gr

% arrowhead
30.000 slw
n 7866 5523 m 7995 5523 l 7897 5439 l 7866 5523 l  cp gs col1 1.00 shd ef gr  col1 s
% Polyline
7.500 slw
 [45 22 15 22] 0 sd
n 7877 5248 m
 6548 5014 l gs col0 s gr  [] 0 sd
% Polyline
gs  clippath
7072 4163 m 7133 3994 l 7048 3963 l 6987 4132 l 6987 4132 l 7071 4035 l 7072 4163 l cp
eoclip
n 6566 5420 m
 7086 3993 l gs col0 s gr gr

% arrowhead
30.000 slw
n 7072 4163 m 7071 4035 l 6987 4132 l 7072 4163 l  cp gs 0.00 setgray ef gr  col0 s
% Polyline
7.500 slw
gs  clippath
3643 3496 m 3643 3316 l 3553 3316 l 3553 3496 l 3553 3496 l 3598 3376 l 3643 3496 l cp
eoclip
n 3598 4850 m
 3598 3331 l gs col0 s gr gr

% arrowhead
30.000 slw
n 3643 3496 m 3598 3376 l 3553 3496 l 3643 3496 l  cp gs 0.00 setgray ef gr  col0 s
% Polyline
7.500 slw
 [45 22 15 22] 0 sd
gs  clippath
5249 4547 m 5429 4547 l 5429 4457 l 5249 4457 l 5249 4457 l 5369 4502 l 5249 4547 l cp
eoclip
n 3614 4502 m
 5414 4502 l gs col0 s gr gr
 [] 0 sd
% arrowhead
30.000 slw
n 5249 4547 m 5369 4502 l 5249 4457 l 5249 4547 l  cp gs 0.00 setgray ef gr  col0 s
% Polyline
15.000 slw
n 3982 2336 m 3836 3153 l 6938 3698 l 7084 2877 l
 3982 2332 l gs col1 s gr 
% Polyline
7.500 slw
gs  clippath
4071 2028 m 4105 1846 l 4046 1835 l 4012 2018 l 4012 2018 l 4069 1876 l 4071 2028 l cp
eoclip
n 3911 2748 m
 4073 1856 l gs col0 s gr gr

% arrowhead
n 4071 2028 m 4069 1876 l 4012 2018 l 4047 1994 l 4071 2028 l 
 cp gs 0.00 setgray ef gr  col0 s
% Polyline
 [60] 0 sd
n 3918 2742 m
 7018 3282 l gs col1 s gr  [] 0 sd
% Polyline
gs  clippath
4647 2901 m 4829 2935 l 4840 2876 l 4657 2842 l 4657 2842 l 4800 2899 l 4647 2901 l cp
eoclip
n 3928 2741 m
 4820 2903 l gs col0 s gr gr

% arrowhead
n 4647 2901 m 4800 2899 l 4657 2842 l 4681 2877 l 4647 2901 l 
 cp gs 0.00 setgray ef gr  col0 s
% Polyline
gs  clippath
4132 4400 m 4096 4595 l 4170 4608 l 4205 4414 l 4205 4414 l 4142 4555 l 4132 4400 l cp
4459 3020 m 4495 2825 l 4421 2812 l 4386 3006 l 4386 3006 l 4450 2866 l 4459 3020 l cp
eoclip
n 4456 2834 m
 4136 4587 l gs col0 s gr gr

% arrowhead
15.000 slw
n 4459 3020 m 4450 2866 l 4386 3006 l 4428 2984 l 4459 3020 l 
 cp gs col7 1.00 shd ef gr  col0 s
% arrowhead
n 4132 4400 m 4142 4555 l 4205 4414 l 4163 4436 l 4132 4400 l 
 cp gs col7 1.00 shd ef gr  col0 s
% Polyline
7.500 slw
gs  clippath
7700 3437 m 7882 3471 l 7893 3412 l 7710 3378 l 7710 3378 l 7853 3435 l 7700 3437 l cp
eoclip
n 6981 3277 m
 7873 3439 l gs col0 s gr gr

% arrowhead
n 7700 3437 m 7853 3435 l 7710 3378 l 7734 3413 l 7700 3437 l 
 cp gs 0.00 setgray ef gr  col0 s
% Polyline
gs  clippath
7172 2559 m 7206 2377 l 7147 2366 l 7113 2549 l 7113 2549 l 7170 2407 l 7172 2559 l cp
eoclip
n 7012 3279 m
 7174 2387 l gs col0 s gr gr

% arrowhead
n 7172 2559 m 7170 2407 l 7113 2549 l 7148 2525 l 7172 2559 l 
 cp gs 0.00 setgray ef gr  col0 s
/Times-Roman ff 317.50 scf sf
5087 4415 m
gs 1 -1 sc (XE) col0 sh gr
/Times-Roman ff 317.50 scf sf
7109 4103 m
gs 1 -1 sc  343.0 rot (YS) col0 sh gr
/Times-Roman ff 317.50 scf sf
3110 3365 m
gs 1 -1 sc (YE) col0 sh gr
/Times-Roman ff 317.50 scf sf
7605 5760 m
gs 1 -1 sc  339.0 rot (XS) col0 sh gr
/Symbol ff 254.00 scf sf
7945 5388 m
gs 1 -1 sc  347.0 rot (a  /2) col0 sh gr
/Symbol ff 254.00 scf sf
5265 4680 m
gs 1 -1 sc  351.0 rot (a  /2) col0 sh gr
/Times-Roman ff 174.63 scf sf
5427 4800 m
gs 1 -1 sc  352.0 rot (Z) col0 sh gr
/Times-Roman ff 174.63 scf sf
8094 5495 m
gs 1 -1 sc  343.0 rot (Z) col0 sh gr
/Times-Roman ff 254.00 scf sf
4453 3693 m
gs 1 -1 sc  350.1 rot (Y shift) col0 sh gr
/Symbol ff 222.25 scf sf
4336 3669 m
gs 1 -1 sc  349.6 rot (d) col0 sh gr
/Times-Roman ff 238.13 scf sf
4455 2788 m
gs 1 -1 sc  349.8 rot (XME) col0 sh gr
/Times-Roman ff 238.13 scf sf
4082 1987 m
gs 1 -1 sc  349.8 rot (YME) col0 sh gr
/Times-Roman ff 238.13 scf sf
7149 2502 m
gs 1 -1 sc  349.8 rot (YMS) col0 sh gr
/Times-Roman ff 238.13 scf sf
7415 3307 m
gs 1 -1 sc  349.8 rot (XMS) col0 sh gr
% here ends figure;
pagefooter
showpage
%%Trailer
%EOF
