%!PS-Adobe-2.0 EPSF-2.0
%%Title: gnuplot_polSpecGrepFai_39.8-41.2.eps
%%Creator: gnuplot 4.6 patchlevel 2
%%CreationDate: Thu Oct 18 16:25:57 2018
%%DocumentFonts: (atend)
%%BoundingBox: 50 50 410 282
%%EndComments
%%BeginProlog
/gnudict 256 dict def
gnudict begin
%
% The following true/false flags may be edited by hand if desired.
% The unit line width and grayscale image gamma correction may also be changed.
%
/Color true def
/Blacktext true def
/Solid false def
/Dashlength 1 def
/Landscape false def
/Level1 false def
/Rounded false def
/ClipToBoundingBox false def
/SuppressPDFMark false def
/TransparentPatterns false def
/gnulinewidth 5.000 def
/userlinewidth gnulinewidth def
/Gamma 1.0 def
/BackgroundColor {-1.000 -1.000 -1.000} def
%
/vshift -40 def
/dl1 {
  10.0 Dashlength mul mul
  Rounded { currentlinewidth 0.75 mul sub dup 0 le { pop 0.01 } if } if
} def
/dl2 {
  10.0 Dashlength mul mul
  Rounded { currentlinewidth 0.75 mul add } if
} def
/hpt_ 31.5 def
/vpt_ 31.5 def
/hpt hpt_ def
/vpt vpt_ def
/doclip {
  ClipToBoundingBox {
    newpath 50 50 moveto 410 50 lineto 410 302 lineto 50 302 lineto closepath
    clip
  } if
} def
%
% Gnuplot Prolog Version 4.6 (September 2012)
%
%/SuppressPDFMark true def
%
/M {moveto} bind def
/L {lineto} bind def
/R {rmoveto} bind def
/V {rlineto} bind def
/N {newpath moveto} bind def
/Z {closepath} bind def
/C {setrgbcolor} bind def
/f {rlineto fill} bind def
/g {setgray} bind def
/Gshow {show} def   % May be redefined later in the file to support UTF-8
/vpt2 vpt 2 mul def
/hpt2 hpt 2 mul def
/Lshow {currentpoint stroke M 0 vshift R 
	Blacktext {gsave 0 setgray show grestore} {show} ifelse} def
/Rshow {currentpoint stroke M dup stringwidth pop neg vshift R
	Blacktext {gsave 0 setgray show grestore} {show} ifelse} def
/Cshow {currentpoint stroke M dup stringwidth pop -2 div vshift R 
	Blacktext {gsave 0 setgray show grestore} {show} ifelse} def
/UP {dup vpt_ mul /vpt exch def hpt_ mul /hpt exch def
  /hpt2 hpt 2 mul def /vpt2 vpt 2 mul def} def
/DL {Color {setrgbcolor Solid {pop []} if 0 setdash}
 {pop pop pop 0 setgray Solid {pop []} if 0 setdash} ifelse} def
/BL {stroke userlinewidth 2 mul setlinewidth
	Rounded {1 setlinejoin 1 setlinecap} if} def
/AL {stroke userlinewidth 2 div setlinewidth
	Rounded {1 setlinejoin 1 setlinecap} if} def
/UL {dup gnulinewidth mul /userlinewidth exch def
	dup 1 lt {pop 1} if 10 mul /udl exch def} def
/PL {stroke userlinewidth setlinewidth
	Rounded {1 setlinejoin 1 setlinecap} if} def
3.8 setmiterlimit
% Default Line colors
/LCw {1 1 1} def
/LCb {0 0 0} def
/LCa {0 0 0} def
/LC0 {1 0 0} def
/LC1 {0 1 0} def
/LC2 {0 0 1} def
/LC3 {1 0 1} def
/LC4 {0 1 1} def
/LC5 {1 1 0} def
/LC6 {0 0 0} def
/LC7 {1 0.3 0} def
/LC8 {0.5 0.5 0.5} def
% Default Line Types
/LTw {PL [] 1 setgray} def
/LTb {BL [] LCb DL} def
/LTa {AL [1 udl mul 2 udl mul] 0 setdash LCa setrgbcolor} def
/LT0 {PL [] LC0 DL} def
/LT1 {PL [4 dl1 2 dl2] LC1 DL} def
/LT2 {PL [2 dl1 3 dl2] LC2 DL} def
/LT3 {PL [1 dl1 1.5 dl2] LC3 DL} def
/LT4 {PL [6 dl1 2 dl2 1 dl1 2 dl2] LC4 DL} def
/LT5 {PL [3 dl1 3 dl2 1 dl1 3 dl2] LC5 DL} def
/LT6 {PL [2 dl1 2 dl2 2 dl1 6 dl2] LC6 DL} def
/LT7 {PL [1 dl1 2 dl2 6 dl1 2 dl2 1 dl1 2 dl2] LC7 DL} def
/LT8 {PL [2 dl1 2 dl2 2 dl1 2 dl2 2 dl1 2 dl2 2 dl1 4 dl2] LC8 DL} def
/Pnt {stroke [] 0 setdash gsave 1 setlinecap M 0 0 V stroke grestore} def
/Dia {stroke [] 0 setdash 2 copy vpt add M
  hpt neg vpt neg V hpt vpt neg V
  hpt vpt V hpt neg vpt V closepath stroke
  Pnt} def
/Pls {stroke [] 0 setdash vpt sub M 0 vpt2 V
  currentpoint stroke M
  hpt neg vpt neg R hpt2 0 V stroke
 } def
/Box {stroke [] 0 setdash 2 copy exch hpt sub exch vpt add M
  0 vpt2 neg V hpt2 0 V 0 vpt2 V
  hpt2 neg 0 V closepath stroke
  Pnt} def
/Crs {stroke [] 0 setdash exch hpt sub exch vpt add M
  hpt2 vpt2 neg V currentpoint stroke M
  hpt2 neg 0 R hpt2 vpt2 V stroke} def
/TriU {stroke [] 0 setdash 2 copy vpt 1.12 mul add M
  hpt neg vpt -1.62 mul V
  hpt 2 mul 0 V
  hpt neg vpt 1.62 mul V closepath stroke
  Pnt} def
/Star {2 copy Pls Crs} def
/BoxF {stroke [] 0 setdash exch hpt sub exch vpt add M
  0 vpt2 neg V hpt2 0 V 0 vpt2 V
  hpt2 neg 0 V closepath fill} def
/TriUF {stroke [] 0 setdash vpt 1.12 mul add M
  hpt neg vpt -1.62 mul V
  hpt 2 mul 0 V
  hpt neg vpt 1.62 mul V closepath fill} def
/TriD {stroke [] 0 setdash 2 copy vpt 1.12 mul sub M
  hpt neg vpt 1.62 mul V
  hpt 2 mul 0 V
  hpt neg vpt -1.62 mul V closepath stroke
  Pnt} def
/TriDF {stroke [] 0 setdash vpt 1.12 mul sub M
  hpt neg vpt 1.62 mul V
  hpt 2 mul 0 V
  hpt neg vpt -1.62 mul V closepath fill} def
/DiaF {stroke [] 0 setdash vpt add M
  hpt neg vpt neg V hpt vpt neg V
  hpt vpt V hpt neg vpt V closepath fill} def
/Pent {stroke [] 0 setdash 2 copy gsave
  translate 0 hpt M 4 {72 rotate 0 hpt L} repeat
  closepath stroke grestore Pnt} def
/PentF {stroke [] 0 setdash gsave
  translate 0 hpt M 4 {72 rotate 0 hpt L} repeat
  closepath fill grestore} def
/Circle {stroke [] 0 setdash 2 copy
  hpt 0 360 arc stroke Pnt} def
/CircleF {stroke [] 0 setdash hpt 0 360 arc fill} def
/C0 {BL [] 0 setdash 2 copy moveto vpt 90 450 arc} bind def
/C1 {BL [] 0 setdash 2 copy moveto
	2 copy vpt 0 90 arc closepath fill
	vpt 0 360 arc closepath} bind def
/C2 {BL [] 0 setdash 2 copy moveto
	2 copy vpt 90 180 arc closepath fill
	vpt 0 360 arc closepath} bind def
/C3 {BL [] 0 setdash 2 copy moveto
	2 copy vpt 0 180 arc closepath fill
	vpt 0 360 arc closepath} bind def
/C4 {BL [] 0 setdash 2 copy moveto
	2 copy vpt 180 270 arc closepath fill
	vpt 0 360 arc closepath} bind def
/C5 {BL [] 0 setdash 2 copy moveto
	2 copy vpt 0 90 arc
	2 copy moveto
	2 copy vpt 180 270 arc closepath fill
	vpt 0 360 arc} bind def
/C6 {BL [] 0 setdash 2 copy moveto
	2 copy vpt 90 270 arc closepath fill
	vpt 0 360 arc closepath} bind def
/C7 {BL [] 0 setdash 2 copy moveto
	2 copy vpt 0 270 arc closepath fill
	vpt 0 360 arc closepath} bind def
/C8 {BL [] 0 setdash 2 copy moveto
	2 copy vpt 270 360 arc closepath fill
	vpt 0 360 arc closepath} bind def
/C9 {BL [] 0 setdash 2 copy moveto
	2 copy vpt 270 450 arc closepath fill
	vpt 0 360 arc closepath} bind def
/C10 {BL [] 0 setdash 2 copy 2 copy moveto vpt 270 360 arc closepath fill
	2 copy moveto
	2 copy vpt 90 180 arc closepath fill
	vpt 0 360 arc closepath} bind def
/C11 {BL [] 0 setdash 2 copy moveto
	2 copy vpt 0 180 arc closepath fill
	2 copy moveto
	2 copy vpt 270 360 arc closepath fill
	vpt 0 360 arc closepath} bind def
/C12 {BL [] 0 setdash 2 copy moveto
	2 copy vpt 180 360 arc closepath fill
	vpt 0 360 arc closepath} bind def
/C13 {BL [] 0 setdash 2 copy moveto
	2 copy vpt 0 90 arc closepath fill
	2 copy moveto
	2 copy vpt 180 360 arc closepath fill
	vpt 0 360 arc closepath} bind def
/C14 {BL [] 0 setdash 2 copy moveto
	2 copy vpt 90 360 arc closepath fill
	vpt 0 360 arc} bind def
/C15 {BL [] 0 setdash 2 copy vpt 0 360 arc closepath fill
	vpt 0 360 arc closepath} bind def
/Rec {newpath 4 2 roll moveto 1 index 0 rlineto 0 exch rlineto
	neg 0 rlineto closepath} bind def
/Square {dup Rec} bind def
/Bsquare {vpt sub exch vpt sub exch vpt2 Square} bind def
/S0 {BL [] 0 setdash 2 copy moveto 0 vpt rlineto BL Bsquare} bind def
/S1 {BL [] 0 setdash 2 copy vpt Square fill Bsquare} bind def
/S2 {BL [] 0 setdash 2 copy exch vpt sub exch vpt Square fill Bsquare} bind def
/S3 {BL [] 0 setdash 2 copy exch vpt sub exch vpt2 vpt Rec fill Bsquare} bind def
/S4 {BL [] 0 setdash 2 copy exch vpt sub exch vpt sub vpt Square fill Bsquare} bind def
/S5 {BL [] 0 setdash 2 copy 2 copy vpt Square fill
	exch vpt sub exch vpt sub vpt Square fill Bsquare} bind def
/S6 {BL [] 0 setdash 2 copy exch vpt sub exch vpt sub vpt vpt2 Rec fill Bsquare} bind def
/S7 {BL [] 0 setdash 2 copy exch vpt sub exch vpt sub vpt vpt2 Rec fill
	2 copy vpt Square fill Bsquare} bind def
/S8 {BL [] 0 setdash 2 copy vpt sub vpt Square fill Bsquare} bind def
/S9 {BL [] 0 setdash 2 copy vpt sub vpt vpt2 Rec fill Bsquare} bind def
/S10 {BL [] 0 setdash 2 copy vpt sub vpt Square fill 2 copy exch vpt sub exch vpt Square fill
	Bsquare} bind def
/S11 {BL [] 0 setdash 2 copy vpt sub vpt Square fill 2 copy exch vpt sub exch vpt2 vpt Rec fill
	Bsquare} bind def
/S12 {BL [] 0 setdash 2 copy exch vpt sub exch vpt sub vpt2 vpt Rec fill Bsquare} bind def
/S13 {BL [] 0 setdash 2 copy exch vpt sub exch vpt sub vpt2 vpt Rec fill
	2 copy vpt Square fill Bsquare} bind def
/S14 {BL [] 0 setdash 2 copy exch vpt sub exch vpt sub vpt2 vpt Rec fill
	2 copy exch vpt sub exch vpt Square fill Bsquare} bind def
/S15 {BL [] 0 setdash 2 copy Bsquare fill Bsquare} bind def
/D0 {gsave translate 45 rotate 0 0 S0 stroke grestore} bind def
/D1 {gsave translate 45 rotate 0 0 S1 stroke grestore} bind def
/D2 {gsave translate 45 rotate 0 0 S2 stroke grestore} bind def
/D3 {gsave translate 45 rotate 0 0 S3 stroke grestore} bind def
/D4 {gsave translate 45 rotate 0 0 S4 stroke grestore} bind def
/D5 {gsave translate 45 rotate 0 0 S5 stroke grestore} bind def
/D6 {gsave translate 45 rotate 0 0 S6 stroke grestore} bind def
/D7 {gsave translate 45 rotate 0 0 S7 stroke grestore} bind def
/D8 {gsave translate 45 rotate 0 0 S8 stroke grestore} bind def
/D9 {gsave translate 45 rotate 0 0 S9 stroke grestore} bind def
/D10 {gsave translate 45 rotate 0 0 S10 stroke grestore} bind def
/D11 {gsave translate 45 rotate 0 0 S11 stroke grestore} bind def
/D12 {gsave translate 45 rotate 0 0 S12 stroke grestore} bind def
/D13 {gsave translate 45 rotate 0 0 S13 stroke grestore} bind def
/D14 {gsave translate 45 rotate 0 0 S14 stroke grestore} bind def
/D15 {gsave translate 45 rotate 0 0 S15 stroke grestore} bind def
/DiaE {stroke [] 0 setdash vpt add M
  hpt neg vpt neg V hpt vpt neg V
  hpt vpt V hpt neg vpt V closepath stroke} def
/BoxE {stroke [] 0 setdash exch hpt sub exch vpt add M
  0 vpt2 neg V hpt2 0 V 0 vpt2 V
  hpt2 neg 0 V closepath stroke} def
/TriUE {stroke [] 0 setdash vpt 1.12 mul add M
  hpt neg vpt -1.62 mul V
  hpt 2 mul 0 V
  hpt neg vpt 1.62 mul V closepath stroke} def
/TriDE {stroke [] 0 setdash vpt 1.12 mul sub M
  hpt neg vpt 1.62 mul V
  hpt 2 mul 0 V
  hpt neg vpt -1.62 mul V closepath stroke} def
/PentE {stroke [] 0 setdash gsave
  translate 0 hpt M 4 {72 rotate 0 hpt L} repeat
  closepath stroke grestore} def
/CircE {stroke [] 0 setdash 
  hpt 0 360 arc stroke} def
/Opaque {gsave closepath 1 setgray fill grestore 0 setgray closepath} def
/DiaW {stroke [] 0 setdash vpt add M
  hpt neg vpt neg V hpt vpt neg V
  hpt vpt V hpt neg vpt V Opaque stroke} def
/BoxW {stroke [] 0 setdash exch hpt sub exch vpt add M
  0 vpt2 neg V hpt2 0 V 0 vpt2 V
  hpt2 neg 0 V Opaque stroke} def
/TriUW {stroke [] 0 setdash vpt 1.12 mul add M
  hpt neg vpt -1.62 mul V
  hpt 2 mul 0 V
  hpt neg vpt 1.62 mul V Opaque stroke} def
/TriDW {stroke [] 0 setdash vpt 1.12 mul sub M
  hpt neg vpt 1.62 mul V
  hpt 2 mul 0 V
  hpt neg vpt -1.62 mul V Opaque stroke} def
/PentW {stroke [] 0 setdash gsave
  translate 0 hpt M 4 {72 rotate 0 hpt L} repeat
  Opaque stroke grestore} def
/CircW {stroke [] 0 setdash 
  hpt 0 360 arc Opaque stroke} def
/BoxFill {gsave Rec 1 setgray fill grestore} def
/Density {
  /Fillden exch def
  currentrgbcolor
  /ColB exch def /ColG exch def /ColR exch def
  /ColR ColR Fillden mul Fillden sub 1 add def
  /ColG ColG Fillden mul Fillden sub 1 add def
  /ColB ColB Fillden mul Fillden sub 1 add def
  ColR ColG ColB setrgbcolor} def
/BoxColFill {gsave Rec PolyFill} def
/PolyFill {gsave Density fill grestore grestore} def
/h {rlineto rlineto rlineto gsave closepath fill grestore} bind def
%
% PostScript Level 1 Pattern Fill routine for rectangles
% Usage: x y w h s a XX PatternFill
%	x,y = lower left corner of box to be filled
%	w,h = width and height of box
%	  a = angle in degrees between lines and x-axis
%	 XX = 0/1 for no/yes cross-hatch
%
/PatternFill {gsave /PFa [ 9 2 roll ] def
  PFa 0 get PFa 2 get 2 div add PFa 1 get PFa 3 get 2 div add translate
  PFa 2 get -2 div PFa 3 get -2 div PFa 2 get PFa 3 get Rec
  TransparentPatterns {} {gsave 1 setgray fill grestore} ifelse
  clip
  currentlinewidth 0.5 mul setlinewidth
  /PFs PFa 2 get dup mul PFa 3 get dup mul add sqrt def
  0 0 M PFa 5 get rotate PFs -2 div dup translate
  0 1 PFs PFa 4 get div 1 add floor cvi
	{PFa 4 get mul 0 M 0 PFs V} for
  0 PFa 6 get ne {
	0 1 PFs PFa 4 get div 1 add floor cvi
	{PFa 4 get mul 0 2 1 roll M PFs 0 V} for
 } if
  stroke grestore} def
%
/languagelevel where
 {pop languagelevel} {1} ifelse
 2 lt
	{/InterpretLevel1 true def}
	{/InterpretLevel1 Level1 def}
 ifelse
%
% PostScript level 2 pattern fill definitions
%
/Level2PatternFill {
/Tile8x8 {/PaintType 2 /PatternType 1 /TilingType 1 /BBox [0 0 8 8] /XStep 8 /YStep 8}
	bind def
/KeepColor {currentrgbcolor [/Pattern /DeviceRGB] setcolorspace} bind def
<< Tile8x8
 /PaintProc {0.5 setlinewidth pop 0 0 M 8 8 L 0 8 M 8 0 L stroke} 
>> matrix makepattern
/Pat1 exch def
<< Tile8x8
 /PaintProc {0.5 setlinewidth pop 0 0 M 8 8 L 0 8 M 8 0 L stroke
	0 4 M 4 8 L 8 4 L 4 0 L 0 4 L stroke}
>> matrix makepattern
/Pat2 exch def
<< Tile8x8
 /PaintProc {0.5 setlinewidth pop 0 0 M 0 8 L
	8 8 L 8 0 L 0 0 L fill}
>> matrix makepattern
/Pat3 exch def
<< Tile8x8
 /PaintProc {0.5 setlinewidth pop -4 8 M 8 -4 L
	0 12 M 12 0 L stroke}
>> matrix makepattern
/Pat4 exch def
<< Tile8x8
 /PaintProc {0.5 setlinewidth pop -4 0 M 8 12 L
	0 -4 M 12 8 L stroke}
>> matrix makepattern
/Pat5 exch def
<< Tile8x8
 /PaintProc {0.5 setlinewidth pop -2 8 M 4 -4 L
	0 12 M 8 -4 L 4 12 M 10 0 L stroke}
>> matrix makepattern
/Pat6 exch def
<< Tile8x8
 /PaintProc {0.5 setlinewidth pop -2 0 M 4 12 L
	0 -4 M 8 12 L 4 -4 M 10 8 L stroke}
>> matrix makepattern
/Pat7 exch def
<< Tile8x8
 /PaintProc {0.5 setlinewidth pop 8 -2 M -4 4 L
	12 0 M -4 8 L 12 4 M 0 10 L stroke}
>> matrix makepattern
/Pat8 exch def
<< Tile8x8
 /PaintProc {0.5 setlinewidth pop 0 -2 M 12 4 L
	-4 0 M 12 8 L -4 4 M 8 10 L stroke}
>> matrix makepattern
/Pat9 exch def
/Pattern1 {PatternBgnd KeepColor Pat1 setpattern} bind def
/Pattern2 {PatternBgnd KeepColor Pat2 setpattern} bind def
/Pattern3 {PatternBgnd KeepColor Pat3 setpattern} bind def
/Pattern4 {PatternBgnd KeepColor Landscape {Pat5} {Pat4} ifelse setpattern} bind def
/Pattern5 {PatternBgnd KeepColor Landscape {Pat4} {Pat5} ifelse setpattern} bind def
/Pattern6 {PatternBgnd KeepColor Landscape {Pat9} {Pat6} ifelse setpattern} bind def
/Pattern7 {PatternBgnd KeepColor Landscape {Pat8} {Pat7} ifelse setpattern} bind def
} def
%
%
%End of PostScript Level 2 code
%
/PatternBgnd {
  TransparentPatterns {} {gsave 1 setgray fill grestore} ifelse
} def
%
% Substitute for Level 2 pattern fill codes with
% grayscale if Level 2 support is not selected.
%
/Level1PatternFill {
/Pattern1 {0.250 Density} bind def
/Pattern2 {0.500 Density} bind def
/Pattern3 {0.750 Density} bind def
/Pattern4 {0.125 Density} bind def
/Pattern5 {0.375 Density} bind def
/Pattern6 {0.625 Density} bind def
/Pattern7 {0.875 Density} bind def
} def
%
% Now test for support of Level 2 code
%
Level1 {Level1PatternFill} {Level2PatternFill} ifelse
%
/Symbol-Oblique /Symbol findfont [1 0 .167 1 0 0] makefont
dup length dict begin {1 index /FID eq {pop pop} {def} ifelse} forall
currentdict end definefont pop
/MFshow {
   { dup 5 get 3 ge
     { 5 get 3 eq {gsave} {grestore} ifelse }
     {dup dup 0 get findfont exch 1 get scalefont setfont
     [ currentpoint ] exch dup 2 get 0 exch R dup 5 get 2 ne {dup dup 6
     get exch 4 get {Gshow} {stringwidth pop 0 R} ifelse }if dup 5 get 0 eq
     {dup 3 get {2 get neg 0 exch R pop} {pop aload pop M} ifelse} {dup 5
     get 1 eq {dup 2 get exch dup 3 get exch 6 get stringwidth pop -2 div
     dup 0 R} {dup 6 get stringwidth pop -2 div 0 R 6 get
     show 2 index {aload pop M neg 3 -1 roll neg R pop pop} {pop pop pop
     pop aload pop M} ifelse }ifelse }ifelse }
     ifelse }
   forall} def
/Gswidth {dup type /stringtype eq {stringwidth} {pop (n) stringwidth} ifelse} def
/MFwidth {0 exch { dup 5 get 3 ge { 5 get 3 eq { 0 } { pop } ifelse }
 {dup 3 get{dup dup 0 get findfont exch 1 get scalefont setfont
     6 get Gswidth pop add} {pop} ifelse} ifelse} forall} def
/MLshow { currentpoint stroke M
  0 exch R
  Blacktext {gsave 0 setgray MFshow grestore} {MFshow} ifelse } bind def
/MRshow { currentpoint stroke M
  exch dup MFwidth neg 3 -1 roll R
  Blacktext {gsave 0 setgray MFshow grestore} {MFshow} ifelse } bind def
/MCshow { currentpoint stroke M
  exch dup MFwidth -2 div 3 -1 roll R
  Blacktext {gsave 0 setgray MFshow grestore} {MFshow} ifelse } bind def
/XYsave    { [( ) 1 2 true false 3 ()] } bind def
/XYrestore { [( ) 1 2 true false 4 ()] } bind def
Level1 SuppressPDFMark or 
{} {
/SDict 10 dict def
systemdict /pdfmark known not {
  userdict /pdfmark systemdict /cleartomark get put
} if
SDict begin [
  /Title (gnuplot_polSpecGrepFai_39.8-41.2.eps)
  /Subject (gnuplot plot)
  /Creator (gnuplot 4.6 patchlevel 2)
  /Author (fmeot)
%  /Producer (gnuplot)
%  /Keywords ()
  /CreationDate (Thu Oct 18 16:25:57 2018)
  /DOCINFO pdfmark
end
} ifelse
end
%%EndProlog
%%Page: 1 1
gnudict begin
gsave
doclip
50 50 translate
0.050 0.050 scale
0 setgray
newpath
(Times-Roman) findfont 120 scalefont setfont
BackgroundColor 0 lt 3 1 roll 0 lt exch 0 lt or or not {BackgroundColor C 1.000 0 0 7200.00 5040.00 BoxColFill} if
756 624 M
[ [(roman) 180.0 0.0 true true 0 (-1)]
] -60.0 MRshow
756 1603 M
[ [(roman) 180.0 0.0 true true 0 (-0.5)]
] -60.0 MRshow
756 2582 M
[ [(roman) 180.0 0.0 true true 0 ( 0)]
] -60.0 MRshow
756 3561 M
[ [(roman) 180.0 0.0 true true 0 ( 0.5)]
] -60.0 MRshow
1.000 UL
LTb
LCb setrgbcolor
1.000 UL
LTa
LCa setrgbcolor
828 4539 M
5975 0 V
stroke
LTb
LCb setrgbcolor
828 4539 M
63 0 V
stroke
756 4539 M
[ [(roman) 180.0 0.0 true true 0 ( 1)]
] -60.0 MRshow
828 504 M
[ [(roman) 160.0 0.0 true true 0 ( )]
] -53.3 MCshow
1.000 UL
LTb
LCb setrgbcolor
1.000 UL
LTa
LCa setrgbcolor
1824 624 M
0 3935 V
stroke
LTb
LCb setrgbcolor
1824 624 M
0 63 V
0 3872 R
0 -63 V
stroke
1824 504 M
[ [(roman) 199.0 0.0 true true 0 ( 40)]
] -53.3 MCshow
2820 504 M
[ [(roman) 160.0 0.0 true true 0 ( )]
] -53.3 MCshow
1.000 UL
LTb
3816 504 M
[ [(roman) 160.0 0.0 true true 0 ( )]
] -53.3 MCshow
1.000 UL
LTb
4811 504 M
[ [(roman) 160.0 0.0 true true 0 ( )]
] -53.3 MCshow
1.000 UL
LTb
5807 504 M
[ [(roman) 160.0 0.0 true true 0 ( )]
] -53.3 MCshow
1.000 UL
LTb
stroke
6803 504 M
[ [(roman) 199.0 0.0 true true 0 ( 41)]
] -53.3 MCshow
1.000 UL
LTb
LCb setrgbcolor
1.000 UL
LTb
LCb setrgbcolor
828 4559 N
828 624 L
5975 0 V
0 3935 V
-5975 0 V
Z stroke
LCb setrgbcolor
156 2561 M
currentpoint gsave translate -270 rotate 0 0 moveto
[ [(roman) 280.0 0.0 true true 0 (S)]
[(roman) 228.0 -78.0 true true 0 (y)]
[(roman) 260.0 0.0 true true 0 ( )]
] -60.7 MCshow
grestore
356 2591 M
currentpoint gsave translate -270 rotate 0 0 moveto
[ [(roman) 260.0 0.0 true true 0 ( )]
] -86.7 MCshow
grestore
LTb
LCb setrgbcolor
6922 2591 M
currentpoint gsave translate -270 rotate 0 0 moveto
[ [(Symbol) 220.0 0.0 true true 0 ()]
[(Symbol) 176.0 -66.0 true true 0 ()]
[(roman) 220.0 0.0 true true 0 ()]
[(roman) 176.0 -66.0 true true 0 ()]
] -51.3 MCshow
grestore
LTb
LCb setrgbcolor
3815 264 M
[ [(roman) 370.0 0.0 true true 0 (a)]
[(Symbol) 370.0 0.0 true true 0 (g)]
[(roman) 308.0 -78.0 true true 0 (ref)]
] -60.7 MCshow
LTb
3815 4910 M
[ [(roman) 290.0 0.0 true true 0 ( )]
] -53.3 MCshow
3815 4659 M
[ [(roman) 290.0 0.0 true true 0 ( )]
[(roman) 128.0 -48.0 true true 0 ( )]
[(roman) 160.0 0.0 true true 0 ( )]
[(roman) 128.0 -48.0 true true 0 ( )]
[(roman) 160.0 0.0 true true 0 ( )]
] -37.3 MCshow
1.000 UP
1.000 UL
LTb
LCb setrgbcolor
% Begin plot #1
0.000 UP
1.900 UL
LT0
0.00 0.00 1.00 C LCb setrgbcolor
5380 923 M
[ [(roman) 230.0 0.0 true true 0 (        900 damping times)]
] -66.7 MRshow
LT0
0.00 0.00 1.00 C 5552 923 M
351 0 V
831 4510 M
4 -5 V
3 14 V
4 19 V
3 1 V
3 -15 V
4 -44 V
3 59 V
4 -2 V
3 -9 V
3 -118 V
4 14 V
3 -29 V
4 126 V
3 -29 V
3 -229 V
4 274 V
3 2 V
4 -174 V
3 149 V
4 -110 V
3 114 V
3 14 V
4 -41 V
3 19 V
4 -2 V
3 -18 V
3 0 V
4 48 V
7 -84 V
3 34 V
3 -34 V
4 -272 V
3 -128 V
4 -38 V
3 440 V
3 72 V
4 -151 V
3 -85 V
4 216 V
3 17 V
3 11 V
4 -7 V
3 -48 V
4 -129 V
6 179 V
4 -5 V
3 7 V
4 -225 V
3 90 V
3 -41 V
7 67 V
4 93 V
3 -7 V
4 27 V
3 -52 V
3 31 V
4 -4 V
3 11 V
7 -124 V
3 120 V
4 -30 V
3 13 V
4 -56 V
3 9 V
3 -4 V
4 40 V
3 -210 V
4 217 V
3 -49 V
7 -21 V
3 37 V
4 -149 V
3 189 V
3 -121 V
4 -9 V
3 -44 V
4 39 V
3 -3692 V
3 3756 V
4 -629 V
7 -2346 V
3 246 V
3 2730 V
4 -2824 V
3 2781 V
4 7 V
3 -246 V
4 -557 V
3 407 V
3 194 V
7 25 V
4 316 V
3 -142 V
3 -168 V
4 -170 V
3 384 V
4 -475 V
3 -132 V
3 -94 V
4 -1995 V
3 2609 V
7 -771 V
stroke 1206 3584 M
3 -160 V
4 282 V
3 750 V
4 -124 V
3 56 V
3 -451 V
4 -58 V
3 440 V
4 -41 V
3 -506 V
3 23 V
4 213 V
3 -295 V
4 -17 V
3 350 V
3 469 V
4 -258 V
3 -1322 V
4 1391 V
3 -579 V
4 643 V
3 -93 V
3 -161 V
4 -950 V
3 1252 V
4 -123 V
3 -200 V
3 -57 V
4 464 V
3 -829 V
4 538 V
3 -582 V
3 -339 V
4 256 V
3 7 V
4 12 V
3 627 V
7 285 V
3 -1457 V
4 42 V
3 -2026 V
3 2958 V
4 -2494 V
3 2004 V
4 -1686 V
3 -407 V
3 2843 V
4 -3469 V
3 3537 V
4 -1590 V
3 -965 V
3 1394 V
4 -1992 V
7 -355 V
3 2511 V
4 -628 V
3 -932 V
3 1507 V
4 1031 V
3 -507 V
4 -1275 V
3 86 V
3 579 V
4 1123 V
3 -3559 V
4 3180 V
6 -1856 V
4 295 V
3 -1569 V
4 746 V
3 1778 V
3 -1128 V
4 1597 V
3 308 V
4 396 V
3 -198 V
3 -890 V
4 38 V
3 936 V
7 -2450 V
3 948 V
4 -1422 V
3 794 V
4 1557 V
3 -342 V
7 232 V
3 -214 V
4 583 V
3 -1869 V
4 -828 V
3 647 V
3 2342 V
4 -952 V
7 -900 V
3 206 V
7 -1081 V
3 1571 V
4 -2427 V
3 2034 V
3 1311 V
4 -1334 V
3 1049 V
4 -3118 V
3 41 V
stroke 1584 781 M
3 1593 V
4 -750 V
3 2306 V
4 -1465 V
3 530 V
3 -1256 V
4 635 V
3 1879 V
4 -541 V
3 760 V
3 -703 V
4 286 V
3 -2906 V
4 -373 V
3 2351 V
7 -1639 V
3 -807 V
4 2789 V
3 -352 V
4 -1780 V
3 2017 V
3 -2457 V
4 3097 V
3 244 V
4 -3403 V
3 488 V
3 3198 V
14 -2524 V
3 1446 V
7 -1011 V
4 -985 V
3 -323 V
3 3313 V
4 80 V
3 -3312 V
4 -196 V
3 -229 V
7 1593 V
3 2108 V
4 -2195 V
3 408 V
3 -864 V
7 -1151 V
4 2533 V
3 656 V
3 655 V
4 -2418 V
3 -1116 V
4 84 V
3 2430 V
4 909 V
3 -3660 V
3 638 V
4 2878 V
3 -3452 V
4 575 V
3 2520 V
3 -532 V
4 -2640 V
3 670 V
4 -777 V
3 3629 V
7 -1675 V
3 1608 V
4 -2688 V
3 2742 V
3 -2723 V
4 1125 V
3 -1975 V
4 3007 V
3 -701 V
3 -1963 V
4 -143 V
3 1706 V
4 342 V
3 884 V
3 -1553 V
4 1543 V
3 -72 V
4 -1782 V
3 -1286 V
3 3068 V
4 571 V
3 -2689 V
4 1446 V
3 566 V
4 -2234 V
3 160 V
7 1234 V
3 596 V
4 -2407 V
3 1239 V
3 762 V
4 -471 V
3 -428 V
4 -442 V
3 2792 V
3 -444 V
7 -1584 V
4 -720 V
3 2540 V
3 43 V
4 -373 V
3 -2118 V
stroke 1972 1765 M
4 1356 V
3 -1318 V
3 -294 V
4 1436 V
3 -1018 V
4 456 V
3 -484 V
3 1486 V
4 290 V
3 -1935 V
4 -809 V
3 1974 V
3 -130 V
4 -253 V
3 414 V
4 -683 V
3 -467 V
4 2721 V
3 -664 V
3 -1076 V
4 -901 V
3 -1175 V
4 672 V
3 1337 V
3 1332 V
4 -1275 V
7 -193 V
6 -773 V
4 -583 V
3 1369 V
4 46 V
3 -980 V
3 2063 V
4 742 V
3 -819 V
4 451 V
3 -179 V
3 -2441 V
4 2470 V
3 359 V
4 -3358 V
3 293 V
3 -460 V
4 -77 V
3 2776 V
4 -88 V
3 642 V
3 -3358 V
4 1234 V
3 660 V
4 1049 V
3 -1046 V
4 1792 V
3 -1785 V
3 1468 V
4 -1562 V
3 240 V
4 -307 V
3 1012 V
7 1123 V
3 -3684 V
4 1457 V
3 -1173 V
3 412 V
4 132 V
3 1073 V
4 -413 V
3 -1287 V
3 439 V
4 449 V
3 2467 V
4 -1213 V
3 -2051 V
3 1765 V
4 1001 V
3 -330 V
4 562 V
3 -1356 V
3 -1609 V
4 2560 V
3 -2150 V
4 1706 V
3 -303 V
3 -756 V
4 1455 V
3 -1690 V
4 97 V
3 313 V
4 -1268 V
3 -453 V
3 1150 V
7 -1183 V
4 3785 V
3 -167 V
3 -1397 V
4 207 V
3 1260 V
4 -101 V
3 -1974 V
3 -1558 V
4 1593 V
3 1321 V
4 -1592 V
3 1438 V
stroke 2340 3471 M
3 806 V
4 -3403 V
3 2055 V
4 -2225 V
3 3476 V
3 -1314 V
4 -1561 V
7 859 V
3 -430 V
3 440 V
4 1625 V
3 -872 V
4 -2248 V
3 3410 V
10 -807 V
4 -639 V
3 -1302 V
4 937 V
6 -782 V
4 130 V
3 -428 V
4 1003 V
3 -1491 V
3 1503 V
4 594 V
3 -1297 V
4 1464 V
3 -1948 V
3 1153 V
4 1372 V
3 596 V
4 -2421 V
3 2394 V
3 -3234 V
4 3134 V
3 -848 V
4 -91 V
3 80 V
3 -598 V
4 938 V
3 -2375 V
4 3211 V
3 -2311 V
3 1643 V
4 -630 V
3 -1956 V
7 973 V
3 244 V
4 400 V
7 997 V
3 -87 V
4 -2330 V
3 2156 V
3 -430 V
4 534 V
3 -1933 V
4 1558 V
3 -912 V
7 1816 V
3 147 V
7 -3217 V
3 1739 V
4 -1463 V
3 2640 V
4 -2773 V
3 -15 V
3 1856 V
4 -434 V
3 -672 V
4 -905 V
3 2687 V
3 -1517 V
4 1669 V
3 -2909 V
4 1141 V
3 -866 V
3 531 V
4 -281 V
3 1033 V
4 332 V
3 -1119 V
3 1830 V
4 -2300 V
3 2798 V
4 -2911 V
3 70 V
4 2681 V
3 -3043 V
3 646 V
4 3073 V
3 -1343 V
4 -410 V
3 109 V
7 -1798 V
3 3045 V
4 412 V
6 -3264 V
4 2172 V
3 -230 V
4 -1886 V
3 3131 V
3 -2298 V
4 -196 V
3 2446 V
stroke 2728 4407 M
4 -1189 V
3 -1454 V
3 383 V
4 -1301 V
3 2119 V
4 1233 V
3 -477 V
3 -24 V
4 -2430 V
7 29 V
3 1917 V
7 -262 V
3 -1341 V
4 670 V
3 1189 V
7 -1708 V
3 1215 V
4 1419 V
3 -1420 V
4 -77 V
3 507 V
3 -1831 V
4 1763 V
3 -1751 V
4 -176 V
6 2781 V
11 -489 V
3 -1507 V
3 812 V
4 -1738 V
3 1862 V
7 -507 V
3 247 V
4 804 V
3 -2143 V
4 -601 V
3 2107 V
3 1219 V
4 -921 V
7 -637 V
3 -1831 V
3 13 V
4 3007 V
3 -1894 V
4 1046 V
3 -1388 V
4 678 V
3 -1006 V
3 2585 V
4 -1535 V
7 -727 V
3 1215 V
3 1462 V
4 -1716 V
3 1092 V
4 -863 V
3 666 V
3 -1863 V
4 -750 V
3 2094 V
4 -1332 V
3 1323 V
3 -1179 V
4 2005 V
3 -551 V
4 832 V
3 -1106 V
3 -1601 V
4 1752 V
7 -1588 V
3 2140 V
3 -930 V
7 -2107 V
4 1858 V
3 -287 V
3 84 V
4 1101 V
3 -1733 V
4 535 V
3 329 V
4 672 V
3 -198 V
3 -1213 V
7 1497 V
4 584 V
6 -785 V
4 -1206 V
3 368 V
4 829 V
3 -543 V
3 1657 V
4 -2551 V
3 33 V
4 2579 V
3 -2092 V
3 -303 V
4 -272 V
3 1389 V
4 513 V
3 -2690 V
3 103 V
4 1057 V
3 1508 V
4 258 V
stroke 3127 3723 M
3 -2738 V
3 2157 V
4 -2160 V
3 2628 V
4 -1506 V
3 -1019 V
3 57 V
4 467 V
3 743 V
4 933 V
3 -392 V
4 -622 V
3 1195 V
3 -613 V
4 335 V
3 -1955 V
4 1202 V
3 815 V
7 -944 V
7 1733 V
3 121 V
3 -730 V
4 -738 V
3 367 V
4 -941 V
3 263 V
3 1133 V
4 -19 V
3 -410 V
7 -612 V
3 -734 V
4 -932 V
3 1778 V
4 -589 V
3 340 V
7 1974 V
3 -1151 V
4 511 V
3 -424 V
3 -1505 V
7 307 V
4 1860 V
3 -659 V
4 -1597 V
3 -208 V
3 1662 V
4 -527 V
3 -1366 V
4 1311 V
3 1758 V
3 -382 V
4 579 V
3 -2171 V
4 1183 V
3 -435 V
3 1022 V
11 -1558 V
3 1001 V
3 284 V
4 -2006 V
3 824 V
4 734 V
3 -671 V
3 1239 V
4 -2034 V
3 971 V
4 39 V
3 -1436 V
3 2421 V
7 -2101 V
4 687 V
6 -401 V
7 786 V
4 1133 V
3 -2513 V
4 714 V
3 1781 V
3 -2606 V
4 3138 V
3 -678 V
4 268 V
3 -2063 V
3 1183 V
4 -90 V
7 178 V
3 605 V
3 -2429 V
4 460 V
3 1233 V
4 211 V
3 -259 V
7 379 V
7 -551 V
3 961 V
3 -213 V
4 459 V
3 163 V
4 -1445 V
3 1077 V
3 -43 V
4 610 V
3 -1126 V
4 -140 V
3 899 V
stroke 3525 4153 M
3 -1006 V
4 -51 V
3 732 V
7 447 V
4 -1288 V
3 1152 V
10 282 V
4 -1418 V
3 766 V
3 547 V
4 147 V
3 -142 V
7 -396 V
3 263 V
4 103 V
3 181 V
4 -487 V
6 -741 V
4 867 V
3 -357 V
4 317 V
3 -472 V
3 -1233 V
7 245 V
4 698 V
3 736 V
3 -924 V
4 1369 V
7 -1406 V
3 -663 V
3 1669 V
4 191 V
7 -892 V
3 -194 V
4 -1019 V
3 -593 V
3 2227 V
4 572 V
3 -1287 V
7 518 V
3 494 V
4 -161 V
3 244 V
7 128 V
3 104 V
4 -279 V
3 -32 V
4 -136 V
3 233 V
3 -172 V
4 44 V
3 385 V
7 -315 V
3 199 V
4 169 V
3 -1 V
4 -104 V
3 -254 V
3 324 V
4 -172 V
7 198 V
3 -168 V
3 -767 V
4 866 V
3 -101 V
4 4 V
3 -47 V
3 176 V
4 20 V
7 -25 V
3 36 V
7 -115 V
3 -181 V
4 123 V
3 80 V
4 97 V
3 -41 V
7 -130 V
3 -253 V
4 -109 V
6 533 V
7 -379 V
4 357 V
3 -34 V
3 56 V
4 -58 V
3 81 V
4 -44 V
6 53 V
4 -103 V
3 -101 V
4 -191 V
3 -218 V
3 238 V
4 96 V
7 217 V
3 -400 V
3 390 V
4 -146 V
10 191 V
4 2 V
3 21 V
3 -9 V
4 -18 V
stroke 3951 4508 M
3 15 V
4 2 V
6 12 V
4 -49 V
7 46 V
3 -31 V
3 18 V
4 -11 V
3 11 V
7 -89 V
3 58 V
4 20 V
3 -13 V
4 6 V
3 16 V
3 10 V
4 -5 V
3 11 V
7 -172 V
7 173 V
3 -57 V
4 55 V
6 -1 V
7 4 V
4 -24 V
7 10 V
3 -52 V
3 68 V
7 -22 V
4 16 V
3 -65 V
7 53 V
3 -69 V
4 79 V
3 2 V
3 -6 V
4 5 V
3 -38 V
4 43 V
3 -109 V
3 79 V
4 14 V
3 13 V
4 4 V
3 -2 V
3 3 V
4 -88 V
3 67 V
4 16 V
3 -8 V
3 5 V
4 0 V
3 6 V
4 -3 V
3 -3 V
3 8 V
4 -2 V
3 -9 V
4 9 V
3 -2 V
4 -6 V
3 8 V
3 -37 V
4 34 V
3 -13 V
4 -4 V
3 9 V
3 4 V
4 8 V
3 -46 V
4 46 V
6 -3 V
4 -2 V
3 -55 V
4 59 V
6 -1 V
4 -9 V
3 8 V
4 -1 V
3 -56 V
3 53 V
4 -10 V
3 17 V
4 -9 V
3 -12 V
3 14 V
7 5 V
4 -5 V
3 3 V
3 5 V
4 -11 V
3 -23 V
7 31 V
4 -3 V
3 6 V
3 -5 V
4 -18 V
7 21 V
3 -8 V
3 7 V
4 3 V
3 -4 V
4 -2 V
3 4 V
stroke 4356 4537 M
3 -22 V
4 -2 V
3 -2 V
4 18 V
3 8 V
3 0 V
4 -2 V
3 -7 V
4 4 V
3 4 V
3 -3 V
7 -8 V
4 -28 V
3 37 V
3 5 V
4 -7 V
3 7 V
7 -10 V
3 7 V
4 2 V
3 -1 V
4 -3 V
3 -12 V
4 11 V
3 -1 V
3 4 V
4 -3 V
3 -2 V
4 4 V
3 4 V
3 -8 V
7 7 V
4 0 V
3 -9 V
3 -23 V
4 28 V
3 -6 V
4 11 V
3 -2 V
3 -14 V
4 16 V
3 -4 V
4 -6 V
3 2 V
3 6 V
4 -9 V
7 11 V
3 -1 V
7 -2 V
3 -13 V
4 13 V
3 3 V
3 -6 V
4 -7 V
7 13 V
3 0 V
4 -29 V
3 25 V
3 -4 V
4 6 V
3 2 V
4 -11 V
3 9 V
3 0 V
4 -3 V
3 4 V
4 -2 V
3 -19 V
3 21 V
4 1 V
3 -6 V
4 2 V
3 4 V
3 -2 V
4 -14 V
3 9 V
4 7 V
3 0 V
3 0 V
4 -19 V
3 18 V
4 -1 V
3 -1 V
3 -6 V
7 4 V
4 4 V
3 1 V
3 -6 V
4 4 V
3 1 V
4 -1 V
7 -1 V
3 -2 V
3 -4 V
4 8 V
7 0 V
3 -1 V
3 -2 V
4 -3 V
3 6 V
4 0 V
3 0 V
3 -4 V
4 3 V
stroke 4741 4537 M
3 0 V
4 -2 V
3 1 V
3 3 V
4 0 V
3 -6 V
4 4 V
3 2 V
3 -4 V
4 -2 V
3 0 V
4 -1 V
3 -2 V
7 6 V
3 -7 V
4 10 V
3 -5 V
3 3 V
4 0 V
3 -23 V
4 17 V
3 8 V
4 -4 V
3 3 V
3 0 V
4 -2 V
7 -11 V
3 12 V
3 1 V
4 -1 V
3 1 V
4 0 V
3 0 V
3 1 V
4 -3 V
3 3 V
4 0 V
3 -2 V
3 -4 V
4 5 V
3 1 V
4 -1 V
3 -6 V
3 2 V
4 2 V
3 3 V
4 -1 V
3 0 V
3 -4 V
4 4 V
3 -1 V
4 -11 V
3 5 V
3 8 V
4 0 V
3 -102 V
4 101 V
3 -5 V
4 6 V
3 -1 V
3 -6 V
4 1 V
3 -1 V
4 7 V
3 -2 V
3 -6 V
4 7 V
3 -3 V
4 -1 V
3 4 V
3 0 V
4 1 V
3 -1 V
4 -9 V
10 8 V
3 -3 V
4 4 V
3 -22 V
3 23 V
4 -1 V
3 0 V
7 -1 V
3 2 V
4 -2 V
3 -1 V
4 3 V
3 -1 V
3 -2 V
4 3 V
3 -1 V
4 -2 V
3 -1 V
4 0 V
3 3 V
3 -2 V
4 -6 V
3 5 V
4 1 V
3 2 V
3 -1 V
4 1 V
3 -1 V
4 2 V
6 -5 V
stroke 5115 4534 M
4 4 V
7 -2 V
3 3 V
3 -6 V
4 5 V
3 -10 V
4 11 V
3 -6 V
3 2 V
4 3 V
7 0 V
3 -11 V
3 11 V
4 0 V
3 -2 V
4 0 V
3 -5 V
3 3 V
4 -5 V
3 8 V
4 2 V
7 -6 V
3 5 V
3 0 V
4 1 V
3 -4 V
4 1 V
3 3 V
3 -3 V
4 1 V
3 -2 V
7 1 V
3 3 V
4 -2 V
3 -1 V
4 1 V
3 -1 V
3 2 V
4 0 V
3 -3 V
4 -5 V
3 6 V
3 -5 V
4 8 V
3 0 V
4 0 V
3 -5 V
3 2 V
4 3 V
3 0 V
4 -6 V
3 3 V
3 -4 V
4 6 V
3 -1 V
4 -2 V
3 -12 V
4 16 V
3 -3 V
3 -10 V
4 10 V
3 -2 V
4 -1 V
3 4 V
3 0 V
4 -9 V
3 5 V
4 3 V
3 3 V
7 -3 V
3 3 V
4 0 V
3 -3 V
3 -5 V
4 -13 V
3 21 V
4 -5 V
3 3 V
3 2 V
4 -7 V
3 3 V
7 2 V
3 2 V
4 -13 V
3 12 V
4 -12 V
6 13 V
7 -2 V
4 1 V
3 1 V
4 -8 V
3 4 V
3 4 V
4 -10 V
3 4 V
7 -2 V
3 1 V
4 5 V
3 -5 V
4 2 V
6 -7 V
4 -1 V
3 12 V
4 -11 V
stroke 5504 4527 M
3 -2 V
3 14 V
4 -3 V
10 3 V
3 -12 V
4 0 V
3 10 V
4 -8 V
3 -13 V
3 13 V
4 8 V
3 -11 V
4 3 V
3 -10 V
3 -1 V
4 17 V
3 1 V
4 -14 V
3 12 V
4 -47 V
3 20 V
3 13 V
7 1 V
7 12 V
3 4 V
4 -8 V
3 8 V
4 -47 V
3 48 V
3 -3 V
4 0 V
3 -18 V
4 21 V
3 -11 V
3 11 V
7 -14 V
7 15 V
3 -11 V
4 -2 V
3 9 V
4 -5 V
6 9 V
4 -1 V
3 -5 V
4 -28 V
3 6 V
3 14 V
4 13 V
3 -1 V
4 -26 V
3 22 V
4 0 V
3 -50 V
3 52 V
4 -51 V
3 -44 V
4 74 V
3 16 V
3 -1 V
11 -26 V
3 -224 V
3 133 V
7 75 V
4 -28 V
3 74 V
3 -1 V
4 -174 V
3 178 V
4 -80 V
3 83 V
3 -5 V
4 -24 V
3 -47 V
4 74 V
6 -52 V
7 16 V
4 -378 V
6 290 V
4 108 V
3 -4 V
4 19 V
3 -7 V
4 -8 V
3 8 V
3 -50 V
4 19 V
3 -1 V
4 -10 V
3 -125 V
3 159 V
4 -34 V
3 14 V
4 2 V
3 -182 V
10 138 V
4 56 V
3 -24 V
3 -1 V
7 -194 V
4 175 V
3 18 V
7 -69 V
3 9 V
4 85 V
stroke 5916 4514 M
3 -26 V
3 -231 V
4 -53 V
3 297 V
4 13 V
3 -252 V
3 38 V
4 173 V
3 -14 V
7 -724 V
4 750 V
3 -154 V
3 113 V
4 77 V
3 -11 V
7 -151 V
7 -1619 V
3 234 V
4 1389 V
3 -1508 V
3 -1094 V
4 1945 V
3 -456 V
4 969 V
6 -425 V
4 -2049 V
3 2322 V
7 63 V
3 -171 V
4 -187 V
3 -1441 V
4 -195 V
3 300 V
3 1777 V
4 -1253 V
3 1287 V
4 125 V
3 -106 V
3 -754 V
4 743 V
3 25 V
4 46 V
3 168 V
10 -126 V
4 -204 V
3 281 V
4 -667 V
3 235 V
7 496 V
3 -227 V
4 -44 V
10 251 V
10 -542 V
3 -293 V
4 553 V
3 -241 V
7 -251 V
7 206 V
3 277 V
4 -57 V
13 -248 V
4 291 V
3 -354 V
3 641 V
4 -226 V
3 -931 V
4 -2473 V
7 200 V
3 1139 V
6222 902 L
4 2108 V
3 1005 V
14 -152 V
3 395 V
3 -2366 V
4 636 V
3 -1274 V
4 -199 V
34 -80 V
10 2801 V
7 11 V
6 750 V
4 -547 V
3 107 V
11 342 V
6 -2698 V
14 935 V
3 1550 V
24 -622 V
4 -563 V
13 -427 V
14 1891 V
17 -2111 V
3 13 V
34 560 V
24 1380 V
31 -2273 V
13 -115 V
34 283 V
65 -866 V
7 1553 V
37 -1073 V
831 4510 BoxF
835 4505 BoxF
838 4519 BoxF
842 4538 BoxF
845 4539 BoxF
848 4524 BoxF
852 4480 BoxF
855 4539 BoxF
859 4537 BoxF
862 4528 BoxF
865 4410 BoxF
869 4424 BoxF
872 4395 BoxF
876 4521 BoxF
879 4492 BoxF
882 4263 BoxF
886 4537 BoxF
889 4539 BoxF
893 4365 BoxF
896 4514 BoxF
900 4404 BoxF
903 4518 BoxF
906 4532 BoxF
910 4491 BoxF
913 4510 BoxF
917 4508 BoxF
920 4490 BoxF
923 4490 BoxF
927 4538 BoxF
934 4454 BoxF
937 4488 BoxF
940 4454 BoxF
944 4182 BoxF
947 4054 BoxF
951 4016 BoxF
954 4456 BoxF
957 4528 BoxF
961 4377 BoxF
964 4292 BoxF
968 4508 BoxF
971 4525 BoxF
974 4536 BoxF
978 4529 BoxF
981 4481 BoxF
985 4352 BoxF
991 4531 BoxF
995 4526 BoxF
998 4533 BoxF
1002 4308 BoxF
1005 4398 BoxF
1008 4357 BoxF
1015 4424 BoxF
1019 4517 BoxF
1022 4510 BoxF
1026 4537 BoxF
1029 4485 BoxF
1032 4516 BoxF
1036 4512 BoxF
1039 4523 BoxF
1046 4399 BoxF
1049 4519 BoxF
1053 4489 BoxF
1056 4502 BoxF
1060 4446 BoxF
1063 4455 BoxF
1066 4451 BoxF
1070 4491 BoxF
1073 4281 BoxF
1077 4498 BoxF
1080 4449 BoxF
1087 4428 BoxF
1090 4465 BoxF
1094 4316 BoxF
1097 4505 BoxF
1100 4384 BoxF
1104 4375 BoxF
1107 4331 BoxF
1111 4370 BoxF
1114 678 BoxF
1117 4434 BoxF
1121 3805 BoxF
1128 1459 BoxF
1131 1705 BoxF
1134 4435 BoxF
1138 1611 BoxF
1141 4392 BoxF
1145 4399 BoxF
1148 4153 BoxF
1152 3596 BoxF
1155 4003 BoxF
1158 4197 BoxF
1165 4222 BoxF
1169 4538 BoxF
1172 4396 BoxF
1175 4228 BoxF
1179 4058 BoxF
1182 4442 BoxF
1186 3967 BoxF
1189 3835 BoxF
1192 3741 BoxF
1196 1746 BoxF
1199 4355 BoxF
1206 3584 BoxF
1209 3424 BoxF
1213 3706 BoxF
1216 4456 BoxF
1220 4332 BoxF
1223 4388 BoxF
1226 3937 BoxF
1230 3879 BoxF
1233 4319 BoxF
1237 4278 BoxF
1240 3772 BoxF
1243 3795 BoxF
1247 4008 BoxF
1250 3713 BoxF
1254 3696 BoxF
1257 4046 BoxF
1260 4515 BoxF
1264 4257 BoxF
1267 2935 BoxF
1271 4326 BoxF
1274 3747 BoxF
1278 4390 BoxF
1281 4297 BoxF
1284 4136 BoxF
1288 3186 BoxF
1291 4438 BoxF
1295 4315 BoxF
1298 4115 BoxF
1301 4058 BoxF
1305 4522 BoxF
1308 3693 BoxF
1312 4231 BoxF
1315 3649 BoxF
1318 3310 BoxF
1322 3566 BoxF
1325 3573 BoxF
1329 3585 BoxF
1332 4212 BoxF
1339 4497 BoxF
1342 3040 BoxF
1346 3082 BoxF
1349 1056 BoxF
1352 4014 BoxF
1356 1520 BoxF
1359 3524 BoxF
1363 1838 BoxF
1366 1431 BoxF
1369 4274 BoxF
1373 805 BoxF
1376 4342 BoxF
1380 2752 BoxF
1383 1787 BoxF
1386 3181 BoxF
1390 1189 BoxF
1397 834 BoxF
1400 3345 BoxF
1404 2717 BoxF
1407 1785 BoxF
1410 3292 BoxF
1414 4323 BoxF
1417 3816 BoxF
1421 2541 BoxF
1424 2627 BoxF
1427 3206 BoxF
1431 4329 BoxF
1434 770 BoxF
1438 3950 BoxF
1444 2094 BoxF
1448 2389 BoxF
1451 820 BoxF
1455 1566 BoxF
1458 3344 BoxF
1461 2216 BoxF
1465 3813 BoxF
1468 4121 BoxF
1472 4517 BoxF
1475 4319 BoxF
1478 3429 BoxF
1482 3467 BoxF
1485 4403 BoxF
1492 1953 BoxF
1495 2901 BoxF
1499 1479 BoxF
1502 2273 BoxF
1506 3830 BoxF
1509 3488 BoxF
1516 3720 BoxF
1519 3506 BoxF
1523 4089 BoxF
1526 2220 BoxF
1530 1392 BoxF
1533 2039 BoxF
1536 4381 BoxF
1540 3429 BoxF
1547 2529 BoxF
1550 2735 BoxF
1557 1654 BoxF
1560 3225 BoxF
1564 798 BoxF
1567 2832 BoxF
1570 4143 BoxF
1574 2809 BoxF
1577 3858 BoxF
1581 740 BoxF
1584 781 BoxF
1587 2374 BoxF
1591 1624 BoxF
1594 3930 BoxF
1598 2465 BoxF
1601 2995 BoxF
1604 1739 BoxF
1608 2374 BoxF
1611 4253 BoxF
1615 3712 BoxF
1618 4472 BoxF
1621 3769 BoxF
1625 4055 BoxF
1628 1149 BoxF
1632 776 BoxF
1635 3127 BoxF
1642 1488 BoxF
1645 681 BoxF
1649 3470 BoxF
1652 3118 BoxF
1656 1338 BoxF
1659 3355 BoxF
1662 898 BoxF
1666 3995 BoxF
1669 4239 BoxF
1673 836 BoxF
1676 1324 BoxF
1679 4522 BoxF
1693 1998 BoxF
1696 3444 BoxF
1703 2433 BoxF
1707 1448 BoxF
1710 1125 BoxF
1713 4438 BoxF
1717 4518 BoxF
1720 1206 BoxF
1724 1010 BoxF
1727 781 BoxF
1734 2374 BoxF
1737 4482 BoxF
1741 2287 BoxF
1744 2695 BoxF
1747 1831 BoxF
1754 680 BoxF
1758 3213 BoxF
1761 3869 BoxF
1764 4524 BoxF
1768 2106 BoxF
1771 990 BoxF
1775 1074 BoxF
1778 3504 BoxF
1782 4413 BoxF
1785 753 BoxF
1788 1391 BoxF
1792 4269 BoxF
1795 817 BoxF
1799 1392 BoxF
1802 3912 BoxF
1805 3380 BoxF
1809 740 BoxF
1812 1410 BoxF
1816 633 BoxF
1819 4262 BoxF
1826 2587 BoxF
1829 4195 BoxF
1833 1507 BoxF
1836 4249 BoxF
1839 1526 BoxF
1843 2651 BoxF
1846 676 BoxF
1850 3683 BoxF
1853 2982 BoxF
1856 1019 BoxF
1860 876 BoxF
1863 2582 BoxF
1867 2924 BoxF
1870 3808 BoxF
1873 2255 BoxF
1877 3798 BoxF
1880 3726 BoxF
1884 1944 BoxF
1887 658 BoxF
1890 3726 BoxF
1894 4297 BoxF
1897 1608 BoxF
1901 3054 BoxF
1904 3620 BoxF
1908 1386 BoxF
1911 1546 BoxF
1918 2780 BoxF
1921 3376 BoxF
1925 969 BoxF
1928 2208 BoxF
1931 2970 BoxF
1935 2499 BoxF
1938 2071 BoxF
1942 1629 BoxF
1945 4421 BoxF
1948 3977 BoxF
1955 2393 BoxF
1959 1673 BoxF
1962 4213 BoxF
1965 4256 BoxF
1969 3883 BoxF
1972 1765 BoxF
1976 3121 BoxF
1979 1803 BoxF
1982 1509 BoxF
1986 2945 BoxF
1989 1927 BoxF
1993 2383 BoxF
1996 1899 BoxF
1999 3385 BoxF
2003 3675 BoxF
2006 1740 BoxF
2010 931 BoxF
2013 2905 BoxF
2016 2775 BoxF
2020 2522 BoxF
2023 2936 BoxF
2027 2253 BoxF
2030 1786 BoxF
2034 4507 BoxF
2037 3843 BoxF
2040 2767 BoxF
2044 1866 BoxF
2047 691 BoxF
2051 1363 BoxF
2054 2700 BoxF
2057 4032 BoxF
2061 2757 BoxF
2068 2564 BoxF
2074 1791 BoxF
2078 1208 BoxF
2081 2577 BoxF
2085 2623 BoxF
2088 1643 BoxF
2091 3706 BoxF
2095 4448 BoxF
2098 3629 BoxF
2102 4080 BoxF
2105 3901 BoxF
2108 1460 BoxF
2112 3930 BoxF
2115 4289 BoxF
2119 931 BoxF
2122 1224 BoxF
2125 764 BoxF
2129 687 BoxF
2132 3463 BoxF
2136 3375 BoxF
2139 4017 BoxF
2142 659 BoxF
2146 1893 BoxF
2149 2553 BoxF
2153 3602 BoxF
2156 2556 BoxF
2160 4348 BoxF
2163 2563 BoxF
2166 4031 BoxF
2170 2469 BoxF
2173 2709 BoxF
2177 2402 BoxF
2180 3414 BoxF
2187 4537 BoxF
2190 853 BoxF
2194 2310 BoxF
2197 1137 BoxF
2200 1549 BoxF
2204 1681 BoxF
2207 2754 BoxF
2211 2341 BoxF
2214 1054 BoxF
2217 1493 BoxF
2221 1942 BoxF
2224 4409 BoxF
2228 3196 BoxF
2231 1145 BoxF
2234 2910 BoxF
2238 3911 BoxF
2241 3581 BoxF
2245 4143 BoxF
2248 2787 BoxF
2251 1178 BoxF
2255 3738 BoxF
2258 1588 BoxF
2262 3294 BoxF
2265 2991 BoxF
2268 2235 BoxF
2272 3690 BoxF
2275 2000 BoxF
2279 2097 BoxF
2282 2410 BoxF
2286 1142 BoxF
2289 689 BoxF
2292 1839 BoxF
2299 656 BoxF
2303 4441 BoxF
2306 4274 BoxF
2309 2877 BoxF
2313 3084 BoxF
2316 4344 BoxF
2320 4243 BoxF
2323 2269 BoxF
2326 711 BoxF
2330 2304 BoxF
2333 3625 BoxF
2337 2033 BoxF
2340 3471 BoxF
2343 4277 BoxF
2347 874 BoxF
2350 2929 BoxF
2354 704 BoxF
2357 4180 BoxF
2360 2866 BoxF
2364 1305 BoxF
2371 2164 BoxF
2374 1734 BoxF
2377 2174 BoxF
2381 3799 BoxF
2384 2927 BoxF
2388 679 BoxF
2391 4089 BoxF
2401 3282 BoxF
2405 2643 BoxF
2408 1341 BoxF
2412 2278 BoxF
2418 1496 BoxF
2422 1626 BoxF
2425 1198 BoxF
2429 2201 BoxF
2432 710 BoxF
2435 2213 BoxF
2439 2807 BoxF
2442 1510 BoxF
2446 2974 BoxF
2449 1026 BoxF
2452 2179 BoxF
2456 3551 BoxF
2459 4147 BoxF
2463 1726 BoxF
2466 4120 BoxF
2469 886 BoxF
2473 4020 BoxF
2476 3172 BoxF
2480 3081 BoxF
2483 3161 BoxF
2486 2563 BoxF
2490 3501 BoxF
2493 1126 BoxF
2497 4337 BoxF
2500 2026 BoxF
2503 3669 BoxF
2507 3039 BoxF
2510 1083 BoxF
2517 2056 BoxF
2520 2300 BoxF
2524 2700 BoxF
2531 3697 BoxF
2534 3610 BoxF
2538 1280 BoxF
2541 3436 BoxF
2544 3006 BoxF
2548 3540 BoxF
2551 1607 BoxF
2555 3165 BoxF
2558 2253 BoxF
2565 4069 BoxF
2568 4216 BoxF
2575 999 BoxF
2578 2738 BoxF
2582 1275 BoxF
2585 3915 BoxF
2589 1142 BoxF
2592 1127 BoxF
2595 2983 BoxF
2599 2549 BoxF
2602 1877 BoxF
2606 972 BoxF
2609 3659 BoxF
2612 2142 BoxF
2616 3811 BoxF
2619 902 BoxF
2623 2043 BoxF
2626 1177 BoxF
2629 1708 BoxF
2633 1427 BoxF
2636 2460 BoxF
2640 2792 BoxF
2643 1673 BoxF
2646 3503 BoxF
2650 1203 BoxF
2653 4001 BoxF
2657 1090 BoxF
2660 1160 BoxF
2664 3841 BoxF
2667 798 BoxF
2670 1444 BoxF
2674 4517 BoxF
2677 3174 BoxF
2681 2764 BoxF
2684 2873 BoxF
2691 1075 BoxF
2694 4120 BoxF
2698 4532 BoxF
2704 1268 BoxF
2708 3440 BoxF
2711 3210 BoxF
2715 1324 BoxF
2718 4455 BoxF
2721 2157 BoxF
2725 1961 BoxF
2728 4407 BoxF
2732 3218 BoxF
2735 1764 BoxF
2738 2147 BoxF
2742 846 BoxF
2745 2965 BoxF
2749 4198 BoxF
2752 3721 BoxF
2755 3697 BoxF
2759 1267 BoxF
2766 1296 BoxF
2769 3213 BoxF
2776 2951 BoxF
2779 1610 BoxF
2783 2280 BoxF
2786 3469 BoxF
2793 1761 BoxF
2796 2976 BoxF
2800 4395 BoxF
2803 2975 BoxF
2807 2898 BoxF
2810 3405 BoxF
2813 1574 BoxF
2817 3337 BoxF
2820 1586 BoxF
2824 1410 BoxF
2830 4191 BoxF
2841 3702 BoxF
2844 2195 BoxF
2847 3007 BoxF
2851 1269 BoxF
2854 3131 BoxF
2861 2624 BoxF
2864 2871 BoxF
2868 3675 BoxF
2871 1532 BoxF
2875 931 BoxF
2878 3038 BoxF
2881 4257 BoxF
2885 3336 BoxF
2892 2699 BoxF
2895 868 BoxF
2898 881 BoxF
2902 3888 BoxF
2905 1994 BoxF
2909 3040 BoxF
2912 1652 BoxF
2916 2330 BoxF
2919 1324 BoxF
2922 3909 BoxF
2926 2374 BoxF
2933 1647 BoxF
2936 2862 BoxF
2939 4324 BoxF
2943 2608 BoxF
2946 3700 BoxF
2950 2837 BoxF
2953 3503 BoxF
2956 1640 BoxF
2960 890 BoxF
2963 2984 BoxF
2967 1652 BoxF
2970 2975 BoxF
2973 1796 BoxF
2977 3801 BoxF
2980 3250 BoxF
2984 4082 BoxF
2987 2976 BoxF
2990 1375 BoxF
2994 3127 BoxF
3001 1539 BoxF
3004 3679 BoxF
3007 2749 BoxF
3014 642 BoxF
3018 2500 BoxF
3021 2213 BoxF
3024 2297 BoxF
3028 3398 BoxF
3031 1665 BoxF
3035 2200 BoxF
3038 2529 BoxF
3042 3201 BoxF
3045 3003 BoxF
3048 1790 BoxF
3055 3287 BoxF
3059 3871 BoxF
3065 3086 BoxF
3069 1880 BoxF
3072 2248 BoxF
3076 3077 BoxF
3079 2534 BoxF
3082 4191 BoxF
3086 1640 BoxF
3089 1673 BoxF
3093 4252 BoxF
3096 2160 BoxF
3099 1857 BoxF
3103 1585 BoxF
3106 2974 BoxF
3110 3487 BoxF
3113 797 BoxF
3116 900 BoxF
3120 1957 BoxF
3123 3465 BoxF
3127 3723 BoxF
3130 985 BoxF
3133 3142 BoxF
3137 982 BoxF
3140 3610 BoxF
3144 2104 BoxF
3147 1085 BoxF
3150 1142 BoxF
3154 1609 BoxF
3157 2352 BoxF
3161 3285 BoxF
3164 2893 BoxF
3168 2271 BoxF
3171 3466 BoxF
3174 2853 BoxF
3178 3188 BoxF
3181 1233 BoxF
3185 2435 BoxF
3188 3250 BoxF
3195 2306 BoxF
3202 4039 BoxF
3205 4160 BoxF
3208 3430 BoxF
3212 2692 BoxF
3215 3059 BoxF
3219 2118 BoxF
3222 2381 BoxF
3225 3514 BoxF
3229 3495 BoxF
3232 3085 BoxF
3239 2473 BoxF
3242 1739 BoxF
3246 807 BoxF
3249 2585 BoxF
3253 1996 BoxF
3256 2336 BoxF
3263 4310 BoxF
3266 3159 BoxF
3270 3670 BoxF
3273 3246 BoxF
3276 1741 BoxF
3283 2048 BoxF
3287 3908 BoxF
3290 3249 BoxF
3294 1652 BoxF
3297 1444 BoxF
3300 3106 BoxF
3304 2579 BoxF
3307 1213 BoxF
3311 2524 BoxF
3314 4282 BoxF
3317 3900 BoxF
3321 4479 BoxF
3324 2308 BoxF
3328 3491 BoxF
3331 3056 BoxF
3334 4078 BoxF
3345 2520 BoxF
3348 3521 BoxF
3351 3805 BoxF
3355 1799 BoxF
3358 2623 BoxF
3362 3357 BoxF
3365 2686 BoxF
3368 3925 BoxF
3372 1891 BoxF
3375 2862 BoxF
3379 2901 BoxF
3382 1465 BoxF
3385 3886 BoxF
3392 1785 BoxF
3396 2472 BoxF
3402 2071 BoxF
3409 2857 BoxF
3413 3990 BoxF
3416 1477 BoxF
3420 2191 BoxF
3423 3972 BoxF
3426 1366 BoxF
3430 4504 BoxF
3433 3826 BoxF
3437 4094 BoxF
3440 2031 BoxF
3443 3214 BoxF
3447 3124 BoxF
3454 3302 BoxF
3457 3907 BoxF
3460 1478 BoxF
3464 1938 BoxF
3467 3171 BoxF
3471 3382 BoxF
3474 3123 BoxF
3481 3502 BoxF
3488 2951 BoxF
3491 3912 BoxF
3494 3699 BoxF
3498 4158 BoxF
3501 4321 BoxF
3505 2876 BoxF
3508 3953 BoxF
3511 3910 BoxF
3515 4520 BoxF
3518 3394 BoxF
3522 3254 BoxF
3525 4153 BoxF
3528 3147 BoxF
3532 3096 BoxF
3535 3828 BoxF
3542 4275 BoxF
3546 2987 BoxF
3549 4139 BoxF
3559 4421 BoxF
3563 3003 BoxF
3566 3769 BoxF
3569 4316 BoxF
3573 4463 BoxF
3576 4321 BoxF
3583 3925 BoxF
3586 4188 BoxF
3590 4291 BoxF
3593 4472 BoxF
3597 3985 BoxF
3603 3244 BoxF
3607 4111 BoxF
3610 3754 BoxF
3614 4071 BoxF
3617 3599 BoxF
3620 2366 BoxF
3627 2611 BoxF
3631 3309 BoxF
3634 4045 BoxF
3637 3121 BoxF
3641 4490 BoxF
3648 3084 BoxF
3651 2421 BoxF
3654 4090 BoxF
3658 4281 BoxF
3665 3389 BoxF
3668 3195 BoxF
3672 2176 BoxF
3675 1583 BoxF
3678 3810 BoxF
3682 4382 BoxF
3685 3095 BoxF
3692 3613 BoxF
3695 4107 BoxF
3699 3946 BoxF
3702 4190 BoxF
3709 4318 BoxF
3712 4422 BoxF
3716 4143 BoxF
3719 4111 BoxF
3723 3975 BoxF
3726 4208 BoxF
3729 4036 BoxF
3733 4080 BoxF
3736 4465 BoxF
3743 4150 BoxF
3746 4349 BoxF
3750 4518 BoxF
3753 4517 BoxF
3757 4413 BoxF
3760 4159 BoxF
3763 4483 BoxF
3767 4311 BoxF
3774 4509 BoxF
3777 4341 BoxF
3780 3574 BoxF
3784 4440 BoxF
3787 4339 BoxF
3791 4343 BoxF
3794 4296 BoxF
3797 4472 BoxF
3801 4492 BoxF
3808 4467 BoxF
3811 4503 BoxF
3818 4388 BoxF
3821 4207 BoxF
3825 4330 BoxF
3828 4410 BoxF
3832 4507 BoxF
3835 4466 BoxF
3842 4336 BoxF
3845 4083 BoxF
3849 3974 BoxF
3855 4507 BoxF
3862 4128 BoxF
3866 4485 BoxF
3869 4451 BoxF
3872 4507 BoxF
3876 4449 BoxF
3879 4530 BoxF
3883 4486 BoxF
3889 4539 BoxF
3893 4436 BoxF
3896 4335 BoxF
3900 4144 BoxF
3903 3926 BoxF
3906 4164 BoxF
3910 4260 BoxF
3917 4477 BoxF
3920 4077 BoxF
3923 4467 BoxF
3927 4321 BoxF
3937 4512 BoxF
3941 4514 BoxF
3944 4535 BoxF
3947 4526 BoxF
3951 4508 BoxF
3954 4523 BoxF
3958 4525 BoxF
3964 4537 BoxF
3968 4488 BoxF
3975 4534 BoxF
3978 4503 BoxF
3981 4521 BoxF
3985 4510 BoxF
3988 4521 BoxF
3995 4432 BoxF
3998 4490 BoxF
4002 4510 BoxF
4005 4497 BoxF
4009 4503 BoxF
4012 4519 BoxF
4015 4529 BoxF
4019 4524 BoxF
4022 4535 BoxF
4029 4363 BoxF
4036 4536 BoxF
4039 4479 BoxF
4043 4534 BoxF
4049 4533 BoxF
4056 4537 BoxF
4060 4513 BoxF
4067 4523 BoxF
4070 4471 BoxF
4073 4539 BoxF
4080 4517 BoxF
4084 4533 BoxF
4087 4468 BoxF
4094 4521 BoxF
4097 4452 BoxF
4101 4531 BoxF
4104 4533 BoxF
4107 4527 BoxF
4111 4532 BoxF
4114 4494 BoxF
4118 4537 BoxF
4121 4428 BoxF
4124 4507 BoxF
4128 4521 BoxF
4131 4534 BoxF
4135 4538 BoxF
4138 4536 BoxF
4141 4539 BoxF
4145 4451 BoxF
4148 4518 BoxF
4152 4534 BoxF
4155 4526 BoxF
4158 4531 BoxF
4162 4531 BoxF
4165 4537 BoxF
4169 4534 BoxF
4172 4531 BoxF
4175 4539 BoxF
4179 4537 BoxF
4182 4528 BoxF
4186 4537 BoxF
4189 4535 BoxF
4193 4529 BoxF
4196 4537 BoxF
4199 4500 BoxF
4203 4534 BoxF
4206 4521 BoxF
4210 4517 BoxF
4213 4526 BoxF
4216 4530 BoxF
4220 4538 BoxF
4223 4492 BoxF
4227 4538 BoxF
4233 4535 BoxF
4237 4533 BoxF
4240 4478 BoxF
4244 4537 BoxF
4250 4536 BoxF
4254 4527 BoxF
4257 4535 BoxF
4261 4534 BoxF
4264 4478 BoxF
4267 4531 BoxF
4271 4521 BoxF
4274 4538 BoxF
4278 4529 BoxF
4281 4517 BoxF
4284 4531 BoxF
4291 4536 BoxF
4295 4531 BoxF
4298 4534 BoxF
4301 4539 BoxF
4305 4528 BoxF
4308 4505 BoxF
4315 4536 BoxF
4319 4533 BoxF
4322 4539 BoxF
4325 4534 BoxF
4329 4516 BoxF
4336 4537 BoxF
4339 4529 BoxF
4342 4536 BoxF
4346 4539 BoxF
4349 4535 BoxF
4353 4533 BoxF
4356 4537 BoxF
4359 4515 BoxF
4363 4513 BoxF
4366 4511 BoxF
4370 4529 BoxF
4373 4537 BoxF
4376 4537 BoxF
4380 4535 BoxF
4383 4528 BoxF
4387 4532 BoxF
4390 4536 BoxF
4393 4533 BoxF
4400 4525 BoxF
4404 4497 BoxF
4407 4534 BoxF
4410 4539 BoxF
4414 4532 BoxF
4417 4539 BoxF
4424 4529 BoxF
4427 4536 BoxF
4431 4538 BoxF
4434 4537 BoxF
4438 4534 BoxF
4441 4522 BoxF
4445 4533 BoxF
4448 4532 BoxF
4451 4536 BoxF
4455 4533 BoxF
4458 4531 BoxF
4462 4535 BoxF
4465 4539 BoxF
4468 4531 BoxF
4475 4538 BoxF
4479 4538 BoxF
4482 4529 BoxF
4485 4506 BoxF
4489 4534 BoxF
4492 4528 BoxF
4496 4539 BoxF
4499 4537 BoxF
4502 4523 BoxF
4506 4539 BoxF
4509 4535 BoxF
4513 4529 BoxF
4516 4531 BoxF
4519 4537 BoxF
4523 4528 BoxF
4530 4539 BoxF
4533 4538 BoxF
4540 4536 BoxF
4543 4523 BoxF
4547 4536 BoxF
4550 4539 BoxF
4553 4533 BoxF
4557 4526 BoxF
4564 4539 BoxF
4567 4539 BoxF
4571 4510 BoxF
4574 4535 BoxF
4577 4531 BoxF
4581 4537 BoxF
4584 4539 BoxF
4588 4528 BoxF
4591 4537 BoxF
4594 4537 BoxF
4598 4534 BoxF
4601 4538 BoxF
4605 4536 BoxF
4608 4517 BoxF
4611 4538 BoxF
4615 4539 BoxF
4618 4533 BoxF
4622 4535 BoxF
4625 4539 BoxF
4628 4537 BoxF
4632 4523 BoxF
4635 4532 BoxF
4639 4539 BoxF
4642 4539 BoxF
4645 4539 BoxF
4649 4520 BoxF
4652 4538 BoxF
4656 4537 BoxF
4659 4536 BoxF
4662 4530 BoxF
4669 4534 BoxF
4673 4538 BoxF
4676 4539 BoxF
4679 4533 BoxF
4683 4537 BoxF
4686 4538 BoxF
4690 4537 BoxF
4697 4536 BoxF
4700 4534 BoxF
4703 4530 BoxF
4707 4538 BoxF
4714 4538 BoxF
4717 4537 BoxF
4720 4535 BoxF
4724 4532 BoxF
4727 4538 BoxF
4731 4538 BoxF
4734 4538 BoxF
4737 4534 BoxF
4741 4537 BoxF
4744 4537 BoxF
4748 4535 BoxF
4751 4536 BoxF
4754 4539 BoxF
4758 4539 BoxF
4761 4533 BoxF
4765 4537 BoxF
4768 4539 BoxF
4771 4535 BoxF
4775 4533 BoxF
4778 4533 BoxF
4782 4532 BoxF
4785 4530 BoxF
4792 4536 BoxF
4795 4529 BoxF
4799 4539 BoxF
4802 4534 BoxF
4805 4537 BoxF
4809 4537 BoxF
4812 4514 BoxF
4816 4531 BoxF
4819 4539 BoxF
4823 4535 BoxF
4826 4538 BoxF
4829 4538 BoxF
4833 4536 BoxF
4840 4525 BoxF
4843 4537 BoxF
4846 4538 BoxF
4850 4537 BoxF
4853 4538 BoxF
4857 4538 BoxF
4860 4538 BoxF
4863 4539 BoxF
4867 4536 BoxF
4870 4539 BoxF
4874 4539 BoxF
4877 4537 BoxF
4880 4533 BoxF
4884 4538 BoxF
4887 4539 BoxF
4891 4538 BoxF
4894 4532 BoxF
4897 4534 BoxF
4901 4536 BoxF
4904 4539 BoxF
4908 4538 BoxF
4911 4538 BoxF
4914 4534 BoxF
4918 4538 BoxF
4921 4537 BoxF
4925 4526 BoxF
4928 4531 BoxF
4931 4539 BoxF
4935 4539 BoxF
4938 4437 BoxF
4942 4538 BoxF
4945 4533 BoxF
4949 4539 BoxF
4952 4538 BoxF
4955 4532 BoxF
4959 4533 BoxF
4962 4532 BoxF
4966 4539 BoxF
4969 4537 BoxF
4972 4531 BoxF
4976 4538 BoxF
4979 4535 BoxF
4983 4534 BoxF
4986 4538 BoxF
4989 4538 BoxF
4993 4539 BoxF
4996 4538 BoxF
5000 4529 BoxF
5010 4537 BoxF
5013 4534 BoxF
5017 4538 BoxF
5020 4516 BoxF
5023 4539 BoxF
5027 4538 BoxF
5030 4538 BoxF
5037 4537 BoxF
5040 4539 BoxF
5044 4537 BoxF
5047 4536 BoxF
5051 4539 BoxF
5054 4538 BoxF
5057 4536 BoxF
5061 4539 BoxF
5064 4538 BoxF
5068 4536 BoxF
5071 4535 BoxF
5075 4535 BoxF
5078 4538 BoxF
5081 4536 BoxF
5085 4530 BoxF
5088 4535 BoxF
5092 4536 BoxF
5095 4538 BoxF
5098 4537 BoxF
5102 4538 BoxF
5105 4537 BoxF
5109 4539 BoxF
5115 4534 BoxF
5119 4538 BoxF
5126 4536 BoxF
5129 4539 BoxF
5132 4533 BoxF
5136 4538 BoxF
5139 4528 BoxF
5143 4539 BoxF
5146 4533 BoxF
5149 4535 BoxF
5153 4538 BoxF
5160 4538 BoxF
5163 4527 BoxF
5166 4538 BoxF
5170 4538 BoxF
5173 4536 BoxF
5177 4536 BoxF
5180 4531 BoxF
5183 4534 BoxF
5187 4529 BoxF
5190 4537 BoxF
5194 4539 BoxF
5201 4533 BoxF
5204 4538 BoxF
5207 4538 BoxF
5211 4539 BoxF
5214 4535 BoxF
5218 4536 BoxF
5221 4539 BoxF
5224 4536 BoxF
5228 4537 BoxF
5231 4535 BoxF
5238 4536 BoxF
5241 4539 BoxF
5245 4537 BoxF
5248 4536 BoxF
5252 4537 BoxF
5255 4536 BoxF
5258 4538 BoxF
5262 4538 BoxF
5265 4535 BoxF
5269 4530 BoxF
5272 4536 BoxF
5275 4531 BoxF
5279 4539 BoxF
5282 4539 BoxF
5286 4539 BoxF
5289 4534 BoxF
5292 4536 BoxF
5296 4539 BoxF
5299 4539 BoxF
5303 4533 BoxF
5306 4536 BoxF
5309 4532 BoxF
5313 4538 BoxF
5316 4537 BoxF
5320 4535 BoxF
5323 4523 BoxF
5327 4539 BoxF
5330 4536 BoxF
5333 4526 BoxF
5337 4536 BoxF
5340 4534 BoxF
5344 4533 BoxF
5347 4537 BoxF
5350 4537 BoxF
5354 4528 BoxF
5357 4533 BoxF
5361 4536 BoxF
5364 4539 BoxF
5371 4536 BoxF
5374 4539 BoxF
5378 4539 BoxF
5381 4536 BoxF
5384 4531 BoxF
5388 4518 BoxF
5391 4539 BoxF
5395 4534 BoxF
5398 4537 BoxF
5401 4539 BoxF
5405 4532 BoxF
5408 4535 BoxF
5415 4537 BoxF
5418 4539 BoxF
5422 4526 BoxF
5425 4538 BoxF
5429 4526 BoxF
5435 4539 BoxF
5442 4537 BoxF
5446 4538 BoxF
5449 4539 BoxF
5453 4531 BoxF
5456 4535 BoxF
5459 4539 BoxF
5463 4529 BoxF
5466 4533 BoxF
5473 4531 BoxF
5476 4532 BoxF
5480 4537 BoxF
5483 4532 BoxF
5487 4534 BoxF
5493 4527 BoxF
5497 4526 BoxF
5500 4538 BoxF
5504 4527 BoxF
5507 4525 BoxF
5510 4539 BoxF
5514 4536 BoxF
5524 4539 BoxF
5527 4527 BoxF
5531 4527 BoxF
5534 4537 BoxF
5538 4529 BoxF
5541 4516 BoxF
5544 4529 BoxF
5548 4537 BoxF
5551 4526 BoxF
5555 4529 BoxF
5558 4519 BoxF
5561 4518 BoxF
5565 4535 BoxF
5568 4536 BoxF
5572 4522 BoxF
5575 4534 BoxF
5579 4487 BoxF
5582 4507 BoxF
5585 4520 BoxF
5592 4521 BoxF
5599 4533 BoxF
5602 4537 BoxF
5606 4529 BoxF
5609 4537 BoxF
5613 4490 BoxF
5616 4538 BoxF
5619 4535 BoxF
5623 4535 BoxF
5626 4517 BoxF
5630 4538 BoxF
5633 4527 BoxF
5636 4538 BoxF
5643 4524 BoxF
5650 4539 BoxF
5653 4528 BoxF
5657 4526 BoxF
5660 4535 BoxF
5664 4530 BoxF
5670 4539 BoxF
5674 4538 BoxF
5677 4533 BoxF
5681 4505 BoxF
5684 4511 BoxF
5687 4525 BoxF
5691 4538 BoxF
5694 4537 BoxF
5698 4511 BoxF
5701 4533 BoxF
5705 4533 BoxF
5708 4483 BoxF
5711 4535 BoxF
5715 4484 BoxF
5718 4440 BoxF
5722 4514 BoxF
5725 4530 BoxF
5728 4529 BoxF
5739 4503 BoxF
5742 4279 BoxF
5745 4412 BoxF
5752 4487 BoxF
5756 4459 BoxF
5759 4533 BoxF
5762 4532 BoxF
5766 4358 BoxF
5769 4536 BoxF
5773 4456 BoxF
5776 4539 BoxF
5779 4534 BoxF
5783 4510 BoxF
5786 4463 BoxF
5790 4537 BoxF
5796 4485 BoxF
5803 4501 BoxF
5807 4123 BoxF
5813 4413 BoxF
5817 4521 BoxF
5820 4517 BoxF
5824 4536 BoxF
5827 4529 BoxF
5831 4521 BoxF
5834 4529 BoxF
5837 4479 BoxF
5841 4498 BoxF
5844 4497 BoxF
5848 4487 BoxF
5851 4362 BoxF
5854 4521 BoxF
5858 4487 BoxF
5861 4501 BoxF
5865 4503 BoxF
5868 4321 BoxF
5878 4459 BoxF
5882 4515 BoxF
5885 4491 BoxF
5888 4490 BoxF
5895 4296 BoxF
5899 4471 BoxF
5902 4489 BoxF
5909 4420 BoxF
5912 4429 BoxF
5916 4514 BoxF
5919 4488 BoxF
5922 4257 BoxF
5926 4204 BoxF
5929 4501 BoxF
5933 4514 BoxF
5936 4262 BoxF
5939 4300 BoxF
5943 4473 BoxF
5946 4459 BoxF
5953 3735 BoxF
5957 4485 BoxF
5960 4331 BoxF
5963 4444 BoxF
5967 4521 BoxF
5970 4510 BoxF
5977 4359 BoxF
5984 2740 BoxF
5987 2974 BoxF
5991 4363 BoxF
5994 2855 BoxF
5997 1761 BoxF
6001 3706 BoxF
6004 3250 BoxF
6008 4219 BoxF
6014 3794 BoxF
6018 1745 BoxF
6021 4067 BoxF
6028 4130 BoxF
6031 3959 BoxF
6035 3772 BoxF
6038 2331 BoxF
6042 2136 BoxF
6045 2436 BoxF
6048 4213 BoxF
6052 2960 BoxF
6055 4247 BoxF
6059 4372 BoxF
6062 4266 BoxF
6065 3512 BoxF
6069 4255 BoxF
6072 4280 BoxF
6076 4326 BoxF
6079 4494 BoxF
6089 4368 BoxF
6093 4164 BoxF
6096 4445 BoxF
6100 3778 BoxF
6103 4013 BoxF
6110 4509 BoxF
6113 4282 BoxF
6117 4238 BoxF
6127 4489 BoxF
6137 3947 BoxF
6140 3654 BoxF
6144 4207 BoxF
6147 3966 BoxF
6154 3715 BoxF
6161 3921 BoxF
6164 4198 BoxF
6168 4141 BoxF
6181 3893 BoxF
6185 4184 BoxF
6188 3830 BoxF
6191 4471 BoxF
6195 4245 BoxF
6198 3314 BoxF
6202 841 BoxF
6209 1041 BoxF
6212 2180 BoxF
6222 902 BoxF
6226 3010 BoxF
6229 4015 BoxF
6243 3863 BoxF
6246 4258 BoxF
6249 1892 BoxF
6253 2528 BoxF
6256 1254 BoxF
6260 1055 BoxF
6294 975 BoxF
6304 3776 BoxF
6311 3787 BoxF
6317 4537 BoxF
6321 3990 BoxF
6324 4097 BoxF
6335 4439 BoxF
6341 1741 BoxF
6355 2676 BoxF
6358 4226 BoxF
6382 3604 BoxF
6386 3041 BoxF
6399 2614 BoxF
6413 4505 BoxF
6430 2394 BoxF
6433 2407 BoxF
6467 2967 BoxF
6491 4347 BoxF
6522 2074 BoxF
6535 1959 BoxF
6569 2242 BoxF
6634 1376 BoxF
6641 2929 BoxF
6678 1856 BoxF
4427 923 BoxF
% End plot #1
% Begin plot #2
0.000 UP
1.900 UL
LT0
1.00 0.00 0.00 C LCb setrgbcolor
5380 746 M
[ [(roman) 230.0 0.0 true true 0 (        80 damping times)]
] -66.7 MRshow
LT0
1.00 0.00 0.00 C 5552 766 M
351 0 V
831 4537 M
4 -2 V
3 -3 V
4 5 V
3 -2 V
3 2 V
4 -13 V
3 14 V
4 -6 V
3 7 V
3 -3 V
4 -2 V
3 4 V
4 1 V
3 -1 V
3 -26 V
4 25 V
3 2 V
4 -2 V
3 -15 V
4 -11 V
3 27 V
3 1 V
4 -23 V
3 23 V
4 -3 V
3 -1 V
3 1 V
4 1 V
3 2 V
4 -1 V
3 -6 V
3 7 V
4 -10 V
3 2 V
4 4 V
3 1 V
3 -62 V
4 52 V
3 -12 V
4 23 V
3 -6 V
3 3 V
4 5 V
3 -10 V
4 -7 V
3 17 V
3 0 V
4 -2 V
3 1 V
4 0 V
3 -54 V
3 54 V
7 -17 V
4 8 V
3 8 V
4 1 V
3 -9 V
3 -17 V
4 22 V
3 -28 V
4 30 V
3 0 V
3 3 V
4 0 V
3 0 V
4 -2 V
3 0 V
3 0 V
4 -2 V
3 -1 V
4 -23 V
3 24 V
3 -118 V
4 122 V
3 0 V
4 -1 V
3 -2 V
3 -89 V
4 84 V
3 -28 V
4 10 V
3 21 V
3 -459 V
4 322 V
3 76 V
4 -286 V
3 144 V
3 169 V
4 -127 V
3 39 V
4 118 V
3 6 V
4 -11 V
3 -50 V
3 2 V
4 -61 V
3 70 V
4 43 V
3 8 V
3 -5 V
4 -283 V
3 284 V
stroke 1182 4533 M
4 -9 V
3 -62 V
3 56 V
4 -453 V
3 -55 V
4 474 V
3 -73 V
3 -99 V
4 189 V
3 9 V
4 14 V
3 7 V
3 -16 V
4 -14 V
3 34 V
4 -98 V
3 101 V
3 -6 V
4 -65 V
3 -24 V
4 34 V
3 35 V
3 15 V
4 -22 V
3 -42 V
4 -51 V
3 -96 V
4 198 V
3 -71 V
3 77 V
4 -88 V
3 89 V
4 -38 V
3 42 V
3 -293 V
4 279 V
3 -57 V
4 66 V
3 -11 V
3 -90 V
4 100 V
3 -47 V
4 -1204 V
3 1048 V
3 -277 V
4 427 V
3 -801 V
4 749 V
3 -582 V
3 -534 V
4 855 V
3 -662 V
4 25 V
3 -1381 V
3 -607 V
4 3005 V
3 -767 V
4 658 V
3 43 V
3 58 V
4 -73 V
3 -219 V
4 206 V
3 -128 V
4 98 V
3 -449 V
3 -9 V
4 -48 V
3 -558 V
4 440 V
3 568 V
3 95 V
4 -81 V
3 -477 V
4 -2526 V
3 1954 V
3 -1414 V
4 2499 V
3 -409 V
4 259 V
3 114 V
3 8 V
4 141 V
3 -125 V
4 -120 V
3 171 V
3 66 V
4 27 V
3 -217 V
4 20 V
3 -22 V
3 8 V
4 -249 V
3 -150 V
4 -239 V
3 814 V
3 38 V
4 -64 V
3 -45 V
4 88 V
3 18 V
4 -164 V
3 -40 V
3 208 V
stroke 1536 4539 M
4 -246 V
3 -487 V
4 677 V
3 -172 V
3 -9 V
4 108 V
3 -1446 V
4 903 V
3 393 V
3 -1202 V
4 1036 V
3 -2541 V
4 2553 V
3 60 V
3 289 V
4 -1105 V
3 558 V
4 -1086 V
3 -1850 V
3 -162 V
4 1493 V
3 -1340 V
4 -52 V
3 138 V
3 3073 V
4 -218 V
3 541 V
4 -835 V
3 -4 V
3 495 V
4 353 V
3 -371 V
4 -346 V
3 698 V
4 -2857 V
3 2934 V
3 -1318 V
4 1307 V
3 -944 V
4 -76 V
3 -508 V
3 1238 V
7 -2053 V
4 1494 V
3 239 V
3 -65 V
4 -759 V
3 1189 V
4 -1021 V
3 701 V
3 381 V
4 112 V
3 -257 V
4 -569 V
3 -115 V
3 561 V
4 157 V
3 -3579 V
4 3691 V
3 -583 V
3 -310 V
4 668 V
3 424 V
4 -239 V
3 -256 V
3 -491 V
4 926 V
3 -642 V
4 180 V
3 119 V
4 74 V
3 -88 V
3 -1965 V
4 2228 V
3 -4 V
4 -569 V
3 -1232 V
3 -628 V
4 1960 V
3 191 V
4 -2310 V
3 2136 V
3 -2885 V
4 2844 V
3 -1478 V
4 1365 V
3 482 V
3 -2031 V
4 1960 V
3 -1341 V
4 1650 V
3 -1286 V
3 679 V
4 -2870 V
3 2102 V
4 1036 V
3 -3094 V
3 3182 V
4 -2167 V
3 1090 V
4 848 V
3 126 V
3 -509 V
4 293 V
stroke 1894 3903 M
3 -307 V
4 767 V
3 -1004 V
4 -501 V
3 -1603 V
3 -119 V
4 2842 V
3 204 V
4 -699 V
3 -2631 V
3 2861 V
4 415 V
3 -863 V
4 361 V
3 -2913 V
3 1831 V
4 1247 V
3 -1934 V
4 -370 V
3 2035 V
3 -108 V
4 -1936 V
3 1248 V
4 -936 V
3 1628 V
3 -2731 V
4 871 V
3 2586 V
4 -464 V
3 -165 V
3 911 V
4 -48 V
3 -1272 V
4 1145 V
3 -518 V
3 -357 V
4 660 V
3 -663 V
4 -998 V
3 1147 V
4 -1845 V
3 -106 V
3 -852 V
4 3449 V
3 -1411 V
4 -410 V
3 544 V
3 281 V
4 -444 V
3 1463 V
4 -3036 V
3 -442 V
3 3265 V
4 -2080 V
3 -949 V
4 488 V
3 -255 V
3 2587 V
4 -123 V
3 -475 V
4 -858 V
3 1780 V
3 -2328 V
4 1650 V
3 17 V
4 962 V
3 -1930 V
3 154 V
4 1663 V
3 -432 V
4 -1314 V
3 -257 V
3 -289 V
4 100 V
3 2386 V
4 -708 V
3 -2484 V
4 1129 V
3 -1679 V
3 300 V
4 1722 V
3 1714 V
4 -512 V
3 -1712 V
3 773 V
4 454 V
3 -125 V
4 -465 V
3 1375 V
3 -2439 V
4 2163 V
3 -917 V
4 183 V
3 -2302 V
3 2188 V
4 -43 V
3 -923 V
4 1715 V
3 -335 V
3 436 V
4 495 V
3 -2571 V
4 -599 V
3 936 V
stroke 2248 2244 M
3 1552 V
4 -451 V
3 152 V
4 -274 V
3 43 V
3 -1624 V
4 2238 V
3 -3009 V
4 1033 V
3 1955 V
4 -1446 V
3 -590 V
3 -217 V
4 808 V
3 1798 V
4 -150 V
3 -2398 V
3 -384 V
4 -418 V
3 1 V
4 2465 V
3 -779 V
3 -614 V
4 -442 V
3 703 V
4 -1124 V
3 2028 V
3 -253 V
4 -1801 V
3 -123 V
4 1353 V
3 565 V
3 1376 V
4 -1670 V
3 544 V
4 -2218 V
3 2065 V
3 -1920 V
4 2189 V
3 -2321 V
4 181 V
3 -419 V
10 3565 V
4 -2766 V
3 755 V
4 1033 V
6 -1993 V
4 13 V
3 -618 V
4 3816 V
3 -2784 V
3 -276 V
4 -3 V
3 2358 V
4 -2341 V
3 -310 V
3 2938 V
4 17 V
3 -1830 V
4 -364 V
3 2108 V
3 -2904 V
4 2434 V
3 -1893 V
4 -161 V
3 1823 V
3 -2373 V
4 2436 V
3 -2617 V
4 2010 V
3 -1059 V
3 2476 V
4 -2301 V
3 1014 V
4 1529 V
3 -3467 V
3 2657 V
4 -134 V
3 -1787 V
4 1235 V
3 1016 V
4 -330 V
3 -1340 V
3 1240 V
4 -1236 V
3 897 V
4 1239 V
3 -2017 V
3 -664 V
4 29 V
3 -579 V
4 -1 V
3 3262 V
3 -2320 V
4 360 V
3 -936 V
4 576 V
3 -409 V
3 2524 V
4 -506 V
3 -1117 V
4 -1463 V
3 547 V
3 2066 V
stroke 2612 3722 M
4 -77 V
3 -1754 V
4 111 V
3 1847 V
3 -2668 V
4 1423 V
3 102 V
4 -505 V
3 -47 V
3 -7 V
4 2086 V
3 -2036 V
4 -455 V
3 -1018 V
4 3327 V
3 -761 V
3 251 V
4 -2789 V
3 651 V
4 28 V
3 3019 V
3 -1206 V
4 495 V
3 -1692 V
4 187 V
3 -355 V
3 997 V
4 -1142 V
3 -1007 V
4 2671 V
3 -738 V
3 851 V
4 -645 V
3 709 V
4 -314 V
3 -1562 V
3 -244 V
4 3018 V
3 -3623 V
4 2274 V
3 -2352 V
3 807 V
4 1324 V
3 1265 V
4 -1405 V
3 -18 V
3 -1651 V
4 2909 V
3 -1426 V
4 1781 V
3 -381 V
4 -1771 V
3 2319 V
3 -282 V
4 176 V
3 -2276 V
4 2357 V
3 -1030 V
3 -1583 V
4 2522 V
3 -563 V
4 -2604 V
3 2874 V
3 -1882 V
4 -703 V
7 2931 V
3 29 V
3 -3234 V
4 2793 V
3 -2432 V
4 313 V
3 -1276 V
3 3265 V
4 357 V
3 -3131 V
4 3101 V
3 -2903 V
3 2212 V
4 -1724 V
3 801 V
4 -366 V
3 -1234 V
3 1686 V
4 489 V
3 1139 V
4 -3242 V
3 121 V
4 546 V
3 -1035 V
3 334 V
4 -79 V
3 1154 V
4 1681 V
3 27 V
3 -404 V
4 -1664 V
3 437 V
4 900 V
3 -2442 V
3 686 V
4 1209 V
3 -574 V
4 878 V
3 874 V
stroke 2970 3754 M
3 498 V
4 -1940 V
3 538 V
4 -1680 V
3 223 V
3 2155 V
4 -440 V
7 -835 V
3 -10 V
3 -415 V
4 1233 V
3 -1155 V
4 -459 V
3 2967 V
3 -1109 V
4 58 V
3 768 V
4 319 V
3 -1194 V
4 -702 V
3 1792 V
3 -404 V
4 260 V
3 -182 V
4 -193 V
3 -930 V
3 363 V
4 -888 V
3 589 V
4 -1284 V
3 2094 V
3 616 V
4 -64 V
3 -436 V
4 -298 V
3 -15 V
3 670 V
4 -271 V
3 182 V
4 -620 V
3 -403 V
3 249 V
4 446 V
3 -356 V
4 -396 V
3 -1699 V
3 409 V
4 -123 V
3 175 V
4 2640 V
3 -314 V
3 -126 V
4 -1231 V
3 -347 V
4 1944 V
3 -2762 V
4 229 V
3 1024 V
3 -2114 V
4 3563 V
3 -3237 V
4 2153 V
3 -1998 V
7 2134 V
3 196 V
4 -2116 V
3 1619 V
3 -1187 V
4 -116 V
3 1022 V
4 211 V
3 -769 V
3 -97 V
4 -494 V
3 1670 V
7 775 V
3 -1439 V
4 1648 V
3 -322 V
4 448 V
3 14 V
3 -25 V
4 -178 V
3 -411 V
4 60 V
3 533 V
3 76 V
4 -141 V
3 -438 V
4 187 V
3 222 V
4 -467 V
3 292 V
3 -512 V
4 697 V
3 -1157 V
4 575 V
3 554 V
3 -511 V
4 340 V
3 -474 V
4 839 V
3 -46 V
3 12 V
stroke 3334 4505 M
4 -271 V
3 216 V
4 -73 V
3 93 V
3 -101 V
4 -443 V
3 478 V
4 -426 V
3 559 V
3 -40 V
4 -1178 V
3 957 V
4 137 V
3 -55 V
3 -1748 V
4 757 V
3 917 V
4 -3 V
3 -780 V
3 -982 V
4 -272 V
3 2218 V
4 41 V
3 -450 V
4 -297 V
3 -352 V
3 -2605 V
4 3299 V
3 -2381 V
4 2168 V
3 397 V
3 -582 V
4 535 V
3 -675 V
4 844 V
3 -454 V
3 584 V
4 -174 V
3 72 V
4 88 V
3 -898 V
3 798 V
4 77 V
3 -411 V
4 181 V
3 -227 V
3 393 V
4 72 V
3 -142 V
4 -135 V
3 261 V
3 -85 V
4 128 V
3 -6 V
4 0 V
3 -21 V
3 -56 V
4 1 V
3 35 V
4 -1 V
3 51 V
4 -126 V
3 -132 V
3 226 V
4 -128 V
3 13 V
4 -39 V
3 147 V
3 28 V
4 -101 V
3 16 V
4 4 V
3 89 V
3 -37 V
4 2 V
3 -42 V
4 81 V
3 -249 V
3 221 V
4 -121 V
3 -72 V
4 187 V
3 31 V
3 -71 V
4 2 V
3 15 V
4 -4 V
3 -22 V
3 36 V
4 44 V
3 -162 V
4 -97 V
3 -149 V
3 377 V
4 -1102 V
3 258 V
4 569 V
3 -716 V
4 940 V
3 -1459 V
3 1315 V
4 -180 V
3 294 V
4 72 V
stroke 3689 4496 M
3 7 V
3 0 V
4 3 V
3 5 V
4 -4 V
3 21 V
3 -44 V
4 43 V
3 -35 V
4 2 V
3 38 V
3 -55 V
4 26 V
3 30 V
4 -5 V
3 -20 V
3 26 V
4 -1 V
3 -5 V
4 4 V
3 -30 V
3 36 V
4 -9 V
7 -5 V
3 -12 V
3 -28 V
4 40 V
3 -33 V
4 37 V
3 -4 V
3 4 V
4 -3 V
7 0 V
3 13 V
4 -5 V
3 -25 V
3 18 V
4 2 V
3 9 V
4 -12 V
3 8 V
3 0 V
4 -110 V
3 80 V
4 29 V
3 5 V
3 -4 V
4 0 V
3 -1 V
4 2 V
3 2 V
3 -13 V
4 11 V
3 3 V
4 -64 V
3 40 V
3 15 V
4 11 V
3 -19 V
4 -66 V
3 85 V
3 -406 V
4 370 V
3 32 V
4 -56 V
3 3 V
3 42 V
4 14 V
7 -12 V
3 8 V
4 3 V
3 0 V
3 1 V
4 -1 V
3 -17 V
4 18 V
3 -3 V
3 2 V
4 2 V
3 -4 V
4 -6 V
3 3 V
3 2 V
4 5 V
3 -2 V
4 2 V
3 0 V
3 -9 V
4 8 V
3 -1 V
4 0 V
3 -6 V
3 7 V
4 -5 V
3 6 V
4 -2 V
3 1 V
3 -4 V
4 4 V
3 -3 V
4 4 V
3 0 V
3 0 V
7 0 V
stroke 4056 4539 M
4 0 V
3 0 V
4 -1 V
3 -1 V
3 -12 V
4 10 V
3 3 V
4 -1 V
3 2 V
3 -6 V
4 -4 V
3 7 V
4 2 V
3 -3 V
3 4 V
4 0 V
3 -3 V
4 0 V
3 2 V
3 -1 V
4 1 V
3 0 V
4 -1 V
3 2 V
3 -1 V
4 -29 V
3 30 V
4 -2 V
3 1 V
3 1 V
4 0 V
3 -2 V
4 2 V
3 -2 V
3 2 V
4 0 V
3 0 V
4 0 V
3 0 V
4 0 V
3 0 V
3 -4 V
4 1 V
3 2 V
4 -1 V
3 -1 V
3 2 V
4 1 V
3 -1 V
4 1 V
3 -2 V
3 2 V
4 0 V
3 0 V
4 0 V
3 0 V
3 -1 V
4 0 V
3 1 V
4 0 V
3 -1 V
3 0 V
4 0 V
3 1 V
4 -2 V
3 1 V
3 -3 V
4 3 V
3 1 V
4 -5 V
3 4 V
3 -3 V
4 3 V
3 0 V
4 1 V
3 0 V
4 0 V
3 -3 V
3 3 V
4 -3 V
3 3 V
4 0 V
3 -1 V
3 1 V
4 -1 V
3 1 V
4 0 V
3 0 V
3 -1 V
4 0 V
3 -1 V
4 2 V
3 -1 V
3 1 V
4 -1 V
3 1 V
4 -1 V
3 -1 V
3 2 V
4 -1 V
3 1 V
4 -1 V
3 0 V
3 1 V
stroke 4410 4539 M
4 0 V
3 0 V
4 0 V
3 -3 V
3 3 V
4 0 V
3 -1 V
4 1 V
3 -1 V
4 1 V
3 -1 V
3 0 V
4 1 V
3 0 V
4 0 V
3 -1 V
3 0 V
4 1 V
3 -2 V
4 2 V
3 -1 V
3 0 V
4 1 V
3 0 V
4 -2 V
3 1 V
3 0 V
4 1 V
3 0 V
4 -1 V
3 1 V
3 0 V
4 0 V
3 -2 V
4 2 V
3 0 V
7 -1 V
3 0 V
4 1 V
3 0 V
3 -1 V
4 -1 V
3 2 V
4 -2 V
3 2 V
4 -1 V
3 1 V
3 0 V
4 0 V
3 0 V
4 -1 V
3 1 V
3 -1 V
4 0 V
3 1 V
4 0 V
3 -3 V
3 3 V
4 0 V
3 0 V
4 0 V
3 -1 V
3 1 V
4 0 V
3 0 V
4 0 V
3 0 V
3 -1 V
4 0 V
3 1 V
4 -1 V
3 0 V
3 1 V
4 0 V
3 0 V
4 0 V
3 0 V
3 -1 V
4 1 V
3 0 V
4 0 V
3 -2 V
4 0 V
3 2 V
3 0 V
4 0 V
7 -1 V
3 0 V
3 1 V
4 -1 V
3 1 V
4 0 V
3 0 V
3 -2 V
4 2 V
3 0 V
4 0 V
3 0 V
3 0 V
4 0 V
3 0 V
4 0 V
3 0 V
3 0 V
stroke 4771 4539 M
4 0 V
3 -2 V
4 2 V
3 0 V
3 0 V
4 -1 V
3 1 V
4 0 V
3 0 V
3 0 V
4 0 V
3 -3 V
4 2 V
3 1 V
4 0 V
3 0 V
3 0 V
4 0 V
3 0 V
4 -2 V
3 1 V
3 1 V
4 0 V
3 0 V
4 -2 V
3 2 V
3 0 V
4 0 V
3 -1 V
4 1 V
3 0 V
3 0 V
4 -2 V
3 2 V
4 0 V
3 0 V
3 0 V
4 0 V
3 0 V
4 -1 V
3 1 V
3 0 V
4 0 V
3 0 V
4 0 V
3 0 V
3 0 V
4 0 V
3 -2 V
4 2 V
3 0 V
4 0 V
3 0 V
3 -3 V
4 3 V
3 0 V
4 0 V
3 0 V
3 0 V
4 -1 V
3 1 V
4 0 V
3 0 V
3 0 V
4 0 V
3 0 V
4 0 V
3 0 V
3 0 V
4 -1 V
3 1 V
4 0 V
3 -2 V
3 2 V
4 0 V
3 -1 V
4 0 V
3 -3 V
3 4 V
4 0 V
3 0 V
4 0 V
3 0 V
3 0 V
4 -3 V
3 2 V
4 1 V
3 0 V
4 0 V
3 0 V
3 0 V
4 -2 V
3 2 V
4 0 V
3 0 V
3 0 V
4 -2 V
3 2 V
4 0 V
3 0 V
3 -3 V
4 3 V
3 0 V
4 0 V
stroke 5126 4539 M
3 0 V
3 0 V
4 0 V
3 0 V
4 0 V
3 0 V
3 0 V
4 0 V
3 0 V
4 0 V
3 0 V
3 0 V
4 0 V
3 0 V
4 -1 V
3 1 V
3 0 V
4 -1 V
3 1 V
4 0 V
3 0 V
4 0 V
3 0 V
3 0 V
4 0 V
3 0 V
4 -1 V
3 1 V
3 0 V
4 -1 V
3 1 V
4 -1 V
3 1 V
3 0 V
4 0 V
3 -1 V
4 1 V
3 0 V
3 -1 V
4 1 V
3 0 V
4 -1 V
3 1 V
3 0 V
4 0 V
3 -1 V
4 1 V
3 0 V
3 0 V
4 0 V
3 -1 V
4 0 V
3 1 V
3 0 V
4 0 V
3 0 V
4 0 V
3 -5 V
4 5 V
3 0 V
3 -1 V
4 1 V
3 -2 V
4 1 V
3 1 V
3 0 V
4 -1 V
3 1 V
4 -1 V
3 1 V
7 0 V
3 0 V
4 0 V
3 -1 V
3 1 V
4 -3 V
3 3 V
4 -1 V
3 1 V
3 0 V
4 0 V
3 0 V
4 -4 V
3 3 V
3 1 V
4 0 V
3 0 V
4 0 V
6 0 V
4 -2 V
3 2 V
4 0 V
3 0 V
4 0 V
3 -1 V
3 0 V
4 1 V
3 0 V
4 0 V
3 0 V
3 0 V
4 -1 V
3 1 V
4 0 V
stroke 5487 4539 M
3 -2 V
3 1 V
4 0 V
3 -3 V
4 4 V
3 0 V
3 0 V
4 0 V
3 -1 V
4 0 V
3 1 V
3 0 V
4 0 V
3 -2 V
4 1 V
3 -1 V
3 1 V
4 1 V
3 0 V
4 0 V
3 -5 V
3 5 V
4 -1 V
3 1 V
4 -2 V
3 2 V
4 -8 V
3 8 V
3 0 V
4 -1 V
3 -2 V
4 0 V
3 3 V
3 -1 V
4 1 V
3 -2 V
4 -4 V
3 6 V
3 -2 V
4 1 V
3 1 V
4 -1 V
3 -3 V
3 -3 V
4 5 V
3 1 V
4 1 V
3 -1 V
3 1 V
4 -2 V
3 1 V
4 -7 V
6 6 V
4 1 V
3 1 V
4 -1 V
3 -1 V
3 1 V
4 0 V
3 -2 V
4 -5 V
3 6 V
4 2 V
3 -2 V
3 2 V
4 -24 V
3 24 V
4 -3 V
3 2 V
3 0 V
4 -2 V
7 -10 V
3 -44 V
3 39 V
4 16 V
3 2 V
4 -12 V
3 10 V
3 -14 V
4 14 V
3 -10 V
4 12 V
3 -2 V
3 -2 V
4 1 V
3 -11 V
4 7 V
3 2 V
3 3 V
4 -7 V
3 8 V
4 1 V
3 -30 V
3 29 V
4 -7 V
3 2 V
4 -37 V
3 43 V
4 -4 V
3 4 V
3 0 V
4 -1 V
3 0 V
4 -5 V
stroke 5848 4533 M
3 -6 V
3 10 V
4 2 V
3 -1 V
4 -4 V
3 -1 V
3 -17 V
4 20 V
3 -1 V
4 0 V
3 4 V
3 -3 V
4 -3 V
3 -23 V
4 27 V
3 -10 V
3 12 V
4 -5 V
3 1 V
4 4 V
3 -4 V
3 4 V
4 -31 V
3 30 V
4 -18 V
3 5 V
3 -20 V
4 22 V
3 7 V
4 1 V
3 -14 V
4 6 V
3 12 V
3 -13 V
4 10 V
3 -35 V
7 -128 V
3 156 V
4 -10 V
3 8 V
4 -123 V
3 -170 V
3 -124 V
4 336 V
3 91 V
4 -108 V
3 98 V
3 -189 V
4 201 V
3 -8 V
7 -51 V
3 37 V
4 -42 V
3 35 V
4 4 V
3 -94 V
3 -33 V
4 -100 V
3 95 V
4 -38 V
3 141 V
3 26 V
4 -4 V
3 -68 V
4 77 V
3 -28 V
4 18 V
3 6 V
3 -20 V
4 26 V
3 -31 V
4 27 V
3 5 V
3 -53 V
4 -39 V
3 54 V
4 -1 V
3 -66 V
7 88 V
3 5 V
7 15 V
3 3 V
4 -23 V
3 -135 V
4 140 V
3 2 V
3 -29 V
4 24 V
3 28 V
4 -3 V
3 -204 V
3 147 V
4 -39 V
3 92 V
4 -53 V
3 42 V
3 -76 V
4 -70 V
3 -319 V
4 -250 V
3 553 V
4 123 V
3 -1080 V
7 -1347 V
stroke 6219 2048 M
3 2244 V
4 -799 V
3 -57 V
3 -600 V
4 874 V
3 -1538 V
4 2118 V
3 -686 V
3 220 V
4 -16 V
3 520 V
4 -922 V
3 705 V
7 375 V
3 -162 V
4 26 V
10 184 V
3 -1918 V
4 1639 V
3 -878 V
3 696 V
4 347 V
3 61 V
4 -729 V
3 605 V
3 -452 V
4 554 V
3 -18 V
4 -184 V
3 257 V
4 -360 V
3 317 V
3 5 V
4 -760 V
3 751 V
4 29 V
3 -116 V
3 141 V
4 -202 V
3 49 V
4 112 V
3 5 V
3 49 V
4 -344 V
3 243 V
4 78 V
6 -451 V
7 21 V
7 -1252 V
3 156 V
4 80 V
3 705 V
4 695 V
3 -301 V
3 -600 V
4 384 V
3 -181 V
4 145 V
10 -830 V
3 -1492 V
4 2041 V
3 -2828 V
4 3708 V
3 -226 V
3 -2803 V
4 956 V
3 8 V
4 1785 V
3 -508 V
3 -1903 V
4 533 V
3 849 V
4 1322 V
3 -227 V
3 -3536 V
4 2455 V
3 602 V
4 -1338 V
6 -1223 V
4 -501 V
7 3650 V
3 -3068 V
3 2141 V
4 -1208 V
3 1520 V
4 107 V
3 -455 V
3 -344 V
4 863 V
3 505 V
4 -33 V
3 -400 V
3 -581 V
14 -1373 V
4 977 V
6597 982 L
3 3251 V
4 -19 V
3 31 V
7 -125 V
10 -1846 V
7 2254 V
3 -251 V
4 189 V
3 -1974 V
3 -1394 V
4 2167 V
3 691 V
7 -1415 V
3 1948 V
7 -2495 V
7 126 V
3 1547 V
4 -1227 V
3 -218 V
6695 629 L
11 1192 V
3 -63 V
7 -98 V
17 -441 V
7 806 V
17 504 V
7 1618 V
6 -2404 V
4 2465 V
3 -1091 V
10 1000 V
831 4537 BoxF
835 4535 BoxF
838 4532 BoxF
842 4537 BoxF
845 4535 BoxF
848 4537 BoxF
852 4524 BoxF
855 4538 BoxF
859 4532 BoxF
862 4539 BoxF
865 4536 BoxF
869 4534 BoxF
872 4538 BoxF
876 4539 BoxF
879 4538 BoxF
882 4512 BoxF
886 4537 BoxF
889 4539 BoxF
893 4537 BoxF
896 4522 BoxF
900 4511 BoxF
903 4538 BoxF
906 4539 BoxF
910 4516 BoxF
913 4539 BoxF
917 4536 BoxF
920 4535 BoxF
923 4536 BoxF
927 4537 BoxF
930 4539 BoxF
934 4538 BoxF
937 4532 BoxF
940 4539 BoxF
944 4529 BoxF
947 4531 BoxF
951 4535 BoxF
954 4536 BoxF
957 4474 BoxF
961 4526 BoxF
964 4514 BoxF
968 4537 BoxF
971 4531 BoxF
974 4534 BoxF
978 4539 BoxF
981 4529 BoxF
985 4522 BoxF
988 4539 BoxF
991 4539 BoxF
995 4537 BoxF
998 4538 BoxF
1002 4538 BoxF
1005 4484 BoxF
1008 4538 BoxF
1015 4521 BoxF
1019 4529 BoxF
1022 4537 BoxF
1026 4538 BoxF
1029 4529 BoxF
1032 4512 BoxF
1036 4534 BoxF
1039 4506 BoxF
1043 4536 BoxF
1046 4536 BoxF
1049 4539 BoxF
1053 4539 BoxF
1056 4539 BoxF
1060 4537 BoxF
1063 4537 BoxF
1066 4537 BoxF
1070 4535 BoxF
1073 4534 BoxF
1077 4511 BoxF
1080 4535 BoxF
1083 4417 BoxF
1087 4539 BoxF
1090 4539 BoxF
1094 4538 BoxF
1097 4536 BoxF
1100 4447 BoxF
1104 4531 BoxF
1107 4503 BoxF
1111 4513 BoxF
1114 4534 BoxF
1117 4075 BoxF
1121 4397 BoxF
1124 4473 BoxF
1128 4187 BoxF
1131 4331 BoxF
1134 4500 BoxF
1138 4373 BoxF
1141 4412 BoxF
1145 4530 BoxF
1148 4536 BoxF
1152 4525 BoxF
1155 4475 BoxF
1158 4477 BoxF
1162 4416 BoxF
1165 4486 BoxF
1169 4529 BoxF
1172 4537 BoxF
1175 4532 BoxF
1179 4249 BoxF
1182 4533 BoxF
1186 4524 BoxF
1189 4462 BoxF
1192 4518 BoxF
1196 4065 BoxF
1199 4010 BoxF
1203 4484 BoxF
1206 4411 BoxF
1209 4312 BoxF
1213 4501 BoxF
1216 4510 BoxF
1220 4524 BoxF
1223 4531 BoxF
1226 4515 BoxF
1230 4501 BoxF
1233 4535 BoxF
1237 4437 BoxF
1240 4538 BoxF
1243 4532 BoxF
1247 4467 BoxF
1250 4443 BoxF
1254 4477 BoxF
1257 4512 BoxF
1260 4527 BoxF
1264 4505 BoxF
1267 4463 BoxF
1271 4412 BoxF
1274 4316 BoxF
1278 4514 BoxF
1281 4443 BoxF
1284 4520 BoxF
1288 4432 BoxF
1291 4521 BoxF
1295 4483 BoxF
1298 4525 BoxF
1301 4232 BoxF
1305 4511 BoxF
1308 4454 BoxF
1312 4520 BoxF
1315 4509 BoxF
1318 4419 BoxF
1322 4519 BoxF
1325 4472 BoxF
1329 3268 BoxF
1332 4316 BoxF
1335 4039 BoxF
1339 4466 BoxF
1342 3665 BoxF
1346 4414 BoxF
1349 3832 BoxF
1352 3298 BoxF
1356 4153 BoxF
1359 3491 BoxF
1363 3516 BoxF
1366 2135 BoxF
1369 1528 BoxF
1373 4533 BoxF
1376 3766 BoxF
1380 4424 BoxF
1383 4467 BoxF
1386 4525 BoxF
1390 4452 BoxF
1393 4233 BoxF
1397 4439 BoxF
1400 4311 BoxF
1404 4409 BoxF
1407 3960 BoxF
1410 3951 BoxF
1414 3903 BoxF
1417 3345 BoxF
1421 3785 BoxF
1424 4353 BoxF
1427 4448 BoxF
1431 4367 BoxF
1434 3890 BoxF
1438 1364 BoxF
1441 3318 BoxF
1444 1904 BoxF
1448 4403 BoxF
1451 3994 BoxF
1455 4253 BoxF
1458 4367 BoxF
1461 4375 BoxF
1465 4516 BoxF
1468 4391 BoxF
1472 4271 BoxF
1475 4442 BoxF
1478 4508 BoxF
1482 4535 BoxF
1485 4318 BoxF
1489 4338 BoxF
1492 4316 BoxF
1495 4324 BoxF
1499 4075 BoxF
1502 3925 BoxF
1506 3686 BoxF
1509 4500 BoxF
1512 4538 BoxF
1516 4474 BoxF
1519 4429 BoxF
1523 4517 BoxF
1526 4535 BoxF
1530 4371 BoxF
1533 4331 BoxF
1536 4539 BoxF
1540 4293 BoxF
1543 3806 BoxF
1547 4483 BoxF
1550 4311 BoxF
1553 4302 BoxF
1557 4410 BoxF
1560 2964 BoxF
1564 3867 BoxF
1567 4260 BoxF
1570 3058 BoxF
1574 4094 BoxF
1577 1553 BoxF
1581 4106 BoxF
1584 4166 BoxF
1587 4455 BoxF
1591 3350 BoxF
1594 3908 BoxF
1598 2822 BoxF
1601 972 BoxF
1604 810 BoxF
1608 2303 BoxF
1611 963 BoxF
1615 911 BoxF
1618 1049 BoxF
1621 4122 BoxF
1625 3904 BoxF
1628 4445 BoxF
1632 3610 BoxF
1635 3606 BoxF
1638 4101 BoxF
1642 4454 BoxF
1645 4083 BoxF
1649 3737 BoxF
1652 4435 BoxF
1656 1578 BoxF
1659 4512 BoxF
1662 3194 BoxF
1666 4501 BoxF
1669 3557 BoxF
1673 3481 BoxF
1676 2973 BoxF
1679 4211 BoxF
1686 2158 BoxF
1690 3652 BoxF
1693 3891 BoxF
1696 3826 BoxF
1700 3067 BoxF
1703 4256 BoxF
1707 3235 BoxF
1710 3936 BoxF
1713 4317 BoxF
1717 4429 BoxF
1720 4172 BoxF
1724 3603 BoxF
1727 3488 BoxF
1730 4049 BoxF
1734 4206 BoxF
1737 627 BoxF
1741 4318 BoxF
1744 3735 BoxF
1747 3425 BoxF
1751 4093 BoxF
1754 4517 BoxF
1758 4278 BoxF
1761 4022 BoxF
1764 3531 BoxF
1768 4457 BoxF
1771 3815 BoxF
1775 3995 BoxF
1778 4114 BoxF
1782 4188 BoxF
1785 4100 BoxF
1788 2135 BoxF
1792 4363 BoxF
1795 4359 BoxF
1799 3790 BoxF
1802 2558 BoxF
1805 1930 BoxF
1809 3890 BoxF
1812 4081 BoxF
1816 1771 BoxF
1819 3907 BoxF
1822 1022 BoxF
1826 3866 BoxF
1829 2388 BoxF
1833 3753 BoxF
1836 4235 BoxF
1839 2204 BoxF
1843 4164 BoxF
1846 2823 BoxF
1850 4473 BoxF
1853 3187 BoxF
1856 3866 BoxF
1860 996 BoxF
1863 3098 BoxF
1867 4134 BoxF
1870 1040 BoxF
1873 4222 BoxF
1877 2055 BoxF
1880 3145 BoxF
1884 3993 BoxF
1887 4119 BoxF
1890 3610 BoxF
1894 3903 BoxF
1897 3596 BoxF
1901 4363 BoxF
1904 3359 BoxF
1908 2858 BoxF
1911 1255 BoxF
1914 1136 BoxF
1918 3978 BoxF
1921 4182 BoxF
1925 3483 BoxF
1928 852 BoxF
1931 3713 BoxF
1935 4128 BoxF
1938 3265 BoxF
1942 3626 BoxF
1945 713 BoxF
1948 2544 BoxF
1952 3791 BoxF
1955 1857 BoxF
1959 1487 BoxF
1962 3522 BoxF
1965 3414 BoxF
1969 1478 BoxF
1972 2726 BoxF
1976 1790 BoxF
1979 3418 BoxF
1982 687 BoxF
1986 1558 BoxF
1989 4144 BoxF
1993 3680 BoxF
1996 3515 BoxF
1999 4426 BoxF
2003 4378 BoxF
2006 3106 BoxF
2010 4251 BoxF
2013 3733 BoxF
2016 3376 BoxF
2020 4036 BoxF
2023 3373 BoxF
2027 2375 BoxF
2030 3522 BoxF
2034 1677 BoxF
2037 1571 BoxF
2040 719 BoxF
2044 4168 BoxF
2047 2757 BoxF
2051 2347 BoxF
2054 2891 BoxF
2057 3172 BoxF
2061 2728 BoxF
2064 4191 BoxF
2068 1155 BoxF
2071 713 BoxF
2074 3978 BoxF
2078 1898 BoxF
2081 949 BoxF
2085 1437 BoxF
2088 1182 BoxF
2091 3769 BoxF
2095 3646 BoxF
2098 3171 BoxF
2102 2313 BoxF
2105 4093 BoxF
2108 1765 BoxF
2112 3415 BoxF
2115 3432 BoxF
2119 4394 BoxF
2122 2464 BoxF
2125 2618 BoxF
2129 4281 BoxF
2132 3849 BoxF
2136 2535 BoxF
2139 2278 BoxF
2142 1989 BoxF
2146 2089 BoxF
2149 4475 BoxF
2153 3767 BoxF
2156 1283 BoxF
2160 2412 BoxF
2163 733 BoxF
2166 1033 BoxF
2170 2755 BoxF
2173 4469 BoxF
2177 3957 BoxF
2180 2245 BoxF
2183 3018 BoxF
2187 3472 BoxF
2190 3347 BoxF
2194 2882 BoxF
2197 4257 BoxF
2200 1818 BoxF
2204 3981 BoxF
2207 3064 BoxF
2211 3247 BoxF
2214 945 BoxF
2217 3133 BoxF
2221 3090 BoxF
2224 2167 BoxF
2228 3882 BoxF
2231 3547 BoxF
2234 3983 BoxF
2238 4478 BoxF
2241 1907 BoxF
2245 1308 BoxF
2248 2244 BoxF
2251 3796 BoxF
2255 3345 BoxF
2258 3497 BoxF
2262 3223 BoxF
2265 3266 BoxF
2268 1642 BoxF
2272 3880 BoxF
2275 871 BoxF
2279 1904 BoxF
2282 3859 BoxF
2286 2413 BoxF
2289 1823 BoxF
2292 1606 BoxF
2296 2414 BoxF
2299 4212 BoxF
2303 4062 BoxF
2306 1664 BoxF
2309 1280 BoxF
2313 862 BoxF
2316 863 BoxF
2320 3328 BoxF
2323 2549 BoxF
2326 1935 BoxF
2330 1493 BoxF
2333 2196 BoxF
2337 1072 BoxF
2340 3100 BoxF
2343 2847 BoxF
2347 1046 BoxF
2350 923 BoxF
2354 2276 BoxF
2357 2841 BoxF
2360 4217 BoxF
2364 2547 BoxF
2367 3091 BoxF
2371 873 BoxF
2374 2938 BoxF
2377 1018 BoxF
2381 3207 BoxF
2384 886 BoxF
2388 1067 BoxF
2391 648 BoxF
2401 4213 BoxF
2405 1447 BoxF
2408 2202 BoxF
2412 3235 BoxF
2418 1242 BoxF
2422 1255 BoxF
2425 637 BoxF
2429 4453 BoxF
2432 1669 BoxF
2435 1393 BoxF
2439 1390 BoxF
2442 3748 BoxF
2446 1407 BoxF
2449 1097 BoxF
2452 4035 BoxF
2456 4052 BoxF
2459 2222 BoxF
2463 1858 BoxF
2466 3966 BoxF
2469 1062 BoxF
2473 3496 BoxF
2476 1603 BoxF
2480 1442 BoxF
2483 3265 BoxF
2486 892 BoxF
2490 3328 BoxF
2493 711 BoxF
2497 2721 BoxF
2500 1662 BoxF
2503 4138 BoxF
2507 1837 BoxF
2510 2851 BoxF
2514 4380 BoxF
2517 913 BoxF
2520 3570 BoxF
2524 3436 BoxF
2527 1649 BoxF
2531 2884 BoxF
2534 3900 BoxF
2538 3570 BoxF
2541 2230 BoxF
2544 3470 BoxF
2548 2234 BoxF
2551 3131 BoxF
2555 4370 BoxF
2558 2353 BoxF
2561 1689 BoxF
2565 1718 BoxF
2568 1139 BoxF
2572 1138 BoxF
2575 4400 BoxF
2578 2080 BoxF
2582 2440 BoxF
2585 1504 BoxF
2589 2080 BoxF
2592 1671 BoxF
2595 4195 BoxF
2599 3689 BoxF
2602 2572 BoxF
2606 1109 BoxF
2609 1656 BoxF
2612 3722 BoxF
2616 3645 BoxF
2619 1891 BoxF
2623 2002 BoxF
2626 3849 BoxF
2629 1181 BoxF
2633 2604 BoxF
2636 2706 BoxF
2640 2201 BoxF
2643 2154 BoxF
2646 2147 BoxF
2650 4233 BoxF
2653 2197 BoxF
2657 1742 BoxF
2660 724 BoxF
2664 4051 BoxF
2667 3290 BoxF
2670 3541 BoxF
2674 752 BoxF
2677 1403 BoxF
2681 1431 BoxF
2684 4450 BoxF
2687 3244 BoxF
2691 3739 BoxF
2694 2047 BoxF
2698 2234 BoxF
2701 1879 BoxF
2704 2876 BoxF
2708 1734 BoxF
2711 727 BoxF
2715 3398 BoxF
2718 2660 BoxF
2721 3511 BoxF
2725 2866 BoxF
2728 3575 BoxF
2732 3261 BoxF
2735 1699 BoxF
2738 1455 BoxF
2742 4473 BoxF
2745 850 BoxF
2749 3124 BoxF
2752 772 BoxF
2755 1579 BoxF
2759 2903 BoxF
2762 4168 BoxF
2766 2763 BoxF
2769 2745 BoxF
2772 1094 BoxF
2776 4003 BoxF
2779 2577 BoxF
2783 4358 BoxF
2786 3977 BoxF
2790 2206 BoxF
2793 4525 BoxF
2796 4243 BoxF
2800 4419 BoxF
2803 2143 BoxF
2807 4500 BoxF
2810 3470 BoxF
2813 1887 BoxF
2817 4409 BoxF
2820 3846 BoxF
2824 1242 BoxF
2827 4116 BoxF
2830 2234 BoxF
2834 1531 BoxF
2841 4462 BoxF
2844 4491 BoxF
2847 1257 BoxF
2851 4050 BoxF
2854 1618 BoxF
2858 1931 BoxF
2861 655 BoxF
2864 3920 BoxF
2868 4277 BoxF
2871 1146 BoxF
2875 4247 BoxF
2878 1344 BoxF
2881 3556 BoxF
2885 1832 BoxF
2888 2633 BoxF
2892 2267 BoxF
2895 1033 BoxF
2898 2719 BoxF
2902 3208 BoxF
2905 4347 BoxF
2909 1105 BoxF
2912 1226 BoxF
2916 1772 BoxF
2919 737 BoxF
2922 1071 BoxF
2926 992 BoxF
2929 2146 BoxF
2933 3827 BoxF
2936 3854 BoxF
2939 3450 BoxF
2943 1786 BoxF
2946 2223 BoxF
2950 3123 BoxF
2953 681 BoxF
2956 1367 BoxF
2960 2576 BoxF
2963 2002 BoxF
2967 2880 BoxF
2970 3754 BoxF
2973 4252 BoxF
2977 2312 BoxF
2980 2850 BoxF
2984 1170 BoxF
2987 1393 BoxF
2990 3548 BoxF
2994 3108 BoxF
3001 2273 BoxF
3004 2263 BoxF
3007 1848 BoxF
3011 3081 BoxF
3014 1926 BoxF
3018 1467 BoxF
3021 4434 BoxF
3024 3325 BoxF
3028 3383 BoxF
3031 4151 BoxF
3035 4470 BoxF
3038 3276 BoxF
3042 2574 BoxF
3045 4366 BoxF
3048 3962 BoxF
3052 4222 BoxF
3055 4040 BoxF
3059 3847 BoxF
3062 2917 BoxF
3065 3280 BoxF
3069 2392 BoxF
3072 2981 BoxF
3076 1697 BoxF
3079 3791 BoxF
3082 4407 BoxF
3086 4343 BoxF
3089 3907 BoxF
3093 3609 BoxF
3096 3594 BoxF
3099 4264 BoxF
3103 3993 BoxF
3106 4175 BoxF
3110 3555 BoxF
3113 3152 BoxF
3116 3401 BoxF
3120 3847 BoxF
3123 3491 BoxF
3127 3095 BoxF
3130 1396 BoxF
3133 1805 BoxF
3137 1682 BoxF
3140 1857 BoxF
3144 4497 BoxF
3147 4183 BoxF
3150 4057 BoxF
3154 2826 BoxF
3157 2479 BoxF
3161 4423 BoxF
3164 1661 BoxF
3168 1890 BoxF
3171 2914 BoxF
3174 800 BoxF
3178 4363 BoxF
3181 1126 BoxF
3185 3279 BoxF
3188 1281 BoxF
3195 3415 BoxF
3198 3611 BoxF
3202 1495 BoxF
3205 3114 BoxF
3208 1927 BoxF
3212 1811 BoxF
3215 2833 BoxF
3219 3044 BoxF
3222 2275 BoxF
3225 2178 BoxF
3229 1684 BoxF
3232 3354 BoxF
3239 4129 BoxF
3242 2690 BoxF
3246 4338 BoxF
3249 4016 BoxF
3253 4464 BoxF
3256 4478 BoxF
3259 4453 BoxF
3263 4275 BoxF
3266 3864 BoxF
3270 3924 BoxF
3273 4457 BoxF
3276 4533 BoxF
3280 4392 BoxF
3283 3954 BoxF
3287 4141 BoxF
3290 4363 BoxF
3294 3896 BoxF
3297 4188 BoxF
3300 3676 BoxF
3304 4373 BoxF
3307 3216 BoxF
3311 3791 BoxF
3314 4345 BoxF
3317 3834 BoxF
3321 4174 BoxF
3324 3700 BoxF
3328 4539 BoxF
3331 4493 BoxF
3334 4505 BoxF
3338 4234 BoxF
3341 4450 BoxF
3345 4377 BoxF
3348 4470 BoxF
3351 4369 BoxF
3355 3926 BoxF
3358 4404 BoxF
3362 3978 BoxF
3365 4537 BoxF
3368 4497 BoxF
3372 3319 BoxF
3375 4276 BoxF
3379 4413 BoxF
3382 4358 BoxF
3385 2610 BoxF
3389 3367 BoxF
3392 4284 BoxF
3396 4281 BoxF
3399 3501 BoxF
3402 2519 BoxF
3406 2247 BoxF
3409 4465 BoxF
3413 4506 BoxF
3416 4056 BoxF
3420 3759 BoxF
3423 3407 BoxF
3426 802 BoxF
3430 4101 BoxF
3433 1720 BoxF
3437 3888 BoxF
3440 4285 BoxF
3443 3703 BoxF
3447 4238 BoxF
3450 3563 BoxF
3454 4407 BoxF
3457 3953 BoxF
3460 4537 BoxF
3464 4363 BoxF
3467 4435 BoxF
3471 4523 BoxF
3474 3625 BoxF
3477 4423 BoxF
3481 4500 BoxF
3484 4089 BoxF
3488 4270 BoxF
3491 4043 BoxF
3494 4436 BoxF
3498 4508 BoxF
3501 4366 BoxF
3505 4231 BoxF
3508 4492 BoxF
3511 4407 BoxF
3515 4535 BoxF
3518 4529 BoxF
3522 4529 BoxF
3525 4508 BoxF
3528 4452 BoxF
3532 4453 BoxF
3535 4488 BoxF
3539 4487 BoxF
3542 4538 BoxF
3546 4412 BoxF
3549 4280 BoxF
3552 4506 BoxF
3556 4378 BoxF
3559 4391 BoxF
3563 4352 BoxF
3566 4499 BoxF
3569 4527 BoxF
3573 4426 BoxF
3576 4442 BoxF
3580 4446 BoxF
3583 4535 BoxF
3586 4498 BoxF
3590 4500 BoxF
3593 4458 BoxF
3597 4539 BoxF
3600 4290 BoxF
3603 4511 BoxF
3607 4390 BoxF
3610 4318 BoxF
3614 4505 BoxF
3617 4536 BoxF
3620 4465 BoxF
3624 4467 BoxF
3627 4482 BoxF
3631 4478 BoxF
3634 4456 BoxF
3637 4492 BoxF
3641 4536 BoxF
3644 4374 BoxF
3648 4277 BoxF
3651 4128 BoxF
3654 4505 BoxF
3658 3403 BoxF
3661 3661 BoxF
3665 4230 BoxF
3668 3514 BoxF
3672 4454 BoxF
3675 2995 BoxF
3678 4310 BoxF
3682 4130 BoxF
3685 4424 BoxF
3689 4496 BoxF
3692 4503 BoxF
3695 4503 BoxF
3699 4506 BoxF
3702 4511 BoxF
3706 4507 BoxF
3709 4528 BoxF
3712 4484 BoxF
3716 4527 BoxF
3719 4492 BoxF
3723 4494 BoxF
3726 4532 BoxF
3729 4477 BoxF
3733 4503 BoxF
3736 4533 BoxF
3740 4528 BoxF
3743 4508 BoxF
3746 4534 BoxF
3750 4533 BoxF
3753 4528 BoxF
3757 4532 BoxF
3760 4502 BoxF
3763 4538 BoxF
3767 4529 BoxF
3774 4524 BoxF
3777 4512 BoxF
3780 4484 BoxF
3784 4524 BoxF
3787 4491 BoxF
3791 4528 BoxF
3794 4524 BoxF
3797 4528 BoxF
3801 4525 BoxF
3808 4525 BoxF
3811 4538 BoxF
3815 4533 BoxF
3818 4508 BoxF
3821 4526 BoxF
3825 4528 BoxF
3828 4537 BoxF
3832 4525 BoxF
3835 4533 BoxF
3838 4533 BoxF
3842 4423 BoxF
3845 4503 BoxF
3849 4532 BoxF
3852 4537 BoxF
3855 4533 BoxF
3859 4533 BoxF
3862 4532 BoxF
3866 4534 BoxF
3869 4536 BoxF
3872 4523 BoxF
3876 4534 BoxF
3879 4537 BoxF
3883 4473 BoxF
3886 4513 BoxF
3889 4528 BoxF
3893 4539 BoxF
3896 4520 BoxF
3900 4454 BoxF
3903 4539 BoxF
3906 4133 BoxF
3910 4503 BoxF
3913 4535 BoxF
3917 4479 BoxF
3920 4482 BoxF
3923 4524 BoxF
3927 4538 BoxF
3934 4526 BoxF
3937 4534 BoxF
3941 4537 BoxF
3944 4537 BoxF
3947 4538 BoxF
3951 4537 BoxF
3954 4520 BoxF
3958 4538 BoxF
3961 4535 BoxF
3964 4537 BoxF
3968 4539 BoxF
3971 4535 BoxF
3975 4529 BoxF
3978 4532 BoxF
3981 4534 BoxF
3985 4539 BoxF
3988 4537 BoxF
3992 4539 BoxF
3995 4539 BoxF
3998 4530 BoxF
4002 4538 BoxF
4005 4537 BoxF
4009 4537 BoxF
4012 4531 BoxF
4015 4538 BoxF
4019 4533 BoxF
4022 4539 BoxF
4026 4537 BoxF
4029 4538 BoxF
4032 4534 BoxF
4036 4538 BoxF
4039 4535 BoxF
4043 4539 BoxF
4046 4539 BoxF
4049 4539 BoxF
4056 4539 BoxF
4060 4539 BoxF
4063 4539 BoxF
4067 4538 BoxF
4070 4537 BoxF
4073 4525 BoxF
4077 4535 BoxF
4080 4538 BoxF
4084 4537 BoxF
4087 4539 BoxF
4090 4533 BoxF
4094 4529 BoxF
4097 4536 BoxF
4101 4538 BoxF
4104 4535 BoxF
4107 4539 BoxF
4111 4539 BoxF
4114 4536 BoxF
4118 4536 BoxF
4121 4538 BoxF
4124 4537 BoxF
4128 4538 BoxF
4131 4538 BoxF
4135 4537 BoxF
4138 4539 BoxF
4141 4538 BoxF
4145 4509 BoxF
4148 4539 BoxF
4152 4537 BoxF
4155 4538 BoxF
4158 4539 BoxF
4162 4539 BoxF
4165 4537 BoxF
4169 4539 BoxF
4172 4537 BoxF
4175 4539 BoxF
4179 4539 BoxF
4182 4539 BoxF
4186 4539 BoxF
4189 4539 BoxF
4193 4539 BoxF
4196 4539 BoxF
4199 4535 BoxF
4203 4536 BoxF
4206 4538 BoxF
4210 4537 BoxF
4213 4536 BoxF
4216 4538 BoxF
4220 4539 BoxF
4223 4538 BoxF
4227 4539 BoxF
4230 4537 BoxF
4233 4539 BoxF
4237 4539 BoxF
4240 4539 BoxF
4244 4539 BoxF
4247 4539 BoxF
4250 4538 BoxF
4254 4538 BoxF
4257 4539 BoxF
4261 4539 BoxF
4264 4538 BoxF
4267 4538 BoxF
4271 4538 BoxF
4274 4539 BoxF
4278 4537 BoxF
4281 4538 BoxF
4284 4535 BoxF
4288 4538 BoxF
4291 4539 BoxF
4295 4534 BoxF
4298 4538 BoxF
4301 4535 BoxF
4305 4538 BoxF
4308 4538 BoxF
4312 4539 BoxF
4315 4539 BoxF
4319 4539 BoxF
4322 4536 BoxF
4325 4539 BoxF
4329 4536 BoxF
4332 4539 BoxF
4336 4539 BoxF
4339 4538 BoxF
4342 4539 BoxF
4346 4538 BoxF
4349 4539 BoxF
4353 4539 BoxF
4356 4539 BoxF
4359 4538 BoxF
4363 4538 BoxF
4366 4537 BoxF
4370 4539 BoxF
4373 4538 BoxF
4376 4539 BoxF
4380 4538 BoxF
4383 4539 BoxF
4387 4538 BoxF
4390 4537 BoxF
4393 4539 BoxF
4397 4538 BoxF
4400 4539 BoxF
4404 4538 BoxF
4407 4538 BoxF
4410 4539 BoxF
4414 4539 BoxF
4417 4539 BoxF
4421 4539 BoxF
4424 4536 BoxF
4427 4539 BoxF
4431 4539 BoxF
4434 4538 BoxF
4438 4539 BoxF
4441 4538 BoxF
4445 4539 BoxF
4448 4538 BoxF
4451 4538 BoxF
4455 4539 BoxF
4458 4539 BoxF
4462 4539 BoxF
4465 4538 BoxF
4468 4538 BoxF
4472 4539 BoxF
4475 4537 BoxF
4479 4539 BoxF
4482 4538 BoxF
4485 4538 BoxF
4489 4539 BoxF
4492 4539 BoxF
4496 4537 BoxF
4499 4538 BoxF
4502 4538 BoxF
4506 4539 BoxF
4509 4539 BoxF
4513 4538 BoxF
4516 4539 BoxF
4519 4539 BoxF
4523 4539 BoxF
4526 4537 BoxF
4530 4539 BoxF
4533 4539 BoxF
4540 4538 BoxF
4543 4538 BoxF
4547 4539 BoxF
4550 4539 BoxF
4553 4538 BoxF
4557 4537 BoxF
4560 4539 BoxF
4564 4537 BoxF
4567 4539 BoxF
4571 4538 BoxF
4574 4539 BoxF
4577 4539 BoxF
4581 4539 BoxF
4584 4539 BoxF
4588 4538 BoxF
4591 4539 BoxF
4594 4538 BoxF
4598 4538 BoxF
4601 4539 BoxF
4605 4539 BoxF
4608 4536 BoxF
4611 4539 BoxF
4615 4539 BoxF
4618 4539 BoxF
4622 4539 BoxF
4625 4538 BoxF
4628 4539 BoxF
4632 4539 BoxF
4635 4539 BoxF
4639 4539 BoxF
4642 4539 BoxF
4645 4538 BoxF
4649 4538 BoxF
4652 4539 BoxF
4656 4538 BoxF
4659 4538 BoxF
4662 4539 BoxF
4666 4539 BoxF
4669 4539 BoxF
4673 4539 BoxF
4676 4539 BoxF
4679 4538 BoxF
4683 4539 BoxF
4686 4539 BoxF
4690 4539 BoxF
4693 4537 BoxF
4697 4537 BoxF
4700 4539 BoxF
4703 4539 BoxF
4707 4539 BoxF
4714 4538 BoxF
4717 4538 BoxF
4720 4539 BoxF
4724 4538 BoxF
4727 4539 BoxF
4731 4539 BoxF
4734 4539 BoxF
4737 4537 BoxF
4741 4539 BoxF
4744 4539 BoxF
4748 4539 BoxF
4751 4539 BoxF
4754 4539 BoxF
4758 4539 BoxF
4761 4539 BoxF
4765 4539 BoxF
4768 4539 BoxF
4771 4539 BoxF
4775 4539 BoxF
4778 4537 BoxF
4782 4539 BoxF
4785 4539 BoxF
4788 4539 BoxF
4792 4538 BoxF
4795 4539 BoxF
4799 4539 BoxF
4802 4539 BoxF
4805 4539 BoxF
4809 4539 BoxF
4812 4536 BoxF
4816 4538 BoxF
4819 4539 BoxF
4823 4539 BoxF
4826 4539 BoxF
4829 4539 BoxF
4833 4539 BoxF
4836 4539 BoxF
4840 4537 BoxF
4843 4538 BoxF
4846 4539 BoxF
4850 4539 BoxF
4853 4539 BoxF
4857 4537 BoxF
4860 4539 BoxF
4863 4539 BoxF
4867 4539 BoxF
4870 4538 BoxF
4874 4539 BoxF
4877 4539 BoxF
4880 4539 BoxF
4884 4537 BoxF
4887 4539 BoxF
4891 4539 BoxF
4894 4539 BoxF
4897 4539 BoxF
4901 4539 BoxF
4904 4539 BoxF
4908 4538 BoxF
4911 4539 BoxF
4914 4539 BoxF
4918 4539 BoxF
4921 4539 BoxF
4925 4539 BoxF
4928 4539 BoxF
4931 4539 BoxF
4935 4539 BoxF
4938 4537 BoxF
4942 4539 BoxF
4945 4539 BoxF
4949 4539 BoxF
4952 4539 BoxF
4955 4536 BoxF
4959 4539 BoxF
4962 4539 BoxF
4966 4539 BoxF
4969 4539 BoxF
4972 4539 BoxF
4976 4538 BoxF
4979 4539 BoxF
4983 4539 BoxF
4986 4539 BoxF
4989 4539 BoxF
4993 4539 BoxF
4996 4539 BoxF
5000 4539 BoxF
5003 4539 BoxF
5006 4539 BoxF
5010 4538 BoxF
5013 4539 BoxF
5017 4539 BoxF
5020 4537 BoxF
5023 4539 BoxF
5027 4539 BoxF
5030 4538 BoxF
5034 4538 BoxF
5037 4535 BoxF
5040 4539 BoxF
5044 4539 BoxF
5047 4539 BoxF
5051 4539 BoxF
5054 4539 BoxF
5057 4539 BoxF
5061 4536 BoxF
5064 4538 BoxF
5068 4539 BoxF
5071 4539 BoxF
5075 4539 BoxF
5078 4539 BoxF
5081 4539 BoxF
5085 4537 BoxF
5088 4539 BoxF
5092 4539 BoxF
5095 4539 BoxF
5098 4539 BoxF
5102 4537 BoxF
5105 4539 BoxF
5109 4539 BoxF
5112 4539 BoxF
5115 4536 BoxF
5119 4539 BoxF
5122 4539 BoxF
5126 4539 BoxF
5129 4539 BoxF
5132 4539 BoxF
5136 4539 BoxF
5139 4539 BoxF
5143 4539 BoxF
5146 4539 BoxF
5149 4539 BoxF
5153 4539 BoxF
5156 4539 BoxF
5160 4539 BoxF
5163 4539 BoxF
5166 4539 BoxF
5170 4539 BoxF
5173 4539 BoxF
5177 4538 BoxF
5180 4539 BoxF
5183 4539 BoxF
5187 4538 BoxF
5190 4539 BoxF
5194 4539 BoxF
5197 4539 BoxF
5201 4539 BoxF
5204 4539 BoxF
5207 4539 BoxF
5211 4539 BoxF
5214 4539 BoxF
5218 4538 BoxF
5221 4539 BoxF
5224 4539 BoxF
5228 4538 BoxF
5231 4539 BoxF
5235 4538 BoxF
5238 4539 BoxF
5241 4539 BoxF
5245 4539 BoxF
5248 4538 BoxF
5252 4539 BoxF
5255 4539 BoxF
5258 4538 BoxF
5262 4539 BoxF
5265 4539 BoxF
5269 4538 BoxF
5272 4539 BoxF
5275 4539 BoxF
5279 4539 BoxF
5282 4538 BoxF
5286 4539 BoxF
5289 4539 BoxF
5292 4539 BoxF
5296 4539 BoxF
5299 4538 BoxF
5303 4538 BoxF
5306 4539 BoxF
5309 4539 BoxF
5313 4539 BoxF
5316 4539 BoxF
5320 4539 BoxF
5323 4534 BoxF
5327 4539 BoxF
5330 4539 BoxF
5333 4538 BoxF
5337 4539 BoxF
5340 4537 BoxF
5344 4538 BoxF
5347 4539 BoxF
5350 4539 BoxF
5354 4538 BoxF
5357 4539 BoxF
5361 4538 BoxF
5364 4539 BoxF
5371 4539 BoxF
5374 4539 BoxF
5378 4539 BoxF
5381 4538 BoxF
5384 4539 BoxF
5388 4536 BoxF
5391 4539 BoxF
5395 4538 BoxF
5398 4539 BoxF
5401 4539 BoxF
5405 4539 BoxF
5408 4539 BoxF
5412 4535 BoxF
5415 4538 BoxF
5418 4539 BoxF
5422 4539 BoxF
5425 4539 BoxF
5429 4539 BoxF
5435 4539 BoxF
5439 4537 BoxF
5442 4539 BoxF
5446 4539 BoxF
5449 4539 BoxF
5453 4539 BoxF
5456 4538 BoxF
5459 4538 BoxF
5463 4539 BoxF
5466 4539 BoxF
5470 4539 BoxF
5473 4539 BoxF
5476 4539 BoxF
5480 4538 BoxF
5483 4539 BoxF
5487 4539 BoxF
5490 4537 BoxF
5493 4538 BoxF
5497 4538 BoxF
5500 4535 BoxF
5504 4539 BoxF
5507 4539 BoxF
5510 4539 BoxF
5514 4539 BoxF
5517 4538 BoxF
5521 4538 BoxF
5524 4539 BoxF
5527 4539 BoxF
5531 4539 BoxF
5534 4537 BoxF
5538 4538 BoxF
5541 4537 BoxF
5544 4538 BoxF
5548 4539 BoxF
5551 4539 BoxF
5555 4539 BoxF
5558 4534 BoxF
5561 4539 BoxF
5565 4538 BoxF
5568 4539 BoxF
5572 4537 BoxF
5575 4539 BoxF
5579 4531 BoxF
5582 4539 BoxF
5585 4539 BoxF
5589 4538 BoxF
5592 4536 BoxF
5596 4536 BoxF
5599 4539 BoxF
5602 4538 BoxF
5606 4539 BoxF
5609 4537 BoxF
5613 4533 BoxF
5616 4539 BoxF
5619 4537 BoxF
5623 4538 BoxF
5626 4539 BoxF
5630 4538 BoxF
5633 4535 BoxF
5636 4532 BoxF
5640 4537 BoxF
5643 4538 BoxF
5647 4539 BoxF
5650 4538 BoxF
5653 4539 BoxF
5657 4537 BoxF
5660 4538 BoxF
5664 4531 BoxF
5670 4537 BoxF
5674 4538 BoxF
5677 4539 BoxF
5681 4538 BoxF
5684 4537 BoxF
5687 4538 BoxF
5691 4538 BoxF
5694 4536 BoxF
5698 4531 BoxF
5701 4537 BoxF
5705 4539 BoxF
5708 4537 BoxF
5711 4539 BoxF
5715 4515 BoxF
5718 4539 BoxF
5722 4536 BoxF
5725 4538 BoxF
5728 4538 BoxF
5732 4536 BoxF
5739 4526 BoxF
5742 4482 BoxF
5745 4521 BoxF
5749 4537 BoxF
5752 4539 BoxF
5756 4527 BoxF
5759 4537 BoxF
5762 4523 BoxF
5766 4537 BoxF
5769 4527 BoxF
5773 4539 BoxF
5776 4537 BoxF
5779 4535 BoxF
5783 4536 BoxF
5786 4525 BoxF
5790 4532 BoxF
5793 4534 BoxF
5796 4537 BoxF
5800 4530 BoxF
5803 4538 BoxF
5807 4539 BoxF
5810 4509 BoxF
5813 4538 BoxF
5817 4531 BoxF
5820 4533 BoxF
5824 4496 BoxF
5827 4539 BoxF
5831 4535 BoxF
5834 4539 BoxF
5837 4539 BoxF
5841 4538 BoxF
5844 4538 BoxF
5848 4533 BoxF
5851 4527 BoxF
5854 4537 BoxF
5858 4539 BoxF
5861 4538 BoxF
5865 4534 BoxF
5868 4533 BoxF
5871 4516 BoxF
5875 4536 BoxF
5878 4535 BoxF
5882 4535 BoxF
5885 4539 BoxF
5888 4536 BoxF
5892 4533 BoxF
5895 4510 BoxF
5899 4537 BoxF
5902 4527 BoxF
5905 4539 BoxF
5909 4534 BoxF
5912 4535 BoxF
5916 4539 BoxF
5919 4535 BoxF
5922 4539 BoxF
5926 4508 BoxF
5929 4538 BoxF
5933 4520 BoxF
5936 4525 BoxF
5939 4505 BoxF
5943 4527 BoxF
5946 4534 BoxF
5950 4535 BoxF
5953 4521 BoxF
5957 4527 BoxF
5960 4539 BoxF
5963 4526 BoxF
5967 4536 BoxF
5970 4501 BoxF
5977 4373 BoxF
5980 4529 BoxF
5984 4519 BoxF
5987 4527 BoxF
5991 4404 BoxF
5994 4234 BoxF
5997 4110 BoxF
6001 4446 BoxF
6004 4537 BoxF
6008 4429 BoxF
6011 4527 BoxF
6014 4338 BoxF
6018 4539 BoxF
6021 4531 BoxF
6028 4480 BoxF
6031 4517 BoxF
6035 4475 BoxF
6038 4510 BoxF
6042 4514 BoxF
6045 4420 BoxF
6048 4387 BoxF
6052 4287 BoxF
6055 4382 BoxF
6059 4344 BoxF
6062 4485 BoxF
6065 4511 BoxF
6069 4507 BoxF
6072 4439 BoxF
6076 4516 BoxF
6079 4488 BoxF
6083 4506 BoxF
6086 4512 BoxF
6089 4492 BoxF
6093 4518 BoxF
6096 4487 BoxF
6100 4514 BoxF
6103 4519 BoxF
6106 4466 BoxF
6110 4427 BoxF
6113 4481 BoxF
6117 4480 BoxF
6120 4414 BoxF
6127 4502 BoxF
6130 4507 BoxF
6137 4522 BoxF
6140 4525 BoxF
6144 4502 BoxF
6147 4367 BoxF
6151 4507 BoxF
6154 4509 BoxF
6157 4480 BoxF
6161 4504 BoxF
6164 4532 BoxF
6168 4529 BoxF
6171 4325 BoxF
6174 4472 BoxF
6178 4433 BoxF
6181 4525 BoxF
6185 4472 BoxF
6188 4514 BoxF
6191 4438 BoxF
6195 4368 BoxF
6198 4049 BoxF
6202 3799 BoxF
6205 4352 BoxF
6209 4475 BoxF
6212 3395 BoxF
6219 2048 BoxF
6222 4292 BoxF
6226 3493 BoxF
6229 3436 BoxF
6232 2836 BoxF
6236 3710 BoxF
6239 2172 BoxF
6243 4290 BoxF
6246 3604 BoxF
6249 3824 BoxF
6253 3808 BoxF
6256 4328 BoxF
6260 3406 BoxF
6263 4111 BoxF
6270 4486 BoxF
6273 4324 BoxF
6277 4350 BoxF
6287 4534 BoxF
6290 2616 BoxF
6294 4255 BoxF
6297 3377 BoxF
6300 4073 BoxF
6304 4420 BoxF
6307 4481 BoxF
6311 3752 BoxF
6314 4357 BoxF
6317 3905 BoxF
6321 4459 BoxF
6324 4441 BoxF
6328 4257 BoxF
6331 4514 BoxF
6335 4154 BoxF
6338 4471 BoxF
6341 4476 BoxF
6345 3716 BoxF
6348 4467 BoxF
6352 4496 BoxF
6355 4380 BoxF
6358 4521 BoxF
6362 4319 BoxF
6365 4368 BoxF
6369 4480 BoxF
6372 4485 BoxF
6375 4534 BoxF
6379 4190 BoxF
6382 4433 BoxF
6386 4511 BoxF
6392 4060 BoxF
6399 4081 BoxF
6406 2829 BoxF
6409 2985 BoxF
6413 3065 BoxF
6416 3770 BoxF
6420 4465 BoxF
6423 4164 BoxF
6426 3564 BoxF
6430 3948 BoxF
6433 3767 BoxF
6437 3912 BoxF
6447 3082 BoxF
6450 1590 BoxF
6454 3631 BoxF
6457 803 BoxF
6461 4511 BoxF
6464 4285 BoxF
6467 1482 BoxF
6471 2438 BoxF
6474 2446 BoxF
6478 4231 BoxF
6481 3723 BoxF
6484 1820 BoxF
6488 2353 BoxF
6491 3202 BoxF
6495 4524 BoxF
6498 4297 BoxF
6501 761 BoxF
6505 3216 BoxF
6508 3818 BoxF
6512 2480 BoxF
6518 1257 BoxF
6522 756 BoxF
6529 4406 BoxF
6532 1338 BoxF
6535 3479 BoxF
6539 2271 BoxF
6542 3791 BoxF
6546 3898 BoxF
6549 3443 BoxF
6552 3099 BoxF
6556 3962 BoxF
6559 4467 BoxF
6563 4434 BoxF
6566 4034 BoxF
6569 3453 BoxF
6583 2080 BoxF
6587 3057 BoxF
6597 982 BoxF
6600 4233 BoxF
6604 4214 BoxF
6607 4245 BoxF
6614 4120 BoxF
6624 2274 BoxF
6631 4528 BoxF
6634 4277 BoxF
6638 4466 BoxF
6641 2492 BoxF
6644 1098 BoxF
6648 3265 BoxF
6651 3956 BoxF
6658 2541 BoxF
6661 4489 BoxF
6668 1994 BoxF
6675 2120 BoxF
6678 3667 BoxF
6682 2440 BoxF
6685 2222 BoxF
6695 629 BoxF
6706 1821 BoxF
6709 1758 BoxF
6716 1660 BoxF
6733 1219 BoxF
6740 2025 BoxF
6757 2529 BoxF
6764 4147 BoxF
6770 1743 BoxF
6774 4208 BoxF
6777 3117 BoxF
6787 4117 BoxF
4427 766 BoxF
% End plot #2
1.000 UL
LTb
LCb setrgbcolor
828 4559 N
828 624 L
5975 0 V
0 3935 V
-5975 0 V
Z stroke
1.000 UP
1.000 UL
LTb
LCb setrgbcolor
stroke
grestore
end
showpage
%%Trailer
%%DocumentFonts: Symbol roman Times-Roman
