%!PS-Adobe-2.0 EPSF-2.0
%%Title: gnuplot_Zplt_spinDance_2D.eps
%%Creator: gnuplot 5.2 patchlevel 2
%%CreationDate: Wed Apr 21 15:50:40 2021
%%DocumentFonts: (atend)
%%BoundingBox: 50 50 410 302
%%EndComments
%%BeginProlog
/gnudict 256 dict def
gnudict begin
%
% The following true/false flags may be edited by hand if desired.
% The unit line width and grayscale image gamma correction may also be changed.
%
/Color true def
/Blacktext true def
/Solid false def
/Dashlength 1 def
/Landscape false def
/Level1 false def
/Level3 false def
/Rounded false def
/ClipToBoundingBox false def
/SuppressPDFMark false def
/TransparentPatterns false def
/gnulinewidth 5.000 def
/userlinewidth gnulinewidth def
/Gamma 1.0 def
/BackgroundColor {-1.000 -1.000 -1.000} def
%
/vshift -46 def
/dl1 {
  10.0 Dashlength userlinewidth gnulinewidth div mul mul mul
  Rounded { currentlinewidth 0.75 mul sub dup 0 le { pop 0.01 } if } if
} def
/dl2 {
  10.0 Dashlength userlinewidth gnulinewidth div mul mul mul
  Rounded { currentlinewidth 0.75 mul add } if
} def
/hpt_ 31.5 def
/vpt_ 31.5 def
/hpt hpt_ def
/vpt vpt_ def
/doclip {
  ClipToBoundingBox {
    newpath 50 50 moveto 410 50 lineto 410 302 lineto 50 302 lineto closepath
    clip
  } if
} def
%
% Gnuplot Prolog Version 5.1 (Oct 2015)
%
%/SuppressPDFMark true def
%
/M {moveto} bind def
/L {lineto} bind def
/R {rmoveto} bind def
/V {rlineto} bind def
/N {newpath moveto} bind def
/Z {closepath} bind def
/C {setrgbcolor} bind def
/f {rlineto fill} bind def
/g {setgray} bind def
/Gshow {show} def   % May be redefined later in the file to support UTF-8
/vpt2 vpt 2 mul def
/hpt2 hpt 2 mul def
/Lshow {currentpoint stroke M 0 vshift R 
	Blacktext {gsave 0 setgray textshow grestore} {textshow} ifelse} def
/Rshow {currentpoint stroke M dup stringwidth pop neg vshift R
	Blacktext {gsave 0 setgray textshow grestore} {textshow} ifelse} def
/Cshow {currentpoint stroke M dup stringwidth pop -2 div vshift R 
	Blacktext {gsave 0 setgray textshow grestore} {textshow} ifelse} def
/UP {dup vpt_ mul /vpt exch def hpt_ mul /hpt exch def
  /hpt2 hpt 2 mul def /vpt2 vpt 2 mul def} def
/DL {Color {setrgbcolor Solid {pop []} if 0 setdash}
 {pop pop pop 0 setgray Solid {pop []} if 0 setdash} ifelse} def
/BL {stroke userlinewidth 2 mul setlinewidth
	Rounded {1 setlinejoin 1 setlinecap} if} def
/AL {stroke userlinewidth 2 div setlinewidth
	Rounded {1 setlinejoin 1 setlinecap} if} def
/UL {dup gnulinewidth mul /userlinewidth exch def
	dup 1 lt {pop 1} if 10 mul /udl exch def} def
/PL {stroke userlinewidth setlinewidth
	Rounded {1 setlinejoin 1 setlinecap} if} def
3.8 setmiterlimit
% Classic Line colors (version 5.0)
/LCw {1 1 1} def
/LCb {0 0 0} def
/LCa {0 0 0} def
/LC0 {1 0 0} def
/LC1 {0 1 0} def
/LC2 {0 0 1} def
/LC3 {1 0 1} def
/LC4 {0 1 1} def
/LC5 {1 1 0} def
/LC6 {0 0 0} def
/LC7 {1 0.3 0} def
/LC8 {0.5 0.5 0.5} def
% Default dash patterns (version 5.0)
/LTB {BL [] LCb DL} def
/LTw {PL [] 1 setgray} def
/LTb {PL [] LCb DL} def
/LTa {AL [1 udl mul 2 udl mul] 0 setdash LCa setrgbcolor} def
/LT0 {PL [] LC0 DL} def
/LT1 {PL [2 dl1 3 dl2] LC1 DL} def
/LT2 {PL [1 dl1 1.5 dl2] LC2 DL} def
/LT3 {PL [6 dl1 2 dl2 1 dl1 2 dl2] LC3 DL} def
/LT4 {PL [1 dl1 2 dl2 6 dl1 2 dl2 1 dl1 2 dl2] LC4 DL} def
/LT5 {PL [4 dl1 2 dl2] LC5 DL} def
/LT6 {PL [1.5 dl1 1.5 dl2 1.5 dl1 1.5 dl2 1.5 dl1 6 dl2] LC6 DL} def
/LT7 {PL [3 dl1 3 dl2 1 dl1 3 dl2] LC7 DL} def
/LT8 {PL [2 dl1 2 dl2 2 dl1 6 dl2] LC8 DL} def
/SL {[] 0 setdash} def
/Pnt {stroke [] 0 setdash gsave 1 setlinecap M 0 0 V stroke grestore} def
/Dia {stroke [] 0 setdash 2 copy vpt add M
  hpt neg vpt neg V hpt vpt neg V
  hpt vpt V hpt neg vpt V closepath stroke
  Pnt} def
/Pls {stroke [] 0 setdash vpt sub M 0 vpt2 V
  currentpoint stroke M
  hpt neg vpt neg R hpt2 0 V stroke
 } def
/Box {stroke [] 0 setdash 2 copy exch hpt sub exch vpt add M
  0 vpt2 neg V hpt2 0 V 0 vpt2 V
  hpt2 neg 0 V closepath stroke
  Pnt} def
/Crs {stroke [] 0 setdash exch hpt sub exch vpt add M
  hpt2 vpt2 neg V currentpoint stroke M
  hpt2 neg 0 R hpt2 vpt2 V stroke} def
/TriU {stroke [] 0 setdash 2 copy vpt 1.12 mul add M
  hpt neg vpt -1.62 mul V
  hpt 2 mul 0 V
  hpt neg vpt 1.62 mul V closepath stroke
  Pnt} def
/Star {2 copy Pls Crs} def
/BoxF {stroke [] 0 setdash exch hpt sub exch vpt add M
  0 vpt2 neg V hpt2 0 V 0 vpt2 V
  hpt2 neg 0 V closepath fill} def
/TriUF {stroke [] 0 setdash vpt 1.12 mul add M
  hpt neg vpt -1.62 mul V
  hpt 2 mul 0 V
  hpt neg vpt 1.62 mul V closepath fill} def
/TriD {stroke [] 0 setdash 2 copy vpt 1.12 mul sub M
  hpt neg vpt 1.62 mul V
  hpt 2 mul 0 V
  hpt neg vpt -1.62 mul V closepath stroke
  Pnt} def
/TriDF {stroke [] 0 setdash vpt 1.12 mul sub M
  hpt neg vpt 1.62 mul V
  hpt 2 mul 0 V
  hpt neg vpt -1.62 mul V closepath fill} def
/DiaF {stroke [] 0 setdash vpt add M
  hpt neg vpt neg V hpt vpt neg V
  hpt vpt V hpt neg vpt V closepath fill} def
/Pent {stroke [] 0 setdash 2 copy gsave
  translate 0 hpt M 4 {72 rotate 0 hpt L} repeat
  closepath stroke grestore Pnt} def
/PentF {stroke [] 0 setdash gsave
  translate 0 hpt M 4 {72 rotate 0 hpt L} repeat
  closepath fill grestore} def
/Circle {stroke [] 0 setdash 2 copy
  hpt 0 360 arc stroke Pnt} def
/CircleF {stroke [] 0 setdash hpt 0 360 arc fill} def
/C0 {BL [] 0 setdash 2 copy moveto vpt 90 450 arc} bind def
/C1 {BL [] 0 setdash 2 copy moveto
	2 copy vpt 0 90 arc closepath fill
	vpt 0 360 arc closepath} bind def
/C2 {BL [] 0 setdash 2 copy moveto
	2 copy vpt 90 180 arc closepath fill
	vpt 0 360 arc closepath} bind def
/C3 {BL [] 0 setdash 2 copy moveto
	2 copy vpt 0 180 arc closepath fill
	vpt 0 360 arc closepath} bind def
/C4 {BL [] 0 setdash 2 copy moveto
	2 copy vpt 180 270 arc closepath fill
	vpt 0 360 arc closepath} bind def
/C5 {BL [] 0 setdash 2 copy moveto
	2 copy vpt 0 90 arc
	2 copy moveto
	2 copy vpt 180 270 arc closepath fill
	vpt 0 360 arc} bind def
/C6 {BL [] 0 setdash 2 copy moveto
	2 copy vpt 90 270 arc closepath fill
	vpt 0 360 arc closepath} bind def
/C7 {BL [] 0 setdash 2 copy moveto
	2 copy vpt 0 270 arc closepath fill
	vpt 0 360 arc closepath} bind def
/C8 {BL [] 0 setdash 2 copy moveto
	2 copy vpt 270 360 arc closepath fill
	vpt 0 360 arc closepath} bind def
/C9 {BL [] 0 setdash 2 copy moveto
	2 copy vpt 270 450 arc closepath fill
	vpt 0 360 arc closepath} bind def
/C10 {BL [] 0 setdash 2 copy 2 copy moveto vpt 270 360 arc closepath fill
	2 copy moveto
	2 copy vpt 90 180 arc closepath fill
	vpt 0 360 arc closepath} bind def
/C11 {BL [] 0 setdash 2 copy moveto
	2 copy vpt 0 180 arc closepath fill
	2 copy moveto
	2 copy vpt 270 360 arc closepath fill
	vpt 0 360 arc closepath} bind def
/C12 {BL [] 0 setdash 2 copy moveto
	2 copy vpt 180 360 arc closepath fill
	vpt 0 360 arc closepath} bind def
/C13 {BL [] 0 setdash 2 copy moveto
	2 copy vpt 0 90 arc closepath fill
	2 copy moveto
	2 copy vpt 180 360 arc closepath fill
	vpt 0 360 arc closepath} bind def
/C14 {BL [] 0 setdash 2 copy moveto
	2 copy vpt 90 360 arc closepath fill
	vpt 0 360 arc} bind def
/C15 {BL [] 0 setdash 2 copy vpt 0 360 arc closepath fill
	vpt 0 360 arc closepath} bind def
/Rec {newpath 4 2 roll moveto 1 index 0 rlineto 0 exch rlineto
	neg 0 rlineto closepath} bind def
/Square {dup Rec} bind def
/Bsquare {vpt sub exch vpt sub exch vpt2 Square} bind def
/S0 {BL [] 0 setdash 2 copy moveto 0 vpt rlineto BL Bsquare} bind def
/S1 {BL [] 0 setdash 2 copy vpt Square fill Bsquare} bind def
/S2 {BL [] 0 setdash 2 copy exch vpt sub exch vpt Square fill Bsquare} bind def
/S3 {BL [] 0 setdash 2 copy exch vpt sub exch vpt2 vpt Rec fill Bsquare} bind def
/S4 {BL [] 0 setdash 2 copy exch vpt sub exch vpt sub vpt Square fill Bsquare} bind def
/S5 {BL [] 0 setdash 2 copy 2 copy vpt Square fill
	exch vpt sub exch vpt sub vpt Square fill Bsquare} bind def
/S6 {BL [] 0 setdash 2 copy exch vpt sub exch vpt sub vpt vpt2 Rec fill Bsquare} bind def
/S7 {BL [] 0 setdash 2 copy exch vpt sub exch vpt sub vpt vpt2 Rec fill
	2 copy vpt Square fill Bsquare} bind def
/S8 {BL [] 0 setdash 2 copy vpt sub vpt Square fill Bsquare} bind def
/S9 {BL [] 0 setdash 2 copy vpt sub vpt vpt2 Rec fill Bsquare} bind def
/S10 {BL [] 0 setdash 2 copy vpt sub vpt Square fill 2 copy exch vpt sub exch vpt Square fill
	Bsquare} bind def
/S11 {BL [] 0 setdash 2 copy vpt sub vpt Square fill 2 copy exch vpt sub exch vpt2 vpt Rec fill
	Bsquare} bind def
/S12 {BL [] 0 setdash 2 copy exch vpt sub exch vpt sub vpt2 vpt Rec fill Bsquare} bind def
/S13 {BL [] 0 setdash 2 copy exch vpt sub exch vpt sub vpt2 vpt Rec fill
	2 copy vpt Square fill Bsquare} bind def
/S14 {BL [] 0 setdash 2 copy exch vpt sub exch vpt sub vpt2 vpt Rec fill
	2 copy exch vpt sub exch vpt Square fill Bsquare} bind def
/S15 {BL [] 0 setdash 2 copy Bsquare fill Bsquare} bind def
/D0 {gsave translate 45 rotate 0 0 S0 stroke grestore} bind def
/D1 {gsave translate 45 rotate 0 0 S1 stroke grestore} bind def
/D2 {gsave translate 45 rotate 0 0 S2 stroke grestore} bind def
/D3 {gsave translate 45 rotate 0 0 S3 stroke grestore} bind def
/D4 {gsave translate 45 rotate 0 0 S4 stroke grestore} bind def
/D5 {gsave translate 45 rotate 0 0 S5 stroke grestore} bind def
/D6 {gsave translate 45 rotate 0 0 S6 stroke grestore} bind def
/D7 {gsave translate 45 rotate 0 0 S7 stroke grestore} bind def
/D8 {gsave translate 45 rotate 0 0 S8 stroke grestore} bind def
/D9 {gsave translate 45 rotate 0 0 S9 stroke grestore} bind def
/D10 {gsave translate 45 rotate 0 0 S10 stroke grestore} bind def
/D11 {gsave translate 45 rotate 0 0 S11 stroke grestore} bind def
/D12 {gsave translate 45 rotate 0 0 S12 stroke grestore} bind def
/D13 {gsave translate 45 rotate 0 0 S13 stroke grestore} bind def
/D14 {gsave translate 45 rotate 0 0 S14 stroke grestore} bind def
/D15 {gsave translate 45 rotate 0 0 S15 stroke grestore} bind def
/DiaE {stroke [] 0 setdash vpt add M
  hpt neg vpt neg V hpt vpt neg V
  hpt vpt V hpt neg vpt V closepath stroke} def
/BoxE {stroke [] 0 setdash exch hpt sub exch vpt add M
  0 vpt2 neg V hpt2 0 V 0 vpt2 V
  hpt2 neg 0 V closepath stroke} def
/TriUE {stroke [] 0 setdash vpt 1.12 mul add M
  hpt neg vpt -1.62 mul V
  hpt 2 mul 0 V
  hpt neg vpt 1.62 mul V closepath stroke} def
/TriDE {stroke [] 0 setdash vpt 1.12 mul sub M
  hpt neg vpt 1.62 mul V
  hpt 2 mul 0 V
  hpt neg vpt -1.62 mul V closepath stroke} def
/PentE {stroke [] 0 setdash gsave
  translate 0 hpt M 4 {72 rotate 0 hpt L} repeat
  closepath stroke grestore} def
/CircE {stroke [] 0 setdash 
  hpt 0 360 arc stroke} def
/Opaque {gsave closepath 1 setgray fill grestore 0 setgray closepath} def
/DiaW {stroke [] 0 setdash vpt add M
  hpt neg vpt neg V hpt vpt neg V
  hpt vpt V hpt neg vpt V Opaque stroke} def
/BoxW {stroke [] 0 setdash exch hpt sub exch vpt add M
  0 vpt2 neg V hpt2 0 V 0 vpt2 V
  hpt2 neg 0 V Opaque stroke} def
/TriUW {stroke [] 0 setdash vpt 1.12 mul add M
  hpt neg vpt -1.62 mul V
  hpt 2 mul 0 V
  hpt neg vpt 1.62 mul V Opaque stroke} def
/TriDW {stroke [] 0 setdash vpt 1.12 mul sub M
  hpt neg vpt 1.62 mul V
  hpt 2 mul 0 V
  hpt neg vpt -1.62 mul V Opaque stroke} def
/PentW {stroke [] 0 setdash gsave
  translate 0 hpt M 4 {72 rotate 0 hpt L} repeat
  Opaque stroke grestore} def
/CircW {stroke [] 0 setdash 
  hpt 0 360 arc Opaque stroke} def
/BoxFill {gsave Rec 1 setgray fill grestore} def
/Density {
  /Fillden exch def
  currentrgbcolor
  /ColB exch def /ColG exch def /ColR exch def
  /ColR ColR Fillden mul Fillden sub 1 add def
  /ColG ColG Fillden mul Fillden sub 1 add def
  /ColB ColB Fillden mul Fillden sub 1 add def
  ColR ColG ColB setrgbcolor} def
/BoxColFill {gsave Rec PolyFill} def
/PolyFill {gsave Density fill grestore grestore} def
/h {rlineto rlineto rlineto gsave closepath fill grestore} bind def
%
% PostScript Level 1 Pattern Fill routine for rectangles
% Usage: x y w h s a XX PatternFill
%	x,y = lower left corner of box to be filled
%	w,h = width and height of box
%	  a = angle in degrees between lines and x-axis
%	 XX = 0/1 for no/yes cross-hatch
%
/PatternFill {gsave /PFa [ 9 2 roll ] def
  PFa 0 get PFa 2 get 2 div add PFa 1 get PFa 3 get 2 div add translate
  PFa 2 get -2 div PFa 3 get -2 div PFa 2 get PFa 3 get Rec
  TransparentPatterns {} {gsave 1 setgray fill grestore} ifelse
  clip
  currentlinewidth 0.5 mul setlinewidth
  /PFs PFa 2 get dup mul PFa 3 get dup mul add sqrt def
  0 0 M PFa 5 get rotate PFs -2 div dup translate
  0 1 PFs PFa 4 get div 1 add floor cvi
	{PFa 4 get mul 0 M 0 PFs V} for
  0 PFa 6 get ne {
	0 1 PFs PFa 4 get div 1 add floor cvi
	{PFa 4 get mul 0 2 1 roll M PFs 0 V} for
 } if
  stroke grestore} def
%
/languagelevel where
 {pop languagelevel} {1} ifelse
dup 2 lt
	{/InterpretLevel1 true def
	 /InterpretLevel3 false def}
	{/InterpretLevel1 Level1 def
	 2 gt
	    {/InterpretLevel3 Level3 def}
	    {/InterpretLevel3 false def}
	 ifelse }
 ifelse
%
% PostScript level 2 pattern fill definitions
%
/Level2PatternFill {
/Tile8x8 {/PaintType 2 /PatternType 1 /TilingType 1 /BBox [0 0 8 8] /XStep 8 /YStep 8}
	bind def
/KeepColor {currentrgbcolor [/Pattern /DeviceRGB] setcolorspace} bind def
<< Tile8x8
 /PaintProc {0.5 setlinewidth pop 0 0 M 8 8 L 0 8 M 8 0 L stroke} 
>> matrix makepattern
/Pat1 exch def
<< Tile8x8
 /PaintProc {0.5 setlinewidth pop 0 0 M 8 8 L 0 8 M 8 0 L stroke
	0 4 M 4 8 L 8 4 L 4 0 L 0 4 L stroke}
>> matrix makepattern
/Pat2 exch def
<< Tile8x8
 /PaintProc {0.5 setlinewidth pop 0 0 M 0 8 L
	8 8 L 8 0 L 0 0 L fill}
>> matrix makepattern
/Pat3 exch def
<< Tile8x8
 /PaintProc {0.5 setlinewidth pop -4 8 M 8 -4 L
	0 12 M 12 0 L stroke}
>> matrix makepattern
/Pat4 exch def
<< Tile8x8
 /PaintProc {0.5 setlinewidth pop -4 0 M 8 12 L
	0 -4 M 12 8 L stroke}
>> matrix makepattern
/Pat5 exch def
<< Tile8x8
 /PaintProc {0.5 setlinewidth pop -2 8 M 4 -4 L
	0 12 M 8 -4 L 4 12 M 10 0 L stroke}
>> matrix makepattern
/Pat6 exch def
<< Tile8x8
 /PaintProc {0.5 setlinewidth pop -2 0 M 4 12 L
	0 -4 M 8 12 L 4 -4 M 10 8 L stroke}
>> matrix makepattern
/Pat7 exch def
<< Tile8x8
 /PaintProc {0.5 setlinewidth pop 8 -2 M -4 4 L
	12 0 M -4 8 L 12 4 M 0 10 L stroke}
>> matrix makepattern
/Pat8 exch def
<< Tile8x8
 /PaintProc {0.5 setlinewidth pop 0 -2 M 12 4 L
	-4 0 M 12 8 L -4 4 M 8 10 L stroke}
>> matrix makepattern
/Pat9 exch def
/Pattern1 {PatternBgnd KeepColor Pat1 setpattern} bind def
/Pattern2 {PatternBgnd KeepColor Pat2 setpattern} bind def
/Pattern3 {PatternBgnd KeepColor Pat3 setpattern} bind def
/Pattern4 {PatternBgnd KeepColor Landscape {Pat5} {Pat4} ifelse setpattern} bind def
/Pattern5 {PatternBgnd KeepColor Landscape {Pat4} {Pat5} ifelse setpattern} bind def
/Pattern6 {PatternBgnd KeepColor Landscape {Pat9} {Pat6} ifelse setpattern} bind def
/Pattern7 {PatternBgnd KeepColor Landscape {Pat8} {Pat7} ifelse setpattern} bind def
} def
%
%
%End of PostScript Level 2 code
%
/PatternBgnd {
  TransparentPatterns {} {gsave 1 setgray fill grestore} ifelse
} def
%
% Substitute for Level 2 pattern fill codes with
% grayscale if Level 2 support is not selected.
%
/Level1PatternFill {
/Pattern1 {0.250 Density} bind def
/Pattern2 {0.500 Density} bind def
/Pattern3 {0.750 Density} bind def
/Pattern4 {0.125 Density} bind def
/Pattern5 {0.375 Density} bind def
/Pattern6 {0.625 Density} bind def
/Pattern7 {0.875 Density} bind def
} def
%
% Now test for support of Level 2 code
%
Level1 {Level1PatternFill} {Level2PatternFill} ifelse
%
/Symbol-Oblique /Symbol findfont [1 0 .167 1 0 0] makefont
dup length dict begin {1 index /FID eq {pop pop} {def} ifelse} forall
currentdict end definefont pop
%
/Metrics {ExtendTextBox Gswidth} def
/Lwidth {currentpoint stroke M 0 vshift R Metrics} def
/Rwidth {currentpoint stroke M dup stringwidth pop neg vshift R Metrics} def
/Cwidth {currentpoint stroke M dup stringwidth pop -2 div vshift R Metrics} def
/GLwidth {currentpoint stroke M 0 vshift R {ExtendTextBox} forall} def
/GRwidth {currentpoint stroke M dup Gwidth vshift R {ExtendTextBox} forall} def
/GCwidth {currentpoint stroke M dup Gwidth 2 div vshift R {ExtendTextBox} forall} def
/GLwidth2 {0 Gwidth AddGlyphWidth} def
/GRwidth2 {Gwidth -1 mul 0 AddGlyphWidth} def
/GCwidth2 {Gwidth 2 div dup -1 mul AddGlyphWidth} def
/AddGlyphWidth { dup TBx2 gt {userdict /TBx2 3 -1 roll put} {pop} ifelse
                 dup TBx1 lt {userdict /TBx1 3 -1 roll put} {pop} ifelse } def
/MFshow {
   { dup 5 get 3 ge
     { 5 get 3 eq {gsave} {grestore} ifelse }
     {dup dup 0 get findfont exch 1 get scalefont setfont
     [ currentpoint ] exch dup 2 get 0 exch R dup 5 get 2 ne {dup dup 6
     get exch 4 get {textshow} {Metrics pop 0 R} ifelse }if dup 5 get 0 eq
     {dup 3 get {2 get neg 0 exch R pop} {pop aload pop M} ifelse} {dup 5
     get 1 eq {dup 2 get exch dup 3 get exch 6 get Gswidth pop -2 div
     dup 0 R} {dup 6 get Gswidth pop -2 div 0 R 6 get
     textshow 2 index {aload pop M neg 3 -1 roll neg R pop pop} {pop pop pop
     pop aload pop M} ifelse }ifelse }ifelse }
     ifelse }
   forall} def
/Gswidth {dup type /stringtype eq {stringwidth} {pop (n) stringwidth} ifelse} def
/MFwidth {0 exch { dup 5 get 3 ge { 5 get 3 eq { 0 } { pop } ifelse }
 {dup 3 get{dup dup 0 get findfont exch 1 get scalefont setfont
     6 get Gswidth pop add} {pop} ifelse} ifelse} forall} def
/MLshow { currentpoint stroke M
  0 exch R
  Blacktext {gsave 0 setgray MFshow grestore} {MFshow} ifelse } bind def
/MRshow { currentpoint stroke M
  exch dup MFwidth neg 3 -1 roll R
  Blacktext {gsave 0 setgray MFshow grestore} {MFshow} ifelse } bind def
/MCshow { currentpoint stroke M
  exch dup MFwidth -2 div 3 -1 roll R
  Blacktext {gsave 0 setgray MFshow grestore} {MFshow} ifelse } bind def
/XYsave    { [( ) 1 2 true false 3 ()] } bind def
/XYrestore { [( ) 1 2 true false 4 ()] } bind def
Level1 SuppressPDFMark or 
{} {
/SDict 10 dict def
systemdict /pdfmark known not {
  userdict /pdfmark systemdict /cleartomark get put
} if
SDict begin [
  /Title (gnuplot_Zplt_spinDance_2D.eps)
  /Subject (gnuplot plot)
  /Creator (gnuplot 5.2 patchlevel 2)
%  /Producer (gnuplot)
%  /Keywords ()
  /CreationDate (Wed Apr 21 15:50:40 2021)
  /DOCINFO pdfmark
end
} ifelse
%
% Support for boxed text - Ethan A Merritt Sep 2016
%
/InitTextBox { userdict /TBy2 3 -1 roll put userdict /TBx2 3 -1 roll put
           userdict /TBy1 3 -1 roll put userdict /TBx1 3 -1 roll put
	   /Boxing true def } def
/ExtendTextBox { dup type /stringtype eq
    { Boxing { gsave dup false charpath pathbbox
      dup TBy2 gt {userdict /TBy2 3 -1 roll put} {pop} ifelse
      dup TBx2 gt {userdict /TBx2 3 -1 roll put} {pop} ifelse
      dup TBy1 lt {userdict /TBy1 3 -1 roll put} {pop} ifelse
      dup TBx1 lt {userdict /TBx1 3 -1 roll put} {pop} ifelse
      grestore } if }
    {} ifelse} def
/PopTextBox { newpath TBx1 TBxmargin sub TBy1 TBymargin sub M
               TBx1 TBxmargin sub TBy2 TBymargin add L
	       TBx2 TBxmargin add TBy2 TBymargin add L
	       TBx2 TBxmargin add TBy1 TBymargin sub L closepath } def
/DrawTextBox { PopTextBox stroke /Boxing false def} def
/FillTextBox { gsave PopTextBox fill grestore /Boxing false def} def
0 0 0 0 InitTextBox
/TBxmargin 20 def
/TBymargin 20 def
/Boxing false def
/textshow { ExtendTextBox Gshow } def
%
end
%%EndProlog
%%Page: 1 1
gnudict begin
gsave
doclip
50 50 translate
0.050 0.050 scale
0 setgray
newpath
(Helvetica) findfont 140 scalefont setfont
BackgroundColor 0 lt 3 1 roll 0 lt exch 0 lt or or not {BackgroundColor C 1.000 0 0 7200.00 5040.00 BoxColFill} if
1.000 UL
LTb
LCb setrgbcolor
1.000 UL
LTa
LCb setrgbcolor
878 2533 M
5401 0 V
stroke
LTa
LCb setrgbcolor
3578 168 M
0 4731 V
1.000 UP
stroke
LTb
LCb setrgbcolor
% Begin plot #1
6.000 UL
LTb
0.58 0.00 0.83 C 5155 3107 M
18 -51 V
16 -52 V
14 -52 V
13 -53 V
11 -53 V
9 -53 V
8 -54 V
6 -54 V
4 -54 V
2 -54 V
0 -54 V
-1 -54 V
-3 -55 V
-5 -54 V
-6 -53 V
-8 -54 V
-10 -53 V
-12 -53 V
-13 -53 V
-15 -52 V
-17 -51 V
-18 -51 V
-20 -51 V
-22 -50 V
-23 -49 V
-25 -48 V
-26 -47 V
-28 -47 V
-29 -45 V
-31 -45 V
-32 -44 V
-48 -59 V
291 1652 R
18 -51 V
16 -52 V
14 -52 V
13 -53 V
11 -53 V
9 -53 V
8 -54 V
6 -54 V
4 -54 V
2 -54 V
0 -54 V
-1 -54 V
-3 -55 V
-5 -54 V
-6 -53 V
-8 -54 V
-10 -53 V
-12 -53 V
-13 -53 V
-15 -52 V
-17 -51 V
-18 -51 V
-20 -51 V
-22 -50 V
-23 -49 V
-25 -48 V
-26 -47 V
-28 -47 V
-29 -45 V
-31 -45 V
-32 -44 V
-48 -59 V
% End plot #1
% Begin plot #2
stroke
LTb
0.00 0.62 0.45 C 4864 1455 M
-36 -41 V
-37 -40 V
-38 -38 V
-39 -38 V
-40 -36 V
-42 -35 V
-43 -33 V
-44 -32 V
-44 -30 V
-46 -29 V
-47 -28 V
-47 -26 V
-49 -25 V
-49 -22 V
-50 -22 V
-50 -19 V
-51 -19 V
-52 -16 V
-52 -15 V
-53 -13 V
-53 -11 V
-53 -10 V
-54 -7 V
-54 -7 V
-54 -4 V
-54 -3 V
-54 -1 V
-54 1 V
-55 3 V
-54 4 V
-53 6 V
-76 12 V
1577 574 R
-36 -41 V
-37 -40 V
-38 -38 V
-39 -38 V
-40 -36 V
-42 -35 V
-43 -33 V
-44 -32 V
-44 -30 V
-46 -29 V
-47 -28 V
-47 -26 V
-49 -25 V
-49 -22 V
-50 -22 V
-50 -19 V
-51 -19 V
-52 -16 V
-52 -15 V
-53 -13 V
-53 -11 V
-53 -10 V
-54 -7 V
-54 -7 V
-54 -4 V
-54 -3 V
-54 -1 V
-54 1 V
-55 3 V
-54 4 V
-53 6 V
-76 12 V
% End plot #2
% Begin plot #3
stroke
LTb
0.34 0.71 0.91 C 3287 881 M
-53 10 V
-53 12 V
-52 14 V
-52 15 V
-52 17 V
-51 19 V
-50 20 V
-50 22 V
-48 24 V
-48 25 V
-48 27 V
-46 28 V
-45 29 V
-45 32 V
-43 32 V
-43 34 V
-41 35 V
-40 37 V
-39 38 V
-37 39 V
-36 40 V
-35 41 V
-34 43 V
-32 43 V
-31 45 V
-30 46 V
-27 46 V
-27 48 V
-25 48 V
-23 49 V
-21 49 V
-28 72 V
3287 881 M
-53 10 V
-53 12 V
-52 14 V
-52 15 V
-52 17 V
-51 19 V
-50 20 V
-50 22 V
-48 24 V
-48 25 V
-48 27 V
-46 28 V
-45 29 V
-45 32 V
-43 32 V
-43 34 V
-41 35 V
-40 37 V
-39 38 V
-37 39 V
-36 40 V
-35 41 V
-34 43 V
-32 43 V
-31 45 V
-30 46 V
-27 46 V
-27 48 V
-25 48 V
-23 49 V
-21 49 V
-28 72 V
% End plot #3
% Begin plot #4
stroke
LTb
0.90 0.62 0.00 C 2002 1960 M
-18 51 V
-16 52 V
-14 52 V
-13 53 V
-11 53 V
-9 53 V
-8 54 V
-6 54 V
-4 54 V
-2 54 V
0 54 V
1 54 V
3 55 V
5 54 V
6 53 V
8 54 V
10 53 V
12 53 V
13 53 V
15 52 V
17 51 V
18 51 V
20 51 V
22 50 V
23 49 V
25 48 V
26 47 V
28 47 V
29 45 V
31 45 V
32 44 V
48 59 V
2002 1960 M
-18 51 V
-16 52 V
-14 52 V
-13 53 V
-11 53 V
-9 53 V
-8 54 V
-6 54 V
-4 54 V
-2 54 V
0 54 V
1 54 V
3 55 V
5 54 V
6 53 V
8 54 V
10 53 V
12 53 V
13 53 V
15 52 V
17 51 V
18 51 V
20 51 V
22 50 V
23 49 V
25 48 V
26 47 V
28 47 V
29 45 V
31 45 V
32 44 V
48 59 V
% End plot #4
% Begin plot #5
stroke
LTb
0.94 0.89 0.26 C 2293 3612 M
36 41 V
37 40 V
38 38 V
39 38 V
40 36 V
42 35 V
43 33 V
44 32 V
44 30 V
46 29 V
47 28 V
47 26 V
49 25 V
49 22 V
50 22 V
50 19 V
51 19 V
52 16 V
52 15 V
53 13 V
53 11 V
53 10 V
54 7 V
54 7 V
54 4 V
54 3 V
54 1 V
54 -1 V
55 -3 V
54 -4 V
53 -6 V
76 -12 V
2293 3612 M
36 41 V
37 40 V
38 38 V
39 38 V
40 36 V
42 35 V
43 33 V
44 32 V
44 30 V
46 29 V
47 28 V
47 26 V
49 25 V
49 22 V
50 22 V
50 19 V
51 19 V
52 16 V
52 15 V
53 13 V
53 11 V
53 10 V
54 7 V
54 7 V
54 4 V
54 3 V
54 1 V
54 -1 V
55 -3 V
54 -4 V
53 -6 V
76 -12 V
% End plot #5
% Begin plot #6
stroke
LTb
0.00 0.45 0.70 C 3870 4186 M
53 -10 V
53 -12 V
52 -14 V
52 -15 V
52 -17 V
51 -19 V
50 -20 V
50 -22 V
48 -24 V
48 -25 V
48 -27 V
46 -28 V
45 -29 V
45 -32 V
43 -32 V
43 -34 V
41 -35 V
40 -37 V
39 -38 V
37 -39 V
36 -40 V
35 -41 V
34 -43 V
32 -43 V
31 -45 V
30 -46 V
27 -46 V
27 -48 V
25 -48 V
23 -49 V
21 -49 V
28 -72 V
3870 4186 M
53 -10 V
53 -12 V
52 -14 V
52 -15 V
52 -17 V
51 -19 V
50 -20 V
50 -22 V
48 -24 V
48 -25 V
48 -27 V
46 -28 V
45 -29 V
45 -32 V
43 -32 V
43 -34 V
41 -35 V
40 -37 V
39 -38 V
37 -39 V
36 -40 V
35 -41 V
34 -43 V
32 -43 V
31 -45 V
30 -46 V
27 -46 V
27 -48 V
25 -48 V
23 -49 V
21 -49 V
28 -72 V
% End plot #6
% Begin plot #7
stroke
1.000 UL
LTb
0.90 0.12 0.06 C 1.000 UL
LTb
0.90 0.12 0.06 C 5136 3183 M
-18 26 V
2 -32 V
35 -70 R
-37 102 V
stroke
gsave [] 0 setdash
5136 3183 M
-18 26 V
2 -32 V
stroke
grestore
4963 3997 M
-61 109 V
-1 -125 V
272 -925 R
4902 4106 L
stroke
gsave [] 0 setdash
4963 3997 M
-61 109 V
-1 -125 V
stroke
grestore
5072 3961 M
-51 115 V
-13 -125 V
181 -947 R
5021 4076 L
stroke
gsave [] 0 setdash
5072 3961 M
-51 115 V
-13 -125 V
stroke
grestore
5179 3916 M
-39 119 V
-25 -123 V
88 -960 R
-63 1083 V
stroke
gsave [] 0 setdash
5179 3916 M
-39 119 V
-25 -123 V
stroke
grestore
5285 3861 M
-27 122 V
-37 -120 V
-5 -964 R
42 1084 V
stroke
gsave [] 0 setdash
5285 3861 M
-27 122 V
-37 -120 V
stroke
grestore
5389 3796 M
-15 125 V
-48 -116 V
-99 -959 R
147 1075 V
stroke
gsave [] 0 setdash
5389 3796 M
-15 125 V
-48 -116 V
stroke
grestore
5489 3723 M
-3 125 V
-59 -110 V
5236 2793 M
250 1055 V
stroke
gsave [] 0 setdash
5489 3723 M
-3 125 V
-59 -110 V
stroke
grestore
5587 3640 M
8 125 V
-70 -104 V
5244 2739 M
351 1026 V
stroke
gsave [] 0 setdash
5587 3640 M
8 125 V
-70 -104 V
stroke
grestore
5678 3549 M
20 124 V
-79 -97 V
5250 2685 M
448 988 V
stroke
gsave [] 0 setdash
5678 3549 M
20 124 V
-79 -97 V
stroke
grestore
5764 3449 M
32 121 V
-89 -89 V
5254 2631 M
542 939 V
stroke
gsave [] 0 setdash
5764 3449 M
32 121 V
-89 -89 V
stroke
grestore
5842 3342 M
44 117 V
-97 -80 V
5256 2577 M
630 882 V
stroke
gsave [] 0 setdash
5842 3342 M
44 117 V
-97 -80 V
stroke
grestore
5914 3227 M
55 113 V
-104 -70 V
5256 2523 M
713 817 V
stroke
gsave [] 0 setdash
5914 3227 M
55 113 V
-104 -70 V
stroke
grestore
5978 3106 M
66 107 V
-110 -59 V
5255 2469 M
789 744 V
stroke
gsave [] 0 setdash
5978 3106 M
66 107 V
-110 -59 V
stroke
grestore
6033 2979 M
76 100 V
-116 -48 V
5252 2414 M
857 665 V
stroke
gsave [] 0 setdash
6033 2979 M
76 100 V
-116 -48 V
stroke
grestore
6080 2847 M
85 92 V
-120 -37 V
5247 2360 M
918 579 V
stroke
gsave [] 0 setdash
6080 2847 M
85 92 V
-120 -37 V
stroke
grestore
6116 2711 M
94 83 V
-123 -25 V
5241 2307 M
969 487 V
stroke
gsave [] 0 setdash
6116 2711 M
94 83 V
-123 -25 V
stroke
grestore
6143 2570 M
101 74 V
-125 -13 V
5233 2253 M
1011 391 V
stroke
gsave [] 0 setdash
6143 2570 M
101 74 V
-125 -13 V
stroke
grestore
6159 2427 M
108 64 V
-125 -1 V
5223 2200 M
1044 291 V
stroke
gsave [] 0 setdash
6159 2427 M
108 64 V
-125 -1 V
stroke
grestore
6165 2283 M
114 53 V
-125 10 V
5211 2147 M
1068 189 V
stroke
gsave [] 0 setdash
6165 2283 M
114 53 V
-125 10 V
stroke
grestore
6161 2137 M
118 42 V
-123 22 V
5198 2094 M
1081 85 V
stroke
gsave [] 0 setdash
6161 2137 M
118 42 V
-123 22 V
stroke
grestore
6145 1992 M
122 30 V
-121 34 V
-963 -14 R
1084 -20 V
stroke
gsave [] 0 setdash
6145 1992 M
122 30 V
-121 34 V
stroke
grestore
6119 1847 M
124 18 V
-117 46 V
-960 80 R
6243 1865 L
stroke
gsave [] 0 setdash
6119 1847 M
124 18 V
-117 46 V
stroke
grestore
6083 1704 M
125 6 V
-112 57 V
-948 173 R
6208 1710 L
stroke
gsave [] 0 setdash
6083 1704 M
125 6 V
-112 57 V
stroke
grestore
6035 1565 M
125 -6 V
-105 68 V
-927 262 R
6160 1559 L
stroke
gsave [] 0 setdash
6035 1565 M
125 -6 V
-105 68 V
stroke
grestore
5978 1428 M
124 -18 V
-98 78 V
-898 351 R
996 -429 V
stroke
gsave [] 0 setdash
5978 1428 M
124 -18 V
-98 78 V
stroke
grestore
5911 1297 M
122 -30 V
-90 87 V
-860 436 R
950 -523 V
stroke
gsave [] 0 setdash
5911 1297 M
122 -30 V
-90 87 V
stroke
grestore
5835 1170 M
118 -41 V
-81 95 V
-814 518 R
895 -613 V
stroke
gsave [] 0 setdash
5835 1170 M
118 -41 V
-81 95 V
stroke
grestore
5749 1051 M
114 -53 V
-72 103 V
-759 594 R
5863 998 L
stroke
gsave [] 0 setdash
5749 1051 M
114 -53 V
-72 103 V
stroke
grestore
5656 938 M
108 -63 V
-62 109 V
-698 664 R
5764 875 L
stroke
gsave [] 0 setdash
5656 938 M
108 -63 V
-62 109 V
stroke
grestore
5555 833 M
101 -74 V
-51 115 V
-630 729 R
5656 759 L
stroke
gsave [] 0 setdash
5555 833 M
101 -74 V
-51 115 V
stroke
grestore
5446 735 M
94 -83 V
-39 119 V
-557 787 R
5540 652 L
stroke
gsave [] 0 setdash
5446 735 M
94 -83 V
-39 119 V
stroke
grestore
5333 647 M
85 -92 V
-27 122 V
-479 837 R
5418 555 L
stroke
gsave [] 0 setdash
5333 647 M
85 -92 V
-27 122 V
stroke
grestore
5163 539 M
72 -103 V
-10 125 V
-361 894 R
5235 436 L
stroke
gsave [] 0 setdash
5163 539 M
72 -103 V
-10 125 V
stroke
grestore
5136 3183 M
-18 26 V
2 -32 V
35 -70 R
-37 102 V
stroke
gsave [] 0 setdash
5136 3183 M
-18 26 V
2 -32 V
stroke
grestore
4963 3997 M
-61 109 V
-1 -125 V
272 -925 R
4902 4106 L
stroke
gsave [] 0 setdash
4963 3997 M
-61 109 V
-1 -125 V
stroke
grestore
5072 3961 M
-51 115 V
-13 -125 V
181 -947 R
5021 4076 L
stroke
gsave [] 0 setdash
5072 3961 M
-51 115 V
-13 -125 V
stroke
grestore
5179 3916 M
-39 119 V
-25 -123 V
88 -960 R
-63 1083 V
stroke
gsave [] 0 setdash
5179 3916 M
-39 119 V
-25 -123 V
stroke
grestore
5285 3861 M
-27 122 V
-37 -120 V
-5 -964 R
42 1084 V
stroke
gsave [] 0 setdash
5285 3861 M
-27 122 V
-37 -120 V
stroke
grestore
5389 3796 M
-15 125 V
-48 -116 V
-99 -959 R
147 1075 V
stroke
gsave [] 0 setdash
5389 3796 M
-15 125 V
-48 -116 V
stroke
grestore
5489 3723 M
-3 125 V
-59 -110 V
5236 2793 M
250 1055 V
stroke
gsave [] 0 setdash
5489 3723 M
-3 125 V
-59 -110 V
stroke
grestore
5587 3640 M
8 125 V
-70 -104 V
5244 2739 M
351 1026 V
stroke
gsave [] 0 setdash
5587 3640 M
8 125 V
-70 -104 V
stroke
grestore
5678 3549 M
20 124 V
-79 -97 V
5250 2685 M
448 988 V
stroke
gsave [] 0 setdash
5678 3549 M
20 124 V
-79 -97 V
stroke
grestore
5764 3449 M
32 121 V
-89 -89 V
5254 2631 M
542 939 V
stroke
gsave [] 0 setdash
5764 3449 M
32 121 V
-89 -89 V
stroke
grestore
5842 3342 M
44 117 V
-97 -80 V
5256 2577 M
630 882 V
stroke
gsave [] 0 setdash
5842 3342 M
44 117 V
-97 -80 V
stroke
grestore
5914 3227 M
55 113 V
-104 -70 V
5256 2523 M
713 817 V
stroke
gsave [] 0 setdash
5914 3227 M
55 113 V
-104 -70 V
stroke
grestore
5978 3106 M
66 107 V
-110 -59 V
5255 2469 M
789 744 V
stroke
gsave [] 0 setdash
5978 3106 M
66 107 V
-110 -59 V
stroke
grestore
6033 2979 M
76 100 V
-116 -48 V
5252 2414 M
857 665 V
stroke
gsave [] 0 setdash
6033 2979 M
76 100 V
-116 -48 V
stroke
grestore
6080 2847 M
85 92 V
-120 -37 V
5247 2360 M
918 579 V
stroke
gsave [] 0 setdash
6080 2847 M
85 92 V
-120 -37 V
stroke
grestore
6116 2711 M
94 83 V
-123 -25 V
5241 2307 M
969 487 V
stroke
gsave [] 0 setdash
6116 2711 M
94 83 V
-123 -25 V
stroke
grestore
6143 2570 M
101 74 V
-125 -13 V
5233 2253 M
1011 391 V
stroke
gsave [] 0 setdash
6143 2570 M
101 74 V
-125 -13 V
stroke
grestore
6159 2427 M
108 64 V
-125 -1 V
5223 2200 M
1044 291 V
stroke
gsave [] 0 setdash
6159 2427 M
108 64 V
-125 -1 V
stroke
grestore
6165 2283 M
114 53 V
-125 10 V
5211 2147 M
1068 189 V
stroke
gsave [] 0 setdash
6165 2283 M
114 53 V
-125 10 V
stroke
grestore
6161 2137 M
118 42 V
-123 22 V
5198 2094 M
1081 85 V
stroke
gsave [] 0 setdash
6161 2137 M
118 42 V
-123 22 V
stroke
grestore
6145 1992 M
122 30 V
-121 34 V
-963 -14 R
1084 -20 V
stroke
gsave [] 0 setdash
6145 1992 M
122 30 V
-121 34 V
stroke
grestore
6119 1847 M
124 18 V
-117 46 V
-960 80 R
6243 1865 L
stroke
gsave [] 0 setdash
6119 1847 M
124 18 V
-117 46 V
stroke
grestore
6083 1704 M
125 6 V
-112 57 V
-948 173 R
6208 1710 L
stroke
gsave [] 0 setdash
6083 1704 M
125 6 V
-112 57 V
stroke
grestore
6035 1565 M
125 -6 V
-105 68 V
-927 262 R
6160 1559 L
stroke
gsave [] 0 setdash
6035 1565 M
125 -6 V
-105 68 V
stroke
grestore
5978 1428 M
124 -18 V
-98 78 V
-898 351 R
996 -429 V
stroke
gsave [] 0 setdash
5978 1428 M
124 -18 V
-98 78 V
stroke
grestore
5911 1297 M
122 -30 V
-90 87 V
-860 436 R
950 -523 V
stroke
gsave [] 0 setdash
5911 1297 M
122 -30 V
-90 87 V
stroke
grestore
5835 1170 M
118 -41 V
-81 95 V
-814 518 R
895 -613 V
stroke
gsave [] 0 setdash
5835 1170 M
118 -41 V
-81 95 V
stroke
grestore
5749 1051 M
114 -53 V
-72 103 V
-759 594 R
5863 998 L
stroke
gsave [] 0 setdash
5749 1051 M
114 -53 V
-72 103 V
stroke
grestore
5656 938 M
108 -63 V
-62 109 V
-698 664 R
5764 875 L
stroke
gsave [] 0 setdash
5656 938 M
108 -63 V
-62 109 V
stroke
grestore
5555 833 M
101 -74 V
-51 115 V
-630 729 R
5656 759 L
stroke
gsave [] 0 setdash
5555 833 M
101 -74 V
-51 115 V
stroke
grestore
5446 735 M
94 -83 V
-39 119 V
-557 787 R
5540 652 L
stroke
gsave [] 0 setdash
5446 735 M
94 -83 V
-39 119 V
stroke
grestore
5333 647 M
85 -92 V
-27 122 V
-479 837 R
5418 555 L
stroke
gsave [] 0 setdash
5333 647 M
85 -92 V
-27 122 V
stroke
grestore
5163 539 M
72 -103 V
-10 125 V
-361 894 R
5235 436 L
stroke
gsave [] 0 setdash
5163 539 M
72 -103 V
-10 125 V
stroke
grestore
% End plot #7
% Begin plot #8
1.000 UL
LTb
0.00 0.00 0.00 C 1.000 UL
LTb
0.00 0.00 0.00 C 5163 539 M
72 -103 V
-10 125 V
-361 894 R
5235 436 L
stroke
gsave [] 0 setdash
5163 539 M
72 -103 V
-10 125 V
stroke
grestore
5038 473 M
61 -109 V
1 125 V
-272 925 R
5099 364 L
stroke
gsave [] 0 setdash
5038 473 M
61 -109 V
1 125 V
stroke
grestore
4908 418 M
51 -115 V
13 125 V
-181 946 R
4959 303 L
stroke
gsave [] 0 setdash
4908 418 M
51 -115 V
13 125 V
stroke
grestore
4778 372 M
39 -119 V
25 123 V
-89 960 R
4817 253 L
stroke
gsave [] 0 setdash
4778 372 M
39 -119 V
25 123 V
stroke
grestore
4645 337 M
27 -122 V
37 120 V
5 963 R
4672 215 L
stroke
gsave [] 0 setdash
4645 337 M
27 -122 V
37 120 V
stroke
grestore
4512 313 M
15 -125 V
48 116 V
99 958 R
4527 188 L
stroke
gsave [] 0 setdash
4512 313 M
15 -125 V
48 116 V
stroke
grestore
4379 297 M
3 -125 V
59 110 V
191 945 R
4382 172 L
stroke
gsave [] 0 setdash
4379 297 M
3 -125 V
59 110 V
stroke
grestore
4246 293 M
-8 -125 V
70 104 V
281 922 R
4238 168 L
stroke
gsave [] 0 setdash
4246 293 M
-8 -125 V
70 104 V
stroke
grestore
4117 299 M
4097 175 L
79 97 V
369 890 R
4097 175 L
stroke
gsave [] 0 setdash
4117 299 M
4097 175 L
79 97 V
stroke
grestore
3991 313 M
3959 192 L
89 89 V
453 851 R
3959 192 L
stroke
gsave [] 0 setdash
3991 313 M
3959 192 L
89 89 V
stroke
grestore
3869 338 M
3825 220 L
97 80 V
533 803 R
3825 220 L
stroke
gsave [] 0 setdash
3869 338 M
3825 220 L
97 80 V
stroke
grestore
3750 371 M
3695 258 L
104 70 V
609 747 R
3695 258 L
stroke
gsave [] 0 setdash
3750 371 M
3695 258 L
104 70 V
stroke
grestore
3638 412 M
3572 305 L
110 59 V
679 685 R
3572 305 L
stroke
gsave [] 0 setdash
3638 412 M
3572 305 L
110 59 V
stroke
grestore
3531 460 M
3455 360 L
116 48 V
741 616 R
3455 360 L
stroke
gsave [] 0 setdash
3531 460 M
3455 360 L
116 48 V
stroke
grestore
3431 515 M
-85 -92 V
120 37 V
797 542 R
3346 423 L
stroke
gsave [] 0 setdash
3431 515 M
-85 -92 V
120 37 V
stroke
grestore
3338 576 M
-94 -83 V
123 25 V
846 462 R
3244 493 L
stroke
gsave [] 0 setdash
3338 576 M
-94 -83 V
123 25 V
stroke
grestore
3252 644 M
3151 570 L
125 13 V
887 378 R
3151 570 L
stroke
gsave [] 0 setdash
3252 644 M
3151 570 L
125 13 V
stroke
grestore
3175 715 M
3067 651 L
125 1 V
920 290 R
3067 651 L
stroke
gsave [] 0 setdash
3175 715 M
3067 651 L
125 1 V
stroke
grestore
3106 790 M
2992 737 L
125 -10 V
943 199 R
2992 737 L
stroke
gsave [] 0 setdash
3106 790 M
2992 737 L
125 -10 V
stroke
grestore
3045 868 M
2927 827 L
123 -23 V
958 107 R
2927 827 L
stroke
gsave [] 0 setdash
3045 868 M
2927 827 L
123 -23 V
stroke
grestore
2993 949 M
2871 919 L
121 -34 V
963 13 R
2871 919 L
stroke
gsave [] 0 setdash
2993 949 M
2871 919 L
121 -34 V
stroke
grestore
2949 1030 M
-124 -18 V
117 -46 V
960 -79 R
2825 1012 L
stroke
gsave [] 0 setdash
2949 1030 M
-124 -18 V
117 -46 V
stroke
grestore
2914 1112 M
-125 -6 V
112 -57 V
3849 877 M
2789 1106 L
stroke
gsave [] 0 setdash
2914 1112 M
-125 -6 V
112 -57 V
stroke
grestore
2887 1195 M
-125 5 V
106 -68 V
3795 870 M
2762 1200 L
stroke
gsave [] 0 setdash
2887 1195 M
-125 5 V
106 -68 V
stroke
grestore
2869 1274 M
-124 18 V
98 -78 V
3741 863 M
-996 429 V
stroke
gsave [] 0 setdash
2869 1274 M
-124 18 V
98 -78 V
stroke
grestore
2859 1352 M
-122 30 V
90 -87 V
3687 859 M
-950 523 V
stroke
gsave [] 0 setdash
2859 1352 M
-122 30 V
90 -87 V
stroke
grestore
2856 1428 M
-118 41 V
81 -95 V
3633 856 M
-895 613 V
stroke
gsave [] 0 setdash
2856 1428 M
-118 41 V
81 -95 V
stroke
grestore
2862 1499 M
-114 53 V
72 -103 V
3579 855 M
-831 697 V
stroke
gsave [] 0 setdash
2862 1499 M
-114 53 V
72 -103 V
stroke
grestore
2873 1567 M
-108 63 V
62 -109 V
3525 856 M
-760 774 V
stroke
gsave [] 0 setdash
2873 1567 M
-108 63 V
62 -109 V
stroke
grestore
2890 1629 M
-101 74 V
51 -115 V
3470 859 M
-681 844 V
stroke
gsave [] 0 setdash
2890 1629 M
-101 74 V
51 -115 V
stroke
grestore
2914 1686 M
-94 83 V
39 -119 V
3416 863 M
-596 906 V
stroke
gsave [] 0 setdash
2914 1686 M
-94 83 V
39 -119 V
stroke
grestore
2942 1737 M
-85 92 V
27 -122 V
3363 869 M
-506 960 V
stroke
gsave [] 0 setdash
2942 1737 M
-85 92 V
27 -122 V
stroke
grestore
2988 1797 M
-72 103 V
10 -125 V
3287 881 M
2916 1900 L
stroke
gsave [] 0 setdash
2988 1797 M
-72 103 V
10 -125 V
stroke
grestore
5163 539 M
72 -103 V
-10 125 V
-361 894 R
5235 436 L
stroke
gsave [] 0 setdash
5163 539 M
72 -103 V
-10 125 V
stroke
grestore
5038 473 M
61 -109 V
1 125 V
-272 925 R
5099 364 L
stroke
gsave [] 0 setdash
5038 473 M
61 -109 V
1 125 V
stroke
grestore
4908 418 M
51 -115 V
13 125 V
-181 946 R
4959 303 L
stroke
gsave [] 0 setdash
4908 418 M
51 -115 V
13 125 V
stroke
grestore
4778 372 M
39 -119 V
25 123 V
-89 960 R
4817 253 L
stroke
gsave [] 0 setdash
4778 372 M
39 -119 V
25 123 V
stroke
grestore
4645 337 M
27 -122 V
37 120 V
5 963 R
4672 215 L
stroke
gsave [] 0 setdash
4645 337 M
27 -122 V
37 120 V
stroke
grestore
4512 313 M
15 -125 V
48 116 V
99 958 R
4527 188 L
stroke
gsave [] 0 setdash
4512 313 M
15 -125 V
48 116 V
stroke
grestore
4379 297 M
3 -125 V
59 110 V
191 945 R
4382 172 L
stroke
gsave [] 0 setdash
4379 297 M
3 -125 V
59 110 V
stroke
grestore
4246 293 M
-8 -125 V
70 104 V
281 922 R
4238 168 L
stroke
gsave [] 0 setdash
4246 293 M
-8 -125 V
70 104 V
stroke
grestore
4117 299 M
4097 175 L
79 97 V
369 890 R
4097 175 L
stroke
gsave [] 0 setdash
4117 299 M
4097 175 L
79 97 V
stroke
grestore
3991 313 M
3959 192 L
89 89 V
453 851 R
3959 192 L
stroke
gsave [] 0 setdash
3991 313 M
3959 192 L
89 89 V
stroke
grestore
3869 338 M
3825 220 L
97 80 V
533 803 R
3825 220 L
stroke
gsave [] 0 setdash
3869 338 M
3825 220 L
97 80 V
stroke
grestore
3750 371 M
3695 258 L
104 70 V
609 747 R
3695 258 L
stroke
gsave [] 0 setdash
3750 371 M
3695 258 L
104 70 V
stroke
grestore
3638 412 M
3572 305 L
110 59 V
679 685 R
3572 305 L
stroke
gsave [] 0 setdash
3638 412 M
3572 305 L
110 59 V
stroke
grestore
3531 460 M
3455 360 L
116 48 V
741 616 R
3455 360 L
stroke
gsave [] 0 setdash
3531 460 M
3455 360 L
116 48 V
stroke
grestore
3431 515 M
-85 -92 V
120 37 V
797 542 R
3346 423 L
stroke
gsave [] 0 setdash
3431 515 M
-85 -92 V
120 37 V
stroke
grestore
3338 576 M
-94 -83 V
123 25 V
846 462 R
3244 493 L
stroke
gsave [] 0 setdash
3338 576 M
-94 -83 V
123 25 V
stroke
grestore
3252 644 M
3151 570 L
125 13 V
887 378 R
3151 570 L
stroke
gsave [] 0 setdash
3252 644 M
3151 570 L
125 13 V
stroke
grestore
3175 715 M
3067 651 L
125 1 V
920 290 R
3067 651 L
stroke
gsave [] 0 setdash
3175 715 M
3067 651 L
125 1 V
stroke
grestore
3106 790 M
2992 737 L
125 -10 V
943 199 R
2992 737 L
stroke
gsave [] 0 setdash
3106 790 M
2992 737 L
125 -10 V
stroke
grestore
3045 868 M
2927 827 L
123 -23 V
958 107 R
2927 827 L
stroke
gsave [] 0 setdash
3045 868 M
2927 827 L
123 -23 V
stroke
grestore
2993 949 M
2871 919 L
121 -34 V
963 13 R
2871 919 L
stroke
gsave [] 0 setdash
2993 949 M
2871 919 L
121 -34 V
stroke
grestore
2949 1030 M
-124 -18 V
117 -46 V
960 -79 R
2825 1012 L
stroke
gsave [] 0 setdash
2949 1030 M
-124 -18 V
117 -46 V
stroke
grestore
2914 1112 M
-125 -6 V
112 -57 V
3849 877 M
2789 1106 L
stroke
gsave [] 0 setdash
2914 1112 M
-125 -6 V
112 -57 V
stroke
grestore
2887 1195 M
-125 5 V
106 -68 V
3795 870 M
2762 1200 L
stroke
gsave [] 0 setdash
2887 1195 M
-125 5 V
106 -68 V
stroke
grestore
2869 1274 M
-124 18 V
98 -78 V
3741 863 M
-996 429 V
stroke
gsave [] 0 setdash
2869 1274 M
-124 18 V
98 -78 V
stroke
grestore
2859 1352 M
-122 30 V
90 -87 V
3687 859 M
-950 523 V
stroke
gsave [] 0 setdash
2859 1352 M
-122 30 V
90 -87 V
stroke
grestore
2856 1428 M
-118 41 V
81 -95 V
3633 856 M
-895 613 V
stroke
gsave [] 0 setdash
2856 1428 M
-118 41 V
81 -95 V
stroke
grestore
2862 1499 M
-114 53 V
72 -103 V
3579 855 M
-831 697 V
stroke
gsave [] 0 setdash
2862 1499 M
-114 53 V
72 -103 V
stroke
grestore
2873 1567 M
-108 63 V
62 -109 V
3525 856 M
-760 774 V
stroke
gsave [] 0 setdash
2873 1567 M
-108 63 V
62 -109 V
stroke
grestore
2890 1629 M
-101 74 V
51 -115 V
3470 859 M
-681 844 V
stroke
gsave [] 0 setdash
2890 1629 M
-101 74 V
51 -115 V
stroke
grestore
2914 1686 M
-94 83 V
39 -119 V
3416 863 M
-596 906 V
stroke
gsave [] 0 setdash
2914 1686 M
-94 83 V
39 -119 V
stroke
grestore
2942 1737 M
-85 92 V
27 -122 V
3363 869 M
-506 960 V
stroke
gsave [] 0 setdash
2942 1737 M
-85 92 V
27 -122 V
stroke
grestore
2988 1797 M
-72 103 V
10 -125 V
3287 881 M
2916 1900 L
stroke
gsave [] 0 setdash
2988 1797 M
-72 103 V
10 -125 V
stroke
grestore
% End plot #8
% Begin plot #9
1.000 UL
LTb
0.58 0.00 0.83 C 1.000 UL
LTb
0.58 0.00 0.83 C 2988 1797 M
-72 103 V
10 -125 V
3287 881 M
2916 1900 L
stroke
gsave [] 0 setdash
2988 1797 M
-72 103 V
10 -125 V
stroke
grestore
3024 1832 M
-61 109 V
-1 -125 V
3234 891 M
2963 1941 L
stroke
gsave [] 0 setdash
3024 1832 M
-61 109 V
-1 -125 V
stroke
grestore
3064 1860 M
-51 115 V
-13 -125 V
3181 903 M
3013 1975 L
stroke
gsave [] 0 setdash
3064 1860 M
-51 115 V
-13 -125 V
stroke
grestore
3104 1881 M
-39 119 V
-25 -123 V
89 -960 R
-64 1083 V
stroke
gsave [] 0 setdash
3104 1881 M
-39 119 V
-25 -123 V
stroke
grestore
3146 1894 M
-27 122 V
-37 -120 V
-5 -964 R
42 1084 V
stroke
gsave [] 0 setdash
3146 1894 M
-27 122 V
-37 -120 V
stroke
grestore
3187 1899 M
-15 125 V
-48 -116 V
3025 949 M
147 1075 V
stroke
gsave [] 0 setdash
3187 1899 M
-15 125 V
-48 -116 V
stroke
grestore
3227 1898 M
-3 125 V
-59 -110 V
2974 968 M
250 1055 V
stroke
gsave [] 0 setdash
3227 1898 M
-3 125 V
-59 -110 V
stroke
grestore
3267 1890 M
8 125 V
-70 -104 V
2924 988 M
351 1027 V
stroke
gsave [] 0 setdash
3267 1890 M
8 125 V
-70 -104 V
stroke
grestore
3303 1874 M
20 124 V
-80 -97 V
2874 1010 M
449 988 V
stroke
gsave [] 0 setdash
3303 1874 M
20 124 V
-80 -97 V
stroke
grestore
3336 1852 M
32 121 V
-89 -89 V
2826 1034 M
542 939 V
stroke
gsave [] 0 setdash
3336 1852 M
32 121 V
-89 -89 V
stroke
grestore
3364 1824 M
44 117 V
-97 -80 V
2778 1059 M
630 882 V
stroke
gsave [] 0 setdash
3364 1824 M
44 117 V
-97 -80 V
stroke
grestore
3388 1790 M
55 113 V
-104 -70 V
2730 1086 M
713 817 V
stroke
gsave [] 0 setdash
3388 1790 M
55 113 V
-104 -70 V
stroke
grestore
3406 1751 M
66 107 V
-110 -59 V
2684 1114 M
788 744 V
stroke
gsave [] 0 setdash
3406 1751 M
66 107 V
-110 -59 V
stroke
grestore
3419 1708 M
76 100 V
-116 -48 V
2639 1143 M
856 665 V
stroke
gsave [] 0 setdash
3419 1708 M
76 100 V
-116 -48 V
stroke
grestore
3426 1661 M
85 92 V
-120 -37 V
2594 1175 M
917 578 V
stroke
gsave [] 0 setdash
3426 1661 M
85 92 V
-120 -37 V
stroke
grestore
3426 1611 M
94 83 V
-123 -25 V
2551 1207 M
969 487 V
stroke
gsave [] 0 setdash
3426 1611 M
94 83 V
-123 -25 V
stroke
grestore
3419 1558 M
101 74 V
-125 -13 V
2508 1241 M
1012 391 V
stroke
gsave [] 0 setdash
3419 1558 M
101 74 V
-125 -13 V
stroke
grestore
3404 1503 M
108 64 V
-125 -1 V
2467 1276 M
1045 291 V
stroke
gsave [] 0 setdash
3404 1503 M
108 64 V
-125 -1 V
stroke
grestore
3381 1449 M
114 53 V
-125 10 V
2427 1313 M
1068 189 V
stroke
gsave [] 0 setdash
3381 1449 M
114 53 V
-125 10 V
stroke
grestore
3351 1394 M
118 41 V
-123 23 V
2388 1351 M
1081 84 V
stroke
gsave [] 0 setdash
3351 1394 M
118 41 V
-123 23 V
stroke
grestore
3313 1339 M
122 30 V
-121 34 V
-963 -13 R
1084 -21 V
stroke
gsave [] 0 setdash
3313 1339 M
122 30 V
-121 34 V
stroke
grestore
3268 1287 M
124 18 V
-117 46 V
-960 79 R
3392 1305 L
stroke
gsave [] 0 setdash
3268 1287 M
124 18 V
-117 46 V
stroke
grestore
3214 1236 M
125 6 V
-112 57 V
-947 172 R
3339 1242 L
stroke
gsave [] 0 setdash
3214 1236 M
125 6 V
-112 57 V
stroke
grestore
3154 1189 M
125 -6 V
-105 68 V
-928 263 R
3279 1183 L
stroke
gsave [] 0 setdash
3154 1189 M
125 -6 V
-105 68 V
stroke
grestore
3086 1147 M
124 -18 V
-98 78 V
-898 350 R
996 -428 V
stroke
gsave [] 0 setdash
3086 1147 M
124 -18 V
-98 78 V
stroke
grestore
3011 1109 M
122 -30 V
-90 87 V
-860 436 R
950 -523 V
stroke
gsave [] 0 setdash
3011 1109 M
122 -30 V
-90 87 V
stroke
grestore
2930 1076 M
118 -41 V
-81 95 V
-814 518 R
895 -613 V
stroke
gsave [] 0 setdash
2930 1076 M
118 -41 V
-81 95 V
stroke
grestore
2843 1051 M
114 -53 V
-72 103 V
-759 593 R
2957 998 L
stroke
gsave [] 0 setdash
2843 1051 M
114 -53 V
-72 103 V
stroke
grestore
2751 1031 M
108 -63 V
-62 109 V
-698 665 R
2859 968 L
stroke
gsave [] 0 setdash
2751 1031 M
108 -63 V
-62 109 V
stroke
grestore
2655 1020 M
101 -74 V
-51 115 V
-631 729 R
2756 946 L
stroke
gsave [] 0 setdash
2655 1020 M
101 -74 V
-51 115 V
stroke
grestore
2554 1016 M
94 -83 V
-39 119 V
-558 787 R
2648 933 L
stroke
gsave [] 0 setdash
2554 1016 M
94 -83 V
-39 119 V
stroke
grestore
2451 1021 M
85 -92 V
-27 122 V
-479 837 R
2536 929 L
stroke
gsave [] 0 setdash
2451 1021 M
85 -92 V
-27 122 V
stroke
grestore
2301 1044 M
72 -103 V
-10 125 V
-361 894 R
2373 941 L
stroke
gsave [] 0 setdash
2301 1044 M
72 -103 V
-10 125 V
stroke
grestore
2988 1797 M
-72 103 V
10 -125 V
3287 881 M
2916 1900 L
stroke
gsave [] 0 setdash
2988 1797 M
-72 103 V
10 -125 V
stroke
grestore
3024 1832 M
-61 109 V
-1 -125 V
3234 891 M
2963 1941 L
stroke
gsave [] 0 setdash
3024 1832 M
-61 109 V
-1 -125 V
stroke
grestore
3064 1860 M
-51 115 V
-13 -125 V
3181 903 M
3013 1975 L
stroke
gsave [] 0 setdash
3064 1860 M
-51 115 V
-13 -125 V
stroke
grestore
3104 1881 M
-39 119 V
-25 -123 V
89 -960 R
-64 1083 V
stroke
gsave [] 0 setdash
3104 1881 M
-39 119 V
-25 -123 V
stroke
grestore
3146 1894 M
-27 122 V
-37 -120 V
-5 -964 R
42 1084 V
stroke
gsave [] 0 setdash
3146 1894 M
-27 122 V
-37 -120 V
stroke
grestore
3187 1899 M
-15 125 V
-48 -116 V
3025 949 M
147 1075 V
stroke
gsave [] 0 setdash
3187 1899 M
-15 125 V
-48 -116 V
stroke
grestore
3227 1898 M
-3 125 V
-59 -110 V
2974 968 M
250 1055 V
stroke
gsave [] 0 setdash
3227 1898 M
-3 125 V
-59 -110 V
stroke
grestore
3267 1890 M
8 125 V
-70 -104 V
2924 988 M
351 1027 V
stroke
gsave [] 0 setdash
3267 1890 M
8 125 V
-70 -104 V
stroke
grestore
3303 1874 M
20 124 V
-80 -97 V
2874 1010 M
449 988 V
stroke
gsave [] 0 setdash
3303 1874 M
20 124 V
-80 -97 V
stroke
grestore
3336 1852 M
32 121 V
-89 -89 V
2826 1034 M
542 939 V
stroke
gsave [] 0 setdash
3336 1852 M
32 121 V
-89 -89 V
stroke
grestore
3364 1824 M
44 117 V
-97 -80 V
2778 1059 M
630 882 V
stroke
gsave [] 0 setdash
3364 1824 M
44 117 V
-97 -80 V
stroke
grestore
3388 1790 M
55 113 V
-104 -70 V
2730 1086 M
713 817 V
stroke
gsave [] 0 setdash
3388 1790 M
55 113 V
-104 -70 V
stroke
grestore
3406 1751 M
66 107 V
-110 -59 V
2684 1114 M
788 744 V
stroke
gsave [] 0 setdash
3406 1751 M
66 107 V
-110 -59 V
stroke
grestore
3419 1708 M
76 100 V
-116 -48 V
2639 1143 M
856 665 V
stroke
gsave [] 0 setdash
3419 1708 M
76 100 V
-116 -48 V
stroke
grestore
3426 1661 M
85 92 V
-120 -37 V
2594 1175 M
917 578 V
stroke
gsave [] 0 setdash
3426 1661 M
85 92 V
-120 -37 V
stroke
grestore
3426 1611 M
94 83 V
-123 -25 V
2551 1207 M
969 487 V
stroke
gsave [] 0 setdash
3426 1611 M
94 83 V
-123 -25 V
stroke
grestore
3419 1558 M
101 74 V
-125 -13 V
2508 1241 M
1012 391 V
stroke
gsave [] 0 setdash
3419 1558 M
101 74 V
-125 -13 V
stroke
grestore
3404 1503 M
108 64 V
-125 -1 V
2467 1276 M
1045 291 V
stroke
gsave [] 0 setdash
3404 1503 M
108 64 V
-125 -1 V
stroke
grestore
3381 1449 M
114 53 V
-125 10 V
2427 1313 M
1068 189 V
stroke
gsave [] 0 setdash
3381 1449 M
114 53 V
-125 10 V
stroke
grestore
3351 1394 M
118 41 V
-123 23 V
2388 1351 M
1081 84 V
stroke
gsave [] 0 setdash
3351 1394 M
118 41 V
-123 23 V
stroke
grestore
3313 1339 M
122 30 V
-121 34 V
-963 -13 R
1084 -21 V
stroke
gsave [] 0 setdash
3313 1339 M
122 30 V
-121 34 V
stroke
grestore
3268 1287 M
124 18 V
-117 46 V
-960 79 R
3392 1305 L
stroke
gsave [] 0 setdash
3268 1287 M
124 18 V
-117 46 V
stroke
grestore
3214 1236 M
125 6 V
-112 57 V
-947 172 R
3339 1242 L
stroke
gsave [] 0 setdash
3214 1236 M
125 6 V
-112 57 V
stroke
grestore
3154 1189 M
125 -6 V
-105 68 V
-928 263 R
3279 1183 L
stroke
gsave [] 0 setdash
3154 1189 M
125 -6 V
-105 68 V
stroke
grestore
3086 1147 M
124 -18 V
-98 78 V
-898 350 R
996 -428 V
stroke
gsave [] 0 setdash
3086 1147 M
124 -18 V
-98 78 V
stroke
grestore
3011 1109 M
122 -30 V
-90 87 V
-860 436 R
950 -523 V
stroke
gsave [] 0 setdash
3011 1109 M
122 -30 V
-90 87 V
stroke
grestore
2930 1076 M
118 -41 V
-81 95 V
-814 518 R
895 -613 V
stroke
gsave [] 0 setdash
2930 1076 M
118 -41 V
-81 95 V
stroke
grestore
2843 1051 M
114 -53 V
-72 103 V
-759 593 R
2957 998 L
stroke
gsave [] 0 setdash
2843 1051 M
114 -53 V
-72 103 V
stroke
grestore
2751 1031 M
108 -63 V
-62 109 V
-698 665 R
2859 968 L
stroke
gsave [] 0 setdash
2751 1031 M
108 -63 V
-62 109 V
stroke
grestore
2655 1020 M
101 -74 V
-51 115 V
-631 729 R
2756 946 L
stroke
gsave [] 0 setdash
2655 1020 M
101 -74 V
-51 115 V
stroke
grestore
2554 1016 M
94 -83 V
-39 119 V
-558 787 R
2648 933 L
stroke
gsave [] 0 setdash
2554 1016 M
94 -83 V
-39 119 V
stroke
grestore
2451 1021 M
85 -92 V
-27 122 V
-479 837 R
2536 929 L
stroke
gsave [] 0 setdash
2451 1021 M
85 -92 V
-27 122 V
stroke
grestore
2301 1044 M
72 -103 V
-10 125 V
-361 894 R
2373 941 L
stroke
gsave [] 0 setdash
2301 1044 M
72 -103 V
-10 125 V
stroke
grestore
% End plot #9
% Begin plot #10
1.000 UL
LTb
0.00 0.62 0.45 C 1.000 UL
LTb
0.00 0.62 0.45 C 2301 1044 M
72 -103 V
-10 125 V
-361 894 R
2373 941 L
stroke
gsave [] 0 setdash
2301 1044 M
72 -103 V
-10 125 V
stroke
grestore
2194 1070 M
61 -109 V
1 125 V
-272 925 R
2255 961 L
stroke
gsave [] 0 setdash
2194 1070 M
61 -109 V
1 125 V
stroke
grestore
2085 1106 M
51 -115 V
13 125 V
-181 947 R
2136 991 L
stroke
gsave [] 0 setdash
2085 1106 M
51 -115 V
13 125 V
stroke
grestore
1978 1151 M
39 -119 V
25 123 V
-88 960 R
63 -1083 V
stroke
gsave [] 0 setdash
1978 1151 M
39 -119 V
25 123 V
stroke
grestore
1872 1206 M
27 -122 V
37 120 V
5 964 R
1899 1084 L
stroke
gsave [] 0 setdash
1872 1206 M
27 -122 V
37 120 V
stroke
grestore
1768 1271 M
15 -125 V
48 116 V
99 959 R
1783 1146 L
stroke
gsave [] 0 setdash
1768 1271 M
15 -125 V
48 116 V
stroke
grestore
1668 1344 M
3 -125 V
59 110 V
191 945 R
1671 1219 L
stroke
gsave [] 0 setdash
1668 1344 M
3 -125 V
59 110 V
stroke
grestore
1570 1427 M
-8 -125 V
70 104 V
281 922 R
1562 1302 L
stroke
gsave [] 0 setdash
1570 1427 M
-8 -125 V
70 104 V
stroke
grestore
1479 1518 M
-20 -124 V
79 97 V
369 891 R
1459 1394 L
stroke
gsave [] 0 setdash
1479 1518 M
-20 -124 V
79 97 V
stroke
grestore
1393 1618 M
-32 -121 V
89 89 V
453 850 R
1361 1497 L
stroke
gsave [] 0 setdash
1393 1618 M
-32 -121 V
89 89 V
stroke
grestore
1315 1725 M
-44 -117 V
97 80 V
533 802 R
1271 1608 L
stroke
gsave [] 0 setdash
1315 1725 M
-44 -117 V
97 80 V
stroke
grestore
1243 1840 M
-55 -113 V
104 70 V
609 747 R
1188 1727 L
stroke
gsave [] 0 setdash
1243 1840 M
-55 -113 V
104 70 V
stroke
grestore
1179 1961 M
-66 -107 V
110 59 V
679 685 R
1113 1854 L
stroke
gsave [] 0 setdash
1179 1961 M
-66 -107 V
110 59 V
stroke
grestore
1124 2088 M
-76 -100 V
116 48 V
741 617 R
1048 1988 L
stroke
gsave [] 0 setdash
1124 2088 M
-76 -100 V
116 48 V
stroke
grestore
1077 2220 M
-85 -92 V
120 37 V
798 542 R
992 2128 L
stroke
gsave [] 0 setdash
1077 2220 M
-85 -92 V
120 37 V
stroke
grestore
1041 2356 M
-94 -83 V
123 25 V
846 462 R
947 2273 L
stroke
gsave [] 0 setdash
1041 2356 M
-94 -83 V
123 25 V
stroke
grestore
1014 2497 M
913 2423 L
125 13 V
886 378 R
913 2423 L
stroke
gsave [] 0 setdash
1014 2497 M
913 2423 L
125 13 V
stroke
grestore
998 2640 M
890 2576 L
125 1 V
919 290 R
890 2576 L
stroke
gsave [] 0 setdash
998 2640 M
890 2576 L
125 1 V
stroke
grestore
992 2784 M
878 2731 L
125 -10 V
943 199 R
878 2731 L
stroke
gsave [] 0 setdash
992 2784 M
878 2731 L
125 -10 V
stroke
grestore
996 2930 M
878 2888 L
123 -22 V
958 107 R
878 2888 L
stroke
gsave [] 0 setdash
996 2930 M
878 2888 L
123 -22 V
stroke
grestore
1012 3075 M
890 3045 L
121 -34 V
963 14 R
890 3045 L
stroke
gsave [] 0 setdash
1012 3075 M
890 3045 L
121 -34 V
stroke
grestore
1038 3220 M
914 3202 L
117 -46 V
960 -80 R
914 3202 L
stroke
gsave [] 0 setdash
1038 3220 M
914 3202 L
117 -46 V
stroke
grestore
1074 3363 M
-125 -6 V
112 -57 V
948 -173 R
949 3357 L
stroke
gsave [] 0 setdash
1074 3363 M
-125 -6 V
112 -57 V
stroke
grestore
1122 3502 M
-125 6 V
105 -68 V
927 -262 R
997 3508 L
stroke
gsave [] 0 setdash
1122 3502 M
-125 6 V
105 -68 V
stroke
grestore
1179 3639 M
-124 18 V
98 -78 V
898 -351 R
-996 429 V
stroke
gsave [] 0 setdash
1179 3639 M
-124 18 V
98 -78 V
stroke
grestore
1246 3770 M
-122 30 V
90 -87 V
860 -436 R
-950 523 V
stroke
gsave [] 0 setdash
1246 3770 M
-122 30 V
90 -87 V
stroke
grestore
1322 3897 M
-118 41 V
81 -95 V
814 -518 R
-895 613 V
stroke
gsave [] 0 setdash
1322 3897 M
-118 41 V
81 -95 V
stroke
grestore
1408 4016 M
-114 53 V
72 -103 V
759 -594 R
-831 697 V
stroke
gsave [] 0 setdash
1408 4016 M
-114 53 V
72 -103 V
stroke
grestore
1501 4129 M
-108 63 V
62 -109 V
698 -664 R
-760 773 V
stroke
gsave [] 0 setdash
1501 4129 M
-108 63 V
62 -109 V
stroke
grestore
1602 4234 M
-101 74 V
51 -115 V
630 -729 R
-681 844 V
stroke
gsave [] 0 setdash
1602 4234 M
-101 74 V
51 -115 V
stroke
grestore
1711 4332 M
-94 83 V
39 -119 V
557 -787 R
-596 906 V
stroke
gsave [] 0 setdash
1711 4332 M
-94 83 V
39 -119 V
stroke
grestore
1824 4420 M
-85 92 V
27 -122 V
479 -837 R
-506 959 V
stroke
gsave [] 0 setdash
1824 4420 M
-85 92 V
27 -122 V
stroke
grestore
1994 4528 M
-72 103 V
10 -125 V
361 -894 R
1922 4631 L
stroke
gsave [] 0 setdash
1994 4528 M
-72 103 V
10 -125 V
stroke
grestore
2301 1044 M
72 -103 V
-10 125 V
-361 894 R
2373 941 L
stroke
gsave [] 0 setdash
2301 1044 M
72 -103 V
-10 125 V
stroke
grestore
2194 1070 M
61 -109 V
1 125 V
-272 925 R
2255 961 L
stroke
gsave [] 0 setdash
2194 1070 M
61 -109 V
1 125 V
stroke
grestore
2085 1106 M
51 -115 V
13 125 V
-181 947 R
2136 991 L
stroke
gsave [] 0 setdash
2085 1106 M
51 -115 V
13 125 V
stroke
grestore
1978 1151 M
39 -119 V
25 123 V
-88 960 R
63 -1083 V
stroke
gsave [] 0 setdash
1978 1151 M
39 -119 V
25 123 V
stroke
grestore
1872 1206 M
27 -122 V
37 120 V
5 964 R
1899 1084 L
stroke
gsave [] 0 setdash
1872 1206 M
27 -122 V
37 120 V
stroke
grestore
1768 1271 M
15 -125 V
48 116 V
99 959 R
1783 1146 L
stroke
gsave [] 0 setdash
1768 1271 M
15 -125 V
48 116 V
stroke
grestore
1668 1344 M
3 -125 V
59 110 V
191 945 R
1671 1219 L
stroke
gsave [] 0 setdash
1668 1344 M
3 -125 V
59 110 V
stroke
grestore
1570 1427 M
-8 -125 V
70 104 V
281 922 R
1562 1302 L
stroke
gsave [] 0 setdash
1570 1427 M
-8 -125 V
70 104 V
stroke
grestore
1479 1518 M
-20 -124 V
79 97 V
369 891 R
1459 1394 L
stroke
gsave [] 0 setdash
1479 1518 M
-20 -124 V
79 97 V
stroke
grestore
1393 1618 M
-32 -121 V
89 89 V
453 850 R
1361 1497 L
stroke
gsave [] 0 setdash
1393 1618 M
-32 -121 V
89 89 V
stroke
grestore
1315 1725 M
-44 -117 V
97 80 V
533 802 R
1271 1608 L
stroke
gsave [] 0 setdash
1315 1725 M
-44 -117 V
97 80 V
stroke
grestore
1243 1840 M
-55 -113 V
104 70 V
609 747 R
1188 1727 L
stroke
gsave [] 0 setdash
1243 1840 M
-55 -113 V
104 70 V
stroke
grestore
1179 1961 M
-66 -107 V
110 59 V
679 685 R
1113 1854 L
stroke
gsave [] 0 setdash
1179 1961 M
-66 -107 V
110 59 V
stroke
grestore
1124 2088 M
-76 -100 V
116 48 V
741 617 R
1048 1988 L
stroke
gsave [] 0 setdash
1124 2088 M
-76 -100 V
116 48 V
stroke
grestore
1077 2220 M
-85 -92 V
120 37 V
798 542 R
992 2128 L
stroke
gsave [] 0 setdash
1077 2220 M
-85 -92 V
120 37 V
stroke
grestore
1041 2356 M
-94 -83 V
123 25 V
846 462 R
947 2273 L
stroke
gsave [] 0 setdash
1041 2356 M
-94 -83 V
123 25 V
stroke
grestore
1014 2497 M
913 2423 L
125 13 V
886 378 R
913 2423 L
stroke
gsave [] 0 setdash
1014 2497 M
913 2423 L
125 13 V
stroke
grestore
998 2640 M
890 2576 L
125 1 V
919 290 R
890 2576 L
stroke
gsave [] 0 setdash
998 2640 M
890 2576 L
125 1 V
stroke
grestore
992 2784 M
878 2731 L
125 -10 V
943 199 R
878 2731 L
stroke
gsave [] 0 setdash
992 2784 M
878 2731 L
125 -10 V
stroke
grestore
996 2930 M
878 2888 L
123 -22 V
958 107 R
878 2888 L
stroke
gsave [] 0 setdash
996 2930 M
878 2888 L
123 -22 V
stroke
grestore
1012 3075 M
890 3045 L
121 -34 V
963 14 R
890 3045 L
stroke
gsave [] 0 setdash
1012 3075 M
890 3045 L
121 -34 V
stroke
grestore
1038 3220 M
914 3202 L
117 -46 V
960 -80 R
914 3202 L
stroke
gsave [] 0 setdash
1038 3220 M
914 3202 L
117 -46 V
stroke
grestore
1074 3363 M
-125 -6 V
112 -57 V
948 -173 R
949 3357 L
stroke
gsave [] 0 setdash
1074 3363 M
-125 -6 V
112 -57 V
stroke
grestore
1122 3502 M
-125 6 V
105 -68 V
927 -262 R
997 3508 L
stroke
gsave [] 0 setdash
1122 3502 M
-125 6 V
105 -68 V
stroke
grestore
1179 3639 M
-124 18 V
98 -78 V
898 -351 R
-996 429 V
stroke
gsave [] 0 setdash
1179 3639 M
-124 18 V
98 -78 V
stroke
grestore
1246 3770 M
-122 30 V
90 -87 V
860 -436 R
-950 523 V
stroke
gsave [] 0 setdash
1246 3770 M
-122 30 V
90 -87 V
stroke
grestore
1322 3897 M
-118 41 V
81 -95 V
814 -518 R
-895 613 V
stroke
gsave [] 0 setdash
1322 3897 M
-118 41 V
81 -95 V
stroke
grestore
1408 4016 M
-114 53 V
72 -103 V
759 -594 R
-831 697 V
stroke
gsave [] 0 setdash
1408 4016 M
-114 53 V
72 -103 V
stroke
grestore
1501 4129 M
-108 63 V
62 -109 V
698 -664 R
-760 773 V
stroke
gsave [] 0 setdash
1501 4129 M
-108 63 V
62 -109 V
stroke
grestore
1602 4234 M
-101 74 V
51 -115 V
630 -729 R
-681 844 V
stroke
gsave [] 0 setdash
1602 4234 M
-101 74 V
51 -115 V
stroke
grestore
1711 4332 M
-94 83 V
39 -119 V
557 -787 R
-596 906 V
stroke
gsave [] 0 setdash
1711 4332 M
-94 83 V
39 -119 V
stroke
grestore
1824 4420 M
-85 92 V
27 -122 V
479 -837 R
-506 959 V
stroke
gsave [] 0 setdash
1824 4420 M
-85 92 V
27 -122 V
stroke
grestore
1994 4528 M
-72 103 V
10 -125 V
361 -894 R
1922 4631 L
stroke
gsave [] 0 setdash
1994 4528 M
-72 103 V
10 -125 V
stroke
grestore
% End plot #10
% Begin plot #11
1.000 UL
LTb
0.34 0.71 0.91 C 1.000 UL
LTb
0.34 0.71 0.91 C 1994 4528 M
-72 103 V
10 -125 V
361 -894 R
1922 4631 L
stroke
gsave [] 0 setdash
1994 4528 M
-72 103 V
10 -125 V
stroke
grestore
2119 4594 M
-61 109 V
-1 -125 V
272 -925 R
2058 4703 L
stroke
gsave [] 0 setdash
2119 4594 M
-61 109 V
-1 -125 V
stroke
grestore
2249 4649 M
-51 115 V
-13 -125 V
181 -946 R
2198 4764 L
stroke
gsave [] 0 setdash
2249 4649 M
-51 115 V
-13 -125 V
stroke
grestore
2379 4695 M
-39 119 V
-25 -123 V
89 -960 R
-64 1083 V
stroke
gsave [] 0 setdash
2379 4695 M
-39 119 V
-25 -123 V
stroke
grestore
2512 4730 M
-27 122 V
-37 -120 V
-5 -963 R
42 1083 V
stroke
gsave [] 0 setdash
2512 4730 M
-27 122 V
-37 -120 V
stroke
grestore
2645 4754 M
-15 125 V
-48 -116 V
-99 -958 R
147 1074 V
stroke
gsave [] 0 setdash
2645 4754 M
-15 125 V
-48 -116 V
stroke
grestore
2778 4770 M
-3 125 V
-59 -110 V
2525 3840 M
250 1055 V
stroke
gsave [] 0 setdash
2778 4770 M
-3 125 V
-59 -110 V
stroke
grestore
2911 4774 M
8 125 V
-70 -104 V
2568 3873 M
351 1026 V
stroke
gsave [] 0 setdash
2911 4774 M
8 125 V
-70 -104 V
stroke
grestore
3040 4768 M
20 124 V
-79 -97 V
2612 3905 M
448 987 V
stroke
gsave [] 0 setdash
3040 4768 M
20 124 V
-79 -97 V
stroke
grestore
3166 4754 M
32 121 V
-89 -89 V
2656 3935 M
542 940 V
stroke
gsave [] 0 setdash
3166 4754 M
32 121 V
-89 -89 V
stroke
grestore
3288 4729 M
44 118 V
-97 -80 V
2702 3964 M
630 883 V
stroke
gsave [] 0 setdash
3288 4729 M
44 118 V
-97 -80 V
stroke
grestore
3407 4696 M
55 113 V
-104 -70 V
2749 3992 M
713 817 V
stroke
gsave [] 0 setdash
3407 4696 M
55 113 V
-104 -70 V
stroke
grestore
3519 4655 M
66 107 V
-110 -59 V
2796 4018 M
789 744 V
stroke
gsave [] 0 setdash
3519 4655 M
66 107 V
-110 -59 V
stroke
grestore
3626 4607 M
76 100 V
-116 -48 V
2845 4043 M
857 664 V
stroke
gsave [] 0 setdash
3626 4607 M
76 100 V
-116 -48 V
stroke
grestore
3726 4552 M
85 92 V
-120 -37 V
2894 4065 M
917 579 V
stroke
gsave [] 0 setdash
3726 4552 M
85 92 V
-120 -37 V
stroke
grestore
3819 4491 M
94 83 V
-123 -25 V
2944 4087 M
969 487 V
stroke
gsave [] 0 setdash
3819 4491 M
94 83 V
-123 -25 V
stroke
grestore
3905 4423 M
101 74 V
-125 -13 V
2994 4106 M
1012 391 V
stroke
gsave [] 0 setdash
3905 4423 M
101 74 V
-125 -13 V
stroke
grestore
3982 4352 M
108 64 V
-125 -1 V
3045 4125 M
1045 291 V
stroke
gsave [] 0 setdash
3982 4352 M
108 64 V
-125 -1 V
stroke
grestore
4051 4277 M
114 53 V
-125 10 V
3097 4141 M
1068 189 V
stroke
gsave [] 0 setdash
4051 4277 M
114 53 V
-125 10 V
stroke
grestore
4112 4199 M
118 41 V
-123 23 V
3149 4156 M
1081 84 V
stroke
gsave [] 0 setdash
4112 4199 M
118 41 V
-123 23 V
stroke
grestore
4164 4118 M
122 30 V
-121 34 V
-963 -13 R
1084 -21 V
stroke
gsave [] 0 setdash
4164 4118 M
122 30 V
-121 34 V
stroke
grestore
4208 4037 M
124 18 V
-117 46 V
-960 79 R
4332 4055 L
stroke
gsave [] 0 setdash
4208 4037 M
124 18 V
-117 46 V
stroke
grestore
4243 3955 M
125 6 V
-112 57 V
-948 172 R
4368 3961 L
stroke
gsave [] 0 setdash
4243 3955 M
125 6 V
-112 57 V
stroke
grestore
4270 3872 M
125 -5 V
-106 68 V
-927 262 R
4395 3867 L
stroke
gsave [] 0 setdash
4270 3872 M
125 -5 V
-106 68 V
stroke
grestore
4288 3793 M
124 -18 V
-98 78 V
-898 351 R
996 -429 V
stroke
gsave [] 0 setdash
4288 3793 M
124 -18 V
-98 78 V
stroke
grestore
4298 3715 M
122 -30 V
-90 87 V
-860 436 R
950 -523 V
stroke
gsave [] 0 setdash
4298 3715 M
122 -30 V
-90 87 V
stroke
grestore
4301 3639 M
118 -41 V
-81 95 V
-814 518 R
895 -613 V
stroke
gsave [] 0 setdash
4301 3639 M
118 -41 V
-81 95 V
stroke
grestore
4295 3568 M
114 -53 V
-72 103 V
-759 594 R
831 -697 V
stroke
gsave [] 0 setdash
4295 3568 M
114 -53 V
-72 103 V
stroke
grestore
4284 3500 M
108 -63 V
-62 109 V
-698 665 R
760 -774 V
stroke
gsave [] 0 setdash
4284 3500 M
108 -63 V
-62 109 V
stroke
grestore
4267 3438 M
101 -74 V
-51 115 V
-630 729 R
681 -844 V
stroke
gsave [] 0 setdash
4267 3438 M
101 -74 V
-51 115 V
stroke
grestore
4243 3381 M
94 -83 V
-39 119 V
-557 787 R
596 -906 V
stroke
gsave [] 0 setdash
4243 3381 M
94 -83 V
-39 119 V
stroke
grestore
4215 3330 M
85 -92 V
-27 122 V
-479 838 R
506 -960 V
stroke
gsave [] 0 setdash
4215 3330 M
85 -92 V
-27 122 V
stroke
grestore
4169 3270 M
72 -103 V
-10 125 V
-361 894 R
4241 3167 L
stroke
gsave [] 0 setdash
4169 3270 M
72 -103 V
-10 125 V
stroke
grestore
1994 4528 M
-72 103 V
10 -125 V
361 -894 R
1922 4631 L
stroke
gsave [] 0 setdash
1994 4528 M
-72 103 V
10 -125 V
stroke
grestore
2119 4594 M
-61 109 V
-1 -125 V
272 -925 R
2058 4703 L
stroke
gsave [] 0 setdash
2119 4594 M
-61 109 V
-1 -125 V
stroke
grestore
2249 4649 M
-51 115 V
-13 -125 V
181 -946 R
2198 4764 L
stroke
gsave [] 0 setdash
2249 4649 M
-51 115 V
-13 -125 V
stroke
grestore
2379 4695 M
-39 119 V
-25 -123 V
89 -960 R
-64 1083 V
stroke
gsave [] 0 setdash
2379 4695 M
-39 119 V
-25 -123 V
stroke
grestore
2512 4730 M
-27 122 V
-37 -120 V
-5 -963 R
42 1083 V
stroke
gsave [] 0 setdash
2512 4730 M
-27 122 V
-37 -120 V
stroke
grestore
2645 4754 M
-15 125 V
-48 -116 V
-99 -958 R
147 1074 V
stroke
gsave [] 0 setdash
2645 4754 M
-15 125 V
-48 -116 V
stroke
grestore
2778 4770 M
-3 125 V
-59 -110 V
2525 3840 M
250 1055 V
stroke
gsave [] 0 setdash
2778 4770 M
-3 125 V
-59 -110 V
stroke
grestore
2911 4774 M
8 125 V
-70 -104 V
2568 3873 M
351 1026 V
stroke
gsave [] 0 setdash
2911 4774 M
8 125 V
-70 -104 V
stroke
grestore
3040 4768 M
20 124 V
-79 -97 V
2612 3905 M
448 987 V
stroke
gsave [] 0 setdash
3040 4768 M
20 124 V
-79 -97 V
stroke
grestore
3166 4754 M
32 121 V
-89 -89 V
2656 3935 M
542 940 V
stroke
gsave [] 0 setdash
3166 4754 M
32 121 V
-89 -89 V
stroke
grestore
3288 4729 M
44 118 V
-97 -80 V
2702 3964 M
630 883 V
stroke
gsave [] 0 setdash
3288 4729 M
44 118 V
-97 -80 V
stroke
grestore
3407 4696 M
55 113 V
-104 -70 V
2749 3992 M
713 817 V
stroke
gsave [] 0 setdash
3407 4696 M
55 113 V
-104 -70 V
stroke
grestore
3519 4655 M
66 107 V
-110 -59 V
2796 4018 M
789 744 V
stroke
gsave [] 0 setdash
3519 4655 M
66 107 V
-110 -59 V
stroke
grestore
3626 4607 M
76 100 V
-116 -48 V
2845 4043 M
857 664 V
stroke
gsave [] 0 setdash
3626 4607 M
76 100 V
-116 -48 V
stroke
grestore
3726 4552 M
85 92 V
-120 -37 V
2894 4065 M
917 579 V
stroke
gsave [] 0 setdash
3726 4552 M
85 92 V
-120 -37 V
stroke
grestore
3819 4491 M
94 83 V
-123 -25 V
2944 4087 M
969 487 V
stroke
gsave [] 0 setdash
3819 4491 M
94 83 V
-123 -25 V
stroke
grestore
3905 4423 M
101 74 V
-125 -13 V
2994 4106 M
1012 391 V
stroke
gsave [] 0 setdash
3905 4423 M
101 74 V
-125 -13 V
stroke
grestore
3982 4352 M
108 64 V
-125 -1 V
3045 4125 M
1045 291 V
stroke
gsave [] 0 setdash
3982 4352 M
108 64 V
-125 -1 V
stroke
grestore
4051 4277 M
114 53 V
-125 10 V
3097 4141 M
1068 189 V
stroke
gsave [] 0 setdash
4051 4277 M
114 53 V
-125 10 V
stroke
grestore
4112 4199 M
118 41 V
-123 23 V
3149 4156 M
1081 84 V
stroke
gsave [] 0 setdash
4112 4199 M
118 41 V
-123 23 V
stroke
grestore
4164 4118 M
122 30 V
-121 34 V
-963 -13 R
1084 -21 V
stroke
gsave [] 0 setdash
4164 4118 M
122 30 V
-121 34 V
stroke
grestore
4208 4037 M
124 18 V
-117 46 V
-960 79 R
4332 4055 L
stroke
gsave [] 0 setdash
4208 4037 M
124 18 V
-117 46 V
stroke
grestore
4243 3955 M
125 6 V
-112 57 V
-948 172 R
4368 3961 L
stroke
gsave [] 0 setdash
4243 3955 M
125 6 V
-112 57 V
stroke
grestore
4270 3872 M
125 -5 V
-106 68 V
-927 262 R
4395 3867 L
stroke
gsave [] 0 setdash
4270 3872 M
125 -5 V
-106 68 V
stroke
grestore
4288 3793 M
124 -18 V
-98 78 V
-898 351 R
996 -429 V
stroke
gsave [] 0 setdash
4288 3793 M
124 -18 V
-98 78 V
stroke
grestore
4298 3715 M
122 -30 V
-90 87 V
-860 436 R
950 -523 V
stroke
gsave [] 0 setdash
4298 3715 M
122 -30 V
-90 87 V
stroke
grestore
4301 3639 M
118 -41 V
-81 95 V
-814 518 R
895 -613 V
stroke
gsave [] 0 setdash
4301 3639 M
118 -41 V
-81 95 V
stroke
grestore
4295 3568 M
114 -53 V
-72 103 V
-759 594 R
831 -697 V
stroke
gsave [] 0 setdash
4295 3568 M
114 -53 V
-72 103 V
stroke
grestore
4284 3500 M
108 -63 V
-62 109 V
-698 665 R
760 -774 V
stroke
gsave [] 0 setdash
4284 3500 M
108 -63 V
-62 109 V
stroke
grestore
4267 3438 M
101 -74 V
-51 115 V
-630 729 R
681 -844 V
stroke
gsave [] 0 setdash
4267 3438 M
101 -74 V
-51 115 V
stroke
grestore
4243 3381 M
94 -83 V
-39 119 V
-557 787 R
596 -906 V
stroke
gsave [] 0 setdash
4243 3381 M
94 -83 V
-39 119 V
stroke
grestore
4215 3330 M
85 -92 V
-27 122 V
-479 838 R
506 -960 V
stroke
gsave [] 0 setdash
4215 3330 M
85 -92 V
-27 122 V
stroke
grestore
4169 3270 M
72 -103 V
-10 125 V
-361 894 R
4241 3167 L
stroke
gsave [] 0 setdash
4169 3270 M
72 -103 V
-10 125 V
stroke
grestore
% End plot #11
% Begin plot #12
1.000 UL
LTb
0.90 0.62 0.00 C 1.000 UL
LTb
0.90 0.62 0.00 C 4169 3270 M
72 -103 V
-10 125 V
-361 894 R
4241 3167 L
stroke
gsave [] 0 setdash
4169 3270 M
72 -103 V
-10 125 V
stroke
grestore
4133 3235 M
61 -109 V
1 125 V
-272 925 R
4194 3126 L
stroke
gsave [] 0 setdash
4133 3235 M
61 -109 V
1 125 V
stroke
grestore
4093 3207 M
51 -115 V
13 125 V
-181 947 R
4144 3092 L
stroke
gsave [] 0 setdash
4093 3207 M
51 -115 V
13 125 V
stroke
grestore
4053 3186 M
39 -119 V
25 123 V
-89 960 R
64 -1083 V
stroke
gsave [] 0 setdash
4053 3186 M
39 -119 V
25 123 V
stroke
grestore
4011 3173 M
27 -122 V
37 120 V
5 964 R
4038 3051 L
stroke
gsave [] 0 setdash
4011 3173 M
27 -122 V
37 120 V
stroke
grestore
3970 3168 M
15 -125 V
48 116 V
99 959 R
3985 3043 L
stroke
gsave [] 0 setdash
3970 3168 M
15 -125 V
48 116 V
stroke
grestore
3930 3169 M
3 -125 V
59 110 V
191 945 R
3933 3044 L
stroke
gsave [] 0 setdash
3930 3169 M
3 -125 V
59 110 V
stroke
grestore
3890 3177 M
-8 -125 V
70 104 V
281 923 R
3882 3052 L
stroke
gsave [] 0 setdash
3890 3177 M
-8 -125 V
70 104 V
stroke
grestore
3854 3193 M
-20 -124 V
80 97 V
369 891 R
3834 3069 L
stroke
gsave [] 0 setdash
3854 3193 M
-20 -124 V
80 97 V
stroke
grestore
3821 3215 M
-32 -121 V
89 89 V
453 850 R
3789 3094 L
stroke
gsave [] 0 setdash
3821 3215 M
-32 -121 V
89 89 V
stroke
grestore
3793 3243 M
-44 -117 V
97 80 V
533 802 R
3749 3126 L
stroke
gsave [] 0 setdash
3793 3243 M
-44 -117 V
97 80 V
stroke
grestore
3769 3277 M
-55 -113 V
104 70 V
609 747 R
3714 3164 L
stroke
gsave [] 0 setdash
3769 3277 M
-55 -113 V
104 70 V
stroke
grestore
3751 3316 M
-66 -107 V
110 59 V
678 685 R
3685 3209 L
stroke
gsave [] 0 setdash
3751 3316 M
-66 -107 V
110 59 V
stroke
grestore
3738 3359 M
-76 -100 V
116 48 V
740 617 R
3662 3259 L
stroke
gsave [] 0 setdash
3738 3359 M
-76 -100 V
116 48 V
stroke
grestore
3731 3406 M
-85 -92 V
120 37 V
797 541 R
3646 3314 L
stroke
gsave [] 0 setdash
3731 3406 M
-85 -92 V
120 37 V
stroke
grestore
3731 3456 M
-94 -83 V
123 25 V
846 462 R
3637 3373 L
stroke
gsave [] 0 setdash
3731 3456 M
-94 -83 V
123 25 V
stroke
grestore
3738 3509 M
-101 -74 V
125 13 V
887 378 R
3637 3435 L
stroke
gsave [] 0 setdash
3738 3509 M
-101 -74 V
125 13 V
stroke
grestore
3753 3564 M
-108 -64 V
125 1 V
920 290 R
3645 3500 L
stroke
gsave [] 0 setdash
3753 3564 M
-108 -64 V
125 1 V
stroke
grestore
3776 3618 M
-114 -53 V
125 -10 V
943 199 R
3662 3565 L
stroke
gsave [] 0 setdash
3776 3618 M
-114 -53 V
125 -10 V
stroke
grestore
3806 3673 M
-118 -41 V
123 -23 V
958 107 R
3688 3632 L
stroke
gsave [] 0 setdash
3806 3673 M
-118 -41 V
123 -23 V
stroke
grestore
3844 3728 M
-122 -30 V
121 -34 V
963 13 R
-1084 21 V
stroke
gsave [] 0 setdash
3844 3728 M
-122 -30 V
121 -34 V
stroke
grestore
3889 3780 M
-124 -18 V
117 -46 V
960 -79 R
3765 3762 L
stroke
gsave [] 0 setdash
3889 3780 M
-124 -18 V
117 -46 V
stroke
grestore
3943 3831 M
-125 -6 V
112 -57 V
947 -172 R
3818 3825 L
stroke
gsave [] 0 setdash
3943 3831 M
-125 -6 V
112 -57 V
stroke
grestore
4003 3878 M
-125 6 V
105 -68 V
928 -263 R
3878 3884 L
stroke
gsave [] 0 setdash
4003 3878 M
-125 6 V
105 -68 V
stroke
grestore
4071 3920 M
-124 18 V
98 -78 V
898 -350 R
-996 428 V
stroke
gsave [] 0 setdash
4071 3920 M
-124 18 V
98 -78 V
stroke
grestore
4146 3958 M
-122 30 V
90 -87 V
860 -436 R
-950 523 V
stroke
gsave [] 0 setdash
4146 3958 M
-122 30 V
90 -87 V
stroke
grestore
4227 3991 M
-118 41 V
81 -95 V
814 -518 R
-895 613 V
stroke
gsave [] 0 setdash
4227 3991 M
-118 41 V
81 -95 V
stroke
grestore
4314 4016 M
-114 53 V
72 -103 V
759 -593 R
-831 696 V
stroke
gsave [] 0 setdash
4314 4016 M
-114 53 V
72 -103 V
stroke
grestore
4406 4036 M
-108 63 V
62 -109 V
698 -665 R
-760 774 V
stroke
gsave [] 0 setdash
4406 4036 M
-108 63 V
62 -109 V
stroke
grestore
4502 4047 M
-101 74 V
51 -115 V
631 -729 R
-682 844 V
stroke
gsave [] 0 setdash
4502 4047 M
-101 74 V
51 -115 V
stroke
grestore
4603 4051 M
-94 83 V
39 -119 V
558 -787 R
-597 906 V
stroke
gsave [] 0 setdash
4603 4051 M
-94 83 V
39 -119 V
stroke
grestore
4706 4046 M
-85 92 V
27 -122 V
479 -837 R
-506 959 V
stroke
gsave [] 0 setdash
4706 4046 M
-85 92 V
27 -122 V
stroke
grestore
4856 4023 M
-72 103 V
10 -125 V
361 -894 R
4784 4126 L
stroke
gsave [] 0 setdash
4856 4023 M
-72 103 V
10 -125 V
stroke
grestore
4169 3270 M
72 -103 V
-10 125 V
-361 894 R
4241 3167 L
stroke
gsave [] 0 setdash
4169 3270 M
72 -103 V
-10 125 V
stroke
grestore
4133 3235 M
61 -109 V
1 125 V
-272 925 R
4194 3126 L
stroke
gsave [] 0 setdash
4133 3235 M
61 -109 V
1 125 V
stroke
grestore
4093 3207 M
51 -115 V
13 125 V
-181 947 R
4144 3092 L
stroke
gsave [] 0 setdash
4093 3207 M
51 -115 V
13 125 V
stroke
grestore
4053 3186 M
39 -119 V
25 123 V
-89 960 R
64 -1083 V
stroke
gsave [] 0 setdash
4053 3186 M
39 -119 V
25 123 V
stroke
grestore
4011 3173 M
27 -122 V
37 120 V
5 964 R
4038 3051 L
stroke
gsave [] 0 setdash
4011 3173 M
27 -122 V
37 120 V
stroke
grestore
3970 3168 M
15 -125 V
48 116 V
99 959 R
3985 3043 L
stroke
gsave [] 0 setdash
3970 3168 M
15 -125 V
48 116 V
stroke
grestore
3930 3169 M
3 -125 V
59 110 V
191 945 R
3933 3044 L
stroke
gsave [] 0 setdash
3930 3169 M
3 -125 V
59 110 V
stroke
grestore
3890 3177 M
-8 -125 V
70 104 V
281 923 R
3882 3052 L
stroke
gsave [] 0 setdash
3890 3177 M
-8 -125 V
70 104 V
stroke
grestore
3854 3193 M
-20 -124 V
80 97 V
369 891 R
3834 3069 L
stroke
gsave [] 0 setdash
3854 3193 M
-20 -124 V
80 97 V
stroke
grestore
3821 3215 M
-32 -121 V
89 89 V
453 850 R
3789 3094 L
stroke
gsave [] 0 setdash
3821 3215 M
-32 -121 V
89 89 V
stroke
grestore
3793 3243 M
-44 -117 V
97 80 V
533 802 R
3749 3126 L
stroke
gsave [] 0 setdash
3793 3243 M
-44 -117 V
97 80 V
stroke
grestore
3769 3277 M
-55 -113 V
104 70 V
609 747 R
3714 3164 L
stroke
gsave [] 0 setdash
3769 3277 M
-55 -113 V
104 70 V
stroke
grestore
3751 3316 M
-66 -107 V
110 59 V
678 685 R
3685 3209 L
stroke
gsave [] 0 setdash
3751 3316 M
-66 -107 V
110 59 V
stroke
grestore
3738 3359 M
-76 -100 V
116 48 V
740 617 R
3662 3259 L
stroke
gsave [] 0 setdash
3738 3359 M
-76 -100 V
116 48 V
stroke
grestore
3731 3406 M
-85 -92 V
120 37 V
797 541 R
3646 3314 L
stroke
gsave [] 0 setdash
3731 3406 M
-85 -92 V
120 37 V
stroke
grestore
3731 3456 M
-94 -83 V
123 25 V
846 462 R
3637 3373 L
stroke
gsave [] 0 setdash
3731 3456 M
-94 -83 V
123 25 V
stroke
grestore
3738 3509 M
-101 -74 V
125 13 V
887 378 R
3637 3435 L
stroke
gsave [] 0 setdash
3738 3509 M
-101 -74 V
125 13 V
stroke
grestore
3753 3564 M
-108 -64 V
125 1 V
920 290 R
3645 3500 L
stroke
gsave [] 0 setdash
3753 3564 M
-108 -64 V
125 1 V
stroke
grestore
3776 3618 M
-114 -53 V
125 -10 V
943 199 R
3662 3565 L
stroke
gsave [] 0 setdash
3776 3618 M
-114 -53 V
125 -10 V
stroke
grestore
3806 3673 M
-118 -41 V
123 -23 V
958 107 R
3688 3632 L
stroke
gsave [] 0 setdash
3806 3673 M
-118 -41 V
123 -23 V
stroke
grestore
3844 3728 M
-122 -30 V
121 -34 V
963 13 R
-1084 21 V
stroke
gsave [] 0 setdash
3844 3728 M
-122 -30 V
121 -34 V
stroke
grestore
3889 3780 M
-124 -18 V
117 -46 V
960 -79 R
3765 3762 L
stroke
gsave [] 0 setdash
3889 3780 M
-124 -18 V
117 -46 V
stroke
grestore
3943 3831 M
-125 -6 V
112 -57 V
947 -172 R
3818 3825 L
stroke
gsave [] 0 setdash
3943 3831 M
-125 -6 V
112 -57 V
stroke
grestore
4003 3878 M
-125 6 V
105 -68 V
928 -263 R
3878 3884 L
stroke
gsave [] 0 setdash
4003 3878 M
-125 6 V
105 -68 V
stroke
grestore
4071 3920 M
-124 18 V
98 -78 V
898 -350 R
-996 428 V
stroke
gsave [] 0 setdash
4071 3920 M
-124 18 V
98 -78 V
stroke
grestore
4146 3958 M
-122 30 V
90 -87 V
860 -436 R
-950 523 V
stroke
gsave [] 0 setdash
4146 3958 M
-122 30 V
90 -87 V
stroke
grestore
4227 3991 M
-118 41 V
81 -95 V
814 -518 R
-895 613 V
stroke
gsave [] 0 setdash
4227 3991 M
-118 41 V
81 -95 V
stroke
grestore
4314 4016 M
-114 53 V
72 -103 V
759 -593 R
-831 696 V
stroke
gsave [] 0 setdash
4314 4016 M
-114 53 V
72 -103 V
stroke
grestore
4406 4036 M
-108 63 V
62 -109 V
698 -665 R
-760 774 V
stroke
gsave [] 0 setdash
4406 4036 M
-108 63 V
62 -109 V
stroke
grestore
4502 4047 M
-101 74 V
51 -115 V
631 -729 R
-682 844 V
stroke
gsave [] 0 setdash
4502 4047 M
-101 74 V
51 -115 V
stroke
grestore
4603 4051 M
-94 83 V
39 -119 V
558 -787 R
-597 906 V
stroke
gsave [] 0 setdash
4603 4051 M
-94 83 V
39 -119 V
stroke
grestore
4706 4046 M
-85 92 V
27 -122 V
479 -837 R
-506 959 V
stroke
gsave [] 0 setdash
4706 4046 M
-85 92 V
27 -122 V
stroke
grestore
4856 4023 M
-72 103 V
10 -125 V
361 -894 R
4784 4126 L
stroke
gsave [] 0 setdash
4856 4023 M
-72 103 V
10 -125 V
stroke
grestore
% End plot #12
2.000 UL
LTb
LCb setrgbcolor
1.000 UP
1.000 UL
LTb
LCb setrgbcolor
stroke
grestore
end
showpage
%%Trailer
%%DocumentFonts: Helvetica
