%!PS-Adobe-3.0 EPSF-3.0
%%Title: polarFrame.fig
%%Creator: fig2dev Version 3.2.6a
%%CreationDate: 2021-03-16 12:10:19
%%BoundingBox: 0 0 514 587
%Magnification: 1.0000
%%EndComments
%%BeginProlog
/$F2psDict 200 dict def
$F2psDict begin
$F2psDict /mtrx matrix put
/col-1 {0 setgray} bind def
/col0 {0.000 0.000 0.000 srgb} bind def
/col1 {0.000 0.000 1.000 srgb} bind def
/col7 {1.000 1.000 1.000 srgb} bind def

end

/cp {closepath} bind def
/ef {eofill} bind def
/gr {grestore} bind def
/gs {gsave} bind def
/sa {save} bind def
/rs {restore} bind def
/l {lineto} bind def
/m {moveto} bind def
/rm {rmoveto} bind def
/n {newpath} bind def
/s {stroke} bind def
/sh {show} bind def
/slc {setlinecap} bind def
/slj {setlinejoin} bind def
/slw {setlinewidth} bind def
/srgb {setrgbcolor} bind def
/rot {rotate} bind def
/sc {scale} bind def
/sd {setdash} bind def
/ff {findfont} bind def
/sf {setfont} bind def
/scf {scalefont} bind def
/sw {stringwidth} bind def
/tr {translate} bind def
/tnt {dup dup currentrgbcolor
  4 -2 roll dup 1 exch sub 3 -1 roll mul add
  4 -2 roll dup 1 exch sub 3 -1 roll mul add
  4 -2 roll dup 1 exch sub 3 -1 roll mul add srgb}
  bind def
/shd {dup dup currentrgbcolor 4 -2 roll mul 4 -2 roll mul
  4 -2 roll mul srgb} bind def
 /DrawEllipse {
	/endangle exch def
	/startangle exch def
	/yrad exch def
	/xrad exch def
	/y exch def
	/x exch def
	/savematrix mtrx currentmatrix def
	x y tr xrad yrad sc 0 0 1 startangle endangle arc
	closepath
	savematrix setmatrix
	} def

/$F2psBegin {$F2psDict begin /$F2psEnteredState save def} def
/$F2psEnd {$F2psEnteredState restore end} def

/pageheader {
save
newpath 0 587 moveto 0 0 lineto 514 0 lineto 514 587 lineto closepath clip newpath
-140.3 617.1 translate
1 -1 scale
$F2psBegin
10 setmiterlimit
0 slj 0 slc
 0.06299 0.06299 sc
} bind def
/pagefooter {
$F2psEnd
restore
} bind def
%%EndProlog
pageheader
%
% Fig objects follow
%
% 
% here starts figure with depth 50
% Arc
7.500 slw
0 slc
gs  clippath
5273 3450 m 5276 3463 l 5027 3552 l 5055 3500 l 5010 3463 l cp
eoclip
n 6262.6 8974.3 5605.3 -119.0242 -100.2203 arc
gs col0 s gr
 gr

% arrowhead
0 slj
30.000 slw
n 5027 3552 m 5203 3471 l 5010 3463 l 5055 3500 l 5027 3552 l 
 cp gs 0.00 setgray ef gr  col0 s
% Arc
7.500 slw
n 6288.1 8994.8 4700.6 -119.2114 -60.4408 arc
gs col0 s gr

% Arc
n 6297.1 9021.8 1443.8 -118.9172 -60.5941 arc
gs col1 s gr

% Arc
gs  clippath
7658 1479 m 7656 1493 l 7545 1502 l 7519 1468 l 7553 1442 l cp
eoclip
 [60] 0 sd
n 6913.6 6901.6 5466.4 -126.7219 -82.2576 arc
gs col0 s gr
 gr
 [] 0 sd
% arrowhead
n 7545 1502 m 7638 1484 l 7553 1442 l 7519 1468 l 7545 1502 l 
 cp gs 0.00 setgray ef gr  col0 s
% Ellipse
n 4950 1800 61 61 0 360 DrawEllipse gs 0.00 setgray ef gr gs col0 s gr

% Polyline
15.000 slw
n 2250 1800 m
 6300 9000 l gs col1 s gr 
% Polyline
n 10352 1803 m
 6302 9003 l gs col1 s gr 
% Polyline
7.500 slw
gs  clippath
4942 1795 m 4955 1792 l 5041 2042 l 4990 2013 l 4953 2058 l cp
eoclip
n 6300 9000 m
 4950 1800 l gs col0 s gr gr

% arrowhead
30.000 slw
n 5041 2042 m 4962 1866 l 4953 2058 l 4990 2013 l 5041 2042 l 
 cp gs 0.00 setgray ef gr  col0 s
% Polyline
7.500 slw
n 5192 3071 m
 4799 1018 l gs col7 s gr 
% Polyline
n 6659 8358 m
 5852 9784 l gs col7 s gr 
%  3 
/Times-Roman ff 476.25 scf sf
4221 4992 m
gs 1 -1 sc  295.0 rot (RM) col1 sh gr
%  3 
/Times-Roman ff 635.00 scf sf
3848 3659 m
gs 1 -1 sc  25.0 rot (X) col0 sh gr
%  3 
/Times-Roman ff 635.00 scf sf
5377 2540 m
gs 1 -1 sc  9.0 rot (Y) col0 sh gr
/Times-Roman ff 476.25 scf sf
6251 7464 m
gs 1 -1 sc  352.0 rot (AT) col1 sh gr
%  3 
/Times-Roman ff 635.00 scf sf
4424 1633 m
gs 1 -1 sc (m) col0 sh gr
%  3 
/Times-Roman ff 635.00 scf sf
5671 9260 m
gs 1 -1 sc (O) col0 sh gr
%  3 
/Times-Roman ff 635.00 scf sf
3870 945 m
gs 1 -1 sc (Cylindrical Frame) col0 sh gr
%  3 
/Times-Roman ff 635.00 scf sf
3870 495 m
gs 1 -1 sc (              ) col0 sh gr
% here ends figure;
pagefooter
showpage
%%Trailer
%EOF
