%!PS-Adobe-2.0 EPSF-2.0
%%Title: QZ.eps
%%Titre: QZ.eps
%%Creator: Fminigraf Library
%%BoundingBox: 20 40 567 457
%%EndComments
/offx 20 def
/offy 40 def
/lx 595 def
/ly 842 def
/maxx 1023 def
/maxy 779 def
/reduc 0.92 def
/coeff lx maxx div reduc mul def
offx offy translate
coeff coeff scale
1 setlinewidth newpath 0 0 moveto
/Courier-Bold findfont 32 scalefont setfont
/M {moveto} def
/L {lineto} def
/S {stroke} def
/H {show} def
/D {setdash} def
0 0 0 setrgbcolor
[] 0 D
/Courier-Bold findfont 30 scalefont setfont
84 128 M (0.0) H
102 156 M 102 166 L S
102 730 M 102 740 L S
137 156 M 137 161 L S
137 735 M 137 740 L S
172 156 M 172 161 L S
172 735 M 172 740 L S
206 156 M 206 161 L S
206 735 M 206 740 L S
241 156 M 241 161 L S
241 735 M 241 740 L S
258 128 M (0.1) H
276 156 M 276 166 L S
276 730 M 276 740 L S
311 156 M 311 161 L S
311 735 M 311 740 L S
346 156 M 346 161 L S
346 735 M 346 740 L S
380 156 M 380 161 L S
380 735 M 380 740 L S
415 156 M 415 161 L S
415 735 M 415 740 L S
432 128 M (0.2) H
450 156 M 450 166 L S
450 730 M 450 740 L S
485 156 M 485 161 L S
485 735 M 485 740 L S
520 156 M 520 161 L S
520 735 M 520 740 L S
554 156 M 554 161 L S
554 735 M 554 740 L S
589 156 M 589 161 L S
589 735 M 589 740 L S
606 128 M (0.3) H
624 156 M 624 166 L S
624 730 M 624 740 L S
659 156 M 659 161 L S
659 735 M 659 740 L S
694 156 M 694 161 L S
694 735 M 694 740 L S
728 156 M 728 161 L S
728 735 M 728 740 L S
763 156 M 763 161 L S
763 735 M 763 740 L S
780 128 M (0.4) H
798 156 M 798 166 L S
798 730 M 798 740 L S
833 156 M 833 161 L S
833 735 M 833 740 L S
868 156 M 868 161 L S
868 735 M 868 740 L S
902 156 M 902 161 L S
902 735 M 902 740 L S
937 156 M 937 161 L S
937 735 M 937 740 L S
954 128 M (0.5) H
972 156 M 972 166 L S
972 730 M 972 740 L S
102 156 M 112 156 L S
962 156 M 972 156 L S
102 184 M 107 184 L S
967 184 M 972 184 L S
102 212 M 107 212 L S
967 212 M 972 212 L S
102 239 M 107 239 L S
967 239 M 972 239 L S
33 257 M (0.2) H
102 267 M 112 267 L S
962 267 M 972 267 L S
102 295 M 107 295 L S
967 295 M 972 295 L S
102 323 M 107 323 L S
967 323 M 972 323 L S
102 351 M 107 351 L S
967 351 M 972 351 L S
33 368 M (0.4) H
102 378 M 112 378 L S
962 378 M 972 378 L S
102 406 M 107 406 L S
967 406 M 972 406 L S
102 434 M 107 434 L S
967 434 M 972 434 L S
102 462 M 107 462 L S
967 462 M 972 462 L S
33 480 M (0.6) H
102 490 M 112 490 L S
962 490 M 972 490 L S
102 518 M 107 518 L S
967 518 M 972 518 L S
102 545 M 107 545 L S
967 545 M 972 545 L S
102 573 M 107 573 L S
967 573 M 972 573 L S
33 591 M (0.8) H
102 601 M 112 601 L S
962 601 M 972 601 L S
102 629 M 107 629 L S
967 629 M 972 629 L S
102 657 M 107 657 L S
967 657 M 972 657 L S
102 684 M 107 684 L S
967 684 M 972 684 L S
39 702 M (1.) H
102 712 M 112 712 L S
962 712 M 972 712 L S
102 740 M 107 740 L S
967 740 M 972 740 L S
[] 0 D
102 156 M 972 156 L S
972 156 M 972 740 L S
972 740 M 102 740 L S
102 740 M 102 156 L S
[] 0 D
102 156 M 102 156 L S
102 156 M 102 156 L S
103 156 M 103 156 L S
103 156 M 103 156 L S
103 156 M 103 156 L S
103 156 M 103 156 L S
104 156 M 104 156 L S
104 156 M 104 156 L S
104 156 M 104 156 L S
104 156 M 104 156 L S
104 156 M 104 156 L S
104 156 M 104 156 L S
105 156 M 105 156 L S
105 156 M 105 156 L S
105 156 M 105 156 L S
105 156 M 105 156 L S
106 156 M 106 156 L S
106 156 M 106 156 L S
106 156 M 106 156 L S
106 156 M 106 156 L S
107 156 M 107 156 L S
107 156 M 107 156 L S
107 156 M 107 156 L S
107 156 M 107 156 L S
107 156 M 107 156 L S
107 156 M 107 156 L S
108 156 M 108 156 L S
108 156 M 108 156 L S
108 156 M 108 156 L S
108 156 M 108 156 L S
109 156 M 109 156 L S
109 156 M 109 156 L S
109 156 M 109 156 L S
109 156 M 109 156 L S
110 156 M 110 156 L S
110 156 M 110 156 L S
110 156 M 110 156 L S
110 156 M 110 156 L S
110 156 M 110 156 L S
110 156 M 110 156 L S
111 156 M 111 156 L S
111 156 M 111 156 L S
111 156 M 111 156 L S
111 156 M 111 156 L S
112 156 M 112 156 L S
112 156 M 112 156 L S
112 156 M 112 156 L S
112 156 M 112 156 L S
113 156 M 113 156 L S
113 156 M 113 156 L S
113 156 M 113 156 L S
113 156 M 113 156 L S
114 156 M 114 156 L S
114 156 M 114 156 L S
114 156 M 114 156 L S
114 156 M 114 156 L S
114 156 M 114 156 L S
114 156 M 114 156 L S
115 156 M 115 156 L S
115 156 M 115 156 L S
115 156 M 115 156 L S
115 156 M 115 156 L S
116 156 M 116 156 L S
116 156 M 116 156 L S
116 156 M 116 156 L S
116 156 M 116 156 L S
117 156 M 117 156 L S
117 156 M 117 156 L S
117 156 M 117 156 L S
117 156 M 117 156 L S
117 156 M 117 156 L S
117 156 M 117 156 L S
118 156 M 118 156 L S
118 156 M 118 156 L S
118 156 M 118 156 L S
118 156 M 118 156 L S
119 156 M 119 156 L S
119 156 M 119 156 L S
119 156 M 119 156 L S
119 156 M 119 156 L S
120 156 M 120 156 L S
120 156 M 120 156 L S
120 156 M 120 156 L S
120 156 M 120 156 L S
120 156 M 120 156 L S
120 156 M 120 156 L S
121 156 M 121 156 L S
121 156 M 121 156 L S
121 156 M 121 156 L S
121 156 M 121 156 L S
122 156 M 122 156 L S
122 156 M 122 156 L S
122 156 M 122 156 L S
122 156 M 122 156 L S
123 156 M 123 156 L S
123 156 M 123 156 L S
123 156 M 123 156 L S
123 156 M 123 156 L S
124 156 M 124 156 L S
124 156 M 124 156 L S
124 156 M 124 156 L S
124 156 M 124 156 L S
124 156 M 124 156 L S
124 156 M 124 156 L S
125 156 M 125 156 L S
125 156 M 125 156 L S
125 156 M 125 156 L S
125 156 M 125 156 L S
126 156 M 126 156 L S
126 156 M 126 156 L S
126 156 M 126 156 L S
126 156 M 126 156 L S
127 156 M 127 156 L S
127 156 M 127 156 L S
127 156 M 127 156 L S
127 156 M 127 156 L S
127 156 M 127 156 L S
127 156 M 127 156 L S
128 156 M 128 156 L S
128 156 M 128 156 L S
128 156 M 128 156 L S
128 156 M 128 156 L S
129 156 M 129 156 L S
129 156 M 129 156 L S
129 156 M 129 156 L S
129 156 M 129 156 L S
130 156 M 130 156 L S
130 156 M 130 156 L S
130 156 M 130 156 L S
130 156 M 130 156 L S
130 156 M 130 156 L S
130 156 M 130 156 L S
131 156 M 131 156 L S
131 156 M 131 156 L S
131 156 M 131 156 L S
131 156 M 131 156 L S
132 156 M 132 156 L S
132 156 M 132 156 L S
132 156 M 132 156 L S
132 156 M 132 156 L S
133 156 M 133 156 L S
133 156 M 133 156 L S
133 156 M 133 156 L S
133 156 M 133 156 L S
134 156 M 134 156 L S
134 156 M 134 156 L S
134 156 M 134 156 L S
134 156 M 134 156 L S
134 156 M 134 156 L S
134 156 M 134 156 L S
135 156 M 135 156 L S
135 156 M 135 156 L S
135 156 M 135 156 L S
135 156 M 135 156 L S
136 156 M 136 156 L S
136 156 M 136 156 L S
136 156 M 136 156 L S
136 156 M 136 156 L S
137 156 M 137 156 L S
137 156 M 137 156 L S
137 156 M 137 156 L S
137 156 M 137 156 L S
137 156 M 137 156 L S
137 156 M 137 156 L S
138 156 M 138 156 L S
138 156 M 138 156 L S
138 156 M 138 156 L S
138 156 M 138 156 L S
139 156 M 139 156 L S
139 156 M 139 156 L S
139 156 M 139 156 L S
139 156 M 139 156 L S
140 156 M 140 156 L S
140 156 M 140 156 L S
140 156 M 140 156 L S
140 156 M 140 156 L S
140 156 M 140 156 L S
140 156 M 140 156 L S
141 156 M 141 156 L S
141 156 M 141 156 L S
141 156 M 141 156 L S
141 156 M 141 156 L S
142 156 M 142 156 L S
142 156 M 142 156 L S
142 156 M 142 156 L S
142 156 M 142 156 L S
143 156 M 143 156 L S
143 156 M 143 156 L S
143 156 M 143 156 L S
143 156 M 143 156 L S
144 156 M 144 156 L S
144 156 M 144 156 L S
144 156 M 144 156 L S
144 156 M 144 156 L S
144 156 M 144 156 L S
144 156 M 144 156 L S
145 156 M 145 156 L S
145 156 M 145 156 L S
145 156 M 145 156 L S
145 156 M 145 156 L S
146 156 M 146 156 L S
146 156 M 146 156 L S
146 156 M 146 156 L S
146 156 M 146 156 L S
147 156 M 147 156 L S
147 156 M 147 156 L S
147 156 M 147 156 L S
147 156 M 147 156 L S
147 156 M 147 156 L S
147 156 M 147 156 L S
148 156 M 148 156 L S
148 156 M 148 156 L S
148 156 M 148 156 L S
148 156 M 148 156 L S
149 156 M 149 156 L S
149 156 M 149 157 L S
149 156 M 149 156 L S
149 156 M 149 162 L S
150 156 M 150 156 L S
150 156 M 150 162 L S
150 156 M 150 156 L S
150 156 M 150 157 L S
151 156 M 151 156 L S
151 156 M 151 156 L S
151 156 M 151 156 L S
151 156 M 151 156 L S
151 156 M 151 156 L S
151 156 M 151 156 L S
152 156 M 152 156 L S
152 156 M 152 156 L S
152 156 M 152 156 L S
152 156 M 152 156 L S
153 156 M 153 156 L S
153 156 M 153 156 L S
153 156 M 153 156 L S
153 156 M 153 156 L S
154 156 M 154 156 L S
154 156 M 154 156 L S
154 156 M 154 156 L S
154 156 M 154 156 L S
154 156 M 154 156 L S
154 156 M 154 156 L S
155 156 M 155 156 L S
155 156 M 155 156 L S
155 156 M 155 156 L S
155 156 M 155 156 L S
156 156 M 156 156 L S
156 156 M 156 156 L S
156 156 M 156 156 L S
156 156 M 156 156 L S
157 156 M 157 156 L S
157 156 M 157 156 L S
157 156 M 157 156 L S
157 156 M 157 156 L S
157 156 M 157 156 L S
157 156 M 157 156 L S
158 156 M 158 156 L S
158 156 M 158 156 L S
158 156 M 158 156 L S
158 156 M 158 156 L S
159 156 M 159 156 L S
159 156 M 159 156 L S
159 156 M 159 156 L S
159 156 M 159 156 L S
160 156 M 160 156 L S
160 156 M 160 156 L S
160 156 M 160 156 L S
160 156 M 160 156 L S
161 156 M 161 156 L S
161 156 M 161 156 L S
161 156 M 161 156 L S
161 156 M 161 156 L S
161 156 M 161 156 L S
161 156 M 161 156 L S
162 156 M 162 156 L S
162 156 M 162 156 L S
162 156 M 162 156 L S
162 156 M 162 156 L S
163 156 M 163 156 L S
163 156 M 163 156 L S
163 156 M 163 156 L S
163 156 M 163 156 L S
164 156 M 164 156 L S
164 156 M 164 156 L S
164 156 M 164 156 L S
164 156 M 164 156 L S
164 156 M 164 156 L S
164 156 M 164 156 L S
165 156 M 165 156 L S
165 156 M 165 156 L S
165 156 M 165 156 L S
165 156 M 165 156 L S
166 156 M 166 156 L S
166 156 M 166 156 L S
166 156 M 166 156 L S
166 156 M 166 156 L S
167 156 M 167 156 L S
167 156 M 167 156 L S
167 156 M 167 156 L S
167 156 M 167 156 L S
167 156 M 167 156 L S
167 156 M 167 156 L S
168 156 M 168 156 L S
168 156 M 168 156 L S
168 156 M 168 156 L S
168 156 M 168 156 L S
169 156 M 169 156 L S
169 156 M 169 156 L S
169 156 M 169 156 L S
169 156 M 169 156 L S
170 156 M 170 156 L S
170 156 M 170 156 L S
170 156 M 170 156 L S
170 156 M 170 156 L S
171 156 M 171 156 L S
171 156 M 171 156 L S
171 156 M 171 156 L S
171 156 M 171 156 L S
171 156 M 171 156 L S
171 156 M 171 156 L S
172 156 M 172 156 L S
172 156 M 172 156 L S
172 156 M 172 156 L S
172 156 M 172 156 L S
173 156 M 173 156 L S
173 156 M 173 156 L S
173 156 M 173 156 L S
173 156 M 173 156 L S
174 156 M 174 156 L S
174 156 M 174 156 L S
174 156 M 174 156 L S
174 156 M 174 156 L S
174 156 M 174 156 L S
174 156 M 174 156 L S
175 156 M 175 156 L S
175 156 M 175 156 L S
175 156 M 175 156 L S
175 156 M 175 156 L S
176 156 M 176 156 L S
176 156 M 176 156 L S
176 156 M 176 156 L S
176 156 M 176 156 L S
177 156 M 177 156 L S
177 156 M 177 156 L S
177 156 M 177 156 L S
177 156 M 177 156 L S
177 156 M 177 156 L S
177 156 M 177 156 L S
178 156 M 178 156 L S
178 156 M 178 156 L S
178 156 M 178 156 L S
178 156 M 178 156 L S
179 156 M 179 156 L S
179 156 M 179 156 L S
179 156 M 179 156 L S
179 156 M 179 156 L S
180 156 M 180 156 L S
180 156 M 180 156 L S
180 156 M 180 156 L S
180 156 M 180 156 L S
181 156 M 181 156 L S
181 156 M 181 156 L S
181 156 M 181 156 L S
181 156 M 181 156 L S
181 156 M 181 156 L S
181 156 M 181 156 L S
182 156 M 182 156 L S
182 156 M 182 156 L S
182 156 M 182 156 L S
182 156 M 182 156 L S
183 156 M 183 156 L S
183 156 M 183 156 L S
183 156 M 183 156 L S
183 156 M 183 156 L S
184 156 M 184 156 L S
184 156 M 184 156 L S
184 156 M 184 156 L S
184 156 M 184 156 L S
184 156 M 184 156 L S
184 156 M 184 156 L S
185 156 M 185 156 L S
185 156 M 185 156 L S
185 156 M 185 156 L S
185 156 M 185 156 L S
186 156 M 186 156 L S
186 156 M 186 156 L S
186 156 M 186 156 L S
186 156 M 186 156 L S
187 156 M 187 156 L S
187 156 M 187 156 L S
187 156 M 187 156 L S
187 156 M 187 156 L S
187 156 M 187 156 L S
187 156 M 187 156 L S
188 156 M 188 156 L S
188 156 M 188 156 L S
188 156 M 188 156 L S
188 156 M 188 156 L S
189 156 M 189 156 L S
189 156 M 189 156 L S
189 156 M 189 156 L S
189 156 M 189 156 L S
190 156 M 190 156 L S
190 156 M 190 156 L S
190 156 M 190 156 L S
190 156 M 190 156 L S
191 156 M 191 156 L S
191 156 M 191 156 L S
191 156 M 191 156 L S
191 156 M 191 156 L S
191 156 M 191 156 L S
191 156 M 191 156 L S
192 156 M 192 156 L S
192 156 M 192 156 L S
192 156 M 192 156 L S
192 156 M 192 156 L S
193 156 M 193 156 L S
193 156 M 193 156 L S
193 156 M 193 156 L S
193 156 M 193 156 L S
194 156 M 194 156 L S
194 156 M 194 156 L S
194 156 M 194 156 L S
194 156 M 194 156 L S
194 156 M 194 156 L S
194 156 M 194 156 L S
195 156 M 195 156 L S
195 156 M 195 156 L S
195 156 M 195 156 L S
195 156 M 195 156 L S
196 156 M 196 156 L S
196 156 M 196 156 L S
196 156 M 196 156 L S
196 156 M 196 156 L S
197 156 M 197 156 L S
197 156 M 197 156 L S
197 156 M 197 156 L S
197 156 M 197 156 L S
197 156 M 197 156 L S
197 156 M 197 156 L S
198 156 M 198 156 L S
198 156 M 198 156 L S
198 156 M 198 156 L S
198 156 M 198 156 L S
199 156 M 199 156 L S
199 156 M 199 156 L S
199 156 M 199 156 L S
199 156 M 199 156 L S
200 156 M 200 156 L S
200 156 M 200 156 L S
200 156 M 200 156 L S
200 156 M 200 156 L S
201 156 M 201 156 L S
201 156 M 201 156 L S
201 156 M 201 156 L S
201 156 M 201 156 L S
201 156 M 201 156 L S
201 156 M 201 156 L S
202 156 M 202 156 L S
202 156 M 202 156 L S
202 156 M 202 156 L S
202 156 M 202 156 L S
203 156 M 203 156 L S
203 156 M 203 156 L S
203 156 M 203 156 L S
203 156 M 203 156 L S
204 156 M 204 156 L S
204 156 M 204 156 L S
204 156 M 204 156 L S
204 156 M 204 156 L S
204 156 M 204 156 L S
204 156 M 204 156 L S
205 156 M 205 156 L S
205 156 M 205 156 L S
205 156 M 205 156 L S
205 156 M 205 156 L S
206 156 M 206 156 L S
206 156 M 206 156 L S
206 156 M 206 156 L S
206 156 M 206 156 L S
207 156 M 207 156 L S
207 156 M 207 156 L S
207 156 M 207 156 L S
207 156 M 207 157 L S
207 156 M 207 156 L S
207 156 M 207 156 L S
208 156 M 208 156 L S
208 156 M 208 161 L S
208 156 M 208 156 L S
208 156 M 208 172 L S
209 156 M 209 156 L S
209 156 M 209 164 L S
209 156 M 209 156 L S
209 156 M 209 156 L S
210 156 M 210 156 L S
210 156 M 210 157 L S
210 156 M 210 156 L S
210 156 M 210 156 L S
211 156 M 211 156 L S
211 156 M 211 156 L S
211 156 M 211 156 L S
211 156 M 211 156 L S
211 156 M 211 156 L S
211 156 M 211 156 L S
212 156 M 212 156 L S
212 156 M 212 156 L S
212 156 M 212 156 L S
212 156 M 212 156 L S
213 156 M 213 156 L S
213 156 M 213 156 L S
213 156 M 213 156 L S
213 156 M 213 156 L S
214 156 M 214 156 L S
214 156 M 214 156 L S
214 156 M 214 156 L S
214 156 M 214 156 L S
214 156 M 214 156 L S
214 156 M 214 156 L S
215 156 M 215 156 L S
215 156 M 215 156 L S
215 156 M 215 156 L S
215 156 M 215 156 L S
216 156 M 216 156 L S
216 156 M 216 156 L S
216 156 M 216 156 L S
216 156 M 216 156 L S
217 156 M 217 156 L S
217 156 M 217 156 L S
217 156 M 217 156 L S
217 156 M 217 156 L S
217 156 M 217 156 L S
217 156 M 217 156 L S
218 156 M 218 156 L S
218 156 M 218 156 L S
218 156 M 218 156 L S
218 156 M 218 156 L S
219 156 M 219 156 L S
219 156 M 219 156 L S
219 156 M 219 156 L S
219 156 M 219 156 L S
220 156 M 220 156 L S
220 156 M 220 156 L S
220 156 M 220 156 L S
220 156 M 220 156 L S
221 156 M 221 156 L S
221 156 M 221 156 L S
221 156 M 221 156 L S
221 156 M 221 156 L S
221 156 M 221 156 L S
221 156 M 221 156 L S
222 156 M 222 156 L S
222 156 M 222 156 L S
222 156 M 222 156 L S
222 156 M 222 156 L S
223 156 M 223 156 L S
223 156 M 223 156 L S
223 156 M 223 156 L S
223 156 M 223 156 L S
224 156 M 224 156 L S
224 156 M 224 156 L S
224 156 M 224 156 L S
224 156 M 224 156 L S
224 156 M 224 156 L S
224 156 M 224 156 L S
225 156 M 225 156 L S
225 156 M 225 156 L S
225 156 M 225 156 L S
225 156 M 225 156 L S
226 156 M 226 156 L S
226 156 M 226 156 L S
226 156 M 226 156 L S
226 156 M 226 156 L S
227 156 M 227 156 L S
227 156 M 227 156 L S
227 156 M 227 156 L S
227 156 M 227 156 L S
227 156 M 227 156 L S
227 156 M 227 156 L S
228 156 M 228 156 L S
228 156 M 228 156 L S
228 156 M 228 156 L S
228 156 M 228 156 L S
229 156 M 229 156 L S
229 156 M 229 156 L S
229 156 M 229 156 L S
229 156 M 229 156 L S
230 156 M 230 156 L S
230 156 M 230 156 L S
230 156 M 230 156 L S
230 156 M 230 156 L S
231 156 M 231 156 L S
231 156 M 231 156 L S
231 156 M 231 156 L S
231 156 M 231 156 L S
231 156 M 231 156 L S
231 156 M 231 156 L S
232 156 M 232 156 L S
232 156 M 232 156 L S
232 156 M 232 156 L S
232 156 M 232 156 L S
233 156 M 233 156 L S
233 156 M 233 156 L S
233 156 M 233 156 L S
233 156 M 233 156 L S
234 156 M 234 156 L S
234 156 M 234 156 L S
234 156 M 234 156 L S
234 156 M 234 156 L S
234 156 M 234 156 L S
234 156 M 234 156 L S
235 156 M 235 156 L S
235 156 M 235 156 L S
235 156 M 235 156 L S
235 156 M 235 156 L S
236 156 M 236 156 L S
236 156 M 236 156 L S
236 156 M 236 156 L S
236 156 M 236 156 L S
237 156 M 237 156 L S
237 156 M 237 156 L S
237 156 M 237 156 L S
237 156 M 237 156 L S
238 156 M 238 156 L S
238 156 M 238 156 L S
238 156 M 238 156 L S
238 156 M 238 156 L S
238 156 M 238 156 L S
238 156 M 238 156 L S
239 156 M 239 156 L S
239 156 M 239 156 L S
239 156 M 239 156 L S
239 156 M 239 156 L S
240 156 M 240 156 L S
240 156 M 240 156 L S
240 156 M 240 156 L S
240 156 M 240 156 L S
241 156 M 241 156 L S
241 156 M 241 156 L S
241 156 M 241 156 L S
241 156 M 241 156 L S
241 156 M 241 156 L S
241 156 M 241 156 L S
242 156 M 242 156 L S
242 156 M 242 156 L S
242 156 M 242 156 L S
242 156 M 242 156 L S
243 156 M 243 156 L S
243 156 M 243 156 L S
243 156 M 243 156 L S
243 156 M 243 156 L S
244 156 M 244 156 L S
244 156 M 244 156 L S
244 156 M 244 156 L S
244 156 M 244 156 L S
244 156 M 244 156 L S
244 156 M 244 156 L S
245 156 M 245 156 L S
245 156 M 245 156 L S
245 156 M 245 156 L S
245 156 M 245 156 L S
246 156 M 246 156 L S
246 156 M 246 156 L S
246 156 M 246 156 L S
246 156 M 246 156 L S
247 156 M 247 156 L S
247 156 M 247 156 L S
247 156 M 247 156 L S
247 156 M 247 156 L S
248 156 M 248 156 L S
248 156 M 248 156 L S
248 156 M 248 156 L S
248 156 M 248 156 L S
248 156 M 248 156 L S
248 156 M 248 156 L S
249 156 M 249 156 L S
249 156 M 249 156 L S
249 156 M 249 156 L S
249 156 M 249 156 L S
250 156 M 250 156 L S
250 156 M 250 156 L S
250 156 M 250 156 L S
250 156 M 250 156 L S
251 156 M 251 156 L S
251 156 M 251 156 L S
251 156 M 251 156 L S
251 156 M 251 156 L S
251 156 M 251 156 L S
251 156 M 251 156 L S
252 156 M 252 156 L S
252 156 M 252 156 L S
252 156 M 252 156 L S
252 156 M 252 156 L S
253 156 M 253 156 L S
253 156 M 253 156 L S
253 156 M 253 156 L S
253 156 M 253 156 L S
254 156 M 254 156 L S
254 156 M 254 156 L S
254 156 M 254 156 L S
254 156 M 254 156 L S
254 156 M 254 156 L S
254 156 M 254 156 L S
255 156 M 255 156 L S
255 156 M 255 156 L S
255 156 M 255 156 L S
255 156 M 255 156 L S
256 156 M 256 156 L S
256 156 M 256 156 L S
256 156 M 256 156 L S
256 156 M 256 156 L S
257 156 M 257 156 L S
257 156 M 257 156 L S
257 156 M 257 156 L S
257 156 M 257 156 L S
258 156 M 258 156 L S
258 156 M 258 156 L S
258 156 M 258 156 L S
258 156 M 258 156 L S
258 156 M 258 156 L S
258 156 M 258 156 L S
259 156 M 259 156 L S
259 156 M 259 156 L S
259 156 M 259 156 L S
259 156 M 259 156 L S
260 156 M 260 156 L S
260 156 M 260 156 L S
260 156 M 260 156 L S
260 156 M 260 156 L S
261 156 M 261 156 L S
261 156 M 261 156 L S
261 156 M 261 156 L S
261 156 M 261 156 L S
261 156 M 261 156 L S
261 156 M 261 156 L S
262 156 M 262 156 L S
262 156 M 262 156 L S
262 156 M 262 156 L S
262 156 M 262 156 L S
263 156 M 263 156 L S
263 156 M 263 156 L S
263 156 M 263 156 L S
263 156 M 263 156 L S
264 156 M 264 156 L S
264 156 M 264 156 L S
264 156 M 264 156 L S
264 156 M 264 156 L S
264 156 M 264 156 L S
264 156 M 264 156 L S
265 156 M 265 156 L S
265 156 M 265 156 L S
265 156 M 265 156 L S
265 156 M 265 156 L S
266 156 M 266 156 L S
266 156 M 266 156 L S
266 156 M 266 156 L S
266 156 M 266 156 L S
267 156 M 267 156 L S
267 156 M 267 156 L S
267 156 M 267 156 L S
267 156 M 267 156 L S
268 156 M 268 156 L S
268 156 M 268 156 L S
268 156 M 268 156 L S
268 156 M 268 156 L S
268 156 M 268 156 L S
268 156 M 268 156 L S
269 156 M 269 156 L S
269 156 M 269 156 L S
269 156 M 269 156 L S
269 156 M 269 156 L S
270 156 M 270 156 L S
270 156 M 270 156 L S
270 156 M 270 156 L S
270 156 M 270 156 L S
271 156 M 271 156 L S
271 156 M 271 156 L S
271 156 M 271 156 L S
271 156 M 271 156 L S
271 156 M 271 156 L S
271 156 M 271 156 L S
272 156 M 272 156 L S
272 156 M 272 156 L S
272 156 M 272 156 L S
272 156 M 272 156 L S
273 156 M 273 156 L S
273 156 M 273 156 L S
273 156 M 273 156 L S
273 156 M 273 156 L S
274 156 M 274 156 L S
274 156 M 274 156 L S
274 156 M 274 156 L S
274 156 M 274 156 L S
274 156 M 274 156 L S
274 156 M 274 156 L S
275 156 M 275 156 L S
275 156 M 275 156 L S
275 156 M 275 156 L S
275 156 M 275 156 L S
276 156 M 276 156 L S
276 156 M 276 156 L S
276 156 M 276 156 L S
276 156 M 276 156 L S
277 156 M 277 156 L S
277 156 M 277 156 L S
277 156 M 277 156 L S
277 156 M 277 156 L S
278 156 M 278 156 L S
278 156 M 278 156 L S
278 156 M 278 156 L S
278 156 M 278 156 L S
278 156 M 278 156 L S
278 156 M 278 156 L S
279 156 M 279 156 L S
279 156 M 279 156 L S
279 156 M 279 156 L S
279 156 M 279 156 L S
280 156 M 280 156 L S
280 156 M 280 156 L S
280 156 M 280 156 L S
280 156 M 280 156 L S
281 156 M 281 156 L S
281 156 M 281 156 L S
281 156 M 281 156 L S
281 156 M 281 156 L S
281 156 M 281 156 L S
281 156 M 281 156 L S
282 156 M 282 156 L S
282 156 M 282 156 L S
282 156 M 282 156 L S
282 156 M 282 156 L S
283 156 M 283 156 L S
283 156 M 283 156 L S
283 156 M 283 156 L S
283 156 M 283 156 L S
284 156 M 284 156 L S
284 156 M 284 156 L S
284 156 M 284 156 L S
284 156 M 284 156 L S
284 156 M 284 156 L S
284 156 M 284 156 L S
285 156 M 285 156 L S
285 156 M 285 156 L S
285 156 M 285 156 L S
285 156 M 285 156 L S
286 156 M 286 156 L S
286 156 M 286 156 L S
286 156 M 286 156 L S
286 156 M 286 156 L S
287 156 M 287 156 L S
287 156 M 287 156 L S
287 156 M 287 156 L S
287 156 M 287 156 L S
288 156 M 288 156 L S
288 156 M 288 156 L S
288 156 M 288 156 L S
288 156 M 288 156 L S
288 156 M 288 156 L S
288 156 M 288 156 L S
289 156 M 289 156 L S
289 156 M 289 156 L S
289 156 M 289 156 L S
289 156 M 289 156 L S
290 156 M 290 156 L S
290 156 M 290 156 L S
290 156 M 290 156 L S
290 156 M 290 156 L S
291 156 M 291 156 L S
291 156 M 291 156 L S
291 156 M 291 156 L S
291 156 M 291 156 L S
291 156 M 291 156 L S
291 156 M 291 156 L S
292 156 M 292 156 L S
292 156 M 292 156 L S
292 156 M 292 156 L S
292 156 M 292 156 L S
293 156 M 293 156 L S
293 156 M 293 156 L S
293 156 M 293 156 L S
293 156 M 293 156 L S
294 156 M 294 156 L S
294 156 M 294 156 L S
294 156 M 294 156 L S
294 156 M 294 156 L S
294 156 M 294 156 L S
294 156 M 294 156 L S
295 156 M 295 156 L S
295 156 M 295 156 L S
295 156 M 295 156 L S
295 156 M 295 156 L S
296 156 M 296 156 L S
296 156 M 296 156 L S
296 156 M 296 156 L S
296 156 M 296 156 L S
297 156 M 297 156 L S
297 156 M 297 156 L S
297 156 M 297 156 L S
297 156 M 297 156 L S
298 156 M 298 156 L S
298 156 M 298 156 L S
298 156 M 298 156 L S
298 156 M 298 156 L S
298 156 M 298 156 L S
298 156 M 298 156 L S
299 156 M 299 156 L S
299 156 M 299 156 L S
299 156 M 299 156 L S
299 156 M 299 156 L S
300 156 M 300 156 L S
300 156 M 300 156 L S
300 156 M 300 156 L S
300 156 M 300 156 L S
301 156 M 301 156 L S
301 156 M 301 156 L S
301 156 M 301 156 L S
301 156 M 301 156 L S
301 156 M 301 156 L S
301 156 M 301 156 L S
302 156 M 302 156 L S
302 156 M 302 156 L S
302 156 M 302 156 L S
302 156 M 302 156 L S
303 156 M 303 156 L S
303 156 M 303 156 L S
303 156 M 303 156 L S
303 156 M 303 156 L S
304 156 M 304 156 L S
304 156 M 304 156 L S
304 156 M 304 156 L S
304 156 M 304 156 L S
304 156 M 304 156 L S
304 156 M 304 156 L S
305 156 M 305 156 L S
305 156 M 305 156 L S
305 156 M 305 156 L S
305 156 M 305 156 L S
306 156 M 306 156 L S
306 156 M 306 156 L S
306 156 M 306 156 L S
306 156 M 306 156 L S
307 156 M 307 156 L S
307 156 M 307 156 L S
307 156 M 307 156 L S
307 156 M 307 156 L S
308 156 M 308 156 L S
308 156 M 308 156 L S
308 156 M 308 156 L S
308 156 M 308 156 L S
308 156 M 308 156 L S
308 156 M 308 156 L S
309 156 M 309 156 L S
309 156 M 309 156 L S
309 156 M 309 156 L S
309 156 M 309 156 L S
310 156 M 310 156 L S
310 156 M 310 156 L S
310 156 M 310 156 L S
310 156 M 310 156 L S
311 156 M 311 156 L S
311 156 M 311 156 L S
311 156 M 311 156 L S
311 156 M 311 156 L S
311 156 M 311 156 L S
311 156 M 311 156 L S
312 156 M 312 156 L S
312 156 M 312 156 L S
312 156 M 312 156 L S
312 156 M 312 156 L S
313 156 M 313 156 L S
313 156 M 313 156 L S
313 156 M 313 156 L S
313 156 M 313 156 L S
314 156 M 314 156 L S
314 156 M 314 156 L S
314 156 M 314 156 L S
314 156 M 314 156 L S
314 156 M 314 156 L S
314 156 M 314 156 L S
315 156 M 315 156 L S
315 156 M 315 156 L S
315 156 M 315 156 L S
315 156 M 315 156 L S
316 156 M 316 156 L S
316 156 M 316 156 L S
316 156 M 316 156 L S
316 156 M 316 156 L S
317 156 M 317 156 L S
317 156 M 317 156 L S
317 156 M 317 156 L S
317 156 M 317 156 L S
318 156 M 318 156 L S
318 156 M 318 156 L S
318 156 M 318 156 L S
318 156 M 318 156 L S
318 156 M 318 156 L S
318 156 M 318 156 L S
319 156 M 319 156 L S
319 156 M 319 156 L S
319 156 M 319 156 L S
319 156 M 319 156 L S
320 156 M 320 156 L S
320 156 M 320 156 L S
320 156 M 320 156 L S
320 156 M 320 156 L S
321 156 M 321 156 L S
321 156 M 321 156 L S
321 156 M 321 156 L S
321 156 M 321 156 L S
321 156 M 321 156 L S
321 156 M 321 156 L S
322 156 M 322 156 L S
322 156 M 322 156 L S
322 156 M 322 156 L S
322 156 M 322 156 L S
323 156 M 323 156 L S
323 156 M 323 156 L S
323 156 M 323 156 L S
323 156 M 323 156 L S
324 156 M 324 156 L S
324 156 M 324 156 L S
324 156 M 324 156 L S
324 156 M 324 156 L S
325 156 M 325 156 L S
325 156 M 325 156 L S
325 156 M 325 156 L S
325 156 M 325 156 L S
325 156 M 325 156 L S
325 156 M 325 156 L S
326 156 M 326 156 L S
326 156 M 326 156 L S
326 156 M 326 156 L S
326 156 M 326 156 L S
327 156 M 327 156 L S
327 156 M 327 156 L S
327 156 M 327 156 L S
327 156 M 327 156 L S
328 156 M 328 156 L S
328 156 M 328 156 L S
328 156 M 328 156 L S
328 156 M 328 156 L S
328 156 M 328 156 L S
328 156 M 328 156 L S
329 156 M 329 156 L S
329 156 M 329 156 L S
329 156 M 329 156 L S
329 156 M 329 156 L S
330 156 M 330 156 L S
330 156 M 330 156 L S
330 156 M 330 156 L S
330 156 M 330 156 L S
331 156 M 331 156 L S
331 156 M 331 156 L S
331 156 M 331 156 L S
331 156 M 331 156 L S
331 156 M 331 156 L S
331 156 M 331 156 L S
332 156 M 332 156 L S
332 156 M 332 156 L S
332 156 M 332 156 L S
332 156 M 332 156 L S
333 156 M 333 156 L S
333 156 M 333 156 L S
333 156 M 333 156 L S
333 156 M 333 156 L S
334 156 M 334 156 L S
334 156 M 334 156 L S
334 156 M 334 156 L S
334 156 M 334 156 L S
335 156 M 335 156 L S
335 156 M 335 156 L S
335 156 M 335 156 L S
335 156 M 335 156 L S
335 156 M 335 156 L S
335 156 M 335 156 L S
336 156 M 336 156 L S
336 156 M 336 156 L S
336 156 M 336 156 L S
336 156 M 336 156 L S
337 156 M 337 156 L S
337 156 M 337 156 L S
337 156 M 337 156 L S
337 156 M 337 156 L S
338 156 M 338 156 L S
338 156 M 338 156 L S
338 156 M 338 156 L S
338 156 M 338 156 L S
338 156 M 338 156 L S
338 156 M 338 156 L S
339 156 M 339 156 L S
339 156 M 339 156 L S
339 156 M 339 156 L S
339 156 M 339 156 L S
340 156 M 340 156 L S
340 156 M 340 156 L S
340 156 M 340 156 L S
340 156 M 340 156 L S
341 156 M 341 156 L S
341 156 M 341 156 L S
341 156 M 341 156 L S
341 156 M 341 156 L S
341 156 M 341 156 L S
341 156 M 341 156 L S
342 156 M 342 156 L S
342 156 M 342 156 L S
342 156 M 342 156 L S
342 156 M 342 156 L S
343 156 M 343 156 L S
343 156 M 343 156 L S
343 156 M 343 156 L S
343 156 M 343 156 L S
344 156 M 344 156 L S
344 156 M 344 156 L S
344 156 M 344 156 L S
344 156 M 344 156 L S
345 156 M 345 156 L S
345 156 M 345 156 L S
345 156 M 345 156 L S
345 156 M 345 156 L S
345 156 M 345 156 L S
345 156 M 345 156 L S
346 156 M 346 156 L S
346 156 M 346 156 L S
346 156 M 346 156 L S
346 156 M 346 156 L S
347 156 M 347 156 L S
347 156 M 347 156 L S
347 156 M 347 156 L S
347 156 M 347 156 L S
348 156 M 348 156 L S
348 156 M 348 156 L S
348 156 M 348 156 L S
348 156 M 348 156 L S
348 156 M 348 156 L S
348 156 M 348 156 L S
349 156 M 349 156 L S
349 156 M 349 156 L S
349 156 M 349 156 L S
349 156 M 349 156 L S
350 156 M 350 156 L S
350 156 M 350 156 L S
350 156 M 350 156 L S
350 156 M 350 156 L S
351 156 M 351 156 L S
351 156 M 351 156 L S
351 156 M 351 156 L S
351 156 M 351 156 L S
351 156 M 351 156 L S
351 156 M 351 156 L S
352 156 M 352 156 L S
352 156 M 352 156 L S
352 156 M 352 156 L S
352 156 M 352 156 L S
353 156 M 353 156 L S
353 156 M 353 156 L S
353 156 M 353 156 L S
353 156 M 353 156 L S
354 156 M 354 156 L S
354 156 M 354 156 L S
354 156 M 354 156 L S
354 156 M 354 157 L S
355 156 M 355 156 L S
355 156 M 355 156 L S
355 156 M 355 156 L S
355 156 M 355 157 L S
355 156 M 355 156 L S
355 156 M 355 156 L S
356 156 M 356 156 L S
356 156 M 356 157 L S
356 156 M 356 156 L S
356 156 M 356 156 L S
357 156 M 357 156 L S
357 156 M 357 157 L S
357 156 M 357 156 L S
357 156 M 357 156 L S
358 156 M 358 156 L S
358 156 M 358 158 L S
358 156 M 358 156 L S
358 156 M 358 156 L S
358 156 M 358 156 L S
358 156 M 358 159 L S
359 156 M 359 156 L S
359 156 M 359 156 L S
359 156 M 359 156 L S
359 156 M 359 161 L S
360 156 M 360 156 L S
360 156 M 360 156 L S
360 156 M 360 156 L S
360 156 M 360 165 L S
361 156 M 361 156 L S
361 156 M 361 157 L S
361 156 M 361 156 L S
361 156 M 361 183 L S
361 156 M 361 156 L S
361 156 M 361 159 L S
362 156 M 362 156 L S
362 156 M 362 450 L S
362 156 M 362 156 L S
362 156 M 362 712 L S
363 156 M 363 156 L S
363 156 M 363 325 L S
363 156 M 363 156 L S
363 156 M 363 158 L S
364 156 M 364 156 L S
364 156 M 364 178 L S
364 156 M 364 156 L S
364 156 M 364 157 L S
365 156 M 365 156 L S
365 156 M 365 164 L S
365 156 M 365 156 L S
365 156 M 365 156 L S
365 156 M 365 156 L S
365 156 M 365 160 L S
366 156 M 366 156 L S
366 156 M 366 156 L S
366 156 M 366 156 L S
366 156 M 366 159 L S
367 156 M 367 156 L S
367 156 M 367 156 L S
367 156 M 367 156 L S
367 156 M 367 158 L S
368 156 M 368 156 L S
368 156 M 368 156 L S
368 156 M 368 156 L S
368 156 M 368 157 L S
368 156 M 368 156 L S
368 156 M 368 156 L S
369 156 M 369 156 L S
369 156 M 369 157 L S
369 156 M 369 156 L S
369 156 M 369 156 L S
370 156 M 370 156 L S
370 156 M 370 157 L S
370 156 M 370 156 L S
370 156 M 370 156 L S
371 156 M 371 156 L S
371 156 M 371 157 L S
371 156 M 371 156 L S
371 156 M 371 156 L S
371 156 M 371 156 L S
371 156 M 371 157 L S
372 156 M 372 156 L S
372 156 M 372 156 L S
372 156 M 372 156 L S
372 156 M 372 156 L S
373 156 M 373 156 L S
373 156 M 373 156 L S
373 156 M 373 156 L S
373 156 M 373 156 L S
374 156 M 374 156 L S
374 156 M 374 156 L S
374 156 M 374 156 L S
374 156 M 374 156 L S
375 156 M 375 156 L S
375 156 M 375 156 L S
375 156 M 375 156 L S
375 156 M 375 156 L S
375 156 M 375 156 L S
375 156 M 375 156 L S
376 156 M 376 156 L S
376 156 M 376 156 L S
376 156 M 376 156 L S
376 156 M 376 156 L S
377 156 M 377 156 L S
377 156 M 377 156 L S
377 156 M 377 156 L S
377 156 M 377 156 L S
378 156 M 378 156 L S
378 156 M 378 156 L S
378 156 M 378 156 L S
378 156 M 378 156 L S
378 156 M 378 156 L S
378 156 M 378 156 L S
379 156 M 379 156 L S
379 156 M 379 156 L S
379 156 M 379 156 L S
379 156 M 379 156 L S
380 156 M 380 156 L S
380 156 M 380 156 L S
380 156 M 380 156 L S
380 156 M 380 156 L S
381 156 M 381 156 L S
381 156 M 381 156 L S
381 156 M 381 156 L S
381 156 M 381 156 L S
381 156 M 381 156 L S
381 156 M 381 156 L S
382 156 M 382 156 L S
382 156 M 382 156 L S
382 156 M 382 156 L S
382 156 M 382 156 L S
383 156 M 383 156 L S
383 156 M 383 156 L S
383 156 M 383 156 L S
383 156 M 383 156 L S
384 156 M 384 156 L S
384 156 M 384 156 L S
384 156 M 384 156 L S
384 156 M 384 156 L S
385 156 M 385 156 L S
385 156 M 385 156 L S
385 156 M 385 156 L S
385 156 M 385 156 L S
385 156 M 385 156 L S
385 156 M 385 156 L S
386 156 M 386 156 L S
386 156 M 386 156 L S
386 156 M 386 156 L S
386 156 M 386 156 L S
387 156 M 387 156 L S
387 156 M 387 156 L S
387 156 M 387 156 L S
387 156 M 387 156 L S
388 156 M 388 156 L S
388 156 M 388 156 L S
388 156 M 388 156 L S
388 156 M 388 156 L S
388 156 M 388 156 L S
388 156 M 388 156 L S
389 156 M 389 156 L S
389 156 M 389 156 L S
389 156 M 389 156 L S
389 156 M 389 156 L S
390 156 M 390 156 L S
390 156 M 390 156 L S
390 156 M 390 156 L S
390 156 M 390 156 L S
391 156 M 391 156 L S
391 156 M 391 156 L S
391 156 M 391 156 L S
391 156 M 391 156 L S
391 156 M 391 156 L S
391 156 M 391 156 L S
392 156 M 392 156 L S
392 156 M 392 156 L S
392 156 M 392 156 L S
392 156 M 392 156 L S
393 156 M 393 156 L S
393 156 M 393 156 L S
393 156 M 393 156 L S
393 156 M 393 156 L S
394 156 M 394 156 L S
394 156 M 394 156 L S
394 156 M 394 156 L S
394 156 M 394 156 L S
395 156 M 395 156 L S
395 156 M 395 156 L S
395 156 M 395 156 L S
395 156 M 395 156 L S
395 156 M 395 156 L S
395 156 M 395 156 L S
396 156 M 396 156 L S
396 156 M 396 156 L S
396 156 M 396 156 L S
396 156 M 396 156 L S
397 156 M 397 156 L S
397 156 M 397 156 L S
397 156 M 397 156 L S
397 156 M 397 156 L S
398 156 M 398 156 L S
398 156 M 398 156 L S
398 156 M 398 156 L S
398 156 M 398 156 L S
398 156 M 398 156 L S
398 156 M 398 156 L S
399 156 M 399 156 L S
399 156 M 399 156 L S
399 156 M 399 156 L S
399 156 M 399 156 L S
400 156 M 400 156 L S
400 156 M 400 156 L S
400 156 M 400 156 L S
400 156 M 400 156 L S
401 156 M 401 156 L S
401 156 M 401 156 L S
401 156 M 401 156 L S
401 156 M 401 156 L S
401 156 M 401 156 L S
401 156 M 401 156 L S
402 156 M 402 156 L S
402 156 M 402 156 L S
402 156 M 402 156 L S
402 156 M 402 156 L S
403 156 M 403 156 L S
403 156 M 403 156 L S
403 156 M 403 156 L S
403 156 M 403 156 L S
404 156 M 404 156 L S
404 156 M 404 156 L S
404 156 M 404 156 L S
404 156 M 404 156 L S
405 156 M 405 156 L S
405 156 M 405 156 L S
405 156 M 405 156 L S
405 156 M 405 156 L S
405 156 M 405 156 L S
405 156 M 405 156 L S
406 156 M 406 156 L S
406 156 M 406 156 L S
406 156 M 406 156 L S
406 156 M 406 156 L S
407 156 M 407 156 L S
407 156 M 407 156 L S
407 156 M 407 156 L S
407 156 M 407 156 L S
408 156 M 408 156 L S
408 156 M 408 156 L S
408 156 M 408 156 L S
408 156 M 408 156 L S
408 156 M 408 156 L S
408 156 M 408 156 L S
409 156 M 409 156 L S
409 156 M 409 156 L S
409 156 M 409 156 L S
409 156 M 409 156 L S
410 156 M 410 156 L S
410 156 M 410 156 L S
410 156 M 410 156 L S
410 156 M 410 156 L S
411 156 M 411 156 L S
411 156 M 411 156 L S
411 156 M 411 156 L S
411 156 M 411 156 L S
412 156 M 412 156 L S
412 156 M 412 156 L S
412 156 M 412 156 L S
412 156 M 412 156 L S
412 156 M 412 156 L S
412 156 M 412 156 L S
413 156 M 413 156 L S
413 156 M 413 156 L S
413 156 M 413 156 L S
413 156 M 413 156 L S
414 156 M 414 156 L S
414 156 M 414 156 L S
414 156 M 414 156 L S
414 156 M 414 156 L S
415 156 M 415 156 L S
415 156 M 415 156 L S
415 156 M 415 156 L S
415 156 M 415 156 L S
415 156 M 415 156 L S
415 156 M 415 156 L S
416 156 M 416 156 L S
416 156 M 416 156 L S
416 156 M 416 156 L S
416 156 M 416 156 L S
417 156 M 417 156 L S
417 156 M 417 156 L S
417 156 M 417 156 L S
417 156 M 417 156 L S
418 156 M 418 156 L S
418 156 M 418 156 L S
418 156 M 418 156 L S
418 156 M 418 156 L S
418 156 M 418 156 L S
418 156 M 418 156 L S
419 156 M 419 156 L S
419 156 M 419 156 L S
419 156 M 419 156 L S
419 156 M 419 156 L S
420 156 M 420 156 L S
420 156 M 420 156 L S
420 156 M 420 156 L S
420 156 M 420 156 L S
421 156 M 421 156 L S
421 156 M 421 156 L S
421 156 M 421 156 L S
421 156 M 421 156 L S
422 156 M 422 156 L S
422 156 M 422 156 L S
422 156 M 422 156 L S
422 156 M 422 156 L S
422 156 M 422 156 L S
422 156 M 422 156 L S
423 156 M 423 156 L S
423 156 M 423 156 L S
423 156 M 423 156 L S
423 156 M 423 156 L S
424 156 M 424 156 L S
424 156 M 424 156 L S
424 156 M 424 156 L S
424 156 M 424 156 L S
425 156 M 425 156 L S
425 156 M 425 156 L S
425 156 M 425 156 L S
425 156 M 425 156 L S
425 156 M 425 156 L S
425 156 M 425 156 L S
426 156 M 426 156 L S
426 156 M 426 156 L S
426 156 M 426 156 L S
426 156 M 426 156 L S
427 156 M 427 156 L S
427 156 M 427 156 L S
427 156 M 427 156 L S
427 156 M 427 156 L S
428 156 M 428 156 L S
428 156 M 428 156 L S
428 156 M 428 156 L S
428 156 M 428 156 L S
428 156 M 428 156 L S
428 156 M 428 156 L S
429 156 M 429 156 L S
429 156 M 429 156 L S
429 156 M 429 156 L S
429 156 M 429 156 L S
430 156 M 430 156 L S
430 156 M 430 156 L S
430 156 M 430 156 L S
430 156 M 430 156 L S
431 156 M 431 156 L S
431 156 M 431 156 L S
431 156 M 431 156 L S
431 156 M 431 156 L S
432 156 M 432 156 L S
432 156 M 432 156 L S
432 156 M 432 156 L S
432 156 M 432 156 L S
432 156 M 432 156 L S
432 156 M 432 156 L S
433 156 M 433 156 L S
433 156 M 433 156 L S
433 156 M 433 156 L S
433 156 M 433 156 L S
434 156 M 434 156 L S
434 156 M 434 156 L S
434 156 M 434 156 L S
434 156 M 434 156 L S
435 156 M 435 156 L S
435 156 M 435 156 L S
435 156 M 435 156 L S
435 156 M 435 156 L S
435 156 M 435 156 L S
435 156 M 435 156 L S
436 156 M 436 156 L S
436 156 M 436 156 L S
436 156 M 436 156 L S
436 156 M 436 156 L S
437 156 M 437 156 L S
437 156 M 437 156 L S
437 156 M 437 156 L S
437 156 M 437 156 L S
438 156 M 438 156 L S
438 156 M 438 156 L S
438 156 M 438 156 L S
438 156 M 438 156 L S
438 156 M 438 156 L S
438 156 M 438 156 L S
439 156 M 439 156 L S
439 156 M 439 156 L S
439 156 M 439 156 L S
439 156 M 439 156 L S
440 156 M 440 156 L S
440 156 M 440 156 L S
440 156 M 440 156 L S
440 156 M 440 156 L S
441 156 M 441 156 L S
441 156 M 441 156 L S
441 156 M 441 156 L S
441 156 M 441 156 L S
442 156 M 442 156 L S
442 156 M 442 156 L S
442 156 M 442 156 L S
442 156 M 442 156 L S
442 156 M 442 156 L S
442 156 M 442 156 L S
443 156 M 443 156 L S
443 156 M 443 156 L S
443 156 M 443 156 L S
443 156 M 443 156 L S
444 156 M 444 156 L S
444 156 M 444 156 L S
444 156 M 444 156 L S
444 156 M 444 156 L S
445 156 M 445 156 L S
445 156 M 445 156 L S
445 156 M 445 156 L S
445 156 M 445 156 L S
445 156 M 445 156 L S
445 156 M 445 156 L S
446 156 M 446 156 L S
446 156 M 446 156 L S
446 156 M 446 156 L S
446 156 M 446 156 L S
447 156 M 447 156 L S
447 156 M 447 156 L S
447 156 M 447 156 L S
447 156 M 447 156 L S
448 156 M 448 156 L S
448 156 M 448 156 L S
448 156 M 448 156 L S
448 156 M 448 156 L S
448 156 M 448 156 L S
448 156 M 448 156 L S
449 156 M 449 156 L S
449 156 M 449 156 L S
449 156 M 449 156 L S
449 156 M 449 156 L S
450 156 M 450 156 L S
450 156 M 450 156 L S
450 156 M 450 156 L S
450 156 M 450 156 L S
451 156 M 451 156 L S
451 156 M 451 156 L S
451 156 M 451 156 L S
451 156 M 451 156 L S
452 156 M 452 156 L S
452 156 M 452 156 L S
452 156 M 452 156 L S
452 156 M 452 156 L S
452 156 M 452 156 L S
452 156 M 452 156 L S
453 156 M 453 156 L S
453 156 M 453 156 L S
453 156 M 453 156 L S
453 156 M 453 156 L S
454 156 M 454 156 L S
454 156 M 454 156 L S
454 156 M 454 156 L S
454 156 M 454 156 L S
455 156 M 455 156 L S
455 156 M 455 156 L S
455 156 M 455 156 L S
455 156 M 455 156 L S
455 156 M 455 156 L S
455 156 M 455 156 L S
456 156 M 456 156 L S
456 156 M 456 156 L S
456 156 M 456 156 L S
456 156 M 456 156 L S
457 156 M 457 156 L S
457 156 M 457 156 L S
457 156 M 457 156 L S
457 156 M 457 156 L S
458 156 M 458 156 L S
458 156 M 458 156 L S
458 156 M 458 156 L S
458 156 M 458 156 L S
458 156 M 458 156 L S
458 156 M 458 156 L S
459 156 M 459 156 L S
459 156 M 459 156 L S
459 156 M 459 156 L S
459 156 M 459 156 L S
460 156 M 460 156 L S
460 156 M 460 156 L S
460 156 M 460 156 L S
460 156 M 460 156 L S
461 156 M 461 156 L S
461 156 M 461 156 L S
461 156 M 461 156 L S
461 156 M 461 156 L S
462 156 M 462 156 L S
462 156 M 462 156 L S
462 156 M 462 156 L S
462 156 M 462 156 L S
462 156 M 462 156 L S
462 156 M 462 156 L S
463 156 M 463 156 L S
463 156 M 463 156 L S
463 156 M 463 156 L S
463 156 M 463 156 L S
464 156 M 464 156 L S
464 156 M 464 156 L S
464 156 M 464 156 L S
464 156 M 464 156 L S
465 156 M 465 156 L S
465 156 M 465 156 L S
465 156 M 465 156 L S
465 156 M 465 156 L S
465 156 M 465 156 L S
465 156 M 465 156 L S
466 156 M 466 156 L S
466 156 M 466 156 L S
466 156 M 466 156 L S
466 156 M 466 156 L S
467 156 M 467 156 L S
467 156 M 467 156 L S
467 156 M 467 156 L S
467 156 M 467 156 L S
468 156 M 468 156 L S
468 156 M 468 156 L S
468 156 M 468 156 L S
468 156 M 468 156 L S
468 156 M 468 156 L S
468 156 M 468 156 L S
469 156 M 469 156 L S
469 156 M 469 156 L S
469 156 M 469 156 L S
469 156 M 469 156 L S
470 156 M 470 156 L S
470 156 M 470 156 L S
470 156 M 470 156 L S
470 156 M 470 156 L S
471 156 M 471 156 L S
471 156 M 471 156 L S
471 156 M 471 156 L S
471 156 M 471 156 L S
472 156 M 472 156 L S
472 156 M 472 156 L S
472 156 M 472 156 L S
472 156 M 472 156 L S
472 156 M 472 156 L S
472 156 M 472 156 L S
473 156 M 473 156 L S
473 156 M 473 156 L S
473 156 M 473 156 L S
473 156 M 473 156 L S
474 156 M 474 156 L S
474 156 M 474 156 L S
474 156 M 474 156 L S
474 156 M 474 156 L S
475 156 M 475 156 L S
475 156 M 475 156 L S
475 156 M 475 156 L S
475 156 M 475 156 L S
475 156 M 475 156 L S
475 156 M 475 156 L S
476 156 M 476 156 L S
476 156 M 476 156 L S
476 156 M 476 156 L S
476 156 M 476 156 L S
477 156 M 477 156 L S
477 156 M 477 156 L S
477 156 M 477 156 L S
477 156 M 477 156 L S
478 156 M 478 156 L S
478 156 M 478 156 L S
478 156 M 478 156 L S
478 156 M 478 156 L S
478 156 M 478 156 L S
478 156 M 478 156 L S
479 156 M 479 156 L S
479 156 M 479 156 L S
479 156 M 479 156 L S
479 156 M 479 156 L S
480 156 M 480 156 L S
480 156 M 480 156 L S
480 156 M 480 156 L S
480 156 M 480 156 L S
481 156 M 481 156 L S
481 156 M 481 156 L S
481 156 M 481 156 L S
481 156 M 481 156 L S
482 156 M 482 156 L S
482 156 M 482 156 L S
482 156 M 482 156 L S
482 156 M 482 156 L S
482 156 M 482 156 L S
482 156 M 482 156 L S
483 156 M 483 156 L S
483 156 M 483 156 L S
483 156 M 483 156 L S
483 156 M 483 156 L S
484 156 M 484 156 L S
484 156 M 484 156 L S
484 156 M 484 156 L S
484 156 M 484 156 L S
485 156 M 485 156 L S
485 156 M 485 156 L S
485 156 M 485 156 L S
485 156 M 485 156 L S
485 156 M 485 156 L S
485 156 M 485 156 L S
486 156 M 486 156 L S
486 156 M 486 156 L S
486 156 M 486 156 L S
486 156 M 486 156 L S
487 156 M 487 156 L S
487 156 M 487 156 L S
487 156 M 487 156 L S
487 156 M 487 156 L S
488 156 M 488 156 L S
488 156 M 488 156 L S
488 156 M 488 156 L S
488 156 M 488 156 L S
488 156 M 488 156 L S
488 156 M 488 156 L S
489 156 M 489 156 L S
489 156 M 489 156 L S
489 156 M 489 156 L S
489 156 M 489 156 L S
490 156 M 490 156 L S
490 156 M 490 156 L S
490 156 M 490 156 L S
490 156 M 490 156 L S
491 156 M 491 156 L S
491 156 M 491 156 L S
491 156 M 491 156 L S
491 156 M 491 156 L S
492 156 M 492 156 L S
492 156 M 492 156 L S
492 156 M 492 156 L S
492 156 M 492 156 L S
492 156 M 492 156 L S
492 156 M 492 156 L S
493 156 M 493 156 L S
493 156 M 493 156 L S
493 156 M 493 156 L S
493 156 M 493 156 L S
494 156 M 494 156 L S
494 156 M 494 156 L S
494 156 M 494 156 L S
494 156 M 494 156 L S
495 156 M 495 156 L S
495 156 M 495 156 L S
495 156 M 495 156 L S
495 156 M 495 156 L S
495 156 M 495 156 L S
495 156 M 495 156 L S
496 156 M 496 156 L S
496 156 M 496 156 L S
496 156 M 496 156 L S
496 156 M 496 156 L S
497 156 M 497 156 L S
497 156 M 497 156 L S
497 156 M 497 156 L S
497 156 M 497 156 L S
498 156 M 498 156 L S
498 156 M 498 156 L S
498 156 M 498 156 L S
498 156 M 498 156 L S
499 156 M 499 156 L S
499 156 M 499 156 L S
499 156 M 499 156 L S
499 156 M 499 156 L S
499 156 M 499 156 L S
499 156 M 499 156 L S
500 156 M 500 156 L S
500 156 M 500 156 L S
500 156 M 500 156 L S
500 156 M 500 156 L S
501 156 M 501 156 L S
501 156 M 501 156 L S
501 156 M 501 156 L S
501 156 M 501 156 L S
502 156 M 502 156 L S
502 156 M 502 156 L S
502 156 M 502 156 L S
502 156 M 502 156 L S
502 156 M 502 156 L S
502 156 M 502 156 L S
503 156 M 503 156 L S
503 156 M 503 156 L S
503 156 M 503 156 L S
503 156 M 503 156 L S
504 156 M 504 156 L S
504 156 M 504 156 L S
504 156 M 504 156 L S
504 156 M 504 156 L S
505 156 M 505 156 L S
505 156 M 505 156 L S
505 156 M 505 156 L S
505 156 M 505 156 L S
505 156 M 505 156 L S
505 156 M 505 156 L S
506 156 M 506 156 L S
506 156 M 506 156 L S
506 156 M 506 156 L S
506 156 M 506 156 L S
507 156 M 507 156 L S
507 156 M 507 156 L S
507 156 M 507 156 L S
507 156 M 507 156 L S
508 156 M 508 156 L S
508 156 M 508 156 L S
508 156 M 508 156 L S
508 156 M 508 156 L S
509 156 M 509 156 L S
509 156 M 509 156 L S
509 156 M 509 156 L S
509 156 M 509 156 L S
509 156 M 509 156 L S
509 156 M 509 156 L S
510 156 M 510 156 L S
510 156 M 510 156 L S
510 156 M 510 156 L S
510 156 M 510 156 L S
511 156 M 511 156 L S
511 156 M 511 156 L S
511 156 M 511 156 L S
511 156 M 511 156 L S
512 156 M 512 156 L S
512 156 M 512 156 L S
512 156 M 512 156 L S
512 156 M 512 156 L S
512 156 M 512 156 L S
512 156 M 512 156 L S
513 156 M 513 156 L S
513 156 M 513 156 L S
513 156 M 513 156 L S
513 156 M 513 156 L S
514 156 M 514 156 L S
514 156 M 514 156 L S
514 156 M 514 156 L S
514 156 M 514 156 L S
515 156 M 515 156 L S
515 156 M 515 156 L S
515 156 M 515 156 L S
515 156 M 515 157 L S
515 156 M 515 156 L S
515 156 M 515 158 L S
516 156 M 516 156 L S
516 156 M 516 182 L S
516 156 M 516 156 L S
516 156 M 516 185 L S
517 156 M 517 156 L S
517 156 M 517 160 L S
517 156 M 517 156 L S
517 156 M 517 157 L S
518 156 M 518 156 L S
518 156 M 518 157 L S
518 156 M 518 156 L S
518 156 M 518 156 L S
519 156 M 519 156 L S
519 156 M 519 156 L S
519 156 M 519 156 L S
519 156 M 519 156 L S
519 156 M 519 156 L S
519 156 M 519 156 L S
520 156 M 520 156 L S
520 156 M 520 156 L S
520 156 M 520 156 L S
520 156 M 520 156 L S
521 156 M 521 156 L S
521 156 M 521 156 L S
521 156 M 521 156 L S
521 156 M 521 156 L S
522 156 M 522 156 L S
522 156 M 522 156 L S
522 156 M 522 156 L S
522 156 M 522 156 L S
522 156 M 522 156 L S
522 156 M 522 156 L S
523 156 M 523 156 L S
523 156 M 523 156 L S
523 156 M 523 156 L S
523 156 M 523 156 L S
524 156 M 524 156 L S
524 156 M 524 156 L S
524 156 M 524 156 L S
524 156 M 524 156 L S
525 156 M 525 156 L S
525 156 M 525 156 L S
525 156 M 525 156 L S
525 156 M 525 156 L S
525 156 M 525 156 L S
525 156 M 525 156 L S
526 156 M 526 156 L S
526 156 M 526 156 L S
526 156 M 526 156 L S
526 156 M 526 156 L S
527 156 M 527 156 L S
527 156 M 527 156 L S
527 156 M 527 156 L S
527 156 M 527 156 L S
528 156 M 528 156 L S
528 156 M 528 156 L S
528 156 M 528 156 L S
528 156 M 528 156 L S
529 156 M 529 156 L S
529 156 M 529 156 L S
529 156 M 529 156 L S
529 156 M 529 156 L S
529 156 M 529 156 L S
529 156 M 529 156 L S
530 156 M 530 156 L S
530 156 M 530 156 L S
530 156 M 530 156 L S
530 156 M 530 156 L S
531 156 M 531 156 L S
531 156 M 531 156 L S
531 156 M 531 156 L S
531 156 M 531 156 L S
532 156 M 532 156 L S
532 156 M 532 156 L S
532 156 M 532 156 L S
532 156 M 532 156 L S
532 156 M 532 156 L S
532 156 M 532 156 L S
533 156 M 533 156 L S
533 156 M 533 156 L S
533 156 M 533 156 L S
533 156 M 533 156 L S
534 156 M 534 156 L S
534 156 M 534 156 L S
534 156 M 534 156 L S
534 156 M 534 156 L S
535 156 M 535 156 L S
535 156 M 535 156 L S
535 156 M 535 156 L S
535 156 M 535 156 L S
535 156 M 535 156 L S
535 156 M 535 156 L S
536 156 M 536 156 L S
536 156 M 536 156 L S
536 156 M 536 156 L S
536 156 M 536 156 L S
537 156 M 537 156 L S
537 156 M 537 156 L S
537 156 M 537 156 L S
537 156 M 537 156 L S
538 156 M 538 156 L S
538 156 M 538 156 L S
538 156 M 538 156 L S
538 156 M 538 156 L S
539 156 M 539 156 L S
539 156 M 539 156 L S
539 156 M 539 156 L S
539 156 M 539 156 L S
539 156 M 539 156 L S
539 156 M 539 156 L S
540 156 M 540 156 L S
540 156 M 540 156 L S
540 156 M 540 156 L S
540 156 M 540 156 L S
541 156 M 541 156 L S
541 156 M 541 156 L S
541 156 M 541 156 L S
541 156 M 541 156 L S
542 156 M 542 156 L S
542 156 M 542 156 L S
542 156 M 542 156 L S
542 156 M 542 156 L S
542 156 M 542 156 L S
542 156 M 542 156 L S
543 156 M 543 156 L S
543 156 M 543 156 L S
543 156 M 543 156 L S
543 156 M 543 156 L S
544 156 M 544 156 L S
544 156 M 544 156 L S
544 156 M 544 156 L S
544 156 M 544 156 L S
545 156 M 545 156 L S
545 156 M 545 156 L S
545 156 M 545 156 L S
545 156 M 545 156 L S
545 156 M 545 156 L S
545 156 M 545 156 L S
546 156 M 546 156 L S
546 156 M 546 156 L S
546 156 M 546 156 L S
546 156 M 546 156 L S
547 156 M 547 156 L S
547 156 M 547 156 L S
547 156 M 547 156 L S
547 156 M 547 156 L S
548 156 M 548 156 L S
548 156 M 548 156 L S
548 156 M 548 156 L S
548 156 M 548 156 L S
549 156 M 549 156 L S
549 156 M 549 156 L S
549 156 M 549 156 L S
549 156 M 549 156 L S
549 156 M 549 156 L S
549 156 M 549 156 L S
550 156 M 550 156 L S
550 156 M 550 156 L S
550 156 M 550 156 L S
550 156 M 550 156 L S
551 156 M 551 156 L S
551 156 M 551 156 L S
551 156 M 551 156 L S
551 156 M 551 156 L S
552 156 M 552 156 L S
552 156 M 552 156 L S
552 156 M 552 156 L S
552 156 M 552 156 L S
552 156 M 552 156 L S
552 156 M 552 156 L S
553 156 M 553 156 L S
553 156 M 553 156 L S
553 156 M 553 156 L S
553 156 M 553 156 L S
554 156 M 554 156 L S
554 156 M 554 156 L S
554 156 M 554 156 L S
554 156 M 554 156 L S
555 156 M 555 156 L S
555 156 M 555 156 L S
555 156 M 555 156 L S
555 156 M 555 156 L S
555 156 M 555 156 L S
555 156 M 555 156 L S
556 156 M 556 156 L S
556 156 M 556 156 L S
556 156 M 556 156 L S
556 156 M 556 156 L S
557 156 M 557 156 L S
557 156 M 557 156 L S
557 156 M 557 156 L S
557 156 M 557 156 L S
558 156 M 558 156 L S
558 156 M 558 156 L S
558 156 M 558 156 L S
558 156 M 558 156 L S
559 156 M 559 156 L S
559 156 M 559 156 L S
559 156 M 559 156 L S
559 156 M 559 156 L S
559 156 M 559 156 L S
559 156 M 559 156 L S
560 156 M 560 156 L S
560 156 M 560 156 L S
560 156 M 560 156 L S
560 156 M 560 156 L S
561 156 M 561 156 L S
561 156 M 561 156 L S
561 156 M 561 156 L S
561 156 M 561 156 L S
562 156 M 562 156 L S
562 156 M 562 156 L S
562 156 M 562 156 L S
562 156 M 562 156 L S
562 156 M 562 156 L S
562 156 M 562 156 L S
563 156 M 563 156 L S
563 156 M 563 156 L S
563 156 M 563 156 L S
563 156 M 563 156 L S
564 156 M 564 156 L S
564 156 M 564 156 L S
564 156 M 564 156 L S
564 156 M 564 156 L S
565 156 M 565 156 L S
565 156 M 565 156 L S
565 156 M 565 156 L S
565 156 M 565 156 L S
565 156 M 565 156 L S
565 156 M 565 156 L S
566 156 M 566 156 L S
566 156 M 566 156 L S
566 156 M 566 156 L S
566 156 M 566 156 L S
567 156 M 567 156 L S
567 156 M 567 156 L S
567 156 M 567 156 L S
567 156 M 567 156 L S
568 156 M 568 156 L S
568 156 M 568 156 L S
568 156 M 568 156 L S
568 156 M 568 156 L S
569 156 M 569 156 L S
569 156 M 569 156 L S
569 156 M 569 156 L S
569 156 M 569 156 L S
569 156 M 569 156 L S
569 156 M 569 156 L S
570 156 M 570 156 L S
570 156 M 570 156 L S
570 156 M 570 156 L S
570 156 M 570 156 L S
571 156 M 571 156 L S
571 156 M 571 156 L S
571 156 M 571 156 L S
571 156 M 571 156 L S
572 156 M 572 156 L S
572 156 M 572 156 L S
572 156 M 572 156 L S
572 156 M 572 156 L S
572 156 M 572 156 L S
572 156 M 572 156 L S
573 156 M 573 156 L S
573 156 M 573 156 L S
573 156 M 573 156 L S
573 156 M 573 156 L S
574 156 M 574 156 L S
574 156 M 574 156 L S
574 156 M 574 156 L S
574 156 M 574 156 L S
575 156 M 575 156 L S
575 156 M 575 156 L S
575 156 M 575 156 L S
575 156 M 575 156 L S
575 156 M 575 156 L S
575 156 M 575 156 L S
576 156 M 576 156 L S
576 156 M 576 156 L S
576 156 M 576 156 L S
576 156 M 576 156 L S
577 156 M 577 156 L S
577 156 M 577 156 L S
577 156 M 577 156 L S
577 156 M 577 156 L S
578 156 M 578 156 L S
578 156 M 578 156 L S
578 156 M 578 156 L S
578 156 M 578 156 L S
579 156 M 579 156 L S
579 156 M 579 156 L S
579 156 M 579 156 L S
579 156 M 579 156 L S
579 156 M 579 156 L S
579 156 M 579 156 L S
580 156 M 580 156 L S
580 156 M 580 156 L S
580 156 M 580 156 L S
580 156 M 580 156 L S
581 156 M 581 156 L S
581 156 M 581 156 L S
581 156 M 581 156 L S
581 156 M 581 156 L S
582 156 M 582 156 L S
582 156 M 582 156 L S
582 156 M 582 156 L S
582 156 M 582 156 L S
582 156 M 582 156 L S
582 156 M 582 156 L S
583 156 M 583 156 L S
583 156 M 583 156 L S
583 156 M 583 156 L S
583 156 M 583 156 L S
584 156 M 584 156 L S
584 156 M 584 156 L S
584 156 M 584 156 L S
584 156 M 584 156 L S
585 156 M 585 156 L S
585 156 M 585 156 L S
585 156 M 585 156 L S
585 156 M 585 156 L S
586 156 M 586 156 L S
586 156 M 586 156 L S
586 156 M 586 156 L S
586 156 M 586 156 L S
586 156 M 586 156 L S
586 156 M 586 156 L S
587 156 M 587 156 L S
587 156 M 587 156 L S
587 156 M 587 156 L S
587 156 M 587 156 L S
588 156 M 588 156 L S
588 156 M 588 156 L S
588 156 M 588 156 L S
588 156 M 588 156 L S
589 156 M 589 156 L S
589 156 M 589 156 L S
589 156 M 589 156 L S
589 156 M 589 156 L S
589 156 M 589 156 L S
589 156 M 589 156 L S
590 156 M 590 156 L S
590 156 M 590 156 L S
590 156 M 590 156 L S
590 156 M 590 156 L S
591 156 M 591 156 L S
591 156 M 591 156 L S
591 156 M 591 156 L S
591 156 M 591 156 L S
592 156 M 592 156 L S
592 156 M 592 156 L S
592 156 M 592 156 L S
592 156 M 592 156 L S
592 156 M 592 156 L S
592 156 M 592 156 L S
593 156 M 593 156 L S
593 156 M 593 156 L S
593 156 M 593 156 L S
593 156 M 593 156 L S
594 156 M 594 156 L S
594 156 M 594 156 L S
594 156 M 594 156 L S
594 156 M 594 156 L S
595 156 M 595 156 L S
595 156 M 595 156 L S
595 156 M 595 156 L S
595 156 M 595 156 L S
596 156 M 596 156 L S
596 156 M 596 156 L S
596 156 M 596 156 L S
596 156 M 596 156 L S
596 156 M 596 156 L S
596 156 M 596 156 L S
597 156 M 597 156 L S
597 156 M 597 156 L S
597 156 M 597 156 L S
597 156 M 597 156 L S
598 156 M 598 156 L S
598 156 M 598 156 L S
598 156 M 598 156 L S
598 156 M 598 156 L S
599 156 M 599 156 L S
599 156 M 599 156 L S
599 156 M 599 156 L S
599 156 M 599 156 L S
599 156 M 599 156 L S
599 156 M 599 156 L S
600 156 M 600 156 L S
600 156 M 600 156 L S
600 156 M 600 156 L S
600 156 M 600 156 L S
601 156 M 601 156 L S
601 156 M 601 156 L S
601 156 M 601 156 L S
601 156 M 601 156 L S
602 156 M 602 156 L S
602 156 M 602 156 L S
602 156 M 602 156 L S
602 156 M 602 156 L S
602 156 M 602 156 L S
602 156 M 602 156 L S
603 156 M 603 156 L S
603 156 M 603 156 L S
603 156 M 603 156 L S
603 156 M 603 156 L S
604 156 M 604 156 L S
604 156 M 604 156 L S
604 156 M 604 156 L S
604 156 M 604 156 L S
605 156 M 605 156 L S
605 156 M 605 156 L S
605 156 M 605 156 L S
605 156 M 605 156 L S
606 156 M 606 156 L S
606 156 M 606 156 L S
606 156 M 606 156 L S
606 156 M 606 156 L S
606 156 M 606 156 L S
606 156 M 606 156 L S
607 156 M 607 156 L S
607 156 M 607 156 L S
607 156 M 607 156 L S
607 156 M 607 156 L S
608 156 M 608 156 L S
608 156 M 608 156 L S
608 156 M 608 156 L S
608 156 M 608 156 L S
609 156 M 609 156 L S
609 156 M 609 156 L S
609 156 M 609 156 L S
609 156 M 609 156 L S
609 156 M 609 156 L S
609 156 M 609 156 L S
610 156 M 610 156 L S
610 156 M 610 156 L S
610 156 M 610 156 L S
610 156 M 610 156 L S
611 156 M 611 156 L S
611 156 M 611 156 L S
611 156 M 611 156 L S
611 156 M 611 156 L S
612 156 M 612 156 L S
612 156 M 612 156 L S
612 156 M 612 156 L S
612 156 M 612 156 L S
612 156 M 612 156 L S
612 156 M 612 156 L S
613 156 M 613 156 L S
613 156 M 613 156 L S
613 156 M 613 156 L S
613 156 M 613 156 L S
614 156 M 614 156 L S
614 156 M 614 156 L S
614 156 M 614 156 L S
614 156 M 614 156 L S
615 156 M 615 156 L S
615 156 M 615 156 L S
615 156 M 615 156 L S
615 156 M 615 156 L S
616 156 M 616 156 L S
616 156 M 616 156 L S
616 156 M 616 156 L S
616 156 M 616 156 L S
616 156 M 616 156 L S
616 156 M 616 156 L S
617 156 M 617 156 L S
617 156 M 617 156 L S
617 156 M 617 156 L S
617 156 M 617 156 L S
618 156 M 618 156 L S
618 156 M 618 156 L S
618 156 M 618 156 L S
618 156 M 618 156 L S
619 156 M 619 156 L S
619 156 M 619 156 L S
619 156 M 619 156 L S
619 156 M 619 156 L S
619 156 M 619 156 L S
619 156 M 619 156 L S
620 156 M 620 156 L S
620 156 M 620 156 L S
620 156 M 620 156 L S
620 156 M 620 156 L S
621 156 M 621 156 L S
621 156 M 621 156 L S
621 156 M 621 156 L S
621 156 M 621 156 L S
622 156 M 622 156 L S
622 156 M 622 156 L S
622 156 M 622 156 L S
622 156 M 622 156 L S
622 156 M 622 156 L S
622 156 M 622 156 L S
623 156 M 623 156 L S
623 156 M 623 156 L S
623 156 M 623 156 L S
623 156 M 623 156 L S
624 156 M 624 156 L S
624 156 M 624 156 L S
624 156 M 624 156 L S
624 156 M 624 156 L S
625 156 M 625 156 L S
625 156 M 625 156 L S
625 156 M 625 156 L S
625 156 M 625 156 L S
626 156 M 626 156 L S
626 156 M 626 156 L S
626 156 M 626 156 L S
626 156 M 626 156 L S
626 156 M 626 156 L S
626 156 M 626 156 L S
627 156 M 627 156 L S
627 156 M 627 156 L S
627 156 M 627 156 L S
627 156 M 627 156 L S
628 156 M 628 156 L S
628 156 M 628 156 L S
628 156 M 628 156 L S
628 156 M 628 156 L S
629 156 M 629 156 L S
629 156 M 629 156 L S
629 156 M 629 156 L S
629 156 M 629 156 L S
629 156 M 629 156 L S
629 156 M 629 156 L S
630 156 M 630 156 L S
630 156 M 630 156 L S
630 156 M 630 156 L S
630 156 M 630 156 L S
631 156 M 631 156 L S
631 156 M 631 156 L S
631 156 M 631 156 L S
631 156 M 631 156 L S
632 156 M 632 156 L S
632 156 M 632 156 L S
632 156 M 632 156 L S
632 156 M 632 156 L S
632 156 M 632 156 L S
632 156 M 632 156 L S
633 156 M 633 156 L S
633 156 M 633 156 L S
633 156 M 633 156 L S
633 156 M 633 156 L S
634 156 M 634 156 L S
634 156 M 634 156 L S
634 156 M 634 156 L S
634 156 M 634 156 L S
635 156 M 635 156 L S
635 156 M 635 156 L S
635 156 M 635 156 L S
635 156 M 635 156 L S
636 156 M 636 156 L S
636 156 M 636 156 L S
636 156 M 636 156 L S
636 156 M 636 156 L S
636 156 M 636 156 L S
636 156 M 636 156 L S
637 156 M 637 156 L S
637 156 M 637 156 L S
637 156 M 637 156 L S
637 156 M 637 156 L S
638 156 M 638 156 L S
638 156 M 638 156 L S
638 156 M 638 156 L S
638 156 M 638 156 L S
639 156 M 639 156 L S
639 156 M 639 156 L S
639 156 M 639 156 L S
639 156 M 639 156 L S
639 156 M 639 156 L S
639 156 M 639 156 L S
640 156 M 640 156 L S
640 156 M 640 156 L S
640 156 M 640 156 L S
640 156 M 640 156 L S
641 156 M 641 156 L S
641 156 M 641 156 L S
641 156 M 641 156 L S
641 156 M 641 156 L S
642 156 M 642 156 L S
642 156 M 642 156 L S
642 156 M 642 156 L S
642 156 M 642 156 L S
642 156 M 642 156 L S
642 156 M 642 156 L S
643 156 M 643 156 L S
643 156 M 643 156 L S
643 156 M 643 156 L S
643 156 M 643 156 L S
644 156 M 644 156 L S
644 156 M 644 156 L S
644 156 M 644 156 L S
644 156 M 644 156 L S
645 156 M 645 156 L S
645 156 M 645 156 L S
645 156 M 645 156 L S
645 156 M 645 156 L S
646 156 M 646 156 L S
646 156 M 646 156 L S
646 156 M 646 156 L S
646 156 M 646 156 L S
646 156 M 646 156 L S
646 156 M 646 156 L S
647 156 M 647 156 L S
647 156 M 647 156 L S
647 156 M 647 156 L S
647 156 M 647 156 L S
648 156 M 648 156 L S
648 156 M 648 156 L S
648 156 M 648 156 L S
648 156 M 648 156 L S
649 156 M 649 156 L S
649 156 M 649 156 L S
649 156 M 649 156 L S
649 156 M 649 156 L S
649 156 M 649 156 L S
649 156 M 649 156 L S
650 156 M 650 156 L S
650 156 M 650 156 L S
650 156 M 650 156 L S
650 156 M 650 156 L S
651 156 M 651 156 L S
651 156 M 651 156 L S
651 156 M 651 156 L S
651 156 M 651 156 L S
652 156 M 652 156 L S
652 156 M 652 156 L S
652 156 M 652 156 L S
652 156 M 652 156 L S
652 156 M 652 156 L S
652 156 M 652 156 L S
653 156 M 653 156 L S
653 156 M 653 156 L S
653 156 M 653 156 L S
653 156 M 653 156 L S
654 156 M 654 156 L S
654 156 M 654 156 L S
654 156 M 654 156 L S
654 156 M 654 156 L S
655 156 M 655 156 L S
655 156 M 655 156 L S
655 156 M 655 156 L S
655 156 M 655 156 L S
656 156 M 656 156 L S
656 156 M 656 156 L S
656 156 M 656 156 L S
656 156 M 656 156 L S
656 156 M 656 156 L S
656 156 M 656 156 L S
657 156 M 657 156 L S
657 156 M 657 156 L S
657 156 M 657 156 L S
657 156 M 657 156 L S
658 156 M 658 156 L S
658 156 M 658 156 L S
658 156 M 658 156 L S
658 156 M 658 156 L S
659 156 M 659 156 L S
659 156 M 659 156 L S
659 156 M 659 156 L S
659 156 M 659 156 L S
659 156 M 659 156 L S
659 156 M 659 156 L S
660 156 M 660 156 L S
660 156 M 660 156 L S
660 156 M 660 156 L S
660 156 M 660 156 L S
661 156 M 661 156 L S
661 156 M 661 156 L S
661 156 M 661 156 L S
661 156 M 661 156 L S
662 156 M 662 156 L S
662 156 M 662 156 L S
662 156 M 662 156 L S
662 156 M 662 156 L S
662 156 M 662 156 L S
662 156 M 662 156 L S
663 156 M 663 156 L S
663 156 M 663 156 L S
663 156 M 663 156 L S
663 156 M 663 156 L S
664 156 M 664 156 L S
664 156 M 664 156 L S
664 156 M 664 156 L S
664 156 M 664 156 L S
665 156 M 665 156 L S
665 156 M 665 156 L S
665 156 M 665 156 L S
665 156 M 665 156 L S
666 156 M 666 156 L S
666 156 M 666 156 L S
666 156 M 666 156 L S
666 156 M 666 156 L S
666 156 M 666 156 L S
666 156 M 666 156 L S
667 156 M 667 156 L S
667 156 M 667 156 L S
667 156 M 667 156 L S
667 156 M 667 156 L S
668 156 M 668 156 L S
668 156 M 668 156 L S
668 156 M 668 156 L S
668 156 M 668 156 L S
669 156 M 669 156 L S
669 156 M 669 156 L S
669 156 M 669 156 L S
669 156 M 669 156 L S
669 156 M 669 156 L S
669 156 M 669 156 L S
670 156 M 670 156 L S
670 156 M 670 157 L S
670 156 M 670 156 L S
670 156 M 670 157 L S
671 156 M 671 156 L S
671 156 M 671 156 L S
671 156 M 671 156 L S
671 156 M 671 156 L S
672 156 M 672 156 L S
672 156 M 672 156 L S
672 156 M 672 156 L S
672 156 M 672 156 L S
673 156 M 673 156 L S
673 156 M 673 156 L S
673 156 M 673 156 L S
673 156 M 673 156 L S
673 156 M 673 156 L S
673 156 M 673 156 L S
674 156 M 674 156 L S
674 156 M 674 156 L S
674 156 M 674 156 L S
674 156 M 674 156 L S
675 156 M 675 156 L S
675 156 M 675 156 L S
675 156 M 675 156 L S
675 156 M 675 156 L S
676 156 M 676 156 L S
676 156 M 676 156 L S
676 156 M 676 156 L S
676 156 M 676 156 L S
676 156 M 676 156 L S
676 156 M 676 156 L S
677 156 M 677 156 L S
677 156 M 677 156 L S
677 156 M 677 156 L S
677 156 M 677 156 L S
678 156 M 678 156 L S
678 156 M 678 156 L S
678 156 M 678 156 L S
678 156 M 678 156 L S
679 156 M 679 156 L S
679 156 M 679 156 L S
679 156 M 679 156 L S
679 156 M 679 156 L S
679 156 M 679 156 L S
679 156 M 679 156 L S
680 156 M 680 156 L S
680 156 M 680 156 L S
680 156 M 680 156 L S
680 156 M 680 156 L S
681 156 M 681 156 L S
681 156 M 681 156 L S
681 156 M 681 156 L S
681 156 M 681 156 L S
682 156 M 682 156 L S
682 156 M 682 156 L S
682 156 M 682 156 L S
682 156 M 682 156 L S
683 156 M 683 156 L S
683 156 M 683 156 L S
683 156 M 683 156 L S
683 156 M 683 156 L S
683 156 M 683 156 L S
683 156 M 683 156 L S
684 156 M 684 156 L S
684 156 M 684 156 L S
684 156 M 684 156 L S
684 156 M 684 156 L S
685 156 M 685 156 L S
685 156 M 685 156 L S
685 156 M 685 156 L S
685 156 M 685 156 L S
686 156 M 686 156 L S
686 156 M 686 156 L S
686 156 M 686 156 L S
686 156 M 686 156 L S
686 156 M 686 156 L S
686 156 M 686 156 L S
687 156 M 687 156 L S
687 156 M 687 156 L S
687 156 M 687 156 L S
687 156 M 687 156 L S
688 156 M 688 156 L S
688 156 M 688 156 L S
688 156 M 688 156 L S
688 156 M 688 156 L S
689 156 M 689 156 L S
689 156 M 689 156 L S
689 156 M 689 156 L S
689 156 M 689 156 L S
689 156 M 689 156 L S
689 156 M 689 156 L S
690 156 M 690 156 L S
690 156 M 690 156 L S
690 156 M 690 156 L S
690 156 M 690 156 L S
691 156 M 691 156 L S
691 156 M 691 156 L S
691 156 M 691 156 L S
691 156 M 691 156 L S
692 156 M 692 156 L S
692 156 M 692 156 L S
692 156 M 692 156 L S
692 156 M 692 156 L S
693 156 M 693 156 L S
693 156 M 693 156 L S
693 156 M 693 156 L S
693 156 M 693 156 L S
693 156 M 693 156 L S
693 156 M 693 156 L S
694 156 M 694 156 L S
694 156 M 694 156 L S
694 156 M 694 156 L S
694 156 M 694 156 L S
695 156 M 695 156 L S
695 156 M 695 156 L S
695 156 M 695 156 L S
695 156 M 695 156 L S
696 156 M 696 156 L S
696 156 M 696 156 L S
696 156 M 696 156 L S
696 156 M 696 156 L S
696 156 M 696 156 L S
696 156 M 696 156 L S
697 156 M 697 156 L S
697 156 M 697 156 L S
697 156 M 697 156 L S
697 156 M 697 156 L S
698 156 M 698 156 L S
698 156 M 698 156 L S
698 156 M 698 156 L S
698 156 M 698 156 L S
699 156 M 699 156 L S
699 156 M 699 156 L S
699 156 M 699 156 L S
699 156 M 699 156 L S
699 156 M 699 156 L S
699 156 M 699 156 L S
700 156 M 700 156 L S
700 156 M 700 156 L S
700 156 M 700 156 L S
700 156 M 700 156 L S
701 156 M 701 156 L S
701 156 M 701 156 L S
701 156 M 701 156 L S
701 156 M 701 156 L S
702 156 M 702 156 L S
702 156 M 702 156 L S
702 156 M 702 156 L S
702 156 M 702 156 L S
703 156 M 703 156 L S
703 156 M 703 156 L S
703 156 M 703 156 L S
703 156 M 703 156 L S
703 156 M 703 156 L S
703 156 M 703 156 L S
704 156 M 704 156 L S
704 156 M 704 156 L S
704 156 M 704 156 L S
704 156 M 704 156 L S
705 156 M 705 156 L S
705 156 M 705 156 L S
705 156 M 705 156 L S
705 156 M 705 156 L S
706 156 M 706 156 L S
706 156 M 706 156 L S
706 156 M 706 156 L S
706 156 M 706 156 L S
706 156 M 706 156 L S
706 156 M 706 156 L S
707 156 M 707 156 L S
707 156 M 707 156 L S
707 156 M 707 156 L S
707 156 M 707 156 L S
708 156 M 708 156 L S
708 156 M 708 156 L S
708 156 M 708 156 L S
708 156 M 708 156 L S
709 156 M 709 156 L S
709 156 M 709 156 L S
709 156 M 709 156 L S
709 156 M 709 156 L S
709 156 M 709 156 L S
709 156 M 709 156 L S
710 156 M 710 156 L S
710 156 M 710 156 L S
710 156 M 710 156 L S
710 156 M 710 156 L S
711 156 M 711 156 L S
711 156 M 711 156 L S
711 156 M 711 156 L S
711 156 M 711 156 L S
712 156 M 712 156 L S
712 156 M 712 156 L S
712 156 M 712 156 L S
712 156 M 712 156 L S
713 156 M 713 156 L S
713 156 M 713 156 L S
713 156 M 713 156 L S
713 156 M 713 156 L S
713 156 M 713 156 L S
713 156 M 713 156 L S
714 156 M 714 156 L S
714 156 M 714 156 L S
714 156 M 714 156 L S
714 156 M 714 156 L S
715 156 M 715 156 L S
715 156 M 715 156 L S
715 156 M 715 156 L S
715 156 M 715 156 L S
716 156 M 716 156 L S
716 156 M 716 156 L S
716 156 M 716 156 L S
716 156 M 716 156 L S
716 156 M 716 156 L S
716 156 M 716 156 L S
717 156 M 717 156 L S
717 156 M 717 156 L S
717 156 M 717 156 L S
717 156 M 717 156 L S
718 156 M 718 156 L S
718 156 M 718 156 L S
718 156 M 718 156 L S
718 156 M 718 156 L S
719 156 M 719 156 L S
719 156 M 719 156 L S
719 156 M 719 156 L S
719 156 M 719 156 L S
719 156 M 719 156 L S
719 156 M 719 156 L S
720 156 M 720 156 L S
720 156 M 720 156 L S
720 156 M 720 156 L S
720 156 M 720 156 L S
721 156 M 721 156 L S
721 156 M 721 156 L S
721 156 M 721 156 L S
721 156 M 721 156 L S
722 156 M 722 156 L S
722 156 M 722 156 L S
722 156 M 722 156 L S
722 156 M 722 156 L S
723 156 M 723 156 L S
723 156 M 723 156 L S
723 156 M 723 156 L S
723 156 M 723 156 L S
723 156 M 723 156 L S
723 156 M 723 156 L S
724 156 M 724 156 L S
724 156 M 724 156 L S
724 156 M 724 156 L S
724 156 M 724 156 L S
725 156 M 725 156 L S
725 156 M 725 156 L S
725 156 M 725 156 L S
725 156 M 725 156 L S
726 156 M 726 156 L S
726 156 M 726 156 L S
726 156 M 726 156 L S
726 156 M 726 156 L S
726 156 M 726 156 L S
726 156 M 726 156 L S
727 156 M 727 156 L S
727 156 M 727 156 L S
727 156 M 727 156 L S
727 156 M 727 156 L S
728 156 M 728 156 L S
728 156 M 728 156 L S
728 156 M 728 156 L S
728 156 M 728 156 L S
729 156 M 729 156 L S
729 156 M 729 156 L S
729 156 M 729 156 L S
729 156 M 729 156 L S
729 156 M 729 156 L S
729 156 M 729 156 L S
730 156 M 730 156 L S
730 156 M 730 156 L S
730 156 M 730 156 L S
730 156 M 730 156 L S
731 156 M 731 156 L S
731 156 M 731 156 L S
731 156 M 731 156 L S
731 156 M 731 156 L S
732 156 M 732 156 L S
732 156 M 732 156 L S
732 156 M 732 156 L S
732 156 M 732 156 L S
733 156 M 733 156 L S
733 156 M 733 156 L S
733 156 M 733 156 L S
733 156 M 733 156 L S
733 156 M 733 156 L S
733 156 M 733 156 L S
734 156 M 734 156 L S
734 156 M 734 156 L S
734 156 M 734 156 L S
734 156 M 734 156 L S
735 156 M 735 156 L S
735 156 M 735 156 L S
735 156 M 735 156 L S
735 156 M 735 156 L S
736 156 M 736 156 L S
736 156 M 736 156 L S
736 156 M 736 156 L S
736 156 M 736 156 L S
736 156 M 736 156 L S
736 156 M 736 156 L S
737 156 M 737 156 L S
737 156 M 737 156 L S
737 156 M 737 156 L S
737 156 M 737 156 L S
738 156 M 738 156 L S
738 156 M 738 156 L S
738 156 M 738 156 L S
738 156 M 738 156 L S
739 156 M 739 156 L S
739 156 M 739 156 L S
739 156 M 739 156 L S
739 156 M 739 156 L S
739 156 M 739 156 L S
739 156 M 739 156 L S
740 156 M 740 156 L S
740 156 M 740 156 L S
740 156 M 740 156 L S
740 156 M 740 156 L S
741 156 M 741 156 L S
741 156 M 741 156 L S
741 156 M 741 156 L S
741 156 M 741 156 L S
742 156 M 742 156 L S
742 156 M 742 156 L S
742 156 M 742 156 L S
742 156 M 742 156 L S
743 156 M 743 156 L S
743 156 M 743 156 L S
743 156 M 743 156 L S
743 156 M 743 156 L S
743 156 M 743 156 L S
743 156 M 743 156 L S
744 156 M 744 156 L S
744 156 M 744 156 L S
744 156 M 744 156 L S
744 156 M 744 156 L S
745 156 M 745 156 L S
745 156 M 745 156 L S
745 156 M 745 156 L S
745 156 M 745 156 L S
746 156 M 746 156 L S
746 156 M 746 156 L S
746 156 M 746 156 L S
746 156 M 746 156 L S
746 156 M 746 156 L S
746 156 M 746 156 L S
747 156 M 747 156 L S
747 156 M 747 156 L S
747 156 M 747 156 L S
747 156 M 747 156 L S
748 156 M 748 156 L S
748 156 M 748 156 L S
748 156 M 748 156 L S
748 156 M 748 156 L S
749 156 M 749 156 L S
749 156 M 749 156 L S
749 156 M 749 156 L S
749 156 M 749 156 L S
749 156 M 749 156 L S
749 156 M 749 156 L S
750 156 M 750 156 L S
750 156 M 750 156 L S
750 156 M 750 156 L S
750 156 M 750 156 L S
751 156 M 751 156 L S
751 156 M 751 156 L S
751 156 M 751 156 L S
751 156 M 751 156 L S
752 156 M 752 156 L S
752 156 M 752 156 L S
752 156 M 752 156 L S
752 156 M 752 156 L S
753 156 M 753 156 L S
753 156 M 753 156 L S
753 156 M 753 156 L S
753 156 M 753 156 L S
753 156 M 753 156 L S
753 156 M 753 156 L S
754 156 M 754 156 L S
754 156 M 754 156 L S
754 156 M 754 156 L S
754 156 M 754 156 L S
755 156 M 755 156 L S
755 156 M 755 156 L S
755 156 M 755 156 L S
755 156 M 755 156 L S
756 156 M 756 156 L S
756 156 M 756 156 L S
756 156 M 756 156 L S
756 156 M 756 156 L S
756 156 M 756 156 L S
756 156 M 756 156 L S
757 156 M 757 156 L S
757 156 M 757 156 L S
757 156 M 757 156 L S
757 156 M 757 156 L S
758 156 M 758 156 L S
758 156 M 758 156 L S
758 156 M 758 156 L S
758 156 M 758 156 L S
759 156 M 759 156 L S
759 156 M 759 156 L S
759 156 M 759 156 L S
759 156 M 759 156 L S
760 156 M 760 156 L S
760 156 M 760 156 L S
760 156 M 760 156 L S
760 156 M 760 156 L S
760 156 M 760 156 L S
760 156 M 760 156 L S
761 156 M 761 156 L S
761 156 M 761 156 L S
761 156 M 761 156 L S
761 156 M 761 156 L S
762 156 M 762 156 L S
762 156 M 762 156 L S
762 156 M 762 156 L S
762 156 M 762 156 L S
763 156 M 763 156 L S
763 156 M 763 156 L S
763 156 M 763 156 L S
763 156 M 763 156 L S
763 156 M 763 156 L S
763 156 M 763 156 L S
764 156 M 764 156 L S
764 156 M 764 156 L S
764 156 M 764 156 L S
764 156 M 764 156 L S
765 156 M 765 156 L S
765 156 M 765 156 L S
765 156 M 765 156 L S
765 156 M 765 156 L S
766 156 M 766 156 L S
766 156 M 766 156 L S
766 156 M 766 156 L S
766 156 M 766 156 L S
766 156 M 766 156 L S
766 156 M 766 156 L S
767 156 M 767 156 L S
767 156 M 767 156 L S
767 156 M 767 156 L S
767 156 M 767 156 L S
768 156 M 768 156 L S
768 156 M 768 156 L S
768 156 M 768 156 L S
768 156 M 768 156 L S
769 156 M 769 156 L S
769 156 M 769 156 L S
769 156 M 769 156 L S
769 156 M 769 156 L S
770 156 M 770 156 L S
770 156 M 770 156 L S
770 156 M 770 156 L S
770 156 M 770 156 L S
770 156 M 770 156 L S
770 156 M 770 156 L S
771 156 M 771 156 L S
771 156 M 771 156 L S
771 156 M 771 156 L S
771 156 M 771 156 L S
772 156 M 772 156 L S
772 156 M 772 156 L S
772 156 M 772 156 L S
772 156 M 772 156 L S
773 156 M 773 156 L S
773 156 M 773 156 L S
773 156 M 773 156 L S
773 156 M 773 156 L S
773 156 M 773 156 L S
773 156 M 773 156 L S
774 156 M 774 156 L S
774 156 M 774 156 L S
774 156 M 774 156 L S
774 156 M 774 156 L S
775 156 M 775 156 L S
775 156 M 775 156 L S
775 156 M 775 156 L S
775 156 M 775 156 L S
776 156 M 776 156 L S
776 156 M 776 156 L S
776 156 M 776 156 L S
776 156 M 776 156 L S
776 156 M 776 156 L S
776 156 M 776 156 L S
777 156 M 777 156 L S
777 156 M 777 156 L S
777 156 M 777 156 L S
777 156 M 777 156 L S
778 156 M 778 156 L S
778 156 M 778 156 L S
778 156 M 778 156 L S
778 156 M 778 156 L S
779 156 M 779 156 L S
779 156 M 779 156 L S
779 156 M 779 156 L S
779 156 M 779 156 L S
780 156 M 780 156 L S
780 156 M 780 156 L S
780 156 M 780 156 L S
780 156 M 780 156 L S
780 156 M 780 156 L S
780 156 M 780 156 L S
781 156 M 781 156 L S
781 156 M 781 156 L S
781 156 M 781 156 L S
781 156 M 781 156 L S
782 156 M 782 156 L S
782 156 M 782 156 L S
782 156 M 782 156 L S
782 156 M 782 156 L S
783 156 M 783 156 L S
783 156 M 783 156 L S
783 156 M 783 156 L S
783 156 M 783 156 L S
783 156 M 783 156 L S
783 156 M 783 156 L S
784 156 M 784 156 L S
784 156 M 784 156 L S
784 156 M 784 156 L S
784 156 M 784 156 L S
785 156 M 785 156 L S
785 156 M 785 156 L S
785 156 M 785 156 L S
785 156 M 785 156 L S
786 156 M 786 156 L S
786 156 M 786 156 L S
786 156 M 786 156 L S
786 156 M 786 156 L S
786 156 M 786 156 L S
786 156 M 786 156 L S
787 156 M 787 156 L S
787 156 M 787 156 L S
787 156 M 787 156 L S
787 156 M 787 156 L S
788 156 M 788 156 L S
788 156 M 788 156 L S
788 156 M 788 156 L S
788 156 M 788 156 L S
789 156 M 789 156 L S
789 156 M 789 156 L S
789 156 M 789 156 L S
789 156 M 789 156 L S
790 156 M 790 156 L S
790 156 M 790 156 L S
790 156 M 790 156 L S
790 156 M 790 156 L S
790 156 M 790 156 L S
790 156 M 790 156 L S
791 156 M 791 156 L S
791 156 M 791 156 L S
791 156 M 791 156 L S
791 156 M 791 156 L S
792 156 M 792 156 L S
792 156 M 792 156 L S
792 156 M 792 156 L S
792 156 M 792 156 L S
793 156 M 793 156 L S
793 156 M 793 156 L S
793 156 M 793 156 L S
793 156 M 793 156 L S
793 156 M 793 156 L S
793 156 M 793 156 L S
794 156 M 794 156 L S
794 156 M 794 156 L S
794 156 M 794 156 L S
794 156 M 794 156 L S
795 156 M 795 156 L S
795 156 M 795 156 L S
795 156 M 795 156 L S
795 156 M 795 156 L S
796 156 M 796 156 L S
796 156 M 796 156 L S
796 156 M 796 156 L S
796 156 M 796 156 L S
796 156 M 796 156 L S
796 156 M 796 156 L S
797 156 M 797 156 L S
797 156 M 797 156 L S
797 156 M 797 156 L S
797 156 M 797 156 L S
798 156 M 798 156 L S
798 156 M 798 156 L S
798 156 M 798 156 L S
798 156 M 798 156 L S
799 156 M 799 156 L S
799 156 M 799 156 L S
799 156 M 799 156 L S
799 156 M 799 156 L S
800 156 M 800 156 L S
800 156 M 800 156 L S
800 156 M 800 156 L S
800 156 M 800 156 L S
800 156 M 800 156 L S
800 156 M 800 156 L S
801 156 M 801 156 L S
801 156 M 801 156 L S
801 156 M 801 156 L S
801 156 M 801 156 L S
802 156 M 802 156 L S
802 156 M 802 156 L S
802 156 M 802 156 L S
802 156 M 802 156 L S
803 156 M 803 156 L S
803 156 M 803 156 L S
803 156 M 803 156 L S
803 156 M 803 156 L S
803 156 M 803 156 L S
803 156 M 803 156 L S
804 156 M 804 156 L S
804 156 M 804 156 L S
804 156 M 804 156 L S
804 156 M 804 156 L S
805 156 M 805 156 L S
805 156 M 805 156 L S
805 156 M 805 156 L S
805 156 M 805 156 L S
806 156 M 806 156 L S
806 156 M 806 156 L S
806 156 M 806 156 L S
806 156 M 806 156 L S
806 156 M 806 156 L S
806 156 M 806 156 L S
807 156 M 807 156 L S
807 156 M 807 156 L S
807 156 M 807 156 L S
807 156 M 807 156 L S
808 156 M 808 156 L S
808 156 M 808 156 L S
808 156 M 808 156 L S
808 156 M 808 156 L S
809 156 M 809 156 L S
809 156 M 809 156 L S
809 156 M 809 156 L S
809 156 M 809 156 L S
810 156 M 810 156 L S
810 156 M 810 156 L S
810 156 M 810 156 L S
810 156 M 810 156 L S
810 156 M 810 156 L S
810 156 M 810 156 L S
811 156 M 811 156 L S
811 156 M 811 156 L S
811 156 M 811 156 L S
811 156 M 811 156 L S
812 156 M 812 156 L S
812 156 M 812 156 L S
812 156 M 812 156 L S
812 156 M 812 156 L S
813 156 M 813 156 L S
813 156 M 813 156 L S
813 156 M 813 156 L S
813 156 M 813 156 L S
813 156 M 813 156 L S
813 156 M 813 156 L S
814 156 M 814 156 L S
814 156 M 814 156 L S
814 156 M 814 156 L S
814 156 M 814 156 L S
815 156 M 815 156 L S
815 156 M 815 156 L S
815 156 M 815 156 L S
815 156 M 815 156 L S
816 156 M 816 156 L S
816 156 M 816 156 L S
816 156 M 816 156 L S
816 156 M 816 156 L S
816 156 M 816 156 L S
816 156 M 816 156 L S
817 156 M 817 156 L S
817 156 M 817 156 L S
817 156 M 817 156 L S
817 156 M 817 156 L S
818 156 M 818 156 L S
818 156 M 818 156 L S
818 156 M 818 156 L S
818 156 M 818 156 L S
819 156 M 819 156 L S
819 156 M 819 156 L S
819 156 M 819 156 L S
819 156 M 819 156 L S
820 156 M 820 156 L S
820 156 M 820 156 L S
820 156 M 820 156 L S
820 156 M 820 156 L S
820 156 M 820 156 L S
820 156 M 820 156 L S
821 156 M 821 156 L S
821 156 M 821 156 L S
821 156 M 821 156 L S
821 156 M 821 156 L S
822 156 M 822 156 L S
822 156 M 822 156 L S
822 156 M 822 156 L S
822 156 M 822 156 L S
823 156 M 823 156 L S
823 156 M 823 156 L S
823 156 M 823 156 L S
823 156 M 823 156 L S
823 156 M 823 156 L S
823 156 M 823 156 L S
824 156 M 824 156 L S
824 156 M 824 156 L S
824 156 M 824 156 L S
824 156 M 824 156 L S
825 156 M 825 156 L S
825 156 M 825 156 L S
825 156 M 825 156 L S
825 156 M 825 156 L S
826 156 M 826 156 L S
826 156 M 826 156 L S
826 156 M 826 156 L S
826 156 M 826 156 L S
826 156 M 826 156 L S
826 156 M 826 156 L S
827 156 M 827 156 L S
827 156 M 827 156 L S
827 156 M 827 156 L S
827 156 M 827 156 L S
828 156 M 828 156 L S
828 156 M 828 156 L S
828 156 M 828 156 L S
828 156 M 828 156 L S
829 156 M 829 156 L S
829 156 M 829 156 L S
829 156 M 829 156 L S
829 156 M 829 156 L S
830 156 M 830 156 L S
830 156 M 830 156 L S
830 156 M 830 156 L S
830 156 M 830 156 L S
830 156 M 830 156 L S
830 156 M 830 156 L S
831 156 M 831 156 L S
831 156 M 831 156 L S
831 156 M 831 156 L S
831 156 M 831 156 L S
832 156 M 832 156 L S
832 156 M 832 156 L S
832 156 M 832 156 L S
832 156 M 832 156 L S
833 156 M 833 156 L S
833 156 M 833 156 L S
833 156 M 833 156 L S
833 156 M 833 156 L S
833 156 M 833 156 L S
833 156 M 833 156 L S
834 156 M 834 156 L S
834 156 M 834 156 L S
834 156 M 834 156 L S
834 156 M 834 156 L S
835 156 M 835 156 L S
835 156 M 835 156 L S
835 156 M 835 156 L S
835 156 M 835 156 L S
836 156 M 836 156 L S
836 156 M 836 156 L S
836 156 M 836 156 L S
836 156 M 836 156 L S
836 156 M 836 156 L S
836 156 M 836 156 L S
837 156 M 837 156 L S
837 156 M 837 156 L S
837 156 M 837 156 L S
837 156 M 837 156 L S
838 156 M 838 156 L S
838 156 M 838 156 L S
838 156 M 838 156 L S
838 156 M 838 156 L S
839 156 M 839 156 L S
839 156 M 839 156 L S
839 156 M 839 156 L S
839 156 M 839 156 L S
840 156 M 840 156 L S
840 156 M 840 156 L S
840 156 M 840 156 L S
840 156 M 840 156 L S
840 156 M 840 156 L S
840 156 M 840 156 L S
841 156 M 841 156 L S
841 156 M 841 156 L S
841 156 M 841 156 L S
841 156 M 841 156 L S
842 156 M 842 156 L S
842 156 M 842 156 L S
842 156 M 842 156 L S
842 156 M 842 156 L S
843 156 M 843 156 L S
843 156 M 843 156 L S
843 156 M 843 156 L S
843 156 M 843 156 L S
843 156 M 843 156 L S
843 156 M 843 156 L S
844 156 M 844 156 L S
844 156 M 844 156 L S
844 156 M 844 156 L S
844 156 M 844 156 L S
845 156 M 845 156 L S
845 156 M 845 156 L S
845 156 M 845 156 L S
845 156 M 845 156 L S
846 156 M 846 156 L S
846 156 M 846 156 L S
846 156 M 846 156 L S
846 156 M 846 156 L S
847 156 M 847 156 L S
847 156 M 847 156 L S
847 156 M 847 156 L S
847 156 M 847 156 L S
847 156 M 847 156 L S
847 156 M 847 156 L S
848 156 M 848 156 L S
848 156 M 848 156 L S
848 156 M 848 156 L S
848 156 M 848 156 L S
849 156 M 849 156 L S
849 156 M 849 156 L S
849 156 M 849 156 L S
849 156 M 849 156 L S
850 156 M 850 156 L S
850 156 M 850 156 L S
850 156 M 850 156 L S
850 156 M 850 156 L S
850 156 M 850 156 L S
850 156 M 850 156 L S
851 156 M 851 156 L S
851 156 M 851 156 L S
851 156 M 851 156 L S
851 156 M 851 156 L S
852 156 M 852 156 L S
852 156 M 852 156 L S
852 156 M 852 156 L S
852 156 M 852 156 L S
853 156 M 853 156 L S
853 156 M 853 156 L S
853 156 M 853 156 L S
853 156 M 853 156 L S
853 156 M 853 156 L S
853 156 M 853 156 L S
854 156 M 854 156 L S
854 156 M 854 156 L S
854 156 M 854 156 L S
854 156 M 854 156 L S
855 156 M 855 156 L S
855 156 M 855 156 L S
855 156 M 855 156 L S
855 156 M 855 156 L S
856 156 M 856 156 L S
856 156 M 856 156 L S
856 156 M 856 156 L S
856 156 M 856 156 L S
857 156 M 857 156 L S
857 156 M 857 156 L S
857 156 M 857 156 L S
857 156 M 857 156 L S
857 156 M 857 156 L S
857 156 M 857 156 L S
858 156 M 858 156 L S
858 156 M 858 156 L S
858 156 M 858 156 L S
858 156 M 858 156 L S
859 156 M 859 156 L S
859 156 M 859 156 L S
859 156 M 859 156 L S
859 156 M 859 156 L S
860 156 M 860 156 L S
860 156 M 860 156 L S
860 156 M 860 156 L S
860 156 M 860 156 L S
860 156 M 860 156 L S
860 156 M 860 156 L S
861 156 M 861 156 L S
861 156 M 861 156 L S
861 156 M 861 156 L S
861 156 M 861 156 L S
862 156 M 862 156 L S
862 156 M 862 156 L S
862 156 M 862 156 L S
862 156 M 862 156 L S
863 156 M 863 156 L S
863 156 M 863 156 L S
863 156 M 863 156 L S
863 156 M 863 156 L S
863 156 M 863 156 L S
863 156 M 863 156 L S
864 156 M 864 156 L S
864 156 M 864 156 L S
864 156 M 864 156 L S
864 156 M 864 156 L S
865 156 M 865 156 L S
865 156 M 865 156 L S
865 156 M 865 156 L S
865 156 M 865 156 L S
866 156 M 866 156 L S
866 156 M 866 156 L S
866 156 M 866 156 L S
866 156 M 866 156 L S
867 156 M 867 156 L S
867 156 M 867 156 L S
867 156 M 867 156 L S
867 156 M 867 156 L S
867 156 M 867 156 L S
867 156 M 867 156 L S
868 156 M 868 156 L S
868 156 M 868 156 L S
868 156 M 868 156 L S
868 156 M 868 156 L S
869 156 M 869 156 L S
869 156 M 869 156 L S
869 156 M 869 156 L S
869 156 M 869 156 L S
870 156 M 870 156 L S
870 156 M 870 156 L S
870 156 M 870 156 L S
870 156 M 870 156 L S
870 156 M 870 156 L S
870 156 M 870 156 L S
871 156 M 871 156 L S
871 156 M 871 156 L S
871 156 M 871 156 L S
871 156 M 871 156 L S
872 156 M 872 156 L S
872 156 M 872 156 L S
872 156 M 872 156 L S
872 156 M 872 156 L S
873 156 M 873 156 L S
873 156 M 873 156 L S
873 156 M 873 156 L S
873 156 M 873 156 L S
873 156 M 873 156 L S
873 156 M 873 156 L S
874 156 M 874 156 L S
874 156 M 874 156 L S
874 156 M 874 156 L S
874 156 M 874 156 L S
875 156 M 875 156 L S
875 156 M 875 156 L S
875 156 M 875 156 L S
875 156 M 875 156 L S
876 156 M 876 156 L S
876 156 M 876 156 L S
876 156 M 876 156 L S
876 156 M 876 156 L S
877 156 M 877 156 L S
877 156 M 877 156 L S
877 156 M 877 156 L S
877 156 M 877 156 L S
877 156 M 877 156 L S
877 156 M 877 156 L S
878 156 M 878 156 L S
878 156 M 878 156 L S
878 156 M 878 156 L S
878 156 M 878 156 L S
879 156 M 879 156 L S
879 156 M 879 156 L S
879 156 M 879 156 L S
879 156 M 879 156 L S
880 156 M 880 156 L S
880 156 M 880 156 L S
880 156 M 880 156 L S
880 156 M 880 156 L S
880 156 M 880 156 L S
880 156 M 880 156 L S
881 156 M 881 156 L S
881 156 M 881 156 L S
881 156 M 881 156 L S
881 156 M 881 156 L S
882 156 M 882 156 L S
882 156 M 882 156 L S
882 156 M 882 156 L S
882 156 M 882 156 L S
883 156 M 883 156 L S
883 156 M 883 156 L S
883 156 M 883 156 L S
883 156 M 883 156 L S
883 156 M 883 156 L S
883 156 M 883 156 L S
884 156 M 884 156 L S
884 156 M 884 156 L S
884 156 M 884 156 L S
884 156 M 884 156 L S
885 156 M 885 156 L S
885 156 M 885 156 L S
885 156 M 885 156 L S
885 156 M 885 156 L S
886 156 M 886 156 L S
886 156 M 886 156 L S
886 156 M 886 156 L S
886 156 M 886 156 L S
887 156 M 887 156 L S
887 156 M 887 156 L S
887 156 M 887 156 L S
887 156 M 887 156 L S
887 156 M 887 156 L S
887 156 M 887 156 L S
888 156 M 888 156 L S
888 156 M 888 156 L S
888 156 M 888 156 L S
888 156 M 888 156 L S
889 156 M 889 156 L S
889 156 M 889 156 L S
889 156 M 889 156 L S
889 156 M 889 156 L S
890 156 M 890 156 L S
890 156 M 890 156 L S
890 156 M 890 156 L S
890 156 M 890 156 L S
890 156 M 890 156 L S
890 156 M 890 156 L S
891 156 M 891 156 L S
891 156 M 891 156 L S
891 156 M 891 156 L S
891 156 M 891 156 L S
892 156 M 892 156 L S
892 156 M 892 156 L S
892 156 M 892 156 L S
892 156 M 892 156 L S
893 156 M 893 156 L S
893 156 M 893 156 L S
893 156 M 893 156 L S
893 156 M 893 156 L S
893 156 M 893 156 L S
893 156 M 893 156 L S
894 156 M 894 156 L S
894 156 M 894 156 L S
894 156 M 894 156 L S
894 156 M 894 156 L S
895 156 M 895 156 L S
895 156 M 895 156 L S
895 156 M 895 156 L S
895 156 M 895 156 L S
896 156 M 896 156 L S
896 156 M 896 156 L S
896 156 M 896 156 L S
896 156 M 896 156 L S
897 156 M 897 156 L S
897 156 M 897 156 L S
897 156 M 897 156 L S
897 156 M 897 156 L S
897 156 M 897 156 L S
897 156 M 897 156 L S
898 156 M 898 156 L S
898 156 M 898 156 L S
898 156 M 898 156 L S
898 156 M 898 156 L S
899 156 M 899 156 L S
899 156 M 899 156 L S
899 156 M 899 156 L S
899 156 M 899 156 L S
900 156 M 900 156 L S
900 156 M 900 156 L S
900 156 M 900 156 L S
900 156 M 900 156 L S
900 156 M 900 156 L S
900 156 M 900 156 L S
901 156 M 901 156 L S
901 156 M 901 156 L S
901 156 M 901 156 L S
901 156 M 901 156 L S
902 156 M 902 156 L S
902 156 M 902 156 L S
902 156 M 902 156 L S
902 156 M 902 156 L S
903 156 M 903 156 L S
903 156 M 903 156 L S
903 156 M 903 156 L S
903 156 M 903 156 L S
903 156 M 903 156 L S
903 156 M 903 156 L S
904 156 M 904 156 L S
904 156 M 904 156 L S
904 156 M 904 156 L S
904 156 M 904 156 L S
905 156 M 905 156 L S
905 156 M 905 156 L S
905 156 M 905 156 L S
905 156 M 905 156 L S
906 156 M 906 156 L S
906 156 M 906 156 L S
906 156 M 906 156 L S
906 156 M 906 156 L S
907 156 M 907 156 L S
907 156 M 907 156 L S
907 156 M 907 156 L S
907 156 M 907 156 L S
907 156 M 907 156 L S
907 156 M 907 156 L S
908 156 M 908 156 L S
908 156 M 908 156 L S
908 156 M 908 156 L S
908 156 M 908 156 L S
909 156 M 909 156 L S
909 156 M 909 156 L S
909 156 M 909 156 L S
909 156 M 909 156 L S
910 156 M 910 156 L S
910 156 M 910 156 L S
910 156 M 910 156 L S
910 156 M 910 156 L S
910 156 M 910 156 L S
910 156 M 910 156 L S
911 156 M 911 156 L S
911 156 M 911 156 L S
911 156 M 911 156 L S
911 156 M 911 156 L S
912 156 M 912 156 L S
912 156 M 912 156 L S
912 156 M 912 156 L S
912 156 M 912 156 L S
913 156 M 913 156 L S
913 156 M 913 156 L S
913 156 M 913 156 L S
913 156 M 913 156 L S
913 156 M 913 156 L S
913 156 M 913 156 L S
914 156 M 914 156 L S
914 156 M 914 156 L S
914 156 M 914 156 L S
914 156 M 914 156 L S
915 156 M 915 156 L S
915 156 M 915 156 L S
915 156 M 915 156 L S
915 156 M 915 156 L S
916 156 M 916 156 L S
916 156 M 916 156 L S
916 156 M 916 156 L S
916 156 M 916 156 L S
917 156 M 917 156 L S
917 156 M 917 156 L S
917 156 M 917 156 L S
917 156 M 917 156 L S
917 156 M 917 156 L S
917 156 M 917 156 L S
918 156 M 918 156 L S
918 156 M 918 156 L S
918 156 M 918 156 L S
918 156 M 918 156 L S
919 156 M 919 156 L S
919 156 M 919 156 L S
919 156 M 919 156 L S
919 156 M 919 156 L S
920 156 M 920 156 L S
920 156 M 920 156 L S
920 156 M 920 156 L S
920 156 M 920 156 L S
920 156 M 920 156 L S
920 156 M 920 156 L S
921 156 M 921 156 L S
921 156 M 921 156 L S
921 156 M 921 156 L S
921 156 M 921 156 L S
922 156 M 922 156 L S
922 156 M 922 156 L S
922 156 M 922 156 L S
922 156 M 922 156 L S
923 156 M 923 156 L S
923 156 M 923 156 L S
923 156 M 923 156 L S
923 156 M 923 156 L S
923 156 M 923 156 L S
923 156 M 923 156 L S
924 156 M 924 156 L S
924 156 M 924 156 L S
924 156 M 924 156 L S
924 156 M 924 156 L S
925 156 M 925 156 L S
925 156 M 925 156 L S
925 156 M 925 156 L S
925 156 M 925 156 L S
926 156 M 926 156 L S
926 156 M 926 156 L S
926 156 M 926 156 L S
926 156 M 926 156 L S
927 156 M 927 156 L S
927 156 M 927 156 L S
927 156 M 927 156 L S
927 156 M 927 156 L S
927 156 M 927 156 L S
927 156 M 927 156 L S
928 156 M 928 156 L S
928 156 M 928 156 L S
928 156 M 928 156 L S
928 156 M 928 156 L S
929 156 M 929 156 L S
929 156 M 929 156 L S
929 156 M 929 156 L S
929 156 M 929 156 L S
930 156 M 930 156 L S
930 156 M 930 156 L S
930 156 M 930 156 L S
930 156 M 930 156 L S
930 156 M 930 156 L S
930 156 M 930 156 L S
931 156 M 931 156 L S
931 156 M 931 156 L S
931 156 M 931 156 L S
931 156 M 931 156 L S
932 156 M 932 156 L S
932 156 M 932 156 L S
932 156 M 932 156 L S
932 156 M 932 156 L S
933 156 M 933 156 L S
933 156 M 933 156 L S
933 156 M 933 156 L S
933 156 M 933 156 L S
934 156 M 934 156 L S
934 156 M 934 156 L S
934 156 M 934 156 L S
934 156 M 934 156 L S
934 156 M 934 156 L S
934 156 M 934 156 L S
935 156 M 935 156 L S
935 156 M 935 156 L S
935 156 M 935 156 L S
935 156 M 935 156 L S
936 156 M 936 156 L S
936 156 M 936 156 L S
936 156 M 936 156 L S
936 156 M 936 156 L S
937 156 M 937 156 L S
937 156 M 937 156 L S
937 156 M 937 156 L S
937 156 M 937 156 L S
937 156 M 937 156 L S
937 156 M 937 156 L S
938 156 M 938 156 L S
938 156 M 938 156 L S
938 156 M 938 156 L S
938 156 M 938 156 L S
939 156 M 939 156 L S
939 156 M 939 156 L S
939 156 M 939 156 L S
939 156 M 939 156 L S
940 156 M 940 156 L S
940 156 M 940 156 L S
940 156 M 940 156 L S
940 156 M 940 156 L S
940 156 M 940 156 L S
940 156 M 940 156 L S
941 156 M 941 156 L S
941 156 M 941 156 L S
941 156 M 941 156 L S
941 156 M 941 156 L S
942 156 M 942 156 L S
942 156 M 942 156 L S
942 156 M 942 156 L S
942 156 M 942 156 L S
943 156 M 943 156 L S
943 156 M 943 156 L S
943 156 M 943 156 L S
943 156 M 943 156 L S
944 156 M 944 156 L S
944 156 M 944 156 L S
944 156 M 944 156 L S
944 156 M 944 156 L S
944 156 M 944 156 L S
944 156 M 944 156 L S
945 156 M 945 156 L S
945 156 M 945 156 L S
945 156 M 945 156 L S
945 156 M 945 156 L S
946 156 M 946 156 L S
946 156 M 946 156 L S
946 156 M 946 156 L S
946 156 M 946 156 L S
947 156 M 947 156 L S
947 156 M 947 156 L S
947 156 M 947 156 L S
947 156 M 947 156 L S
947 156 M 947 156 L S
947 156 M 947 156 L S
948 156 M 948 156 L S
948 156 M 948 156 L S
948 156 M 948 156 L S
948 156 M 948 156 L S
949 156 M 949 156 L S
949 156 M 949 156 L S
949 156 M 949 156 L S
949 156 M 949 156 L S
950 156 M 950 156 L S
950 156 M 950 156 L S
950 156 M 950 156 L S
950 156 M 950 156 L S
950 156 M 950 156 L S
950 156 M 950 156 L S
951 156 M 951 156 L S
951 156 M 951 156 L S
951 156 M 951 156 L S
951 156 M 951 156 L S
952 156 M 952 156 L S
952 156 M 952 156 L S
952 156 M 952 156 L S
952 156 M 952 156 L S
953 156 M 953 156 L S
953 156 M 953 156 L S
953 156 M 953 156 L S
953 156 M 953 156 L S
954 156 M 954 156 L S
954 156 M 954 156 L S
954 156 M 954 156 L S
954 156 M 954 156 L S
954 156 M 954 156 L S
954 156 M 954 156 L S
955 156 M 955 156 L S
955 156 M 955 156 L S
955 156 M 955 156 L S
955 156 M 955 156 L S
956 156 M 956 156 L S
956 156 M 956 156 L S
956 156 M 956 156 L S
956 156 M 956 156 L S
957 156 M 957 156 L S
957 156 M 957 156 L S
957 156 M 957 156 L S
957 156 M 957 156 L S
957 156 M 957 156 L S
957 156 M 957 156 L S
958 156 M 958 156 L S
958 156 M 958 156 L S
958 156 M 958 156 L S
958 156 M 958 156 L S
959 156 M 959 156 L S
959 156 M 959 156 L S
959 156 M 959 156 L S
959 156 M 959 156 L S
960 156 M 960 156 L S
960 156 M 960 156 L S
960 156 M 960 156 L S
960 156 M 960 156 L S
960 156 M 960 156 L S
960 156 M 960 156 L S
961 156 M 961 156 L S
961 156 M 961 156 L S
961 156 M 961 156 L S
961 156 M 961 156 L S
962 156 M 962 156 L S
962 156 M 962 156 L S
962 156 M 962 156 L S
962 156 M 962 156 L S
963 156 M 963 156 L S
963 156 M 963 156 L S
963 156 M 963 156 L S
963 156 M 963 156 L S
964 156 M 964 156 L S
964 156 M 964 156 L S
964 156 M 964 156 L S
964 156 M 964 156 L S
964 156 M 964 156 L S
964 156 M 964 156 L S
965 156 M 965 156 L S
965 156 M 965 156 L S
965 156 M 965 156 L S
965 156 M 965 156 L S
966 156 M 966 156 L S
966 156 M 966 156 L S
966 156 M 966 156 L S
966 156 M 966 156 L S
967 156 M 967 156 L S
967 156 M 967 156 L S
967 156 M 967 156 L S
967 156 M 967 156 L S
967 156 M 967 156 L S
967 156 M 967 156 L S
968 156 M 968 156 L S
968 156 M 968 156 L S
968 156 M 968 156 L S
968 156 M 968 156 L S
969 156 M 969 156 L S
969 156 M 969 156 L S
969 156 M 969 156 L S
969 156 M 969 156 L S
970 156 M 970 156 L S
970 156 M 970 156 L S
970 156 M 970 156 L S
970 156 M 970 156 L S
970 156 M 970 156 L S
970 156 M 970 156 L S
971 156 M 971 156 L S
971 156 M 971 156 L S
971 156 M 971 156 L S
971 156 M 971 156 L S
972 156 M 972 156 L S
972 156 M 972 156 L S
/Courier-Bold findfont 27 scalefont setfont
101 764 M (Zgoubi|Zpop                                                                     ) H
101 743 M (24-06-2019                                                                      ) H
/Courier-Bold findfont 26 scalefont setfont
320 746 M (TUNES                                                                           ) H
26 63 M (NuZ =  0.149601  amplitude =    2.053                                           ) H
26 0 M ( Part* all  at Lmnt     1 to *****                                              ) H
showpage
