NuFactory. Solenoid pion capture. In-flight decay into muon
 'OBJET'                                                                                                      1
833.910238
5
0.1  0.1 0.1 0.1 0. .001 'o'
0.  0. 0. 0. 0. 1.
 'DRIFT'                                                                                                      2
-20.
 'BREVOL'                                                                                                     3
0 0
0.095933608187 1
TEST CARTE SOLENO
761                                    IX
sol30m.map_761pts
0  0. 0. 0.                            PAS DE DROITE COUPURE
2
1.
1 0 0 0
 'DRIFT'                                                                                                      4
-20.
 'FAISCEAU'                                                                                                   5
 'MATRIX'                                                                                                     6
1  0
 'RESET'                                                                                                      7
 'OBJET'                                                                                                      8
833.910238
5
0.1  0.1 0.1 0.1 0. .001 'o'
0.  0. 0. 0. 0. 1.
 'SOLENOID'                                                                                                   9
0
3000.  1.  16.
20.  20.
1.
1  0. 0. 0.
 'FAISCEAU'                                                                                                  10
 'MATRIX'                                                                                                    11
1  0
 'END'                                                                                                       12

************************************************************************************************************************************
      1  Keyword, label(s) :  OBJET                                                 

                          MAGNETIC  RIGIDITY =        833.910 kG*cm

                                         CALCUL  DES  TRAJECTOIRES

                              OBJET  (5)  FORME  DE     11 POINTS 



                                Y (cm)         T (mrd)       Z (cm)        P (mrd)       S (cm)        dp/p 
               Sampling :          0.10          0.10          0.10          0.10           0.0          0.1000E-02
  Reference trajectry #      1 :    0.0           0.0           0.0           0.0           0.0           1.000    

************************************************************************************************************************************
      2  Keyword, label(s) :  DRIFT                                                 


                              Drift,  length =   -20.00000  cm

TRAJ #1 IEX,D,Y,T,Z,P,S,time :  1  0.000000E+00  0.000000E+00  0.000000E+00  0.000000E+00  0.000000E+00  -2.0000000E+01   0.00000E+00

 Cumulative length of optical axis =  -0.200000000     m   ;  Time  (for reference rigidity & particle) =  -2.591144E-09 s 

************************************************************************************************************************************
      3  Keyword, label(s) :  BREVOL                                                


     Number of data files used is   1 ;  Stored in field array # IMAP =    1 

  Will sum up            1   field maps.

      New field map(s) now opened ;  name(s) of map data file(s), field coefficient : 
          sol30m.map_761pts,    1.000000E+00

     Min/max fields found in map (series) read   :   0.000000E+00  /   1.738515E+03
       @  X,  Y, Z :   0.00       0.00       0.00                  /  1.476E+03   0.00       0.00    
     Given normalisation coeffs on field, x, y, z :   9.593361E-02   1.000000E+00   1.000000E+00   1.000000E+00
     this yields min/max normalised fields (kG) :  0.000000E+00                      1.667820E+02
       @  X (cm),  Y (cm), Z (cm) :   0.00       0.00       0.00   /  1.476E+03   0.00       0.00    

     Length of element,  XL =  3.040000E+03 cm 
                                               from  XI =  -2.000000E+01 cm 
                                               to    XF =   3.020000E+03 cm 

     Nbr of nodes in X = 761;  nbr of nodes in Y =    0
     X-size of mesh =  4.000000E+00 cm ; Y-size =  0.000000E+00 cm

                     OPTION  DE  CALCUL  : 0

                    Integration step :   1.000     cm

  A    1  1.0000     0.000     0.000     0.000     0.000         3020.000     0.000     0.000     0.000     0.000            1
  A    1  1.0000     0.100     0.000     0.000     0.000         3020.000     0.069    -0.000    -0.038     0.000            2
  A    1  1.0000    -0.100     0.000     0.000     0.000         3020.000    -0.069     0.000     0.038    -0.000            3
  A    1  1.0000     0.000     0.100     0.000     0.000         3020.000     0.006     0.000    -0.003    -0.000            4
  A    1  1.0000     0.000    -0.100     0.000     0.000         3020.000    -0.006    -0.000     0.003     0.000            5
  A    1  1.0000     0.000     0.000     0.100     0.000         3020.000     0.038    -0.000     0.069    -0.000            6
  A    1  1.0000     0.000     0.000    -0.100     0.000         3020.000    -0.038     0.000    -0.069     0.000            7
  A    1  1.0000     0.000     0.000     0.000     0.100         3020.000     0.003     0.000     0.006     0.000            8
  A    1  1.0000     0.000     0.000     0.000    -0.100         3020.000    -0.003    -0.000    -0.006    -0.000            9
  A    1  1.0010     0.000     0.000     0.000     0.000         3020.000     0.000     0.000     0.000     0.000           10
  A    1  0.9990     0.000     0.000     0.000     0.000         3020.000     0.000     0.000     0.000     0.000           11

     KPOS =  1.  Change  of  frame  at  exit  of  element.
          X =   0.000     CM   Y =   0.000     cm,  tilt  angle =   0.00000     RAD


 Cumulative length of optical axis =    30.2000000     m ;  Time  (for ref. rigidity & particle) =   3.912628E-07 s 

************************************************************************************************************************************
      4  Keyword, label(s) :  DRIFT                                                 


                              Drift,  length =   -20.00000  cm

TRAJ #1 IEX,D,Y,T,Z,P,S,time :  1  0.000000E+00  0.000000E+00  0.000000E+00  0.000000E+00  0.000000E+00   3.0000000E+03   1.01403E-01

 Cumulative length of optical axis =    30.0000000     m   ;  Time  (for reference rigidity & particle) =   3.886716E-07 s 

************************************************************************************************************************************
      5  Keyword, label(s) :  FAISCEAU                                              

0                                             TRACE DU FAISCEAU
                                           (follows element #      4)
                                                 11 TRAJECTOIRES

                                   OBJET                                                  FAISCEAU

          D       Y(cm)     T(mr)     Z(cm)     P(mr)       S(cm)       D-1     Y(cm)    T(mr)    Z(cm)    P(mr)      S(cm)

O  1   1.0000     0.000     0.000     0.000     0.000       0.0000    0.0000    0.000    0.000    0.000    0.000   3.000000E+03     1
A  1   1.0000     0.100     0.000     0.000     0.000       0.0000    0.0000    0.077   -0.389   -0.043    0.215   3.000001E+03     2
B  1   1.0000    -0.100     0.000     0.000     0.000       0.0000    0.0000   -0.077    0.389    0.043   -0.215   3.000001E+03     3
C  1   1.0000     0.000     0.100     0.000     0.000       0.0000    0.0000    0.004    0.077   -0.002   -0.043   3.000000E+03     4
D  1   1.0000     0.000    -0.100     0.000     0.000       0.0000    0.0000   -0.004   -0.077    0.002    0.043   3.000000E+03     5
E  1   1.0000     0.000     0.000     0.100     0.000       0.0000    0.0000    0.043   -0.215    0.077   -0.389   3.000001E+03     6
F  1   1.0000     0.000     0.000    -0.100     0.000       0.0000    0.0000   -0.043    0.215   -0.077    0.389   3.000001E+03     7
G  1   1.0000     0.000     0.000     0.000     0.100       0.0000    0.0000    0.002    0.043    0.004    0.077   3.000000E+03     8
H  1   1.0000     0.000     0.000     0.000    -0.100       0.0000    0.0000   -0.002   -0.043   -0.004   -0.077   3.000000E+03     9
I  1   1.0010     0.000     0.000     0.000     0.000       0.0000    0.0010    0.000    0.000    0.000    0.000   3.000000E+03    10
J  1   0.9990     0.000     0.000     0.000     0.000       0.0000   -0.0010    0.000    0.000    0.000    0.000   3.000000E+03    11


------
  Characteristics of concentration ellipse (Surface, ALP, BET, <X>, <XP>, #prtcls, #prtcls inside ellips, ratio, space, pass#) : 

   5.7119E-08   3.8727E+00   7.7785E+00   0.000000E+00   0.000000E+00       11        7   0.6364      (Y,T)         1
   5.7119E-08   3.8727E+00   7.7785E+00   0.000000E+00   0.000000E+00       11        7   0.6364      (Z,P)         1
   7.3662E-09  -1.8633E-14   2.0634E-07   1.014035E-01   2.500000E+02       11        9   0.8182      (t,K)         1

(Y,T)  space (units : (cm,rd)   ) :  
      sigma_Y = sqrt(Surface/pi * BET) =   3.760643E-04
      sigma_T = sqrt(Surface/pi * (1+ALP^2)/BET) =   1.933758E-04

(Z,P)  space (units : (cm,rd)   ) :  
      sigma_Z = sqrt(Surface/pi * BET) =   3.760643E-04
      sigma_P = sqrt(Surface/pi * (1+ALP^2)/BET) =   1.933758E-04

(t,K)  space (units : (mu_s,MeV)) :  
      sigma_t = sqrt(Surface/pi * BET) =   2.199542E-08
      sigma_K = sqrt(Surface/pi * (1+ALP^2)/BET) =   1.066004E-01


  Beam  sigma  matrix : 

   1.414243E-07  -7.041223E-08  -9.241487E-22   3.915716E-11
  -7.041223E-08   3.739419E-08  -3.915874E-11   8.022563E-16
  -9.241487E-22  -3.915874E-11   1.414243E-07  -7.041223E-08
   3.915716E-11   8.022563E-16  -7.041223E-08   3.739419E-08

      sqrt(det_Y), sqrt(det_Z) :     1.818150E-08    1.818150E-08    (Note :  sqrt(determinant) = ellipse surface / pi)

************************************************************************************************************************************
      6  Keyword, label(s) :  MATRIX                                                


  Reference, before change of frame (part #     1)  : 
   0.00000000E+00   0.00000000E+00   0.00000000E+00   0.00000000E+00   0.00000000E+00   3.00000000E+03   1.01403485E-01

           Frame for MATRIX calculation moved by :
            XC =    0.000 cm , YC =    0.000 cm ,   A =  0.00000 deg  ( = 0.000000 rad )


  Reference, after change of frame (part #     1)  : 
   0.00000000E+00   0.00000000E+00   0.00000000E+00   0.00000000E+00   0.00000000E+00   3.00000000E+03   1.01403485E-01

  Reference particle (#     1), path length :   3000.0000     cm  relative momentum :    1.00000    


                  TRANSFER  MATRIX  ORDRE  1  (MKSA units)

          0.770582        0.441968        0.426011        0.244629         0.00000         0.00000    
         -0.389221        0.770146       -0.215460        0.426723         0.00000         0.00000    
         -0.426011       -0.244629        0.770582        0.441968         0.00000         0.00000    
          0.215460       -0.426723       -0.389221        0.770146         0.00000         0.00000    
           0.00000         0.00000         0.00000         0.00000         1.00000         0.00000    
           0.00000         0.00000         0.00000         0.00000         0.00000         1.00000    

          DetY-1 =      -0.2345167305,    DetZ-1 =      -0.2345167350

          R12=0 at  -0.5739     m,        R34=0 at  -0.5739     m

      First order symplectic conditions (expected values = 0) :
        -2.0261E-05   -2.0261E-05    7.2249E-04    3.9617E-04    4.3470E-04   -7.2248E-04

************************************************************************************************************************************
      7  Keyword, label(s) :  RESET                                                 


************************************************************************************************************************************
      8  Keyword, label(s) :  OBJET                                                 

                          MAGNETIC  RIGIDITY =        833.910 kG*cm

                                         CALCUL  DES  TRAJECTOIRES

                              OBJET  (5)  FORME  DE     11 POINTS 



                                Y (cm)         T (mrd)       Z (cm)        P (mrd)       S (cm)        dp/p 
               Sampling :          0.10          0.10          0.10          0.10           0.0          0.1000E-02
  Reference trajectry #      1 :    0.0           0.0           0.0           0.0           0.0           1.000    

************************************************************************************************************************************
      9  Keyword, label(s) :  SOLENOID                                              


      -----  SOLENOID    : 
                Length  of  element  :    3000.      cm
                Inner radius  RO =   1.000      cm
                B-CNTRL  =   16.00      kG ;   K=B/BORO =   1.9187E-02 /m ;   theor. angle  BL/(2*BORO) =    28.78     rad
                Entrance and exit integration extents : 
                       XE =   20.00     cm,   XS =   20.00     cm
                MODL =  1 -> Solenoid model is axial field model   

                    Integration step :   1.000     cm

  A    1  1.0000     0.000     0.000     0.000     0.000         3040.000     0.000     0.000     0.000     0.000            1
  A    1  1.0000     0.100     0.000     0.000     0.000         3040.000     0.079    -0.000    -0.039     0.000            2
  A    1  1.0000    -0.100     0.000     0.000     0.000         3040.000    -0.079     0.000     0.039    -0.000            3
  A    1  1.0000     0.000     0.100     0.000     0.000         3040.000     0.004     0.000    -0.002    -0.000            4
  A    1  1.0000     0.000    -0.100     0.000     0.000         3040.000    -0.004    -0.000     0.002     0.000            5
  A    1  1.0000     0.000     0.000     0.100     0.000         3040.000     0.039    -0.000     0.079    -0.000            6
  A    1  1.0000     0.000     0.000    -0.100     0.000         3040.000    -0.039     0.000    -0.079     0.000            7
  A    1  1.0000     0.000     0.000     0.000     0.100         3040.000     0.002     0.000     0.004     0.000            8
  A    1  1.0000     0.000     0.000     0.000    -0.100         3040.000    -0.002    -0.000    -0.004    -0.000            9
  A    1  1.0010     0.000     0.000     0.000     0.000         3040.000     0.000     0.000     0.000     0.000           10
  A    1  0.9990     0.000     0.000     0.000     0.000         3040.000     0.000     0.000     0.000     0.000           11

     KPOS =  1.  Change  of  frame  at  exit  of  element.
          X =   0.000     CM   Y =   0.000     cm,  tilt  angle =   0.00000     RAD


 Cumulative length of optical axis =    30.0000000     m ;  Time  (for ref. rigidity & particle) =   3.886716E-07 s 

************************************************************************************************************************************
     10  Keyword, label(s) :  FAISCEAU                                              

0                                             TRACE DU FAISCEAU
                                           (follows element #      9)
                                                 11 TRAJECTOIRES

                                   OBJET                                                  FAISCEAU

          D       Y(cm)     T(mr)     Z(cm)     P(mr)       S(cm)       D-1     Y(cm)    T(mr)    Z(cm)    P(mr)      S(cm)

O  1   1.0000     0.000     0.000     0.000     0.000       0.0000    0.0000    0.000    0.000    0.000    0.000   3.000000E+03     1
A  1   1.0000     0.100     0.000     0.000     0.000       0.0000    0.0000    0.079   -0.394   -0.039    0.219   3.000001E+03     2
B  1   1.0000    -0.100     0.000     0.000     0.000       0.0000    0.0000   -0.079    0.394    0.039   -0.219   3.000001E+03     3
C  1   1.0000     0.000     0.100     0.000     0.000       0.0000    0.0000    0.004    0.075   -0.002   -0.046   3.000000E+03     4
D  1   1.0000     0.000    -0.100     0.000     0.000       0.0000    0.0000   -0.004   -0.075    0.002    0.046   3.000000E+03     5
E  1   1.0000     0.000     0.000     0.100     0.000       0.0000    0.0000    0.039   -0.219    0.079   -0.394   3.000001E+03     6
F  1   1.0000     0.000     0.000    -0.100     0.000       0.0000    0.0000   -0.039    0.219   -0.079    0.394   3.000001E+03     7
G  1   1.0000     0.000     0.000     0.000     0.100       0.0000    0.0000    0.002    0.046    0.004    0.075   3.000000E+03     8
H  1   1.0000     0.000     0.000     0.000    -0.100       0.0000    0.0000   -0.002   -0.046   -0.004   -0.075   3.000000E+03     9
I  1   1.0010     0.000     0.000     0.000     0.000       0.0000    0.0010    0.000    0.000    0.000    0.000   3.000000E+03    10
J  1   0.9990     0.000     0.000     0.000     0.000       0.0000   -0.0010    0.000    0.000    0.000    0.000   3.000000E+03    11


------
  Characteristics of concentration ellipse (Surface, ALP, BET, <X>, <XP>, #prtcls, #prtcls inside ellips, ratio, space, pass#) : 

   5.7926E-08   3.8580E+00   7.6360E+00   0.000000E+00   0.000000E+00       11        7   0.6364      (Y,T)         1
   5.7926E-08   3.8580E+00   7.6360E+00   0.000000E+00   0.000000E+00       11        7   0.6364      (Z,P)         1
   6.3068E-09  -1.8692E-14   1.7666E-07   1.000692E-01   2.500000E+02       11        9   0.8182      (t,K)         1

(Y,T)  space (units : (cm,rd)   ) :  
      sigma_Y = sqrt(Surface/pi * BET) =   3.752271E-04
      sigma_T = sqrt(Surface/pi * (1+ALP^2)/BET) =   1.958441E-04

(Z,P)  space (units : (cm,rd)   ) :  
      sigma_Z = sqrt(Surface/pi * BET) =   3.752271E-04
      sigma_P = sqrt(Surface/pi * (1+ALP^2)/BET) =   1.958440E-04

(t,K)  space (units : (mu_s,MeV)) :  
      sigma_t = sqrt(Surface/pi * BET) =   1.883222E-08
      sigma_K = sqrt(Surface/pi * (1+ALP^2)/BET) =   1.066004E-01


  Beam  sigma  matrix : 

   1.407954E-07  -7.113519E-08  -2.682697E-22   3.069935E-09
  -7.113519E-08   3.835489E-08  -3.069936E-09   8.426211E-16
  -2.682697E-22  -3.069936E-09   1.407954E-07  -7.113518E-08
   3.069935E-09   8.426211E-16  -7.113518E-08   3.835489E-08

      sqrt(det_Y), sqrt(det_Z) :     1.843845E-08    1.843845E-08    (Note :  sqrt(determinant) = ellipse surface / pi)

************************************************************************************************************************************
     11  Keyword, label(s) :  MATRIX                                                


  Reference, before change of frame (part #     1)  : 
   0.00000000E+00   0.00000000E+00   0.00000000E+00   0.00000000E+00   0.00000000E+00   3.00000000E+03   1.00069229E-01

           Frame for MATRIX calculation moved by :
            XC =    0.000 cm , YC =    0.000 cm ,   A =  0.00000 deg  ( = 0.000000 rad )


  Reference, after change of frame (part #     1)  : 
   0.00000000E+00   0.00000000E+00   0.00000000E+00   0.00000000E+00   0.00000000E+00   3.00000000E+03   1.00069229E-01

  Reference particle (#     1), path length :   3000.0000     cm  relative momentum :    1.00000    


                  TRANSFER  MATRIX  ORDRE  1  (MKSA units)

          0.785507        0.441845        0.393449        0.244687         0.00000         0.00000    
         -0.394000        0.751841       -0.219064        0.455474         0.00000         0.00000    
         -0.393449       -0.244687        0.785507        0.441845         0.00000         0.00000    
          0.219064       -0.455474       -0.394000        0.751841         0.00000         0.00000    
           0.00000         0.00000         0.00000         0.00000         1.00000         0.00000    
           0.00000         0.00000         0.00000         0.00000         0.00000         1.00000    

          DetY-1 =      -0.2353370460,    DetZ-1 =      -0.2353370508

          R12=0 at  -0.5877     m,        R34=0 at  -0.5877     m

      First order symplectic conditions (expected values = 0) :
        -2.5293E-03   -2.5293E-03    6.1581E-02    3.4567E-02    3.4115E-02   -6.1581E-02

************************************************************************************************************************************
     12  Keyword, label(s) :  END                                                   


                            11 particles have been launched
                     Made  it  to  the  end :     11

************************************************************************************************************************************
 Pgm zgoubi : Execution ended normally, upon keyword END or FIN
   
            ZGOUBI RUN COMPLETED. 

  Zgoubi, author's dvlpmnt version.
  Job  started  on  03-03-2018,  at  16:22:43 
  JOB  ENDED  ON    03-03-2018,  AT  16:22:43 

   CPU time, total :     7.6745000000000008E-002
