Test field map generated using impdev2FieldMap
 'OBJET'                                                                                                      1
1839.090113 150MeV
2
50 1
4.452339E+02 -5.469942E-05  0.0E+00  0.0  0.0    2.73043E-01  5.07794047E-02 'o'        12.00 MeV
4.483441E+02  1.038621E-06  0.0E+00  0.0  0.0    2.89991E-01  4.82243922E-02 'o'        13.53 MeV
4.512984E+02 -3.701966E-06  0.0E+00  0.0  0.0    3.06940E-01  4.59408608E-02 'o'        15.14 MeV
4.541126E+02 -2.635488E-05  0.0E+00  0.0  0.0    3.23888E-01  4.38877155E-02 'o'        16.84 MeV
4.568001E+02 -2.875109E-05  0.0E+00  0.0  0.0    3.40837E-01  4.20318179E-02 'o'        18.63 MeV
4.593725E+02  3.376854E-05  0.0E+00  0.0  0.0    3.57786E-01  4.03461458E-02 'o'        20.51 MeV
4.618398E+02 -2.406164E-05  0.0E+00  0.0  0.0    3.74734E-01  3.88084368E-02 'o'        22.48 MeV
4.642108E+02  3.351937E-05  0.0E+00  0.0  0.0    3.91683E-01  3.74001733E-02 'o'        24.53 MeV
4.664931E+02 -8.905925E-06  0.0E+00  0.0  0.0    4.08631E-01  3.61058321E-02 'o'        26.67 MeV
4.686936E+02  3.704589E-05  0.0E+00  0.0  0.0    4.25580E-01  3.49122907E-02 'o'        28.89 MeV
4.708182E+02 -1.777949E-05  0.0E+00  0.0  0.0    4.42529E-01  3.38083861E-02 'o'        31.20 MeV
4.728723E+02  3.412252E-06  0.0E+00  0.0  0.0    4.59477E-01  3.27845528E-02 'o'        33.60 MeV
4.748608E+02 -2.752490E-05  0.0E+00  0.0  0.0    4.76426E-01  3.18325520E-02 'o'        36.08 MeV
4.767879E+02  3.449391E-05  0.0E+00  0.0  0.0    4.93374E-01  3.09452426E-02 'o'        38.64 MeV
4.786575E+02 -6.880100E-06  0.0E+00  0.0  0.0    5.10323E-01  3.01164088E-02 'o'        41.28 MeV
4.804732E+02  1.289659E-06  0.0E+00  0.0  0.0    5.27272E-01  2.93406081E-02 'o'        44.00 MeV
4.822382E+02  8.518464E-07  0.0E+00  0.0  0.0    5.44220E-01  2.86130586E-02 'o'        46.81 MeV
4.839554E+02  9.091073E-06  0.0E+00  0.0  0.0    5.61169E-01  2.79295393E-02 'o'        49.70 MeV
4.856275E+02  1.186402E-05  0.0E+00  0.0  0.0    5.78117E-01  2.72863092E-02 'o'        52.66 MeV
4.872570E+02 -2.158836E-05  0.0E+00  0.0  0.0    5.95066E-01  2.66800422E-02 'o'        55.71 MeV
4.888460E+02  9.083364E-06  0.0E+00  0.0  0.0    6.12014E-01  2.61077688E-02 'o'        58.83 MeV
4.903967E+02  2.433745E-05  0.0E+00  0.0  0.0    6.28963E-01  2.55668314E-02 'o'        62.03 MeV
4.919111E+02 -2.777928E-05  0.0E+00  0.0  0.0    6.45912E-01  2.50548430E-02 'o'        65.31 MeV
4.933907E+02  2.801070E-05  0.0E+00  0.0  0.0    6.62860E-01  2.45696519E-02 'o'        68.66 MeV
4.948374E+02  2.984880E-05  0.0E+00  0.0  0.0    6.79809E-01  2.41093171E-02 'o'        72.09 MeV
4.962527E+02 -3.347010E-06  0.0E+00  0.0  0.0    6.96757E-01  2.36720793E-02 'o'        75.60 MeV
4.976379E+02  5.561397E-06  0.0E+00  0.0  0.0    7.13706E-01  2.32563413E-02 'o'        79.17 MeV
4.989944E+02  1.119926E-05  0.0E+00  0.0  0.0    7.30655E-01  2.28606501E-02 'o'        82.82 MeV
5.003235E+02 -2.484679E-05  0.0E+00  0.0  0.0    7.47603E-01  2.24836807E-02 'o'        86.55 MeV
5.016262E+02 -2.879121E-06  0.0E+00  0.0  0.0    7.64552E-01  2.21242211E-02 'o'        90.34 MeV
5.029037E+02  5.333388E-06  0.0E+00  0.0  0.0    7.81500E-01  2.17811623E-02 'o'        94.21 MeV
5.041570E+02  1.115769E-05  0.0E+00  0.0  0.0    7.98449E-01  2.14534863E-02 'o'        98.14 MeV
5.053871E+02 -1.135217E-05  0.0E+00  0.0  0.0    8.15398E-01  2.11402568E-02 'o'       102.14 MeV
5.065948E+02  1.253134E-07  0.0E+00  0.0  0.0    8.32346E-01  2.08406116E-02 'o'       106.21 MeV
5.077810E+02  1.295775E-05  0.0E+00  0.0  0.0    8.49295E-01  2.05537555E-02 'o'       110.35 MeV
5.089465E+02  2.650885E-05  0.0E+00  0.0  0.0    8.66243E-01  2.02789535E-02 'o'       114.56 MeV
5.100921E+02  1.414789E-05  0.0E+00  0.0  0.0    8.83192E-01  2.00155253E-02 'o'       118.83 MeV
5.112185E+02 -1.677031E-05  0.0E+00  0.0  0.0    9.00140E-01  1.97628404E-02 'o'       123.17 MeV
5.123263E+02 -1.922112E-05  0.0E+00  0.0  0.0    9.17089E-01  1.95203130E-02 'o'       127.57 MeV
5.134162E+02  3.062539E-05  0.0E+00  0.0  0.0    9.34038E-01  1.92873987E-02 'o'       132.03 MeV
5.144887E+02  1.469722E-05  0.0E+00  0.0  0.0    9.50986E-01  1.90635917E-02 'o'       136.56 MeV
5.155446E+02 -2.145662E-05  0.0E+00  0.0  0.0    9.67935E-01  1.88484196E-02 'o'       141.15 MeV
5.165842E+02  1.263678E-05  0.0E+00  0.0  0.0    9.84883E-01  1.86414411E-02 'o'       145.80 MeV
5.176082E+02  5.730596E-06  0.0E+00  0.0  0.0    1.00183E+00  1.84422454E-02 'o'       150.51 MeV
5.186170E+02  1.773351E-05  0.0E+00  0.0  0.0    1.01878E+00  1.82504466E-02 'o'       155.28 MeV
5.196111E+02  2.991465E-05  0.0E+00  0.0  0.0    1.03573E+00  1.80656843E-02 'o'       160.11 MeV
5.205910E+02  1.138594E-05  0.0E+00  0.0  0.0    1.05268E+00  1.78876209E-02 'o'       165.00 MeV
5.215571E+02 -2.037627E-05  0.0E+00  0.0  0.0    1.06963E+00  1.77159388E-02 'o'       169.94 MeV
5.225097E+02  8.038450E-07  0.0E+00  0.0  0.0    1.08658E+00  1.75503396E-02 'o'       174.94 MeV
5.234493E+02  8.635152E-06  0.0E+00  0.0  0.0    1.10352E+00  1.73905436E-02 'o'       180.00 MeV
1 1 1 1 1  1 1 1 1 1
1 1 1 1 1  1 1 1 1 1
1 1 1 1 1  1 1 1 1 1
1 1 1 1 1  1 1 1 1 1
1 1 1 1 1  1 1 1 1 1
 
 'PARTICUL'                                                                                                   2
938.2723 1.60217733D-19 0. 0. 0.
 
!'FAISTORE'
!  zgoubi.fai #START
!1
 
 'TOSCA'    #START                                                                                            3
0  20
1.   1.   1. 1.    ! (convert B->kG, angle->rad, radius->cm, z->cm)
HEADER_5   FFAG 150MeV
567 61 5   24      ! IX(angle) JY(radius) KZ  MOD(no symm)
./impdev2FieldMap.out
0 0 0 0
2
.15
2
0. 0. 0. 0.
 'DRIFT'                                                                                                      4
0.
 'FAISCEAU'   #END                                                                                            5
 
! 'MATRIX'                                                                                                     6
!1  11
 
 'END'                                                                                                        6

************************************************************************************************************************************
      1  Keyword, label(s) :  OBJET                                                                                    IPASS= 1

                          MAGNETIC  RIGIDITY =       1839.090 kG*cm

                                         TRAJECTOIRY SETTING UP

                              OBJET  (2)  BUILT  UP  FROM      50 POINTS 



************************************************************************************************************************************
      2  Keyword, label(s) :  PARTICUL                                                                                 IPASS= 1

     Particle  properties :
     Particle name unknown.
                     Mass          =    938.272        MeV/c2
                     Charge        =   1.602177E-19    C     

              Reference  data :
                    mag. rigidity (kG.cm)   :   1839.0901      =p/q, such that dev.=B*L/rigidity
                    mass (MeV/c2)           :   938.27230    
                    momentum (MeV/c)        :   551.34564    
                    energy, total (MeV)     :   1088.2724    
                    energy, kinetic (MeV)   :   150.00015    
                    beta = v/c              :  0.5066246390    
                    gamma                   :   1.159868459    
                    beta*gamma              :  0.5876179394    
                    electric rigidity (MeV) :   279.3254305    =T[eV]*(gamma+1)/gamma, such that dev.=E*L/rigidity
  
 I, AMQ(1,I), AMQ(2,I)/QE, P/Pref, v/c, time, s :
  
     1   9.38272300E+02  1.00000053E+00  2.73043000E-01  1.58418866E-01  0.00000000E+00  0.00000000E+00
     2   9.38272300E+02  1.00000053E+00  2.89991000E-01  1.67982471E-01  0.00000000E+00  0.00000000E+00
     3   9.38272300E+02  1.00000053E+00  3.06940000E-01  1.77499441E-01  0.00000000E+00  0.00000000E+00
     4   9.38272300E+02  1.00000053E+00  3.23888000E-01  1.86966316E-01  0.00000000E+00  0.00000000E+00
     5   9.38272300E+02  1.00000053E+00  3.40837000E-01  1.96381941E-01  0.00000000E+00  0.00000000E+00
     6   9.38272300E+02  1.00000053E+00  3.57786000E-01  2.05743554E-01  0.00000000E+00  0.00000000E+00
     7   9.38272300E+02  1.00000053E+00  3.74734000E-01  2.15048474E-01  0.00000000E+00  0.00000000E+00
     8   9.38272300E+02  1.00000053E+00  3.91683000E-01  2.24295740E-01  0.00000000E+00  0.00000000E+00
     9   9.38272300E+02  1.00000053E+00  4.08631000E-01  2.33482274E-01  0.00000000E+00  0.00000000E+00
    10   9.38272300E+02  1.00000053E+00  4.25580000E-01  2.42607247E-01  0.00000000E+00  0.00000000E+00
    11   9.38272300E+02  1.00000053E+00  4.42529000E-01  2.51668281E-01  0.00000000E+00  0.00000000E+00
    12   9.38272300E+02  1.00000053E+00  4.59477000E-01  2.60663088E-01  0.00000000E+00  0.00000000E+00
    13   9.38272300E+02  1.00000053E+00  4.76426000E-01  2.69591049E-01  0.00000000E+00  0.00000000E+00
    14   9.38272300E+02  1.00000053E+00  4.93374000E-01  2.78449510E-01  0.00000000E+00  0.00000000E+00
    15   9.38272300E+02  1.00000053E+00  5.10323000E-01  2.87237993E-01  0.00000000E+00  0.00000000E+00
    16   9.38272300E+02  1.00000053E+00  5.27272000E-01  2.95954530E-01  0.00000000E+00  0.00000000E+00
    17   9.38272300E+02  1.00000053E+00  5.44220000E-01  3.04597248E-01  0.00000000E+00  0.00000000E+00
    18   9.38272300E+02  1.00000053E+00  5.61169000E-01  3.13165883E-01  0.00000000E+00  0.00000000E+00
    19   9.38272300E+02  1.00000053E+00  5.78117000E-01  3.21658217E-01  0.00000000E+00  0.00000000E+00
    20   9.38272300E+02  1.00000053E+00  5.95066000E-01  3.30074125E-01  0.00000000E+00  0.00000000E+00
    21   9.38272300E+02  1.00000053E+00  6.12014000E-01  3.38411564E-01  0.00000000E+00  0.00000000E+00
    22   9.38272300E+02  1.00000053E+00  6.28963000E-01  3.46670545E-01  0.00000000E+00  0.00000000E+00
    23   9.38272300E+02  1.00000053E+00  6.45912000E-01  3.54849677E-01  0.00000000E+00  0.00000000E+00
    24   9.38272300E+02  1.00000053E+00  6.62860000E-01  3.62947663E-01  0.00000000E+00  0.00000000E+00
    25   9.38272300E+02  1.00000053E+00  6.79809000E-01  3.70964712E-01  0.00000000E+00  0.00000000E+00
    26   9.38272300E+02  1.00000053E+00  6.96757000E-01  3.78899202E-01  0.00000000E+00  0.00000000E+00
    27   9.38272300E+02  1.00000053E+00  7.13706000E-01  3.86751467E-01  0.00000000E+00  0.00000000E+00
    28   9.38272300E+02  1.00000053E+00  7.30655000E-01  3.94520504E-01  0.00000000E+00  0.00000000E+00
    29   9.38272300E+02  1.00000053E+00  7.47603000E-01  4.02205397E-01  0.00000000E+00  0.00000000E+00
    30   9.38272300E+02  1.00000053E+00  7.64552000E-01  4.09806655E-01  0.00000000E+00  0.00000000E+00
    31   9.38272300E+02  1.00000053E+00  7.81500000E-01  4.17323050E-01  0.00000000E+00  0.00000000E+00
    32   9.38272300E+02  1.00000053E+00  7.98449000E-01  4.24755199E-01  0.00000000E+00  0.00000000E+00
    33   9.38272300E+02  1.00000053E+00  8.15398000E-01  4.32102450E-01  0.00000000E+00  0.00000000E+00
    34   9.38272300E+02  1.00000053E+00  8.32346000E-01  4.39364230E-01  0.00000000E+00  0.00000000E+00
    35   9.38272300E+02  1.00000053E+00  8.49295000E-01  4.46541307E-01  0.00000000E+00  0.00000000E+00
    36   9.38272300E+02  1.00000053E+00  8.66243000E-01  4.53632802E-01  0.00000000E+00  0.00000000E+00
    37   9.38272300E+02  1.00000053E+00  8.83192000E-01  4.60639572E-01  0.00000000E+00  0.00000000E+00
    38   9.38272300E+02  1.00000053E+00  9.00140000E-01  4.67560864E-01  0.00000000E+00  0.00000000E+00
    39   9.38272300E+02  1.00000053E+00  9.17089000E-01  4.74397621E-01  0.00000000E+00  0.00000000E+00
    40   9.38272300E+02  1.00000053E+00  9.34038000E-01  4.81149602E-01  0.00000000E+00  0.00000000E+00
    41   9.38272300E+02  1.00000053E+00  9.50986000E-01  4.87816638E-01  0.00000000E+00  0.00000000E+00
    42   9.38272300E+02  1.00000053E+00  9.67935000E-01  4.94399776E-01  0.00000000E+00  0.00000000E+00
    43   9.38272300E+02  1.00000053E+00  9.84883000E-01  5.00898548E-01  0.00000000E+00  0.00000000E+00
    44   9.38272300E+02  1.00000053E+00  1.00183000E+00  5.07313313E-01  0.00000000E+00  0.00000000E+00
    45   9.38272300E+02  1.00000053E+00  1.01878000E+00  5.13645957E-01  0.00000000E+00  0.00000000E+00
    46   9.38272300E+02  1.00000053E+00  1.03573000E+00  5.19895759E-01  0.00000000E+00  0.00000000E+00
    47   9.38272300E+02  1.00000053E+00  1.05268000E+00  5.26063175E-01  0.00000000E+00  0.00000000E+00
    48   9.38272300E+02  1.00000053E+00  1.06963000E+00  5.32148695E-01  0.00000000E+00  0.00000000E+00
    49   9.38272300E+02  1.00000053E+00  1.08658000E+00  5.38152841E-01  0.00000000E+00  0.00000000E+00
    50   9.38272300E+02  1.00000053E+00  1.10352000E+00  5.44072692E-01  0.00000000E+00  0.00000000E+00

************************************************************************************************************************************
      3  Keyword, label(s) :  TOSCA       #START                                                                       IPASS= 1


                OPEN FILE zgoubi.plt                                                                      
                FOR PRINTING TRAJECTORIES


     NDIM =   3 ;  Number of data file sets used is   1 ;  Stored in field array # IMAP =    1 ;  
     Value of MOD.MOD2 is 24.0

     ZroBXY OPTION :  absent from map title. BX and BY values in Z=0 plane left as read.

          New field map(s) now used, polar mesh (MOD .ge. 20) ;  name(s) of map data file(s) are : 
          './impdev2FieldMap.out'

   ----
   Map file number    1 ( of 1) :

     ./impdev2FieldMap.out map,  FORMAT type : regular
 HEADER  (5 lines) : 
       440.00    2.00    0.05300353356890    1.00       ! R_min (cm), DR (cm), DTTA (deg), DZ (cm)                           
     # Field map generated using impdev2FieldMap                                                                             
     # AT/deg   RM/cm   xpas/cm  dR/cm  dZ/cm  ia jr  kz :                                                                   
     #  3.000000E+01   5.000000E+02   4.625431E-01   2.000000E+00   1.000000E+00   567    61     5                           
     #  theta/rad    R/cm    Z/cm      B_theta   B_R    B_Z                                                                  
 
R_min (cm), DR (cm), DTTA (deg), DZ (cm) :   4.400000E+02  2.000000E+00  5.300353E-02  1.000000E+00



     Field map limits, angle :  min, max, max-min (rad) :  -0.26179939E+00   0.26179939E+00   0.52359878E+00
     Field map limits, radius :  min, max, max-min (cm) :   0.44000000E+03   0.56000000E+03   0.12000000E+03
      Min / max  fields  drawn  from  map  data :   -16.499                     /    22.908    
       @  X-node, Y-node, Z-node :               9.251E-02  560.      0.00      /  0.182      560.      0.00    
     Normalisation  coeff.  BNORM   :   1.00000    
     Field  min/max  normalised  :               -16.499        /    22.908    
     Nbre  of  nodes  in  X/Y/Z :  567/  61/   5
     Node  distance  in   X/Y/Z :   9.250862E-04/   2.00000    /   1.00000    

                     Option  for  interpolation :  3-D  grid    3*3*3  points,   interpolation  at  ordre  2

                    Integration step :  0.1500     cm   (i.e.,   3.0000E-04 rad  at mean radius RM =    500.0    )

                               KPOS = 2.  Position of reference orbit on mechanical  faces
                                         at entrance    RE =   0.00000     cm  TE =   0.00000     rad
                                         at exit        RS =   0.00000     cm  TS =   0.00000     rad

  A    1  0.2730   445.234    -0.000     0.000     0.000            0.262   445.234    -0.000     0.000     0.000            1
  A    1  0.2900   448.344     0.000     0.000     0.000            0.262   448.345     0.000     0.000     0.000            2
  A    1  0.3069   451.298    -0.000     0.000     0.000            0.262   451.298    -0.000     0.000     0.000            3
  A    1  0.3239   454.113    -0.000     0.000     0.000            0.262   454.113     0.000     0.000     0.000            4
  A    1  0.3408   456.800    -0.000     0.000     0.000            0.262   456.800    -0.000     0.000     0.000            5
  A    1  0.3578   459.373     0.000     0.000     0.000            0.262   459.372    -0.000     0.000     0.000            6
  A    1  0.3747   461.840    -0.000     0.000     0.000            0.262   461.840     0.000     0.000     0.000            7
  A    1  0.3917   464.211     0.000     0.000     0.000            0.262   464.211    -0.000     0.000     0.000            8
  A    1  0.4086   466.493    -0.000     0.000     0.000            0.262   466.493    -0.000     0.000     0.000            9
  A    1  0.4256   468.694     0.000     0.000     0.000            0.262   468.693    -0.000     0.000     0.000           10
  A    1  0.4425   470.818    -0.000     0.000     0.000            0.262   470.818     0.000     0.000     0.000           11
  A    1  0.4595   472.872     0.000     0.000     0.000            0.262   472.872    -0.000     0.000     0.000           12
  A    1  0.4764   474.861    -0.000     0.000     0.000            0.262   474.861     0.000     0.000     0.000           13
  A    1  0.4934   476.788     0.000     0.000     0.000            0.262   476.788    -0.000     0.000     0.000           14
  A    1  0.5103   478.658    -0.000     0.000     0.000            0.262   478.658    -0.000     0.000     0.000           15
  A    1  0.5273   480.473     0.000     0.000     0.000            0.262   480.474     0.000     0.000     0.000           16
  A    1  0.5442   482.238     0.000     0.000     0.000            0.262   482.238     0.000     0.000     0.000           17
  A    1  0.5612   483.955     0.000     0.000     0.000            0.262   483.956     0.000     0.000     0.000           18
  A    1  0.5781   485.627     0.000     0.000     0.000            0.262   485.627    -0.000     0.000     0.000           19
  A    1  0.5951   487.257    -0.000     0.000     0.000            0.262   487.256    -0.000     0.000     0.000           20
  A    1  0.6120   488.846     0.000     0.000     0.000            0.262   488.844    -0.000     0.000     0.000           21
  A    1  0.6290   490.397     0.000     0.000     0.000            0.262   490.396    -0.000     0.000     0.000           22
  A    1  0.6459   491.911    -0.000     0.000     0.000            0.262   491.912     0.000     0.000     0.000           23
  A    1  0.6629   493.391     0.000     0.000     0.000            0.262   493.391     0.000     0.000     0.000           24
  A    1  0.6798   494.837     0.000     0.000     0.000            0.262   494.837    -0.000     0.000     0.000           25
  A    1  0.6968   496.253    -0.000     0.000     0.000            0.262   496.252    -0.000     0.000     0.000           26
  A    1  0.7137   497.638     0.000     0.000     0.000            0.262   497.637    -0.000     0.000     0.000           27
  A    1  0.7307   498.994     0.000     0.000     0.000            0.262   498.993    -0.000     0.000     0.000           28
  A    1  0.7476   500.324    -0.000     0.000     0.000            0.262   500.322    -0.000     0.000     0.000           29
  A    1  0.7646   501.626    -0.000     0.000     0.000            0.262   501.626    -0.000     0.000     0.000           30
  A    1  0.7815   502.904     0.000     0.000     0.000            0.262   502.903    -0.000     0.000     0.000           31
  A    1  0.7984   504.157     0.000     0.000     0.000            0.262   504.157    -0.000     0.000     0.000           32
  A    1  0.8154   505.387    -0.000     0.000     0.000            0.262   505.387     0.000     0.000     0.000           33
  A    1  0.8323   506.595     0.000     0.000     0.000            0.262   506.595     0.000     0.000     0.000           34
  A    1  0.8493   507.781     0.000     0.000     0.000            0.262   507.782     0.000     0.000     0.000           35
  A    1  0.8662   508.947     0.000     0.000     0.000            0.262   508.947     0.000     0.000     0.000           36
  A    1  0.8832   510.092     0.000     0.000     0.000            0.262   510.092     0.000     0.000     0.000           37
  A    1  0.9001   511.219    -0.000     0.000     0.000            0.262   511.218    -0.000     0.000     0.000           38
  A    1  0.9171   512.326    -0.000     0.000     0.000            0.262   512.325    -0.000     0.000     0.000           39
  A    1  0.9340   513.416     0.000     0.000     0.000            0.262   513.416    -0.000     0.000     0.000           40
  A    1  0.9510   514.489     0.000     0.000     0.000            0.262   514.488    -0.000     0.000     0.000           41
  A    1  0.9679   515.545    -0.000     0.000     0.000            0.262   515.545     0.000     0.000     0.000           42
  A    1  0.9849   516.584     0.000     0.000     0.000            0.262   516.583    -0.000     0.000     0.000           43
  A    1  1.0018   517.608     0.000     0.000     0.000            0.262   517.607    -0.000     0.000     0.000           44
  A    1  1.0188   518.617     0.000     0.000     0.000            0.262   518.615    -0.000     0.000     0.000           45
  A    1  1.0357   519.611     0.000     0.000     0.000            0.262   519.610    -0.000     0.000     0.000           46
  A    1  1.0527   520.591     0.000     0.000     0.000            0.262   520.590    -0.000     0.000     0.000           47
  A    1  1.0696   521.557    -0.000     0.000     0.000            0.262   521.557     0.000     0.000     0.000           48
  A    1  1.0866   522.510     0.000     0.000     0.000            0.262   522.510     0.000     0.000     0.000           49
  A    1  1.1035   523.449     0.000     0.000     0.000            0.262   523.450     0.000     0.000     0.000           50


                CONDITIONS  DE  MAXWELL  (    88877.  PAS )  :
                       DIV(B)        LAPLACIEN(B)     ROTATIONNEL(B)
                      0.000            0.000             0.000    
                                       0.000             0.000    
                                       0.000             0.000    
                       LAPLACIEN SCALAIRE =   0.000    



 Cumulative length of optical axis =    0.00000000     m ;  Time  (for ref. rigidity & particle) =    0.00000     s 

************************************************************************************************************************************
      4  Keyword, label(s) :  DRIFT                                                                                    IPASS= 1


                              Drift,  length =     0.00000  cm

TRAJ #1 IEX,D,Y,T,Z,P,S,time :  1 -7.269570E-01  4.452338E+02 -9.094788E-04  0.000000E+00  0.000000E+00  2.4116501E+02  5.07793E-02

 Cumulative length of optical axis =    0.00000000     m   ;  Time  (for reference rigidity & particle) =    0.00000     s 

************************************************************************************************************************************
      5  Keyword, label(s) :  FAISCEAU    #END                                                                         IPASS= 1

0                                             TRACE DU FAISCEAU
                                           (follows element #      4)
                                                 50 TRAJECTOIRES

                                   OBJET                                                  FAISCEAU

          D       Y(cm)     T(mr)     Z(cm)     P(mr)       S(cm)      D-1     Y(cm)    T(mr)    Z(cm)    P(mr)      S(cm)

5  1   0.2730   445.234    -0.000     0.000     0.000      0.0000   -0.7270  445.234   -0.001    0.000    0.000   2.411650E+02     1
               Time of flight (mus) :  5.07792985E-02 mass (MeV/c2) :   938.272    
4  1   0.2900   448.344     0.000     0.000     0.000      0.0000   -0.7100  448.345    0.003    0.000    0.000   2.428577E+02     2
               Time of flight (mus) :  4.82244409E-02 mass (MeV/c2) :   938.272    
4  1   0.3069   451.298    -0.000     0.000     0.000      0.0000   -0.6931  451.298   -0.001    0.000    0.000   2.444648E+02     3
               Time of flight (mus) :  4.59408010E-02 mass (MeV/c2) :   938.272    
4  1   0.3239   454.113    -0.000     0.000     0.000      0.0000   -0.6761  454.113    0.002    0.000    0.000   2.459958E+02     4
               Time of flight (mus) :  4.38877744E-02 mass (MeV/c2) :   938.272    
4  1   0.3408   456.800    -0.000     0.000     0.000      0.0000   -0.6592  456.800   -0.004    0.000    0.000   2.474572E+02     5
               Time of flight (mus) :  4.20317907E-02 mass (MeV/c2) :   938.272    
4  1   0.3578   459.373     0.000     0.000     0.000      0.0000   -0.6422  459.372   -0.007    0.000    0.000   2.488561E+02     6
               Time of flight (mus) :  4.03460757E-02 mass (MeV/c2) :   938.272    
3  1   0.3747   461.840    -0.000     0.000     0.000      0.0000   -0.6253  461.840    0.002    0.000    0.000   2.501977E+02     7
               Time of flight (mus) :  3.88084385E-02 mass (MeV/c2) :   938.272    
3  1   0.3917   464.211     0.000     0.000     0.000      0.0000   -0.6083  464.211   -0.000    0.000    0.000   2.514868E+02     8
               Time of flight (mus) :  3.74001588E-02 mass (MeV/c2) :   938.272    
3  1   0.4086   466.493    -0.000     0.000     0.000      0.0000   -0.5914  466.493   -0.001    0.000    0.000   2.527274E+02     9
               Time of flight (mus) :  3.61058563E-02 mass (MeV/c2) :   938.272    
3  1   0.4256   468.694     0.000     0.000     0.000      0.0000   -0.5744  468.693   -0.003    0.000    0.000   2.539234E+02    10
               Time of flight (mus) :  3.49122809E-02 mass (MeV/c2) :   938.272    
3  1   0.4425   470.818    -0.000     0.000     0.000      0.0000   -0.5575  470.818    0.001    0.000    0.000   2.550778E+02    11
               Time of flight (mus) :  3.38083138E-02 mass (MeV/c2) :   938.272    
3  1   0.4595   472.872     0.000     0.000     0.000      0.0000   -0.5405  472.872   -0.001    0.000    0.000   2.561942E+02    12
               Time of flight (mus) :  3.27845405E-02 mass (MeV/c2) :   938.272    
3  1   0.4764   474.861    -0.000     0.000     0.000      0.0000   -0.5236  474.861    0.004    0.000    0.000   2.572748E+02    13
               Time of flight (mus) :  3.18325233E-02 mass (MeV/c2) :   938.272    
3  1   0.4934   476.788     0.000     0.000     0.000      0.0000   -0.5066  476.788   -0.003    0.000    0.000   2.583218E+02    14
               Time of flight (mus) :  3.09452435E-02 mass (MeV/c2) :   938.272    
3  1   0.5103   478.658    -0.000     0.000     0.000      0.0000   -0.4897  478.658   -0.000    0.000    0.000   2.593377E+02    15
               Time of flight (mus) :  3.01163986E-02 mass (MeV/c2) :   938.272    
2  1   0.5273   480.473     0.000     0.000     0.000      0.0000   -0.4727  480.474    0.004    0.000    0.000   2.603241E+02    16
               Time of flight (mus) :  2.93405840E-02 mass (MeV/c2) :   938.272    
2  1   0.5442   482.238     0.000     0.000     0.000      0.0000   -0.4558  482.238    0.001    0.000    0.000   2.612828E+02    17
               Time of flight (mus) :  2.86130543E-02 mass (MeV/c2) :   938.272    
2  1   0.5612   483.955     0.000     0.000     0.000      0.0000   -0.4388  483.956    0.006    0.000    0.000   2.622155E+02    18
               Time of flight (mus) :  2.79295051E-02 mass (MeV/c2) :   938.272    
2  1   0.5781   485.627     0.000     0.000     0.000      0.0000   -0.4219  485.627   -0.002    0.000    0.000   2.631236E+02    19
               Time of flight (mus) :  2.72862867E-02 mass (MeV/c2) :   938.272    
2  1   0.5951   487.257    -0.000     0.000     0.000      0.0000   -0.4049  487.256   -0.009    0.000    0.000   2.640086E+02    20
               Time of flight (mus) :  2.66800005E-02 mass (MeV/c2) :   938.272    
2  1   0.6120   488.846     0.000     0.000     0.000      0.0000   -0.3880  488.844   -0.012    0.000    0.000   2.648717E+02    21
               Time of flight (mus) :  2.61077632E-02 mass (MeV/c2) :   938.272    
2  1   0.6290   490.397     0.000     0.000     0.000      0.0000   -0.3710  490.396   -0.003    0.000    0.000   2.657140E+02    22
               Time of flight (mus) :  2.55668226E-02 mass (MeV/c2) :   938.272    
2  1   0.6459   491.911    -0.000     0.000     0.000      0.0000   -0.3541  491.912    0.007    0.000    0.000   2.665364E+02    23
               Time of flight (mus) :  2.50548277E-02 mass (MeV/c2) :   938.272    
2  1   0.6629   493.391     0.000     0.000     0.000      0.0000   -0.3371  493.391    0.003    0.000    0.000   2.673397E+02    24
               Time of flight (mus) :  2.45696351E-02 mass (MeV/c2) :   938.272    
2  1   0.6798   494.837     0.000     0.000     0.000      0.0000   -0.3202  494.837   -0.006    0.000    0.000   2.681252E+02    25
               Time of flight (mus) :  2.41092889E-02 mass (MeV/c2) :   938.272    
2  1   0.6968   496.253    -0.000     0.000     0.000      0.0000   -0.3032  496.252   -0.008    0.000    0.000   2.688940E+02    26
               Time of flight (mus) :  2.36720990E-02 mass (MeV/c2) :   938.272    
2  1   0.7137   497.638     0.000     0.000     0.000      0.0000   -0.2863  497.637   -0.004    0.000    0.000   2.696459E+02    27
               Time of flight (mus) :  2.32563290E-02 mass (MeV/c2) :   938.272    
2  1   0.7307   498.994     0.000     0.000     0.000      0.0000   -0.2693  498.993   -0.014    0.000    0.000   2.703823E+02    28
               Time of flight (mus) :  2.28606167E-02 mass (MeV/c2) :   938.272    
2  1   0.7476   500.324    -0.000     0.000     0.000      0.0000   -0.2524  500.322   -0.012    0.000    0.000   2.711042E+02    29
               Time of flight (mus) :  2.24836952E-02 mass (MeV/c2) :   938.272    
2  1   0.7646   501.626    -0.000     0.000     0.000      0.0000   -0.2354  501.626   -0.001    0.000    0.000   2.718112E+02    30
               Time of flight (mus) :  2.21242046E-02 mass (MeV/c2) :   938.272    
2  1   0.7815   502.904     0.000     0.000     0.000      0.0000   -0.2185  502.903   -0.009    0.000    0.000   2.725046E+02    31
               Time of flight (mus) :  2.17811472E-02 mass (MeV/c2) :   938.272    
2  1   0.7984   504.157     0.000     0.000     0.000      0.0000   -0.2016  504.157   -0.001    0.000    0.000   2.731854E+02    32
               Time of flight (mus) :  2.14534927E-02 mass (MeV/c2) :   938.272    
2  1   0.8154   505.387    -0.000     0.000     0.000      0.0000   -0.1846  505.387    0.000    0.000    0.000   2.738527E+02    33
               Time of flight (mus) :  2.11402268E-02 mass (MeV/c2) :   938.272    
2  1   0.8323   506.595     0.000     0.000     0.000      0.0000   -0.1677  506.595    0.000    0.000    0.000   2.745085E+02    34
               Time of flight (mus) :  2.08406056E-02 mass (MeV/c2) :   938.272    
2  1   0.8493   507.781     0.000     0.000     0.000      0.0000   -0.1507  507.782    0.010    0.000    0.000   2.751525E+02    35
               Time of flight (mus) :  2.05537524E-02 mass (MeV/c2) :   938.272    
2  1   0.8662   508.947     0.000     0.000     0.000      0.0000   -0.1338  508.947    0.000    0.000    0.000   2.757848E+02    36
               Time of flight (mus) :  2.02789347E-02 mass (MeV/c2) :   938.272    
2  1   0.8832   510.092     0.000     0.000     0.000      0.0000   -0.1168  510.092    0.002    0.000    0.000   2.764069E+02    37
               Time of flight (mus) :  2.00155258E-02 mass (MeV/c2) :   938.272    
1  1   0.9001   511.219    -0.000     0.000     0.000      0.0000   -0.0999  511.218   -0.002    0.000    0.000   2.770180E+02    38
               Time of flight (mus) :  1.97628283E-02 mass (MeV/c2) :   938.272    
1  1   0.9171   512.326    -0.000     0.000     0.000      0.0000   -0.0829  512.325   -0.007    0.000    0.000   2.776195E+02    39
               Time of flight (mus) :  1.95203145E-02 mass (MeV/c2) :   938.272    
1  1   0.9340   513.416     0.000     0.000     0.000      0.0000   -0.0660  513.416   -0.004    0.000    0.000   2.782109E+02    40
               Time of flight (mus) :  1.92873847E-02 mass (MeV/c2) :   938.272    
1  1   0.9510   514.489     0.000     0.000     0.000      0.0000   -0.0490  514.488   -0.002    0.000    0.000   2.787931E+02    41
               Time of flight (mus) :  1.90635925E-02 mass (MeV/c2) :   938.272    
1  1   0.9679   515.545    -0.000     0.000     0.000      0.0000   -0.0321  515.545    0.002    0.000    0.000   2.793661E+02    42
               Time of flight (mus) :  1.88484120E-02 mass (MeV/c2) :   938.272    
1  1   0.9849   516.584     0.000     0.000     0.000      0.0000   -0.0151  516.583   -0.012    0.000    0.000   2.799303E+02    43
               Time of flight (mus) :  1.86414380E-02 mass (MeV/c2) :   938.272    
1  1   1.0018   517.608     0.000     0.000     0.000      0.0000    0.0018  517.607   -0.011    0.000    0.000   2.804861E+02    44
               Time of flight (mus) :  1.84422724E-02 mass (MeV/c2) :   938.272    
1  1   1.0188   518.617     0.000     0.000     0.000      0.0000    0.0188  518.615   -0.014    0.000    0.000   2.810335E+02    45
               Time of flight (mus) :  1.82504455E-02 mass (MeV/c2) :   938.272    
1  1   1.0357   519.611     0.000     0.000     0.000      0.0000    0.0357  519.610   -0.009    0.000    0.000   2.815730E+02    46
               Time of flight (mus) :  1.80656675E-02 mass (MeV/c2) :   938.272    
1  1   1.0527   520.591     0.000     0.000     0.000      0.0000    0.0527  520.590   -0.006    0.000    0.000   2.821047E+02    47
               Time of flight (mus) :  1.78875863E-02 mass (MeV/c2) :   938.272    
1  1   1.0696   521.557    -0.000     0.000     0.000      0.0000    0.0696  521.557    0.001    0.000    0.000   2.826289E+02    48
               Time of flight (mus) :  1.77158880E-02 mass (MeV/c2) :   938.272    
1  1   1.0866   522.510     0.000     0.000     0.000      0.0000    0.0866  522.510    0.001    0.000    0.000   2.831459E+02    49
               Time of flight (mus) :  1.75502759E-02 mass (MeV/c2) :   938.272    
1  1   1.1035   523.449     0.000     0.000     0.000      0.0000    0.1035  523.450    0.003    0.000    0.000   2.836558E+02    50
               Time of flight (mus) :  1.73905763E-02 mass (MeV/c2) :   938.272    


---------------  Concentration ellipses : 
   surface      alpha        beta         <X>            <XP>           numb. of prtcls   ratio      space      pass# 
                                                                        in ellips,  out 
   3.7411E-06   2.3639E-01   4.1460E+04   4.919506E+00  -2.295994E-06       50       38   0.7600      (Y,T)         1
   0.0000E+00   0.0000E+00   1.0000E+00   0.000000E+00   0.000000E+00       50       50    1.000      (Z,P)         1
   6.6905E-01   1.8376E+00   3.6763E-04   2.688138E-02   8.153676E+01       50       41   0.8200      (t,K)         1

(Y,T)  space (units : (cm,rd)   ) :  
      sigma_Y = sqrt(Surface/pi * BET) =   2.221999E-01
      sigma_T = sqrt(Surface/pi * (1+ALF^2)/BET) =   5.507027E-06

(Z,P)  space (units : (cm,rd)   ) :  
      sigma_Z = sqrt(Surface/pi * BET) =   0.000000E+00
      sigma_P = sqrt(Surface/pi * (1+ALF^2)/BET) =   0.000000E+00

(t,K)  space (units : (mu_s,MeV)) :  
      sigma_t = sqrt(Surface/pi * BET) =   8.848291E-03
      sigma_K = sqrt(Surface/pi * (1+ALF^2)/BET) =   5.035284E+01


  Beam  sigma  matrix : 

   4.937278E-02  -2.815070E-07   0.000000E+00   0.000000E+00
  -2.815070E-07   3.032734E-11   0.000000E+00   0.000000E+00
   0.000000E+00   0.000000E+00   0.000000E+00   0.000000E+00
   0.000000E+00   0.000000E+00   0.000000E+00   0.000000E+00

      sqrt(det_Y), sqrt(det_Z) :     1.190840E-06    0.000000E+00    (Note :  sqrt(determinant) = ellipse surface / pi)

************************************************************************************************************************************
      6  Keyword, label(s) :  END                                                                                      IPASS= 1


                            50 particles have been launched
                     Made  it  to  the  end :     50

************************************************************************************************************************************
 Pgm zgoubi : Execution ended normally, upon keyword END or FIN
   
            ZGOUBI RUN COMPLETED. 

  Zgoubi, author's dvlpmnt version.
  Job  started  on  27-06-2019,  at  14:31:47 
  JOB  ENDED  ON    27-06-2019,  AT  14:31:48 

   CPU time, total :    0.68333400000000000     
