%!PS-Adobe-2.0 EPSF-2.0
%%Title: gnuplot_Zplt_cycloClass_vk.eps
%%Creator: gnuplot 5.2 patchlevel 2
%%CreationDate: Thu May 28 13:18:23 2020
%%DocumentFonts: (atend)
%%BoundingBox: 50 50 410 302
%%EndComments
%%BeginProlog
/gnudict 256 dict def
gnudict begin
%
% The following true/false flags may be edited by hand if desired.
% The unit line width and grayscale image gamma correction may also be changed.
%
/Color true def
/Blacktext true def
/Solid false def
/Dashlength 1 def
/Landscape false def
/Level1 false def
/Level3 false def
/Rounded false def
/ClipToBoundingBox false def
/SuppressPDFMark false def
/TransparentPatterns false def
/gnulinewidth 5.000 def
/userlinewidth gnulinewidth def
/Gamma 1.0 def
/BackgroundColor {-1.000 -1.000 -1.000} def
%
/vshift -46 def
/dl1 {
  10.0 Dashlength userlinewidth gnulinewidth div mul mul mul
  Rounded { currentlinewidth 0.75 mul sub dup 0 le { pop 0.01 } if } if
} def
/dl2 {
  10.0 Dashlength userlinewidth gnulinewidth div mul mul mul
  Rounded { currentlinewidth 0.75 mul add } if
} def
/hpt_ 31.5 def
/vpt_ 31.5 def
/hpt hpt_ def
/vpt vpt_ def
/doclip {
  ClipToBoundingBox {
    newpath 50 50 moveto 410 50 lineto 410 302 lineto 50 302 lineto closepath
    clip
  } if
} def
%
% Gnuplot Prolog Version 5.1 (Oct 2015)
%
%/SuppressPDFMark true def
%
/M {moveto} bind def
/L {lineto} bind def
/R {rmoveto} bind def
/V {rlineto} bind def
/N {newpath moveto} bind def
/Z {closepath} bind def
/C {setrgbcolor} bind def
/f {rlineto fill} bind def
/g {setgray} bind def
/Gshow {show} def   % May be redefined later in the file to support UTF-8
/vpt2 vpt 2 mul def
/hpt2 hpt 2 mul def
/Lshow {currentpoint stroke M 0 vshift R 
	Blacktext {gsave 0 setgray textshow grestore} {textshow} ifelse} def
/Rshow {currentpoint stroke M dup stringwidth pop neg vshift R
	Blacktext {gsave 0 setgray textshow grestore} {textshow} ifelse} def
/Cshow {currentpoint stroke M dup stringwidth pop -2 div vshift R 
	Blacktext {gsave 0 setgray textshow grestore} {textshow} ifelse} def
/UP {dup vpt_ mul /vpt exch def hpt_ mul /hpt exch def
  /hpt2 hpt 2 mul def /vpt2 vpt 2 mul def} def
/DL {Color {setrgbcolor Solid {pop []} if 0 setdash}
 {pop pop pop 0 setgray Solid {pop []} if 0 setdash} ifelse} def
/BL {stroke userlinewidth 2 mul setlinewidth
	Rounded {1 setlinejoin 1 setlinecap} if} def
/AL {stroke userlinewidth 2 div setlinewidth
	Rounded {1 setlinejoin 1 setlinecap} if} def
/UL {dup gnulinewidth mul /userlinewidth exch def
	dup 1 lt {pop 1} if 10 mul /udl exch def} def
/PL {stroke userlinewidth setlinewidth
	Rounded {1 setlinejoin 1 setlinecap} if} def
3.8 setmiterlimit
% Classic Line colors (version 5.0)
/LCw {1 1 1} def
/LCb {0 0 0} def
/LCa {0 0 0} def
/LC0 {1 0 0} def
/LC1 {0 1 0} def
/LC2 {0 0 1} def
/LC3 {1 0 1} def
/LC4 {0 1 1} def
/LC5 {1 1 0} def
/LC6 {0 0 0} def
/LC7 {1 0.3 0} def
/LC8 {0.5 0.5 0.5} def
% Default dash patterns (version 5.0)
/LTB {BL [] LCb DL} def
/LTw {PL [] 1 setgray} def
/LTb {PL [] LCb DL} def
/LTa {AL [1 udl mul 2 udl mul] 0 setdash LCa setrgbcolor} def
/LT0 {PL [] LC0 DL} def
/LT1 {PL [2 dl1 3 dl2] LC1 DL} def
/LT2 {PL [1 dl1 1.5 dl2] LC2 DL} def
/LT3 {PL [6 dl1 2 dl2 1 dl1 2 dl2] LC3 DL} def
/LT4 {PL [1 dl1 2 dl2 6 dl1 2 dl2 1 dl1 2 dl2] LC4 DL} def
/LT5 {PL [4 dl1 2 dl2] LC5 DL} def
/LT6 {PL [1.5 dl1 1.5 dl2 1.5 dl1 1.5 dl2 1.5 dl1 6 dl2] LC6 DL} def
/LT7 {PL [3 dl1 3 dl2 1 dl1 3 dl2] LC7 DL} def
/LT8 {PL [2 dl1 2 dl2 2 dl1 6 dl2] LC8 DL} def
/SL {[] 0 setdash} def
/Pnt {stroke [] 0 setdash gsave 1 setlinecap M 0 0 V stroke grestore} def
/Dia {stroke [] 0 setdash 2 copy vpt add M
  hpt neg vpt neg V hpt vpt neg V
  hpt vpt V hpt neg vpt V closepath stroke
  Pnt} def
/Pls {stroke [] 0 setdash vpt sub M 0 vpt2 V
  currentpoint stroke M
  hpt neg vpt neg R hpt2 0 V stroke
 } def
/Box {stroke [] 0 setdash 2 copy exch hpt sub exch vpt add M
  0 vpt2 neg V hpt2 0 V 0 vpt2 V
  hpt2 neg 0 V closepath stroke
  Pnt} def
/Crs {stroke [] 0 setdash exch hpt sub exch vpt add M
  hpt2 vpt2 neg V currentpoint stroke M
  hpt2 neg 0 R hpt2 vpt2 V stroke} def
/TriU {stroke [] 0 setdash 2 copy vpt 1.12 mul add M
  hpt neg vpt -1.62 mul V
  hpt 2 mul 0 V
  hpt neg vpt 1.62 mul V closepath stroke
  Pnt} def
/Star {2 copy Pls Crs} def
/BoxF {stroke [] 0 setdash exch hpt sub exch vpt add M
  0 vpt2 neg V hpt2 0 V 0 vpt2 V
  hpt2 neg 0 V closepath fill} def
/TriUF {stroke [] 0 setdash vpt 1.12 mul add M
  hpt neg vpt -1.62 mul V
  hpt 2 mul 0 V
  hpt neg vpt 1.62 mul V closepath fill} def
/TriD {stroke [] 0 setdash 2 copy vpt 1.12 mul sub M
  hpt neg vpt 1.62 mul V
  hpt 2 mul 0 V
  hpt neg vpt -1.62 mul V closepath stroke
  Pnt} def
/TriDF {stroke [] 0 setdash vpt 1.12 mul sub M
  hpt neg vpt 1.62 mul V
  hpt 2 mul 0 V
  hpt neg vpt -1.62 mul V closepath fill} def
/DiaF {stroke [] 0 setdash vpt add M
  hpt neg vpt neg V hpt vpt neg V
  hpt vpt V hpt neg vpt V closepath fill} def
/Pent {stroke [] 0 setdash 2 copy gsave
  translate 0 hpt M 4 {72 rotate 0 hpt L} repeat
  closepath stroke grestore Pnt} def
/PentF {stroke [] 0 setdash gsave
  translate 0 hpt M 4 {72 rotate 0 hpt L} repeat
  closepath fill grestore} def
/Circle {stroke [] 0 setdash 2 copy
  hpt 0 360 arc stroke Pnt} def
/CircleF {stroke [] 0 setdash hpt 0 360 arc fill} def
/C0 {BL [] 0 setdash 2 copy moveto vpt 90 450 arc} bind def
/C1 {BL [] 0 setdash 2 copy moveto
	2 copy vpt 0 90 arc closepath fill
	vpt 0 360 arc closepath} bind def
/C2 {BL [] 0 setdash 2 copy moveto
	2 copy vpt 90 180 arc closepath fill
	vpt 0 360 arc closepath} bind def
/C3 {BL [] 0 setdash 2 copy moveto
	2 copy vpt 0 180 arc closepath fill
	vpt 0 360 arc closepath} bind def
/C4 {BL [] 0 setdash 2 copy moveto
	2 copy vpt 180 270 arc closepath fill
	vpt 0 360 arc closepath} bind def
/C5 {BL [] 0 setdash 2 copy moveto
	2 copy vpt 0 90 arc
	2 copy moveto
	2 copy vpt 180 270 arc closepath fill
	vpt 0 360 arc} bind def
/C6 {BL [] 0 setdash 2 copy moveto
	2 copy vpt 90 270 arc closepath fill
	vpt 0 360 arc closepath} bind def
/C7 {BL [] 0 setdash 2 copy moveto
	2 copy vpt 0 270 arc closepath fill
	vpt 0 360 arc closepath} bind def
/C8 {BL [] 0 setdash 2 copy moveto
	2 copy vpt 270 360 arc closepath fill
	vpt 0 360 arc closepath} bind def
/C9 {BL [] 0 setdash 2 copy moveto
	2 copy vpt 270 450 arc closepath fill
	vpt 0 360 arc closepath} bind def
/C10 {BL [] 0 setdash 2 copy 2 copy moveto vpt 270 360 arc closepath fill
	2 copy moveto
	2 copy vpt 90 180 arc closepath fill
	vpt 0 360 arc closepath} bind def
/C11 {BL [] 0 setdash 2 copy moveto
	2 copy vpt 0 180 arc closepath fill
	2 copy moveto
	2 copy vpt 270 360 arc closepath fill
	vpt 0 360 arc closepath} bind def
/C12 {BL [] 0 setdash 2 copy moveto
	2 copy vpt 180 360 arc closepath fill
	vpt 0 360 arc closepath} bind def
/C13 {BL [] 0 setdash 2 copy moveto
	2 copy vpt 0 90 arc closepath fill
	2 copy moveto
	2 copy vpt 180 360 arc closepath fill
	vpt 0 360 arc closepath} bind def
/C14 {BL [] 0 setdash 2 copy moveto
	2 copy vpt 90 360 arc closepath fill
	vpt 0 360 arc} bind def
/C15 {BL [] 0 setdash 2 copy vpt 0 360 arc closepath fill
	vpt 0 360 arc closepath} bind def
/Rec {newpath 4 2 roll moveto 1 index 0 rlineto 0 exch rlineto
	neg 0 rlineto closepath} bind def
/Square {dup Rec} bind def
/Bsquare {vpt sub exch vpt sub exch vpt2 Square} bind def
/S0 {BL [] 0 setdash 2 copy moveto 0 vpt rlineto BL Bsquare} bind def
/S1 {BL [] 0 setdash 2 copy vpt Square fill Bsquare} bind def
/S2 {BL [] 0 setdash 2 copy exch vpt sub exch vpt Square fill Bsquare} bind def
/S3 {BL [] 0 setdash 2 copy exch vpt sub exch vpt2 vpt Rec fill Bsquare} bind def
/S4 {BL [] 0 setdash 2 copy exch vpt sub exch vpt sub vpt Square fill Bsquare} bind def
/S5 {BL [] 0 setdash 2 copy 2 copy vpt Square fill
	exch vpt sub exch vpt sub vpt Square fill Bsquare} bind def
/S6 {BL [] 0 setdash 2 copy exch vpt sub exch vpt sub vpt vpt2 Rec fill Bsquare} bind def
/S7 {BL [] 0 setdash 2 copy exch vpt sub exch vpt sub vpt vpt2 Rec fill
	2 copy vpt Square fill Bsquare} bind def
/S8 {BL [] 0 setdash 2 copy vpt sub vpt Square fill Bsquare} bind def
/S9 {BL [] 0 setdash 2 copy vpt sub vpt vpt2 Rec fill Bsquare} bind def
/S10 {BL [] 0 setdash 2 copy vpt sub vpt Square fill 2 copy exch vpt sub exch vpt Square fill
	Bsquare} bind def
/S11 {BL [] 0 setdash 2 copy vpt sub vpt Square fill 2 copy exch vpt sub exch vpt2 vpt Rec fill
	Bsquare} bind def
/S12 {BL [] 0 setdash 2 copy exch vpt sub exch vpt sub vpt2 vpt Rec fill Bsquare} bind def
/S13 {BL [] 0 setdash 2 copy exch vpt sub exch vpt sub vpt2 vpt Rec fill
	2 copy vpt Square fill Bsquare} bind def
/S14 {BL [] 0 setdash 2 copy exch vpt sub exch vpt sub vpt2 vpt Rec fill
	2 copy exch vpt sub exch vpt Square fill Bsquare} bind def
/S15 {BL [] 0 setdash 2 copy Bsquare fill Bsquare} bind def
/D0 {gsave translate 45 rotate 0 0 S0 stroke grestore} bind def
/D1 {gsave translate 45 rotate 0 0 S1 stroke grestore} bind def
/D2 {gsave translate 45 rotate 0 0 S2 stroke grestore} bind def
/D3 {gsave translate 45 rotate 0 0 S3 stroke grestore} bind def
/D4 {gsave translate 45 rotate 0 0 S4 stroke grestore} bind def
/D5 {gsave translate 45 rotate 0 0 S5 stroke grestore} bind def
/D6 {gsave translate 45 rotate 0 0 S6 stroke grestore} bind def
/D7 {gsave translate 45 rotate 0 0 S7 stroke grestore} bind def
/D8 {gsave translate 45 rotate 0 0 S8 stroke grestore} bind def
/D9 {gsave translate 45 rotate 0 0 S9 stroke grestore} bind def
/D10 {gsave translate 45 rotate 0 0 S10 stroke grestore} bind def
/D11 {gsave translate 45 rotate 0 0 S11 stroke grestore} bind def
/D12 {gsave translate 45 rotate 0 0 S12 stroke grestore} bind def
/D13 {gsave translate 45 rotate 0 0 S13 stroke grestore} bind def
/D14 {gsave translate 45 rotate 0 0 S14 stroke grestore} bind def
/D15 {gsave translate 45 rotate 0 0 S15 stroke grestore} bind def
/DiaE {stroke [] 0 setdash vpt add M
  hpt neg vpt neg V hpt vpt neg V
  hpt vpt V hpt neg vpt V closepath stroke} def
/BoxE {stroke [] 0 setdash exch hpt sub exch vpt add M
  0 vpt2 neg V hpt2 0 V 0 vpt2 V
  hpt2 neg 0 V closepath stroke} def
/TriUE {stroke [] 0 setdash vpt 1.12 mul add M
  hpt neg vpt -1.62 mul V
  hpt 2 mul 0 V
  hpt neg vpt 1.62 mul V closepath stroke} def
/TriDE {stroke [] 0 setdash vpt 1.12 mul sub M
  hpt neg vpt 1.62 mul V
  hpt 2 mul 0 V
  hpt neg vpt -1.62 mul V closepath stroke} def
/PentE {stroke [] 0 setdash gsave
  translate 0 hpt M 4 {72 rotate 0 hpt L} repeat
  closepath stroke grestore} def
/CircE {stroke [] 0 setdash 
  hpt 0 360 arc stroke} def
/Opaque {gsave closepath 1 setgray fill grestore 0 setgray closepath} def
/DiaW {stroke [] 0 setdash vpt add M
  hpt neg vpt neg V hpt vpt neg V
  hpt vpt V hpt neg vpt V Opaque stroke} def
/BoxW {stroke [] 0 setdash exch hpt sub exch vpt add M
  0 vpt2 neg V hpt2 0 V 0 vpt2 V
  hpt2 neg 0 V Opaque stroke} def
/TriUW {stroke [] 0 setdash vpt 1.12 mul add M
  hpt neg vpt -1.62 mul V
  hpt 2 mul 0 V
  hpt neg vpt 1.62 mul V Opaque stroke} def
/TriDW {stroke [] 0 setdash vpt 1.12 mul sub M
  hpt neg vpt 1.62 mul V
  hpt 2 mul 0 V
  hpt neg vpt -1.62 mul V Opaque stroke} def
/PentW {stroke [] 0 setdash gsave
  translate 0 hpt M 4 {72 rotate 0 hpt L} repeat
  Opaque stroke grestore} def
/CircW {stroke [] 0 setdash 
  hpt 0 360 arc Opaque stroke} def
/BoxFill {gsave Rec 1 setgray fill grestore} def
/Density {
  /Fillden exch def
  currentrgbcolor
  /ColB exch def /ColG exch def /ColR exch def
  /ColR ColR Fillden mul Fillden sub 1 add def
  /ColG ColG Fillden mul Fillden sub 1 add def
  /ColB ColB Fillden mul Fillden sub 1 add def
  ColR ColG ColB setrgbcolor} def
/BoxColFill {gsave Rec PolyFill} def
/PolyFill {gsave Density fill grestore grestore} def
/h {rlineto rlineto rlineto gsave closepath fill grestore} bind def
%
% PostScript Level 1 Pattern Fill routine for rectangles
% Usage: x y w h s a XX PatternFill
%	x,y = lower left corner of box to be filled
%	w,h = width and height of box
%	  a = angle in degrees between lines and x-axis
%	 XX = 0/1 for no/yes cross-hatch
%
/PatternFill {gsave /PFa [ 9 2 roll ] def
  PFa 0 get PFa 2 get 2 div add PFa 1 get PFa 3 get 2 div add translate
  PFa 2 get -2 div PFa 3 get -2 div PFa 2 get PFa 3 get Rec
  TransparentPatterns {} {gsave 1 setgray fill grestore} ifelse
  clip
  currentlinewidth 0.5 mul setlinewidth
  /PFs PFa 2 get dup mul PFa 3 get dup mul add sqrt def
  0 0 M PFa 5 get rotate PFs -2 div dup translate
  0 1 PFs PFa 4 get div 1 add floor cvi
	{PFa 4 get mul 0 M 0 PFs V} for
  0 PFa 6 get ne {
	0 1 PFs PFa 4 get div 1 add floor cvi
	{PFa 4 get mul 0 2 1 roll M PFs 0 V} for
 } if
  stroke grestore} def
%
/languagelevel where
 {pop languagelevel} {1} ifelse
dup 2 lt
	{/InterpretLevel1 true def
	 /InterpretLevel3 false def}
	{/InterpretLevel1 Level1 def
	 2 gt
	    {/InterpretLevel3 Level3 def}
	    {/InterpretLevel3 false def}
	 ifelse }
 ifelse
%
% PostScript level 2 pattern fill definitions
%
/Level2PatternFill {
/Tile8x8 {/PaintType 2 /PatternType 1 /TilingType 1 /BBox [0 0 8 8] /XStep 8 /YStep 8}
	bind def
/KeepColor {currentrgbcolor [/Pattern /DeviceRGB] setcolorspace} bind def
<< Tile8x8
 /PaintProc {0.5 setlinewidth pop 0 0 M 8 8 L 0 8 M 8 0 L stroke} 
>> matrix makepattern
/Pat1 exch def
<< Tile8x8
 /PaintProc {0.5 setlinewidth pop 0 0 M 8 8 L 0 8 M 8 0 L stroke
	0 4 M 4 8 L 8 4 L 4 0 L 0 4 L stroke}
>> matrix makepattern
/Pat2 exch def
<< Tile8x8
 /PaintProc {0.5 setlinewidth pop 0 0 M 0 8 L
	8 8 L 8 0 L 0 0 L fill}
>> matrix makepattern
/Pat3 exch def
<< Tile8x8
 /PaintProc {0.5 setlinewidth pop -4 8 M 8 -4 L
	0 12 M 12 0 L stroke}
>> matrix makepattern
/Pat4 exch def
<< Tile8x8
 /PaintProc {0.5 setlinewidth pop -4 0 M 8 12 L
	0 -4 M 12 8 L stroke}
>> matrix makepattern
/Pat5 exch def
<< Tile8x8
 /PaintProc {0.5 setlinewidth pop -2 8 M 4 -4 L
	0 12 M 8 -4 L 4 12 M 10 0 L stroke}
>> matrix makepattern
/Pat6 exch def
<< Tile8x8
 /PaintProc {0.5 setlinewidth pop -2 0 M 4 12 L
	0 -4 M 8 12 L 4 -4 M 10 8 L stroke}
>> matrix makepattern
/Pat7 exch def
<< Tile8x8
 /PaintProc {0.5 setlinewidth pop 8 -2 M -4 4 L
	12 0 M -4 8 L 12 4 M 0 10 L stroke}
>> matrix makepattern
/Pat8 exch def
<< Tile8x8
 /PaintProc {0.5 setlinewidth pop 0 -2 M 12 4 L
	-4 0 M 12 8 L -4 4 M 8 10 L stroke}
>> matrix makepattern
/Pat9 exch def
/Pattern1 {PatternBgnd KeepColor Pat1 setpattern} bind def
/Pattern2 {PatternBgnd KeepColor Pat2 setpattern} bind def
/Pattern3 {PatternBgnd KeepColor Pat3 setpattern} bind def
/Pattern4 {PatternBgnd KeepColor Landscape {Pat5} {Pat4} ifelse setpattern} bind def
/Pattern5 {PatternBgnd KeepColor Landscape {Pat4} {Pat5} ifelse setpattern} bind def
/Pattern6 {PatternBgnd KeepColor Landscape {Pat9} {Pat6} ifelse setpattern} bind def
/Pattern7 {PatternBgnd KeepColor Landscape {Pat8} {Pat7} ifelse setpattern} bind def
} def
%
%
%End of PostScript Level 2 code
%
/PatternBgnd {
  TransparentPatterns {} {gsave 1 setgray fill grestore} ifelse
} def
%
% Substitute for Level 2 pattern fill codes with
% grayscale if Level 2 support is not selected.
%
/Level1PatternFill {
/Pattern1 {0.250 Density} bind def
/Pattern2 {0.500 Density} bind def
/Pattern3 {0.750 Density} bind def
/Pattern4 {0.125 Density} bind def
/Pattern5 {0.375 Density} bind def
/Pattern6 {0.625 Density} bind def
/Pattern7 {0.875 Density} bind def
} def
%
% Now test for support of Level 2 code
%
Level1 {Level1PatternFill} {Level2PatternFill} ifelse
%
/Symbol-Oblique /Symbol findfont [1 0 .167 1 0 0] makefont
dup length dict begin {1 index /FID eq {pop pop} {def} ifelse} forall
currentdict end definefont pop
%
/Metrics {ExtendTextBox Gswidth} def
/Lwidth {currentpoint stroke M 0 vshift R Metrics} def
/Rwidth {currentpoint stroke M dup stringwidth pop neg vshift R Metrics} def
/Cwidth {currentpoint stroke M dup stringwidth pop -2 div vshift R Metrics} def
/GLwidth {currentpoint stroke M 0 vshift R {ExtendTextBox} forall} def
/GRwidth {currentpoint stroke M dup Gwidth vshift R {ExtendTextBox} forall} def
/GCwidth {currentpoint stroke M dup Gwidth 2 div vshift R {ExtendTextBox} forall} def
/GLwidth2 {0 Gwidth AddGlyphWidth} def
/GRwidth2 {Gwidth -1 mul 0 AddGlyphWidth} def
/GCwidth2 {Gwidth 2 div dup -1 mul AddGlyphWidth} def
/AddGlyphWidth { dup TBx2 gt {userdict /TBx2 3 -1 roll put} {pop} ifelse
                 dup TBx1 lt {userdict /TBx1 3 -1 roll put} {pop} ifelse } def
/MFshow {
   { dup 5 get 3 ge
     { 5 get 3 eq {gsave} {grestore} ifelse }
     {dup dup 0 get findfont exch 1 get scalefont setfont
     [ currentpoint ] exch dup 2 get 0 exch R dup 5 get 2 ne {dup dup 6
     get exch 4 get {textshow} {Metrics pop 0 R} ifelse }if dup 5 get 0 eq
     {dup 3 get {2 get neg 0 exch R pop} {pop aload pop M} ifelse} {dup 5
     get 1 eq {dup 2 get exch dup 3 get exch 6 get Gswidth pop -2 div
     dup 0 R} {dup 6 get Gswidth pop -2 div 0 R 6 get
     textshow 2 index {aload pop M neg 3 -1 roll neg R pop pop} {pop pop pop
     pop aload pop M} ifelse }ifelse }ifelse }
     ifelse }
   forall} def
/Gswidth {dup type /stringtype eq {stringwidth} {pop (n) stringwidth} ifelse} def
/MFwidth {0 exch { dup 5 get 3 ge { 5 get 3 eq { 0 } { pop } ifelse }
 {dup 3 get{dup dup 0 get findfont exch 1 get scalefont setfont
     6 get Gswidth pop add} {pop} ifelse} ifelse} forall} def
/MLshow { currentpoint stroke M
  0 exch R
  Blacktext {gsave 0 setgray MFshow grestore} {MFshow} ifelse } bind def
/MRshow { currentpoint stroke M
  exch dup MFwidth neg 3 -1 roll R
  Blacktext {gsave 0 setgray MFshow grestore} {MFshow} ifelse } bind def
/MCshow { currentpoint stroke M
  exch dup MFwidth -2 div 3 -1 roll R
  Blacktext {gsave 0 setgray MFshow grestore} {MFshow} ifelse } bind def
/XYsave    { [( ) 1 2 true false 3 ()] } bind def
/XYrestore { [( ) 1 2 true false 4 ()] } bind def
Level1 SuppressPDFMark or 
{} {
/SDict 10 dict def
systemdict /pdfmark known not {
  userdict /pdfmark systemdict /cleartomark get put
} if
SDict begin [
  /Title (gnuplot_Zplt_cycloClass_vk.eps)
  /Subject (gnuplot plot)
  /Creator (gnuplot 5.2 patchlevel 2)
%  /Producer (gnuplot)
%  /Keywords ()
  /CreationDate (Thu May 28 13:18:23 2020)
  /DOCINFO pdfmark
end
} ifelse
%
% Support for boxed text - Ethan A Merritt Sep 2016
%
/InitTextBox { userdict /TBy2 3 -1 roll put userdict /TBx2 3 -1 roll put
           userdict /TBy1 3 -1 roll put userdict /TBx1 3 -1 roll put
	   /Boxing true def } def
/ExtendTextBox { dup type /stringtype eq
    { Boxing { gsave dup false charpath pathbbox
      dup TBy2 gt {userdict /TBy2 3 -1 roll put} {pop} ifelse
      dup TBx2 gt {userdict /TBx2 3 -1 roll put} {pop} ifelse
      dup TBy1 lt {userdict /TBy1 3 -1 roll put} {pop} ifelse
      dup TBx1 lt {userdict /TBx1 3 -1 roll put} {pop} ifelse
      grestore } if }
    {} ifelse} def
/PopTextBox { newpath TBx1 TBxmargin sub TBy1 TBymargin sub M
               TBx1 TBxmargin sub TBy2 TBymargin add L
	       TBx2 TBxmargin add TBy2 TBymargin add L
	       TBx2 TBxmargin add TBy1 TBymargin sub L closepath } def
/DrawTextBox { PopTextBox stroke /Boxing false def} def
/FillTextBox { gsave PopTextBox fill grestore /Boxing false def} def
0 0 0 0 InitTextBox
/TBxmargin 20 def
/TBymargin 20 def
/Boxing false def
/textshow { ExtendTextBox Gshow } def
%
end
%%EndProlog
%%Page: 1 1
gnudict begin
gsave
doclip
50 50 translate
0.050 0.050 scale
0 setgray
newpath
(Helvetica) findfont 140 scalefont setfont
BackgroundColor 0 lt 3 1 roll 0 lt exch 0 lt or or not {BackgroundColor C 1.000 0 0 7200.00 5040.00 BoxColFill} if
gsave % colour palette begin
/maxcolors 0 def
/HSV2RGB {  exch dup 0.0 eq {pop exch pop dup dup} % achromatic gray
  { /HSVs exch def /HSVv exch def 6.0 mul dup floor dup 3 1 roll sub
     /HSVf exch def /HSVi exch cvi def /HSVp HSVv 1.0 HSVs sub mul def
	 /HSVq HSVv 1.0 HSVs HSVf mul sub mul def 
	 /HSVt HSVv 1.0 HSVs 1.0 HSVf sub mul sub mul def
	 /HSVi HSVi 6 mod def 0 HSVi eq {HSVv HSVt HSVp}
	 {1 HSVi eq {HSVq HSVv HSVp}{2 HSVi eq {HSVp HSVv HSVt}
	 {3 HSVi eq {HSVp HSVq HSVv}{4 HSVi eq {HSVt HSVp HSVv}
	 {HSVv HSVp HSVq} ifelse} ifelse} ifelse} ifelse} ifelse
  } ifelse} def
/Constrain {
  dup 0 lt {0 exch pop}{dup 1 gt {1 exch pop} if} ifelse} def
/YIQ2RGB {
  3 copy -1.702 mul exch -1.105 mul add add Constrain 4 1 roll
  3 copy -0.647 mul exch -0.272 mul add add Constrain 5 1 roll
  0.621 mul exch -0.956 mul add add Constrain 3 1 roll } def
/CMY2RGB {  1 exch sub exch 1 exch sub 3 2 roll 1 exch sub 3 1 roll exch } def
/XYZ2RGB {  3 copy -0.9017 mul exch -0.1187 mul add exch 0.0585 mul exch add
  Constrain 4 1 roll 3 copy -0.0279 mul exch 1.999 mul add exch
  -0.9844 mul add Constrain 5 1 roll -0.2891 mul exch -0.5338 mul add
  exch 1.91 mul exch add Constrain 3 1 roll} def
/SelectSpace {ColorSpace (HSV) eq {HSV2RGB}{ColorSpace (XYZ) eq {
  XYZ2RGB}{ColorSpace (CMY) eq {CMY2RGB}{ColorSpace (YIQ) eq {YIQ2RGB}
  if} ifelse} ifelse} ifelse} def
/InterpolatedColor true def
/grayindex {/gidx 0 def
  {GrayA gidx get grayv ge {exit} if /gidx gidx 1 add def} loop} def
/dgdx {grayv GrayA gidx get sub GrayA gidx 1 sub get
  GrayA gidx get sub div} def 
/redvalue {RedA gidx get RedA gidx 1 sub get
  RedA gidx get sub dgdxval mul add} def
/greenvalue {GreenA gidx get GreenA gidx 1 sub get
  GreenA gidx get sub dgdxval mul add} def
/bluevalue {BlueA gidx get BlueA gidx 1 sub get
  BlueA gidx get sub dgdxval mul add} def
/interpolate {
  grayindex grayv GrayA gidx get sub abs 1e-5 le
    {RedA gidx get GreenA gidx get BlueA gidx get}
    {/dgdxval dgdx def redvalue greenvalue bluevalue} ifelse} def
/GrayA [0 .5 1 ] def
/RedA [1 0 0 ] def
/GreenA [0 0 0 ] def
/BlueA [0 1 0 ] def
/pm3dround {maxcolors 0 gt {dup 1 ge
	{pop 1} {maxcolors mul floor maxcolors 1 sub div} ifelse} if} def
/pm3dGamma 1.0 1.5 Gamma mul div def
/ColorSpace (RGB) def
Color InterpolatedColor or { % COLOUR vs. GRAY map
  InterpolatedColor { %% Interpolation vs. RGB-Formula
    /g {stroke pm3dround /grayv exch def interpolate
        SelectSpace setrgbcolor} bind def
  }{
  /g {stroke pm3dround dup cF7 Constrain exch dup cF5 Constrain exch cF15 Constrain 
       SelectSpace setrgbcolor} bind def
  } ifelse
}{
  /g {stroke pm3dround pm3dGamma exp setgray} bind def
} ifelse
1.000 UL
LTb
LCb setrgbcolor
3579 2534 M
0 63 V
0 -63 R
0 -63 V
stroke
3579 2394 M
[ [(Helvetica) 140.0 0.0 true true 0 ( 0)]
] -46.7 MCshow
1.000 UL
LTb
LCb setrgbcolor
4170 2534 M
0 63 V
0 -63 R
0 -63 V
stroke
4170 2394 M
[ [(Helvetica) 140.0 0.0 true true 0 ( 0.05)]
] -46.7 MCshow
1.000 UL
LTb
LCb setrgbcolor
4761 2534 M
0 63 V
0 -63 R
0 -63 V
stroke
4761 2394 M
[ [(Helvetica) 140.0 0.0 true true 0 ( 0.1)]
] -46.7 MCshow
1.000 UL
LTb
LCb setrgbcolor
5353 2534 M
0 63 V
0 -63 R
0 -63 V
stroke
5353 2394 M
[ [(Helvetica) 140.0 0.0 true true 0 ( 0.15)]
] -46.7 MCshow
1.000 UL
LTb
LCb setrgbcolor
5944 2534 M
0 63 V
0 -63 R
0 -63 V
stroke
5944 2394 M
[ [(Helvetica) 140.0 0.0 true true 0 ( 0.2)]
] -46.7 MCshow
1.000 UL
LTb
LCb setrgbcolor
1.000 UP
1.000 UL
LTb
LCb setrgbcolor
% Begin plot #1
2.000 UL
LTb
0 g LCb setrgbcolor
5330 4119 M
[ [(Helvetica) 140.0 0.0 true true 0 (k=0)]
] -46.7 MRshow
0 g 5414 4119 M
399 0 V
0 g 0 g 0 g 0 g 0 g 0 g 0 g 0 g 0 g 0 g 0 g 0 g 0 g 0 g 0 g 0 g 0 g 0 g 0 g 0 g 0 g 0 g 0 g 0 g 0 g 0 g 0 g 0 g .5 g .5 g .5 g .5 g .5 g .5 g .5 g .5 g .5 g .5 g .5 g .5 g .5 g .5 g .5 g .5 g .5 g .5 g .5 g .5 g .5 g .5 g .5 g .5 g .5 g .5 g .5 g .5 g .5 g .5 g .5 g .5 g 1 g 1 g 1 g 1 g 1 g 1 g 1 g 1 g 1 g 1 g 1 g 1 g 1 g 1 g 1 g 1 g 1 g 1 g 1 g 1 g 1 g 1 g 1 g 0 g 0 g 0 g 0 g 0 g 0 g 0 g 0 g 0 g 0 g 0 g 0 g 0 g 0 g 0 g 0 g 0 g 0 g 0 g 0 g 0 g 0 g 0 g 0 g 0 g 0 g 0 g 0 g .5 g .5 g .5 g .5 g .5 g .5 g .5 g .5 g .5 g .5 g .5 g .5 g .5 g .5 g .5 g .5 g .5 g .5 g .5 g .5 g .5 g .5 g .5 g .5 g .5 g .5 g .5 g .5 g 1 g 1 g 1 g 1 g 1 g 1 g 1 g 1 g 1 g 1 g 1 g 1 g 1 g 1 g 1 g 1 g 1 g 1 g 1 g 1 g 1 g 1 g 1 g 1 g 1 g 1 g 1 g 0 g 0 g 0 g 0 g 0 g 0 g 0 g 0 g 0 g 0 g 0 g 0 g 0 g 0 g 0 g 0 g 0 g 0 g 0 g 0 g 0 g 0 g 0 g 0 g 0 g 0 g 0 g 0 g .5 g .5 g .5 g .5 g .5 g .5 g .5 g .5 g .5 g .5 g .5 g .5 g .5 g .5 g .5 g .5 g .5 g .5 g .5 g .5 g .5 g .5 g .5 g 1 g 1 g 1 g 1 g 1 g 1 g 1 g 1 g 1 g 1 g 1 g 1 g 1 g 1 g 1 g 1 g 1 g 1 g 1 g 1 g 1 g 1 g 1 g 1 g 1 g 1 g 1 g 1 g 1 g 1 g 1 g 1 g 0 g 0 g 0 g 0 g 0 g 0 g 0 g 0 g 0 g 0 g 0 g 0 g 0 g 0 g 0 g 0 g 0 g 0 g 0 g 0 g 0 g 0 g 0 g 0 g 0 g 0 g 0 g 0 g .5 g .5 g .5 g .5 g .5 g .5 g .5 g .5 g .5 g .5 g .5 g .5 g .5 g .5 g .5 g .5 g .5 g .5 g .5 g .5 g .5 g .5 g .5 g 1 g 1 g 1 g 1 g 1 g 1 g 1 g 1 g 1 g 1 g 1 g 1 g 1 g 1 g 1 g 1 g 1 g 1 g 1 g 1 g 1 g 1 g 1 g 1 g 1 g 1 g 1 g 1 g 1 g 1 g 1 g 1 g 0 g 0 g 0 g 0 g 0 g 0 g 0 g 0 g 0 g 0 g 0 g 0 g 0 g 0 g 0 g 0 g 0 g 0 g 0 g 0 g 0 g 0 g 0 g 0 g 0 g 0 g 0 g 0 g .5 g .5 g .5 g .5 g .5 g .5 g .5 g .5 g .5 g .5 g .5 g .5 g .5 g .5 g .5 g .5 g .5 g .5 g .5 g .5 g .5 g .5 g .5 g .5 g .5 g .5 g .5 g 1 g 1 g 1 g 1 g 1 g 1 g 1 g 1 g 1 g 1 g 1 g 1 g 1 g 1 g 1 g 1 g 1 g 1 g 1 g 1 g 1 g 1 g 1 g 1 g 1 g 1 g 1 g 1 g 0 g 0 g 0 g 0 g 0 g 0 g 0 g 0 g 0 g 0 g 0 g 0 g 0 g 0 g 0 g 0 g 0 g 0 g 0 g 0 g 0 g 0 g 0 g 0 g 0 g 0 g 0 g 0 g .5 g .5 g .5 g .5 g .5 g .5 g .5 g .5 g .5 g .5 g .5 g .5 g .5 g .5 g .5 g .5 g .5 g .5 g .5 g .5 g .5 g .5 g .5 g .5 g .5 g .5 g .5 g .5 g .5 g .5 g .5 g .5 g 1 g 1 g 1 g 1 g 1 g 1 g 1 g 1 g 1 g 1 g 1 g 1 g 1 g 1 g 1 g 1 g 1 g 1 g 1 g 1 g 1 g 1 g 1 g 0 g 0 g 0 g 0 g 0 g 0 g 0 g 0 g 0 g 0 g 0 g 0 g 0 g 0 g 0 g 0 g 0 g 0 g 0 g 0 g 0 g 0 g 0 g 0 g 0 g 0 g 0 g 0 g .5 g .5 g .5 g .5 g .5 g .5 g .5 g .5 g .5 g .5 g .5 g .5 g .5 g .5 g .5 g .5 g .5 g .5 g .5 g .5 g .5 g .5 g .5 g .5 g .5 g .5 g .5 g .5 g .5 g .5 g .5 g .5 g .5 g 1 g 1 g 1 g 1 g 1 g 1 g 1 g 1 g 1 g 1 g 1 g 1 g 1 g 1 g 1 g 1 g 1 g 1 g 1 g 1 g 1 g 1 g 0 g 0 g 0 g 0 g 0 g 0 g 0 g 0 g 0 g 0 g 0 g 0 g 0 g 0 g 0 g 0 g 0 g 0 g 0 g 0 g 0 g 0 g 0 g 0 g 0 g 0 g 0 g 0 g .5 g .5 g .5 g .5 g .5 g .5 g .5 g .5 g .5 g .5 g .5 g .5 g .5 g .5 g .5 g .5 g .5 g .5 g .5 g .5 g .5 g .5 g .5 g .5 g .5 g .5 g .5 g .5 g .5 g .5 g 1 g 1 g 1 g 1 g 1 g 1 g 1 g 1 g 1 g 1 g 1 g 1 g 1 g 1 g 1 g 1 g 1 g 1 g 1 g 1 g 1 g 1 g 1 g 1 g 1 g 0 g 0 g 0 g 0 g 0 g 0 g 0 g 0 g 0 g 0 g 0 g 0 g 0 g 0 g 0 g 0 g 0 g 0 g 0 g 0 g 0 g 0 g 0 g 0 g 0 g 0 g 0 g 0 g .5 g .5 g .5 g .5 g .5 g .5 g .5 g .5 g .5 g .5 g .5 g .5 g .5 g .5 g .5 g .5 g .5 g .5 g .5 g .5 g .5 g .5 g .5 g .5 g .5 g .5 g .5 g 1 g 1 g 1 g 1 g 1 g 1 g 1 g 1 g 1 g 1 g 1 g 1 g 1 g 1 g 1 g 1 g 1 g 1 g 1 g 1 g 1 g 1 g 1 g 1 g 1 g 1 g 1 g 1 g 1 g 1 g 0 g 0 g 0 g 0 g 0 g 0 g 0 g 0 g 0 g 0 g 0 g 0 g 0 g 0 g 0 g 0 g 0 g 0 g 0 g 0 g 0 g 0 g 0 g 0 g 0 g 0 g 0 g 0 g .5 g .5 g .5 g .5 g .5 g .5 g .5 g .5 g .5 g .5 g .5 g .5 g .5 g .5 g .5 g .5 g .5 g .5 g .5 g .5 g .5 g .5 g .5 g .5 g 1 g 1 g 1 g 1 g 1 g 1 g 1 g 1 g 1 g 1 g 1 g 1 g 1 g 1 g 1 g 1 g 1 g 1 g 1 g 1 g 1 g 1 g 1 g 1 g 1 g 1 g 1 g 1 g 1 g 1 g 1 g 1 g 1 g 0 g 0 g 0 g 0 g 0 g 0 g 0 g 0 g 0 g 0 g 0 g 0 g 0 g 0 g 0 g 0 g 0 g 0 g 0 g 0 g 0 g 0 g 0 g 0 g 0 g 0 g 0 g 0 g .5 g .5 g .5 g .5 g .5 g .5 g .5 g .5 g .5 g .5 g .5 g .5 g .5 g .5 g .5 g .5 g .5 g .5 g .5 g .5 g .5 g .5 g .5 g 1 g 1 g 1 g 1 g 1 g 1 g 1 g 1 g 1 g 1 g 1 g 1 g 1 g 1 g 1 g 1 g 1 g 1 g 1 g 1 g 1 g 1 g 1 g 1 g 1 g 1 g 1 g 1 g 1 g 1 g 1 g 1 g 1 g 1 g 0 g 0 g 0 g 0 g 0 g 0 g 0 g 0 g 0 g 0 g 0 g 0 g 0 g 0 g 0 g 0 g 0 g 0 g 0 g 0 g 0 g 0 g 0 g 0 g 0 g 0 g 0 g 0 g .5 g .5 g .5 g .5 g .5 g .5 g .5 g .5 g .5 g .5 g .5 g .5 g .5 g .5 g .5 g .5 g .5 g .5 g .5 g .5 g .5 g .5 g .5 g .5 g .5 g 1 g 1 g 1 g 1 g 1 g 1 g 1 g 1 g 1 g 1 g 1 g 1 g 1 g 1 g 1 g 1 g 1 g 1 g 1 g 1 g 1 g 1 g 1 g 1 g 1 g 1 g 1 g 1 g 1 g 1 g 1 g 1 g 0 g 5107 2534 M
0 g 5107 2534 M
-1 59 V
0 g 5106 2593 M
-3 59 V
0 g 5103 2652 M
-6 59 V
0 g 5097 2711 M
-8 58 V
0 g 5089 2769 M
-10 58 V
0 g 5079 2827 M
-13 58 V
0 g 5066 2885 M
-15 57 V
0 g 5051 2942 M
-16 57 V
0 g 5035 2999 M
-20 56 V
0 g 5015 3055 M
-21 55 V
0 g 4994 3110 M
-23 55 V
0 g 4971 3165 M
-26 53 V
0 g 4945 3218 M
-27 52 V
0 g 4918 3270 M
-30 52 V
0 g 4888 3322 M
-31 50 V
0 g 4857 3372 M
-33 48 V
0 g 4824 3420 M
-36 48 V
0 g 4788 3468 M
-37 46 V
0 g 4751 3514 M
-38 45 V
0 g 4713 3559 M
-41 43 V
0 g 4672 3602 M
-42 41 V
0 g 4630 3643 M
-44 40 V
0 g 4586 3683 M
-45 38 V
0 g 4541 3721 M
-47 37 V
0 g 4494 3758 M
-48 34 V
0 g 4446 3792 M
-49 33 V
0 g 4397 3825 M
-51 30 V
.5 g .5 g .5 g .5 g .5 g .5 g .5 g .5 g .5 g .5 g .5 g .5 g .5 g .5 g .5 g .5 g .5 g .5 g .5 g .5 g .5 g .5 g .5 g .5 g .5 g .5 g .5 g .5 g .5 g .5 g .5 g .5 g 1 g 1 g 1 g 1 g 1 g 1 g 1 g 1 g 1 g 1 g 1 g 1 g 1 g 1 g 1 g 1 g 1 g 1 g 1 g 1 g 1 g 1 g 1 g 0 g 4343 3857 M
0 g 4343 3857 M
-52 29 V
0 g 4291 3886 M
-53 27 V
0 g 4238 3913 M
-54 24 V
0 g 4184 3937 M
-54 22 V
0 g 4130 3959 M
-56 21 V
0 g 4074 3980 M
-56 18 V
0 g 4018 3998 M
-57 16 V
0 g 3961 4014 M
-58 13 V
0 g 3903 4027 M
-58 12 V
0 g 3845 4039 M
-58 9 V
0 g 3787 4048 M
-59 7 V
0 g 3728 4055 M
-59 4 V
0 g 3669 4059 M
-59 3 V
0 g 3610 4062 M
-59 0 V
0 g 3551 4062 M
-59 -2 V
0 g 3492 4060 M
-59 -5 V
0 g 3433 4055 M
-59 -7 V
0 g 3374 4048 M
-58 -9 V
0 g 3316 4039 M
-58 -11 V
0 g 3258 4028 M
-58 -13 V
0 g 3200 4015 M
-57 -16 V
0 g 3143 3999 M
-56 -18 V
0 g 3087 3981 M
-56 -20 V
0 g 3031 3961 M
-55 -22 V
0 g 2976 3939 M
-54 -25 V
0 g 2922 3914 M
-52 -26 V
0 g 2870 3888 M
-52 -29 V
.5 g .5 g .5 g .5 g .5 g .5 g .5 g .5 g .5 g .5 g .5 g .5 g .5 g .5 g .5 g .5 g .5 g .5 g .5 g .5 g .5 g .5 g .5 g .5 g .5 g .5 g .5 g .5 g 1 g 1 g 1 g 1 g 1 g 1 g 1 g 1 g 1 g 1 g 1 g 1 g 1 g 1 g 1 g 1 g 1 g 1 g 1 g 1 g 1 g 1 g 1 g 1 g 1 g 1 g 1 g 0 g 2814 3857 M
0 g 2814 3857 M
-50 -30 V
0 g 2764 3827 M
-50 -33 V
0 g 2714 3794 M
-48 -34 V
0 g 2666 3760 M
-47 -36 V
0 g 2619 3724 M
-45 -38 V
0 g 2574 3686 M
-44 -40 V
0 g 2530 3646 M
-42 -41 V
0 g 2488 3605 M
-41 -43 V
0 g 2447 3562 M
-39 -45 V
0 g 2408 3517 M
-37 -46 V
0 g 2371 3471 M
-35 -47 V
0 g 2336 3424 M
-34 -49 V
0 g 2302 3375 M
-31 -50 V
0 g 2271 3325 M
-30 -51 V
0 g 2241 3274 M
-28 -52 V
0 g 2213 3222 M
-25 -54 V
0 g 2188 3168 M
-24 -54 V
0 g 2164 3114 M
-21 -55 V
0 g 2143 3059 M
-19 -56 V
0 g 2124 3003 M
-17 -57 V
0 g 2107 2946 M
-15 -57 V
0 g 2092 2889 M
-13 -58 V
0 g 2079 2831 M
-10 -58 V
0 g 2069 2773 M
-8 -58 V
0 g 2061 2715 M
-6 -59 V
0 g 2055 2656 M
-4 -59 V
0 g 2051 2597 M
-1 -59 V
.5 g .5 g .5 g .5 g .5 g .5 g .5 g .5 g .5 g .5 g .5 g .5 g .5 g .5 g .5 g .5 g .5 g .5 g .5 g .5 g .5 g .5 g .5 g 1 g 1 g 1 g 1 g 1 g 1 g 1 g 1 g 1 g 1 g 1 g 1 g 1 g 1 g 1 g 1 g 1 g 1 g 1 g 1 g 1 g 1 g 1 g 1 g 1 g 1 g 1 g 1 g 1 g 1 g 1 g 1 g 0 g 2050 2534 M
0 g 2050 2534 M
1 -60 V
0 g 2051 2474 M
3 -59 V
0 g 2054 2415 M
6 -59 V
0 g 2060 2356 M
8 -58 V
0 g 2068 2298 M
10 -58 V
0 g 2078 2240 M
13 -58 V
0 g 2091 2182 M
15 -57 V
0 g 2106 2125 M
16 -57 V
0 g 2122 2068 M
20 -56 V
0 g 2142 2012 M
21 -55 V
0 g 2163 1957 M
23 -55 V
0 g 2186 1902 M
26 -53 V
0 g 2212 1849 M
27 -52 V
0 g 2239 1797 M
30 -52 V
0 g 2269 1745 M
31 -50 V
0 g 2300 1695 M
33 -48 V
0 g 2333 1647 M
36 -48 V
0 g 2369 1599 M
37 -46 V
0 g 2406 1553 M
38 -45 V
0 g 2444 1508 M
41 -43 V
0 g 2485 1465 M
42 -41 V
0 g 2527 1424 M
44 -40 V
0 g 2571 1384 M
45 -38 V
0 g 2616 1346 M
47 -37 V
0 g 2663 1309 M
48 -34 V
0 g 2711 1275 M
49 -33 V
0 g 2760 1242 M
51 -30 V
.5 g .5 g .5 g .5 g .5 g .5 g .5 g .5 g .5 g .5 g .5 g .5 g .5 g .5 g .5 g .5 g .5 g .5 g .5 g .5 g .5 g .5 g .5 g 1 g 1 g 1 g 1 g 1 g 1 g 1 g 1 g 1 g 1 g 1 g 1 g 1 g 1 g 1 g 1 g 1 g 1 g 1 g 1 g 1 g 1 g 1 g 1 g 1 g 1 g 1 g 1 g 1 g 1 g 1 g 1 g 0 g 2814 1210 M
0 g 2814 1210 M
52 -29 V
0 g 2866 1181 M
53 -27 V
0 g 2919 1154 M
54 -24 V
0 g 2973 1130 M
54 -22 V
0 g 3027 1108 M
56 -21 V
0 g 3083 1087 M
56 -18 V
0 g 3139 1069 M
57 -16 V
0 g 3196 1053 M
58 -13 V
0 g 3254 1040 M
58 -12 V
0 g 3312 1028 M
58 -9 V
0 g 3370 1019 M
59 -7 V
0 g 3429 1012 M
59 -4 V
0 g 3488 1008 M
59 -3 V
0 g 3547 1005 M
59 0 V
stroke 3606 1005 M
0 g 3606 1005 M
59 2 V
0 g 3665 1007 M
59 5 V
0 g 3724 1012 M
59 7 V
0 g 3783 1019 M
58 9 V
0 g 3841 1028 M
58 11 V
0 g 3899 1039 M
58 13 V
0 g 3957 1052 M
57 16 V
0 g 4014 1068 M
56 18 V
0 g 4070 1086 M
56 20 V
0 g 4126 1106 M
55 22 V
0 g 4181 1128 M
54 25 V
0 g 4235 1153 M
52 26 V
0 g 4287 1179 M
52 29 V
.5 g .5 g .5 g .5 g .5 g .5 g .5 g .5 g .5 g .5 g .5 g .5 g .5 g .5 g .5 g .5 g .5 g .5 g .5 g .5 g .5 g .5 g .5 g .5 g .5 g .5 g .5 g 1 g 1 g 1 g 1 g 1 g 1 g 1 g 1 g 1 g 1 g 1 g 1 g 1 g 1 g 1 g 1 g 1 g 1 g 1 g 1 g 1 g 1 g 1 g 1 g 1 g 1 g 1 g 1 g 0 g 4343 1210 M
0 g 4343 1210 M
50 30 V
0 g 4393 1240 M
50 33 V
0 g 4443 1273 M
48 34 V
0 g 4491 1307 M
47 36 V
0 g 4538 1343 M
45 38 V
0 g 4583 1381 M
44 40 V
0 g 4627 1421 M
42 41 V
0 g 4669 1462 M
41 43 V
0 g 4710 1505 M
39 45 V
0 g 4749 1550 M
37 46 V
0 g 4786 1596 M
35 47 V
0 g 4821 1643 M
34 49 V
0 g 4855 1692 M
31 50 V
0 g 4886 1742 M
30 51 V
0 g 4916 1793 M
28 52 V
0 g 4944 1845 M
25 54 V
0 g 4969 1899 M
24 54 V
0 g 4993 1953 M
21 55 V
0 g 5014 2008 M
19 56 V
0 g 5033 2064 M
17 57 V
0 g 5050 2121 M
15 57 V
0 g 5065 2178 M
13 58 V
0 g 5078 2236 M
10 58 V
0 g 5088 2294 M
8 58 V
0 g 5096 2352 M
6 59 V
0 g 5102 2411 M
4 59 V
0 g 5106 2470 M
1 59 V
.5 g .5 g .5 g .5 g .5 g .5 g .5 g .5 g .5 g .5 g .5 g .5 g .5 g .5 g .5 g .5 g .5 g .5 g .5 g .5 g .5 g .5 g .5 g .5 g .5 g .5 g .5 g .5 g .5 g .5 g .5 g .5 g 1 g 1 g 1 g 1 g 1 g 1 g 1 g 1 g 1 g 1 g 1 g 1 g 1 g 1 g 1 g 1 g 1 g 1 g 1 g 1 g 1 g 1 g 1 g 0 g 0 g 0 g 0 g 0 g 0 g 0 g 0 g 0 g 0 g 0 g 0 g 0 g 0 g 0 g 0 g 0 g 0 g 0 g 0 g 0 g 0 g 0 g 0 g 0 g 0 g 0 g 0 g .5 g .5 g .5 g .5 g .5 g .5 g .5 g .5 g .5 g .5 g .5 g .5 g .5 g .5 g .5 g .5 g .5 g .5 g .5 g .5 g .5 g .5 g .5 g .5 g .5 g .5 g .5 g .5 g .5 g .5 g .5 g .5 g 1 g 1 g 1 g 1 g 1 g 1 g 1 g 1 g 1 g 1 g 1 g 1 g 1 g 1 g 1 g 1 g 1 g 1 g 1 g 1 g 1 g 1 g 1 g 0 g 0 g 0 g 0 g 0 g 0 g 0 g 0 g 0 g 0 g 0 g 0 g 0 g 0 g 0 g 0 g 0 g 0 g 0 g 0 g 0 g 0 g 0 g 0 g 0 g 0 g 0 g 0 g .5 g .5 g .5 g .5 g .5 g .5 g .5 g .5 g .5 g .5 g .5 g .5 g .5 g .5 g .5 g .5 g .5 g .5 g .5 g .5 g .5 g .5 g .5 g .5 g .5 g .5 g 1 g 1 g 1 g 1 g 1 g 1 g 1 g 1 g 1 g 1 g 1 g 1 g 1 g 1 g 1 g 1 g 1 g 1 g 1 g 1 g 1 g 1 g 1 g 1 g 1 g 1 g 1 g 1 g 1 g 0 g 0 g 0 g 0 g 0 g 0 g 0 g 0 g 0 g 0 g 0 g 0 g 0 g 0 g 0 g 0 g 0 g 0 g 0 g 0 g 0 g 0 g 0 g 0 g 0 g 0 g 0 g 0 g .5 g .5 g .5 g .5 g .5 g .5 g .5 g .5 g .5 g .5 g .5 g .5 g .5 g .5 g .5 g .5 g .5 g .5 g .5 g .5 g .5 g .5 g 1 g 1 g 1 g 1 g 1 g 1 g 1 g 1 g 1 g 1 g 1 g 1 g 1 g 1 g 1 g 1 g 1 g 1 g 1 g 1 g 1 g 1 g 1 g 1 g 1 g 1 g 1 g 1 g 1 g 1 g 1 g 1 g 1 g 0 g 0 g 0 g 0 g 0 g 0 g 0 g 0 g 0 g 0 g 0 g 0 g 0 g 0 g 0 g 0 g 0 g 0 g 0 g 0 g 0 g 0 g 0 g 0 g 0 g 0 g 0 g 0 g .5 g .5 g .5 g .5 g .5 g .5 g .5 g .5 g .5 g .5 g .5 g .5 g .5 g .5 g .5 g .5 g .5 g .5 g .5 g .5 g .5 g .5 g .5 g .5 g .5 g .5 g 1 g 1 g 1 g 1 g 1 g 1 g 1 g 1 g 1 g 1 g 1 g 1 g 1 g 1 g 1 g 1 g 1 g 1 g 1 g 1 g 1 g 1 g 1 g 1 g 1 g 1 g 1 g 1 g 1 g 0 g 0 g 0 g 0 g 0 g 0 g 0 g 0 g 0 g 0 g 0 g 0 g 0 g 0 g 0 g 0 g 0 g 0 g 0 g 0 g 0 g 0 g 0 g 0 g 0 g 0 g 0 g 0 g .5 g .5 g .5 g .5 g .5 g .5 g .5 g .5 g .5 g .5 g .5 g .5 g .5 g .5 g .5 g .5 g .5 g .5 g .5 g .5 g .5 g .5 g .5 g .5 g .5 g .5 g .5 g .5 g .5 g .5 g .5 g .5 g 1 g 1 g 1 g 1 g 1 g 1 g 1 g 1 g 1 g 1 g 1 g 1 g 1 g 1 g 1 g 1 g 1 g 1 g 1 g 1 g 1 g 1 g 1 g 0 g 0 g 0 g 0 g 0 g 0 g 0 g 0 g 0 g 0 g 0 g 0 g 0 g 0 g 0 g 0 g 0 g 0 g 0 g 0 g 0 g 0 g 0 g 0 g 0 g 0 g 0 g 0 g .5 g .5 g .5 g .5 g .5 g .5 g .5 g .5 g .5 g .5 g .5 g .5 g .5 g .5 g .5 g .5 g .5 g .5 g .5 g .5 g .5 g .5 g .5 g .5 g .5 g .5 g .5 g .5 g .5 g .5 g .5 g .5 g 1 g 1 g 1 g 1 g 1 g 1 g 1 g 1 g 1 g 1 g 1 g 1 g 1 g 1 g 1 g 1 g 1 g 1 g 1 g 1 g 1 g 1 g 1 g % End plot #1
% Begin plot #2
stroke
LTb
0 g 0 g 0 g 0 g 0 g 0 g 0 g 0 g 0 g 0 g 0 g 0 g 0 g 0 g 0 g 0 g 0 g 0 g 0 g 0 g 0 g 0 g 0 g 0 g 0 g 0 g 0 g 0 g 0 g .5 g .5 g .5 g .5 g .5 g .5 g .5 g .5 g .5 g .5 g .5 g .5 g .5 g .5 g .5 g .5 g .5 g .5 g .5 g .5 g .5 g .5 g .5 g .5 g .5 g .5 g .5 g .5 g .5 g .5 g .5 g .5 g 1 g 1 g 1 g 1 g 1 g 1 g 1 g 1 g 1 g 1 g 1 g 1 g 1 g 1 g 1 g 1 g 1 g 1 g 1 g 1 g 1 g 1 g 1 g 0 g 0 g 0 g 0 g 0 g 0 g 0 g 0 g 0 g 0 g 0 g 0 g 0 g 0 g 0 g 0 g 0 g 0 g 0 g 0 g 0 g 0 g 0 g 0 g 0 g 0 g 0 g 0 g .5 g .5 g .5 g .5 g .5 g .5 g .5 g .5 g .5 g .5 g .5 g .5 g .5 g .5 g .5 g .5 g .5 g .5 g .5 g .5 g .5 g .5 g .5 g .5 g .5 g .5 g .5 g .5 g 1 g 1 g 1 g 1 g 1 g 1 g 1 g 1 g 1 g 1 g 1 g 1 g 1 g 1 g 1 g 1 g 1 g 1 g 1 g 1 g 1 g 1 g 1 g 1 g 1 g 1 g 1 g 0 g 0 g 0 g 0 g 0 g 0 g 0 g 0 g 0 g 0 g 0 g 0 g 0 g 0 g 0 g 0 g 0 g 0 g 0 g 0 g 0 g 0 g 0 g 0 g 0 g 0 g 0 g 0 g .5 g .5 g .5 g .5 g .5 g .5 g .5 g .5 g .5 g .5 g .5 g .5 g .5 g .5 g .5 g .5 g .5 g .5 g .5 g .5 g .5 g .5 g .5 g 1 g 1 g 1 g 1 g 1 g 1 g 1 g 1 g 1 g 1 g 1 g 1 g 1 g 1 g 1 g 1 g 1 g 1 g 1 g 1 g 1 g 1 g 1 g 1 g 1 g 1 g 1 g 1 g 1 g 1 g 1 g 1 g 0 g 0 g 0 g 0 g 0 g 0 g 0 g 0 g 0 g 0 g 0 g 0 g 0 g 0 g 0 g 0 g 0 g 0 g 0 g 0 g 0 g 0 g 0 g 0 g 0 g 0 g 0 g 0 g .5 g .5 g .5 g .5 g .5 g .5 g .5 g .5 g .5 g .5 g .5 g .5 g .5 g .5 g .5 g .5 g .5 g .5 g .5 g .5 g .5 g .5 g .5 g 1 g 1 g 1 g 1 g 1 g 1 g 1 g 1 g 1 g 1 g 1 g 1 g 1 g 1 g 1 g 1 g 1 g 1 g 1 g 1 g 1 g 1 g 1 g 1 g 1 g 1 g 1 g 1 g 1 g 1 g 1 g 1 g 0 g 0 g 0 g 0 g 0 g 0 g 0 g 0 g 0 g 0 g 0 g 0 g 0 g 0 g 0 g 0 g 0 g 0 g 0 g 0 g 0 g 0 g 0 g 0 g 0 g 0 g 0 g 0 g .5 g .5 g .5 g .5 g .5 g .5 g .5 g .5 g .5 g .5 g .5 g .5 g .5 g .5 g .5 g .5 g .5 g .5 g .5 g .5 g .5 g .5 g .5 g .5 g .5 g .5 g .5 g 1 g 1 g 1 g 1 g 1 g 1 g 1 g 1 g 1 g 1 g 1 g 1 g 1 g 1 g 1 g 1 g 1 g 1 g 1 g 1 g 1 g 1 g 1 g 1 g 1 g 1 g 1 g 1 g 0 g 0 g 0 g 0 g 0 g 0 g 0 g 0 g 0 g 0 g 0 g 0 g 0 g 0 g 0 g 0 g 0 g 0 g 0 g 0 g 0 g 0 g 0 g 0 g 0 g 0 g 0 g 0 g .5 g .5 g .5 g .5 g .5 g .5 g .5 g .5 g .5 g .5 g .5 g .5 g .5 g .5 g .5 g .5 g .5 g .5 g .5 g .5 g .5 g .5 g .5 g .5 g .5 g .5 g .5 g .5 g .5 g .5 g .5 g .5 g 1 g 1 g 1 g 1 g 1 g 1 g 1 g 1 g 1 g 1 g 1 g 1 g 1 g 1 g 1 g 1 g 1 g 1 g 1 g 1 g 1 g 1 g 1 g 0 g 0 g 0 g 0 g 0 g 0 g 0 g 0 g 0 g 0 g 0 g 0 g 0 g 0 g 0 g 0 g 0 g 0 g 0 g 0 g 0 g 0 g 0 g 0 g 0 g 0 g 0 g 0 g .5 g .5 g .5 g .5 g .5 g .5 g .5 g .5 g .5 g .5 g .5 g .5 g .5 g .5 g .5 g .5 g .5 g .5 g .5 g .5 g .5 g .5 g .5 g .5 g .5 g .5 g .5 g .5 g .5 g .5 g .5 g .5 g .5 g 1 g 1 g 1 g 1 g 1 g 1 g 1 g 1 g 1 g 1 g 1 g 1 g 1 g 1 g 1 g 1 g 1 g 1 g 1 g 1 g 1 g 1 g 0 g 0 g 0 g 0 g 0 g 0 g 0 g 0 g 0 g 0 g 0 g 0 g 0 g 0 g 0 g 0 g 0 g 0 g 0 g 0 g 0 g 0 g 0 g 0 g 0 g 0 g 0 g 0 g .5 g .5 g .5 g .5 g .5 g .5 g .5 g .5 g .5 g .5 g .5 g .5 g .5 g .5 g .5 g .5 g .5 g .5 g .5 g .5 g .5 g .5 g .5 g .5 g .5 g .5 g .5 g .5 g .5 g .5 g 1 g 1 g 1 g 1 g 1 g 1 g 1 g 1 g 1 g 1 g 1 g 1 g 1 g 1 g 1 g 1 g 1 g 1 g 1 g 1 g 1 g 1 g 1 g 1 g 1 g 0 g 0 g 0 g 0 g 0 g 0 g 0 g 0 g 0 g 0 g 0 g 0 g 0 g 0 g 0 g 0 g 0 g 0 g 0 g 0 g 0 g 0 g 0 g 0 g 0 g 0 g 0 g 0 g .5 g .5 g .5 g .5 g .5 g .5 g .5 g .5 g .5 g .5 g .5 g .5 g .5 g .5 g .5 g .5 g .5 g .5 g .5 g .5 g .5 g .5 g .5 g .5 g .5 g .5 g .5 g 1 g 1 g 1 g 1 g 1 g 1 g 1 g 1 g 1 g 1 g 1 g 1 g 1 g 1 g 1 g 1 g 1 g 1 g 1 g 1 g 1 g 1 g 1 g 1 g 1 g 1 g 1 g 1 g 1 g 1 g 0 g 0 g 0 g 0 g 0 g 0 g 0 g 0 g 0 g 0 g 0 g 0 g 0 g 0 g 0 g 0 g 0 g 0 g 0 g 0 g 0 g 0 g 0 g 0 g 0 g 0 g 0 g 0 g .5 g .5 g .5 g .5 g .5 g .5 g .5 g .5 g .5 g .5 g .5 g .5 g .5 g .5 g .5 g .5 g .5 g .5 g .5 g .5 g .5 g .5 g .5 g .5 g 1 g 1 g 1 g 1 g 1 g 1 g 1 g 1 g 1 g 1 g 1 g 1 g 1 g 1 g 1 g 1 g 1 g 1 g 1 g 1 g 1 g 1 g 1 g 1 g 1 g 1 g 1 g 1 g 1 g 1 g 1 g 1 g 1 g 0 g 0 g 0 g 0 g 0 g 0 g 0 g 0 g 0 g 0 g 0 g 0 g 0 g 0 g 0 g 0 g 0 g 0 g 0 g 0 g 0 g 0 g 0 g 0 g 0 g 0 g 0 g 0 g .5 g .5 g .5 g .5 g .5 g .5 g .5 g .5 g .5 g .5 g .5 g .5 g .5 g .5 g .5 g .5 g .5 g .5 g .5 g .5 g .5 g .5 g .5 g 1 g 1 g 1 g 1 g 1 g 1 g 1 g 1 g 1 g 1 g 1 g 1 g 1 g 1 g 1 g 1 g 1 g 1 g 1 g 1 g 1 g 1 g 1 g 1 g 1 g 1 g 1 g 1 g 1 g 1 g 1 g 1 g 1 g 1 g 0 g 0 g 0 g 0 g 0 g 0 g 0 g 0 g 0 g 0 g 0 g 0 g 0 g 0 g 0 g 0 g 0 g 0 g 0 g 0 g 0 g 0 g 0 g 0 g 0 g 0 g 0 g 0 g .5 g .5 g .5 g .5 g .5 g .5 g .5 g .5 g .5 g .5 g .5 g .5 g .5 g .5 g .5 g .5 g .5 g .5 g .5 g .5 g .5 g .5 g .5 g .5 g .5 g 1 g 1 g 1 g 1 g 1 g 1 g 1 g 1 g 1 g 1 g 1 g 1 g 1 g 1 g 1 g 1 g 1 g 1 g 1 g 1 g 1 g 1 g 1 g 1 g 1 g 1 g 1 g 1 g 1 g 1 g 1 g 1 g 0 g 0 g 0 g 0 g 0 g 0 g 0 g 0 g 0 g 0 g 0 g 0 g 0 g 0 g 0 g 0 g 0 g 0 g 0 g 0 g 0 g 0 g 0 g 0 g 0 g 0 g 0 g 0 g .5 g 5438 2534 M
.5 g 5438 2534 M
-1 59 V
.5 g 5437 2593 M
-3 59 V
.5 g 5434 2652 M
-6 59 V
.5 g 5428 2711 M
-8 58 V
.5 g 5420 2769 M
-10 58 V
.5 g 5410 2827 M
-13 58 V
.5 g 5397 2885 M
-14 57 V
.5 g 5383 2942 M
-17 57 V
.5 g 5366 2999 M
-19 56 V
.5 g 5347 3055 M
-22 55 V
.5 g 5325 3110 M
-23 55 V
.5 g 5302 3165 M
-25 53 V
.5 g 5277 3218 M
-28 52 V
.5 g 5249 3270 M
-29 52 V
.5 g 5220 3322 M
-32 50 V
.5 g 5188 3372 M
-33 48 V
.5 g 5155 3420 M
-35 48 V
.5 g 5120 3468 M
-38 46 V
.5 g 5082 3514 M
-38 45 V
.5 g 5044 3559 M
-41 43 V
.5 g 5003 3602 M
-42 41 V
.5 g 4961 3643 M
-44 40 V
.5 g 4917 3683 M
-45 38 V
.5 g 4872 3721 M
-47 37 V
.5 g 4825 3758 M
-48 34 V
.5 g 4777 3792 M
-49 33 V
.5 g 4728 3825 M
-50 30 V
.5 g 4678 3855 M
-52 29 V
.5 g 4626 3884 M
-53 27 V
.5 g 4573 3911 M
-54 24 V
.5 g 4519 3935 M
-54 23 V
1 g 1 g 1 g 1 g 1 g 1 g 1 g 1 g 1 g 1 g 1 g 1 g 1 g 1 g 1 g 1 g 1 g 1 g 1 g 1 g 1 g 1 g 1 g 0 g 0 g 0 g 0 g 0 g 0 g 0 g 0 g 0 g 0 g 0 g 0 g 0 g 0 g 0 g 0 g 0 g 0 g 0 g 0 g 0 g 0 g 0 g 0 g 0 g 0 g 0 g 0 g .5 g 4412 3977 M
.5 g 4412 3977 M
-56 19 V
.5 g 4356 3996 M
-57 16 V
.5 g 4299 4012 M
-57 14 V
.5 g 4242 4026 M
-58 11 V
.5 g 4184 4037 M
-59 10 V
.5 g 4125 4047 M
-59 7 V
.5 g 4066 4054 M
-58 5 V
.5 g 4008 4059 M
-60 3 V
.5 g 3948 4062 M
-59 0 V
.5 g 3889 4062 M
-59 -2 V
.5 g 3830 4060 M
-59 -4 V
.5 g 3771 4056 M
-59 -7 V
.5 g 3712 4049 M
-58 -8 V
.5 g 3654 4041 M
-58 -11 V
.5 g 3596 4030 M
-58 -14 V
.5 g 3538 4016 M
-57 -15 V
.5 g 3481 4001 M
-56 -18 V
.5 g 3425 3983 M
-56 -20 V
.5 g 3369 3963 M
-55 -22 V
.5 g 3314 3941 M
-54 -24 V
.5 g 3260 3917 M
-53 -26 V
.5 g 3207 3891 M
-52 -28 V
.5 g 3155 3863 M
-51 -30 V
.5 g 3104 3833 M
-49 -32 V
.5 g 3055 3801 M
-49 -34 V
.5 g 3006 3767 M
-47 -36 V
.5 g 2959 3731 M
-45 -38 V
1 g 1 g 1 g 1 g 1 g 1 g 1 g 1 g 1 g 1 g 1 g 1 g 1 g 1 g 1 g 1 g 1 g 1 g 1 g 1 g 1 g 1 g 1 g 1 g 1 g 1 g 1 g 0 g 0 g 0 g 0 g 0 g 0 g 0 g 0 g 0 g 0 g 0 g 0 g 0 g 0 g 0 g 0 g 0 g 0 g 0 g 0 g 0 g 0 g 0 g 0 g 0 g 0 g 0 g 0 g .5 g 2911 3690 M
.5 g 2911 3690 M
-44 -39 V
.5 g 2867 3651 M
-43 -41 V
.5 g 2824 3610 M
-41 -43 V
.5 g 2783 3567 M
-39 -44 V
.5 g 2744 3523 M
-37 -46 V
.5 g 2707 3477 M
-36 -47 V
.5 g 2671 3430 M
-34 -49 V
.5 g 2637 3381 M
-31 -50 V
.5 g 2606 3331 M
-30 -51 V
.5 g 2576 3280 M
-28 -52 V
.5 g 2548 3228 M
-26 -53 V
.5 g 2522 3175 M
-24 -54 V
.5 g 2498 3121 M
-21 -55 V
.5 g 2477 3066 M
-20 -56 V
.5 g 2457 3010 M
-17 -57 V
.5 g 2440 2953 M
-15 -57 V
.5 g 2425 2896 M
-13 -58 V
.5 g 2412 2838 M
-11 -58 V
.5 g 2401 2780 M
-8 -58 V
.5 g 2393 2722 M
-7 -59 V
.5 g 2386 2663 M
-3 -59 V
.5 g 2383 2604 M
-2 -59 V
1 g 1 g 1 g 1 g 1 g 1 g 1 g 1 g 1 g 1 g 1 g 1 g 1 g 1 g 1 g 1 g 1 g 1 g 1 g 1 g 1 g 1 g 1 g 1 g 1 g 1 g 1 g 1 g 1 g 1 g 1 g 1 g 0 g 0 g 0 g 0 g 0 g 0 g 0 g 0 g 0 g 0 g 0 g 0 g 0 g 0 g 0 g 0 g 0 g 0 g 0 g 0 g 0 g 0 g 0 g 0 g 0 g 0 g 0 g 0 g .5 g 2381 2534 M
.5 g 2381 2534 M
1 -60 V
.5 g 2382 2474 M
4 -59 V
.5 g 2386 2415 M
5 -59 V
.5 g 2391 2356 M
8 -58 V
.5 g 2399 2298 M
10 -58 V
.5 g 2409 2240 M
13 -58 V
.5 g 2422 2182 M
15 -57 V
.5 g 2437 2125 M
17 -57 V
.5 g 2454 2068 M
19 -56 V
.5 g 2473 2012 M
21 -55 V
.5 g 2494 1957 M
23 -55 V
.5 g 2517 1902 M
26 -53 V
.5 g 2543 1849 M
27 -52 V
.5 g 2570 1797 M
30 -52 V
.5 g 2600 1745 M
31 -50 V
.5 g 2631 1695 M
34 -48 V
.5 g 2665 1647 M
35 -48 V
.5 g 2700 1599 M
37 -46 V
.5 g 2737 1553 M
39 -45 V
.5 g 2776 1508 M
40 -43 V
.5 g 2816 1465 M
42 -41 V
.5 g 2858 1424 M
44 -40 V
1 g 1 g 1 g 1 g 1 g 1 g 1 g 1 g 1 g 1 g 1 g 1 g 1 g 1 g 1 g 1 g 1 g 1 g 1 g 1 g 1 g 1 g 1 g 1 g 1 g 1 g 1 g 1 g 1 g 1 g 1 g 1 g 0 g 0 g 0 g 0 g 0 g 0 g 0 g 0 g 0 g 0 g 0 g 0 g 0 g 0 g 0 g 0 g 0 g 0 g 0 g 0 g 0 g 0 g 0 g 0 g 0 g 0 g 0 g 0 g .5 g 2911 1377 M
.5 g 2911 1377 M
45 -38 V
.5 g 2956 1339 M
47 -36 V
.5 g 3003 1303 M
48 -34 V
.5 g 3051 1269 M
50 -33 V
.5 g 3101 1236 M
51 -30 V
.5 g 3152 1206 M
51 -28 V
.5 g 3203 1178 M
53 -27 V
.5 g 3256 1151 M
54 -24 V
.5 g 3310 1127 M
55 -22 V
.5 g 3365 1105 M
56 -20 V
.5 g 3421 1085 M
56 -18 V
.5 g 3477 1067 M
57 -15 V
.5 g 3534 1052 M
58 -14 V
.5 g 3592 1038 M
58 -11 V
.5 g 3650 1027 M
58 -9 V
.5 g 3708 1018 M
59 -7 V
.5 g 3767 1011 M
59 -4 V
.5 g 3826 1007 M
59 -2 V
.5 g 3885 1005 M
59 0 V
.5 g 3944 1005 M
59 3 V
.5 g 4003 1008 M
59 4 V
stroke 4062 1012 M
.5 g 4062 1012 M
59 7 V
.5 g 4121 1019 M
58 10 V
.5 g 4179 1029 M
58 11 V
.5 g 4237 1040 M
58 14 V
.5 g 4295 1054 M
57 16 V
1 g 1 g 1 g 1 g 1 g 1 g 1 g 1 g 1 g 1 g 1 g 1 g 1 g 1 g 1 g 1 g 1 g 1 g 1 g 1 g 1 g 1 g 1 g 1 g 1 g 1 g 1 g 1 g 0 g 0 g 0 g 0 g 0 g 0 g 0 g 0 g 0 g 0 g 0 g 0 g 0 g 0 g 0 g 0 g 0 g 0 g 0 g 0 g 0 g 0 g 0 g 0 g 0 g 0 g 0 g 0 g .5 g 4412 1090 M
.5 g 4412 1090 M
56 20 V
.5 g 4468 1110 M
54 23 V
.5 g 4522 1133 M
54 25 V
.5 g 4576 1158 M
53 26 V
.5 g 4629 1184 M
51 29 V
.5 g 4680 1213 M
51 31 V
.5 g 4731 1244 M
49 33 V
.5 g 4780 1277 M
48 34 V
.5 g 4828 1311 M
47 37 V
.5 g 4875 1348 M
45 38 V
.5 g 4920 1386 M
43 40 V
.5 g 4963 1426 M
42 41 V
.5 g 5005 1467 M
41 44 V
.5 g 5046 1511 M
38 44 V
.5 g 5084 1555 M
37 46 V
.5 g 5121 1601 M
36 48 V
.5 g 5157 1649 M
33 49 V
.5 g 5190 1698 M
31 50 V
.5 g 5221 1748 M
30 51 V
.5 g 5251 1799 M
27 53 V
.5 g 5278 1852 M
25 53 V
.5 g 5303 1905 M
24 55 V
.5 g 5327 1960 M
21 55 V
.5 g 5348 2015 M
19 56 V
.5 g 5367 2071 M
16 57 V
.5 g 5383 2128 M
15 57 V
.5 g 5398 2185 M
12 58 V
.5 g 5410 2243 M
11 58 V
.5 g 5421 2301 M
7 59 V
.5 g 5428 2360 M
6 58 V
.5 g 5434 2418 M
3 59 V
1 g 1 g 1 g 1 g 1 g 1 g 1 g 1 g 1 g 1 g 1 g 1 g 1 g 1 g 1 g 1 g 1 g 1 g 1 g 1 g 1 g 1 g 1 g 0 g 0 g 0 g 0 g 0 g 0 g 0 g 0 g 0 g 0 g 0 g 0 g 0 g 0 g 0 g 0 g 0 g 0 g 0 g 0 g 0 g 0 g 0 g 0 g 0 g 0 g 0 g 0 g .5 g .5 g .5 g .5 g .5 g .5 g .5 g .5 g .5 g .5 g .5 g .5 g .5 g .5 g .5 g .5 g .5 g .5 g .5 g .5 g .5 g .5 g .5 g .5 g .5 g .5 g .5 g .5 g .5 g .5 g .5 g .5 g 1 g 1 g 1 g 1 g 1 g 1 g 1 g 1 g 1 g 1 g 1 g 1 g 1 g 1 g 1 g 1 g 1 g 1 g 1 g 1 g 1 g 1 g 1 g 0 g 0 g 0 g 0 g 0 g 0 g 0 g 0 g 0 g 0 g 0 g 0 g 0 g 0 g 0 g 0 g 0 g 0 g 0 g 0 g 0 g 0 g 0 g 0 g 0 g 0 g 0 g 0 g .5 g .5 g .5 g .5 g .5 g .5 g .5 g .5 g .5 g .5 g .5 g .5 g .5 g .5 g .5 g .5 g .5 g .5 g .5 g .5 g .5 g .5 g .5 g .5 g .5 g .5 g 1 g 1 g 1 g 1 g 1 g 1 g 1 g 1 g 1 g 1 g 1 g 1 g 1 g 1 g 1 g 1 g 1 g 1 g 1 g 1 g 1 g 1 g 1 g 1 g 1 g 1 g 1 g 1 g 1 g 0 g 0 g 0 g 0 g 0 g 0 g 0 g 0 g 0 g 0 g 0 g 0 g 0 g 0 g 0 g 0 g 0 g 0 g 0 g 0 g 0 g 0 g 0 g 0 g 0 g 0 g 0 g 0 g .5 g .5 g .5 g .5 g .5 g .5 g .5 g .5 g .5 g .5 g .5 g .5 g .5 g .5 g .5 g .5 g .5 g .5 g .5 g .5 g .5 g .5 g 1 g 1 g 1 g 1 g 1 g 1 g 1 g 1 g 1 g 1 g 1 g 1 g 1 g 1 g 1 g 1 g 1 g 1 g 1 g 1 g 1 g 1 g 1 g 1 g 1 g 1 g 1 g 1 g 1 g 1 g 1 g 1 g 1 g 0 g 0 g 0 g 0 g 0 g 0 g 0 g 0 g 0 g 0 g 0 g 0 g 0 g 0 g 0 g 0 g 0 g 0 g 0 g 0 g 0 g 0 g 0 g 0 g 0 g 0 g 0 g 0 g .5 g .5 g .5 g .5 g .5 g .5 g .5 g .5 g .5 g .5 g .5 g .5 g .5 g .5 g .5 g .5 g .5 g .5 g .5 g .5 g .5 g .5 g .5 g .5 g .5 g .5 g 1 g 1 g 1 g 1 g 1 g 1 g 1 g 1 g 1 g 1 g 1 g 1 g 1 g 1 g 1 g 1 g 1 g 1 g 1 g 1 g 1 g 1 g 1 g 1 g 1 g 1 g 1 g 1 g 1 g 0 g 0 g 0 g 0 g 0 g 0 g 0 g 0 g 0 g 0 g 0 g 0 g 0 g 0 g 0 g 0 g 0 g 0 g 0 g 0 g 0 g 0 g 0 g 0 g 0 g 0 g 0 g 0 g .5 g .5 g .5 g .5 g .5 g .5 g .5 g .5 g .5 g .5 g .5 g .5 g .5 g .5 g .5 g .5 g .5 g .5 g .5 g .5 g .5 g .5 g .5 g .5 g .5 g .5 g .5 g .5 g .5 g .5 g .5 g .5 g 1 g 1 g 1 g 1 g 1 g 1 g 1 g 1 g 1 g 1 g 1 g 1 g 1 g 1 g 1 g 1 g 1 g 1 g 1 g 1 g 1 g 1 g 1 g 0 g 0 g 0 g 0 g 0 g 0 g 0 g 0 g 0 g 0 g 0 g 0 g 0 g 0 g 0 g 0 g 0 g 0 g 0 g 0 g 0 g 0 g 0 g 0 g 0 g 0 g 0 g 0 g .5 g .5 g .5 g .5 g .5 g .5 g .5 g .5 g .5 g .5 g .5 g .5 g .5 g .5 g .5 g .5 g .5 g .5 g .5 g .5 g .5 g .5 g .5 g .5 g .5 g .5 g .5 g .5 g .5 g .5 g .5 g .5 g 1 g 1 g 1 g 1 g 1 g 1 g 1 g 1 g 1 g 1 g 1 g 1 g 1 g 1 g 1 g 1 g 1 g 1 g 1 g 1 g 1 g 1 g 1 g % End plot #2
% Begin plot #3
stroke
LTb
0 g 0 g 0 g 0 g 0 g 0 g 0 g 0 g 0 g 0 g 0 g 0 g 0 g 0 g 0 g 0 g 0 g 0 g 0 g 0 g 0 g 0 g 0 g 0 g 0 g 0 g 0 g 0 g 0 g .5 g .5 g .5 g .5 g .5 g .5 g .5 g .5 g .5 g .5 g .5 g .5 g .5 g .5 g .5 g .5 g .5 g .5 g .5 g .5 g .5 g .5 g .5 g .5 g .5 g .5 g .5 g .5 g .5 g .5 g .5 g .5 g 1 g 1 g 1 g 1 g 1 g 1 g 1 g 1 g 1 g 1 g 1 g 1 g 1 g 1 g 1 g 1 g 1 g 1 g 1 g 1 g 1 g 1 g 1 g 0 g 0 g 0 g 0 g 0 g 0 g 0 g 0 g 0 g 0 g 0 g 0 g 0 g 0 g 0 g 0 g 0 g 0 g 0 g 0 g 0 g 0 g 0 g 0 g 0 g 0 g 0 g 0 g .5 g .5 g .5 g .5 g .5 g .5 g .5 g .5 g .5 g .5 g .5 g .5 g .5 g .5 g .5 g .5 g .5 g .5 g .5 g .5 g .5 g .5 g .5 g .5 g .5 g .5 g .5 g .5 g 1 g 1 g 1 g 1 g 1 g 1 g 1 g 1 g 1 g 1 g 1 g 1 g 1 g 1 g 1 g 1 g 1 g 1 g 1 g 1 g 1 g 1 g 1 g 1 g 1 g 1 g 1 g 0 g 0 g 0 g 0 g 0 g 0 g 0 g 0 g 0 g 0 g 0 g 0 g 0 g 0 g 0 g 0 g 0 g 0 g 0 g 0 g 0 g 0 g 0 g 0 g 0 g 0 g 0 g 0 g .5 g .5 g .5 g .5 g .5 g .5 g .5 g .5 g .5 g .5 g .5 g .5 g .5 g .5 g .5 g .5 g .5 g .5 g .5 g .5 g .5 g .5 g .5 g 1 g 1 g 1 g 1 g 1 g 1 g 1 g 1 g 1 g 1 g 1 g 1 g 1 g 1 g 1 g 1 g 1 g 1 g 1 g 1 g 1 g 1 g 1 g 1 g 1 g 1 g 1 g 1 g 1 g 1 g 1 g 1 g 0 g 0 g 0 g 0 g 0 g 0 g 0 g 0 g 0 g 0 g 0 g 0 g 0 g 0 g 0 g 0 g 0 g 0 g 0 g 0 g 0 g 0 g 0 g 0 g 0 g 0 g 0 g 0 g .5 g .5 g .5 g .5 g .5 g .5 g .5 g .5 g .5 g .5 g .5 g .5 g .5 g .5 g .5 g .5 g .5 g .5 g .5 g .5 g .5 g .5 g .5 g 1 g 1 g 1 g 1 g 1 g 1 g 1 g 1 g 1 g 1 g 1 g 1 g 1 g 1 g 1 g 1 g 1 g 1 g 1 g 1 g 1 g 1 g 1 g 1 g 1 g 1 g 1 g 1 g 1 g 1 g 1 g 1 g 0 g 0 g 0 g 0 g 0 g 0 g 0 g 0 g 0 g 0 g 0 g 0 g 0 g 0 g 0 g 0 g 0 g 0 g 0 g 0 g 0 g 0 g 0 g 0 g 0 g 0 g 0 g 0 g .5 g .5 g .5 g .5 g .5 g .5 g .5 g .5 g .5 g .5 g .5 g .5 g .5 g .5 g .5 g .5 g .5 g .5 g .5 g .5 g .5 g .5 g .5 g .5 g .5 g .5 g .5 g 1 g 1 g 1 g 1 g 1 g 1 g 1 g 1 g 1 g 1 g 1 g 1 g 1 g 1 g 1 g 1 g 1 g 1 g 1 g 1 g 1 g 1 g 1 g 1 g 1 g 1 g 1 g 1 g 0 g 0 g 0 g 0 g 0 g 0 g 0 g 0 g 0 g 0 g 0 g 0 g 0 g 0 g 0 g 0 g 0 g 0 g 0 g 0 g 0 g 0 g 0 g 0 g 0 g 0 g 0 g 0 g .5 g .5 g .5 g .5 g .5 g .5 g .5 g .5 g .5 g .5 g .5 g .5 g .5 g .5 g .5 g .5 g .5 g .5 g .5 g .5 g .5 g .5 g .5 g .5 g .5 g .5 g .5 g .5 g .5 g .5 g .5 g .5 g 1 g 1 g 1 g 1 g 1 g 1 g 1 g 1 g 1 g 1 g 1 g 1 g 1 g 1 g 1 g 1 g 1 g 1 g 1 g 1 g 1 g 1 g 1 g 0 g 0 g 0 g 0 g 0 g 0 g 0 g 0 g 0 g 0 g 0 g 0 g 0 g 0 g 0 g 0 g 0 g 0 g 0 g 0 g 0 g 0 g 0 g 0 g 0 g 0 g 0 g 0 g .5 g .5 g .5 g .5 g .5 g .5 g .5 g .5 g .5 g .5 g .5 g .5 g .5 g .5 g .5 g .5 g .5 g .5 g .5 g .5 g .5 g .5 g .5 g .5 g .5 g .5 g .5 g .5 g .5 g .5 g .5 g .5 g .5 g 1 g 1 g 1 g 1 g 1 g 1 g 1 g 1 g 1 g 1 g 1 g 1 g 1 g 1 g 1 g 1 g 1 g 1 g 1 g 1 g 1 g 1 g 0 g 0 g 0 g 0 g 0 g 0 g 0 g 0 g 0 g 0 g 0 g 0 g 0 g 0 g 0 g 0 g 0 g 0 g 0 g 0 g 0 g 0 g 0 g 0 g 0 g 0 g 0 g 0 g .5 g .5 g .5 g .5 g .5 g .5 g .5 g .5 g .5 g .5 g .5 g .5 g .5 g .5 g .5 g .5 g .5 g .5 g .5 g .5 g .5 g .5 g .5 g .5 g .5 g .5 g .5 g .5 g .5 g .5 g 1 g 1 g 1 g 1 g 1 g 1 g 1 g 1 g 1 g 1 g 1 g 1 g 1 g 1 g 1 g 1 g 1 g 1 g 1 g 1 g 1 g 1 g 1 g 1 g 1 g 0 g 0 g 0 g 0 g 0 g 0 g 0 g 0 g 0 g 0 g 0 g 0 g 0 g 0 g 0 g 0 g 0 g 0 g 0 g 0 g 0 g 0 g 0 g 0 g 0 g 0 g 0 g 0 g .5 g .5 g .5 g .5 g .5 g .5 g .5 g .5 g .5 g .5 g .5 g .5 g .5 g .5 g .5 g .5 g .5 g .5 g .5 g .5 g .5 g .5 g .5 g .5 g .5 g .5 g .5 g 1 g 1 g 1 g 1 g 1 g 1 g 1 g 1 g 1 g 1 g 1 g 1 g 1 g 1 g 1 g 1 g 1 g 1 g 1 g 1 g 1 g 1 g 1 g 1 g 1 g 1 g 1 g 1 g 1 g 1 g 0 g 0 g 0 g 0 g 0 g 0 g 0 g 0 g 0 g 0 g 0 g 0 g 0 g 0 g 0 g 0 g 0 g 0 g 0 g 0 g 0 g 0 g 0 g 0 g 0 g 0 g 0 g 0 g .5 g .5 g .5 g .5 g .5 g .5 g .5 g .5 g .5 g .5 g .5 g .5 g .5 g .5 g .5 g .5 g .5 g .5 g .5 g .5 g .5 g .5 g .5 g .5 g 1 g 1 g 1 g 1 g 1 g 1 g 1 g 1 g 1 g 1 g 1 g 1 g 1 g 1 g 1 g 1 g 1 g 1 g 1 g 1 g 1 g 1 g 1 g 1 g 1 g 1 g 1 g 1 g 1 g 1 g 1 g 1 g 1 g 0 g 0 g 0 g 0 g 0 g 0 g 0 g 0 g 0 g 0 g 0 g 0 g 0 g 0 g 0 g 0 g 0 g 0 g 0 g 0 g 0 g 0 g 0 g 0 g 0 g 0 g 0 g 0 g .5 g .5 g .5 g .5 g .5 g .5 g .5 g .5 g .5 g .5 g .5 g .5 g .5 g .5 g .5 g .5 g .5 g .5 g .5 g .5 g .5 g .5 g .5 g 1 g 1 g 1 g 1 g 1 g 1 g 1 g 1 g 1 g 1 g 1 g 1 g 1 g 1 g 1 g 1 g 1 g 1 g 1 g 1 g 1 g 1 g 1 g 1 g 1 g 1 g 1 g 1 g 1 g 1 g 1 g 1 g 1 g 1 g 0 g 0 g 0 g 0 g 0 g 0 g 0 g 0 g 0 g 0 g 0 g 0 g 0 g 0 g 0 g 0 g 0 g 0 g 0 g 0 g 0 g 0 g 0 g 0 g 0 g 0 g 0 g 0 g .5 g .5 g .5 g .5 g .5 g .5 g .5 g .5 g .5 g .5 g .5 g .5 g .5 g .5 g .5 g .5 g .5 g .5 g .5 g .5 g .5 g .5 g .5 g .5 g .5 g 1 g 1 g 1 g 1 g 1 g 1 g 1 g 1 g 1 g 1 g 1 g 1 g 1 g 1 g 1 g 1 g 1 g 1 g 1 g 1 g 1 g 1 g 1 g 1 g 1 g 1 g 1 g 1 g 1 g 1 g 1 g 1 g 0 g 0 g 0 g 0 g 0 g 0 g 0 g 0 g 0 g 0 g 0 g 0 g 0 g 0 g 0 g 0 g 0 g 0 g 0 g 0 g 0 g 0 g 0 g 0 g 0 g 0 g 0 g 0 g .5 g .5 g .5 g .5 g .5 g .5 g .5 g .5 g .5 g .5 g .5 g .5 g .5 g .5 g .5 g .5 g .5 g .5 g .5 g .5 g .5 g .5 g .5 g .5 g .5 g .5 g .5 g .5 g .5 g .5 g .5 g .5 g 1 g 4776 2534 M
1 g 4776 2534 M
-1 59 V
1 g 4775 2593 M
-4 59 V
1 g 4771 2652 M
-5 59 V
1 g 4766 2711 M
-8 58 V
1 g 4758 2769 M
-10 58 V
1 g 4748 2827 M
-13 58 V
1 g 4735 2885 M
-15 57 V
1 g 4720 2942 M
-17 57 V
1 g 4703 2999 M
-19 56 V
1 g 4684 3055 M
-21 55 V
1 g 4663 3110 M
-23 55 V
1 g 4640 3165 M
-26 53 V
1 g 4614 3218 M
-27 52 V
1 g 4587 3270 M
-30 52 V
1 g 4557 3322 M
-31 50 V
1 g 4526 3372 M
-34 48 V
1 g 4492 3420 M
-35 48 V
1 g 4457 3468 M
-37 46 V
1 g 4420 3514 M
-39 45 V
1 g 4381 3559 M
-40 43 V
1 g 4341 3602 M
-42 41 V
1 g 4299 3643 M
-44 40 V
0 g 0 g 0 g 0 g 0 g 0 g 0 g 0 g 0 g 0 g 0 g 0 g 0 g 0 g 0 g 0 g 0 g 0 g 0 g 0 g 0 g 0 g 0 g 0 g 0 g 0 g 0 g 0 g .5 g .5 g .5 g .5 g .5 g .5 g .5 g .5 g .5 g .5 g .5 g .5 g .5 g .5 g .5 g .5 g .5 g .5 g .5 g .5 g .5 g .5 g .5 g .5 g .5 g .5 g .5 g .5 g 1 g 4246 3690 M
1 g 4246 3690 M
-45 38 V
1 g 4201 3728 M
-47 36 V
1 g 4154 3764 M
-48 34 V
1 g 4106 3798 M
-50 33 V
1 g 4056 3831 M
-51 30 V
1 g 4005 3861 M
-51 28 V
1 g 3954 3889 M
-53 27 V
1 g 3901 3916 M
-54 24 V
1 g 3847 3940 M
-55 22 V
1 g 3792 3962 M
-56 20 V
1 g 3736 3982 M
-56 18 V
1 g 3680 4000 M
-57 15 V
1 g 3623 4015 M
-58 14 V
1 g 3565 4029 M
-58 11 V
1 g 3507 4040 M
-58 9 V
1 g 3449 4049 M
-59 7 V
1 g 3390 4056 M
-59 4 V
1 g 3331 4060 M
-59 2 V
1 g 3272 4062 M
-59 0 V
1 g 3213 4062 M
-59 -3 V
1 g 3154 4059 M
-59 -4 V
1 g 3095 4055 M
-59 -7 V
1 g 3036 4048 M
-58 -10 V
1 g 2978 4038 M
-58 -11 V
1 g 2920 4027 M
-58 -14 V
1 g 2862 4013 M
-57 -16 V
0 g 0 g 0 g 0 g 0 g 0 g 0 g 0 g 0 g 0 g 0 g 0 g 0 g 0 g 0 g 0 g 0 g 0 g 0 g 0 g 0 g 0 g 0 g 0 g 0 g 0 g 0 g 0 g .5 g .5 g .5 g .5 g .5 g .5 g .5 g .5 g .5 g .5 g .5 g .5 g .5 g .5 g .5 g .5 g .5 g .5 g .5 g .5 g .5 g .5 g .5 g 1 g 2745 3977 M
1 g 2745 3977 M
-56 -20 V
1 g 2689 3957 M
-54 -23 V
1 g 2635 3934 M
-54 -25 V
1 g 2581 3909 M
-53 -26 V
1 g 2528 3883 M
-51 -29 V
1 g 2477 3854 M
-51 -31 V
1 g 2426 3823 M
-49 -33 V
1 g 2377 3790 M
-48 -34 V
1 g 2329 3756 M
-47 -37 V
1 g 2282 3719 M
-45 -38 V
1 g 2237 3681 M
-43 -40 V
1 g 2194 3641 M
-42 -41 V
1 g 2152 3600 M
-41 -44 V
1 g 2111 3556 M
-38 -44 V
1 g 2073 3512 M
-37 -46 V
1 g 2036 3466 M
-36 -48 V
1 g 2000 3418 M
-33 -49 V
1 g 1967 3369 M
-31 -50 V
1 g 1936 3319 M
-30 -51 V
1 g 1906 3268 M
-27 -53 V
1 g 1879 3215 M
-25 -53 V
1 g 1854 3162 M
-24 -55 V
1 g 1830 3107 M
-21 -55 V
1 g 1809 3052 M
-19 -56 V
1 g 1790 2996 M
-16 -57 V
1 g 1774 2939 M
-15 -57 V
1 g 1759 2882 M
-12 -58 V
1 g 1747 2824 M
-11 -58 V
1 g 1736 2766 M
-7 -59 V
1 g 1729 2707 M
-6 -58 V
1 g 1723 2649 M
-3 -59 V
0 g 0 g 0 g 0 g 0 g 0 g 0 g 0 g 0 g 0 g 0 g 0 g 0 g 0 g 0 g 0 g 0 g 0 g 0 g 0 g 0 g 0 g 0 g 0 g 0 g 0 g 0 g 0 g .5 g .5 g .5 g .5 g .5 g .5 g .5 g .5 g .5 g .5 g .5 g .5 g .5 g .5 g .5 g .5 g .5 g .5 g .5 g .5 g .5 g .5 g .5 g 1 g 1719 2534 M
1 g 1719 2534 M
1 -60 V
1 g 1720 2474 M
3 -59 V
1 g 1723 2415 M
6 -59 V
1 g 1729 2356 M
8 -58 V
1 g 1737 2298 M
10 -58 V
1 g 1747 2240 M
13 -58 V
1 g 1760 2182 M
14 -57 V
1 g 1774 2125 M
17 -57 V
1 g 1791 2068 M
19 -56 V
1 g 1810 2012 M
22 -55 V
1 g 1832 1957 M
23 -55 V
1 g 1855 1902 M
25 -53 V
1 g 1880 1849 M
28 -52 V
1 g 1908 1797 M
29 -52 V
1 g 1937 1745 M
32 -50 V
1 g 1969 1695 M
33 -48 V
1 g 2002 1647 M
35 -48 V
1 g 2037 1599 M
38 -46 V
1 g 2075 1553 M
38 -45 V
1 g 2113 1508 M
41 -43 V
1 g 2154 1465 M
42 -41 V
1 g 2196 1424 M
44 -40 V
1 g 2240 1384 M
45 -38 V
1 g 2285 1346 M
47 -37 V
1 g 2332 1309 M
48 -34 V
1 g 2380 1275 M
49 -33 V
1 g 2429 1242 M
50 -30 V
1 g 2479 1212 M
52 -29 V
1 g 2531 1183 M
53 -27 V
1 g 2584 1156 M
54 -24 V
1 g 2638 1132 M
54 -23 V
0 g 0 g 0 g 0 g 0 g 0 g 0 g 0 g 0 g 0 g 0 g 0 g 0 g 0 g 0 g 0 g 0 g 0 g 0 g 0 g 0 g 0 g 0 g 0 g 0 g 0 g 0 g 0 g .5 g .5 g .5 g .5 g .5 g .5 g .5 g .5 g .5 g .5 g .5 g .5 g .5 g .5 g .5 g .5 g .5 g .5 g .5 g .5 g .5 g .5 g .5 g .5 g .5 g .5 g .5 g 1 g 2745 1090 M
1 g 2745 1090 M
56 -19 V
1 g 2801 1071 M
57 -16 V
1 g 2858 1055 M
57 -14 V
1 g 2915 1041 M
58 -11 V
1 g 2973 1030 M
59 -10 V
1 g 3032 1020 M
59 -7 V
1 g 3091 1013 M
58 -5 V
1 g 3149 1008 M
60 -3 V
1 g 3209 1005 M
59 0 V
1 g 3268 1005 M
59 2 V
1 g 3327 1007 M
59 4 V
1 g 3386 1011 M
59 7 V
1 g 3445 1018 M
58 8 V
stroke 3503 1026 M
1 g 3503 1026 M
58 11 V
1 g 3561 1037 M
58 14 V
1 g 3619 1051 M
57 15 V
1 g 3676 1066 M
56 18 V
1 g 3732 1084 M
56 20 V
1 g 3788 1104 M
55 22 V
1 g 3843 1126 M
54 24 V
1 g 3897 1150 M
53 26 V
1 g 3950 1176 M
52 28 V
1 g 4002 1204 M
51 30 V
1 g 4053 1234 M
49 32 V
1 g 4102 1266 M
49 34 V
1 g 4151 1300 M
47 36 V
1 g 4198 1336 M
45 38 V
0 g 0 g 0 g 0 g 0 g 0 g 0 g 0 g 0 g 0 g 0 g 0 g 0 g 0 g 0 g 0 g 0 g 0 g 0 g 0 g 0 g 0 g 0 g 0 g 0 g 0 g 0 g 0 g .5 g .5 g .5 g .5 g .5 g .5 g .5 g .5 g .5 g .5 g .5 g .5 g .5 g .5 g .5 g .5 g .5 g .5 g .5 g .5 g .5 g .5 g .5 g .5 g .5 g .5 g .5 g .5 g .5 g .5 g .5 g .5 g 1 g 4246 1377 M
1 g 4246 1377 M
44 39 V
1 g 4290 1416 M
43 41 V
1 g 4333 1457 M
41 43 V
1 g 4374 1500 M
39 44 V
1 g 4413 1544 M
37 46 V
1 g 4450 1590 M
36 47 V
1 g 4486 1637 M
34 49 V
1 g 4520 1686 M
31 50 V
1 g 4551 1736 M
30 51 V
1 g 4581 1787 M
28 52 V
1 g 4609 1839 M
26 53 V
1 g 4635 1892 M
24 54 V
1 g 4659 1946 M
21 55 V
1 g 4680 2001 M
20 56 V
1 g 4700 2057 M
17 57 V
1 g 4717 2114 M
15 57 V
1 g 4732 2171 M
13 58 V
1 g 4745 2229 M
11 58 V
1 g 4756 2287 M
8 58 V
1 g 4764 2345 M
7 59 V
1 g 4771 2404 M
3 59 V
1 g 4774 2463 M
2 59 V
0 g 0 g 0 g 0 g 0 g 0 g 0 g 0 g 0 g 0 g 0 g 0 g 0 g 0 g 0 g 0 g 0 g 0 g 0 g 0 g 0 g 0 g 0 g 0 g 0 g 0 g 0 g 0 g .5 g .5 g .5 g .5 g .5 g .5 g .5 g .5 g .5 g .5 g .5 g .5 g .5 g .5 g .5 g .5 g .5 g .5 g .5 g .5 g .5 g .5 g .5 g .5 g .5 g .5 g .5 g .5 g .5 g .5 g .5 g .5 g 1 g 1 g 1 g 1 g 1 g 1 g 1 g 1 g 1 g 1 g 1 g 1 g 1 g 1 g 1 g 1 g 1 g 1 g 1 g 1 g 1 g 1 g 1 g 0 g 0 g 0 g 0 g 0 g 0 g 0 g 0 g 0 g 0 g 0 g 0 g 0 g 0 g 0 g 0 g 0 g 0 g 0 g 0 g 0 g 0 g 0 g 0 g 0 g 0 g 0 g 0 g .5 g .5 g .5 g .5 g .5 g .5 g .5 g .5 g .5 g .5 g .5 g .5 g .5 g .5 g .5 g .5 g .5 g .5 g .5 g .5 g .5 g .5 g .5 g .5 g .5 g .5 g 1 g 1 g 1 g 1 g 1 g 1 g 1 g 1 g 1 g 1 g 1 g 1 g 1 g 1 g 1 g 1 g 1 g 1 g 1 g 1 g 1 g 1 g 1 g 1 g 1 g 1 g 1 g 1 g 1 g 0 g 0 g 0 g 0 g 0 g 0 g 0 g 0 g 0 g 0 g 0 g 0 g 0 g 0 g 0 g 0 g 0 g 0 g 0 g 0 g 0 g 0 g 0 g 0 g 0 g 0 g 0 g 0 g .5 g .5 g .5 g .5 g .5 g .5 g .5 g .5 g .5 g .5 g .5 g .5 g .5 g .5 g .5 g .5 g .5 g .5 g .5 g .5 g .5 g .5 g 1 g 1 g 1 g 1 g 1 g 1 g 1 g 1 g 1 g 1 g 1 g 1 g 1 g 1 g 1 g 1 g 1 g 1 g 1 g 1 g 1 g 1 g 1 g 1 g 1 g 1 g 1 g 1 g 1 g 1 g 1 g 1 g 1 g 0 g 0 g 0 g 0 g 0 g 0 g 0 g 0 g 0 g 0 g 0 g 0 g 0 g 0 g 0 g 0 g 0 g 0 g 0 g 0 g 0 g 0 g 0 g 0 g 0 g 0 g 0 g 0 g .5 g .5 g .5 g .5 g .5 g .5 g .5 g .5 g .5 g .5 g .5 g .5 g .5 g .5 g .5 g .5 g .5 g .5 g .5 g .5 g .5 g .5 g .5 g .5 g .5 g .5 g 1 g 1 g 1 g 1 g 1 g 1 g 1 g 1 g 1 g 1 g 1 g 1 g 1 g 1 g 1 g 1 g 1 g 1 g 1 g 1 g 1 g 1 g 1 g 1 g 1 g 1 g 1 g 1 g 1 g 0 g 0 g 0 g 0 g 0 g 0 g 0 g 0 g 0 g 0 g 0 g 0 g 0 g 0 g 0 g 0 g 0 g 0 g 0 g 0 g 0 g 0 g 0 g 0 g 0 g 0 g 0 g 0 g .5 g .5 g .5 g .5 g .5 g .5 g .5 g .5 g .5 g .5 g .5 g .5 g .5 g .5 g .5 g .5 g .5 g .5 g .5 g .5 g .5 g .5 g .5 g .5 g .5 g .5 g .5 g .5 g .5 g .5 g .5 g .5 g 1 g 1 g 1 g 1 g 1 g 1 g 1 g 1 g 1 g 1 g 1 g 1 g 1 g 1 g 1 g 1 g 1 g 1 g 1 g 1 g 1 g 1 g 1 g 0 g 0 g 0 g 0 g 0 g 0 g 0 g 0 g 0 g 0 g 0 g 0 g 0 g 0 g 0 g 0 g 0 g 0 g 0 g 0 g 0 g 0 g 0 g 0 g 0 g 0 g 0 g 0 g .5 g .5 g .5 g .5 g .5 g .5 g .5 g .5 g .5 g .5 g .5 g .5 g .5 g .5 g .5 g .5 g .5 g .5 g .5 g .5 g .5 g .5 g .5 g .5 g .5 g .5 g .5 g .5 g .5 g .5 g .5 g .5 g 1 g 1 g 1 g 1 g 1 g 1 g 1 g 1 g 1 g 1 g 1 g 1 g 1 g 1 g 1 g 1 g 1 g 1 g 1 g 1 g 1 g 1 g 1 g % End plot #3
% Begin plot #4
0.700 UP
stroke
1.000 UL
LTb
0 g LCb setrgbcolor
5330 3979 M
[ [(Helvetica) 140.0 0.0 true true 0 (k<0)]
] -46.7 MRshow
0 g .5 g 5438 2534 TriU
.5 g 5437 2593 TriU
.5 g 5434 2652 TriU
.5 g 5429 2711 TriU
.5 g 5422 2769 TriU
.5 g 5413 2828 TriU
.5 g 5402 2886 TriU
.5 g 5389 2943 TriU
.5 g 5373 3001 TriU
.5 g 5356 3057 TriU
.5 g 5337 3113 TriU
.5 g 5316 3168 TriU
.5 g 5293 3223 TriU
.5 g 5269 3277 TriU
.5 g 5242 3330 TriU
.5 g 5214 3381 TriU
.5 g 5184 3432 TriU
.5 g 5152 3482 TriU
.5 g 5118 3531 TriU
.5 g 5083 3578 TriU
.5 g 5046 3624 TriU
.5 g 5007 3669 TriU
.5 g 4967 3713 TriU
.5 g 4925 3755 TriU
.5 g 4882 3795 TriU
.5 g 4838 3834 TriU
.5 g 4792 3872 TriU
.5 g 4745 3907 TriU
.5 g 4697 3942 TriU
.5 g 4647 3974 TriU
.5 g 4597 4005 TriU
.5 g 4545 4033 TriU
.5 g 4493 4060 TriU
.5 g 4467 4073 TriU
.5 g 4413 4097 TriU
.5 g 4358 4119 TriU
.5 g 4303 4139 TriU
.5 g 4247 4158 TriU
.5 g 4190 4174 TriU
.5 g 4132 4188 TriU
.5 g 4074 4200 TriU
.5 g 4016 4210 TriU
.5 g 3958 4218 TriU
.5 g 3899 4224 TriU
.5 g 3840 4228 TriU
.5 g 3781 4229 TriU
.5 g 3721 4229 TriU
.5 g 3662 4226 TriU
.5 g 3603 4221 TriU
.5 g 3545 4214 TriU
.5 g 3486 4204 TriU
.5 g 3428 4193 TriU
.5 g 3371 4180 TriU
.5 g 3314 4164 TriU
.5 g 3257 4146 TriU
.5 g 3202 4126 TriU
.5 g 3147 4104 TriU
.5 g 3093 4080 TriU
.5 g 3040 4054 TriU
.5 g 2987 4026 TriU
.5 g 2936 3997 TriU
.5 g 2887 3965 TriU
.5 g 2838 3931 TriU
5613 3979 TriU
% End plot #4
% Begin plot #5
0.700 UP
1.000 UL
LTb
0 g 1 g 4776 2534 TriU
1 g 4775 2593 TriU
1 g 4771 2652 TriU
1 g 4765 2710 TriU
1 g 4756 2769 TriU
1 g 4744 2827 TriU
1 g 4731 2884 TriU
1 g 4714 2941 TriU
1 g 4696 2997 TriU
1 g 4675 3053 TriU
1 g 4651 3107 TriU
1 g 4626 3160 TriU
1 g 4598 3212 TriU
1 g 4568 3263 TriU
1 g 4535 3313 TriU
1 g 4501 3361 TriU
1 g 4465 3408 TriU
1 g 4426 3453 TriU
1 g 4386 3496 TriU
1 g 4344 3538 TriU
1 g 4301 3578 TriU
1 g 4255 3616 TriU
1 g 4219 3644 TriU
1 g 4172 3678 TriU
1 g 4122 3711 TriU
1 g 4071 3741 TriU
1 g 4020 3770 TriU
1 g 3967 3796 TriU
1 g 3912 3820 TriU
1 g 3857 3841 TriU
1 g 3802 3861 TriU
1 g 3745 3878 TriU
1 g 3688 3893 TriU
1 g 3630 3905 TriU
1 g 3572 3915 TriU
1 g 3513 3923 TriU
1 g 3454 3928 TriU
1 g 3395 3931 TriU
1 g 3336 3932 TriU
1 g 3277 3930 TriU
1 g 3218 3926 TriU
1 g 3159 3919 TriU
1 g 3101 3911 TriU
1 g 3043 3899 TriU
1 g 2985 3886 TriU
1 g 2928 3870 TriU
1 g 2872 3852 TriU
% End plot #5
% Begin plot #6
0.600 UP
1.000 UL
LTb
0 g LCb setrgbcolor
5330 3839 M
[ [(Helvetica) 140.0 0.0 true true 0 (k>0)]
] -46.7 MRshow
0 g .5 g 5438 2534 Box
.5 g 5437 2593 Box
.5 g 5433 2652 Box
.5 g 5427 2710 Box
.5 g 5418 2769 Box
.5 g 5407 2827 Box
.5 g 5393 2884 Box
.5 g 5377 2941 Box
.5 g 5358 2997 Box
.5 g 5337 3053 Box
.5 g 5314 3107 Box
.5 g 5288 3160 Box
.5 g 5260 3212 Box
.5 g 5230 3263 Box
.5 g 5198 3313 Box
.5 g 5164 3361 Box
.5 g 5127 3408 Box
.5 g 5089 3453 Box
.5 g 5049 3497 Box
.5 g 5008 3538 Box
.5 g 4964 3579 Box
.5 g 4919 3617 Box
.5 g 4872 3653 Box
.5 g 4824 3688 Box
.5 g 4775 3720 Box
.5 g 4724 3750 Box
.5 g 4672 3779 Box
.5 g 4619 3805 Box
.5 g 4565 3829 Box
.5 g 4510 3851 Box
.5 g 4454 3870 Box
.5 g 4398 3888 Box
.5 g 4366 3897 Box
.5 g 4308 3911 Box
.5 g 4250 3922 Box
.5 g 4192 3932 Box
.5 g 4133 3939 Box
.5 g 4074 3944 Box
.5 g 4015 3947 Box
.5 g 3956 3947 Box
.5 g 3897 3945 Box
.5 g 3838 3941 Box
.5 g 3779 3935 Box
.5 g 3721 3926 Box
.5 g 3662 3916 Box
.5 g 3605 3903 Box
.5 g 3547 3888 Box
.5 g 3491 3871 Box
.5 g 3435 3852 Box
.5 g 3379 3831 Box
.5 g 3325 3808 Box
.5 g 3271 3783 Box
.5 g 3219 3756 Box
.5 g 3167 3728 Box
.5 g 3116 3697 Box
.5 g 3067 3665 Box
.5 g 3018 3631 Box
.5 g 2971 3595 Box
5613 3839 Box
% End plot #6
% Begin plot #7
0.600 UP
1.000 UL
LTb
0 g 1 g 4776 2534 Box
1 g 4775 2593 Box
1 g 4772 2652 Box
1 g 4767 2711 Box
1 g 4760 2769 Box
1 g 4751 2828 Box
1 g 4739 2886 Box
1 g 4726 2943 Box
1 g 4711 3001 Box
1 g 4694 3057 Box
1 g 4675 3113 Box
1 g 4654 3168 Box
1 g 4631 3223 Box
1 g 4606 3277 Box
1 g 4579 3329 Box
1 g 4550 3381 Box
1 g 4520 3432 Box
1 g 4488 3481 Box
1 g 4454 3530 Box
1 g 4418 3577 Box
1 g 4380 3622 Box
1 g 4341 3667 Box
1 g 4301 3710 Box
1 g 4273 3737 Box
1 g 4230 3777 Box
1 g 4185 3816 Box
1 g 4139 3853 Box
1 g 4092 3888 Box
1 g 4043 3922 Box
1 g 3993 3953 Box
1 g 3942 3983 Box
1 g 3890 4011 Box
1 g 3836 4037 Box
1 g 3782 4060 Box
1 g 3727 4082 Box
1 g 3671 4101 Box
1 g 3615 4118 Box
1 g 3557 4133 Box
1 g 3500 4145 Box
1 g 3441 4156 Box
1 g 3383 4164 Box
1 g 3324 4169 Box
1 g 3265 4173 Box
1 g 3206 4173 Box
1 g 3147 4172 Box
1 g 3088 4168 Box
1 g 3029 4161 Box
1 g 2970 4153 Box
1 g 2912 4141 Box
1 g 2855 4128 Box
1 g 2798 4112 Box
1 g 2742 4093 Box
% End plot #7
1.000 UL
LTb
LCb setrgbcolor
3579 2534 M
2365 0 V
stroke
2.000 UL
LTb
LCb setrgbcolor
1.000 UP
LCb setrgbcolor
5223 2664 M
currentpoint gsave translate -90 rotate 0 0 moveto
[ [(Helvetica) 140.0 0.0 true true 0 (R)]
[(Helvetica) 112.0 -42.0 true true 0 (0)]
] -32.7 MCshow
grestore
LCb setrgbcolor
4584 2758 M
currentpoint gsave translate -90 rotate 0 0 moveto
[ [(Helvetica) 140.0 0.0 true true 0 (R)]
[(Helvetica) 112.0 -42.0 true true 0 (0)]
[(Helvetica) 140.0 0.0 true true 0 (-)]
[(Symbol) 140.0 0.0 true true 0 (d)]
[(Helvetica) 140.0 0.0 true true 0 (R)]
] -32.7 MCshow
grestore
LCb setrgbcolor
5589 2758 M
currentpoint gsave translate -90 rotate 0 0 moveto
[ [(Helvetica) 140.0 0.0 true true 0 (R)]
[(Helvetica) 112.0 -42.0 true true 0 (0)]
[(Helvetica) 140.0 0.0 true true 0 (+)]
[(Symbol) 140.0 0.0 true true 0 (d)]
[(Helvetica) 140.0 0.0 true true 0 (R)]
] -32.7 MCshow
grestore
1.000 UL
LTb
LCb setrgbcolor
grestore % colour palette end
stroke
grestore
end
showpage
%%Trailer
%%DocumentFonts: Symbol Helvetica
