%!PS-Adobe-2.0 EPSF-2.0
%%Title: gnuplot_Zplt_spinDance_2D.eps
%%Creator: gnuplot 5.2 patchlevel 2
%%CreationDate: Fri Apr 22 10:00:41 2022
%%DocumentFonts: (atend)
%%BoundingBox: 50 50 410 302
%%EndComments
%%BeginProlog
/gnudict 256 dict def
gnudict begin
%
% The following true/false flags may be edited by hand if desired.
% The unit line width and grayscale image gamma correction may also be changed.
%
/Color true def
/Blacktext true def
/Solid false def
/Dashlength 1 def
/Landscape false def
/Level1 false def
/Level3 false def
/Rounded false def
/ClipToBoundingBox false def
/SuppressPDFMark false def
/TransparentPatterns false def
/gnulinewidth 5.000 def
/userlinewidth gnulinewidth def
/Gamma 1.0 def
/BackgroundColor {-1.000 -1.000 -1.000} def
%
/vshift -46 def
/dl1 {
  10.0 Dashlength userlinewidth gnulinewidth div mul mul mul
  Rounded { currentlinewidth 0.75 mul sub dup 0 le { pop 0.01 } if } if
} def
/dl2 {
  10.0 Dashlength userlinewidth gnulinewidth div mul mul mul
  Rounded { currentlinewidth 0.75 mul add } if
} def
/hpt_ 31.5 def
/vpt_ 31.5 def
/hpt hpt_ def
/vpt vpt_ def
/doclip {
  ClipToBoundingBox {
    newpath 50 50 moveto 410 50 lineto 410 302 lineto 50 302 lineto closepath
    clip
  } if
} def
%
% Gnuplot Prolog Version 5.1 (Oct 2015)
%
%/SuppressPDFMark true def
%
/M {moveto} bind def
/L {lineto} bind def
/R {rmoveto} bind def
/V {rlineto} bind def
/N {newpath moveto} bind def
/Z {closepath} bind def
/C {setrgbcolor} bind def
/f {rlineto fill} bind def
/g {setgray} bind def
/Gshow {show} def   % May be redefined later in the file to support UTF-8
/vpt2 vpt 2 mul def
/hpt2 hpt 2 mul def
/Lshow {currentpoint stroke M 0 vshift R 
	Blacktext {gsave 0 setgray textshow grestore} {textshow} ifelse} def
/Rshow {currentpoint stroke M dup stringwidth pop neg vshift R
	Blacktext {gsave 0 setgray textshow grestore} {textshow} ifelse} def
/Cshow {currentpoint stroke M dup stringwidth pop -2 div vshift R 
	Blacktext {gsave 0 setgray textshow grestore} {textshow} ifelse} def
/UP {dup vpt_ mul /vpt exch def hpt_ mul /hpt exch def
  /hpt2 hpt 2 mul def /vpt2 vpt 2 mul def} def
/DL {Color {setrgbcolor Solid {pop []} if 0 setdash}
 {pop pop pop 0 setgray Solid {pop []} if 0 setdash} ifelse} def
/BL {stroke userlinewidth 2 mul setlinewidth
	Rounded {1 setlinejoin 1 setlinecap} if} def
/AL {stroke userlinewidth 2 div setlinewidth
	Rounded {1 setlinejoin 1 setlinecap} if} def
/UL {dup gnulinewidth mul /userlinewidth exch def
	dup 1 lt {pop 1} if 10 mul /udl exch def} def
/PL {stroke userlinewidth setlinewidth
	Rounded {1 setlinejoin 1 setlinecap} if} def
3.8 setmiterlimit
% Classic Line colors (version 5.0)
/LCw {1 1 1} def
/LCb {0 0 0} def
/LCa {0 0 0} def
/LC0 {1 0 0} def
/LC1 {0 1 0} def
/LC2 {0 0 1} def
/LC3 {1 0 1} def
/LC4 {0 1 1} def
/LC5 {1 1 0} def
/LC6 {0 0 0} def
/LC7 {1 0.3 0} def
/LC8 {0.5 0.5 0.5} def
% Default dash patterns (version 5.0)
/LTB {BL [] LCb DL} def
/LTw {PL [] 1 setgray} def
/LTb {PL [] LCb DL} def
/LTa {AL [1 udl mul 2 udl mul] 0 setdash LCa setrgbcolor} def
/LT0 {PL [] LC0 DL} def
/LT1 {PL [2 dl1 3 dl2] LC1 DL} def
/LT2 {PL [1 dl1 1.5 dl2] LC2 DL} def
/LT3 {PL [6 dl1 2 dl2 1 dl1 2 dl2] LC3 DL} def
/LT4 {PL [1 dl1 2 dl2 6 dl1 2 dl2 1 dl1 2 dl2] LC4 DL} def
/LT5 {PL [4 dl1 2 dl2] LC5 DL} def
/LT6 {PL [1.5 dl1 1.5 dl2 1.5 dl1 1.5 dl2 1.5 dl1 6 dl2] LC6 DL} def
/LT7 {PL [3 dl1 3 dl2 1 dl1 3 dl2] LC7 DL} def
/LT8 {PL [2 dl1 2 dl2 2 dl1 6 dl2] LC8 DL} def
/SL {[] 0 setdash} def
/Pnt {stroke [] 0 setdash gsave 1 setlinecap M 0 0 V stroke grestore} def
/Dia {stroke [] 0 setdash 2 copy vpt add M
  hpt neg vpt neg V hpt vpt neg V
  hpt vpt V hpt neg vpt V closepath stroke
  Pnt} def
/Pls {stroke [] 0 setdash vpt sub M 0 vpt2 V
  currentpoint stroke M
  hpt neg vpt neg R hpt2 0 V stroke
 } def
/Box {stroke [] 0 setdash 2 copy exch hpt sub exch vpt add M
  0 vpt2 neg V hpt2 0 V 0 vpt2 V
  hpt2 neg 0 V closepath stroke
  Pnt} def
/Crs {stroke [] 0 setdash exch hpt sub exch vpt add M
  hpt2 vpt2 neg V currentpoint stroke M
  hpt2 neg 0 R hpt2 vpt2 V stroke} def
/TriU {stroke [] 0 setdash 2 copy vpt 1.12 mul add M
  hpt neg vpt -1.62 mul V
  hpt 2 mul 0 V
  hpt neg vpt 1.62 mul V closepath stroke
  Pnt} def
/Star {2 copy Pls Crs} def
/BoxF {stroke [] 0 setdash exch hpt sub exch vpt add M
  0 vpt2 neg V hpt2 0 V 0 vpt2 V
  hpt2 neg 0 V closepath fill} def
/TriUF {stroke [] 0 setdash vpt 1.12 mul add M
  hpt neg vpt -1.62 mul V
  hpt 2 mul 0 V
  hpt neg vpt 1.62 mul V closepath fill} def
/TriD {stroke [] 0 setdash 2 copy vpt 1.12 mul sub M
  hpt neg vpt 1.62 mul V
  hpt 2 mul 0 V
  hpt neg vpt -1.62 mul V closepath stroke
  Pnt} def
/TriDF {stroke [] 0 setdash vpt 1.12 mul sub M
  hpt neg vpt 1.62 mul V
  hpt 2 mul 0 V
  hpt neg vpt -1.62 mul V closepath fill} def
/DiaF {stroke [] 0 setdash vpt add M
  hpt neg vpt neg V hpt vpt neg V
  hpt vpt V hpt neg vpt V closepath fill} def
/Pent {stroke [] 0 setdash 2 copy gsave
  translate 0 hpt M 4 {72 rotate 0 hpt L} repeat
  closepath stroke grestore Pnt} def
/PentF {stroke [] 0 setdash gsave
  translate 0 hpt M 4 {72 rotate 0 hpt L} repeat
  closepath fill grestore} def
/Circle {stroke [] 0 setdash 2 copy
  hpt 0 360 arc stroke Pnt} def
/CircleF {stroke [] 0 setdash hpt 0 360 arc fill} def
/C0 {BL [] 0 setdash 2 copy moveto vpt 90 450 arc} bind def
/C1 {BL [] 0 setdash 2 copy moveto
	2 copy vpt 0 90 arc closepath fill
	vpt 0 360 arc closepath} bind def
/C2 {BL [] 0 setdash 2 copy moveto
	2 copy vpt 90 180 arc closepath fill
	vpt 0 360 arc closepath} bind def
/C3 {BL [] 0 setdash 2 copy moveto
	2 copy vpt 0 180 arc closepath fill
	vpt 0 360 arc closepath} bind def
/C4 {BL [] 0 setdash 2 copy moveto
	2 copy vpt 180 270 arc closepath fill
	vpt 0 360 arc closepath} bind def
/C5 {BL [] 0 setdash 2 copy moveto
	2 copy vpt 0 90 arc
	2 copy moveto
	2 copy vpt 180 270 arc closepath fill
	vpt 0 360 arc} bind def
/C6 {BL [] 0 setdash 2 copy moveto
	2 copy vpt 90 270 arc closepath fill
	vpt 0 360 arc closepath} bind def
/C7 {BL [] 0 setdash 2 copy moveto
	2 copy vpt 0 270 arc closepath fill
	vpt 0 360 arc closepath} bind def
/C8 {BL [] 0 setdash 2 copy moveto
	2 copy vpt 270 360 arc closepath fill
	vpt 0 360 arc closepath} bind def
/C9 {BL [] 0 setdash 2 copy moveto
	2 copy vpt 270 450 arc closepath fill
	vpt 0 360 arc closepath} bind def
/C10 {BL [] 0 setdash 2 copy 2 copy moveto vpt 270 360 arc closepath fill
	2 copy moveto
	2 copy vpt 90 180 arc closepath fill
	vpt 0 360 arc closepath} bind def
/C11 {BL [] 0 setdash 2 copy moveto
	2 copy vpt 0 180 arc closepath fill
	2 copy moveto
	2 copy vpt 270 360 arc closepath fill
	vpt 0 360 arc closepath} bind def
/C12 {BL [] 0 setdash 2 copy moveto
	2 copy vpt 180 360 arc closepath fill
	vpt 0 360 arc closepath} bind def
/C13 {BL [] 0 setdash 2 copy moveto
	2 copy vpt 0 90 arc closepath fill
	2 copy moveto
	2 copy vpt 180 360 arc closepath fill
	vpt 0 360 arc closepath} bind def
/C14 {BL [] 0 setdash 2 copy moveto
	2 copy vpt 90 360 arc closepath fill
	vpt 0 360 arc} bind def
/C15 {BL [] 0 setdash 2 copy vpt 0 360 arc closepath fill
	vpt 0 360 arc closepath} bind def
/Rec {newpath 4 2 roll moveto 1 index 0 rlineto 0 exch rlineto
	neg 0 rlineto closepath} bind def
/Square {dup Rec} bind def
/Bsquare {vpt sub exch vpt sub exch vpt2 Square} bind def
/S0 {BL [] 0 setdash 2 copy moveto 0 vpt rlineto BL Bsquare} bind def
/S1 {BL [] 0 setdash 2 copy vpt Square fill Bsquare} bind def
/S2 {BL [] 0 setdash 2 copy exch vpt sub exch vpt Square fill Bsquare} bind def
/S3 {BL [] 0 setdash 2 copy exch vpt sub exch vpt2 vpt Rec fill Bsquare} bind def
/S4 {BL [] 0 setdash 2 copy exch vpt sub exch vpt sub vpt Square fill Bsquare} bind def
/S5 {BL [] 0 setdash 2 copy 2 copy vpt Square fill
	exch vpt sub exch vpt sub vpt Square fill Bsquare} bind def
/S6 {BL [] 0 setdash 2 copy exch vpt sub exch vpt sub vpt vpt2 Rec fill Bsquare} bind def
/S7 {BL [] 0 setdash 2 copy exch vpt sub exch vpt sub vpt vpt2 Rec fill
	2 copy vpt Square fill Bsquare} bind def
/S8 {BL [] 0 setdash 2 copy vpt sub vpt Square fill Bsquare} bind def
/S9 {BL [] 0 setdash 2 copy vpt sub vpt vpt2 Rec fill Bsquare} bind def
/S10 {BL [] 0 setdash 2 copy vpt sub vpt Square fill 2 copy exch vpt sub exch vpt Square fill
	Bsquare} bind def
/S11 {BL [] 0 setdash 2 copy vpt sub vpt Square fill 2 copy exch vpt sub exch vpt2 vpt Rec fill
	Bsquare} bind def
/S12 {BL [] 0 setdash 2 copy exch vpt sub exch vpt sub vpt2 vpt Rec fill Bsquare} bind def
/S13 {BL [] 0 setdash 2 copy exch vpt sub exch vpt sub vpt2 vpt Rec fill
	2 copy vpt Square fill Bsquare} bind def
/S14 {BL [] 0 setdash 2 copy exch vpt sub exch vpt sub vpt2 vpt Rec fill
	2 copy exch vpt sub exch vpt Square fill Bsquare} bind def
/S15 {BL [] 0 setdash 2 copy Bsquare fill Bsquare} bind def
/D0 {gsave translate 45 rotate 0 0 S0 stroke grestore} bind def
/D1 {gsave translate 45 rotate 0 0 S1 stroke grestore} bind def
/D2 {gsave translate 45 rotate 0 0 S2 stroke grestore} bind def
/D3 {gsave translate 45 rotate 0 0 S3 stroke grestore} bind def
/D4 {gsave translate 45 rotate 0 0 S4 stroke grestore} bind def
/D5 {gsave translate 45 rotate 0 0 S5 stroke grestore} bind def
/D6 {gsave translate 45 rotate 0 0 S6 stroke grestore} bind def
/D7 {gsave translate 45 rotate 0 0 S7 stroke grestore} bind def
/D8 {gsave translate 45 rotate 0 0 S8 stroke grestore} bind def
/D9 {gsave translate 45 rotate 0 0 S9 stroke grestore} bind def
/D10 {gsave translate 45 rotate 0 0 S10 stroke grestore} bind def
/D11 {gsave translate 45 rotate 0 0 S11 stroke grestore} bind def
/D12 {gsave translate 45 rotate 0 0 S12 stroke grestore} bind def
/D13 {gsave translate 45 rotate 0 0 S13 stroke grestore} bind def
/D14 {gsave translate 45 rotate 0 0 S14 stroke grestore} bind def
/D15 {gsave translate 45 rotate 0 0 S15 stroke grestore} bind def
/DiaE {stroke [] 0 setdash vpt add M
  hpt neg vpt neg V hpt vpt neg V
  hpt vpt V hpt neg vpt V closepath stroke} def
/BoxE {stroke [] 0 setdash exch hpt sub exch vpt add M
  0 vpt2 neg V hpt2 0 V 0 vpt2 V
  hpt2 neg 0 V closepath stroke} def
/TriUE {stroke [] 0 setdash vpt 1.12 mul add M
  hpt neg vpt -1.62 mul V
  hpt 2 mul 0 V
  hpt neg vpt 1.62 mul V closepath stroke} def
/TriDE {stroke [] 0 setdash vpt 1.12 mul sub M
  hpt neg vpt 1.62 mul V
  hpt 2 mul 0 V
  hpt neg vpt -1.62 mul V closepath stroke} def
/PentE {stroke [] 0 setdash gsave
  translate 0 hpt M 4 {72 rotate 0 hpt L} repeat
  closepath stroke grestore} def
/CircE {stroke [] 0 setdash 
  hpt 0 360 arc stroke} def
/Opaque {gsave closepath 1 setgray fill grestore 0 setgray closepath} def
/DiaW {stroke [] 0 setdash vpt add M
  hpt neg vpt neg V hpt vpt neg V
  hpt vpt V hpt neg vpt V Opaque stroke} def
/BoxW {stroke [] 0 setdash exch hpt sub exch vpt add M
  0 vpt2 neg V hpt2 0 V 0 vpt2 V
  hpt2 neg 0 V Opaque stroke} def
/TriUW {stroke [] 0 setdash vpt 1.12 mul add M
  hpt neg vpt -1.62 mul V
  hpt 2 mul 0 V
  hpt neg vpt 1.62 mul V Opaque stroke} def
/TriDW {stroke [] 0 setdash vpt 1.12 mul sub M
  hpt neg vpt 1.62 mul V
  hpt 2 mul 0 V
  hpt neg vpt -1.62 mul V Opaque stroke} def
/PentW {stroke [] 0 setdash gsave
  translate 0 hpt M 4 {72 rotate 0 hpt L} repeat
  Opaque stroke grestore} def
/CircW {stroke [] 0 setdash 
  hpt 0 360 arc Opaque stroke} def
/BoxFill {gsave Rec 1 setgray fill grestore} def
/Density {
  /Fillden exch def
  currentrgbcolor
  /ColB exch def /ColG exch def /ColR exch def
  /ColR ColR Fillden mul Fillden sub 1 add def
  /ColG ColG Fillden mul Fillden sub 1 add def
  /ColB ColB Fillden mul Fillden sub 1 add def
  ColR ColG ColB setrgbcolor} def
/BoxColFill {gsave Rec PolyFill} def
/PolyFill {gsave Density fill grestore grestore} def
/h {rlineto rlineto rlineto gsave closepath fill grestore} bind def
%
% PostScript Level 1 Pattern Fill routine for rectangles
% Usage: x y w h s a XX PatternFill
%	x,y = lower left corner of box to be filled
%	w,h = width and height of box
%	  a = angle in degrees between lines and x-axis
%	 XX = 0/1 for no/yes cross-hatch
%
/PatternFill {gsave /PFa [ 9 2 roll ] def
  PFa 0 get PFa 2 get 2 div add PFa 1 get PFa 3 get 2 div add translate
  PFa 2 get -2 div PFa 3 get -2 div PFa 2 get PFa 3 get Rec
  TransparentPatterns {} {gsave 1 setgray fill grestore} ifelse
  clip
  currentlinewidth 0.5 mul setlinewidth
  /PFs PFa 2 get dup mul PFa 3 get dup mul add sqrt def
  0 0 M PFa 5 get rotate PFs -2 div dup translate
  0 1 PFs PFa 4 get div 1 add floor cvi
	{PFa 4 get mul 0 M 0 PFs V} for
  0 PFa 6 get ne {
	0 1 PFs PFa 4 get div 1 add floor cvi
	{PFa 4 get mul 0 2 1 roll M PFs 0 V} for
 } if
  stroke grestore} def
%
/languagelevel where
 {pop languagelevel} {1} ifelse
dup 2 lt
	{/InterpretLevel1 true def
	 /InterpretLevel3 false def}
	{/InterpretLevel1 Level1 def
	 2 gt
	    {/InterpretLevel3 Level3 def}
	    {/InterpretLevel3 false def}
	 ifelse }
 ifelse
%
% PostScript level 2 pattern fill definitions
%
/Level2PatternFill {
/Tile8x8 {/PaintType 2 /PatternType 1 /TilingType 1 /BBox [0 0 8 8] /XStep 8 /YStep 8}
	bind def
/KeepColor {currentrgbcolor [/Pattern /DeviceRGB] setcolorspace} bind def
<< Tile8x8
 /PaintProc {0.5 setlinewidth pop 0 0 M 8 8 L 0 8 M 8 0 L stroke} 
>> matrix makepattern
/Pat1 exch def
<< Tile8x8
 /PaintProc {0.5 setlinewidth pop 0 0 M 8 8 L 0 8 M 8 0 L stroke
	0 4 M 4 8 L 8 4 L 4 0 L 0 4 L stroke}
>> matrix makepattern
/Pat2 exch def
<< Tile8x8
 /PaintProc {0.5 setlinewidth pop 0 0 M 0 8 L
	8 8 L 8 0 L 0 0 L fill}
>> matrix makepattern
/Pat3 exch def
<< Tile8x8
 /PaintProc {0.5 setlinewidth pop -4 8 M 8 -4 L
	0 12 M 12 0 L stroke}
>> matrix makepattern
/Pat4 exch def
<< Tile8x8
 /PaintProc {0.5 setlinewidth pop -4 0 M 8 12 L
	0 -4 M 12 8 L stroke}
>> matrix makepattern
/Pat5 exch def
<< Tile8x8
 /PaintProc {0.5 setlinewidth pop -2 8 M 4 -4 L
	0 12 M 8 -4 L 4 12 M 10 0 L stroke}
>> matrix makepattern
/Pat6 exch def
<< Tile8x8
 /PaintProc {0.5 setlinewidth pop -2 0 M 4 12 L
	0 -4 M 8 12 L 4 -4 M 10 8 L stroke}
>> matrix makepattern
/Pat7 exch def
<< Tile8x8
 /PaintProc {0.5 setlinewidth pop 8 -2 M -4 4 L
	12 0 M -4 8 L 12 4 M 0 10 L stroke}
>> matrix makepattern
/Pat8 exch def
<< Tile8x8
 /PaintProc {0.5 setlinewidth pop 0 -2 M 12 4 L
	-4 0 M 12 8 L -4 4 M 8 10 L stroke}
>> matrix makepattern
/Pat9 exch def
/Pattern1 {PatternBgnd KeepColor Pat1 setpattern} bind def
/Pattern2 {PatternBgnd KeepColor Pat2 setpattern} bind def
/Pattern3 {PatternBgnd KeepColor Pat3 setpattern} bind def
/Pattern4 {PatternBgnd KeepColor Landscape {Pat5} {Pat4} ifelse setpattern} bind def
/Pattern5 {PatternBgnd KeepColor Landscape {Pat4} {Pat5} ifelse setpattern} bind def
/Pattern6 {PatternBgnd KeepColor Landscape {Pat9} {Pat6} ifelse setpattern} bind def
/Pattern7 {PatternBgnd KeepColor Landscape {Pat8} {Pat7} ifelse setpattern} bind def
} def
%
%
%End of PostScript Level 2 code
%
/PatternBgnd {
  TransparentPatterns {} {gsave 1 setgray fill grestore} ifelse
} def
%
% Substitute for Level 2 pattern fill codes with
% grayscale if Level 2 support is not selected.
%
/Level1PatternFill {
/Pattern1 {0.250 Density} bind def
/Pattern2 {0.500 Density} bind def
/Pattern3 {0.750 Density} bind def
/Pattern4 {0.125 Density} bind def
/Pattern5 {0.375 Density} bind def
/Pattern6 {0.625 Density} bind def
/Pattern7 {0.875 Density} bind def
} def
%
% Now test for support of Level 2 code
%
Level1 {Level1PatternFill} {Level2PatternFill} ifelse
%
/Symbol-Oblique /Symbol findfont [1 0 .167 1 0 0] makefont
dup length dict begin {1 index /FID eq {pop pop} {def} ifelse} forall
currentdict end definefont pop
%
/Metrics {ExtendTextBox Gswidth} def
/Lwidth {currentpoint stroke M 0 vshift R Metrics} def
/Rwidth {currentpoint stroke M dup stringwidth pop neg vshift R Metrics} def
/Cwidth {currentpoint stroke M dup stringwidth pop -2 div vshift R Metrics} def
/GLwidth {currentpoint stroke M 0 vshift R {ExtendTextBox} forall} def
/GRwidth {currentpoint stroke M dup Gwidth vshift R {ExtendTextBox} forall} def
/GCwidth {currentpoint stroke M dup Gwidth 2 div vshift R {ExtendTextBox} forall} def
/GLwidth2 {0 Gwidth AddGlyphWidth} def
/GRwidth2 {Gwidth -1 mul 0 AddGlyphWidth} def
/GCwidth2 {Gwidth 2 div dup -1 mul AddGlyphWidth} def
/AddGlyphWidth { dup TBx2 gt {userdict /TBx2 3 -1 roll put} {pop} ifelse
                 dup TBx1 lt {userdict /TBx1 3 -1 roll put} {pop} ifelse } def
/MFshow {
   { dup 5 get 3 ge
     { 5 get 3 eq {gsave} {grestore} ifelse }
     {dup dup 0 get findfont exch 1 get scalefont setfont
     [ currentpoint ] exch dup 2 get 0 exch R dup 5 get 2 ne {dup dup 6
     get exch 4 get {textshow} {Metrics pop 0 R} ifelse }if dup 5 get 0 eq
     {dup 3 get {2 get neg 0 exch R pop} {pop aload pop M} ifelse} {dup 5
     get 1 eq {dup 2 get exch dup 3 get exch 6 get Gswidth pop -2 div
     dup 0 R} {dup 6 get Gswidth pop -2 div 0 R 6 get
     textshow 2 index {aload pop M neg 3 -1 roll neg R pop pop} {pop pop pop
     pop aload pop M} ifelse }ifelse }ifelse }
     ifelse }
   forall} def
/Gswidth {dup type /stringtype eq {stringwidth} {pop (n) stringwidth} ifelse} def
/MFwidth {0 exch { dup 5 get 3 ge { 5 get 3 eq { 0 } { pop } ifelse }
 {dup 3 get{dup dup 0 get findfont exch 1 get scalefont setfont
     6 get Gswidth pop add} {pop} ifelse} ifelse} forall} def
/MLshow { currentpoint stroke M
  0 exch R
  Blacktext {gsave 0 setgray MFshow grestore} {MFshow} ifelse } bind def
/MRshow { currentpoint stroke M
  exch dup MFwidth neg 3 -1 roll R
  Blacktext {gsave 0 setgray MFshow grestore} {MFshow} ifelse } bind def
/MCshow { currentpoint stroke M
  exch dup MFwidth -2 div 3 -1 roll R
  Blacktext {gsave 0 setgray MFshow grestore} {MFshow} ifelse } bind def
/XYsave    { [( ) 1 2 true false 3 ()] } bind def
/XYrestore { [( ) 1 2 true false 4 ()] } bind def
Level1 SuppressPDFMark or 
{} {
/SDict 10 dict def
systemdict /pdfmark known not {
  userdict /pdfmark systemdict /cleartomark get put
} if
SDict begin [
  /Title (gnuplot_Zplt_spinDance_2D.eps)
  /Subject (gnuplot plot)
  /Creator (gnuplot 5.2 patchlevel 2)
%  /Producer (gnuplot)
%  /Keywords ()
  /CreationDate (Fri Apr 22 10:00:41 2022)
  /DOCINFO pdfmark
end
} ifelse
%
% Support for boxed text - Ethan A Merritt Sep 2016
%
/InitTextBox { userdict /TBy2 3 -1 roll put userdict /TBx2 3 -1 roll put
           userdict /TBy1 3 -1 roll put userdict /TBx1 3 -1 roll put
	   /Boxing true def } def
/ExtendTextBox { dup type /stringtype eq
    { Boxing { gsave dup false charpath pathbbox
      dup TBy2 gt {userdict /TBy2 3 -1 roll put} {pop} ifelse
      dup TBx2 gt {userdict /TBx2 3 -1 roll put} {pop} ifelse
      dup TBy1 lt {userdict /TBy1 3 -1 roll put} {pop} ifelse
      dup TBx1 lt {userdict /TBx1 3 -1 roll put} {pop} ifelse
      grestore } if }
    {} ifelse} def
/PopTextBox { newpath TBx1 TBxmargin sub TBy1 TBymargin sub M
               TBx1 TBxmargin sub TBy2 TBymargin add L
	       TBx2 TBxmargin add TBy2 TBymargin add L
	       TBx2 TBxmargin add TBy1 TBymargin sub L closepath } def
/DrawTextBox { PopTextBox stroke /Boxing false def} def
/FillTextBox { gsave PopTextBox fill grestore /Boxing false def} def
0 0 0 0 InitTextBox
/TBxmargin 20 def
/TBymargin 20 def
/Boxing false def
/textshow { ExtendTextBox Gshow } def
%
end
%%EndProlog
%%Page: 1 1
gnudict begin
gsave
doclip
50 50 translate
0.050 0.050 scale
0 setgray
newpath
(Helvetica) findfont 140 scalefont setfont
BackgroundColor 0 lt 3 1 roll 0 lt exch 0 lt or or not {BackgroundColor C 1.000 0 0 7200.00 5040.00 BoxColFill} if
1.000 UL
LTb
LCb setrgbcolor
1.000 UP
1.000 UL
LTb
LCb setrgbcolor
% Begin plot #1
6.000 UL
LTb
0.58 0.00 0.83 C 5197 3123 M
18 -53 V
17 -53 V
15 -54 V
13 -54 V
11 -54 V
9 -55 V
8 -55 V
6 -56 V
4 -55 V
3 -56 V
0 -55 V
-1 -56 V
-3 -56 V
-5 -55 V
-7 -55 V
-8 -55 V
-10 -55 V
-12 -55 V
-14 -54 V
-15 -53 V
-18 -53 V
-18 -52 V
-21 -52 V
-22 -51 V
-24 -50 V
-25 -50 V
-27 -49 V
-29 -47 V
-30 -47 V
-32 -46 V
-33 -45 V
-49 -61 V
299 1697 R
18 -53 V
17 -53 V
15 -54 V
13 -54 V
11 -54 V
9 -55 V
8 -55 V
6 -56 V
4 -55 V
3 -56 V
0 -55 V
-1 -56 V
-3 -56 V
-5 -55 V
-7 -55 V
-8 -55 V
-10 -55 V
-12 -55 V
-14 -54 V
-15 -53 V
-18 -53 V
-18 -52 V
-21 -52 V
-22 -51 V
-24 -50 V
-25 -50 V
-27 -49 V
-29 -47 V
-30 -47 V
-32 -46 V
-33 -45 V
-49 -61 V
% End plot #1
% Begin plot #2
stroke
LTb
0.00 0.62 0.45 C 4898 1426 M
-36 -42 V
-38 -41 V
-39 -39 V
-41 -39 V
-41 -37 V
-43 -35 V
-44 -35 V
-45 -32 V
-46 -32 V
-47 -30 V
-48 -28 V
-49 -27 V
-49 -25 V
-51 -23 V
-51 -22 V
-52 -20 V
-52 -19 V
-53 -17 V
-54 -15 V
-54 -13 V
-54 -12 V
-55 -10 V
-55 -8 V
-55 -6 V
-56 -5 V
-55 -2 V
-56 -1 V
-56 1 V
-55 2 V
-56 5 V
-55 6 V
-78 12 V
1619 589 R
-36 -42 V
-38 -41 V
-39 -39 V
-41 -39 V
-41 -37 V
-43 -35 V
-44 -35 V
-45 -32 V
-46 -32 V
-47 -30 V
-48 -28 V
-49 -27 V
-49 -25 V
-51 -23 V
-51 -22 V
-52 -20 V
-52 -19 V
-53 -17 V
-54 -15 V
-54 -13 V
-54 -12 V
-55 -10 V
-55 -8 V
-55 -6 V
-56 -5 V
-55 -2 V
-56 -1 V
-56 1 V
-55 2 V
-56 5 V
-55 6 V
-78 12 V
% End plot #2
% Begin plot #3
stroke
LTb
0.34 0.71 0.91 C 3279 837 M
-54 10 V
-55 13 V
-53 14 V
-54 16 V
-53 17 V
-52 19 V
-51 21 V
-51 23 V
-51 24 V
-49 26 V
-48 27 V
-48 29 V
-46 30 V
-46 32 V
-45 34 V
-43 34 V
-42 37 V
-41 37 V
-40 39 V
-39 40 V
-37 42 V
-36 42 V
-35 44 V
-33 44 V
-31 46 V
-31 47 V
-28 48 V
-27 48 V
-26 50 V
-24 50 V
-22 51 V
-28 73 V
3279 837 M
-54 10 V
-55 13 V
-53 14 V
-54 16 V
-53 17 V
-52 19 V
-51 21 V
-51 23 V
-51 24 V
-49 26 V
-48 27 V
-48 29 V
-46 30 V
-46 32 V
-45 34 V
-43 34 V
-42 37 V
-41 37 V
-40 39 V
-39 40 V
-37 42 V
-36 42 V
-35 44 V
-33 44 V
-31 46 V
-31 47 V
-28 48 V
-27 48 V
-26 50 V
-24 50 V
-22 51 V
-28 73 V
% End plot #3
% Begin plot #4
stroke
LTb
0.90 0.62 0.00 C 1960 1944 M
-18 53 V
-17 53 V
-15 54 V
-13 54 V
-11 54 V
-9 55 V
-8 55 V
-6 56 V
-4 55 V
-3 56 V
0 55 V
1 56 V
3 56 V
5 55 V
7 55 V
8 55 V
10 55 V
12 55 V
14 54 V
15 53 V
18 53 V
18 52 V
21 52 V
22 51 V
24 50 V
25 50 V
27 49 V
29 47 V
30 47 V
32 46 V
33 45 V
49 61 V
1960 1944 M
-18 53 V
-17 53 V
-15 54 V
-13 54 V
-11 54 V
-9 55 V
-8 55 V
-6 56 V
-4 55 V
-3 56 V
0 55 V
1 56 V
3 56 V
5 55 V
7 55 V
8 55 V
10 55 V
12 55 V
14 54 V
15 53 V
18 53 V
18 52 V
21 52 V
22 51 V
24 50 V
25 50 V
27 49 V
29 47 V
30 47 V
32 46 V
33 45 V
49 61 V
% End plot #4
% Begin plot #5
stroke
LTb
0.94 0.89 0.26 C 2259 3641 M
36 42 V
38 41 V
39 39 V
41 39 V
41 37 V
43 35 V
44 35 V
45 32 V
46 32 V
47 30 V
48 28 V
49 27 V
49 25 V
51 23 V
51 22 V
52 20 V
52 19 V
53 17 V
54 15 V
54 13 V
54 12 V
55 10 V
55 8 V
55 6 V
56 5 V
55 2 V
56 1 V
56 -1 V
55 -2 V
56 -5 V
55 -6 V
78 -12 V
2259 3641 M
36 42 V
38 41 V
39 39 V
41 39 V
41 37 V
43 35 V
44 35 V
45 32 V
46 32 V
47 30 V
48 28 V
49 27 V
49 25 V
51 23 V
51 22 V
52 20 V
52 19 V
53 17 V
54 15 V
54 13 V
54 12 V
55 10 V
55 8 V
55 6 V
56 5 V
55 2 V
56 1 V
56 -1 V
55 -2 V
56 -5 V
55 -6 V
78 -12 V
% End plot #5
% Begin plot #6
stroke
LTb
0.00 0.45 0.70 C 3878 4230 M
54 -10 V
55 -13 V
53 -14 V
54 -16 V
53 -17 V
52 -19 V
51 -21 V
51 -23 V
51 -24 V
49 -26 V
48 -27 V
48 -29 V
46 -30 V
46 -32 V
45 -34 V
43 -34 V
42 -37 V
41 -37 V
40 -39 V
39 -40 V
37 -42 V
36 -42 V
35 -44 V
33 -44 V
31 -46 V
31 -47 V
28 -48 V
27 -48 V
26 -50 V
24 -50 V
22 -51 V
28 -73 V
3878 4230 M
54 -10 V
55 -13 V
53 -14 V
54 -16 V
53 -17 V
52 -19 V
51 -21 V
51 -23 V
51 -24 V
49 -26 V
48 -27 V
48 -29 V
46 -30 V
46 -32 V
45 -34 V
43 -34 V
42 -37 V
41 -37 V
40 -39 V
39 -40 V
37 -42 V
36 -42 V
35 -44 V
33 -44 V
31 -46 V
31 -47 V
28 -48 V
27 -48 V
26 -50 V
24 -50 V
22 -51 V
28 -73 V
% End plot #6
% Begin plot #7
stroke
1.000 UL
LTb
0.90 0.12 0.06 C 1.000 UL
LTb
0.90 0.12 0.06 C 6140 3432 M
103 72 V
-125 -11 V
5197 3123 M
1046 381 V
stroke
gsave [] 0 setdash
6140 3432 M
103 72 V
-125 -11 V
stroke
grestore
6185 3287 M
109 61 V
-125 1 V
5215 3070 M
1079 278 V
stroke
gsave [] 0 setdash
6185 3287 M
109 61 V
-125 1 V
stroke
grestore
6217 3138 M
115 51 V
-125 13 V
5232 3017 M
1100 172 V
stroke
gsave [] 0 setdash
6217 3138 M
115 51 V
-125 13 V
stroke
grestore
6239 2989 M
119 39 V
-123 25 V
-988 -90 R
1111 65 V
stroke
gsave [] 0 setdash
6239 2989 M
119 39 V
-123 25 V
stroke
grestore
6250 2839 M
122 27 V
-120 37 V
-992 6 R
1112 -43 V
stroke
gsave [] 0 setdash
6250 2839 M
122 27 V
-120 37 V
stroke
grestore
6249 2689 M
125 15 V
-116 48 V
-987 103 R
6374 2704 L
stroke
gsave [] 0 setdash
6249 2689 M
125 15 V
-116 48 V
stroke
grestore
6239 2540 M
125 3 V
-110 59 V
-974 198 R
6364 2543 L
stroke
gsave [] 0 setdash
6239 2540 M
125 3 V
-110 59 V
stroke
grestore
6217 2392 M
125 -8 V
-104 70 V
-950 291 R
6342 2384 L
stroke
gsave [] 0 setdash
6217 2392 M
125 -8 V
-104 70 V
stroke
grestore
6184 2249 M
124 -20 V
-97 79 V
-917 381 R
6308 2229 L
stroke
gsave [] 0 setdash
6184 2249 M
124 -20 V
-97 79 V
stroke
grestore
6141 2109 M
121 -32 V
-89 89 V
-875 468 R
964 -557 V
stroke
gsave [] 0 setdash
6141 2109 M
121 -32 V
-89 89 V
stroke
grestore
6089 1975 M
117 -44 V
-80 97 V
-825 550 R
905 -647 V
stroke
gsave [] 0 setdash
6089 1975 M
117 -44 V
-80 97 V
stroke
grestore
6027 1846 M
113 -55 V
-70 104 V
-769 628 R
839 -732 V
stroke
gsave [] 0 setdash
6027 1846 M
113 -55 V
-70 104 V
stroke
grestore
5957 1723 M
107 -66 V
-59 110 V
-705 700 R
764 -810 V
stroke
gsave [] 0 setdash
5957 1723 M
107 -66 V
-59 110 V
stroke
grestore
5879 1607 M
100 -76 V
-48 116 V
-634 764 R
682 -880 V
stroke
gsave [] 0 setdash
5879 1607 M
100 -76 V
-48 116 V
stroke
grestore
5794 1499 M
92 -85 V
-37 120 V
-557 822 R
594 -942 V
stroke
gsave [] 0 setdash
5794 1499 M
92 -85 V
-37 120 V
stroke
grestore
5702 1400 M
83 -94 V
-25 123 V
-475 872 R
500 -995 V
stroke
gsave [] 0 setdash
5702 1400 M
83 -94 V
-25 123 V
stroke
grestore
5604 1308 M
74 -101 V
-13 125 V
-388 914 R
5678 1207 L
stroke
gsave [] 0 setdash
5604 1308 M
74 -101 V
-13 125 V
stroke
grestore
5502 1226 M
64 -108 V
-1 125 V
-298 948 R
5566 1118 L
stroke
gsave [] 0 setdash
5502 1226 M
64 -108 V
-1 125 V
stroke
grestore
5396 1154 M
53 -114 V
10 125 V
-204 971 R
5449 1040 L
stroke
gsave [] 0 setdash
5396 1154 M
53 -114 V
10 125 V
stroke
grestore
5286 1090 M
42 -118 V
23 123 V
-110 987 R
5328 972 L
stroke
gsave [] 0 setdash
5286 1090 M
42 -118 V
23 123 V
stroke
grestore
5175 1038 M
30 -122 V
34 121 V
-13 992 R
5205 916 L
stroke
gsave [] 0 setdash
5175 1038 M
30 -122 V
34 121 V
stroke
grestore
5062 994 M
18 -124 V
46 117 V
82 989 R
5080 870 L
stroke
gsave [] 0 setdash
5062 994 M
18 -124 V
46 117 V
stroke
grestore
4948 960 M
6 -125 V
57 112 V
179 977 R
4954 835 L
stroke
gsave [] 0 setdash
4948 960 M
6 -125 V
57 112 V
stroke
grestore
4836 937 M
-6 -125 V
68 105 V
271 955 R
4830 812 L
stroke
gsave [] 0 setdash
4836 937 M
-6 -125 V
68 105 V
stroke
grestore
4725 922 M
4707 798 L
78 98 V
362 925 R
4707 798 L
stroke
gsave [] 0 setdash
4725 922 M
4707 798 L
78 98 V
stroke
grestore
4616 917 M
4586 795 L
87 90 V
450 886 R
4586 795 L
stroke
gsave [] 0 setdash
4616 917 M
4586 795 L
87 90 V
stroke
grestore
4509 921 M
4468 803 L
95 81 V
535 837 R
4468 803 L
stroke
gsave [] 0 setdash
4509 921 M
4468 803 L
95 81 V
stroke
grestore
4408 933 M
4355 819 L
103 72 V
613 781 R
4355 819 L
stroke
gsave [] 0 setdash
4408 933 M
4355 819 L
103 72 V
stroke
grestore
4311 953 M
4248 845 L
109 62 V
685 718 R
4248 845 L
stroke
gsave [] 0 setdash
4311 953 M
4248 845 L
109 62 V
stroke
grestore
4220 979 M
4146 878 L
115 51 V
751 649 R
4146 878 L
stroke
gsave [] 0 setdash
4220 979 M
4146 878 L
115 51 V
stroke
grestore
4134 1014 M
-83 -94 V
119 39 V
810 573 R
4051 920 L
stroke
gsave [] 0 setdash
4134 1014 M
-83 -94 V
119 39 V
stroke
grestore
4055 1053 M
-92 -85 V
122 27 V
862 492 R
3963 968 L
stroke
gsave [] 0 setdash
4055 1053 M
-92 -85 V
122 27 V
stroke
grestore
3955 1117 M
-103 -72 V
125 11 V
921 370 R
3852 1045 L
stroke
gsave [] 0 setdash
3955 1117 M
-103 -72 V
125 11 V
stroke
grestore
6140 3432 M
103 72 V
-125 -11 V
5197 3123 M
1046 381 V
stroke
gsave [] 0 setdash
6140 3432 M
103 72 V
-125 -11 V
stroke
grestore
6185 3287 M
109 61 V
-125 1 V
5215 3070 M
1079 278 V
stroke
gsave [] 0 setdash
6185 3287 M
109 61 V
-125 1 V
stroke
grestore
6217 3138 M
115 51 V
-125 13 V
5232 3017 M
1100 172 V
stroke
gsave [] 0 setdash
6217 3138 M
115 51 V
-125 13 V
stroke
grestore
6239 2989 M
119 39 V
-123 25 V
-988 -90 R
1111 65 V
stroke
gsave [] 0 setdash
6239 2989 M
119 39 V
-123 25 V
stroke
grestore
6250 2839 M
122 27 V
-120 37 V
-992 6 R
1112 -43 V
stroke
gsave [] 0 setdash
6250 2839 M
122 27 V
-120 37 V
stroke
grestore
6249 2689 M
125 15 V
-116 48 V
-987 103 R
6374 2704 L
stroke
gsave [] 0 setdash
6249 2689 M
125 15 V
-116 48 V
stroke
grestore
6239 2540 M
125 3 V
-110 59 V
-974 198 R
6364 2543 L
stroke
gsave [] 0 setdash
6239 2540 M
125 3 V
-110 59 V
stroke
grestore
6217 2392 M
125 -8 V
-104 70 V
-950 291 R
6342 2384 L
stroke
gsave [] 0 setdash
6217 2392 M
125 -8 V
-104 70 V
stroke
grestore
6184 2249 M
124 -20 V
-97 79 V
-917 381 R
6308 2229 L
stroke
gsave [] 0 setdash
6184 2249 M
124 -20 V
-97 79 V
stroke
grestore
6141 2109 M
121 -32 V
-89 89 V
-875 468 R
964 -557 V
stroke
gsave [] 0 setdash
6141 2109 M
121 -32 V
-89 89 V
stroke
grestore
6089 1975 M
117 -44 V
-80 97 V
-825 550 R
905 -647 V
stroke
gsave [] 0 setdash
6089 1975 M
117 -44 V
-80 97 V
stroke
grestore
6027 1846 M
113 -55 V
-70 104 V
-769 628 R
839 -732 V
stroke
gsave [] 0 setdash
6027 1846 M
113 -55 V
-70 104 V
stroke
grestore
5957 1723 M
107 -66 V
-59 110 V
-705 700 R
764 -810 V
stroke
gsave [] 0 setdash
5957 1723 M
107 -66 V
-59 110 V
stroke
grestore
5879 1607 M
100 -76 V
-48 116 V
-634 764 R
682 -880 V
stroke
gsave [] 0 setdash
5879 1607 M
100 -76 V
-48 116 V
stroke
grestore
5794 1499 M
92 -85 V
-37 120 V
-557 822 R
594 -942 V
stroke
gsave [] 0 setdash
5794 1499 M
92 -85 V
-37 120 V
stroke
grestore
5702 1400 M
83 -94 V
-25 123 V
-475 872 R
500 -995 V
stroke
gsave [] 0 setdash
5702 1400 M
83 -94 V
-25 123 V
stroke
grestore
5604 1308 M
74 -101 V
-13 125 V
-388 914 R
5678 1207 L
stroke
gsave [] 0 setdash
5604 1308 M
74 -101 V
-13 125 V
stroke
grestore
5502 1226 M
64 -108 V
-1 125 V
-298 948 R
5566 1118 L
stroke
gsave [] 0 setdash
5502 1226 M
64 -108 V
-1 125 V
stroke
grestore
5396 1154 M
53 -114 V
10 125 V
-204 971 R
5449 1040 L
stroke
gsave [] 0 setdash
5396 1154 M
53 -114 V
10 125 V
stroke
grestore
5286 1090 M
42 -118 V
23 123 V
-110 987 R
5328 972 L
stroke
gsave [] 0 setdash
5286 1090 M
42 -118 V
23 123 V
stroke
grestore
5175 1038 M
30 -122 V
34 121 V
-13 992 R
5205 916 L
stroke
gsave [] 0 setdash
5175 1038 M
30 -122 V
34 121 V
stroke
grestore
5062 994 M
18 -124 V
46 117 V
82 989 R
5080 870 L
stroke
gsave [] 0 setdash
5062 994 M
18 -124 V
46 117 V
stroke
grestore
4948 960 M
6 -125 V
57 112 V
179 977 R
4954 835 L
stroke
gsave [] 0 setdash
4948 960 M
6 -125 V
57 112 V
stroke
grestore
4836 937 M
-6 -125 V
68 105 V
271 955 R
4830 812 L
stroke
gsave [] 0 setdash
4836 937 M
-6 -125 V
68 105 V
stroke
grestore
4725 922 M
4707 798 L
78 98 V
362 925 R
4707 798 L
stroke
gsave [] 0 setdash
4725 922 M
4707 798 L
78 98 V
stroke
grestore
4616 917 M
4586 795 L
87 90 V
450 886 R
4586 795 L
stroke
gsave [] 0 setdash
4616 917 M
4586 795 L
87 90 V
stroke
grestore
4509 921 M
4468 803 L
95 81 V
535 837 R
4468 803 L
stroke
gsave [] 0 setdash
4509 921 M
4468 803 L
95 81 V
stroke
grestore
4408 933 M
4355 819 L
103 72 V
613 781 R
4355 819 L
stroke
gsave [] 0 setdash
4408 933 M
4355 819 L
103 72 V
stroke
grestore
4311 953 M
4248 845 L
109 62 V
685 718 R
4248 845 L
stroke
gsave [] 0 setdash
4311 953 M
4248 845 L
109 62 V
stroke
grestore
4220 979 M
4146 878 L
115 51 V
751 649 R
4146 878 L
stroke
gsave [] 0 setdash
4220 979 M
4146 878 L
115 51 V
stroke
grestore
4134 1014 M
-83 -94 V
119 39 V
810 573 R
4051 920 L
stroke
gsave [] 0 setdash
4134 1014 M
-83 -94 V
119 39 V
stroke
grestore
4055 1053 M
-92 -85 V
122 27 V
862 492 R
3963 968 L
stroke
gsave [] 0 setdash
4055 1053 M
-92 -85 V
122 27 V
stroke
grestore
3955 1117 M
-103 -72 V
125 11 V
921 370 R
3852 1045 L
stroke
gsave [] 0 setdash
3955 1117 M
-103 -72 V
125 11 V
stroke
grestore
% End plot #7
% Begin plot #8
1.000 UL
LTb
0.00 0.00 0.00 C 1.000 UL
LTb
0.00 0.00 0.00 C 3955 1117 M
-103 -72 V
125 11 V
921 370 R
3852 1045 L
stroke
gsave [] 0 setdash
3955 1117 M
-103 -72 V
125 11 V
stroke
grestore
3893 1167 M
-109 -61 V
125 -1 V
953 279 R
3784 1106 L
stroke
gsave [] 0 setdash
3893 1167 M
-109 -61 V
125 -1 V
stroke
grestore
3839 1222 M
-115 -51 V
125 -13 V
975 185 R
3724 1171 L
stroke
gsave [] 0 setdash
3839 1222 M
-115 -51 V
125 -13 V
stroke
grestore
3792 1278 M
-119 -39 V
123 -25 V
989 90 R
3673 1239 L
stroke
gsave [] 0 setdash
3792 1278 M
-119 -39 V
123 -25 V
stroke
grestore
3754 1335 M
-122 -27 V
120 -37 V
992 -6 R
-1112 43 V
stroke
gsave [] 0 setdash
3754 1335 M
-122 -27 V
120 -37 V
stroke
grestore
3725 1394 M
-125 -15 V
116 -48 V
987 -103 R
3600 1379 L
stroke
gsave [] 0 setdash
3725 1394 M
-125 -15 V
116 -48 V
stroke
grestore
3702 1452 M
-125 -3 V
110 -59 V
973 -197 R
3577 1449 L
stroke
gsave [] 0 setdash
3702 1452 M
-125 -3 V
110 -59 V
stroke
grestore
3688 1511 M
-125 8 V
104 -70 V
949 -291 R
3563 1519 L
stroke
gsave [] 0 setdash
3688 1511 M
-125 8 V
104 -70 V
stroke
grestore
3682 1566 M
-124 20 V
97 -80 V
916 -380 R
3558 1586 L
stroke
gsave [] 0 setdash
3682 1566 M
-124 20 V
97 -80 V
stroke
grestore
3682 1619 M
-121 32 V
89 -89 V
875 -468 R
-964 557 V
stroke
gsave [] 0 setdash
3682 1619 M
-121 32 V
89 -89 V
stroke
grestore
3689 1668 M
-117 44 V
80 -97 V
826 -551 R
-906 648 V
stroke
gsave [] 0 setdash
3689 1668 M
-117 44 V
80 -97 V
stroke
grestore
3704 1713 M
-113 55 V
70 -104 V
769 -628 R
-839 732 V
stroke
gsave [] 0 setdash
3704 1713 M
-113 55 V
70 -104 V
stroke
grestore
3724 1753 M
-107 66 V
59 -110 V
705 -700 R
-764 810 V
stroke
gsave [] 0 setdash
3724 1753 M
-107 66 V
59 -110 V
stroke
grestore
3750 1788 M
-100 76 V
48 -116 V
4332 984 M
-682 880 V
stroke
gsave [] 0 setdash
3750 1788 M
-100 76 V
48 -116 V
stroke
grestore
3779 1817 M
-92 85 V
37 -120 V
4281 961 M
-594 941 V
stroke
gsave [] 0 setdash
3779 1817 M
-92 85 V
37 -120 V
stroke
grestore
3813 1840 M
-83 94 V
25 -123 V
4230 939 M
-500 995 V
stroke
gsave [] 0 setdash
3813 1840 M
-83 94 V
25 -123 V
stroke
grestore
3851 1856 M
-74 101 V
13 -125 V
4178 919 M
3777 1957 L
stroke
gsave [] 0 setdash
3851 1856 M
-74 101 V
13 -125 V
stroke
grestore
3891 1864 M
-64 108 V
1 -125 V
4126 900 M
3827 1972 L
stroke
gsave [] 0 setdash
3891 1864 M
-64 108 V
1 -125 V
stroke
grestore
3932 1866 M
-53 114 V
-10 -125 V
4073 883 M
3879 1980 L
stroke
gsave [] 0 setdash
3932 1866 M
-53 114 V
-10 -125 V
stroke
grestore
3974 1860 M
-42 118 V
-23 -123 V
4019 868 M
-87 1110 V
stroke
gsave [] 0 setdash
3974 1860 M
-42 118 V
-23 -123 V
stroke
grestore
4016 1846 M
-30 122 V
-34 -121 V
13 -992 R
21 1113 V
stroke
gsave [] 0 setdash
4016 1846 M
-30 122 V
-34 -121 V
stroke
grestore
4057 1825 M
-18 124 V
-46 -117 V
3911 843 M
128 1106 V
stroke
gsave [] 0 setdash
4057 1825 M
-18 124 V
-46 -117 V
stroke
grestore
4097 1796 M
-6 125 V
-57 -112 V
3856 833 M
235 1088 V
stroke
gsave [] 0 setdash
4097 1796 M
-6 125 V
-57 -112 V
stroke
grestore
4135 1761 M
5 125 V
-68 -106 V
3801 825 M
339 1061 V
stroke
gsave [] 0 setdash
4135 1761 M
5 125 V
-68 -106 V
stroke
grestore
4168 1717 M
18 124 V
-78 -98 V
3746 819 M
440 1022 V
stroke
gsave [] 0 setdash
4168 1717 M
18 124 V
-78 -98 V
stroke
grestore
4197 1667 M
30 122 V
-87 -90 V
3690 814 M
537 975 V
stroke
gsave [] 0 setdash
4197 1667 M
30 122 V
-87 -90 V
stroke
grestore
4223 1612 M
41 118 V
-95 -81 V
3635 812 M
629 918 V
stroke
gsave [] 0 setdash
4223 1612 M
41 118 V
-95 -81 V
stroke
grestore
4241 1550 M
53 114 V
-103 -72 V
3579 811 M
715 853 V
stroke
gsave [] 0 setdash
4241 1550 M
53 114 V
-103 -72 V
stroke
grestore
4254 1484 M
63 108 V
-109 -62 V
3523 812 M
794 780 V
stroke
gsave [] 0 setdash
4254 1484 M
63 108 V
-109 -62 V
stroke
grestore
4260 1413 M
74 101 V
-115 -51 V
3468 814 M
866 700 V
stroke
gsave [] 0 setdash
4260 1413 M
74 101 V
-115 -51 V
stroke
grestore
4259 1337 M
83 94 V
-119 -39 V
3412 819 M
930 612 V
stroke
gsave [] 0 setdash
4259 1337 M
83 94 V
-119 -39 V
stroke
grestore
4249 1260 M
92 85 V
-122 -28 V
3357 825 M
984 520 V
stroke
gsave [] 0 setdash
4249 1260 M
92 85 V
-122 -28 V
stroke
grestore
4223 1146 M
103 72 V
-125 -10 V
3279 837 M
1047 381 V
stroke
gsave [] 0 setdash
4223 1146 M
103 72 V
-125 -10 V
stroke
grestore
3955 1117 M
-103 -72 V
125 11 V
921 370 R
3852 1045 L
stroke
gsave [] 0 setdash
3955 1117 M
-103 -72 V
125 11 V
stroke
grestore
3893 1167 M
-109 -61 V
125 -1 V
953 279 R
3784 1106 L
stroke
gsave [] 0 setdash
3893 1167 M
-109 -61 V
125 -1 V
stroke
grestore
3839 1222 M
-115 -51 V
125 -13 V
975 185 R
3724 1171 L
stroke
gsave [] 0 setdash
3839 1222 M
-115 -51 V
125 -13 V
stroke
grestore
3792 1278 M
-119 -39 V
123 -25 V
989 90 R
3673 1239 L
stroke
gsave [] 0 setdash
3792 1278 M
-119 -39 V
123 -25 V
stroke
grestore
3754 1335 M
-122 -27 V
120 -37 V
992 -6 R
-1112 43 V
stroke
gsave [] 0 setdash
3754 1335 M
-122 -27 V
120 -37 V
stroke
grestore
3725 1394 M
-125 -15 V
116 -48 V
987 -103 R
3600 1379 L
stroke
gsave [] 0 setdash
3725 1394 M
-125 -15 V
116 -48 V
stroke
grestore
3702 1452 M
-125 -3 V
110 -59 V
973 -197 R
3577 1449 L
stroke
gsave [] 0 setdash
3702 1452 M
-125 -3 V
110 -59 V
stroke
grestore
3688 1511 M
-125 8 V
104 -70 V
949 -291 R
3563 1519 L
stroke
gsave [] 0 setdash
3688 1511 M
-125 8 V
104 -70 V
stroke
grestore
3682 1566 M
-124 20 V
97 -80 V
916 -380 R
3558 1586 L
stroke
gsave [] 0 setdash
3682 1566 M
-124 20 V
97 -80 V
stroke
grestore
3682 1619 M
-121 32 V
89 -89 V
875 -468 R
-964 557 V
stroke
gsave [] 0 setdash
3682 1619 M
-121 32 V
89 -89 V
stroke
grestore
3689 1668 M
-117 44 V
80 -97 V
826 -551 R
-906 648 V
stroke
gsave [] 0 setdash
3689 1668 M
-117 44 V
80 -97 V
stroke
grestore
3704 1713 M
-113 55 V
70 -104 V
769 -628 R
-839 732 V
stroke
gsave [] 0 setdash
3704 1713 M
-113 55 V
70 -104 V
stroke
grestore
3724 1753 M
-107 66 V
59 -110 V
705 -700 R
-764 810 V
stroke
gsave [] 0 setdash
3724 1753 M
-107 66 V
59 -110 V
stroke
grestore
3750 1788 M
-100 76 V
48 -116 V
4332 984 M
-682 880 V
stroke
gsave [] 0 setdash
3750 1788 M
-100 76 V
48 -116 V
stroke
grestore
3779 1817 M
-92 85 V
37 -120 V
4281 961 M
-594 941 V
stroke
gsave [] 0 setdash
3779 1817 M
-92 85 V
37 -120 V
stroke
grestore
3813 1840 M
-83 94 V
25 -123 V
4230 939 M
-500 995 V
stroke
gsave [] 0 setdash
3813 1840 M
-83 94 V
25 -123 V
stroke
grestore
3851 1856 M
-74 101 V
13 -125 V
4178 919 M
3777 1957 L
stroke
gsave [] 0 setdash
3851 1856 M
-74 101 V
13 -125 V
stroke
grestore
3891 1864 M
-64 108 V
1 -125 V
4126 900 M
3827 1972 L
stroke
gsave [] 0 setdash
3891 1864 M
-64 108 V
1 -125 V
stroke
grestore
3932 1866 M
-53 114 V
-10 -125 V
4073 883 M
3879 1980 L
stroke
gsave [] 0 setdash
3932 1866 M
-53 114 V
-10 -125 V
stroke
grestore
3974 1860 M
-42 118 V
-23 -123 V
4019 868 M
-87 1110 V
stroke
gsave [] 0 setdash
3974 1860 M
-42 118 V
-23 -123 V
stroke
grestore
4016 1846 M
-30 122 V
-34 -121 V
13 -992 R
21 1113 V
stroke
gsave [] 0 setdash
4016 1846 M
-30 122 V
-34 -121 V
stroke
grestore
4057 1825 M
-18 124 V
-46 -117 V
3911 843 M
128 1106 V
stroke
gsave [] 0 setdash
4057 1825 M
-18 124 V
-46 -117 V
stroke
grestore
4097 1796 M
-6 125 V
-57 -112 V
3856 833 M
235 1088 V
stroke
gsave [] 0 setdash
4097 1796 M
-6 125 V
-57 -112 V
stroke
grestore
4135 1761 M
5 125 V
-68 -106 V
3801 825 M
339 1061 V
stroke
gsave [] 0 setdash
4135 1761 M
5 125 V
-68 -106 V
stroke
grestore
4168 1717 M
18 124 V
-78 -98 V
3746 819 M
440 1022 V
stroke
gsave [] 0 setdash
4168 1717 M
18 124 V
-78 -98 V
stroke
grestore
4197 1667 M
30 122 V
-87 -90 V
3690 814 M
537 975 V
stroke
gsave [] 0 setdash
4197 1667 M
30 122 V
-87 -90 V
stroke
grestore
4223 1612 M
41 118 V
-95 -81 V
3635 812 M
629 918 V
stroke
gsave [] 0 setdash
4223 1612 M
41 118 V
-95 -81 V
stroke
grestore
4241 1550 M
53 114 V
-103 -72 V
3579 811 M
715 853 V
stroke
gsave [] 0 setdash
4241 1550 M
53 114 V
-103 -72 V
stroke
grestore
4254 1484 M
63 108 V
-109 -62 V
3523 812 M
794 780 V
stroke
gsave [] 0 setdash
4254 1484 M
63 108 V
-109 -62 V
stroke
grestore
4260 1413 M
74 101 V
-115 -51 V
3468 814 M
866 700 V
stroke
gsave [] 0 setdash
4260 1413 M
74 101 V
-115 -51 V
stroke
grestore
4259 1337 M
83 94 V
-119 -39 V
3412 819 M
930 612 V
stroke
gsave [] 0 setdash
4259 1337 M
83 94 V
-119 -39 V
stroke
grestore
4249 1260 M
92 85 V
-122 -28 V
3357 825 M
984 520 V
stroke
gsave [] 0 setdash
4249 1260 M
92 85 V
-122 -28 V
stroke
grestore
4223 1146 M
103 72 V
-125 -10 V
3279 837 M
1047 381 V
stroke
gsave [] 0 setdash
4223 1146 M
103 72 V
-125 -10 V
stroke
grestore
% End plot #8
% Begin plot #9
1.000 UL
LTb
0.58 0.00 0.83 C 1.000 UL
LTb
0.58 0.00 0.83 C 4223 1146 M
103 72 V
-125 -10 V
3279 837 M
1047 381 V
stroke
gsave [] 0 setdash
4223 1146 M
103 72 V
-125 -10 V
stroke
grestore
4194 1064 M
109 61 V
-125 1 V
3225 847 M
1078 278 V
stroke
gsave [] 0 setdash
4194 1064 M
109 61 V
-125 1 V
stroke
grestore
4155 981 M
115 51 V
-125 13 V
3170 860 M
1100 172 V
stroke
gsave [] 0 setdash
4155 981 M
115 51 V
-125 13 V
stroke
grestore
4109 900 M
119 39 V
-123 25 V
3117 874 M
1111 65 V
stroke
gsave [] 0 setdash
4109 900 M
119 39 V
-123 25 V
stroke
grestore
4054 820 M
122 27 V
-120 37 V
-993 6 R
4176 847 L
stroke
gsave [] 0 setdash
4054 820 M
122 27 V
-120 37 V
stroke
grestore
3989 742 M
124 15 V
-116 48 V
3010 907 M
4113 757 L
stroke
gsave [] 0 setdash
3989 742 M
124 15 V
-116 48 V
stroke
grestore
3916 667 M
125 3 V
-110 59 V
2958 926 M
4041 670 L
stroke
gsave [] 0 setdash
3916 667 M
125 3 V
-110 59 V
stroke
grestore
3835 595 M
125 -8 V
-104 70 V
2907 947 M
3960 587 L
stroke
gsave [] 0 setdash
3835 595 M
125 -8 V
-104 70 V
stroke
grestore
3745 529 M
124 -20 V
-97 80 V
2856 970 M
3869 509 L
stroke
gsave [] 0 setdash
3745 529 M
124 -20 V
-97 80 V
stroke
grestore
3649 469 M
121 -32 V
-89 89 V
2805 994 M
3770 437 L
stroke
gsave [] 0 setdash
3649 469 M
121 -32 V
-89 89 V
stroke
grestore
3545 416 M
117 -44 V
-80 97 V
-826 551 R
3662 372 L
stroke
gsave [] 0 setdash
3545 416 M
117 -44 V
-80 97 V
stroke
grestore
3434 370 M
113 -55 V
-70 104 V
-769 628 R
3547 315 L
stroke
gsave [] 0 setdash
3434 370 M
113 -55 V
-70 104 V
stroke
grestore
3317 332 M
107 -66 V
-59 110 V
-705 700 R
3424 266 L
stroke
gsave [] 0 setdash
3317 332 M
107 -66 V
-59 110 V
stroke
grestore
3196 303 M
100 -76 V
-48 116 V
-634 763 R
3296 227 L
stroke
gsave [] 0 setdash
3196 303 M
100 -76 V
-48 116 V
stroke
grestore
3070 282 M
92 -85 V
-37 120 V
-557 821 R
3162 197 L
stroke
gsave [] 0 setdash
3070 282 M
92 -85 V
-37 120 V
stroke
grestore
2940 271 M
83 -94 V
-25 123 V
-475 872 R
3023 177 L
stroke
gsave [] 0 setdash
2940 271 M
83 -94 V
-25 123 V
stroke
grestore
2807 269 M
74 -101 V
-13 125 V
-388 913 R
2881 168 L
stroke
gsave [] 0 setdash
2807 269 M
74 -101 V
-13 125 V
stroke
grestore
2673 278 M
64 -108 V
-1 125 V
-298 948 R
2737 170 L
stroke
gsave [] 0 setdash
2673 278 M
64 -108 V
-1 125 V
stroke
grestore
2537 298 M
53 -114 V
11 125 V
-204 971 R
2590 184 L
stroke
gsave [] 0 setdash
2537 298 M
53 -114 V
11 125 V
stroke
grestore
2402 327 M
41 -118 V
23 123 V
-109 987 R
2443 209 L
stroke
gsave [] 0 setdash
2402 327 M
41 -118 V
23 123 V
stroke
grestore
2267 368 M
30 -122 V
34 121 V
-13 992 R
2297 246 L
stroke
gsave [] 0 setdash
2267 368 M
30 -122 V
34 121 V
stroke
grestore
2134 419 M
18 -124 V
46 117 V
83 989 R
2152 295 L
stroke
gsave [] 0 setdash
2134 419 M
18 -124 V
46 117 V
stroke
grestore
2004 480 M
6 -125 V
57 112 V
178 976 R
2010 355 L
stroke
gsave [] 0 setdash
2004 480 M
6 -125 V
57 112 V
stroke
grestore
1876 551 M
-5 -125 V
68 106 V
271 955 R
1871 426 L
stroke
gsave [] 0 setdash
1876 551 M
-5 -125 V
68 106 V
stroke
grestore
1755 633 M
1737 509 L
78 98 V
362 924 R
1737 509 L
stroke
gsave [] 0 setdash
1755 633 M
1737 509 L
78 98 V
stroke
grestore
1638 724 M
1608 602 L
87 90 V
451 885 R
1608 602 L
stroke
gsave [] 0 setdash
1638 724 M
1608 602 L
87 90 V
stroke
grestore
1527 823 M
1486 705 L
95 82 V
534 837 R
1486 705 L
stroke
gsave [] 0 setdash
1527 823 M
1486 705 L
95 82 V
stroke
grestore
1425 932 M
1372 818 L
103 72 V
612 782 R
1372 818 L
stroke
gsave [] 0 setdash
1425 932 M
1372 818 L
103 72 V
stroke
grestore
1329 1048 M
1265 940 L
109 61 V
686 719 R
1265 940 L
stroke
gsave [] 0 setdash
1329 1048 M
1265 940 L
109 61 V
stroke
grestore
1242 1171 M
-74 -101 V
115 51 V
751 649 R
1168 1070 L
stroke
gsave [] 0 setdash
1242 1171 M
-74 -101 V
115 51 V
stroke
grestore
1164 1302 M
-83 -94 V
119 39 V
810 573 R
1081 1208 L
stroke
gsave [] 0 setdash
1164 1302 M
-83 -94 V
119 39 V
stroke
grestore
1096 1437 M
-92 -85 V
122 27 V
862 492 R
1004 1352 L
stroke
gsave [] 0 setdash
1096 1437 M
-92 -85 V
122 27 V
stroke
grestore
1017 1635 M
914 1563 L
125 11 V
921 370 R
914 1563 L
stroke
gsave [] 0 setdash
1017 1635 M
914 1563 L
125 11 V
stroke
grestore
4223 1146 M
103 72 V
-125 -10 V
3279 837 M
1047 381 V
stroke
gsave [] 0 setdash
4223 1146 M
103 72 V
-125 -10 V
stroke
grestore
4194 1064 M
109 61 V
-125 1 V
3225 847 M
1078 278 V
stroke
gsave [] 0 setdash
4194 1064 M
109 61 V
-125 1 V
stroke
grestore
4155 981 M
115 51 V
-125 13 V
3170 860 M
1100 172 V
stroke
gsave [] 0 setdash
4155 981 M
115 51 V
-125 13 V
stroke
grestore
4109 900 M
119 39 V
-123 25 V
3117 874 M
1111 65 V
stroke
gsave [] 0 setdash
4109 900 M
119 39 V
-123 25 V
stroke
grestore
4054 820 M
122 27 V
-120 37 V
-993 6 R
4176 847 L
stroke
gsave [] 0 setdash
4054 820 M
122 27 V
-120 37 V
stroke
grestore
3989 742 M
124 15 V
-116 48 V
3010 907 M
4113 757 L
stroke
gsave [] 0 setdash
3989 742 M
124 15 V
-116 48 V
stroke
grestore
3916 667 M
125 3 V
-110 59 V
2958 926 M
4041 670 L
stroke
gsave [] 0 setdash
3916 667 M
125 3 V
-110 59 V
stroke
grestore
3835 595 M
125 -8 V
-104 70 V
2907 947 M
3960 587 L
stroke
gsave [] 0 setdash
3835 595 M
125 -8 V
-104 70 V
stroke
grestore
3745 529 M
124 -20 V
-97 80 V
2856 970 M
3869 509 L
stroke
gsave [] 0 setdash
3745 529 M
124 -20 V
-97 80 V
stroke
grestore
3649 469 M
121 -32 V
-89 89 V
2805 994 M
3770 437 L
stroke
gsave [] 0 setdash
3649 469 M
121 -32 V
-89 89 V
stroke
grestore
3545 416 M
117 -44 V
-80 97 V
-826 551 R
3662 372 L
stroke
gsave [] 0 setdash
3545 416 M
117 -44 V
-80 97 V
stroke
grestore
3434 370 M
113 -55 V
-70 104 V
-769 628 R
3547 315 L
stroke
gsave [] 0 setdash
3434 370 M
113 -55 V
-70 104 V
stroke
grestore
3317 332 M
107 -66 V
-59 110 V
-705 700 R
3424 266 L
stroke
gsave [] 0 setdash
3317 332 M
107 -66 V
-59 110 V
stroke
grestore
3196 303 M
100 -76 V
-48 116 V
-634 763 R
3296 227 L
stroke
gsave [] 0 setdash
3196 303 M
100 -76 V
-48 116 V
stroke
grestore
3070 282 M
92 -85 V
-37 120 V
-557 821 R
3162 197 L
stroke
gsave [] 0 setdash
3070 282 M
92 -85 V
-37 120 V
stroke
grestore
2940 271 M
83 -94 V
-25 123 V
-475 872 R
3023 177 L
stroke
gsave [] 0 setdash
2940 271 M
83 -94 V
-25 123 V
stroke
grestore
2807 269 M
74 -101 V
-13 125 V
-388 913 R
2881 168 L
stroke
gsave [] 0 setdash
2807 269 M
74 -101 V
-13 125 V
stroke
grestore
2673 278 M
64 -108 V
-1 125 V
-298 948 R
2737 170 L
stroke
gsave [] 0 setdash
2673 278 M
64 -108 V
-1 125 V
stroke
grestore
2537 298 M
53 -114 V
11 125 V
-204 971 R
2590 184 L
stroke
gsave [] 0 setdash
2537 298 M
53 -114 V
11 125 V
stroke
grestore
2402 327 M
41 -118 V
23 123 V
-109 987 R
2443 209 L
stroke
gsave [] 0 setdash
2402 327 M
41 -118 V
23 123 V
stroke
grestore
2267 368 M
30 -122 V
34 121 V
-13 992 R
2297 246 L
stroke
gsave [] 0 setdash
2267 368 M
30 -122 V
34 121 V
stroke
grestore
2134 419 M
18 -124 V
46 117 V
83 989 R
2152 295 L
stroke
gsave [] 0 setdash
2134 419 M
18 -124 V
46 117 V
stroke
grestore
2004 480 M
6 -125 V
57 112 V
178 976 R
2010 355 L
stroke
gsave [] 0 setdash
2004 480 M
6 -125 V
57 112 V
stroke
grestore
1876 551 M
-5 -125 V
68 106 V
271 955 R
1871 426 L
stroke
gsave [] 0 setdash
1876 551 M
-5 -125 V
68 106 V
stroke
grestore
1755 633 M
1737 509 L
78 98 V
362 924 R
1737 509 L
stroke
gsave [] 0 setdash
1755 633 M
1737 509 L
78 98 V
stroke
grestore
1638 724 M
1608 602 L
87 90 V
451 885 R
1608 602 L
stroke
gsave [] 0 setdash
1638 724 M
1608 602 L
87 90 V
stroke
grestore
1527 823 M
1486 705 L
95 82 V
534 837 R
1486 705 L
stroke
gsave [] 0 setdash
1527 823 M
1486 705 L
95 82 V
stroke
grestore
1425 932 M
1372 818 L
103 72 V
612 782 R
1372 818 L
stroke
gsave [] 0 setdash
1425 932 M
1372 818 L
103 72 V
stroke
grestore
1329 1048 M
1265 940 L
109 61 V
686 719 R
1265 940 L
stroke
gsave [] 0 setdash
1329 1048 M
1265 940 L
109 61 V
stroke
grestore
1242 1171 M
-74 -101 V
115 51 V
751 649 R
1168 1070 L
stroke
gsave [] 0 setdash
1242 1171 M
-74 -101 V
115 51 V
stroke
grestore
1164 1302 M
-83 -94 V
119 39 V
810 573 R
1081 1208 L
stroke
gsave [] 0 setdash
1164 1302 M
-83 -94 V
119 39 V
stroke
grestore
1096 1437 M
-92 -85 V
122 27 V
862 492 R
1004 1352 L
stroke
gsave [] 0 setdash
1096 1437 M
-92 -85 V
122 27 V
stroke
grestore
1017 1635 M
914 1563 L
125 11 V
921 370 R
914 1563 L
stroke
gsave [] 0 setdash
1017 1635 M
914 1563 L
125 11 V
stroke
grestore
% End plot #9
% Begin plot #10
1.000 UL
LTb
0.00 0.62 0.45 C 1.000 UL
LTb
0.00 0.62 0.45 C 1017 1635 M
914 1563 L
125 11 V
921 370 R
914 1563 L
stroke
gsave [] 0 setdash
1017 1635 M
914 1563 L
125 11 V
stroke
grestore
972 1780 M
863 1719 L
125 -1 V
954 279 R
863 1719 L
stroke
gsave [] 0 setdash
972 1780 M
863 1719 L
125 -1 V
stroke
grestore
940 1929 M
825 1878 L
125 -13 V
975 185 R
825 1878 L
stroke
gsave [] 0 setdash
940 1929 M
825 1878 L
125 -13 V
stroke
grestore
918 2078 M
799 2039 L
123 -25 V
988 90 R
799 2039 L
stroke
gsave [] 0 setdash
918 2078 M
799 2039 L
123 -25 V
stroke
grestore
907 2228 M
785 2201 L
120 -37 V
992 -6 R
785 2201 L
stroke
gsave [] 0 setdash
907 2228 M
785 2201 L
120 -37 V
stroke
grestore
908 2378 M
783 2363 L
116 -48 V
987 -103 R
783 2363 L
stroke
gsave [] 0 setdash
908 2378 M
783 2363 L
116 -48 V
stroke
grestore
918 2527 M
-125 -3 V
110 -59 V
974 -198 R
793 2524 L
stroke
gsave [] 0 setdash
918 2527 M
-125 -3 V
110 -59 V
stroke
grestore
940 2675 M
-125 8 V
104 -70 V
950 -291 R
815 2683 L
stroke
gsave [] 0 setdash
940 2675 M
-125 8 V
104 -70 V
stroke
grestore
973 2818 M
-124 20 V
97 -79 V
917 -381 R
849 2838 L
stroke
gsave [] 0 setdash
973 2818 M
-124 20 V
97 -79 V
stroke
grestore
1016 2958 M
-121 32 V
89 -89 V
875 -468 R
895 2990 L
stroke
gsave [] 0 setdash
1016 2958 M
-121 32 V
89 -89 V
stroke
grestore
1068 3092 M
-117 44 V
80 -97 V
825 -550 R
951 3136 L
stroke
gsave [] 0 setdash
1068 3092 M
-117 44 V
80 -97 V
stroke
grestore
1130 3221 M
-113 55 V
70 -104 V
769 -628 R
-839 732 V
stroke
gsave [] 0 setdash
1130 3221 M
-113 55 V
70 -104 V
stroke
grestore
1200 3344 M
-107 66 V
59 -110 V
705 -700 R
-764 810 V
stroke
gsave [] 0 setdash
1200 3344 M
-107 66 V
59 -110 V
stroke
grestore
1278 3460 M
-100 76 V
48 -116 V
634 -764 R
-682 880 V
stroke
gsave [] 0 setdash
1278 3460 M
-100 76 V
48 -116 V
stroke
grestore
1363 3568 M
-92 85 V
37 -120 V
557 -822 R
-594 942 V
stroke
gsave [] 0 setdash
1363 3568 M
-92 85 V
37 -120 V
stroke
grestore
1455 3667 M
-83 94 V
25 -123 V
475 -872 R
-500 995 V
stroke
gsave [] 0 setdash
1455 3667 M
-83 94 V
25 -123 V
stroke
grestore
1553 3759 M
-74 101 V
13 -125 V
388 -914 R
1479 3860 L
stroke
gsave [] 0 setdash
1553 3759 M
-74 101 V
13 -125 V
stroke
grestore
1655 3841 M
-64 108 V
1 -125 V
298 -948 R
1591 3949 L
stroke
gsave [] 0 setdash
1655 3841 M
-64 108 V
1 -125 V
stroke
grestore
1761 3913 M
-53 114 V
-10 -125 V
204 -971 R
1708 4027 L
stroke
gsave [] 0 setdash
1761 3913 M
-53 114 V
-10 -125 V
stroke
grestore
1871 3977 M
-42 118 V
-23 -123 V
110 -987 R
-87 1110 V
stroke
gsave [] 0 setdash
1871 3977 M
-42 118 V
-23 -123 V
stroke
grestore
1982 4029 M
-30 122 V
-34 -121 V
13 -992 R
21 1113 V
stroke
gsave [] 0 setdash
1982 4029 M
-30 122 V
-34 -121 V
stroke
grestore
2095 4073 M
-18 124 V
-46 -117 V
-82 -989 R
128 1106 V
stroke
gsave [] 0 setdash
2095 4073 M
-18 124 V
-46 -117 V
stroke
grestore
2209 4107 M
-6 125 V
-57 -112 V
1967 3143 M
236 1089 V
stroke
gsave [] 0 setdash
2209 4107 M
-6 125 V
-57 -112 V
stroke
grestore
2321 4130 M
6 125 V
-68 -105 V
1988 3195 M
339 1060 V
stroke
gsave [] 0 setdash
2321 4130 M
6 125 V
-68 -105 V
stroke
grestore
2432 4145 M
18 124 V
-78 -98 V
2010 3246 M
440 1023 V
stroke
gsave [] 0 setdash
2432 4145 M
18 124 V
-78 -98 V
stroke
grestore
2541 4150 M
30 122 V
-87 -90 V
2034 3296 M
537 976 V
stroke
gsave [] 0 setdash
2541 4150 M
30 122 V
-87 -90 V
stroke
grestore
2648 4146 M
41 118 V
-95 -81 V
2059 3346 M
630 918 V
stroke
gsave [] 0 setdash
2648 4146 M
41 118 V
-95 -81 V
stroke
grestore
2749 4134 M
53 114 V
-103 -72 V
2086 3395 M
716 853 V
stroke
gsave [] 0 setdash
2749 4134 M
53 114 V
-103 -72 V
stroke
grestore
2846 4114 M
63 108 V
-109 -62 V
2115 3442 M
794 780 V
stroke
gsave [] 0 setdash
2846 4114 M
63 108 V
-109 -62 V
stroke
grestore
2937 4088 M
74 101 V
-115 -51 V
2145 3489 M
866 700 V
stroke
gsave [] 0 setdash
2937 4088 M
74 101 V
-115 -51 V
stroke
grestore
3023 4053 M
83 94 V
-119 -39 V
2177 3535 M
929 612 V
stroke
gsave [] 0 setdash
3023 4053 M
83 94 V
-119 -39 V
stroke
grestore
3102 4014 M
92 85 V
-122 -27 V
2210 3580 M
984 519 V
stroke
gsave [] 0 setdash
3102 4014 M
92 85 V
-122 -27 V
stroke
grestore
3202 3950 M
103 72 V
-125 -11 V
2259 3641 M
1046 381 V
stroke
gsave [] 0 setdash
3202 3950 M
103 72 V
-125 -11 V
stroke
grestore
1017 1635 M
914 1563 L
125 11 V
921 370 R
914 1563 L
stroke
gsave [] 0 setdash
1017 1635 M
914 1563 L
125 11 V
stroke
grestore
972 1780 M
863 1719 L
125 -1 V
954 279 R
863 1719 L
stroke
gsave [] 0 setdash
972 1780 M
863 1719 L
125 -1 V
stroke
grestore
940 1929 M
825 1878 L
125 -13 V
975 185 R
825 1878 L
stroke
gsave [] 0 setdash
940 1929 M
825 1878 L
125 -13 V
stroke
grestore
918 2078 M
799 2039 L
123 -25 V
988 90 R
799 2039 L
stroke
gsave [] 0 setdash
918 2078 M
799 2039 L
123 -25 V
stroke
grestore
907 2228 M
785 2201 L
120 -37 V
992 -6 R
785 2201 L
stroke
gsave [] 0 setdash
907 2228 M
785 2201 L
120 -37 V
stroke
grestore
908 2378 M
783 2363 L
116 -48 V
987 -103 R
783 2363 L
stroke
gsave [] 0 setdash
908 2378 M
783 2363 L
116 -48 V
stroke
grestore
918 2527 M
-125 -3 V
110 -59 V
974 -198 R
793 2524 L
stroke
gsave [] 0 setdash
918 2527 M
-125 -3 V
110 -59 V
stroke
grestore
940 2675 M
-125 8 V
104 -70 V
950 -291 R
815 2683 L
stroke
gsave [] 0 setdash
940 2675 M
-125 8 V
104 -70 V
stroke
grestore
973 2818 M
-124 20 V
97 -79 V
917 -381 R
849 2838 L
stroke
gsave [] 0 setdash
973 2818 M
-124 20 V
97 -79 V
stroke
grestore
1016 2958 M
-121 32 V
89 -89 V
875 -468 R
895 2990 L
stroke
gsave [] 0 setdash
1016 2958 M
-121 32 V
89 -89 V
stroke
grestore
1068 3092 M
-117 44 V
80 -97 V
825 -550 R
951 3136 L
stroke
gsave [] 0 setdash
1068 3092 M
-117 44 V
80 -97 V
stroke
grestore
1130 3221 M
-113 55 V
70 -104 V
769 -628 R
-839 732 V
stroke
gsave [] 0 setdash
1130 3221 M
-113 55 V
70 -104 V
stroke
grestore
1200 3344 M
-107 66 V
59 -110 V
705 -700 R
-764 810 V
stroke
gsave [] 0 setdash
1200 3344 M
-107 66 V
59 -110 V
stroke
grestore
1278 3460 M
-100 76 V
48 -116 V
634 -764 R
-682 880 V
stroke
gsave [] 0 setdash
1278 3460 M
-100 76 V
48 -116 V
stroke
grestore
1363 3568 M
-92 85 V
37 -120 V
557 -822 R
-594 942 V
stroke
gsave [] 0 setdash
1363 3568 M
-92 85 V
37 -120 V
stroke
grestore
1455 3667 M
-83 94 V
25 -123 V
475 -872 R
-500 995 V
stroke
gsave [] 0 setdash
1455 3667 M
-83 94 V
25 -123 V
stroke
grestore
1553 3759 M
-74 101 V
13 -125 V
388 -914 R
1479 3860 L
stroke
gsave [] 0 setdash
1553 3759 M
-74 101 V
13 -125 V
stroke
grestore
1655 3841 M
-64 108 V
1 -125 V
298 -948 R
1591 3949 L
stroke
gsave [] 0 setdash
1655 3841 M
-64 108 V
1 -125 V
stroke
grestore
1761 3913 M
-53 114 V
-10 -125 V
204 -971 R
1708 4027 L
stroke
gsave [] 0 setdash
1761 3913 M
-53 114 V
-10 -125 V
stroke
grestore
1871 3977 M
-42 118 V
-23 -123 V
110 -987 R
-87 1110 V
stroke
gsave [] 0 setdash
1871 3977 M
-42 118 V
-23 -123 V
stroke
grestore
1982 4029 M
-30 122 V
-34 -121 V
13 -992 R
21 1113 V
stroke
gsave [] 0 setdash
1982 4029 M
-30 122 V
-34 -121 V
stroke
grestore
2095 4073 M
-18 124 V
-46 -117 V
-82 -989 R
128 1106 V
stroke
gsave [] 0 setdash
2095 4073 M
-18 124 V
-46 -117 V
stroke
grestore
2209 4107 M
-6 125 V
-57 -112 V
1967 3143 M
236 1089 V
stroke
gsave [] 0 setdash
2209 4107 M
-6 125 V
-57 -112 V
stroke
grestore
2321 4130 M
6 125 V
-68 -105 V
1988 3195 M
339 1060 V
stroke
gsave [] 0 setdash
2321 4130 M
6 125 V
-68 -105 V
stroke
grestore
2432 4145 M
18 124 V
-78 -98 V
2010 3246 M
440 1023 V
stroke
gsave [] 0 setdash
2432 4145 M
18 124 V
-78 -98 V
stroke
grestore
2541 4150 M
30 122 V
-87 -90 V
2034 3296 M
537 976 V
stroke
gsave [] 0 setdash
2541 4150 M
30 122 V
-87 -90 V
stroke
grestore
2648 4146 M
41 118 V
-95 -81 V
2059 3346 M
630 918 V
stroke
gsave [] 0 setdash
2648 4146 M
41 118 V
-95 -81 V
stroke
grestore
2749 4134 M
53 114 V
-103 -72 V
2086 3395 M
716 853 V
stroke
gsave [] 0 setdash
2749 4134 M
53 114 V
-103 -72 V
stroke
grestore
2846 4114 M
63 108 V
-109 -62 V
2115 3442 M
794 780 V
stroke
gsave [] 0 setdash
2846 4114 M
63 108 V
-109 -62 V
stroke
grestore
2937 4088 M
74 101 V
-115 -51 V
2145 3489 M
866 700 V
stroke
gsave [] 0 setdash
2937 4088 M
74 101 V
-115 -51 V
stroke
grestore
3023 4053 M
83 94 V
-119 -39 V
2177 3535 M
929 612 V
stroke
gsave [] 0 setdash
3023 4053 M
83 94 V
-119 -39 V
stroke
grestore
3102 4014 M
92 85 V
-122 -27 V
2210 3580 M
984 519 V
stroke
gsave [] 0 setdash
3102 4014 M
92 85 V
-122 -27 V
stroke
grestore
3202 3950 M
103 72 V
-125 -11 V
2259 3641 M
1046 381 V
stroke
gsave [] 0 setdash
3202 3950 M
103 72 V
-125 -11 V
stroke
grestore
% End plot #10
% Begin plot #11
1.000 UL
LTb
0.34 0.71 0.91 C 1.000 UL
LTb
0.34 0.71 0.91 C 3202 3950 M
103 72 V
-125 -11 V
2259 3641 M
1046 381 V
stroke
gsave [] 0 setdash
3202 3950 M
103 72 V
-125 -11 V
stroke
grestore
3264 3900 M
109 61 V
-125 1 V
2295 3683 M
1078 278 V
stroke
gsave [] 0 setdash
3264 3900 M
109 61 V
-125 1 V
stroke
grestore
3318 3845 M
115 51 V
-125 13 V
2333 3724 M
1100 172 V
stroke
gsave [] 0 setdash
3318 3845 M
115 51 V
-125 13 V
stroke
grestore
3365 3789 M
119 39 V
-123 25 V
-989 -90 R
1112 65 V
stroke
gsave [] 0 setdash
3365 3789 M
119 39 V
-123 25 V
stroke
grestore
3403 3732 M
122 27 V
-120 37 V
-992 6 R
1112 -43 V
stroke
gsave [] 0 setdash
3403 3732 M
122 27 V
-120 37 V
stroke
grestore
3432 3673 M
125 15 V
-116 48 V
-987 103 R
3557 3688 L
stroke
gsave [] 0 setdash
3432 3673 M
125 15 V
-116 48 V
stroke
grestore
3455 3615 M
125 3 V
-110 59 V
-973 197 R
3580 3618 L
stroke
gsave [] 0 setdash
3455 3615 M
125 3 V
-110 59 V
stroke
grestore
3469 3556 M
125 -8 V
-104 70 V
-949 291 R
3594 3548 L
stroke
gsave [] 0 setdash
3469 3556 M
125 -8 V
-104 70 V
stroke
grestore
3475 3501 M
124 -20 V
-97 80 V
-916 380 R
3599 3481 L
stroke
gsave [] 0 setdash
3475 3501 M
124 -20 V
-97 80 V
stroke
grestore
3475 3448 M
121 -32 V
-89 89 V
-875 468 R
964 -557 V
stroke
gsave [] 0 setdash
3475 3448 M
121 -32 V
-89 89 V
stroke
grestore
3468 3399 M
117 -44 V
-80 97 V
-826 551 R
906 -648 V
stroke
gsave [] 0 setdash
3468 3399 M
117 -44 V
-80 97 V
stroke
grestore
3453 3354 M
113 -55 V
-70 104 V
-769 628 R
839 -732 V
stroke
gsave [] 0 setdash
3453 3354 M
113 -55 V
-70 104 V
stroke
grestore
3433 3314 M
107 -66 V
-59 110 V
-705 700 R
764 -810 V
stroke
gsave [] 0 setdash
3433 3314 M
107 -66 V
-59 110 V
stroke
grestore
3407 3279 M
100 -76 V
-48 116 V
-634 764 R
682 -880 V
stroke
gsave [] 0 setdash
3407 3279 M
100 -76 V
-48 116 V
stroke
grestore
3378 3250 M
92 -85 V
-37 120 V
-557 821 R
594 -941 V
stroke
gsave [] 0 setdash
3378 3250 M
92 -85 V
-37 120 V
stroke
grestore
3344 3227 M
83 -94 V
-25 123 V
-475 872 R
500 -995 V
stroke
gsave [] 0 setdash
3344 3227 M
83 -94 V
-25 123 V
stroke
grestore
3306 3211 M
74 -101 V
-13 125 V
-388 913 R
3380 3110 L
stroke
gsave [] 0 setdash
3306 3211 M
74 -101 V
-13 125 V
stroke
grestore
3266 3203 M
64 -108 V
-1 125 V
-298 947 R
3330 3095 L
stroke
gsave [] 0 setdash
3266 3203 M
64 -108 V
-1 125 V
stroke
grestore
3225 3201 M
53 -114 V
10 125 V
-204 972 R
3278 3087 L
stroke
gsave [] 0 setdash
3225 3201 M
53 -114 V
10 125 V
stroke
grestore
3183 3207 M
42 -118 V
23 123 V
-110 987 R
87 -1110 V
stroke
gsave [] 0 setdash
3183 3207 M
42 -118 V
23 123 V
stroke
grestore
3141 3221 M
30 -122 V
34 121 V
-13 992 R
3171 3099 L
stroke
gsave [] 0 setdash
3141 3221 M
30 -122 V
34 121 V
stroke
grestore
3100 3242 M
18 -124 V
46 117 V
82 989 R
3118 3118 L
stroke
gsave [] 0 setdash
3100 3242 M
18 -124 V
46 117 V
stroke
grestore
3060 3271 M
6 -125 V
57 112 V
178 976 R
3066 3146 L
stroke
gsave [] 0 setdash
3060 3271 M
6 -125 V
57 112 V
stroke
grestore
3022 3306 M
-5 -125 V
68 106 V
271 955 R
3017 3181 L
stroke
gsave [] 0 setdash
3022 3306 M
-5 -125 V
68 106 V
stroke
grestore
2989 3350 M
-18 -124 V
78 98 V
362 924 R
2971 3226 L
stroke
gsave [] 0 setdash
2989 3350 M
-18 -124 V
78 98 V
stroke
grestore
2960 3400 M
-30 -122 V
87 90 V
450 885 R
2930 3278 L
stroke
gsave [] 0 setdash
2960 3400 M
-30 -122 V
87 90 V
stroke
grestore
2934 3455 M
-41 -118 V
95 81 V
534 837 R
2893 3337 L
stroke
gsave [] 0 setdash
2934 3455 M
-41 -118 V
95 81 V
stroke
grestore
2916 3517 M
-53 -114 V
103 72 V
612 781 R
2863 3403 L
stroke
gsave [] 0 setdash
2916 3517 M
-53 -114 V
103 72 V
stroke
grestore
2903 3583 M
-63 -108 V
109 62 V
685 718 R
2840 3475 L
stroke
gsave [] 0 setdash
2903 3583 M
-63 -108 V
109 62 V
stroke
grestore
2897 3654 M
-74 -101 V
115 51 V
751 649 R
2823 3553 L
stroke
gsave [] 0 setdash
2897 3654 M
-74 -101 V
115 51 V
stroke
grestore
2898 3730 M
-83 -94 V
119 39 V
811 573 R
2815 3636 L
stroke
gsave [] 0 setdash
2898 3730 M
-83 -94 V
119 39 V
stroke
grestore
2908 3807 M
-92 -85 V
122 28 V
862 492 R
2816 3722 L
stroke
gsave [] 0 setdash
2908 3807 M
-92 -85 V
122 28 V
stroke
grestore
2934 3921 M
-103 -72 V
125 10 V
922 371 R
2831 3849 L
stroke
gsave [] 0 setdash
2934 3921 M
-103 -72 V
125 10 V
stroke
grestore
3202 3950 M
103 72 V
-125 -11 V
2259 3641 M
1046 381 V
stroke
gsave [] 0 setdash
3202 3950 M
103 72 V
-125 -11 V
stroke
grestore
3264 3900 M
109 61 V
-125 1 V
2295 3683 M
1078 278 V
stroke
gsave [] 0 setdash
3264 3900 M
109 61 V
-125 1 V
stroke
grestore
3318 3845 M
115 51 V
-125 13 V
2333 3724 M
1100 172 V
stroke
gsave [] 0 setdash
3318 3845 M
115 51 V
-125 13 V
stroke
grestore
3365 3789 M
119 39 V
-123 25 V
-989 -90 R
1112 65 V
stroke
gsave [] 0 setdash
3365 3789 M
119 39 V
-123 25 V
stroke
grestore
3403 3732 M
122 27 V
-120 37 V
-992 6 R
1112 -43 V
stroke
gsave [] 0 setdash
3403 3732 M
122 27 V
-120 37 V
stroke
grestore
3432 3673 M
125 15 V
-116 48 V
-987 103 R
3557 3688 L
stroke
gsave [] 0 setdash
3432 3673 M
125 15 V
-116 48 V
stroke
grestore
3455 3615 M
125 3 V
-110 59 V
-973 197 R
3580 3618 L
stroke
gsave [] 0 setdash
3455 3615 M
125 3 V
-110 59 V
stroke
grestore
3469 3556 M
125 -8 V
-104 70 V
-949 291 R
3594 3548 L
stroke
gsave [] 0 setdash
3469 3556 M
125 -8 V
-104 70 V
stroke
grestore
3475 3501 M
124 -20 V
-97 80 V
-916 380 R
3599 3481 L
stroke
gsave [] 0 setdash
3475 3501 M
124 -20 V
-97 80 V
stroke
grestore
3475 3448 M
121 -32 V
-89 89 V
-875 468 R
964 -557 V
stroke
gsave [] 0 setdash
3475 3448 M
121 -32 V
-89 89 V
stroke
grestore
3468 3399 M
117 -44 V
-80 97 V
-826 551 R
906 -648 V
stroke
gsave [] 0 setdash
3468 3399 M
117 -44 V
-80 97 V
stroke
grestore
3453 3354 M
113 -55 V
-70 104 V
-769 628 R
839 -732 V
stroke
gsave [] 0 setdash
3453 3354 M
113 -55 V
-70 104 V
stroke
grestore
3433 3314 M
107 -66 V
-59 110 V
-705 700 R
764 -810 V
stroke
gsave [] 0 setdash
3433 3314 M
107 -66 V
-59 110 V
stroke
grestore
3407 3279 M
100 -76 V
-48 116 V
-634 764 R
682 -880 V
stroke
gsave [] 0 setdash
3407 3279 M
100 -76 V
-48 116 V
stroke
grestore
3378 3250 M
92 -85 V
-37 120 V
-557 821 R
594 -941 V
stroke
gsave [] 0 setdash
3378 3250 M
92 -85 V
-37 120 V
stroke
grestore
3344 3227 M
83 -94 V
-25 123 V
-475 872 R
500 -995 V
stroke
gsave [] 0 setdash
3344 3227 M
83 -94 V
-25 123 V
stroke
grestore
3306 3211 M
74 -101 V
-13 125 V
-388 913 R
3380 3110 L
stroke
gsave [] 0 setdash
3306 3211 M
74 -101 V
-13 125 V
stroke
grestore
3266 3203 M
64 -108 V
-1 125 V
-298 947 R
3330 3095 L
stroke
gsave [] 0 setdash
3266 3203 M
64 -108 V
-1 125 V
stroke
grestore
3225 3201 M
53 -114 V
10 125 V
-204 972 R
3278 3087 L
stroke
gsave [] 0 setdash
3225 3201 M
53 -114 V
10 125 V
stroke
grestore
3183 3207 M
42 -118 V
23 123 V
-110 987 R
87 -1110 V
stroke
gsave [] 0 setdash
3183 3207 M
42 -118 V
23 123 V
stroke
grestore
3141 3221 M
30 -122 V
34 121 V
-13 992 R
3171 3099 L
stroke
gsave [] 0 setdash
3141 3221 M
30 -122 V
34 121 V
stroke
grestore
3100 3242 M
18 -124 V
46 117 V
82 989 R
3118 3118 L
stroke
gsave [] 0 setdash
3100 3242 M
18 -124 V
46 117 V
stroke
grestore
3060 3271 M
6 -125 V
57 112 V
178 976 R
3066 3146 L
stroke
gsave [] 0 setdash
3060 3271 M
6 -125 V
57 112 V
stroke
grestore
3022 3306 M
-5 -125 V
68 106 V
271 955 R
3017 3181 L
stroke
gsave [] 0 setdash
3022 3306 M
-5 -125 V
68 106 V
stroke
grestore
2989 3350 M
-18 -124 V
78 98 V
362 924 R
2971 3226 L
stroke
gsave [] 0 setdash
2989 3350 M
-18 -124 V
78 98 V
stroke
grestore
2960 3400 M
-30 -122 V
87 90 V
450 885 R
2930 3278 L
stroke
gsave [] 0 setdash
2960 3400 M
-30 -122 V
87 90 V
stroke
grestore
2934 3455 M
-41 -118 V
95 81 V
534 837 R
2893 3337 L
stroke
gsave [] 0 setdash
2934 3455 M
-41 -118 V
95 81 V
stroke
grestore
2916 3517 M
-53 -114 V
103 72 V
612 781 R
2863 3403 L
stroke
gsave [] 0 setdash
2916 3517 M
-53 -114 V
103 72 V
stroke
grestore
2903 3583 M
-63 -108 V
109 62 V
685 718 R
2840 3475 L
stroke
gsave [] 0 setdash
2903 3583 M
-63 -108 V
109 62 V
stroke
grestore
2897 3654 M
-74 -101 V
115 51 V
751 649 R
2823 3553 L
stroke
gsave [] 0 setdash
2897 3654 M
-74 -101 V
115 51 V
stroke
grestore
2898 3730 M
-83 -94 V
119 39 V
811 573 R
2815 3636 L
stroke
gsave [] 0 setdash
2898 3730 M
-83 -94 V
119 39 V
stroke
grestore
2908 3807 M
-92 -85 V
122 28 V
862 492 R
2816 3722 L
stroke
gsave [] 0 setdash
2908 3807 M
-92 -85 V
122 28 V
stroke
grestore
2934 3921 M
-103 -72 V
125 10 V
922 371 R
2831 3849 L
stroke
gsave [] 0 setdash
2934 3921 M
-103 -72 V
125 10 V
stroke
grestore
% End plot #11
% Begin plot #12
1.000 UL
LTb
0.90 0.62 0.00 C 1.000 UL
LTb
0.90 0.62 0.00 C 2934 3921 M
-103 -72 V
125 10 V
922 371 R
2831 3849 L
stroke
gsave [] 0 setdash
2934 3921 M
-103 -72 V
125 10 V
stroke
grestore
2963 4003 M
-109 -61 V
125 -1 V
953 279 R
2854 3942 L
stroke
gsave [] 0 setdash
2963 4003 M
-109 -61 V
125 -1 V
stroke
grestore
3002 4086 M
-115 -51 V
125 -13 V
975 185 R
2887 4035 L
stroke
gsave [] 0 setdash
3002 4086 M
-115 -51 V
125 -13 V
stroke
grestore
3048 4167 M
-119 -39 V
123 -25 V
988 90 R
2929 4128 L
stroke
gsave [] 0 setdash
3048 4167 M
-119 -39 V
123 -25 V
stroke
grestore
3103 4247 M
-122 -27 V
120 -37 V
993 -6 R
-1113 43 V
stroke
gsave [] 0 setdash
3103 4247 M
-122 -27 V
120 -37 V
stroke
grestore
3168 4325 M
-124 -15 V
116 -48 V
987 -102 R
3044 4310 L
stroke
gsave [] 0 setdash
3168 4325 M
-124 -15 V
116 -48 V
stroke
grestore
3241 4400 M
-125 -3 V
110 -59 V
973 -197 R
3116 4397 L
stroke
gsave [] 0 setdash
3241 4400 M
-125 -3 V
110 -59 V
stroke
grestore
3322 4472 M
-125 8 V
104 -70 V
949 -290 R
3197 4480 L
stroke
gsave [] 0 setdash
3322 4472 M
-125 8 V
104 -70 V
stroke
grestore
3412 4538 M
-124 20 V
97 -80 V
916 -381 R
3288 4558 L
stroke
gsave [] 0 setdash
3412 4538 M
-124 20 V
97 -80 V
stroke
grestore
3508 4598 M
-121 32 V
89 -89 V
876 -468 R
-965 557 V
stroke
gsave [] 0 setdash
3508 4598 M
-121 32 V
89 -89 V
stroke
grestore
3612 4651 M
-117 44 V
80 -97 V
826 -551 R
-906 648 V
stroke
gsave [] 0 setdash
3612 4651 M
-117 44 V
80 -97 V
stroke
grestore
3723 4697 M
-113 55 V
70 -104 V
769 -628 R
-839 732 V
stroke
gsave [] 0 setdash
3723 4697 M
-113 55 V
70 -104 V
stroke
grestore
3840 4735 M
-107 66 V
59 -110 V
705 -700 R
-764 810 V
stroke
gsave [] 0 setdash
3840 4735 M
-107 66 V
59 -110 V
stroke
grestore
3961 4764 M
-100 76 V
48 -116 V
634 -763 R
-682 879 V
stroke
gsave [] 0 setdash
3961 4764 M
-100 76 V
48 -116 V
stroke
grestore
4087 4785 M
-92 85 V
37 -120 V
557 -821 R
-594 941 V
stroke
gsave [] 0 setdash
4087 4785 M
-92 85 V
37 -120 V
stroke
grestore
4217 4796 M
-83 94 V
25 -123 V
475 -872 R
-500 995 V
stroke
gsave [] 0 setdash
4217 4796 M
-83 94 V
25 -123 V
stroke
grestore
4350 4798 M
-74 101 V
13 -125 V
388 -913 R
4276 4899 L
stroke
gsave [] 0 setdash
4350 4798 M
-74 101 V
13 -125 V
stroke
grestore
4484 4789 M
-64 108 V
1 -125 V
298 -948 R
4420 4897 L
stroke
gsave [] 0 setdash
4484 4789 M
-64 108 V
1 -125 V
stroke
grestore
4620 4769 M
-53 114 V
-11 -125 V
204 -971 R
4567 4883 L
stroke
gsave [] 0 setdash
4620 4769 M
-53 114 V
-11 -125 V
stroke
grestore
4755 4740 M
-41 118 V
-23 -123 V
109 -987 R
-86 1110 V
stroke
gsave [] 0 setdash
4755 4740 M
-41 118 V
-23 -123 V
stroke
grestore
4890 4699 M
-30 122 V
-34 -121 V
13 -992 R
21 1113 V
stroke
gsave [] 0 setdash
4890 4699 M
-30 122 V
-34 -121 V
stroke
grestore
5023 4648 M
-18 124 V
-46 -117 V
-83 -989 R
129 1106 V
stroke
gsave [] 0 setdash
5023 4648 M
-18 124 V
-46 -117 V
stroke
grestore
5153 4587 M
-6 125 V
-57 -112 V
4912 3624 M
235 1088 V
stroke
gsave [] 0 setdash
5153 4587 M
-6 125 V
-57 -112 V
stroke
grestore
5281 4516 M
5 125 V
-68 -106 V
4947 3580 M
339 1061 V
stroke
gsave [] 0 setdash
5281 4516 M
5 125 V
-68 -106 V
stroke
grestore
5402 4434 M
18 124 V
-78 -98 V
4980 3536 M
440 1022 V
stroke
gsave [] 0 setdash
5402 4434 M
18 124 V
-78 -98 V
stroke
grestore
5519 4343 M
30 122 V
-87 -90 V
5011 3490 M
538 975 V
stroke
gsave [] 0 setdash
5519 4343 M
30 122 V
-87 -90 V
stroke
grestore
5630 4244 M
41 118 V
-95 -82 V
5042 3443 M
629 919 V
stroke
gsave [] 0 setdash
5630 4244 M
41 118 V
-95 -82 V
stroke
grestore
5732 4135 M
53 114 V
-103 -72 V
5070 3395 M
715 854 V
stroke
gsave [] 0 setdash
5732 4135 M
53 114 V
-103 -72 V
stroke
grestore
5828 4019 M
64 108 V
-109 -61 V
5097 3347 M
795 780 V
stroke
gsave [] 0 setdash
5828 4019 M
64 108 V
-109 -61 V
stroke
grestore
5915 3896 M
74 101 V
-115 -51 V
5123 3297 M
866 700 V
stroke
gsave [] 0 setdash
5915 3896 M
74 101 V
-115 -51 V
stroke
grestore
5993 3765 M
83 94 V
-119 -39 V
5147 3247 M
929 612 V
stroke
gsave [] 0 setdash
5993 3765 M
83 94 V
-119 -39 V
stroke
grestore
6061 3630 M
92 85 V
-122 -27 V
5169 3196 M
984 519 V
stroke
gsave [] 0 setdash
6061 3630 M
92 85 V
-122 -27 V
stroke
grestore
6140 3432 M
103 72 V
-125 -11 V
5197 3123 M
1046 381 V
stroke
gsave [] 0 setdash
6140 3432 M
103 72 V
-125 -11 V
stroke
grestore
2934 3921 M
-103 -72 V
125 10 V
922 371 R
2831 3849 L
stroke
gsave [] 0 setdash
2934 3921 M
-103 -72 V
125 10 V
stroke
grestore
2963 4003 M
-109 -61 V
125 -1 V
953 279 R
2854 3942 L
stroke
gsave [] 0 setdash
2963 4003 M
-109 -61 V
125 -1 V
stroke
grestore
3002 4086 M
-115 -51 V
125 -13 V
975 185 R
2887 4035 L
stroke
gsave [] 0 setdash
3002 4086 M
-115 -51 V
125 -13 V
stroke
grestore
3048 4167 M
-119 -39 V
123 -25 V
988 90 R
2929 4128 L
stroke
gsave [] 0 setdash
3048 4167 M
-119 -39 V
123 -25 V
stroke
grestore
3103 4247 M
-122 -27 V
120 -37 V
993 -6 R
-1113 43 V
stroke
gsave [] 0 setdash
3103 4247 M
-122 -27 V
120 -37 V
stroke
grestore
3168 4325 M
-124 -15 V
116 -48 V
987 -102 R
3044 4310 L
stroke
gsave [] 0 setdash
3168 4325 M
-124 -15 V
116 -48 V
stroke
grestore
3241 4400 M
-125 -3 V
110 -59 V
973 -197 R
3116 4397 L
stroke
gsave [] 0 setdash
3241 4400 M
-125 -3 V
110 -59 V
stroke
grestore
3322 4472 M
-125 8 V
104 -70 V
949 -290 R
3197 4480 L
stroke
gsave [] 0 setdash
3322 4472 M
-125 8 V
104 -70 V
stroke
grestore
3412 4538 M
-124 20 V
97 -80 V
916 -381 R
3288 4558 L
stroke
gsave [] 0 setdash
3412 4538 M
-124 20 V
97 -80 V
stroke
grestore
3508 4598 M
-121 32 V
89 -89 V
876 -468 R
-965 557 V
stroke
gsave [] 0 setdash
3508 4598 M
-121 32 V
89 -89 V
stroke
grestore
3612 4651 M
-117 44 V
80 -97 V
826 -551 R
-906 648 V
stroke
gsave [] 0 setdash
3612 4651 M
-117 44 V
80 -97 V
stroke
grestore
3723 4697 M
-113 55 V
70 -104 V
769 -628 R
-839 732 V
stroke
gsave [] 0 setdash
3723 4697 M
-113 55 V
70 -104 V
stroke
grestore
3840 4735 M
-107 66 V
59 -110 V
705 -700 R
-764 810 V
stroke
gsave [] 0 setdash
3840 4735 M
-107 66 V
59 -110 V
stroke
grestore
3961 4764 M
-100 76 V
48 -116 V
634 -763 R
-682 879 V
stroke
gsave [] 0 setdash
3961 4764 M
-100 76 V
48 -116 V
stroke
grestore
4087 4785 M
-92 85 V
37 -120 V
557 -821 R
-594 941 V
stroke
gsave [] 0 setdash
4087 4785 M
-92 85 V
37 -120 V
stroke
grestore
4217 4796 M
-83 94 V
25 -123 V
475 -872 R
-500 995 V
stroke
gsave [] 0 setdash
4217 4796 M
-83 94 V
25 -123 V
stroke
grestore
4350 4798 M
-74 101 V
13 -125 V
388 -913 R
4276 4899 L
stroke
gsave [] 0 setdash
4350 4798 M
-74 101 V
13 -125 V
stroke
grestore
4484 4789 M
-64 108 V
1 -125 V
298 -948 R
4420 4897 L
stroke
gsave [] 0 setdash
4484 4789 M
-64 108 V
1 -125 V
stroke
grestore
4620 4769 M
-53 114 V
-11 -125 V
204 -971 R
4567 4883 L
stroke
gsave [] 0 setdash
4620 4769 M
-53 114 V
-11 -125 V
stroke
grestore
4755 4740 M
-41 118 V
-23 -123 V
109 -987 R
-86 1110 V
stroke
gsave [] 0 setdash
4755 4740 M
-41 118 V
-23 -123 V
stroke
grestore
4890 4699 M
-30 122 V
-34 -121 V
13 -992 R
21 1113 V
stroke
gsave [] 0 setdash
4890 4699 M
-30 122 V
-34 -121 V
stroke
grestore
5023 4648 M
-18 124 V
-46 -117 V
-83 -989 R
129 1106 V
stroke
gsave [] 0 setdash
5023 4648 M
-18 124 V
-46 -117 V
stroke
grestore
5153 4587 M
-6 125 V
-57 -112 V
4912 3624 M
235 1088 V
stroke
gsave [] 0 setdash
5153 4587 M
-6 125 V
-57 -112 V
stroke
grestore
5281 4516 M
5 125 V
-68 -106 V
4947 3580 M
339 1061 V
stroke
gsave [] 0 setdash
5281 4516 M
5 125 V
-68 -106 V
stroke
grestore
5402 4434 M
18 124 V
-78 -98 V
4980 3536 M
440 1022 V
stroke
gsave [] 0 setdash
5402 4434 M
18 124 V
-78 -98 V
stroke
grestore
5519 4343 M
30 122 V
-87 -90 V
5011 3490 M
538 975 V
stroke
gsave [] 0 setdash
5519 4343 M
30 122 V
-87 -90 V
stroke
grestore
5630 4244 M
41 118 V
-95 -82 V
5042 3443 M
629 919 V
stroke
gsave [] 0 setdash
5630 4244 M
41 118 V
-95 -82 V
stroke
grestore
5732 4135 M
53 114 V
-103 -72 V
5070 3395 M
715 854 V
stroke
gsave [] 0 setdash
5732 4135 M
53 114 V
-103 -72 V
stroke
grestore
5828 4019 M
64 108 V
-109 -61 V
5097 3347 M
795 780 V
stroke
gsave [] 0 setdash
5828 4019 M
64 108 V
-109 -61 V
stroke
grestore
5915 3896 M
74 101 V
-115 -51 V
5123 3297 M
866 700 V
stroke
gsave [] 0 setdash
5915 3896 M
74 101 V
-115 -51 V
stroke
grestore
5993 3765 M
83 94 V
-119 -39 V
5147 3247 M
929 612 V
stroke
gsave [] 0 setdash
5993 3765 M
83 94 V
-119 -39 V
stroke
grestore
6061 3630 M
92 85 V
-122 -27 V
5169 3196 M
984 519 V
stroke
gsave [] 0 setdash
6061 3630 M
92 85 V
-122 -27 V
stroke
grestore
6140 3432 M
103 72 V
-125 -11 V
5197 3123 M
1046 381 V
stroke
gsave [] 0 setdash
6140 3432 M
103 72 V
-125 -11 V
stroke
grestore
% End plot #12
2.000 UL
LTb
LCb setrgbcolor
1.000 UP
1.000 UL
LTb
LCb setrgbcolor
stroke
grestore
end
showpage
%%Trailer
%%DocumentFonts: Helvetica
