%!PS-Adobe-2.0 EPSF-2.0
%%Title: gnuplot_tunesFromFai_emittances.eps
%%Creator: gnuplot 5.2 patchlevel 2
%%CreationDate: Fri Aug 24 14:25:39 2018
%%DocumentFonts: (atend)
%%BoundingBox: 50 50 285 163
%%EndComments
%%BeginProlog
/gnudict 256 dict def
gnudict begin
%
% The following true/false flags may be edited by hand if desired.
% The unit line width and grayscale image gamma correction may also be changed.
%
/Color true def
/Blacktext true def
/Solid false def
/Dashlength 1 def
/Landscape false def
/Level1 false def
/Level3 false def
/Rounded false def
/ClipToBoundingBox false def
/SuppressPDFMark false def
/TransparentPatterns false def
/gnulinewidth 5.000 def
/userlinewidth gnulinewidth def
/Gamma 1.0 def
/BackgroundColor {-1.000 -1.000 -1.000} def
%
/vshift -40 def
/dl1 {
  10.0 Dashlength userlinewidth gnulinewidth div mul mul mul
  Rounded { currentlinewidth 0.75 mul sub dup 0 le { pop 0.01 } if } if
} def
/dl2 {
  10.0 Dashlength userlinewidth gnulinewidth div mul mul mul
  Rounded { currentlinewidth 0.75 mul add } if
} def
/hpt_ 31.5 def
/vpt_ 31.5 def
/hpt hpt_ def
/vpt vpt_ def
/doclip {
  ClipToBoundingBox {
    newpath 50 50 moveto 285 50 lineto 285 163 lineto 50 163 lineto closepath
    clip
  } if
} def
%
% Gnuplot Prolog Version 5.1 (Oct 2015)
%
%/SuppressPDFMark true def
%
/M {moveto} bind def
/L {lineto} bind def
/R {rmoveto} bind def
/V {rlineto} bind def
/N {newpath moveto} bind def
/Z {closepath} bind def
/C {setrgbcolor} bind def
/f {rlineto fill} bind def
/g {setgray} bind def
/Gshow {show} def   % May be redefined later in the file to support UTF-8
/vpt2 vpt 2 mul def
/hpt2 hpt 2 mul def
/Lshow {currentpoint stroke M 0 vshift R 
	Blacktext {gsave 0 setgray textshow grestore} {textshow} ifelse} def
/Rshow {currentpoint stroke M dup stringwidth pop neg vshift R
	Blacktext {gsave 0 setgray textshow grestore} {textshow} ifelse} def
/Cshow {currentpoint stroke M dup stringwidth pop -2 div vshift R 
	Blacktext {gsave 0 setgray textshow grestore} {textshow} ifelse} def
/UP {dup vpt_ mul /vpt exch def hpt_ mul /hpt exch def
  /hpt2 hpt 2 mul def /vpt2 vpt 2 mul def} def
/DL {Color {setrgbcolor Solid {pop []} if 0 setdash}
 {pop pop pop 0 setgray Solid {pop []} if 0 setdash} ifelse} def
/BL {stroke userlinewidth 2 mul setlinewidth
	Rounded {1 setlinejoin 1 setlinecap} if} def
/AL {stroke userlinewidth 2 div setlinewidth
	Rounded {1 setlinejoin 1 setlinecap} if} def
/UL {dup gnulinewidth mul /userlinewidth exch def
	dup 1 lt {pop 1} if 10 mul /udl exch def} def
/PL {stroke userlinewidth setlinewidth
	Rounded {1 setlinejoin 1 setlinecap} if} def
3.8 setmiterlimit
% Classic Line colors (version 5.0)
/LCw {1 1 1} def
/LCb {0 0 0} def
/LCa {0 0 0} def
/LC0 {1 0 0} def
/LC1 {0 1 0} def
/LC2 {0 0 1} def
/LC3 {1 0 1} def
/LC4 {0 1 1} def
/LC5 {1 1 0} def
/LC6 {0 0 0} def
/LC7 {1 0.3 0} def
/LC8 {0.5 0.5 0.5} def
% Default dash patterns (version 5.0)
/LTB {BL [] LCb DL} def
/LTw {PL [] 1 setgray} def
/LTb {PL [] LCb DL} def
/LTa {AL [1 udl mul 2 udl mul] 0 setdash LCa setrgbcolor} def
/LT0 {PL [] LC0 DL} def
/LT1 {PL [2 dl1 3 dl2] LC1 DL} def
/LT2 {PL [1 dl1 1.5 dl2] LC2 DL} def
/LT3 {PL [6 dl1 2 dl2 1 dl1 2 dl2] LC3 DL} def
/LT4 {PL [1 dl1 2 dl2 6 dl1 2 dl2 1 dl1 2 dl2] LC4 DL} def
/LT5 {PL [4 dl1 2 dl2] LC5 DL} def
/LT6 {PL [1.5 dl1 1.5 dl2 1.5 dl1 1.5 dl2 1.5 dl1 6 dl2] LC6 DL} def
/LT7 {PL [3 dl1 3 dl2 1 dl1 3 dl2] LC7 DL} def
/LT8 {PL [2 dl1 2 dl2 2 dl1 6 dl2] LC8 DL} def
/SL {[] 0 setdash} def
/Pnt {stroke [] 0 setdash gsave 1 setlinecap M 0 0 V stroke grestore} def
/Dia {stroke [] 0 setdash 2 copy vpt add M
  hpt neg vpt neg V hpt vpt neg V
  hpt vpt V hpt neg vpt V closepath stroke
  Pnt} def
/Pls {stroke [] 0 setdash vpt sub M 0 vpt2 V
  currentpoint stroke M
  hpt neg vpt neg R hpt2 0 V stroke
 } def
/Box {stroke [] 0 setdash 2 copy exch hpt sub exch vpt add M
  0 vpt2 neg V hpt2 0 V 0 vpt2 V
  hpt2 neg 0 V closepath stroke
  Pnt} def
/Crs {stroke [] 0 setdash exch hpt sub exch vpt add M
  hpt2 vpt2 neg V currentpoint stroke M
  hpt2 neg 0 R hpt2 vpt2 V stroke} def
/TriU {stroke [] 0 setdash 2 copy vpt 1.12 mul add M
  hpt neg vpt -1.62 mul V
  hpt 2 mul 0 V
  hpt neg vpt 1.62 mul V closepath stroke
  Pnt} def
/Star {2 copy Pls Crs} def
/BoxF {stroke [] 0 setdash exch hpt sub exch vpt add M
  0 vpt2 neg V hpt2 0 V 0 vpt2 V
  hpt2 neg 0 V closepath fill} def
/TriUF {stroke [] 0 setdash vpt 1.12 mul add M
  hpt neg vpt -1.62 mul V
  hpt 2 mul 0 V
  hpt neg vpt 1.62 mul V closepath fill} def
/TriD {stroke [] 0 setdash 2 copy vpt 1.12 mul sub M
  hpt neg vpt 1.62 mul V
  hpt 2 mul 0 V
  hpt neg vpt -1.62 mul V closepath stroke
  Pnt} def
/TriDF {stroke [] 0 setdash vpt 1.12 mul sub M
  hpt neg vpt 1.62 mul V
  hpt 2 mul 0 V
  hpt neg vpt -1.62 mul V closepath fill} def
/DiaF {stroke [] 0 setdash vpt add M
  hpt neg vpt neg V hpt vpt neg V
  hpt vpt V hpt neg vpt V closepath fill} def
/Pent {stroke [] 0 setdash 2 copy gsave
  translate 0 hpt M 4 {72 rotate 0 hpt L} repeat
  closepath stroke grestore Pnt} def
/PentF {stroke [] 0 setdash gsave
  translate 0 hpt M 4 {72 rotate 0 hpt L} repeat
  closepath fill grestore} def
/Circle {stroke [] 0 setdash 2 copy
  hpt 0 360 arc stroke Pnt} def
/CircleF {stroke [] 0 setdash hpt 0 360 arc fill} def
/C0 {BL [] 0 setdash 2 copy moveto vpt 90 450 arc} bind def
/C1 {BL [] 0 setdash 2 copy moveto
	2 copy vpt 0 90 arc closepath fill
	vpt 0 360 arc closepath} bind def
/C2 {BL [] 0 setdash 2 copy moveto
	2 copy vpt 90 180 arc closepath fill
	vpt 0 360 arc closepath} bind def
/C3 {BL [] 0 setdash 2 copy moveto
	2 copy vpt 0 180 arc closepath fill
	vpt 0 360 arc closepath} bind def
/C4 {BL [] 0 setdash 2 copy moveto
	2 copy vpt 180 270 arc closepath fill
	vpt 0 360 arc closepath} bind def
/C5 {BL [] 0 setdash 2 copy moveto
	2 copy vpt 0 90 arc
	2 copy moveto
	2 copy vpt 180 270 arc closepath fill
	vpt 0 360 arc} bind def
/C6 {BL [] 0 setdash 2 copy moveto
	2 copy vpt 90 270 arc closepath fill
	vpt 0 360 arc closepath} bind def
/C7 {BL [] 0 setdash 2 copy moveto
	2 copy vpt 0 270 arc closepath fill
	vpt 0 360 arc closepath} bind def
/C8 {BL [] 0 setdash 2 copy moveto
	2 copy vpt 270 360 arc closepath fill
	vpt 0 360 arc closepath} bind def
/C9 {BL [] 0 setdash 2 copy moveto
	2 copy vpt 270 450 arc closepath fill
	vpt 0 360 arc closepath} bind def
/C10 {BL [] 0 setdash 2 copy 2 copy moveto vpt 270 360 arc closepath fill
	2 copy moveto
	2 copy vpt 90 180 arc closepath fill
	vpt 0 360 arc closepath} bind def
/C11 {BL [] 0 setdash 2 copy moveto
	2 copy vpt 0 180 arc closepath fill
	2 copy moveto
	2 copy vpt 270 360 arc closepath fill
	vpt 0 360 arc closepath} bind def
/C12 {BL [] 0 setdash 2 copy moveto
	2 copy vpt 180 360 arc closepath fill
	vpt 0 360 arc closepath} bind def
/C13 {BL [] 0 setdash 2 copy moveto
	2 copy vpt 0 90 arc closepath fill
	2 copy moveto
	2 copy vpt 180 360 arc closepath fill
	vpt 0 360 arc closepath} bind def
/C14 {BL [] 0 setdash 2 copy moveto
	2 copy vpt 90 360 arc closepath fill
	vpt 0 360 arc} bind def
/C15 {BL [] 0 setdash 2 copy vpt 0 360 arc closepath fill
	vpt 0 360 arc closepath} bind def
/Rec {newpath 4 2 roll moveto 1 index 0 rlineto 0 exch rlineto
	neg 0 rlineto closepath} bind def
/Square {dup Rec} bind def
/Bsquare {vpt sub exch vpt sub exch vpt2 Square} bind def
/S0 {BL [] 0 setdash 2 copy moveto 0 vpt rlineto BL Bsquare} bind def
/S1 {BL [] 0 setdash 2 copy vpt Square fill Bsquare} bind def
/S2 {BL [] 0 setdash 2 copy exch vpt sub exch vpt Square fill Bsquare} bind def
/S3 {BL [] 0 setdash 2 copy exch vpt sub exch vpt2 vpt Rec fill Bsquare} bind def
/S4 {BL [] 0 setdash 2 copy exch vpt sub exch vpt sub vpt Square fill Bsquare} bind def
/S5 {BL [] 0 setdash 2 copy 2 copy vpt Square fill
	exch vpt sub exch vpt sub vpt Square fill Bsquare} bind def
/S6 {BL [] 0 setdash 2 copy exch vpt sub exch vpt sub vpt vpt2 Rec fill Bsquare} bind def
/S7 {BL [] 0 setdash 2 copy exch vpt sub exch vpt sub vpt vpt2 Rec fill
	2 copy vpt Square fill Bsquare} bind def
/S8 {BL [] 0 setdash 2 copy vpt sub vpt Square fill Bsquare} bind def
/S9 {BL [] 0 setdash 2 copy vpt sub vpt vpt2 Rec fill Bsquare} bind def
/S10 {BL [] 0 setdash 2 copy vpt sub vpt Square fill 2 copy exch vpt sub exch vpt Square fill
	Bsquare} bind def
/S11 {BL [] 0 setdash 2 copy vpt sub vpt Square fill 2 copy exch vpt sub exch vpt2 vpt Rec fill
	Bsquare} bind def
/S12 {BL [] 0 setdash 2 copy exch vpt sub exch vpt sub vpt2 vpt Rec fill Bsquare} bind def
/S13 {BL [] 0 setdash 2 copy exch vpt sub exch vpt sub vpt2 vpt Rec fill
	2 copy vpt Square fill Bsquare} bind def
/S14 {BL [] 0 setdash 2 copy exch vpt sub exch vpt sub vpt2 vpt Rec fill
	2 copy exch vpt sub exch vpt Square fill Bsquare} bind def
/S15 {BL [] 0 setdash 2 copy Bsquare fill Bsquare} bind def
/D0 {gsave translate 45 rotate 0 0 S0 stroke grestore} bind def
/D1 {gsave translate 45 rotate 0 0 S1 stroke grestore} bind def
/D2 {gsave translate 45 rotate 0 0 S2 stroke grestore} bind def
/D3 {gsave translate 45 rotate 0 0 S3 stroke grestore} bind def
/D4 {gsave translate 45 rotate 0 0 S4 stroke grestore} bind def
/D5 {gsave translate 45 rotate 0 0 S5 stroke grestore} bind def
/D6 {gsave translate 45 rotate 0 0 S6 stroke grestore} bind def
/D7 {gsave translate 45 rotate 0 0 S7 stroke grestore} bind def
/D8 {gsave translate 45 rotate 0 0 S8 stroke grestore} bind def
/D9 {gsave translate 45 rotate 0 0 S9 stroke grestore} bind def
/D10 {gsave translate 45 rotate 0 0 S10 stroke grestore} bind def
/D11 {gsave translate 45 rotate 0 0 S11 stroke grestore} bind def
/D12 {gsave translate 45 rotate 0 0 S12 stroke grestore} bind def
/D13 {gsave translate 45 rotate 0 0 S13 stroke grestore} bind def
/D14 {gsave translate 45 rotate 0 0 S14 stroke grestore} bind def
/D15 {gsave translate 45 rotate 0 0 S15 stroke grestore} bind def
/DiaE {stroke [] 0 setdash vpt add M
  hpt neg vpt neg V hpt vpt neg V
  hpt vpt V hpt neg vpt V closepath stroke} def
/BoxE {stroke [] 0 setdash exch hpt sub exch vpt add M
  0 vpt2 neg V hpt2 0 V 0 vpt2 V
  hpt2 neg 0 V closepath stroke} def
/TriUE {stroke [] 0 setdash vpt 1.12 mul add M
  hpt neg vpt -1.62 mul V
  hpt 2 mul 0 V
  hpt neg vpt 1.62 mul V closepath stroke} def
/TriDE {stroke [] 0 setdash vpt 1.12 mul sub M
  hpt neg vpt 1.62 mul V
  hpt 2 mul 0 V
  hpt neg vpt -1.62 mul V closepath stroke} def
/PentE {stroke [] 0 setdash gsave
  translate 0 hpt M 4 {72 rotate 0 hpt L} repeat
  closepath stroke grestore} def
/CircE {stroke [] 0 setdash 
  hpt 0 360 arc stroke} def
/Opaque {gsave closepath 1 setgray fill grestore 0 setgray closepath} def
/DiaW {stroke [] 0 setdash vpt add M
  hpt neg vpt neg V hpt vpt neg V
  hpt vpt V hpt neg vpt V Opaque stroke} def
/BoxW {stroke [] 0 setdash exch hpt sub exch vpt add M
  0 vpt2 neg V hpt2 0 V 0 vpt2 V
  hpt2 neg 0 V Opaque stroke} def
/TriUW {stroke [] 0 setdash vpt 1.12 mul add M
  hpt neg vpt -1.62 mul V
  hpt 2 mul 0 V
  hpt neg vpt 1.62 mul V Opaque stroke} def
/TriDW {stroke [] 0 setdash vpt 1.12 mul sub M
  hpt neg vpt 1.62 mul V
  hpt 2 mul 0 V
  hpt neg vpt -1.62 mul V Opaque stroke} def
/PentW {stroke [] 0 setdash gsave
  translate 0 hpt M 4 {72 rotate 0 hpt L} repeat
  Opaque stroke grestore} def
/CircW {stroke [] 0 setdash 
  hpt 0 360 arc Opaque stroke} def
/BoxFill {gsave Rec 1 setgray fill grestore} def
/Density {
  /Fillden exch def
  currentrgbcolor
  /ColB exch def /ColG exch def /ColR exch def
  /ColR ColR Fillden mul Fillden sub 1 add def
  /ColG ColG Fillden mul Fillden sub 1 add def
  /ColB ColB Fillden mul Fillden sub 1 add def
  ColR ColG ColB setrgbcolor} def
/BoxColFill {gsave Rec PolyFill} def
/PolyFill {gsave Density fill grestore grestore} def
/h {rlineto rlineto rlineto gsave closepath fill grestore} bind def
%
% PostScript Level 1 Pattern Fill routine for rectangles
% Usage: x y w h s a XX PatternFill
%	x,y = lower left corner of box to be filled
%	w,h = width and height of box
%	  a = angle in degrees between lines and x-axis
%	 XX = 0/1 for no/yes cross-hatch
%
/PatternFill {gsave /PFa [ 9 2 roll ] def
  PFa 0 get PFa 2 get 2 div add PFa 1 get PFa 3 get 2 div add translate
  PFa 2 get -2 div PFa 3 get -2 div PFa 2 get PFa 3 get Rec
  TransparentPatterns {} {gsave 1 setgray fill grestore} ifelse
  clip
  currentlinewidth 0.5 mul setlinewidth
  /PFs PFa 2 get dup mul PFa 3 get dup mul add sqrt def
  0 0 M PFa 5 get rotate PFs -2 div dup translate
  0 1 PFs PFa 4 get div 1 add floor cvi
	{PFa 4 get mul 0 M 0 PFs V} for
  0 PFa 6 get ne {
	0 1 PFs PFa 4 get div 1 add floor cvi
	{PFa 4 get mul 0 2 1 roll M PFs 0 V} for
 } if
  stroke grestore} def
%
/languagelevel where
 {pop languagelevel} {1} ifelse
dup 2 lt
	{/InterpretLevel1 true def
	 /InterpretLevel3 false def}
	{/InterpretLevel1 Level1 def
	 2 gt
	    {/InterpretLevel3 Level3 def}
	    {/InterpretLevel3 false def}
	 ifelse }
 ifelse
%
% PostScript level 2 pattern fill definitions
%
/Level2PatternFill {
/Tile8x8 {/PaintType 2 /PatternType 1 /TilingType 1 /BBox [0 0 8 8] /XStep 8 /YStep 8}
	bind def
/KeepColor {currentrgbcolor [/Pattern /DeviceRGB] setcolorspace} bind def
<< Tile8x8
 /PaintProc {0.5 setlinewidth pop 0 0 M 8 8 L 0 8 M 8 0 L stroke} 
>> matrix makepattern
/Pat1 exch def
<< Tile8x8
 /PaintProc {0.5 setlinewidth pop 0 0 M 8 8 L 0 8 M 8 0 L stroke
	0 4 M 4 8 L 8 4 L 4 0 L 0 4 L stroke}
>> matrix makepattern
/Pat2 exch def
<< Tile8x8
 /PaintProc {0.5 setlinewidth pop 0 0 M 0 8 L
	8 8 L 8 0 L 0 0 L fill}
>> matrix makepattern
/Pat3 exch def
<< Tile8x8
 /PaintProc {0.5 setlinewidth pop -4 8 M 8 -4 L
	0 12 M 12 0 L stroke}
>> matrix makepattern
/Pat4 exch def
<< Tile8x8
 /PaintProc {0.5 setlinewidth pop -4 0 M 8 12 L
	0 -4 M 12 8 L stroke}
>> matrix makepattern
/Pat5 exch def
<< Tile8x8
 /PaintProc {0.5 setlinewidth pop -2 8 M 4 -4 L
	0 12 M 8 -4 L 4 12 M 10 0 L stroke}
>> matrix makepattern
/Pat6 exch def
<< Tile8x8
 /PaintProc {0.5 setlinewidth pop -2 0 M 4 12 L
	0 -4 M 8 12 L 4 -4 M 10 8 L stroke}
>> matrix makepattern
/Pat7 exch def
<< Tile8x8
 /PaintProc {0.5 setlinewidth pop 8 -2 M -4 4 L
	12 0 M -4 8 L 12 4 M 0 10 L stroke}
>> matrix makepattern
/Pat8 exch def
<< Tile8x8
 /PaintProc {0.5 setlinewidth pop 0 -2 M 12 4 L
	-4 0 M 12 8 L -4 4 M 8 10 L stroke}
>> matrix makepattern
/Pat9 exch def
/Pattern1 {PatternBgnd KeepColor Pat1 setpattern} bind def
/Pattern2 {PatternBgnd KeepColor Pat2 setpattern} bind def
/Pattern3 {PatternBgnd KeepColor Pat3 setpattern} bind def
/Pattern4 {PatternBgnd KeepColor Landscape {Pat5} {Pat4} ifelse setpattern} bind def
/Pattern5 {PatternBgnd KeepColor Landscape {Pat4} {Pat5} ifelse setpattern} bind def
/Pattern6 {PatternBgnd KeepColor Landscape {Pat9} {Pat6} ifelse setpattern} bind def
/Pattern7 {PatternBgnd KeepColor Landscape {Pat8} {Pat7} ifelse setpattern} bind def
} def
%
%
%End of PostScript Level 2 code
%
/PatternBgnd {
  TransparentPatterns {} {gsave 1 setgray fill grestore} ifelse
} def
%
% Substitute for Level 2 pattern fill codes with
% grayscale if Level 2 support is not selected.
%
/Level1PatternFill {
/Pattern1 {0.250 Density} bind def
/Pattern2 {0.500 Density} bind def
/Pattern3 {0.750 Density} bind def
/Pattern4 {0.125 Density} bind def
/Pattern5 {0.375 Density} bind def
/Pattern6 {0.625 Density} bind def
/Pattern7 {0.875 Density} bind def
} def
%
% Now test for support of Level 2 code
%
Level1 {Level1PatternFill} {Level2PatternFill} ifelse
%
/Symbol-Oblique /Symbol findfont [1 0 .167 1 0 0] makefont
dup length dict begin {1 index /FID eq {pop pop} {def} ifelse} forall
currentdict end definefont pop
%
/Metrics {ExtendTextBox Gswidth} def
/Lwidth {currentpoint stroke M 0 vshift R Metrics} def
/Rwidth {currentpoint stroke M dup stringwidth pop neg vshift R Metrics} def
/Cwidth {currentpoint stroke M dup stringwidth pop -2 div vshift R Metrics} def
/GLwidth {currentpoint stroke M 0 vshift R {ExtendTextBox} forall} def
/GRwidth {currentpoint stroke M dup Gwidth vshift R {ExtendTextBox} forall} def
/GCwidth {currentpoint stroke M dup Gwidth 2 div vshift R {ExtendTextBox} forall} def
/GLwidth2 {0 Gwidth AddGlyphWidth} def
/GRwidth2 {Gwidth -1 mul 0 AddGlyphWidth} def
/GCwidth2 {Gwidth 2 div dup -1 mul AddGlyphWidth} def
/AddGlyphWidth { dup TBx2 gt {userdict /TBx2 3 -1 roll put} {pop} ifelse
                 dup TBx1 lt {userdict /TBx1 3 -1 roll put} {pop} ifelse } def
/MFshow {
   { dup 5 get 3 ge
     { 5 get 3 eq {gsave} {grestore} ifelse }
     {dup dup 0 get findfont exch 1 get scalefont setfont
     [ currentpoint ] exch dup 2 get 0 exch R dup 5 get 2 ne {dup dup 6
     get exch 4 get {textshow} {Metrics pop 0 R} ifelse }if dup 5 get 0 eq
     {dup 3 get {2 get neg 0 exch R pop} {pop aload pop M} ifelse} {dup 5
     get 1 eq {dup 2 get exch dup 3 get exch 6 get Gswidth pop -2 div
     dup 0 R} {dup 6 get Gswidth pop -2 div 0 R 6 get
     textshow 2 index {aload pop M neg 3 -1 roll neg R pop pop} {pop pop pop
     pop aload pop M} ifelse }ifelse }ifelse }
     ifelse }
   forall} def
/Gswidth {dup type /stringtype eq {stringwidth} {pop (n) stringwidth} ifelse} def
/MFwidth {0 exch { dup 5 get 3 ge { 5 get 3 eq { 0 } { pop } ifelse }
 {dup 3 get{dup dup 0 get findfont exch 1 get scalefont setfont
     6 get Gswidth pop add} {pop} ifelse} ifelse} forall} def
/MLshow { currentpoint stroke M
  0 exch R
  Blacktext {gsave 0 setgray MFshow grestore} {MFshow} ifelse } bind def
/MRshow { currentpoint stroke M
  exch dup MFwidth neg 3 -1 roll R
  Blacktext {gsave 0 setgray MFshow grestore} {MFshow} ifelse } bind def
/MCshow { currentpoint stroke M
  exch dup MFwidth -2 div 3 -1 roll R
  Blacktext {gsave 0 setgray MFshow grestore} {MFshow} ifelse } bind def
/XYsave    { [( ) 1 2 true false 3 ()] } bind def
/XYrestore { [( ) 1 2 true false 4 ()] } bind def
Level1 SuppressPDFMark or 
{} {
/SDict 10 dict def
systemdict /pdfmark known not {
  userdict /pdfmark systemdict /cleartomark get put
} if
SDict begin [
  /Title (gnuplot_tunesFromFai_emittances.eps)
  /Subject (gnuplot plot)
  /Creator (gnuplot 5.2 patchlevel 2)
%  /Producer (gnuplot)
%  /Keywords ()
  /CreationDate (Fri Aug 24 14:25:39 2018)
  /DOCINFO pdfmark
end
} ifelse
%
% Support for boxed text - Ethan A Merritt Sep 2016
%
/InitTextBox { userdict /TBy2 3 -1 roll put userdict /TBx2 3 -1 roll put
           userdict /TBy1 3 -1 roll put userdict /TBx1 3 -1 roll put
	   /Boxing true def } def
/ExtendTextBox { dup type /stringtype eq
    { Boxing { gsave dup false charpath pathbbox
      dup TBy2 gt {userdict /TBy2 3 -1 roll put} {pop} ifelse
      dup TBx2 gt {userdict /TBx2 3 -1 roll put} {pop} ifelse
      dup TBy1 lt {userdict /TBy1 3 -1 roll put} {pop} ifelse
      dup TBx1 lt {userdict /TBx1 3 -1 roll put} {pop} ifelse
      grestore } if }
    {} ifelse} def
/PopTextBox { newpath TBx1 TBxmargin sub TBy1 TBymargin sub M
               TBx1 TBxmargin sub TBy2 TBymargin add L
	       TBx2 TBxmargin add TBy2 TBymargin add L
	       TBx2 TBxmargin add TBy1 TBymargin sub L closepath } def
/DrawTextBox { PopTextBox stroke /Boxing false def} def
/FillTextBox { gsave PopTextBox fill grestore /Boxing false def} def
0 0 0 0 InitTextBox
/TBxmargin 20 def
/TBymargin 20 def
/Boxing false def
/textshow { ExtendTextBox Gshow } def
%
end
%%EndProlog
%%Page: 1 1
gnudict begin
gsave
doclip
50 50 translate
0.050 0.050 scale
0 setgray
newpath
(Times-Roman) findfont 120 scalefont setfont
BackgroundColor 0 lt 3 1 roll 0 lt exch 0 lt or or not {BackgroundColor C 1.000 0 0 4704.00 2266.00 BoxColFill} if
1.000 UL
LTb
LCb setrgbcolor
516 384 M
63 0 V
stroke
444 384 M
[ [(roman) 120.0 0.0 true true 0 (10)]
[(roman) 96.0 60.0 true true 0 (-4)]
] -52.0 MRshow
1.000 UL
LTb
LCb setrgbcolor
516 490 M
31 0 V
-31 62 R
31 0 V
-31 44 R
31 0 V
-31 34 R
31 0 V
-31 28 R
31 0 V
-31 24 R
31 0 V
-31 20 R
31 0 V
-31 18 R
31 0 V
-31 16 R
63 0 V
stroke
444 736 M
[ [(roman) 120.0 0.0 true true 0 (10)]
[(roman) 96.0 60.0 true true 0 (-3)]
] -52.0 MRshow
1.000 UL
LTb
LCb setrgbcolor
516 842 M
31 0 V
-31 62 R
31 0 V
-31 44 R
31 0 V
-31 34 R
31 0 V
-31 28 R
31 0 V
-31 24 R
31 0 V
-31 20 R
31 0 V
-31 18 R
31 0 V
-31 16 R
63 0 V
stroke
444 1088 M
[ [(roman) 120.0 0.0 true true 0 (10)]
[(roman) 96.0 60.0 true true 0 (-2)]
] -52.0 MRshow
1.000 UL
LTb
LCb setrgbcolor
516 1194 M
31 0 V
-31 62 R
31 0 V
-31 44 R
31 0 V
-31 35 R
31 0 V
-31 27 R
31 0 V
-31 24 R
31 0 V
-31 20 R
31 0 V
-31 18 R
31 0 V
-31 17 R
63 0 V
stroke
444 1441 M
[ [(roman) 120.0 0.0 true true 0 (10)]
[(roman) 96.0 60.0 true true 0 (-1)]
] -52.0 MRshow
1.000 UL
LTb
LCb setrgbcolor
516 1547 M
31 0 V
-31 62 R
31 0 V
-31 44 R
31 0 V
-31 34 R
31 0 V
-31 28 R
31 0 V
-31 23 R
31 0 V
-31 21 R
31 0 V
-31 18 R
31 0 V
-31 16 R
63 0 V
stroke
444 1793 M
[ [(roman) 120.0 0.0 true true 0 (10)]
[(roman) 96.0 60.0 true true 0 (0)]
] -52.0 MRshow
1.000 UL
LTb
LCb setrgbcolor
516 1899 M
31 0 V
-31 62 R
31 0 V
-31 44 R
31 0 V
-31 34 R
31 0 V
-31 28 R
31 0 V
-31 23 R
31 0 V
-31 21 R
31 0 V
-31 18 R
31 0 V
-31 16 R
63 0 V
stroke
444 2145 M
[ [(roman) 120.0 0.0 true true 0 (10)]
[(roman) 96.0 60.0 true true 0 (1)]
] -52.0 MRshow
1.000 UL
LTb
LCb setrgbcolor
567 384 M
0 63 V
0 1698 R
0 -63 V
stroke
567 264 M
[ [(roman) 120.0 0.0 true true 0 ( 40)]
] -40.0 MCshow
1.000 UL
LTb
LCb setrgbcolor
1074 384 M
0 63 V
0 1698 R
0 -63 V
stroke
1074 264 M
[ [(roman) 120.0 0.0 true true 0 ( 60)]
] -40.0 MCshow
1.000 UL
LTb
LCb setrgbcolor
1581 384 M
0 63 V
0 1698 R
0 -63 V
stroke
1581 264 M
[ [(roman) 120.0 0.0 true true 0 ( 80)]
] -40.0 MCshow
1.000 UL
LTb
LCb setrgbcolor
2088 384 M
0 63 V
0 1698 R
0 -63 V
stroke
2088 264 M
[ [(roman) 120.0 0.0 true true 0 ( 100)]
] -40.0 MCshow
1.000 UL
LTb
LCb setrgbcolor
2595 384 M
0 63 V
0 1698 R
0 -63 V
stroke
2595 264 M
[ [(roman) 120.0 0.0 true true 0 ( 120)]
] -40.0 MCshow
1.000 UL
LTb
LCb setrgbcolor
3102 384 M
0 63 V
0 1698 R
0 -63 V
stroke
3102 264 M
[ [(roman) 120.0 0.0 true true 0 ( 140)]
] -40.0 MCshow
1.000 UL
LTb
LCb setrgbcolor
3609 384 M
0 63 V
0 1698 R
0 -63 V
stroke
3609 264 M
[ [(roman) 120.0 0.0 true true 0 ( 160)]
] -40.0 MCshow
1.000 UL
LTb
LCb setrgbcolor
3863 384 M
-63 0 V
stroke
3935 384 M
[ [(roman) 120.0 0.0 true true 0 ( 0)]
] -40.0 MLshow
1.000 UL
LTb
LCb setrgbcolor
3863 580 M
-63 0 V
stroke
3935 580 M
[ [(roman) 120.0 0.0 true true 0 ( 0.05)]
] -40.0 MLshow
1.000 UL
LTb
LCb setrgbcolor
3863 775 M
-63 0 V
stroke
3935 775 M
[ [(roman) 120.0 0.0 true true 0 ( 0.1)]
] -40.0 MLshow
1.000 UL
LTb
LCb setrgbcolor
3863 971 M
-63 0 V
stroke
3935 971 M
[ [(roman) 120.0 0.0 true true 0 ( 0.15)]
] -40.0 MLshow
1.000 UL
LTb
LCb setrgbcolor
3863 1167 M
-63 0 V
stroke
3935 1167 M
[ [(roman) 120.0 0.0 true true 0 ( 0.2)]
] -40.0 MLshow
1.000 UL
LTb
LCb setrgbcolor
3863 1362 M
-63 0 V
stroke
3935 1362 M
[ [(roman) 120.0 0.0 true true 0 ( 0.25)]
] -40.0 MLshow
1.000 UL
LTb
LCb setrgbcolor
3863 1558 M
-63 0 V
stroke
3935 1558 M
[ [(roman) 120.0 0.0 true true 0 ( 0.3)]
] -40.0 MLshow
1.000 UL
LTb
LCb setrgbcolor
3863 1754 M
-63 0 V
stroke
3935 1754 M
[ [(roman) 120.0 0.0 true true 0 ( 0.35)]
] -40.0 MLshow
1.000 UL
LTb
LCb setrgbcolor
3863 1949 M
-63 0 V
stroke
3935 1949 M
[ [(roman) 120.0 0.0 true true 0 ( 0.4)]
] -40.0 MLshow
1.000 UL
LTb
LCb setrgbcolor
3863 2145 M
-63 0 V
stroke
3935 2145 M
[ [(roman) 120.0 0.0 true true 0 ( 0.45)]
] -40.0 MLshow
1.000 UL
LTb
LCb setrgbcolor
1.000 UL
LTB
LCb setrgbcolor
516 2145 N
516 384 L
3347 0 V
0 1761 V
-3347 0 V
Z stroke
1.000 UP
LCb setrgbcolor
3457 1899 M
[ [(roman) 200.0 0.0 true true 0 (\(A\))]
] -66.7 MLshow
1.000 UL
LTb
LCb setrgbcolor
LCb setrgbcolor
108 1264 M
currentpoint gsave translate -270 rotate 0 0 moveto
[ [(roman) 120.0 0.0 true true 0 (Max. )]
[(Symbol) 120.0 0.0 true true 0 (e)]
[(roman) 96.0 -36.0 true true 0 (x,y)]
[(roman) 120.0 0.0 true true 0 (/)]
[(Symbol) 120.0 0.0 true true 0 (p)]
[(roman) 120.0 0.0 true true 0 (, norm. [m])]
] -28.0 MCshow
grestore
LTb
LCb setrgbcolor
4511 1264 M
currentpoint gsave translate -270 rotate 0 0 moveto
[ [(roman) 120.0 0.0 true true 0 (Qx, Qy)]
] -40.0 MCshow
grestore
LTb
LCb setrgbcolor
2189 84 M
[ [(roman) 120.0 0.0 true true 0 (E [MeV])]
] -40.0 MCshow
LTb
% Begin plot #1
3.000 UL
LTb
1.00 0.00 0.00 C LCb setrgbcolor
1231 627 M
[ [(Symbol) 120.0 0.0 true true 0 (e)]
[(roman) 96.0 -36.0 true true 0 (x)]
[(roman) 120.0 0.0 true true 0 (  /H)]
] -28.0 MRshow
3.000 UL
LTb
1.00 0.00 0.00 C 1303 627 M
351 0 V
567 1134 M
25 -50 V
25 91 V
26 67 V
25 6 V
693 842 L
26 211 V
25 60 V
25 23 V
26 48 V
25 18 V
26 6 V
25 -7 V
25 46 V
26 -1 V
25 -1 V
25 32 V
26 -53 V
25 -62 V
25 38 V
26 24 V
25 25 V
25 -10 V
26 -2 V
25 2 V
26 -1 V
25 77 V
25 -78 V
51 85 V
25 2 V
26 -22 V
25 -64 V
25 -1 V
26 2 V
25 -7 V
25 2 V
26 117 V
25 4 V
26 14 V
25 7 V
25 -6 V
26 18 V
25 6 V
25 10 V
26 -39 V
25 -10 V
25 25 V
26 3 V
50 26 V
26 16 V
25 6 V
51 23 V
25 -8 V
26 16 V
25 -2 V
25 -6 V
26 10 V
50 9 V
26 -10 V
25 12 V
25 -4 V
26 2 V
25 1 V
26 43 V
50 15 V
26 3 V
25 -2 V
25 -4 V
26 31 V
25 1 V
51 11 V
25 -13 V
25 -5 V
26 3 V
25 6 V
26 -9 V
25 -1 V
25 4 V
26 -4 V
25 6 V
25 -3 V
26 -8 V
25 -7 V
25 -4 V
26 -1 V
50 -4 V
26 -3 V
101 -59 V
26 -1 V
25 -14 V
25 1 V
26 0 V
25 -2 V
25 -15 V
26 -5 V
25 -9 V
25 -13 V
26 -5 V
50 -23 V
26 -28 V
25 -3 V
26 -14 V
25 -9 V
25 -23 V
26 -86 V
25 -2 V
25 4 V
26 2 V
25 -24 V
25 -26 V
51 -70 V
25 -37 V
26 -61 V
25 -63 V
26 -100 V
% End plot #1
% Begin plot #2
stroke
LTb
1.00 0.00 0.00 C LCb setrgbcolor
1231 507 M
[ [(Symbol) 120.0 0.0 true true 0 (e)]
[(roman) 96.0 -36.0 true true 0 (x)]
[(roman) 120.0 0.0 true true 0 ( /Hz)]
] -28.0 MRshow
3.000 UL
LTb
1.00 0.00 0.00 C 1303 507 M
351 0 V
567 1123 M
25 -115 V
51 221 V
25 17 V
693 808 L
26 235 V
25 62 V
25 25 V
26 43 V
25 28 V
26 -5 V
25 2 V
25 48 V
26 -8 V
25 4 V
25 30 V
26 -50 V
25 -64 V
25 36 V
26 24 V
25 -5 V
25 24 V
26 -29 V
25 24 V
26 1 V
50 -2 V
26 88 V
25 0 V
25 2 V
26 -35 V
25 -52 V
25 -1 V
26 -3 V
25 2 V
25 -2 V
26 115 V
51 20 V
25 -5 V
25 9 V
26 12 V
25 -37 V
25 47 V
26 -25 V
25 -11 V
25 24 V
26 -4 V
25 30 V
25 4 V
26 11 V
25 15 V
26 8 V
25 2 V
25 0 V
26 9 V
25 2 V
51 0 V
25 -16 V
25 10 V
26 13 V
25 10 V
25 -3 V
26 1 V
25 0 V
26 46 V
25 5 V
25 14 V
76 3 V
26 20 V
50 0 V
26 11 V
25 -12 V
25 2 V
26 -1 V
25 6 V
26 -14 V
25 15 V
25 -18 V
26 14 V
25 -14 V
25 5 V
26 3 V
25 -13 V
25 -17 V
26 -9 V
25 1 V
25 12 V
26 -10 V
25 -2 V
51 -52 V
25 0 V
26 0 V
25 -10 V
25 -1 V
26 -2 V
25 -3 V
25 -11 V
26 -1 V
25 -13 V
25 -18 V
26 -5 V
25 -12 V
25 -8 V
26 -31 V
25 0 V
26 -14 V
25 -17 V
25 -17 V
26 -88 V
25 0 V
25 3 V
26 1 V
25 -23 V
51 -67 V
25 -34 V
25 -62 V
26 -50 V
25 -62 V
26 -201 V
25 -199 V
% End plot #2
% Begin plot #3
stroke
LTb
0.00 0.00 1.00 C LCb setrgbcolor
2158 627 M
[ [(Symbol) 120.0 0.0 true true 0 (e)]
[(roman) 96.0 -36.0 true true 0 (y)]
[(roman) 120.0 0.0 true true 0 ( /V)]
] -28.0 MRshow
3.000 UL
LTb
0.00 0.00 1.00 C 2230 627 M
351 0 V
567 1326 M
592 816 L
25 404 V
26 86 V
25 143 V
25 43 V
26 -115 V
50 117 V
26 89 V
25 -100 V
26 37 V
50 -76 V
26 105 V
25 22 V
25 -44 V
26 23 V
25 -84 V
25 56 V
26 -55 V
25 114 V
102 -119 V
25 87 V
25 49 V
26 -13 V
25 -4 V
25 6 V
26 -71 V
25 12 V
127 1 V
25 18 V
26 41 V
25 -7 V
51 -19 V
50 15 V
26 -4 V
25 7 V
25 -5 V
26 0 V
25 -2 V
25 1 V
26 -1 V
76 36 V
25 5 V
26 9 V
50 -12 V
26 21 V
25 0 V
25 -1 V
26 10 V
25 8 V
25 -5 V
26 5 V
25 2 V
26 -3 V
25 -3 V
25 8 V
26 -4 V
25 -2 V
25 -2 V
26 -2 V
25 2 V
25 24 V
26 3 V
25 15 V
25 -5 V
26 14 V
25 -17 V
26 18 V
25 -6 V
25 -23 V
51 2 V
51 38 V
50 229 V
51 1 V
76 57 V
26 -24 V
50 -41 V
76 67 V
26 -83 V
50 -271 V
51 3 V
25 0 V
26 -6 V
25 -8 V
25 -2 V
26 -39 V
25 33 V
26 -5 V
25 -9 V
25 -17 V
26 -26 V
25 -112 V
25 -40 V
51 -79 V
25 -9 V
26 -83 V
25 -10 V
25 -20 V
51 -34 V
% End plot #3
% Begin plot #4
stroke
1.000 UL
LTb
1.00 0.00 0.00 C LCb setrgbcolor
2158 507 M
[ [(roman) 120.0 0.0 true true 0 (Qx /H)]
] -40.0 MRshow
1.000 UL
LTb
1.00 0.00 0.00 C 2230 507 M
351 0 V
567 2055 M
25 -151 V
25 -31 V
26 -34 V
25 -79 V
25 -89 V
26 -28 V
25 -24 V
25 -32 V
26 -8 V
25 -18 V
26 -35 V
25 -42 V
25 10 V
26 -38 V
25 -30 V
25 -6 V
26 -50 V
25 -32 V
25 -9 V
26 -9 V
25 -2 V
25 -31 V
26 -20 V
25 -17 V
26 -17 V
25 32 V
25 -62 V
51 7 V
25 -14 V
26 -32 V
25 -23 V
25 -12 V
26 -10 V
25 -11 V
25 -10 V
26 22 V
25 -18 V
26 -6 V
25 -13 V
25 -11 V
26 -9 V
25 -6 V
25 -33 V
26 5 V
25 -13 V
25 -1 V
26 -10 V
50 -6 V
26 -7 V
25 -8 V
51 -25 V
25 9 V
26 -16 V
25 -3 V
25 -13 V
26 5 V
50 -12 V
26 -6 V
25 -3 V
25 -7 V
26 -6 V
25 -5 V
26 2 V
50 -6 V
26 -12 V
25 8 V
25 -5 V
26 5 V
25 -8 V
51 -5 V
25 -14 V
25 -4 V
26 -2 V
25 0 V
26 -12 V
25 -3 V
25 -3 V
26 -5 V
25 2 V
25 -6 V
26 -4 V
25 0 V
25 -3 V
26 0 V
50 4 V
26 0 V
101 -23 V
26 0 V
25 -3 V
25 0 V
26 1 V
25 0 V
25 -2 V
26 -4 V
25 2 V
25 -5 V
26 -6 V
50 -9 V
26 7 V
25 -12 V
26 -3 V
25 -3 V
25 8 V
26 -4 V
25 2 V
25 2 V
26 -5 V
25 0 V
25 -2 V
51 -4 V
25 3 V
26 1 V
25 -11 V
26 14 V
% End plot #4
% Begin plot #5
stroke
LTb
1.00 0.00 0.00 C LCb setrgbcolor
3085 627 M
[ [(roman) 120.0 0.0 true true 0 (Qx /Hz)]
] -40.0 MRshow
1.000 UL
LTb
1.00 0.00 0.00 C 3157 627 M
351 0 V
567 2054 M
25 -157 V
51 -49 V
25 -78 V
25 -89 V
26 -27 V
25 -25 V
25 -32 V
26 -7 V
25 -18 V
26 -41 V
25 -66 V
25 8 V
26 -4 V
25 -64 V
25 -5 V
26 -50 V
25 -32 V
25 -9 V
26 -9 V
25 -25 V
25 -8 V
26 -28 V
25 -10 V
26 -16 V
50 -30 V
26 28 V
25 -20 V
25 -15 V
26 -31 V
25 -23 V
25 -12 V
26 -11 V
25 -10 V
25 -11 V
26 23 V
51 -21 V
25 -12 V
25 -8 V
26 -12 V
25 -25 V
25 18 V
26 -19 V
25 -11 V
25 0 V
26 -12 V
25 5 V
25 -10 V
26 -14 V
25 -10 V
26 -10 V
25 -6 V
25 -2 V
26 -8 V
25 -3 V
51 -16 V
25 2 V
25 -4 V
26 -4 V
25 -4 V
25 -6 V
26 -6 V
25 -6 V
26 0 V
25 -7 V
25 -11 V
76 -12 V
26 22 V
50 -8 V
26 -5 V
25 -11 V
25 -17 V
26 8 V
25 1 V
26 -14 V
25 10 V
25 -16 V
26 -19 V
25 13 V
25 -15 V
26 11 V
25 -1 V
25 -6 V
26 -5 V
25 -4 V
25 16 V
26 -4 V
25 0 V
51 -19 V
25 0 V
26 0 V
25 -3 V
25 0 V
26 1 V
25 1 V
25 -3 V
26 -10 V
25 7 V
25 -3 V
26 -7 V
25 -3 V
25 -1 V
26 3 V
25 -10 V
26 -2 V
25 -3 V
25 -1 V
26 2 V
25 2 V
25 3 V
26 -8 V
25 -3 V
51 -4 V
25 -2 V
25 13 V
26 -4 V
25 -11 V
26 27 V
25 -45 V
% End plot #5
% Begin plot #6
stroke
LTb
0.00 0.00 1.00 C LCb setrgbcolor
3085 507 M
[ [(roman) 120.0 0.0 true true 0 (Qy /V)]
] -40.0 MRshow
1.000 UL
LTb
0.00 0.00 1.00 C 3157 507 M
351 0 V
567 1676 M
25 -97 V
25 -28 V
26 -30 V
25 -13 V
25 -24 V
26 -58 V
50 -39 V
26 -18 V
25 -35 V
26 -63 V
50 -15 V
26 -4 V
25 -17 V
25 -54 V
26 -17 V
25 -26 V
25 -11 V
26 -21 V
25 0 V
102 -88 V
25 14 V
25 -26 V
26 -14 V
25 -12 V
25 -11 V
26 -19 V
25 -10 V
127 -45 V
25 -12 V
26 -1 V
25 -9 V
51 -20 V
50 -13 V
26 -8 V
25 -6 V
25 -8 V
26 -8 V
25 -7 V
25 -7 V
26 -7 V
76 -15 V
25 -5 V
26 -5 V
50 -14 V
26 -2 V
25 -6 V
25 -5 V
26 -4 V
25 -5 V
25 -6 V
26 -4 V
25 -4 V
26 -6 V
25 -5 V
25 -4 V
26 -5 V
25 -6 V
25 -4 V
26 -5 V
25 -5 V
25 1 V
26 -4 V
25 -2 V
25 -5 V
26 -1 V
25 -7 V
26 -2 V
25 -6 V
25 -4 V
51 -16 V
51 -2 V
50 38 V
51 -7 V
76 14 V
26 -11 V
50 -21 V
76 15 V
26 -30 V
50 -50 V
51 -7 V
25 -3 V
26 -2 V
25 -4 V
25 -3 V
26 -6 V
25 2 V
26 -3 V
25 -3 V
25 -3 V
26 -4 V
25 -6 V
25 -2 V
51 -18 V
25 -8 V
26 8 V
25 -2 V
25 -1 V
51 7 V
% End plot #6
% Begin plot #7
stroke
2.000 UL
LTb
0.00 0.62 0.45 C 617 384 M
0 1761 V
1530 384 M
0 1761 V
2443 384 M
0 1761 V
3356 384 M
0 1761 V
% End plot #7
stroke
LTb
LCb setrgbcolor
1.000 UL
LTB
LCb setrgbcolor
516 2145 N
516 384 L
3347 0 V
0 1761 V
-3347 0 V
Z stroke
1.000 UP
1.000 UL
LTb
LCb setrgbcolor
stroke
grestore
end
showpage
%%Trailer
%%DocumentFonts: Symbol roman Times-Roman
