 #/////////////////////////////////////////
 # Fourier analysis considers turn#           0  to turn#          599
# XM, XPM, XNU, ZNU, 1-XNU, 1-ZNU, (U(1-3)=U_Y,_Z,_L), COOR(npass,5)/(npass-1),COOR(?,?), KT, YM, YPM, kpa, kpb, E_total, alfx, betx, alfy, bety, alfl, betl, LNU 
  -1.153887E-02  -1.220979E-01   4.269173E-01   3.105551E-01   5.730827E-01   6.894449E-01   1.718652E-04   5.924357E-13   3.097209E-05   0.000000E+00   3.999674E+01      1  -2.515156E-09   1.420363E-09        0      599   3.999674E+01  -2.909317E+00   3.610926E-01   2.328631E+00   3.554537E-01  -7.729224E-02   1.505030E+03   1.290121E-03
  -1.223667E-02  -1.221471E-01   3.882948E-01   2.813265E-01   6.117052E-01   7.186735E-01   1.209605E-04   2.931085E-09   3.018418E-05   0.000000E+00   4.099681E+01      2   5.071304E-07  -3.672510E-06        0      599   4.099681E+01  -2.360310E+00   3.305261E-01   2.200554E+00   3.507667E-01  -7.729247E-02   1.540952E+03   1.290121E-03
  -1.217241E-02  -1.198846E-01   3.804508E-01   2.887056E-01   6.195492E-01   7.112944E-01   2.144026E-04   4.992812E-13   2.948359E-05   0.000000E+00   4.199689E+01      3  -1.328510E-08   9.813755E-08        0      599   4.199689E+01  -2.484872E+00   3.433962E-01   2.086706E+00   3.439577E-01  -7.729205E-02   1.579456E+03   1.290121E-03
  -1.201275E-02  -1.165025E-01   3.717032E-01   2.485180E-01   6.282968E-01   7.514820E-01   3.234498E-04   1.728622E-13   2.881201E-05   0.000000E+00   4.299696E+01      4  -3.875605E-08   2.143049E-07        0      599   4.299696E+01  -2.225493E+00   3.194155E-01   2.219230E+00   3.802909E-01  -7.729343E-02   1.617803E+03   1.290120E-03
  -1.237917E-02  -1.155176E-01   3.516699E-01   2.661313E-01   6.483301E-01   7.338687E-01   3.291236E-04   2.969052E-14   2.814787E-05   0.000000E+00   4.399703E+01      5  -3.333432E-09   1.976132E-08        0      599   4.399703E+01  -2.102049E+00   3.153620E-01   2.025832E+00   3.613194E-01  -7.729262E-02   1.654824E+03   1.290120E-03
  -1.355997E-02  -1.166404E-01   3.289172E-01   2.629576E-01   6.710828E-01   7.370424E-01   2.262717E-05   2.641183E-18   2.745659E-05   0.000000E+00   4.499710E+01      6   9.360091E-10  -3.260188E-09        0      599   4.499710E+01  -2.682653E+00   6.023855E-01   1.797516E+00   3.265802E-01  -7.729262E-02   1.688332E+03   1.290120E-03
  -1.363624E-02  -1.146659E-01   3.218381E-01   2.565152E-01   6.781619E-01   7.434848E-01   8.803175E-05   3.101592E-17   2.686508E-05   0.000000E+00   4.599716E+01      7   6.439068E-10  -1.885970E-09        0      599   4.599716E+01  -1.946566E+00   3.567876E-01   1.813580E+00   3.519970E-01  -7.729275E-02   1.726136E+03   1.290121E-03
  -1.366678E-02  -1.124600E-01   3.156841E-01   2.281182E-01   6.843159E-01   7.718818E-01   1.273006E-04   2.270585E-16   2.629540E-05   0.000000E+00   4.699722E+01      8   9.471287E-10  -3.680299E-09        0      599   4.699722E+01  -1.856480E+00   3.328334E-01   1.755996E+00   3.551856E-01  -7.729272E-02   1.763727E+03   1.290121E-03
  -1.384462E-02  -1.110744E-01   3.074422E-01   2.386466E-01   6.925578E-01   7.613534E-01   1.454913E-04   1.099157E-14   2.574541E-05   0.000000E+00   4.799728E+01      9  -3.491891E-10   4.537331E-09        0      599   4.799728E+01  -1.853479E+00   3.383280E-01   1.750544E+00   3.626030E-01  -7.729261E-02   1.801035E+03   1.290121E-03
  -1.376752E-02  -1.087334E-01   3.052875E-01   2.289733E-01   6.947125E-01   7.710267E-01   1.945413E-04   6.050241E-12   2.522256E-05   0.000000E+00   4.899733E+01     10   3.668617E-08  -2.205262E-07        0      599   4.899733E+01  -1.792607E+00   3.297332E-01   1.755001E+00   3.715732E-01  -7.729254E-02   1.838674E+03   1.290121E-03
  -1.370177E-02  -1.068988E-01   3.007065E-01   2.110757E-01   6.992935E-01   7.889243E-01   2.150983E-04   8.145486E-13   2.471765E-05   0.000000E+00   4.999739E+01     11  -4.065390E-08   1.830166E-07        0      599   4.999739E+01  -1.788689E+00   3.267220E-01   1.864794E+00   4.064648E-01  -7.729262E-02   1.876092E+03   1.290121E-03
  -1.377724E-02  -1.045076E-01   2.919390E-01   1.936395E-01   7.080610E-01   8.063605E-01   2.183479E-04   3.794704E-07   2.422928E-05   0.000000E+00   5.099744E+01     12   5.218297E-06  -2.222165E-05        0      599   5.099744E+01  -1.644404E+00   3.175715E-01   1.948202E+00   4.275672E-01  -7.729253E-02   1.913245E+03   1.290120E-03
  -1.414866E-02  -1.037033E-01   2.812110E-01   2.041570E-01   7.187890E-01   7.958430E-01   2.046745E-04   8.731817E-10   2.375704E-05   0.000000E+00   5.199749E+01     13   8.332356E-08  -8.446716E-07        0      599   5.199749E+01  -1.617128E+00   3.292685E-01   1.633446E+00   3.749715E-01  -7.729268E-02   1.950164E+03   1.290121E-03
  -1.359210E-02  -9.988109E-02   2.836390E-01   1.980229E-01   7.163610E-01   8.019771E-01   2.711343E-04   1.367336E-12   2.331433E-05   0.000000E+00   5.299754E+01     14  -5.363931E-09   3.412387E-08        0      599   5.299754E+01  -1.534897E+00   3.073943E-01   1.692676E+00   4.071611E-01  -7.729298E-02   1.988058E+03   1.290120E-03
  -1.393393E-02  -9.968494E-02   2.740302E-01   1.909887E-01   7.259698E-01   8.090113E-01   2.656721E-04   3.581118E-13   2.287779E-05   0.000000E+00   5.399758E+01     15  -5.397048E-08   2.372051E-07        0      599   5.399758E+01  -1.573980E+00   3.245676E-01   1.717502E+00   4.198633E-01  -7.729239E-02   2.025058E+03   1.290121E-03
  -1.412067E-02  -9.866593E-02   2.661816E-01   1.885414E-01   7.338184E-01   8.114586E-01   2.582835E-04   2.651031E-13   2.245781E-05   0.000000E+00   5.499763E+01     16   1.132977E-08  -5.203066E-08        0      599   5.499763E+01  -1.560856E+00   3.297688E-01   1.673097E+00   4.169564E-01  -7.729244E-02   2.062101E+03   1.290121E-03
  -1.386637E-02  -9.597812E-02   2.647296E-01   1.775327E-01   7.352704E-01   8.224673E-01   3.140831E-04   1.693604E-12   2.205936E-05   0.000000E+00   5.599767E+01     17  -2.910820E-08   1.461741E-07        0      599   5.599767E+01  -1.487796E+00   3.271781E-01   1.754612E+00   4.484311E-01  -7.729254E-02   2.099747E+03   1.290121E-03
  -1.440966E-02  -9.553734E-02   2.519002E-01   1.839697E-01   7.480998E-01   8.160303E-01   2.177637E-04   1.104629E-13   2.166033E-05   0.000000E+00   5.699771E+01     18  -3.599669E-09   1.573807E-08        0      599   5.699771E+01  -1.448457E+00   3.335319E-01   1.625219E+00   4.280306E-01  -7.729537E-02   2.135961E+03   1.290120E-03
  -1.482138E-02  -9.515036E-02   2.438910E-01   1.875454E-01   7.561090E-01   8.124546E-01   1.427990E-04   2.399065E-16   2.127821E-05   0.000000E+00   5.799775E+01     19   1.425403E-09  -4.819132E-09        0      599   5.799775E+01  -1.496702E+00   3.556558E-01   1.574697E+00   4.261174E-01  -7.729227E-02   2.172449E+03   1.290121E-03
  -1.473581E-02  -9.350056E-02   2.415456E-01   1.807355E-01   7.584544E-01   8.192645E-01   1.791629E-04   2.665863E-15   2.091844E-05   0.000000E+00   5.899779E+01     20   1.365347E-09  -4.216998E-09        0      599   5.899779E+01  -1.470078E+00   3.545782E-01   1.609949E+00   4.447435E-01  -7.729233E-02   2.209895E+03   1.290121E-03
  -1.461717E-02  -9.174070E-02   2.391001E-01   1.705960E-01   7.608999E-01   8.294040E-01   2.071015E-04   1.633753E-14   2.057014E-05   0.000000E+00   5.999782E+01     21  -2.868933E-09   9.216007E-09        0      599   5.999782E+01  -1.457080E+00   3.570226E-01   1.628443E+00   4.574816E-01  -7.729244E-02   2.247280E+03   1.290121E-03
  -1.431275E-02  -8.928792E-02   2.386278E-01   1.489255E-01   7.613722E-01   8.510745E-01   2.394121E-04   2.343522E-07   2.023417E-05   0.000000E+00   6.099786E+01     22  -3.137395E-06   1.189162E-05        0      599   6.099786E+01  -1.403177E+00   3.461694E-01   1.711230E+00   4.970103E-01  -7.729212E-02   2.284765E+03   1.290120E-03
  -1.454626E-02  -8.862090E-02   2.306842E-01   1.608983E-01   7.693158E-01   8.391017E-01   2.211142E-04   1.504126E-13   1.990440E-05   0.000000E+00   6.199789E+01     23  -7.142952E-09   2.284100E-08        0      599   6.199789E+01  -1.403801E+00   3.561572E-01   1.657451E+00   4.854611E-01  -7.729235E-02   2.321707E+03   1.290121E-03
  -1.456400E-02  -8.724814E-02   2.256445E-01   1.502125E-01   7.743555E-01   8.497875E-01   2.138111E-04   7.762589E-11   1.958645E-05   0.000000E+00   6.299793E+01     24  -6.929281E-08   6.808884E-08        0      599   6.299793E+01  -1.377225E+00   3.592002E-01   1.587170E+00   4.816291E-01  -7.729237E-02   2.358794E+03   1.290121E-03
  -1.467761E-02  -8.615101E-02   2.211903E-01   1.595202E-01   7.788097E-01   8.404798E-01   2.135925E-04   1.884164E-15   1.927857E-05   0.000000E+00   6.399796E+01     25   1.540428E-09  -4.672792E-09        0      599   6.399796E+01  -1.386113E+00   3.716418E-01   1.541633E+00   4.757290E-01  -7.729306E-02   2.395883E+03   1.290121E-03
  -1.466883E-02  -8.480746E-02   2.170546E-01   1.558690E-01   7.829454E-01   8.441310E-01   2.089206E-04   2.098655E-15   1.898044E-05   0.000000E+00   6.499799E+01     26   1.949215E-09  -5.104406E-09        0      599   6.499799E+01  -1.368547E+00   3.755436E-01   1.552845E+00   4.882826E-01  -7.729238E-02   2.432995E+03   1.290121E-03
  -1.345592E-02  -8.039703E-02   2.252005E-01   1.041839E-01   7.747995E-01   8.958161E-01   3.413969E-04   1.020077E-06   1.870201E-05   0.000000E+00   6.599802E+01     27   2.857159E-05  -8.443575E-05        0      599   6.599802E+01  -1.280328E+00   3.510322E-01   1.884470E+00   5.833515E-01  -7.729093E-02   2.471505E+03   1.290120E-03
  -1.465277E-02  -8.207958E-02   2.092674E-01   1.451662E-01   7.907326E-01   8.548338E-01   2.012906E-04   3.442450E-15   1.841117E-05   0.000000E+00   6.699805E+01     28   2.010727E-09  -5.107434E-09        0      599   6.699805E+01  -1.353051E+00   3.913273E-01   1.521381E+00   5.019811E-01  -7.729236E-02   2.507224E+03   1.290121E-03
  -1.353267E-02  -7.728274E-02   2.111868E-01   1.127364E-01   7.888132E-01   8.872636E-01   3.403572E-04   6.069662E-10   1.788477E-05   0.000000E+00   6.899811E+01     30  -1.482610E-07   3.234313E-07        0      599   6.899811E+01  -1.256201E+00   3.691862E-01   1.896720E+00   6.241237E-01  -7.729260E-02   2.582830E+03   1.290120E-03
  -1.341069E-02  -7.609816E-02   2.074624E-01   1.140348E-01   7.925376E-01   8.859652E-01   3.412890E-04   5.587122E-09   1.762863E-05   0.000000E+00   6.999813E+01     31  -1.010521E-06   3.854003E-06        0      599   6.999813E+01  -1.250585E+00   3.653409E-01   1.902038E+00   6.449158E-01  -7.729330E-02   2.620019E+03   1.290121E-03
  -1.389449E-02  -7.618277E-02   1.992437E-01   1.188361E-01   8.007563E-01   8.811639E-01   2.916059E-04   7.424661E-07   1.737518E-05   0.000000E+00   7.099816E+01     32  -3.581194E-06   6.308015E-06        0      599   7.099816E+01  -1.305692E+00   3.932675E-01   1.698182E+00   5.888094E-01  -7.729476E-02   2.656508E+03   1.290120E-03
  -1.410535E-02  -7.537369E-02   1.935406E-01   1.384927E-01   8.064594E-01   8.615073E-01   1.886749E-04   5.643330E-16   1.712859E-05   0.000000E+00   7.199819E+01     33   1.996857E-09  -4.791610E-09        0      599   7.199819E+01  -1.289540E+00   3.933676E-01   1.519268E+00   5.414963E-01  -7.729305E-02   2.692938E+03   1.290120E-03
  -1.409354E-02  -7.404886E-02   1.904881E-01   1.370641E-01   8.095119E-01   8.629359E-01   1.854759E-04   7.607603E-17   1.689328E-05   0.000000E+00   7.299821E+01     34   1.548933E-09  -3.713277E-09        0      599   7.299821E+01  -1.327454E+00   4.201992E-01   1.490135E+00   5.426423E-01  -7.729302E-02   2.730071E+03   1.290120E-03
  -1.399496E-02  -7.285785E-02   1.878133E-01   1.336883E-01   8.121867E-01   8.663117E-01   1.847094E-04   8.064071E-17   1.666449E-05   0.000000E+00   7.399823E+01     35   1.896186E-09  -4.401053E-09        0      599   7.399823E+01  -1.317283E+00   4.216484E-01   1.480071E+00   5.475375E-01  -7.729303E-02   2.767220E+03   1.290120E-03
  -1.381298E-02  -7.132205E-02   1.851136E-01   1.318745E-01   8.148864E-01   8.681255E-01   1.746500E-04   1.777736E-16   1.644191E-05   0.000000E+00   7.499826E+01     36   1.557447E-09  -3.530166E-09        0      599   7.499826E+01  -1.262435E+00   4.173074E-01   1.476771E+00   5.569889E-01  -7.729302E-02   2.804379E+03   1.290121E-03
  -1.370523E-02  -7.024130E-02   1.824881E-01   1.303966E-01   8.175119E-01   8.696034E-01   1.739919E-04   8.616430E-17   1.622528E-05   0.000000E+00   7.599828E+01     37   1.314230E-09  -2.930364E-09        0      599   7.599828E+01  -1.284498E+00   4.278874E-01   1.490043E+00   5.727244E-01  -7.729300E-02   2.841546E+03   1.290120E-03
  -1.256733E-02  -6.703456E-02   1.880848E-01   1.074207E-01   8.119152E-01   8.925793E-01   3.700610E-04   4.520310E-12   1.602421E-05   0.000000E+00   7.699830E+01     38   4.290342E-08  -1.229056E-07        0      599   7.699830E+01  -1.215446E+00   4.079010E-01   1.696732E+00   6.440951E-01  -7.729293E-02   2.880489E+03   1.290120E-03
  -1.222448E-02  -6.544198E-02   1.834918E-01   9.740207E-02   8.165082E-01   9.025979E-01   3.741710E-04   2.476664E-12   1.581909E-05   0.000000E+00   7.799832E+01     39   7.131404E-09  -3.822744E-08        0      599   7.799832E+01  -1.166845E+00   3.967539E-01   1.782262E+00   6.810671E-01  -7.729283E-02   2.917774E+03   1.290120E-03
  -1.221741E-02  -6.467718E-02   1.819745E-01   1.022715E-01   8.180255E-01   8.977285E-01   4.054882E-04   7.022295E-06   1.561982E-05   0.000000E+00   7.899835E+01     40   5.855219E-05  -1.919454E-04        0      599   7.899835E+01  -1.167602E+00   4.094569E-01   1.769147E+00   6.879276E-01  -7.729361E-02   2.955177E+03   1.290119E-03
  -1.220021E-02  -6.366222E-02   1.787033E-01   1.024746E-01   8.212967E-01   8.975254E-01   4.200329E-04   8.928191E-06   1.542470E-05   0.000000E+00   7.999836E+01     41   2.027403E-05  -3.319717E-05        0      599   7.999836E+01  -1.196671E+00   4.256162E-01   1.783910E+00   7.026847E-01  -7.729397E-02   2.992414E+03   1.290117E-03
  -1.164067E-02  -6.186641E-02   1.757780E-01   8.478140E-02   8.242220E-01   9.152186E-01   3.984547E-04   8.111334E-08   1.523408E-05   0.000000E+00   8.099839E+01     42  -1.717672E-06   3.605196E-07        0      599   8.099839E+01  -1.128796E+00   4.077890E-01   1.905612E+00   7.531668E-01  -7.729280E-02   3.029582E+03   1.290121E-03
  -1.170678E-02  -6.111989E-02   1.734381E-01   8.115341E-02   8.265619E-01   9.188466E-01   4.411975E-04   9.860204E-06   1.504965E-05   0.000000E+00   8.199840E+01     43   2.174362E-05  -8.573243E-05        0      599   8.199840E+01  -1.162163E+00   4.292344E-01   1.885210E+00   7.583183E-01  -7.729374E-02   3.067057E+03   1.290119E-03
  -1.139988E-02  -5.985162E-02   1.718607E-01   9.119974E-02   8.281393E-01   9.088003E-01   4.538346E-04   8.324807E-06   1.486879E-05   0.000000E+00   8.299843E+01     44  -1.015682E-05   3.862909E-05        0      599   8.299843E+01  -1.164404E+00   4.276231E-01   1.879900E+00   7.676317E-01  -7.729470E-02   3.104348E+03   1.290119E-03
  -1.159855E-02  -5.943264E-02   1.634915E-01   8.686494E-02   8.365085E-01   9.131351E-01   4.780280E-04   1.713857E-05   1.469220E-05   0.000000E+00   8.399845E+01     45   2.419875E-05  -4.902443E-05        0      599   8.399845E+01  -1.145761E+00   4.392853E-01   1.935482E+00   8.001298E-01  -7.729431E-02   3.141625E+03   1.290118E-03
  -1.128684E-02  -5.770380E-02   1.647310E-01   9.540832E-02   8.352690E-01   9.045917E-01   3.675468E-04   2.107650E-08   1.451614E-05   0.000000E+00   8.499846E+01     46  -9.299973E-07   7.355482E-06        0      599   8.499846E+01  -1.166054E+00   4.527250E-01   1.714502E+00   7.241129E-01  -7.729413E-02   3.178103E+03   1.290116E-03
  -1.109876E-02  -5.674333E-02   1.614865E-01   1.044662E-01   8.385135E-01   8.955338E-01   3.405497E-04   3.447697E-14   1.434658E-05   0.000000E+00   8.599848E+01     47   6.371308E-09  -1.441359E-08        0      599   8.599848E+01  -1.142154E+00   4.499536E-01   1.605087E+00   7.003959E-01  -7.729283E-02   3.215096E+03   1.290121E-03
  -1.063365E-02  -5.510960E-02   1.612947E-01   8.698440E-02   8.387053E-01   9.130156E-01   3.950911E-04   1.751846E-10   1.418435E-05   0.000000E+00   8.699850E+01     48  -3.182102E-07   6.291017E-07        0      599   8.699850E+01  -1.126886E+00   4.505329E-01   1.834325E+00   7.997164E-01  -7.729280E-02   3.252864E+03   1.290121E-03
  -1.059259E-02  -5.427991E-02   1.587086E-01   9.205107E-02   8.412914E-01   9.079489E-01   3.993278E-04   3.791411E-07   1.402342E-05   0.000000E+00   8.799852E+01     49  -1.835563E-05   3.503126E-05        0      599   8.799852E+01  -1.143924E+00   4.670708E-01   1.643571E+00   7.331843E-01  -7.729269E-02   3.290078E+03   1.290120E-03
  -9.386076E-03  -5.073835E-02   1.571308E-01   8.844265E-02   8.428692E-01   9.115573E-01   4.612111E-04   1.120292E-12   1.371549E-05   0.000000E+00   8.999855E+01     51  -3.691901E-08   7.406774E-08        0      599   8.999855E+01  -1.087847E+00   4.575071E-01   1.767678E+00   8.019567E-01  -7.729254E-02   3.365272E+03   1.290115E-03
  -9.319926E-03  -5.071446E-02   1.553571E-01   7.651234E-02   8.446429E-01   9.234877E-01   5.061460E-04   2.606461E-06   1.356634E-05   0.000000E+00   9.099856E+01     52  -6.517507E-05   1.396999E-04        0      599   9.099856E+01  -1.117103E+00   4.612232E-01   1.879541E+00   8.596699E-01  -7.729315E-02   3.402805E+03   1.290115E-03
  -8.884691E-03  -4.880783E-02   1.532446E-01   7.652361E-02   8.467554E-01   9.234764E-01   5.209133E-04   6.951184E-06   1.342024E-05   0.000000E+00   9.199858E+01     53   2.569695E-05  -5.567376E-05        0      599   9.199858E+01  -1.077153E+00   4.637152E-01   1.809351E+00   8.385107E-01  -7.729383E-02   3.440291E+03   1.290116E-03
  -8.647051E-03  -4.737408E-02   1.468807E-01   7.320410E-02   8.531193E-01   9.267959E-01   5.933972E-04   1.903585E-05   1.313680E-05   0.000000E+00   9.399861E+01     55  -5.673306E-06   6.945785E-06        0      599   9.399861E+01  -1.065815E+00   4.778985E-01   1.829315E+00   8.680969E-01  -7.729516E-02   3.515109E+03   1.290108E-03
  -8.280227E-03  -4.616349E-02   1.491363E-01   8.595967E-02   8.508637E-01   9.140403E-01   5.584117E-04   1.818994E-05   1.299875E-05   0.000000E+00   9.499862E+01     56   2.880426E-05  -1.951215E-05        0      599   9.499862E+01  -1.096448E+00   4.890161E-01   1.669427E+00   8.140539E-01  -7.729592E-02   3.552292E+03   1.290110E-03
  -7.706002E-03  -4.450321E-02   1.452022E-01   8.362489E-02   8.547978E-01   9.163751E-01   6.109695E-04   3.239927E-05   1.286590E-05   0.000000E+00   9.599864E+01     57  -1.388781E-04   2.668832E-04        0      599   9.599864E+01  -1.065249E+00   4.872821E-01   1.635482E+00   8.150323E-01  -7.729590E-02   3.590117E+03   1.290112E-03
  -7.446796E-03  -4.390346E-02   1.444113E-01   7.102298E-02   8.555887E-01   9.289770E-01   5.966489E-04   6.196567E-06   1.273303E-05   0.000000E+00   9.699866E+01     58   5.725638E-07  -1.076474E-05        0      599   9.699866E+01  -1.088573E+00   4.948533E-01   1.907806E+00   9.384204E-01  -7.729376E-02   3.627160E+03   1.290109E-03
  -7.110410E-03  -4.284046E-02   1.411512E-01   8.751770E-02   8.588488E-01   9.124823E-01   5.693495E-04   4.196377E-05   1.260302E-05   0.000000E+00   9.799867E+01     59   7.707603E-05  -1.043179E-04        0      599   9.799867E+01  -1.061584E+00   4.906594E-01   1.615094E+00   8.263653E-01  -7.730295E-02   3.664244E+03   1.290100E-03
  -6.533455E-03  -4.123071E-02   1.422972E-01   7.297739E-02   8.577028E-01   9.270226E-01   6.000099E-04   4.574580E-06   1.247761E-05   0.000000E+00   9.899868E+01     60   1.800831E-05  -4.354848E-06        0      599   9.899868E+01  -1.049399E+00   4.918234E-01   1.859708E+00   9.390507E-01  -7.729361E-02   3.701892E+03   1.290106E-03
  -5.609026E-03  -3.872751E-02   1.393733E-01   6.763176E-02   8.606267E-01   9.323682E-01   6.250531E-04   1.097376E-05   1.223273E-05   0.000000E+00   1.009987E+02     62  -3.228402E-05   6.653775E-05        0      599   1.009987E+02  -1.032997E+00   5.058586E-01   1.637721E+00   8.647267E-01  -7.728975E-02   3.776737E+03   1.290103E-03
  -5.681926E-03  -3.835031E-02   1.377773E-01   7.233913E-02   8.622227E-01   9.276609E-01   5.795166E-04   2.589814E-14   1.211261E-05   0.000000E+00   1.019987E+02     63  -9.666810E-09   1.982897E-08        0      599   1.019987E+02  -1.053181E+00   5.159402E-01   1.709175E+00   9.033102E-01  -7.729331E-02   3.813756E+03   1.290112E-03
  -5.012328E-03  -3.704538E-02   1.368949E-01   7.394962E-02   8.631051E-01   9.260504E-01   6.217840E-04   8.626969E-14   1.199691E-05   0.000000E+00   1.029987E+02     64  -5.763097E-09   1.052064E-08        0      599   1.029987E+02  -1.047448E+00   5.140993E-01   1.777108E+00   9.472431E-01  -7.729322E-02   3.851432E+03   1.290112E-03
  -4.926267E-03  -3.591924E-02   1.351594E-01   7.680373E-02   8.648406E-01   9.231963E-01   5.989190E-04   6.763251E-15   1.188213E-05   0.000000E+00   1.039987E+02     65   6.782735E-09  -1.245983E-08        0      599   1.039987E+02  -1.060017E+00   5.343997E-01   1.708049E+00   9.245527E-01  -7.729330E-02   3.888683E+03   1.290112E-03
  -4.284972E-03  -3.508898E-02   1.336664E-01   7.810444E-02   8.663336E-01   9.218956E-01   6.021421E-04   6.403545E-15   1.176972E-05   0.000000E+00   1.049988E+02     66   6.113990E-10   1.143620E-10        0      599   1.049988E+02  -1.023316E+00   5.203406E-01   1.700695E+00   9.354400E-01  -7.729333E-02   3.925988E+03   1.290112E-03
  -4.167103E-03  -3.427351E-02   1.323594E-01   7.468160E-02   8.676406E-01   9.253184E-01   6.008122E-04   1.205911E-14   1.165954E-05   0.000000E+00   1.059988E+02     67   5.063480E-09  -1.057075E-08        0      599   1.059988E+02  -1.060455E+00   5.370022E-01   1.687525E+00   9.432712E-01  -7.729326E-02   3.963327E+03   1.290112E-03
  -3.212360E-03  -3.212013E-02   1.329258E-01   7.438990E-02   8.670742E-01   9.256101E-01   7.867323E-04   1.718689E-05   1.155642E-05   0.000000E+00   1.069988E+02     68   5.577263E-05  -6.856419E-05        0      599   1.069988E+02  -1.032894E+00   5.319315E-01   1.701057E+00   9.517453E-01  -7.729489E-02   4.002396E+03   1.290109E-03
  -2.407036E-03  -3.015847E-02   1.314502E-01   6.158383E-02   8.685498E-01   9.384162E-01   8.521285E-04   2.434567E-05   1.134697E-05   0.000000E+00   1.089988E+02     70  -4.471648E-06  -3.547104E-05        0      599   1.089988E+02  -1.021065E+00   5.434956E-01   1.750856E+00   9.935404E-01  -7.729783E-02   4.077420E+03   1.290119E-03
  -2.333036E-03  -3.014230E-02   1.283571E-01   7.620696E-02   8.716429E-01   9.237930E-01   8.597314E-04   3.070469E-05   1.124502E-05   0.000000E+00   1.099988E+02     71   4.330799E-05  -6.915528E-05        0      599   1.099988E+02  -1.034919E+00   5.517706E-01   1.679916E+00   9.674244E-01  -7.729791E-02   4.114901E+03   1.290116E-03
  -1.519110E-03  -2.873878E-02   1.302092E-01   7.088724E-02   8.697908E-01   9.291128E-01   8.403333E-04   2.261368E-05   1.114472E-05   0.000000E+00   1.109988E+02     72  -6.125931E-06   7.069776E-06        0      599   1.109988E+02  -9.981418E-01   5.439396E-01   1.692721E+00   9.924551E-01  -7.729769E-02   4.152307E+03   1.290116E-03
  -1.272549E-03  -2.715058E-02   1.289796E-01   7.048950E-02   8.710204E-01   9.295105E-01   8.145961E-04   2.364710E-05   1.104602E-05   0.000000E+00   1.119988E+02     73   1.372231E-05  -2.144365E-05        0      599   1.119988E+02  -1.006762E+00   5.620770E-01   1.693258E+00   1.005740E+00  -7.729832E-02   4.189641E+03   1.290118E-03
   3.767042E-04  -2.477780E-02   1.302513E-01   5.445307E-02   8.697487E-01   9.455469E-01   9.881428E-04   7.157008E-12   1.095426E-05   0.000000E+00   1.129988E+02     74   5.055331E-07  -7.755952E-07        0      599   1.129988E+02  -9.948741E-01   5.402378E-01   1.802145E+00   1.120445E+00  -7.729372E-02   4.228970E+03   1.290121E-03
   5.606013E-04  -2.464719E-02   1.283367E-01   5.357038E-02   8.716633E-01   9.464296E-01   9.845318E-04   2.971509E-12   1.085865E-05   0.000000E+00   1.139988E+02     75   1.363054E-07  -2.404582E-07        0      599   1.139988E+02  -9.788569E-01   5.436512E-01   1.968965E+00   1.175788E+00  -7.729394E-02   4.266186E+03   1.290120E-03
   1.042418E-03  -2.285248E-02   1.269580E-01   2.502616E-02   8.730420E-01   9.749738E-01   1.039542E-03   2.072941E-12   1.067423E-05   0.000000E+00   1.159989E+02     77  -4.967849E-08   6.753425E-08        0      599   1.159989E+02  -9.940580E-01   5.608430E-01   2.529343E+00   1.544443E+00  -7.729487E-02   4.341351E+03   1.290118E-03
   1.270758E-03  -2.254613E-02   1.234335E-01   4.816278E-02   8.765665E-01   9.518372E-01   9.443048E-04   9.594962E-08   1.058191E-05   0.000000E+00   1.169989E+02     78   3.420849E-05  -5.445400E-05        0      599   1.169989E+02  -9.819056E-01   5.666141E-01   2.322863E+00   1.428152E+00  -7.729492E-02   4.377910E+03   1.290116E-03
   1.602458E-03  -2.179700E-02   1.224232E-01   5.305135E-02   8.775768E-01   9.469487E-01   9.079688E-04   1.621706E-13   1.049248E-05   0.000000E+00   1.179989E+02     79  -1.231769E-08   2.245296E-08        0      599   1.179989E+02  -9.756672E-01   5.661398E-01   2.120768E+00   1.301939E+00  -7.729476E-02   4.415007E+03   1.290119E-03
   2.120594E-03  -2.085675E-02   1.218131E-01   4.611176E-02   8.781869E-01   9.538882E-01   9.218927E-04   4.710125E-14   1.040569E-05   0.000000E+00   1.189989E+02     80  -3.568451E-08   5.721043E-08        0      599   1.189989E+02  -9.720814E-01   5.817508E-01   2.372610E+00   1.464708E+00  -7.729469E-02   4.452581E+03   1.290119E-03
   2.397839E-03  -2.019542E-02   1.218207E-01   1.434426E-02   8.781793E-01   9.856557E-01   9.502601E-04   2.169494E-13   1.032040E-05   0.000000E+00   1.199989E+02     81  -3.013470E-07   4.863751E-07        0      599   1.199989E+02  -9.557655E-01   5.757337E-01   2.512422E+00   1.557583E+00  -7.729464E-02   4.490181E+03   1.290119E-03
   2.846732E-03  -1.942575E-02   1.187039E-01   6.072130E-02   8.812961E-01   9.392787E-01   8.883218E-04   1.445503E-05   1.023532E-05   0.000000E+00   1.209989E+02     82  -2.207201E-06   6.091174E-06        0      599   1.209989E+02  -1.006655E+00   5.886006E-01   1.656391E+00   1.079687E+00  -7.729346E-02   4.527244E+03   1.290119E-03
   3.463369E-03  -1.855809E-02   1.179384E-01   6.394341E-02   8.820616E-01   9.360566E-01   8.755786E-04   2.498220E-05   1.015269E-05   0.000000E+00   1.219989E+02     83  -6.423187E-06   1.637258E-05        0      599   1.219989E+02  -9.687241E-01   5.907109E-01   1.598946E+00   1.034336E+00  -7.729273E-02   4.564775E+03   1.290117E-03
   4.423717E-03  -1.620430E-02   1.172308E-01   6.362613E-02   8.827692E-01   9.363739E-01   8.908238E-04   3.875113E-05   1.007148E-05   0.000000E+00   1.229989E+02     84  -8.286928E-05   1.654124E-04        0      599   1.229989E+02  -9.998332E-01   6.060652E-01   1.285775E+00   8.534704E-01  -7.729316E-02   4.602338E+03   1.290128E-03
   4.399747E-03  -1.649315E-02   1.160341E-01   7.190054E-02   8.839659E-01   9.280995E-01   8.597058E-04   2.795719E-05   9.991471E-06   0.000000E+00   1.239989E+02     85   7.088308E-05  -1.733443E-04        0      599   1.239989E+02  -9.590776E-01   5.966289E-01   1.622004E+00   1.071623E+00  -7.729341E-02   4.639850E+03   1.290131E-03
   5.460492E-03  -1.478734E-02   1.165159E-01   5.581251E-02   8.834841E-01   9.441875E-01   8.838087E-04   3.646725E-05   9.913803E-06   0.000000E+00   1.249990E+02     86   1.727939E-04  -3.030054E-04        0      599   1.249990E+02  -9.934851E-01   6.109125E-01   1.600166E+00   1.079005E+00  -7.729032E-02   4.677857E+03   1.290133E-03
   5.813790E-03  -1.410582E-02   1.148905E-01   7.628695E-02   8.851095E-01   9.237130E-01   8.605533E-04   4.392526E-05   9.836019E-06   0.000000E+00   1.259990E+02     87  -3.050930E-04   4.040797E-04        0      599   1.259990E+02  -9.834024E-01   6.166164E-01   1.534136E+00   1.032767E+00  -7.729095E-02   4.715226E+03   1.290134E-03
   6.153095E-03  -1.333898E-02   1.139898E-01   7.396021E-02   8.860102E-01   9.260398E-01   8.120729E-04   4.202838E-05   9.759152E-06   0.000000E+00   1.269990E+02     88  -1.748560E-04   2.369428E-04        0      599   1.269990E+02  -9.592718E-01   6.036671E-01   1.598740E+00   1.084022E+00  -7.729262E-02   4.752441E+03   1.290130E-03
   7.469720E-03  -1.184372E-02   1.140437E-01   5.417728E-02   8.859563E-01   9.458227E-01   7.701579E-04   3.946085E-05   9.684493E-06   0.000000E+00   1.279990E+02     89  -2.175097E-05   4.271722E-05        0      599   1.279990E+02  -9.623636E-01   6.235583E-01   1.606122E+00   1.109872E+00  -7.728731E-02   4.790142E+03   1.290131E-03
   7.233759E-03  -1.177414E-02   1.130960E-01   7.056657E-02   8.869040E-01   9.294334E-01   7.445918E-04   4.937460E-05   9.609951E-06   0.000000E+00   1.289990E+02     90  -1.577620E-04   1.825141E-04        0      599   1.289990E+02  -9.863050E-01   6.262978E-01   1.606596E+00   1.109002E+00  -7.728983E-02   4.827326E+03   1.290133E-03
   7.754617E-03  -1.061640E-02   1.130756E-01   5.658418E-02   8.869244E-01   9.434158E-01   7.335639E-04   6.098644E-05   9.537645E-06   0.000000E+00   1.299990E+02     91  -4.827134E-04   7.323716E-04        0      599   1.299990E+02  -9.731928E-01   6.247845E-01   1.598944E+00   1.110241E+00  -7.728771E-02   4.865054E+03   1.290141E-03
   7.838877E-03  -1.012713E-02   1.142610E-01   5.082165E-02   8.857390E-01   9.491783E-01   7.026597E-04   5.330558E-12   9.392604E-06   0.000000E+00   1.319990E+02     93   2.377316E-07  -3.427254E-07        0      599   1.319990E+02  -9.231275E-01   5.994683E-01   1.807211E+00   1.256655E+00  -7.729662E-02   4.938570E+03   1.290128E-03
   8.279579E-03  -9.407933E-03   1.142094E-01   3.861272E-02   8.857906E-01   9.613873E-01   6.868852E-04   1.305582E-12   9.323027E-06   0.000000E+00   1.329990E+02     94   3.874474E-07  -5.454569E-07        0      599   1.329990E+02  -9.191692E-01   6.008442E-01   1.814953E+00   1.295927E+00  -7.729662E-02   4.976000E+03   1.290128E-03
   1.185505E-02  -4.602786E-03   1.082286E-01   3.914605E-02   8.917714E-01   9.608539E-01   4.511314E-04   2.667824E-14   9.055691E-06   0.000000E+00   1.369990E+02     98  -1.493708E-08   2.107825E-08        0      599   1.369990E+02  -9.419517E-01   6.390539E-01   2.150357E+00   1.581570E+00  -7.729751E-02   5.126148E+03   1.290131E-03
   1.231032E-02  -3.859596E-03   1.083097E-01   3.499928E-02   8.916903E-01   9.650007E-01   4.466546E-04   2.148902E-13   8.991348E-06   0.000000E+00   1.379991E+02     99  -6.483713E-08   8.174943E-08        0      599   1.379991E+02  -9.383769E-01   6.382563E-01   2.233924E+00   1.653475E+00  -7.729751E-02   5.163717E+03   1.290131E-03
   1.347250E-02  -2.259155E-03   1.074600E-01   3.437294E-02   8.925400E-01   9.656271E-01   4.051583E-04   1.020964E-13   8.928041E-06   0.000000E+00   1.389991E+02    100  -5.661049E-08   7.765043E-08        0      599   1.389991E+02  -9.179546E-01   6.460303E-01   2.259722E+00   1.669391E+00  -7.729758E-02   5.201349E+03   1.290131E-03
   1.389203E-02  -1.814383E-03   1.076670E-01   2.917800E-02   8.923330E-01   9.708220E-01   4.030834E-04   3.684355E-13   8.865547E-06   0.000000E+00   1.399991E+02    101  -1.276761E-07   1.833668E-07        0      599   1.399991E+02  -9.103224E-01   6.405325E-01   2.349840E+00   1.762218E+00  -7.729760E-02   5.238926E+03   1.290131E-03
   1.419911E-02  -1.447682E-03   1.079003E-01   2.213518E-02   8.920997E-01   9.778648E-01   4.010082E-04   4.035551E-13   8.803909E-06   0.000000E+00   1.409991E+02    102   1.268714E-07  -1.690428E-07        0      599   1.409991E+02  -9.122975E-01   6.363679E-01   2.463077E+00   1.849969E+00  -7.729758E-02   5.276483E+03   1.290131E-03
   1.455504E-02  -8.915379E-04   1.079490E-01   1.471294E-02   8.920510E-01   9.852871E-01   3.919325E-04   7.385702E-11   8.743145E-06   0.000000E+00   1.419991E+02    103  -3.741357E-06   5.027233E-06        0      599   1.419991E+02  -9.129341E-01   6.356582E-01   2.485796E+00   1.885329E+00  -7.729766E-02   5.314040E+03   1.290131E-03
   1.570613E-02   9.142784E-04   1.072448E-01   1.192302E-02   8.927552E-01   9.880770E-01   3.525438E-04   1.195990E-09   8.683516E-06   0.000000E+00   1.429991E+02    104   1.928728E-06  -1.954701E-06        0      599   1.429991E+02  -9.056935E-01   6.517484E-01   2.646483E+00   2.051494E+00  -7.729770E-02   5.351770E+03   1.290131E-03
   1.637967E-02   1.718014E-03   1.062078E-01   1.915732E-02   8.937922E-01   9.808427E-01   3.403924E-04   7.104274E-06   8.625201E-06   0.000000E+00   1.439991E+02    105   1.496677E-04  -1.793184E-04        0      599   1.439991E+02  -9.271544E-01   6.570864E-01   2.777964E+00   2.118823E+00  -7.729520E-02   5.389803E+03   1.290133E-03
   1.679351E-02   2.491724E-03   1.067693E-01   1.406928E-03   8.932307E-01   9.985931E-01   3.189772E-04   8.016731E-07   8.566628E-06   0.000000E+00   1.449991E+02    106  -1.248773E-03   1.647298E-03        0      599   1.449991E+02  -9.375499E-01   6.602002E-01   2.035743E+00   1.587869E+00  -7.729737E-02   5.427170E+03   1.290131E-03
   1.761396E-02   3.155752E-03   1.056162E-01   9.872778E-03   8.943838E-01   9.901272E-01   2.895015E-04   1.982556E-12   8.509486E-06   0.000000E+00   1.459991E+02    107  -1.175625E-06   1.549183E-06        0      599   1.459991E+02  -9.276734E-01   6.535756E-01   2.768819E+00   2.166803E+00  -7.729782E-02   5.464932E+03   1.290131E-03
   1.866139E-02   4.242372E-03   1.039834E-01   1.351518E-03   8.960166E-01   9.986485E-01   2.799074E-04   4.404706E-06   8.453829E-06   0.000000E+00   1.469991E+02    108   4.075774E-03  -5.277048E-03        0      599   1.469991E+02  -9.415279E-01   6.666351E-01   1.551956E+00   1.265249E+00  -7.729552E-02   5.503155E+03   1.290133E-03
   2.007793E-02   6.080736E-03   1.017985E-01   2.330137E-03   8.982015E-01   9.976699E-01   2.371157E-04   9.538100E-06   8.343572E-06   0.000000E+00   1.489991E+02    110  -2.617062E-03   3.356784E-03        0      599   1.489991E+02  -9.101306E-01   6.713041E-01   2.778376E+00   2.233390E+00  -7.729587E-02   5.578828E+03   1.290127E-03
   2.082646E-02   7.086145E-03   1.034121E-01   7.887204E-03   8.965879E-01   9.921128E-01   1.958615E-04   4.113153E-13   8.288600E-06   0.000000E+00   1.499991E+02    111   2.824108E-07  -3.579248E-07        0      599   1.499991E+02  -8.782764E-01   6.483747E-01   3.623656E+00   2.881236E+00  -7.729798E-02   5.616028E+03   1.290125E-03
   2.165234E-02   7.885518E-03   1.003585E-01   1.172397E-02   8.996415E-01   9.882760E-01   1.902421E-04   5.867087E-06   8.235881E-06   0.000000E+00   1.509991E+02    112  -5.097105E-04   6.488793E-04        0      599   1.509991E+02  -9.007254E-01   6.698247E-01   3.468409E+00   2.793701E+00  -7.729634E-02   5.654261E+03   1.290128E-03
   2.245484E-02   9.129565E-03   9.957215E-02   1.655723E-03   9.004278E-01   9.983443E-01   1.728032E-04   8.691714E-06   8.183492E-06   0.000000E+00   1.519991E+02    113  -1.101677E-03   1.390400E-03        0      599   1.519991E+02  -8.863237E-01   6.793808E-01   3.446467E+00   2.791166E+00  -7.729613E-02   5.692249E+03   1.290128E-03
   2.359276E-02   1.016633E-02   9.890822E-02   2.093924E-03   9.010918E-01   9.979061E-01   1.619432E-04   1.151571E-05   8.131939E-06   0.000000E+00   1.529991E+02    114  -3.273163E-03   4.099679E-03        0      599   1.529991E+02  -8.961751E-01   6.837923E-01   2.680721E+00   2.225477E+00  -7.729432E-02   5.730345E+03   1.290128E-03
   2.376623E-02   1.053328E-02   1.008854E-01   1.671903E-02   8.991146E-01   9.832810E-01   1.385829E-04   5.495638E-06   8.080170E-06   0.000000E+00   1.539991E+02    115   2.785454E-03  -3.459866E-03        0      599   1.539991E+02  -8.896162E-01   6.792570E-01   2.895524E+00   2.426695E+00  -7.729593E-02   5.767815E+03   1.290127E-03
   2.475749E-02   1.142438E-02   9.989545E-02   2.428482E-02   9.001046E-01   9.757152E-01   7.834992E-05   2.565570E-15   8.029341E-06   0.000000E+00   1.549992E+02    116   2.600040E-08  -3.088640E-08        0      599   1.549992E+02  -9.510106E-01   6.906864E-01   3.041845E+00   2.544880E+00  -7.729821E-02   5.805478E+03   1.290125E-03
   2.532965E-02   1.222425E-02   1.003483E-01   1.931671E-02   8.996517E-01   9.806833E-01   7.669447E-05   8.699276E-15   7.979370E-06   0.000000E+00   1.559992E+02    117   8.664085E-08  -1.046571E-07        0      599   1.559992E+02  -9.029338E-01   6.797446E-01   3.401125E+00   2.842796E+00  -7.729824E-02   5.843287E+03   1.290125E-03
   2.607045E-02   1.304073E-02   1.010472E-01   6.563845E-03   8.989528E-01   9.934362E-01   7.858714E-05   1.615809E-13   7.929998E-06   0.000000E+00   1.569992E+02    118   2.367098E-07  -2.832153E-07        0      599   1.569992E+02  -8.663161E-01   6.509432E-01   4.378605E+00   3.659396E+00  -7.729826E-02   5.881069E+03   1.290125E-03
   2.693307E-02   1.375404E-02   9.959329E-02   8.683200E-03   9.004067E-01   9.913168E-01   7.919137E-05   4.401773E-06   7.881854E-06   0.000000E+00   1.579992E+02    119   2.947677E-04  -4.009612E-04        0      599   1.579992E+02  -8.860526E-01   6.625568E-01   3.936941E+00   3.356304E+00  -7.729670E-02   5.919300E+03   1.290127E-03
   2.764824E-02   1.452640E-02   9.953935E-02   8.484015E-03   9.004606E-01   9.915160E-01   6.717016E-05   3.854280E-06   7.833862E-06   0.000000E+00   1.589992E+02    120   3.972567E-04  -4.832414E-04        0      599   1.589992E+02  -8.853436E-01   6.575862E-01   4.065530E+00   3.461447E+00  -7.729675E-02   5.957194E+03   1.290127E-03
   2.843606E-02   1.546139E-02   9.904687E-02   9.566144E-03   9.009531E-01   9.904339E-01   5.622983E-05   3.743537E-06   7.786553E-06   0.000000E+00   1.599992E+02    121   1.355510E-03  -1.586910E-03        0      599   1.599992E+02  -8.668189E-01   6.573036E-01   3.859005E+00   3.314543E+00  -7.729667E-02   5.995151E+03   1.290127E-03
   2.990669E-02   1.705154E-02   9.805266E-02   1.188663E-02   9.019473E-01   9.881134E-01   3.512548E-05   4.189485E-06   7.693617E-06   0.000000E+00   1.619992E+02    123   1.964362E-03  -2.261600E-03        0      599   1.619992E+02  -9.007057E-01   6.940553E-01   3.630359E+00   3.156193E+00  -7.729738E-02   6.071014E+03   1.290130E-03
   3.075786E-02   1.797044E-02   9.884408E-02   1.816071E-02   9.011559E-01   9.818393E-01   2.747247E-05   6.759479E-06   7.648160E-06   0.000000E+00   1.629992E+02    124   3.506055E-04  -4.553686E-04        0      599   1.629992E+02  -9.059083E-01   6.908991E-01   3.539231E+00   3.078026E+00  -7.729707E-02   6.109071E+03   1.290127E-03
   3.128324E-02   1.835948E-02   9.911704E-02   1.044761E-02   9.008830E-01   9.895524E-01   1.828988E-05   2.090954E-06   7.602829E-06   0.000000E+00   1.639992E+02    125  -7.072917E-04   8.244903E-04        0      599   1.639992E+02  -8.654615E-01   6.308688E-01   4.546753E+00   3.999018E+00  -7.729848E-02   6.146783E+03   1.290129E-03
   3.217081E-02   1.924347E-02   9.632943E-02   1.438930E-03   9.036706E-01   9.985611E-01   1.203497E-05   1.207238E-06   7.558534E-06   0.000000E+00   1.649992E+02    126   2.838604E-03  -3.240806E-03        0      599   1.649992E+02  -8.827644E-01   5.890490E-01   2.873602E+00   2.546107E+00  -7.729798E-02   6.184890E+03   1.290130E-03
   3.308328E-02   2.012740E-02   1.000355E-01   2.229702E-02   8.999645E-01   9.777030E-01   6.230338E-06   4.495761E-06   7.514913E-06   0.000000E+00   1.659992E+02    127   9.262951E-04  -1.034284E-03        0      599   1.659992E+02  -1.023114E+00   5.537212E-01   3.476977E+00   3.086363E+00  -7.729663E-02   6.223115E+03   1.290125E-03
