Data generated by searchCO 
'OBJET'                                                                                                      1                      
0.14008655052543029e3     ! 42 MeV total  41.489003 MeV kin                                                                         
2                                                                                                                                    
128  1
 -1.176170E+00  -1.230510E+02   0.0E+00   0.0E+00   0.0E+00   9.52373730E-01 '1'        39.489002 MeV      1
 -1.204260E+00  -1.212928E+02   0.0E+00   0.0E+00   0.0E+00   9.76186880E-01 '1'        40.489001 MeV      2
 -1.230795E+00  -1.195508E+02   0.0E+00   0.0E+00   0.0E+00   9.99999970E-01 '1'        41.489001 MeV      3
 -1.255793E+00  -1.178246E+02   0.0E+00   0.0E+00   0.0E+00   1.02381300E+00 '1'        42.489002 MeV      4
 -1.279283E+00  -1.161143E+02   0.0E+00   0.0E+00   0.0E+00   1.04762590E+00 '1'        43.489001 MeV      5
 -1.301286E+00  -1.144196E+02   0.0E+00   0.0E+00   0.0E+00   1.07143880E+00 '1'        44.489003 MeV      6
 -1.321818E+00  -1.127403E+02   0.0E+00   0.0E+00   0.0E+00   1.09525160E+00 '1'        45.489003 MeV      7
 -1.340907E+00  -1.110765E+02   0.0E+00   0.0E+00   0.0E+00   1.11906430E+00 '1'        46.489002 MeV      8
 -1.358579E+00  -1.094279E+02   0.0E+00   0.0E+00   0.0E+00   1.14287690E+00 '1'        47.488999 MeV      9
 -1.374853E+00  -1.077943E+02   0.0E+00   0.0E+00   0.0E+00   1.16668950E+00 '1'        48.488999 MeV     10
 -1.389745E+00  -1.061756E+02   0.0E+00   0.0E+00   0.0E+00   1.19050210E+00 '1'        49.489001 MeV     11
 -1.403268E+00  -1.045714E+02   0.0E+00   0.0E+00   0.0E+00   1.21431460E+00 '1'        50.489001 MeV     12
 -1.415440E+00  -1.029814E+02   0.0E+00   0.0E+00   0.0E+00   1.23812710E+00 '1'        51.489003 MeV     13
 -1.426277E+00  -1.014053E+02   0.0E+00   0.0E+00   0.0E+00   1.26193950E+00 '1'        52.489002 MeV     14
 -1.435796E+00  -9.984297E+01   0.0E+00   0.0E+00   0.0E+00   1.28575190E+00 '1'        53.489003 MeV     15
 -1.444013E+00  -9.829415E+01   0.0E+00   0.0E+00   0.0E+00   1.30956420E+00 '1'        54.489002 MeV     16
 -1.450967E+00  -9.675949E+01   0.0E+00   0.0E+00   0.0E+00   1.33337650E+00 '1'        55.489002 MeV     17
 -1.456659E+00  -9.523810E+01   0.0E+00   0.0E+00   0.0E+00   1.35718870E+00 '1'        56.489000 MeV     18
 -1.461106E+00  -9.372997E+01   0.0E+00   0.0E+00   0.0E+00   1.38100100E+00 '1'        57.489003 MeV     19
 -1.464314E+00  -9.223454E+01   0.0E+00   0.0E+00   0.0E+00   1.40481320E+00 '1'        58.489003 MeV     20
 -1.466295E+00  -9.075160E+01   0.0E+00   0.0E+00   0.0E+00   1.42862530E+00 '1'        59.489000 MeV     21
 -1.467062E+00  -8.928089E+01   0.0E+00   0.0E+00   0.0E+00   1.45243750E+00 '1'        60.489003 MeV     22
 -1.466604E+00  -8.782132E+01   0.0E+00   0.0E+00   0.0E+00   1.47624960E+00 '1'        61.489003 MeV     23
 -1.464996E+00  -8.637501E+01   0.0E+00   0.0E+00   0.0E+00   1.50006160E+00 '1'        62.488999 MeV     24
 -1.462210E+00  -8.494013E+01   0.0E+00   0.0E+00   0.0E+00   1.52387370E+00 '1'        63.489001 MeV     25
 -1.458264E+00  -8.351672E+01   0.0E+00   0.0E+00   0.0E+00   1.54768570E+00 '1'        64.489000 MeV     26
 -1.453165E+00  -8.210452E+01   0.0E+00   0.0E+00   0.0E+00   1.57149770E+00 '1'        65.488999 MeV     27
 -1.446930E+00  -8.070352E+01   0.0E+00   0.0E+00   0.0E+00   1.59530970E+00 '1'        66.489000 MeV     28
 -1.439568E+00  -7.931341E+01   0.0E+00   0.0E+00   0.0E+00   1.61912170E+00 '1'        67.489001 MeV     29
 -1.431088E+00  -7.793395E+01   0.0E+00   0.0E+00   0.0E+00   1.64293370E+00 '1'        68.489003 MeV     30
 -1.421499E+00  -7.656494E+01   0.0E+00   0.0E+00   0.0E+00   1.66674560E+00 '1'        69.489002 MeV     31
 -1.410813E+00  -7.520622E+01   0.0E+00   0.0E+00   0.0E+00   1.69055750E+00 '1'        70.489001 MeV     32
 -1.399036E+00  -7.385759E+01   0.0E+00   0.0E+00   0.0E+00   1.71436940E+00 '1'        71.489002 MeV     33
 -1.386180E+00  -7.251881E+01   0.0E+00   0.0E+00   0.0E+00   1.73818130E+00 '1'        72.489003 MeV     34
 -1.372259E+00  -7.118991E+01   0.0E+00   0.0E+00   0.0E+00   1.76199310E+00 '1'        73.489000 MeV     35
 -1.357272E+00  -6.987051E+01   0.0E+00   0.0E+00   0.0E+00   1.78580500E+00 '1'        74.489002 MeV     36
 -1.341233E+00  -6.856051E+01   0.0E+00   0.0E+00   0.0E+00   1.80961680E+00 '1'        75.489001 MeV     37
 -1.324153E+00  -6.725978E+01   0.0E+00   0.0E+00   0.0E+00   1.83342860E+00 '1'        76.489000 MeV     38
 -1.306038E+00  -6.596818E+01   0.0E+00   0.0E+00   0.0E+00   1.85724040E+00 '1'        77.489000 MeV     39
 -1.286890E+00  -6.468532E+01   0.0E+00   0.0E+00   0.0E+00   1.88105220E+00 '1'        78.489001 MeV     40
 -1.266727E+00  -6.341131E+01   0.0E+00   0.0E+00   0.0E+00   1.90486400E+00 '1'        79.489002 MeV     41
 -1.245544E+00  -6.214572E+01   0.0E+00   0.0E+00   0.0E+00   1.92867580E+00 '1'        80.489003 MeV     42
 -1.223355E+00  -6.088862E+01   0.0E+00   0.0E+00   0.0E+00   1.95248750E+00 '1'        81.489001 MeV     43
 -1.200176E+00  -5.963994E+01   0.0E+00   0.0E+00   0.0E+00   1.97629930E+00 '1'        82.489003 MeV     44
 -1.175999E+00  -5.839922E+01   0.0E+00   0.0E+00   0.0E+00   2.00011100E+00 '1'        83.489002 MeV     45
 -1.150850E+00  -5.716687E+01   0.0E+00   0.0E+00   0.0E+00   2.02392270E+00 '1'        84.489001 MeV     46
 -1.124723E+00  -5.594231E+01   0.0E+00   0.0E+00   0.0E+00   2.04773440E+00 '1'        85.489001 MeV     47
 -1.097621E+00  -5.472535E+01   0.0E+00   0.0E+00   0.0E+00   2.07154610E+00 '1'        86.489001 MeV     48
 -1.069550E+00  -5.351599E+01   0.0E+00   0.0E+00   0.0E+00   2.09535780E+00 '1'        87.489001 MeV     49
 -1.040546E+00  -5.231453E+01   0.0E+00   0.0E+00   0.0E+00   2.11916950E+00 '1'        88.489002 MeV     50
 -1.010591E+00  -5.112043E+01   0.0E+00   0.0E+00   0.0E+00   2.14298120E+00 '1'        89.489003 MeV     51
 -9.796819E-01  -4.993347E+01   0.0E+00   0.0E+00   0.0E+00   2.16679280E+00 '1'        90.489000 MeV     52
 -9.478620E-01  -4.875408E+01   0.0E+00   0.0E+00   0.0E+00   2.19060450E+00 '1'        91.489002 MeV     53
 -9.150895E-01  -4.758136E+01   0.0E+00   0.0E+00   0.0E+00   2.21441610E+00 '1'        92.489000 MeV     54
 -8.814221E-01  -4.641614E+01   0.0E+00   0.0E+00   0.0E+00   2.23822780E+00 '1'        93.489002 MeV     55
 -8.468526E-01  -4.525805E+01   0.0E+00   0.0E+00   0.0E+00   2.26203940E+00 '1'        94.489001 MeV     56
 -8.113492E-01  -4.410630E+01   0.0E+00   0.0E+00   0.0E+00   2.28585100E+00 '1'        95.489000 MeV     57
 -7.749789E-01  -4.296193E+01   0.0E+00   0.0E+00   0.0E+00   2.30966270E+00 '1'        96.489003 MeV     58
 -7.376978E-01  -4.182385E+01   0.0E+00   0.0E+00   0.0E+00   2.33347430E+00 '1'        97.489003 MeV     59
 -6.995561E-01  -4.069284E+01   0.0E+00   0.0E+00   0.0E+00   2.35728590E+00 '1'        98.489002 MeV     60
 -6.605267E-01  -3.956824E+01   0.0E+00   0.0E+00   0.0E+00   2.38109750E+00 '1'        99.489002 MeV     61
 -6.206531E-01  -3.845052E+01   0.0E+00   0.0E+00   0.0E+00   2.40490910E+00 '1'       100.489003 MeV     62
 -5.798978E-01  -3.733894E+01   0.0E+00   0.0E+00   0.0E+00   2.42872070E+00 '1'       101.489003 MeV     63
 -5.383198E-01  -3.623421E+01   0.0E+00   0.0E+00   0.0E+00   2.45253220E+00 '1'       102.489000 MeV     64
 -4.958886E-01  -3.513576E+01   0.0E+00   0.0E+00   0.0E+00   2.47634380E+00 '1'       103.489001 MeV     65
 -4.526327E-01  -3.404380E+01   0.0E+00   0.0E+00   0.0E+00   2.50015540E+00 '1'       104.489002 MeV     66
 -4.085499E-01  -3.295814E+01   0.0E+00   0.0E+00   0.0E+00   2.52396700E+00 '1'       105.489003 MeV     67
 -3.636627E-01  -3.187897E+01   0.0E+00   0.0E+00   0.0E+00   2.54777850E+00 '1'       106.489001 MeV     68
 -3.179600E-01  -3.080596E+01   0.0E+00   0.0E+00   0.0E+00   2.57159010E+00 '1'       107.489003 MeV     69
 -2.714819E-01  -2.973953E+01   0.0E+00   0.0E+00   0.0E+00   2.59540160E+00 '1'       108.489001 MeV     70
 -2.241862E-01  -2.867888E+01   0.0E+00   0.0E+00   0.0E+00   2.61921320E+00 '1'       109.489003 MeV     71
 -1.761573E-01  -2.762520E+01   0.0E+00   0.0E+00   0.0E+00   2.64302470E+00 '1'       110.489001 MeV     72
 -1.273143E-01  -2.657697E+01   0.0E+00   0.0E+00   0.0E+00   2.66683620E+00 '1'       111.489000 MeV     73
 -7.776510E-02  -2.553579E+01   0.0E+00   0.0E+00   0.0E+00   2.69064780E+00 '1'       112.489003 MeV     74
 -2.742631E-02  -2.450017E+01   0.0E+00   0.0E+00   0.0E+00   2.71445930E+00 '1'       113.489002 MeV     75
  2.361055E-02  -2.347138E+01   0.0E+00   0.0E+00   0.0E+00   2.73827080E+00 '1'       114.489001 MeV     76
  7.540211E-02  -2.244834E+01   0.0E+00   0.0E+00   0.0E+00   2.76208230E+00 '1'       115.489000 MeV     77
  1.278899E-01  -2.143184E+01   0.0E+00   0.0E+00   0.0E+00   2.78589390E+00 '1'       116.489003 MeV     78
  1.810844E-01  -2.042152E+01   0.0E+00   0.0E+00   0.0E+00   2.80970540E+00 '1'       117.489003 MeV     79
  2.349789E-01  -1.941735E+01   0.0E+00   0.0E+00   0.0E+00   2.83351690E+00 '1'       118.489003 MeV     80
  2.895412E-01  -1.841962E+01   0.0E+00   0.0E+00   0.0E+00   2.85732840E+00 '1'       119.489003 MeV     81
  3.447807E-01  -1.742806E+01   0.0E+00   0.0E+00   0.0E+00   2.88113990E+00 '1'       120.489003 MeV     82
  4.006803E-01  -1.644277E+01   0.0E+00   0.0E+00   0.0E+00   2.90495140E+00 '1'       121.489003 MeV     83
  4.572143E-01  -1.546390E+01   0.0E+00   0.0E+00   0.0E+00   2.92876290E+00 '1'       122.489003 MeV     84
  5.143906E-01  -1.449127E+01   0.0E+00   0.0E+00   0.0E+00   2.95257440E+00 '1'       123.489003 MeV     85
  5.721889E-01  -1.352496E+01   0.0E+00   0.0E+00   0.0E+00   2.97638580E+00 '1'       124.489000 MeV     86
  6.305804E-01  -1.256521E+01   0.0E+00   0.0E+00   0.0E+00   3.00019730E+00 '1'       125.489001 MeV     87
  6.895933E-01  -1.161156E+01   0.0E+00   0.0E+00   0.0E+00   3.02400880E+00 '1'       126.489001 MeV     88
  7.491746E-01  -1.066451E+01   0.0E+00   0.0E+00   0.0E+00   3.04782030E+00 '1'       127.489002 MeV     89
  8.093179E-01  -9.723964E+00   0.0E+00   0.0E+00   0.0E+00   3.07163180E+00 '1'       128.489004 MeV     90
  8.700452E-01  -8.789633E+00   0.0E+00   0.0E+00   0.0E+00   3.09544320E+00 '1'       129.489001 MeV     91
  9.312982E-01  -7.861955E+00   0.0E+00   0.0E+00   0.0E+00   3.11925470E+00 '1'       130.489002 MeV     92
  9.930732E-01  -6.940890E+00   0.0E+00   0.0E+00   0.0E+00   3.14306620E+00 '1'       131.489003 MeV     93
  1.055402E+00  -6.026008E+00   0.0E+00   0.0E+00   0.0E+00   3.16687760E+00 '1'       132.489001 MeV     94
  1.118211E+00  -5.117920E+00   0.0E+00   0.0E+00   0.0E+00   3.19068910E+00 '1'       133.489002 MeV     95
  1.181492E+00  -4.216651E+00   0.0E+00   0.0E+00   0.0E+00   3.21450050E+00 '1'       134.489000 MeV     96
  1.245301E+00  -3.321464E+00   0.0E+00   0.0E+00   0.0E+00   3.23831200E+00 '1'       135.489002 MeV     97
  1.309550E+00  -2.433156E+00   0.0E+00   0.0E+00   0.0E+00   3.26212350E+00 '1'       136.489004 MeV     98
  1.374231E+00  -1.551734E+00   0.0E+00   0.0E+00   0.0E+00   3.28593490E+00 '1'       137.489002 MeV     99
  1.439387E+00  -6.765591E-01   0.0E+00   0.0E+00   0.0E+00   3.30974630E+00 '1'       138.489000 MeV    100
  1.504946E+00   1.916777E-01   0.0E+00   0.0E+00   0.0E+00   3.33355780E+00 '1'       139.489002 MeV    101
  1.570916E+00   1.053198E+00   0.0E+00   0.0E+00   0.0E+00   3.35736920E+00 '1'       140.489000 MeV    102
  1.637293E+00   1.908059E+00   0.0E+00   0.0E+00   0.0E+00   3.38118070E+00 '1'       141.489003 MeV    103
  1.704041E+00   2.756014E+00   0.0E+00   0.0E+00   0.0E+00   3.40499210E+00 '1'       142.489001 MeV    104
  1.771163E+00   3.597249E+00   0.0E+00   0.0E+00   0.0E+00   3.42880360E+00 '1'       143.489004 MeV    105
  1.838636E+00   4.431615E+00   0.0E+00   0.0E+00   0.0E+00   3.45261500E+00 '1'       144.489002 MeV    106
  1.906463E+00   5.259249E+00   0.0E+00   0.0E+00   0.0E+00   3.47642640E+00 '1'       145.489001 MeV    107
  1.974612E+00   6.080002E+00   0.0E+00   0.0E+00   0.0E+00   3.50023790E+00 '1'       146.489004 MeV    108
  2.043077E+00   6.893911E+00   0.0E+00   0.0E+00   0.0E+00   3.52404930E+00 '1'       147.489003 MeV    109
  2.111872E+00   7.701180E+00   0.0E+00   0.0E+00   0.0E+00   3.54786070E+00 '1'       148.489002 MeV    110
  2.180896E+00   8.501017E+00   0.0E+00   0.0E+00   0.0E+00   3.57167210E+00 '1'       149.489001 MeV    111
  2.250207E+00   9.294028E+00   0.0E+00   0.0E+00   0.0E+00   3.59548360E+00 '1'       150.489004 MeV    112
  2.319783E+00   1.008020E+01   0.0E+00   0.0E+00   0.0E+00   3.61929500E+00 '1'       151.489003 MeV    113
  2.389619E+00   1.085952E+01   0.0E+00   0.0E+00   0.0E+00   3.64310640E+00 '1'       152.489002 MeV    114
  2.459589E+00   1.163097E+01   0.0E+00   0.0E+00   0.0E+00   3.66691780E+00 '1'       153.489001 MeV    115
  2.529765E+00   1.239529E+01   0.0E+00   0.0E+00   0.0E+00   3.69072920E+00 '1'       154.489001 MeV    116
  2.600081E+00   1.315201E+01   0.0E+00   0.0E+00   0.0E+00   3.71454060E+00 '1'       155.489000 MeV    117
  2.670516E+00   1.390108E+01   0.0E+00   0.0E+00   0.0E+00   3.73835210E+00 '1'       156.489004 MeV    118
  2.740865E+00   1.464066E+01   0.0E+00   0.0E+00   0.0E+00   3.76216350E+00 '1'       157.489003 MeV    119
  2.811133E+00   1.537092E+01   0.0E+00   0.0E+00   0.0E+00   3.78597490E+00 '1'       158.489003 MeV    120
  2.881155E+00   1.609046E+01   0.0E+00   0.0E+00   0.0E+00   3.80978630E+00 '1'       159.489003 MeV    121
  2.950747E+00   1.679771E+01   0.0E+00   0.0E+00   0.0E+00   3.83359770E+00 '1'       160.489002 MeV    122
  3.019543E+00   1.748940E+01   0.0E+00   0.0E+00   0.0E+00   3.85740910E+00 '1'       161.489002 MeV    123
  3.087233E+00   1.816291E+01   0.0E+00   0.0E+00   0.0E+00   3.88122050E+00 '1'       162.489002 MeV    124
  3.153421E+00   1.881462E+01   0.0E+00   0.0E+00   0.0E+00   3.90503190E+00 '1'       163.489002 MeV    125
  3.217768E+00   1.944201E+01   0.0E+00   0.0E+00   0.0E+00   3.92884330E+00 '1'       164.489002 MeV    126
  3.280150E+00   2.004363E+01   0.0E+00   0.0E+00   0.0E+00   3.95265470E+00 '1'       165.489002 MeV    127
  3.416144E+00   2.129294E+01   0.0E+00   0.0E+00   0.0E+00   3.97646610E+00 '1'       166.489002 MeV    128
 1 1 1 1 1 1 1 1 1 1  1 1 1 1 1 1 1 1 1 1
 1 1 1 1 1 1 1 1 1 1  1 1 1 1 1 1 1 1 1 1
 1 1 1 1 1 1 1 1 1 1  1 1 1 1 1 1 1 1 1 1
 1 1 1 1 1 1 1 1 1 1  1 1 1 1 1 1 1 1 1 1
 1 1 1 1 1 1 1 1 1 1  1 1 1 1 1 1 1 1 1 1
 1 1 1 1 1 1 1 1 1 1  1 1 1 1 1 1 1 1 1 1
 1 1 1 1 1 1 1 1 1 1  1 1 1 1 1 1 1 1 1 1
  
 'PARTICUL'                                                                                                   2
 0.51099892 1.60217653e-19 1.15965218076e-3 0.0 0.0
  
 !'FAISTORE'                                                                                                   3
 !zgoubi.fai
 !1
  
 'DRIFT'  ! corrctn for 6.15cm distance (vs. HD2=6) from map entrance to QF entrance EFB                      3
 -0.15
  
 'TOSCA'   QF+BD     !  Distance from map entr. to QF EFB is 6.15cm. Map length is 45cm.                      4
 0  0
 -9.69871600E-04  1.00000000E+00  1.00000000E+00  1.00000000E+00
 HEADER_8  ZroBXY     ! R=509.6292823  -> Rtan5deg+.15=44.5867848021+.15=44.7367848021
 451 83 27 15.1  1.
 b_3cell_mod_withIronCorr_x=+-4p1_y+1p3_z=0+45cm_step=1mm_Int.table
 1  482.028259 42.1720085 -20328.0996     ! stop integration at end of cell
 2
 .2
 2   0.00000000E+00  0.00000000E+00  0.00000000E+00
 'DRIFT'                                                                                                      5
 0.
 !  Cell-end X in map =    42.0162888    => XS=45-42.0162888=
 !  Cell-end Y in map =   -1.77989459
  
 'FAISCEAU'                                                                                                   6
 'CHANGREF'                                                                                                   7
 XS  -0.65863451 YS  -3.20614352 ZR  -5.00000000
  
 'CHANGREF'                                                                                                   8
 YS   1.20472887
  
 'MARKER'  dum  .plt                                                                                          9
  
 'FAISCEAU'                                                                                                  10
 'REBELOTE'
 199   0.2  99
 'END'
